{
    "DU": 321,
    "DV": 199,
    "F-measure": 0.7829698857736241,
    "F-measure Chroma": 0.8805815160955348,
    "FN": 57,
    "FNC": 11,
    "FNCch": 20,
    "FNI": 46,
    "FNIch": 37,
    "FP": 20,
    "GU": 284,
    "GV": 236,
    "Overall Accuracy": 0.725,
    "Overall Chroma Accuracy": 0.8153846153846154,
    "Precision": 0.8142548596112311,
    "Precision Chroma": 0.9157667386609071,
    "Raw Chroma Accuracy": 0.7627118644067796,
    "Raw Pitch Accuracy": 0.5254237288135594,
    "Recall": 0.754,
    "Recall Chroma": 0.848,
    "TN": 264,
    "TO": 520,
    "TP": 179,
    "TPC": 113,
    "TPCch": 160,
    "TPI": 66,
    "TPIch": 19,
    "Voiced Chroma Accuracy": 0.6779661016949152,
    "Voiced Pitch Accuracy": 0.4788135593220339,
    "Voicing Accuracy": 0.8519230769230769,
    "Voicing Detection": 0.7584745762711864,
    "Voicing False Alarm": 0.07042253521126761
}