{
    "DU": 8,
    "DV": 303,
    "F-measure": 0.6344086021505376,
    "F-measure Chroma": 0.7992831541218639,
    "FN": 2,
    "FNC": 0,
    "FNCch": 0,
    "FNI": 2,
    "FNIch": 2,
    "FP": 62,
    "GU": 68,
    "GV": 243,
    "Overall Accuracy": 0.5691318327974276,
    "Overall Chroma Accuracy": 0.7170418006430869,
    "Precision": 0.5728155339805825,
    "Precision Chroma": 0.7216828478964401,
    "Raw Chroma Accuracy": 0.8930041152263375,
    "Raw Pitch Accuracy": 0.7037037037037037,
    "Recall": 0.7108433734939759,
    "Recall Chroma": 0.8955823293172691,
    "TN": 6,
    "TO": 311,
    "TP": 241,
    "TPC": 171,
    "TPCch": 217,
    "TPI": 70,
    "TPIch": 24,
    "Voiced Chroma Accuracy": 0.8930041152263375,
    "Voiced Pitch Accuracy": 0.7037037037037037,
    "Voicing Accuracy": 0.7942122186495176,
    "Voicing Detection": 0.9917695473251029,
    "Voicing False Alarm": 0.9117647058823529
}