{
    "DU": 186,
    "DV": 157,
    "F-measure": 0.627177700348432,
    "F-measure Chroma": 0.7282229965156793,
    "FN": 99,
    "FNC": 18,
    "FNCch": 50,
    "FNI": 81,
    "FNIch": 49,
    "FP": 13,
    "GU": 100,
    "GV": 243,
    "Overall Accuracy": 0.5247813411078717,
    "Overall Chroma Accuracy": 0.60932944606414,
    "Precision": 0.7377049180327869,
    "Precision Chroma": 0.8565573770491803,
    "Raw Chroma Accuracy": 0.7078189300411523,
    "Raw Pitch Accuracy": 0.4567901234567901,
    "Recall": 0.5454545454545454,
    "Recall Chroma": 0.6333333333333333,
    "TN": 87,
    "TO": 343,
    "TP": 144,
    "TPC": 93,
    "TPCch": 122,
    "TPI": 51,
    "TPIch": 22,
    "Voiced Chroma Accuracy": 0.5020576131687243,
    "Voiced Pitch Accuracy": 0.38271604938271603,
    "Voicing Accuracy": 0.673469387755102,
    "Voicing Detection": 0.5925925925925926,
    "Voicing False Alarm": 0.13
}