{
    "DU": 219,
    "DV": 189,
    "F-measure": 0.6902654867256638,
    "F-measure Chroma": 0.7758112094395281,
    "FN": 97,
    "FNC": 33,
    "FNCch": 54,
    "FNI": 64,
    "FNIch": 43,
    "FP": 41,
    "GU": 163,
    "GV": 245,
    "Overall Accuracy": 0.5735294117647058,
    "Overall Chroma Accuracy": 0.6446078431372549,
    "Precision": 0.752411575562701,
    "Precision Chroma": 0.8456591639871383,
    "Raw Chroma Accuracy": 0.7959183673469388,
    "Raw Pitch Accuracy": 0.5918367346938775,
    "Recall": 0.6376021798365122,
    "Recall Chroma": 0.7166212534059946,
    "TN": 122,
    "TO": 408,
    "TP": 148,
    "TPC": 112,
    "TPCch": 141,
    "TPI": 36,
    "TPIch": 7,
    "Voiced Chroma Accuracy": 0.5755102040816327,
    "Voiced Pitch Accuracy": 0.45714285714285713,
    "Voicing Accuracy": 0.6617647058823529,
    "Voicing Detection": 0.6040816326530613,
    "Voicing False Alarm": 0.25153374233128833
}