{
    "DU": 271,
    "DV": 281,
    "F-measure": 0.529608938547486,
    "F-measure Chroma": 0.6569832402234635,
    "FN": 168,
    "FNC": 46,
    "FNCch": 105,
    "FNI": 122,
    "FNIch": 63,
    "FP": 41,
    "GU": 144,
    "GV": 408,
    "Overall Accuracy": 0.42934782608695654,
    "Overall Chroma Accuracy": 0.532608695652174,
    "Precision": 0.6171875,
    "Precision Chroma": 0.765625,
    "Raw Chroma Accuracy": 0.7254901960784313,
    "Raw Pitch Accuracy": 0.4411764705882353,
    "Recall": 0.4637964774951076,
    "Recall Chroma": 0.5753424657534246,
    "TN": 103,
    "TO": 552,
    "TP": 240,
    "TPC": 134,
    "TPCch": 191,
    "TPI": 106,
    "TPIch": 49,
    "Voiced Chroma Accuracy": 0.4681372549019608,
    "Voiced Pitch Accuracy": 0.3284313725490196,
    "Voicing Accuracy": 0.6213768115942029,
    "Voicing Detection": 0.5882352941176471,
    "Voicing False Alarm": 0.2847222222222222
}