{
    "DU": 109,
    "DV": 203,
    "F-measure": 0.7083333333333334,
    "F-measure Chroma": 0.8680555555555557,
    "FN": 25,
    "FNC": 3,
    "FNCch": 10,
    "FNI": 22,
    "FNIch": 15,
    "FP": 23,
    "GU": 107,
    "GV": 205,
    "Overall Accuracy": 0.6538461538461539,
    "Overall Chroma Accuracy": 0.8012820512820513,
    "Precision": 0.710801393728223,
    "Precision Chroma": 0.8710801393728222,
    "Raw Chroma Accuracy": 0.8585365853658536,
    "Raw Pitch Accuracy": 0.6,
    "Recall": 0.7058823529411765,
    "Recall Chroma": 0.8650519031141869,
    "TN": 84,
    "TO": 312,
    "TP": 180,
    "TPC": 120,
    "TPCch": 166,
    "TPI": 60,
    "TPIch": 14,
    "Voiced Chroma Accuracy": 0.8097560975609757,
    "Voiced Pitch Accuracy": 0.5853658536585366,
    "Voicing Accuracy": 0.8461538461538461,
    "Voicing Detection": 0.8780487804878049,
    "Voicing False Alarm": 0.21495327102803738
}