{
	"f0": [NaN,64.57969783,64.49560593,64.49747921,65.3108577,65.02032501,65.49547033,65.37860707,65.30567483,65.75941882,65.2960319,65.38098694,65.40427943,65.32832502,65.17688252,64.57252215,62.38996919,50.18037525,49.52483579,46.14714559,45.81154502,53.0660491,64.83733511,64.90488052,64.9422362,64.75537607,64.88637054,65.21669188,65.27067734,65.16953243,65.07885918,65.05977942,65.03192068,64.99088298,64.96533011,65.06691468,65.09680913,65.06316342,65.11070219,65.14852514,65.12988964,65.40406147,67.25326665,66.02019082,65.4536026,65.37910349,65.4235889,65.43151066,65.30743838,65.26248797,65.32448019,65.44217911,66.1002238,66.79729349,66.9224708,63.80742541,66.49143186,67.0383193,66.99244932,66.80062301,67.04680204,67.40338544,67.98837996,67.51589904,68.11825326,68.42275874,68.52694686,68.32662926,68.09012842,67.82281789,68.14458225,68.16558937,68.30931734,68.34523677,68.37433898,68.42907453,68.47953114,68.46101053,68.42947613,68.46879933,68.37239414,67.87961149,67.13539465,57.86945827,50.50789383,50.80781824,47.85851536,67.09721932,67.05109091,67.0036972,66.88073604,66.84752704,66.86024433,67.03002484,67.10915603,67.10576143,67.26214732,67.18437313,67.03107906,67.03013775,67.02375809,66.98302614,66.97245732,66.957636,66.84044914,66.36240386,64.89921696,65.58120462,65.91892333,65.38694173,65.15302025,65.06494135,64.93052987,64.78268463,64.66815577,64.71492413,64.91443742,65.03266851,65.26592647,65.28780514,65.1710991,65.41841071,65.35864128,65.11177337,64.60552045,63.45899277,61.4793794,38.23478066,38.65155535,44.46727057,49.52483579,36.38910538,61.83677829,62.91416872,62.80642484,62.72017556,62.25110725,61.53739181,61.76447079,61.90763378,62.07155764,62.08526103,62.28162662,62.20093676,62.10999468,62.10475672,62.05464969,61.840716,61.1993909,61.10517784,61.75114098,62.33835889,61.87753739,61.83830027,61.15591331,63.01838323,62.52699501,62.26256269,61.76984522,61.65417789,61.73232847,62.43541739,62.78692585,62.8584664,62.94448763,63.07446838,63.12892764,63.05565152,63.02118082,62.87430372,62.71119248,62.74284591,62.73078764,62.67144441,62.77601728,62.91431369,62.99280622,63.02459813,63.01146065,63.00693333,63.05552251,63.07554132,63.08711073,63.09046683,63.07030536,63.01802308,62.96945936,63.08198315,63.06814208,63.02650611,63.05960801,63.07400364,63.04460861,63.03170544,63.02963564,62.98274813,63.00373747,63.01506829,63.0832455,63.26080913,63.27886812,63.51208788,63.74319178,63.67911933,63.59277267,63.70133007,63.65811218,63.57246557,63.72170839,64.79126608,64.88807989,65.22762414,65.40349237,65.2103506,65.3108577,64.68922891,64.68151633,64.9177132,63.71548241,64.24637308,64.97646184,64.67514297,63.80046248,63.4456926,63.14795915,62.95203003,62.88948206,62.76701188,62.94842214,63.10379214,63.07972668,62.95785461,63.08430182,63.20965518,63.23330988,63.25755693,63.31077777,63.27710658,63.31833959,63.34443034,63.28295617,63.2356406,63.16996142,63.13610103,63.05410941,62.93440756,62.90587702,62.92608233,63.01943004,63.08271478,63.14399075,63.14399075,62.10691693,73.86920344,74.91677744,56.19056956,50.67835314,63.48682058,63.18151309,63.0558391,61.98111482,54.60569995,65.36030365,61.45462504,61.28993371,49.51501321,49.53820038,49.43888636,49.23325991,42.39581034,54.64431,54.70419937,46.69598643,59.21309485,58.40906542,56.69965447,53.02987703,57.02021876,61.23849305,62.80781824,62.80781824,62.09972008,39.09169966,39.3726166,46.66599091,47.34887861,51.68043144,64.19491084,64.3197788,64.84662264,64.97994699,64.55675711,64.39506734,65.08326731,65.01079176,64.79638723,64.72863898,64.88459435,65.39675993,66.10127217,66.6525917,66.94141549,67.0367624,66.86317814,66.73828711,66.62518268,66.50078574,66.56249156,66.62891138,66.86061433,66.92593262,66.90104877,66.92246054,68.69965447,46.90322786,47.49023009,66.39531401,67.32470234,67.39039821,67.29581884,67.03917753,67.07508459,67.03015538,67.05568387,67.16123909,67.17796549,67.25296309,60.28882897,47.75565382,47.57862589,69.77337687,67.79376026,67.66621763,67.36340667,67.03601319,67.22961707,67.40807024,67.60036246,67.70509972,67.69475358,67.93861848,68.15543085,67.83733468,67.64937374,67.67825499,67.66572902,67.64221292,67.80451489,67.96307171,67.81354602,67.19828243,66.85023485,66.78365934,66.52609213,66.09008081,65.91189883,65.91976875,66.15354558,66.25117302,66.30004833,66.38881362,66.6186592,66.39140634,65.86624542,65.53745573,65.34207683,65.11392502,64.81002503,64.51734928,64.31576991,64.30617941,64.33425484,64.29465026,64.31416168,64.32825206,64.25239403,64.24198671,64.3508993,64.41447994,64.34803746,64.12599861,63.5026614,62.4780494,61.645728,61.32340653,61.33041142,62.81658696,62.9088131,62.88106844,62.5239612,61.93286739,62.03259475,62.06580239,61.81895632,61.83050142,62.0039266,61.89797094,60.0028405,58.11114876,58.56217315,49.0968928,49.52504692,49.83677829,43.00184486,60.8251073,62.36787422,62.14018244,61.86164423,61.42644843,60.91732291,60.26591215,60.79354513,60.88540908,51.35755535,61.82547427,61.73379632,61.71780412,61.83677829,64.41561789,68.29313253,68.43891295,68.4231447,68.24349864,67.81474034,68.32863459,68.68970731,69.19268699,69.41626658,69.65277489,69.78945974,69.63750427,69.62142395,69.66381892,69.25310291,68.24736842,65.62887703,54.52950318,66.72245287,66.86872109,66.19555028,65.54485378,65.49054693,65.48189995,65.49964416,65.50914882,65.7189809,65.76843208,65.77568211,65.62191012,65.42045556,65.27357732,65.01921527,64.7179803,64.39294367,64.3807105,64.48249196,64.48299035,64.56775343,64.46222364,64.39094784,64.3504273,64.36191931,64.40023396,64.28383285,64.03139595,63.327735,62.4780494,67.34995772,50.03267106,61.38496537,62.70015152,62.66624327,62.58298649,62.31307156,61.71580154,61.86787405,62.13636689,62.29826182,62.76456425,63.20482603,63.54885615,62.05636892,61.89746069,62.4780494,62.53657349,50.20526487,62.03194495,63.51022406,63.83657672,62.46238722,57.66169865,56.97063926,46.92702463,44.56454935,60.22570571,57.17399484,56.23796469,55.56772588,55.73517706,56.60328462,56.91856159,57.15565539,51.14399075,48.6362113,46.9446811,58.31273759,55.13489482,54.9224708,54.77850323,55.62065901,56.13568898,56.93520015,57.5013621,57.67936156,58.11062865,58.23652556,58.33141269,59.36719692,60.33040771,59.48573577,59.48573577,60.33040771,59.98601762,59.76273913,60.33040771,60.71931219,61.83171774,61.05232027,61.13636386,61.56809421,62.04947552,62.3181688,62.47777786,62.08222507,61.80439504,61.79349025,62.15444483,61.50090514,62.50333205,62.74310887,62.77205258,62.69468399,62.42667845,62.48112348,62.59208441,62.52793502,62.0942372,61.84062198,62.39388434,62.59302389,62.68503142,62.6345771,62.54374764,62.50218417,62.43425707,62.35966421,62.22738093,61.82227552,61.39822288,60.18793549,58.92039406,58.18453907,57.79555912,58.06660812,58.72597637,60.55903284,60.91844693,60.83711562,60.62137826,57.66169865,59.21309485,59.66933063,59.73756247,59.63891399,60.79212267,61.21841468,59.69262462,58.68036542,37.37700553,38.07810447,56.46727057,56.69965447,56.46727057,59.21309485,60.62137826,62.15444483,61.77539794,60.22376853,60.0442468,59.68610693,59.08688768,58.9446811,58.70105118,59.76273913,46.68036542,46.55980781,59.13616466,59.76273913,59.8043323,59.49041565,60.48739107,60.24013098,57.15386421,52.30105936,48.47528169,52.52457483,61.52483579,76.93035138,NaN,NaN],
	"ap0": [NaN,0.007117040587,0.01738309662,0.06430213972,0.2923082158,0.1366923078,0.06805914133,0.03470977493,0.02932852638,0.07790096453,0.02773317229,0.009710725476,0.003221646328,0.003558194907,0.01629323783,0.07688079468,0.806648235,0.4645162161,0.5884342621,0.5131431664,0.4463597365,0.8384003938,0.03377970466,0.02017797226,0.01126344509,0.014128309,0.06309466425,0.04562990247,0.0253063918,0.02103338141,0.01418585017,0.009894449989,0.00853512577,0.005882376306,0.003849833819,0.004234063189,0.006014958141,0.007253046284,0.007899255998,0.007806671355,0.01115789775,0.07915089009,0.2253013798,0.1713387209,0.03576623285,0.01738478188,0.01230567861,0.01304902287,0.01032791807,0.0131447763,0.02917606037,0.08379897536,0.3693892518,0.875445049,0.5137694946,0.9154650539,0.4464784528,0.1298627306,0.04788782436,0.03946432166,0.04746744444,0.1321528415,0.06811815926,0.1345363301,0.09618791133,0.05311795115,0.06811731922,0.07296728607,0.0643564713,0.03939185711,0.03713541342,0.01799423486,0.01885883635,0.01670737832,0.01611136453,0.01513344248,0.01069491618,0.01510830274,0.02551093657,0.03919274806,0.07243485421,0.1363561456,0.3981879869,0.4949483468,0.5080186044,0.4420533752,0.6192868977,0.1596166539,0.03798100556,0.02275289713,0.01645769023,0.0134740753,0.02203714385,0.06081127776,0.07778701372,0.04718311337,0.0281213207,0.02156448116,0.0139777225,0.007977034576,0.004490359932,0.00454441822,0.01201701952,0.05111468119,0.1505616398,0.3122731017,0.413365443,0.6196039248,0.7072474232,0.1179879787,0.03676875449,0.0118743075,0.007074128228,0.0044862086,0.00784957699,0.02117581251,0.04177445506,0.04859589805,0.02869291088,0.02396090013,0.0261759149,0.03529446403,0.03010244495,0.044976463,0.09747313262,0.410559905,0.6808183401,0.6179895969,0.5985456306,0.5339018099,0.6187770534,0.4571162548,0.4034044357,0.1054348919,0.02747469997,0.01804483765,0.05018516901,0.2167161179,0.2335830587,0.1575965946,0.07113608917,0.04689814365,0.0823506885,0.062034378,0.03050470461,0.01559737234,0.02112581186,0.08775902318,0.2351418255,0.3021970547,0.1942546471,0.07978220855,0.06946839249,0.06401333457,0.2748469151,0.1314694825,0.04382694582,0.02339137619,0.04752113394,0.1084677183,0.08190580025,0.05696451998,0.02869872507,0.007716306949,0.003676175975,0.003821654857,0.002376306089,0.002603402634,0.00598838013,0.01185526643,0.01534655498,0.01832688504,0.01208826817,0.005612000702,0.004225503269,0.002155701364,0.0009824393617,0.001147195565,0.00226522513,0.003190399234,0.002602640117,0.002166624666,0.00210139131,0.002155096684,0.003130149785,0.004497341675,0.004036236204,0.003551111263,0.002215476704,0.0007791858188,0.0006052899858,0.000559212385,0.0009139357988,0.001770524566,0.001921611567,0.001515278845,0.004176840944,0.01359082128,0.02565341838,0.02259307248,0.01636834343,0.01846216957,0.0184899114,0.01333274602,0.00955248271,0.009480509649,0.0190170034,0.0377163974,0.1062553555,0.2085553547,0.2755501741,0.2375364559,0.1371237342,0.1274416155,0.2010127247,0.1645431782,0.1400500032,0.1513839003,0.1169197024,0.1887790839,0.1847552085,0.1273630723,0.0252807563,0.01331755841,0.01051483254,0.01059423973,0.01806080543,0.04196757437,0.05321909344,0.02435256986,0.009437493755,0.00606661471,0.01320157297,0.007212362025,0.003734247991,0.004665921853,0.006916329822,0.01019927291,0.01237613543,0.01035239079,0.005506300969,0.005748835307,0.00449462859,0.003444049644,0.007222572326,0.008623231404,0.004417402144,0.009655352758,0.02538281775,0.06922042598,0.1759397728,0.3997011763,0.5853814852,0.1704612736,0.5215880405,0.4644605094,0.8060697089,0.2672727406,0.1207254492,0.1340986085,0.5534741649,0.7108862875,0.7974405185,0.7740579142,0.8066599788,0.7016042297,0.6761596973,0.7833981271,0.7460289009,0.7226723524,0.5681014362,0.7764854727,0.6930526524,0.5099199385,0.5064944268,0.5650527895,0.4268764038,0.5637020592,0.5566011394,0.2892378704,0.4092139338,0.6846599052,0.4500340145,0.633217548,0.7757421496,0.5887820891,0.8402158534,0.03537574946,0.01902815312,0.02104585242,0.04968864718,0.05073846529,0.04509458727,0.0839252834,0.03251973194,0.0169783604,0.01098718513,0.01215667543,0.01978776441,0.01934613235,0.02146923325,0.01910859001,0.02602900047,0.02288049238,0.01367186631,0.01397481026,0.01877597862,0.02505709916,0.05056884082,0.08185876837,0.07311132767,0.07135180966,0.1317282029,0.7554721807,0.7156087401,0.3239995025,0.2494836504,0.2556677846,0.04526380272,0.02969426502,0.02739984672,0.02135011469,0.02062322051,0.041000666,0.1053327312,0.1258243161,0.26122436,0.6151089773,0.5082636541,0.7266062495,0.3937147862,0.04443755156,0.03819937904,0.07605012997,0.09610816718,0.08122324321,0.07938666995,0.06405800153,0.07336632828,0.04215039492,0.04708196229,0.05923363105,0.05192979375,0.02193561312,0.01151646617,0.009434170346,0.02650293237,0.06525634193,0.1176133383,0.2988332153,0.05375485848,0.0327140869,0.02045705157,0.0298585902,0.03846248347,0.03911188285,0.05397311056,0.04433582408,0.02667467156,0.02132270195,0.02822127458,0.1104767478,0.09852848826,0.04093943066,0.01263523685,0.008014576617,0.008595077946,0.01388949403,0.01404672494,0.01148855689,0.007701389095,0.004432821447,0.00521561008,0.006218529545,0.00450351103,0.002554323105,0.002681623558,0.011471523,0.02731648657,0.02118383379,0.04049612725,0.1227477406,0.1634232468,0.1036913938,0.03134804307,0.04619136607,0.03349395052,0.01594581363,0.01451000673,0.04073983104,0.02188167594,0.04432243909,0.05247857023,0.04690661229,0.0285846902,0.02568155642,0.1331005152,0.358639452,0.241579602,0.4766420581,0.7242520527,0.3647491537,0.2384269144,0.2848083254,0.2980098496,0.06718411681,0.03623656634,0.02257511762,0.05923398761,0.167576855,0.3537388561,0.2909290226,0.7853368941,0.4281426841,0.3275846191,0.06265463356,0.07127991299,0.2304322543,0.4407944939,0.1189775961,0.07556455532,0.1037029758,0.173703856,0.158352894,0.1365554366,0.08289660329,0.02644310121,0.0284512757,0.03928969108,0.03062727409,0.02406481002,0.02163650921,0.03026066045,0.08178829722,0.2006653261,0.4987463563,0.6826323013,0.5032448675,0.298055787,0.3721846937,0.03035070996,0.0119146402,0.013929359,0.0156524339,0.02366542886,0.07344767976,0.1085459902,0.154454528,0.1324072052,0.03756533303,0.01043214538,0.01046255886,0.01129844147,0.01581015833,0.01082539815,0.007055473803,0.01428859879,0.02764923855,0.02734618846,0.00995464583,0.004950849026,0.01150273234,0.01692632909,0.01406283734,0.02780345017,0.08986047996,0.2387242236,0.5553585042,0.3973965071,0.2733765528,0.03662272532,0.02250573811,0.02068574791,0.08439148134,0.2498609251,0.1675542356,0.0987083807,0.0646073356,0.08388011797,0.1275979374,0.1674080886,0.1050742769,0.1702434263,0.333599001,0.5331242274,0.5744395354,0.5035887687,0.2497954286,0.2038686589,0.4434626832,0.4033030796,0.6966371722,0.6656201855,0.6496889705,0.3151827217,0.313252017,0.2549137603,0.1792901707,0.1755477925,0.1666032535,0.1618716267,0.6842629849,0.5667393297,0.4891149151,0.7356822973,0.5698239722,0.4287206542,0.2330491599,0.06108942675,0.1242494149,0.08421685242,0.2609635563,0.1107416563,0.09848870341,0.09245734075,0.05682250761,0.13139825,0.3377608962,0.37007489,0.4766758367,0.4813241906,0.3060804587,0.3780732895,0.3952026626,0.3834093831,0.1720299027,0.4101486833,0.1237255226,0.04790824866,0.02614589778,0.01229980022,0.01292686872,0.08762078567,0.262435718,0.2263772016,0.2409432152,0.3861592696,0.3025039102,0.1528267097,0.0392594409,0.01740782129,0.03001178143,0.05229820145,0.06417682405,0.07739487967,0.0650974787,0.1052663593,0.08158451349,0.02865188292,0.01999052197,0.0132322849,0.006686706387,0.00843803871,0.01615513107,0.04572829914,0.1050693894,0.158405782,0.1115430649,0.1350783178,0.1485968926,0.08974725487,0.08112609953,0.03230868008,0.02306828177,0.1076537727,0.2609312742,0.1407870812,0.1547289662,0.3467220918,0.6498937999,0.4940349493,0.3007154873,0.2843848742,0.3683353746,0.1985093481,0.1209444967,0.4841170101,0.5933325276,0.505486673,0.7053353949,0.1733470521,0.2358104751,0.4245417514,0.584307292,0.5654651103,0.5035572426,0.2650652505,0.2845129579,0.2056071866,0.2334332345,0.1650620943,0.1292121802,0.1981371703,0.6259106861,0.5456430421,0.9017603089,0.1553182128,0.1426425836,0.1596048601,0.313466851,0.2955837361,0.2772157694,0.4967083786,0.6839024039,0.6707163432,0.6075795772,1,1,NaN,NaN],
	"ap": [NaN,0.002651934997,7.090585696e-05,0.009149554893,0.09085696799,0.4497975331,0.2927505024,0.0569998812,0.02583676017,0.005754628891,0.02491774679,0.02481543891,0.005055155751,0.00530016905,0.004339560626,0.01258745261,0.6220688377,0.1538440447,0.08864862841,0.3874705396,0.2709024786,0.7061069369,0.3467815297,0.4098056161,0.004972942315,0.01253662781,0.003240965564,0.03249818837,0.03651525066,0.05594270249,0.00267761326,0.006766265685,0.008552447548,0.008228636583,0.002965845814,0.00216025385,0.004502414031,0.007757642552,0.0009778232812,0.002524531355,0.005980910687,0.00813907509,0.1987224518,0.2092229109,0.1587296768,0.15321402,0.01286583909,0.002657802417,0.008136681377,0.003677584017,0.002990019111,0.02641275395,0.03004205671,0.1557040701,0.3016670565,0.2794673748,0.3050568338,0.5587384089,0.2785884236,0.0231510132,0.03427159684,0.02389099042,0.1555023775,0.05592189379,0.03158345349,0.08252138253,0.003367892094,0.04064816524,0.02465505722,0.1329718124,0.01637728946,0.03580122226,0.04618475079,0.006579464262,0.006408491278,0.004951967687,0.009224100952,0.008966530553,0.002801865233,0.006520291273,0.007936183474,0.01367544189,0.2536268207,0.5193040832,0.777954269,0.4058868147,0.3575215563,0.7049104452,0.3590546678,0.02539044423,0.01597817347,0.01244272348,0.003044772974,0.01211699609,0.0275684117,0.06409366654,0.03289846472,0.01882704035,0.009238019962,0.02553548495,0.003578273673,0.0004521037262,0.002338866582,0.00218571768,0.01869645091,0.3471028564,0.2286891292,0.2879078728,0.01352160427,0.3360039066,0.5003967818,0.07186956148,0.003089505725,0.006096704349,0.002607460976,0.001188845504,0.02665852348,0.006313132839,0.01398361888,0.01053975091,0.0255337873,0.009951014853,0.01810819319,0.02766909038,0.01347858322,0.07094885942,0.1201847836,0.4843564679,0.3111881684,0.2968830345,0.3858404785,0.4009551714,0.5890448752,0.1040954616,0.1687925415,0.03376545647,0.01328620212,0.02057128849,0.08724227433,0.169412714,0.02820915786,0.1616298341,0.002223981135,0.03589799341,0.1166753065,0.009027968524,0.01504114109,0.0024142863,0.1113804822,0.07850402999,0.3909362512,0.02223770976,0.01824456886,0.07802529172,0.03905472983,0.05560139724,0.2064974611,0.1118252418,0.02391797747,0.01744877833,0.1525262222,0.03935877356,0.05783405008,0.03486338879,0.01395973524,0.001405268533,0.001531843383,0.001001915388,0.0005487210465,0.0004961771702,0.002422825177,0.02294406936,0.009819657399,0.01062859176,0.001364209633,0.002354940092,0.002958705726,0.0007355196482,0.0003095528934,0.001230583465,0.001334882756,0.001840852594,0.0008957981327,0.0008484950028,0.0001020339343,0.0004605110884,0.0006832195588,0.003980235508,0.002131503434,0.0002569597906,0.0001377951606,0.0003845609751,0.0004391383549,0.0002658821031,0.001217296376,0.001066603232,8.833304886e-05,0.001152490743,0.003556164487,0.01694497714,0.02131320474,0.01290872901,0.01038210612,0.008188106707,0.01087684943,0.00637062298,0.002720999911,0.009531474761,0.02563533823,0.1945939852,0.03999460021,0.1446440342,0.07835058986,0.01541988531,0.2235439892,0.1222087657,0.03213328204,0.02943374915,0.06032695703,0.1999195606,0.406909676,0.05415025537,0.141471714,0.1264385189,0.004159232775,0.006028236506,0.002649422617,0.02529210028,0.04309679412,0.03886994722,0.003325981086,0.009733643662,0.0009989556898,0.004707071357,0.001736570331,0.0004557090862,0.008063619791,0.003283519379,0.002000327985,0.00468547712,0.01399233949,0.003450631836,0.0008551119331,0.005592525142,0.00101986615,0.002865349111,0.003834243856,0.001606235215,0.005698207899,0.008021930799,0.0149604765,0.0420224226,0.2774117083,0.7219966133,0.1435660351,0.1160324595,0.3087858694,0.7981915072,0.2702746116,0.02939614349,0.101067694,0.3510007781,0.5876476459,0.7147514017,0.5512515863,0.3627265716,0.2332974743,0.2877086577,0.4307447229,0.4448600548,0.707194941,0.2736631083,0.2602900635,0.42415722,0.233186681,0.4726321726,0.191516773,0.4250659398,0.5937261195,0.4464232987,0.09451147299,0.1256876397,0.3895551761,0.1935298357,0.3125481226,0.2797126956,0.4042678349,0.575999985,0.2168634215,0.009951299732,0.004085320139,0.0150932609,0.03680755523,0.0503597389,0.01325308692,0.006499303441,0.00811707031,0.006248532298,0.02561566075,0.004570492493,0.01820761114,0.02033975375,0.009648145736,0.01533556986,0.009177619012,0.01263343603,0.0006011069238,0.009893765339,0.0138193712,0.02560861497,0.1012147082,0.1088615426,0.02495101832,0.112455755,0.4374496727,0.3868116832,0.2086864936,0.1085838244,0.1998889992,0.154177766,0.0006074891967,0.00466047145,0.02353516553,0.004500573255,0.02930047544,0.1923847465,0.05703502313,0.2329524598,0.4641015358,0.141303156,0.8152808068,0.438022407,0.1709775578,0.004314516051,0.05970523199,0.06682621417,0.06500127249,0.03217437769,0.02866260832,0.04310775635,0.02408068852,0.00660033946,0.1473079394,0.01028305901,0.02989097607,0.003005320228,0.005670661157,0.005413450265,0.01607879157,0.03193644853,0.06056114424,0.2730252689,0.01917134018,0.02017105624,0.02939068579,0.01785110312,0.03113855547,0.01343342098,0.04292067258,0.02000284612,0.005192791431,0.006795994303,0.01687319559,0.130796213,0.03507900493,0.03291922024,0.008073177995,0.02026576276,0.007416132302,0.01456812736,0.005131618365,0.004617167009,0.001876930229,0.00484872282,0.00498010526,0.006313143358,0.002271707734,0.0007067087449,0.002430360968,0.005211790133,0.05315698087,0.01205249584,0.1372962348,0.290422357,0.01895112878,0.02651384303,0.02846677084,0.1149928615,0.003639505895,0.007462186544,0.021362921,0.01008305061,0.02788514547,0.009254127133,0.06249289948,0.01429141122,0.002239300939,0.1643890355,0.2178606439,0.04263833187,0.6688067451,0.6278697167,0.2757346944,0.1454626231,0.1923044316,0.2396022452,0.2389433361,0.01287445556,0.0217385771,0.07695457104,0.1170603924,0.2796246473,0.150565327,0.5795600007,0.3638307775,0.3770647296,0.2069529985,0.02207611969,0.5092392831,0.5164074547,0.3913995723,0.03634179417,0.04967284911,0.3981748082,0.1826844459,0.03924437303,0.08193672573,0.1057484513,0.01073897046,0.02297055118,0.03404313923,0.02339325811,0.005508613417,0.02591054707,0.03847813396,0.9130945784,0.3180099322,0.267270005,0.2705993846,0.3853851786,0.01927174592,0.4226738352,0.004183900019,0.001630335281,0.0103929312,0.003884282718,0.01754705696,0.05723810038,0.1098433349,0.4372802414,0.07164174881,0.008136423296,0.00716594214,0.009518286872,0.003858480665,0.01175788334,0.002290378124,0.00471802676,0.01000942563,0.02281492683,0.007844228548,0.003607378684,0.00372801453,0.02408038468,0.004362262805,0.06957484757,0.05492201063,0.4830154,0.4193562404,0.9179183994,0.2189393825,0.09630155385,0.002601388252,0.005883072318,0.05014089282,0.3427735265,0.1634301304,0.02753432728,0.01864289897,0.03805594866,0.1030525792,0.1424704749,0.03115556544,0.04024984955,0.216912262,0.2444972721,0.854145209,0.818220269,0.1988994966,0.4835265989,0.6455285065,0.1822548873,0.4858155597,0.4896115918,0.6942391619,0.4242098032,0.2163673022,0.04506887657,0.05962136723,0.108655615,0.0927152555,0.2841412152,0.5608145087,0.4661614751,0.1298109369,0.3921668573,0.4619781473,0.4520760022,0.02430503569,0.02694546688,0.1777450209,0.05222941821,0.142105771,0.07203291873,0.0186721264,0.09134898459,0.01877671026,0.275164288,0.2726316394,0.1109227637,0.1444585925,0.3974188173,0.2296669732,0.2077473277,0.2055795413,0.3869826281,0.09863758703,0.06849720993,0.2634061102,0.02323407621,0.02339618374,0.005897222265,0.007335351231,0.01024069096,0.2949407487,0.2049552928,0.06848056704,0.2723238915,0.4060360373,0.08316428758,0.06685502062,0.001784744289,0.00768175749,0.03007511423,0.0430718116,0.01539630601,0.08741314153,0.08184495559,0.06620349735,0.06230471146,0.002377095402,0.006371749426,0.004355017092,0.004001143671,0.01576331063,0.0288183137,0.03493026643,0.1762442264,0.1058634908,0.2534031131,0.06808814047,0.03247568285,0.03015584824,0.004345498734,0.03002360558,0.3092828465,0.09828535226,0.02053965249,0.2235754768,0.1105996195,0.4145888265,0.5410480996,0.4126145223,0.1941258753,0.3749382097,0.3331580424,0.07144845718,0.113041157,0.1856252348,0.2531553965,0.3528091233,0.05417508786,0.03774241534,0.285683516,0.6016188538,0.2616452583,0.3072730498,0.2206837738,0.2085742488,0.02955734809,0.04627245575,0.7028594666,0.03567047821,0.06473717415,0.7268388124,0.3466843983,0.03059514465,0.4432379397,0.05111393424,0.4643382213,0.2553959406,0.670491372,0.8765551008,0.3423121473,0.5012048875,0.5691338005,1,1,NaN,NaN],
	"pwr": [NaN,0.04029522496,0.06508319855,0.03308379651,0.005447434653,0.0003660227368,0.0006134299272,0.002473306443,0.006504292064,0.01340747279,0.001428012224,0.001898652237,0.01188709623,0.02158777609,0.03294616201,0.02022098567,0.0007790197257,0.0001538270597,0.0003549494457,0.0003925348879,0.0003065225939,0.0001337047719,0.0001169005048,0.0008314996141,0.1790344143,0.07204198557,0.02698432572,0.002917820888,0.006111949328,0.009474782455,0.03119172913,0.0306953178,0.0261215745,0.03505212204,0.03846236975,0.03286294086,0.02107186341,0.01666606793,0.03286186889,0.03642616356,0.03178503167,0.01685736238,0.0025658022,2.25495174e-05,0.0001596998889,9.227468522e-05,0.005584116374,0.01066526368,0.01502714807,0.02024104517,0.023545266,0.01426422387,0.002101135771,0.0006389530224,1.600760507e-05,9.161187384e-05,1.107204074e-05,0.0002620290377,0.01021147918,0.05124009602,0.02861468013,0.01185711357,0.0007085865676,0.000341934098,0.006972130253,0.01852287609,0.03927022414,0.0244386093,0.00677498483,0.002022105355,0.00234198158,0.001431375458,0.002558780207,0.00967086414,0.02931134335,0.01977356709,0.0222125996,0.01321389775,0.01336841695,0.008799662766,0.01735778355,0.01380468784,0.0006103595906,9.096149619e-06,4.698875383e-06,0.000265679935,0.0009514460072,0.00262749145,0.001962943217,0.006494053959,0.012650631,0.009416253399,0.009459381662,0.00548303187,0.0009021435409,0.0009082308868,0.001308045576,0.001158906455,0.001535285378,0.002516510577,0.009212686796,0.01281484242,0.014969025,0.007834620085,0.001068952752,0.0002676222808,4.725365156e-05,7.609411847e-06,5.773649295e-05,7.317911214e-05,9.674912824e-05,0.0150560018,0.0871814657,0.077203428,0.04479665659,0.03095788768,0.01653810545,0.006670498332,0.004073831921,0.008106343104,0.005037374707,0.004272358442,0.002744687169,0.0097726741,0.02712306365,0.01034897226,0.002418329811,0.000265118829,0.0002870649321,0.0003318321142,0.0003180547844,0.0002588828669,0.0002096330345,0.0003885886375,0.001338770393,0.09393666148,0.1991848235,0.008676274207,0.0003469171145,0.007115355668,0.005552175744,0.004185835188,0.01018003751,0.02458770447,0.0325807238,0.05352078397,0.03721885921,0.03874900855,0.01933550042,0.01535088826,0.02131655883,0.006927479275,0.0004146023755,0.0005211321598,0.0009406777155,0.001051078059,0.0007111051463,0.03528749677,0.1373719693,0.02740532644,0.02250957299,0.01485482013,0.0152600649,0.01195747147,0.07913158228,0.2413438459,0.2119791432,0.1544758764,0.1420978152,0.06922155381,0.07331974834,0.0472720833,0.01537864114,0.01996392741,0.03707038859,0.05998328682,0.1434820434,0.278219356,0.2904117542,0.1938642427,0.1062845079,0.0812950879,0.09342124488,0.1241675946,0.1345973564,0.108952078,0.07174900827,0.03931262994,0.03367518649,0.08677913519,0.09706840422,0.1087890347,0.1232878935,0.1194497237,0.1110946895,0.07967492445,0.06260844972,0.05195030498,0.04076624496,0.04099672379,0.02473283739,0.01208602537,0.0117408477,0.01387811697,0.009624972538,0.0295519525,0.04944837014,0.09891957648,0.09239161136,0.01357835437,0.002876893644,0.05722412088,0.09225797355,0.04883293144,0.001725523976,0.01209436219,0.01382475823,0.07265284233,0.005488192091,0.001600088336,5.592143012e-05,0.0008375201301,0.001433477962,0.01261313525,0.2228069284,0.1643824313,0.09393030072,0.05179232767,0.0120568102,0.00322659515,0.005000670869,0.01469476195,0.02697500431,0.04010762293,0.1655185398,0.2862532753,0.2143096832,0.1052503358,0.08185935461,0.06942738223,0.05364803964,0.05011355511,0.05680222385,0.08771489668,0.1183094947,0.09458057414,0.07571946244,0.04794122281,0.04605047589,0.04503840071,0.01192307584,0.00212548634,0.0001727645486,7.037731933e-07,1.052216824e-05,2.951715439e-06,1.021633124e-05,1.101686037e-05,9.337822127e-06,0.0002281128696,0.0001699851447,1.159512824e-05,1.034195184e-05,1.337712837e-05,3.075916004e-05,2.470488336e-05,5.109787292e-05,5.688830091e-05,2.14116999e-05,1.085766998e-05,9.337310319e-06,5.381735442e-05,1.233289972e-05,7.302623089e-06,4.877323474e-06,6.943908866e-06,1.456215906e-07,9.290156575e-07,1.99193943e-08,2.008354596e-07,6.718294641e-07,1.671094217e-05,9.772832784e-06,3.695032791e-05,0.0001418207675,0.0002745628801,0.0006876209481,0.0007584347255,0.001274849502,0.1031528811,0.011082592,0.003876496355,0.002840064912,0.005013684763,0.00153134366,0.0009299209352,0.004001579667,0.008121363854,0.006926185436,0.003364986243,0.003709166132,0.008733094938,0.0131578231,0.01089469787,0.005700999601,0.02029873736,0.0254318876,0.007388684848,0.007572012023,0.01012003891,0.001073601068,0.0003539333096,0.002784298083,0.0003640013338,4.427751589e-05,4.399766505e-06,4.369302324e-05,5.866592544e-05,0.0003406775571,0.001134822367,0.03491990212,0.01071834618,0.02478482686,0.01565563668,0.005800101298,0.0008058516716,0.0002344549047,3.651420735e-05,2.778865679e-06,7.441293254e-06,3.571242216e-05,0.0001331728684,0.002636397461,0.08464944259,0.002116833189,0.004698454859,0.009840655762,0.005059439774,0.001913871929,0.002992030275,0.01029034967,0.02112500717,0.0126750469,0.005273419199,0.004394001258,0.008821570391,0.00660094642,0.005519038916,0.004772899594,0.002828701784,0.0003710053281,3.040951505e-05,0.001735538628,0.008964726443,0.0134861168,0.005637878772,0.002970671395,0.00285553374,0.002058314317,0.006350169479,0.009008619982,0.002302003789,0.001018827164,0.0005919754356,0.0004022950729,0.001464621718,0.01086888883,0.02794204046,0.0639620238,0.04203242586,0.04414982053,0.06039582097,0.04489598267,0.04230840089,0.03416968945,0.03442925787,0.03160191176,0.04847216987,0.03297118656,0.01420029086,0.01102384474,0.02471000489,0.01021984533,0.01651961458,0.05289279105,0.005982591021,0.01607392299,0.01442596605,0.2041635272,0.06311983098,0.01167377906,0.01005487744,0.0132079542,0.02770453363,0.02883251495,0.03900662654,0.0666401886,0.03536981173,0.02460612611,0.007509906225,0.001112637698,0.0002872586041,0.0005795236672,0.001031695133,0.00055447818,0.0001885567377,0.01194410826,0.1949820956,0.09224935621,0.02675374109,0.02282348645,0.000976866473,1.841767504e-05,1.008838027e-05,3.903926304e-05,0.0003812152146,0.0003821195231,0.01193048116,0.0002247004478,4.341001133e-05,0.001766215933,0.0342220475,0.08156587879,0.01866176976,0.001290201921,0.0007483276487,0.004229084578,0.002171129575,0.07735423295,0.05904024629,0.02493392402,0.01580766393,0.04172793365,0.01567424896,0.0001449737813,7.041647149e-06,7.976733365e-06,1.506029783e-05,2.593819008e-05,7.432370166e-05,8.400659653e-05,6.559189437e-05,0.0121891239,0.006074763191,0.005987032663,0.00433350063,0.0008904974648,0.0002928890744,7.345185886e-05,1.859276187e-05,9.731716664e-05,0.004346902372,0.02722951357,0.01765742906,0.01151939955,0.01047820988,0.008522897719,0.007813597886,0.003410945298,0.00216910393,0.005239130488,0.01006721772,0.01791513352,0.01720505991,0.009896969034,0.008421591712,0.001705552718,0.0001305061029,7.128905884e-06,3.109852727e-05,0.0004646240064,0.008973103543,0.2114143893,0.08814258478,0.01025833731,0.0001716169863,0.0009358222902,0.006703093485,0.006759604104,0.001289093912,0.0009278170218,4.445134948e-05,0.0001096132215,0.0003554219378,0.0001085153809,6.83204548e-05,4.457166849e-05,1.152844426e-05,9.014972067e-06,1.821551925e-05,6.875964879e-05,0.00010675864,9.309118413e-05,0.0002212104845,0.0001723024866,0.0005526832505,0.002278759824,0.04798182772,0.02432818048,0.005628920731,0.001282456141,0.003362208069,0.0001812026129,2.821276332e-05,0.0002279484645,0.000137649288,0.000523423559,0.0004573818516,0.01603346566,0.0157533504,0.002712252861,0.007497125942,0.00758899115,0.01282248788,0.0844402461,0.03759237978,0.02501303861,0.01518742044,0.001826458053,0.001211006836,0.00164097149,0.003801816557,0.0002417343533,0.001866255019,0.002090663091,0.0005825938645,0.0002090333366,0.001394138265,0.006700381329,0.02683367674,0.04071159172,0.04176130074,0.0364340141,0.007418623549,0.002730775049,0.003691151711,0.002890524419,0.000398338811,0.0003437880674,0.001761383113,0.06417580113,0.2642093549,0.0706610712,0.0150058595,0.007705274138,0.01250983812,0.003646904947,0.0008619928662,0.000759085986,0.009209861895,0.09202907805,0.1011620392,0.05919114439,0.03696540348,0.02091227355,0.004275376459,0.003247106043,0.0002882573231,0.003941890263,0.008204950033,0.01552135792,0.01827020879,0.02268797348,0.0461284836,0.06652875919,0.02813315925,0.005200318032,0.006732625979,0.001350000373,0.001871141243,0.000120966145,0.0003834644843,0.0001130209627,0.0001821328269,0.0008821017144,0.0003559574752,0.0004439276973,4.138675903e-05,6.145584668e-05,6.331745537e-05,1.318680976e-05,1.811749629e-06,1.738338421e-06,1.694730599e-06,3.663156087e-07,1.338431267e-06,1.168564612e-06,3.936702183e-07,1.900566009e-07,3.396818577e-07,2.195839006e-07,1.350775934e-08,1.283574741e-07,7.732033414e-07,8.439669865e-09,3.067553923e-09,4.140718316e-09,8.778090799e-10,2.058986823e-08,9.412782635e-09,7.208124703e-09,4.142150496e-09,4.265507956e-09,1.755887936e-09,3.790835059e-10,2.698565592e-10,0,0,NaN,NaN],
	"sr": 16000,
	"range": [1,195328],
	"minf0": 63.1883,
	"maxf0": 706.3069,
	"thresh": 0.1,
	"relflag": 1,
	"hop": 320,
	"bufsize": 10000,
	"wsize": 640,
	"lpf": 4000,
	"shift": 0,
	"plotthreshold": 0.2
}
