{
    "f0": [
        46.158972641223698,
        37.241741648482034,
        0.0,
        0.0,
        0.0,
        0.0,
        0.0,
        0.0,
        0.0,
        0.0,
        0.0,
        0.0,
        0.0,
        0.0,
        0.0,
        0.0,
        0.0,
        0.0,
        0.0,
        0.0,
        0.0,
        0.0,
        0.0,
        0.0,
        0.0,
        50.416512875610621,
        45.305876246707896,
        42.299251164053757,
        41.693018014283105,
        41.064777465301589,
        36.738309541436912,
        35.960755582240971,
        69.045374520410363,
        45.856988393014824,
        51.000967859620502,
        38.705692409592615,
        45.81355822390028,
        53.346089679498093,
        45.468346149161619,
        47.429800369144175,
        44.626957393206112,
        42.454510846625993,
        43.346425464097777,
        44.194628330662042,
        45.175472935496522,
        44.220308868760029,
        46.432168500584751,
        41.750570493897555,
        44.006135341418236,
        43.62502358663739,
        40.055742787023391,
        0.0,
        0.0,
        0.0,
        0.0,
        0.0,
        59.634263319161434,
        55.568049449881968,
        54.680042612020891,
        46.280419131506548,
        44.183435499397866,
        45.396039737645538,
        46.52924094341418,
        46.792461103718239,
        46.758826339353554,
        49.380894728059083,
        45.100178929442365,
        46.086119998005444,
        45.338029229570552,
        70.15878850089031,
        70.437881407653634,
        70.568874729730325,
        70.698887579091291,
        70.653935549961545,
        69.935254819578162,
        69.185441550150472,
        69.948473281318044,
        70.061891711591969,
        45.374180580012577,
        43.450435340479338,
        43.103934860395704,
        42.506495619600749,
        40.444511007596816,
        46.34333952741089,
        44.450437605219378,
        41.491658291555751,
        38.198956593020242,
        42.919189833455874,
        40.501897768484213,
        42.202891944217498,
        40.157466655695757,
        41.708107387665407,
        37.943661396574157,
        68.894615316843513,
        68.793892524333174,
        68.692585184224086,
        68.762939769003694,
        68.833009600795634,
        68.902798162361421,
        68.809141784182231,
        68.844444707105779,
        68.677404114956417,
        68.521460073465221,
        68.501762591392236,
        68.548118760955148,
        68.352230686488667,
        68.154100801136863,
        68.296503460602011,
        69.11536002946238,
        69.049371689252055,
        69.691683183929271,
        70.007695915581948,
        70.167304450509803,
        70.226309088635404,
        70.160591954090208,
        70.182345571975986,
        70.222453811740294,
        70.235071403838219,
        70.06330218755997,
        69.988772563655246,
        69.864297085653519,
        69.763932972038049,
        69.650408005054899,
        45.136576114621747,
        44.248566145825436,
        42.309897278864959,
        70.767254943490514,
        70.862704709151217,
        70.783636372326683,
        70.715119523702825,
        70.983681837178963,
        71.248139459490588,
        71.15886562886358,
        71.305674567866973,
        71.587306000398129,
        71.969877413401818,
        72.279668493054572,
        72.584013410631584,
        72.881371277176342,
        73.00056714424241,
        73.027027123543164,
        73.099397129507665,
        72.974604943696903,
        73.02784733589769,
        73.033182569288371,
        72.88840173134443,
        72.97381276198351,
        73.138350013628212,
        73.070598936558355,
        73.053969280599119,
        73.037323666549781,
        73.02066200134,
        73.00398238069792,
        72.987286674531958,
        73.142840341080728,
        73.108468778582449,
        73.074026973967591,
        73.211782348247297,
        46.705297701825998,
        0.0,
        44.750364077071694,
        45.429363457417388,
        41.970048445438145,
        44.945649242938018,
        44.595894883253983,
        44.13167168092437,
        41.795345905658145,
        42.603804629318759,
        42.14297722216341,
        45.37115105413524,
        42.748280252644541,
        38.699488837022415,
        0.0,
        46.605817774227567,
        46.431826848522817,
        39.371377632574749,
        37.833408982049299,
        46.628848026087503,
        46.59164194013691,
        46.554357880105947,
        46.859823307762255,
        47.532977892464416,
        45.887878141555703,
        46.05603862013588,
        46.975265789041586,
        48.654763304253123,
        48.625178279510081,
        46.282118505925972,
        46.35029931236393,
        46.244224834980507,
        0.0,
        0.0,
        48.569342473211222,
        38.735483944720201,
        44.116862324066318,
        67.496524497321232,
        67.668784959212587,
        67.604945058139151,
        67.540868830670675,
        39.70502227843884,
        44.355860195970102,
        44.155202841543868,
        40.351246365077174,
        40.468995054160906,
        41.986170285284224,
        42.234433988700232,
        42.202654794896745,
        41.835889170612646,
        42.854756924929433,
        42.409816479247709,
        41.8689710660922,
        40.669491868120225,
        37.21965095704536,
        68.43848483321753,
        43.934234261298201,
        44.647718924882398,
        44.626232272152677,
        44.770878394100592,
        44.516669926833849,
        47.008478864408737,
        46.767939020490431,
        46.524011092826754,
        44.491802726074752,
        68.48166900037441,
        68.52596510025306,
        40.666603612903742,
        46.805928325683666,
        68.248658889403814,
        44.406040712109913,
        42.399184097706893,
        42.175140266059167,
        41.948156336340276,
        41.851964967844793,
        40.985852618274144,
        40.074122218104513,
        38.630630167449517,
        36.868114319080718,
        38.124198146419957,
        41.043505238134955,
        46.170938593326582,
        40.935601287904774,
        46.094167953917932,
        46.300445711220199,
        65.180878962976948,
        65.005842129298287,
        64.706576111087287,
        64.464458011783478,
        64.530109729459184,
        65.408305939588203,
        65.337856145287304,
        65.293183280104387,
        65.061337693860153,
        64.571648299921961,
        62.643665312074205,
        45.502308087316365,
        45.845138537204861,
        43.320688635273967,
        44.243731121702702,
        45.320518642545167,
        45.196700915044303,
        45.071992515073021,
        44.946375474729173,
        64.146823385653505,
        64.492533038190601,
        64.481719686557526,
        64.385199796503429,
        64.843011706097585,
        64.77075208843813,
        65.020667321182586,
        64.892732888161774,
        65.067054695002284,
        64.724446753133364,
        64.374921491805424,
        65.205695502425883,
        65.327335610736469,
        65.610596831787078,
        38.95306664922709,
        45.756488596559393,
        64.841895668760216,
        0.0,
        38.895498819168751,
        45.445547277318781,
        64.427427999184303,
        45.375323831010363,
        0.0,
        63.623808243933667,
        66.313051549677212,
        47.172893000364752,
        45.272682477404857,
        41.084492592941146,
        41.57534135172363,
        41.605607399988656,
        42.492527927749663,
        42.596666682167964,
        58.525913262187643,
        58.503493179179202,
        57.636737661109748,
        56.724290973479398,
        56.720768406109521,
        52.92900671388427,
        51.510247791307997,
        47.817792806414019,
        0.0,
        0.0,
        39.407853372794669,
        40.649540769041202,
        64.503655629600317,
        64.342288489415836,
        64.342288489415836,
        64.342288489415836,
        64.342286893142003,
        64.168290737755072,
        64.423466635788373,
        64.834620828450284,
        64.808655832638266,
        64.352085138688167,
        63.3989528390657,
        62.47457963869649,
        36.21658999376934,
        39.175291078520864,
        39.291303314456542,
        50.746579495900136,
        50.584761894992099,
        47.066834892242156,
        43.647148627542713,
        62.293327644019712,
        34.967617407772131,
        62.778488867932502,
        62.741652324974105,
        62.877000643582157,
        63.149778091106079,
        62.942158913198,
        38.249742678955926,
        44.188759111529201,
        39.838409588601962,
        44.588682303018601,
        44.228259245159272,
        44.520756408536165,
        43.747309979827911,
        40.643560567941606,
        39.437344421335595,
        64.908144968654298,
        48.139397891085551,
        45.274194173479358,
        64.2384849435728,
        36.188075711102229,
        36.678957043387278,
        41.587652965649227,
        45.374857483664826,
        45.309672118308583,
        41.575246213205091,
        38.810631280043047,
        44.793513338566861,
        46.482185817153308,
        47.304945216290179,
        46.879868689969634,
        46.744047714752327,
        53.795003392447796,
        65.834254286320359,
        66.382304074247713,
        67.085797524467665,
        67.365801684952004,
        67.641349177614501,
        68.255412918666295,
        68.156319807765854,
        68.033479484493185,
        68.093700329143374,
        68.266751064997024,
        68.03246241206935,
        67.4146772798602,
        66.79838270445147,
        65.619384930654448,
        65.491403824161949,
        65.643623488170803,
        65.298049549208656,
        64.94543677234158,
        64.75775796995228,
        64.481153816919601,
        64.416523851606897,
        64.838241842818007,
        64.777935860819895,
        64.906525095141575,
        64.847548253259916,
        64.137706507503594,
        64.584775088933426,
        64.357725605009989,
        64.360697431983596,
        63.539331205838337,
        38.17499359430969,
        45.678682725006276,
        62.544165147717706,
        62.504212056318408,
        61.936848102315139,
        61.852887020106216,
        62.196804328086031,
        62.359138797553662,
        62.779085715422056,
        62.889050134104728,
        62.798290061727549,
        62.819825788202181,
        62.834173239076947,
        62.848508753339338,
        63.03510018184793,
        63.006180067012423,
        62.966444919615824,
        63.071757905437771,
        62.846550666819766,
        62.950336941463341,
        63.053504786032626,
        62.268056834107966,
        61.824140475359165,
        61.347349890704464,
        61.040220137985493,
        61.154972546173639,
        61.69040338788087,
        61.853991971303962,
        62.019198101967206,
        61.911121668302499,
        61.926536457100269,
        61.937149620697653,
        61.887003083286032,
        61.73992739346388,
        61.466471121896745,
        61.424579302197088,
        61.484119935679118,
        61.460981972421145,
        61.457022691883481,
        61.453066217202753,
        61.44910883812264,
        61.617414177235062,
        61.860642067875816,
        61.174790955359079,
        61.166039064438969,
        60.101274669594197,
        58.596383888725306,
        57.495582480299227,
        55.501872504487551,
        54.397988092496028,
        52.785318877060305,
        48.306804251886973,
        48.324170981021027,
        48.375518467011034,
        48.426714238445712,
        48.477757000979096,
        46.06466178546188,
        64.929353057707203,
        64.965711003682202,
        45.831837460092139,
        46.109897796146832,
        37.491335978099571,
        65.58021674061321,
        46.594597888810497,
        41.730872030347449,
        37.580006734140525,
        42.208183487710137,
        38.053068952069943,
        38.618607824073038,
        38.43504438099685,
        38.376971426596953,
        36.793997434844869,
        38.195125133176511,
        38.111561305837753,
        37.603759439521269,
        36.412313701322603,
        35.521390226310757,
        62.958679611351172,
        44.848605981021336,
        41.959026306235053,
        35.406731567661964,
        63.162855555609696,
        63.218474564554555,
        63.273913706839778,
        63.840905811045445,
        63.728862744220315,
        63.6160881594746,
        63.328579412367944,
        62.9509142781801,
        62.887510186285525,
        62.853575195563025,
        62.844350705953858,
        62.648736570320096,
        62.717666667542282,
        62.907424457001923,
        63.202168147723441,
        63.223747330858195,
        63.205772943419831,
        63.210086702151877,
        63.346320293649029,
        63.368058173999849,
        63.389767107297345,
        63.411450537061981,
        63.433105160301793,
        63.454727799006818,
        63.126570776442861,
        63.152187018550983,
        63.152207205988731,
        63.165124765116296,
        63.163974240476392,
        63.153452769488901,
        63.172488648699478,
        63.246431452317296,
        63.118742078091827,
        63.173253643794446,
        63.178923392964407,
        62.681615300490556,
        63.322816798516151,
        37.801507315580466,
        40.229466806044648,
        38.724890441909572,
        37.751100803591278,
        0.0,
        0.0,
        0.0,
        44.194628330662042,
        41.163603928958523,
        53.135106651738866,
        40.403989064505986,
        40.152262585804586,
        35.809151949660446,
        35.754302025068732,
        0.0,
        0.0,
        0.0,
        0.0,
        0.0,
        0.0,
        0.0,
        0.0,
        0.0,
        0.0,
        0.0,
        0.0,
        0.0,
        0.0,
        0.0,
        0.0,
        0.0,
        0.0,
        0.0,
        0.0,
        0.0,
        0.0,
        0.0,
        0.0,
        0.0,
        0.0,
        0.0,
        0.0,
        0.0,
        0.0,
        0.0,
        0.0,
        0.0,
        0.0
    ],
    "time": [
        0.02,
        0.040000000000000001,
        0.059999999999999998,
        0.080000000000000002,
        0.10000000000000001,
        0.12,
        0.14000000000000001,
        0.16,
        0.17999999999999999,
        0.20000000000000001,
        0.22,
        0.23999999999999999,
        0.26000000000000001,
        0.28000000000000003,
        0.29999999999999999,
        0.32000000000000001,
        0.34000000000000002,
        0.35999999999999999,
        0.38,
        0.40000000000000002,
        0.41999999999999998,
        0.44,
        0.46000000000000002,
        0.47999999999999998,
        0.5,
        0.52000000000000002,
        0.54000000000000004,
        0.56000000000000005,
        0.57999999999999996,
        0.59999999999999998,
        0.62,
        0.64000000000000001,
        0.66000000000000003,
        0.68000000000000005,
        0.69999999999999996,
        0.71999999999999997,
        0.73999999999999999,
        0.76000000000000001,
        0.78000000000000003,
        0.80000000000000004,
        0.81999999999999995,
        0.83999999999999997,
        0.85999999999999999,
        0.88,
        0.90000000000000002,
        0.92000000000000004,
        0.93999999999999995,
        0.95999999999999996,
        0.97999999999999998,
        1.0,
        1.02,
        1.04,
        1.0600000000000001,
        1.0800000000000001,
        1.1000000000000001,
        1.1200000000000001,
        1.1399999999999999,
        1.1599999999999999,
        1.1799999999999999,
        1.2,
        1.22,
        1.24,
        1.26,
        1.28,
        1.3,
        1.3200000000000001,
        1.3400000000000001,
        1.3600000000000001,
        1.3799999999999999,
        1.3999999999999999,
        1.4199999999999999,
        1.4399999999999999,
        1.46,
        1.48,
        1.5,
        1.52,
        1.54,
        1.5600000000000001,
        1.5800000000000001,
        1.6000000000000001,
        1.6200000000000001,
        1.6399999999999999,
        1.6599999999999999,
        1.6799999999999999,
        1.7,
        1.72,
        1.74,
        1.76,
        1.78,
        1.8,
        1.8200000000000001,
        1.8400000000000001,
        1.8600000000000001,
        1.8799999999999999,
        1.8999999999999999,
        1.9199999999999999,
        1.9399999999999999,
        1.96,
        1.98,
        2.0,
        2.02,
        2.04,
        2.0600000000000001,
        2.0800000000000001,
        2.1000000000000001,
        2.1200000000000001,
        2.1400000000000001,
        2.1600000000000001,
        2.1800000000000002,
        2.2000000000000002,
        2.2200000000000002,
        2.2400000000000002,
        2.2599999999999998,
        2.2799999999999998,
        2.2999999999999998,
        2.3199999999999998,
        2.3399999999999999,
        2.3599999999999999,
        2.3799999999999999,
        2.3999999999999999,
        2.4199999999999999,
        2.4399999999999999,
        2.46,
        2.48,
        2.5,
        2.52,
        2.54,
        2.5600000000000001,
        2.5800000000000001,
        2.6000000000000001,
        2.6200000000000001,
        2.6400000000000001,
        2.6600000000000001,
        2.6800000000000002,
        2.7000000000000002,
        2.7200000000000002,
        2.7400000000000002,
        2.7599999999999998,
        2.7799999999999998,
        2.7999999999999998,
        2.8199999999999998,
        2.8399999999999999,
        2.8599999999999999,
        2.8799999999999999,
        2.8999999999999999,
        2.9199999999999999,
        2.9399999999999999,
        2.96,
        2.98,
        3.0,
        3.02,
        3.04,
        3.0600000000000001,
        3.0800000000000001,
        3.1000000000000001,
        3.1200000000000001,
        3.1400000000000001,
        3.1600000000000001,
        3.1800000000000002,
        3.2000000000000002,
        3.2200000000000002,
        3.2400000000000002,
        3.2599999999999998,
        3.2799999999999998,
        3.2999999999999998,
        3.3199999999999998,
        3.3399999999999999,
        3.3599999999999999,
        3.3799999999999999,
        3.3999999999999999,
        3.4199999999999999,
        3.4399999999999999,
        3.46,
        3.48,
        3.5,
        3.52,
        3.54,
        3.5600000000000001,
        3.5800000000000001,
        3.6000000000000001,
        3.6200000000000001,
        3.6400000000000001,
        3.6600000000000001,
        3.6800000000000002,
        3.7000000000000002,
        3.7200000000000002,
        3.7400000000000002,
        3.7599999999999998,
        3.7799999999999998,
        3.7999999999999998,
        3.8199999999999998,
        3.8399999999999999,
        3.8599999999999999,
        3.8799999999999999,
        3.8999999999999999,
        3.9199999999999999,
        3.9399999999999999,
        3.96,
        3.98,
        4.0,
        4.0199999999999996,
        4.04,
        4.0599999999999996,
        4.0800000000000001,
        4.0999999999999996,
        4.1200000000000001,
        4.1399999999999997,
        4.1600000000000001,
        4.1799999999999997,
        4.2000000000000002,
        4.2199999999999998,
        4.2400000000000002,
        4.2599999999999998,
        4.2800000000000002,
        4.2999999999999998,
        4.3200000000000003,
        4.3399999999999999,
        4.3600000000000003,
        4.3799999999999999,
        4.4000000000000004,
        4.4199999999999999,
        4.4400000000000004,
        4.46,
        4.4800000000000004,
        4.5,
        4.5199999999999996,
        4.54,
        4.5599999999999996,
        4.5800000000000001,
        4.5999999999999996,
        4.6200000000000001,
        4.6399999999999997,
        4.6600000000000001,
        4.6799999999999997,
        4.7000000000000002,
        4.7199999999999998,
        4.7400000000000002,
        4.7599999999999998,
        4.7800000000000002,
        4.7999999999999998,
        4.8200000000000003,
        4.8399999999999999,
        4.8600000000000003,
        4.8799999999999999,
        4.9000000000000004,
        4.9199999999999999,
        4.9400000000000004,
        4.96,
        4.9800000000000004,
        5.0,
        5.0199999999999996,
        5.04,
        5.0599999999999996,
        5.0800000000000001,
        5.0999999999999996,
        5.1200000000000001,
        5.1399999999999997,
        5.1600000000000001,
        5.1799999999999997,
        5.2000000000000002,
        5.2199999999999998,
        5.2400000000000002,
        5.2599999999999998,
        5.2800000000000002,
        5.2999999999999998,
        5.3200000000000003,
        5.3399999999999999,
        5.3600000000000003,
        5.3799999999999999,
        5.4000000000000004,
        5.4199999999999999,
        5.4400000000000004,
        5.46,
        5.4800000000000004,
        5.5,
        5.5199999999999996,
        5.54,
        5.5599999999999996,
        5.5800000000000001,
        5.5999999999999996,
        5.6200000000000001,
        5.6399999999999997,
        5.6600000000000001,
        5.6799999999999997,
        5.7000000000000002,
        5.7199999999999998,
        5.7400000000000002,
        5.7599999999999998,
        5.7800000000000002,
        5.7999999999999998,
        5.8200000000000003,
        5.8399999999999999,
        5.8600000000000003,
        5.8799999999999999,
        5.9000000000000004,
        5.9199999999999999,
        5.9400000000000004,
        5.96,
        5.9800000000000004,
        6.0,
        6.0199999999999996,
        6.04,
        6.0599999999999996,
        6.0800000000000001,
        6.0999999999999996,
        6.1200000000000001,
        6.1399999999999997,
        6.1600000000000001,
        6.1799999999999997,
        6.2000000000000002,
        6.2199999999999998,
        6.2400000000000002,
        6.2599999999999998,
        6.2800000000000002,
        6.2999999999999998,
        6.3200000000000003,
        6.3399999999999999,
        6.3600000000000003,
        6.3799999999999999,
        6.4000000000000004,
        6.4199999999999999,
        6.4400000000000004,
        6.46,
        6.4800000000000004,
        6.5,
        6.5199999999999996,
        6.54,
        6.5599999999999996,
        6.5800000000000001,
        6.5999999999999996,
        6.6200000000000001,
        6.6399999999999997,
        6.6600000000000001,
        6.6799999999999997,
        6.7000000000000002,
        6.7199999999999998,
        6.7400000000000002,
        6.7599999999999998,
        6.7800000000000002,
        6.7999999999999998,
        6.8200000000000003,
        6.8399999999999999,
        6.8600000000000003,
        6.8799999999999999,
        6.9000000000000004,
        6.9199999999999999,
        6.9400000000000004,
        6.96,
        6.9800000000000004,
        7.0,
        7.0199999999999996,
        7.04,
        7.0599999999999996,
        7.0800000000000001,
        7.0999999999999996,
        7.1200000000000001,
        7.1399999999999997,
        7.1600000000000001,
        7.1799999999999997,
        7.2000000000000002,
        7.2199999999999998,
        7.2400000000000002,
        7.2599999999999998,
        7.2800000000000002,
        7.2999999999999998,
        7.3200000000000003,
        7.3399999999999999,
        7.3600000000000003,
        7.3799999999999999,
        7.4000000000000004,
        7.4199999999999999,
        7.4400000000000004,
        7.46,
        7.4800000000000004,
        7.5,
        7.5199999999999996,
        7.54,
        7.5599999999999996,
        7.5800000000000001,
        7.5999999999999996,
        7.6200000000000001,
        7.6399999999999997,
        7.6600000000000001,
        7.6799999999999997,
        7.7000000000000002,
        7.7199999999999998,
        7.7400000000000002,
        7.7599999999999998,
        7.7800000000000002,
        7.7999999999999998,
        7.8200000000000003,
        7.8399999999999999,
        7.8600000000000003,
        7.8799999999999999,
        7.9000000000000004,
        7.9199999999999999,
        7.9400000000000004,
        7.96,
        7.9800000000000004,
        8.0,
        8.0199999999999996,
        8.0399999999999991,
        8.0600000000000005,
        8.0800000000000001,
        8.0999999999999996,
        8.1199999999999992,
        8.1400000000000006,
        8.1600000000000001,
        8.1799999999999997,
        8.1999999999999993,
        8.2200000000000006,
        8.2400000000000002,
        8.2599999999999998,
        8.2799999999999994,
        8.3000000000000007,
        8.3200000000000003,
        8.3399999999999999,
        8.3599999999999994,
        8.3800000000000008,
        8.4000000000000004,
        8.4199999999999999,
        8.4399999999999995,
        8.4600000000000009,
        8.4800000000000004,
        8.5,
        8.5199999999999996,
        8.5399999999999991,
        8.5600000000000005,
        8.5800000000000001,
        8.5999999999999996,
        8.6199999999999992,
        8.6400000000000006,
        8.6600000000000001,
        8.6799999999999997,
        8.6999999999999993,
        8.7200000000000006,
        8.7400000000000002,
        8.7599999999999998,
        8.7799999999999994,
        8.8000000000000007,
        8.8200000000000003,
        8.8399999999999999,
        8.8599999999999994,
        8.8800000000000008,
        8.9000000000000004,
        8.9199999999999999,
        8.9399999999999995,
        8.9600000000000009,
        8.9800000000000004,
        9.0,
        9.0199999999999996,
        9.0399999999999991,
        9.0600000000000005,
        9.0800000000000001,
        9.0999999999999996,
        9.1199999999999992,
        9.1400000000000006,
        9.1600000000000001,
        9.1799999999999997,
        9.1999999999999993,
        9.2200000000000006,
        9.2400000000000002,
        9.2599999999999998,
        9.2799999999999994,
        9.3000000000000007,
        9.3200000000000003,
        9.3399999999999999,
        9.3599999999999994,
        9.3800000000000008,
        9.4000000000000004,
        9.4199999999999999,
        9.4399999999999995,
        9.4600000000000009,
        9.4800000000000004,
        9.5,
        9.5199999999999996,
        9.5399999999999991,
        9.5600000000000005,
        9.5800000000000001,
        9.5999999999999996,
        9.6199999999999992,
        9.6400000000000006,
        9.6600000000000001,
        9.6799999999999997,
        9.6999999999999993,
        9.7200000000000006,
        9.7400000000000002,
        9.7599999999999998,
        9.7799999999999994,
        9.8000000000000007,
        9.8200000000000003,
        9.8399999999999999,
        9.8599999999999994,
        9.8800000000000008,
        9.9000000000000004,
        9.9199999999999999,
        9.9399999999999995,
        9.9600000000000009,
        9.9800000000000004,
        10.0,
        10.02,
        10.039999999999999,
        10.06,
        10.08,
        10.1,
        10.119999999999999,
        10.140000000000001,
        10.16,
        10.18,
        10.199999999999999,
        10.220000000000001,
        10.24,
        10.26,
        10.279999999999999,
        10.300000000000001,
        10.32,
        10.34,
        10.359999999999999,
        10.380000000000001,
        10.4,
        10.42,
        10.44,
        10.460000000000001,
        10.48,
        10.5,
        10.52,
        10.539999999999999,
        10.56,
        10.58,
        10.6,
        10.619999999999999,
        10.640000000000001,
        10.66,
        10.68,
        10.699999999999999,
        10.720000000000001,
        10.74,
        10.76,
        10.779999999999999,
        10.800000000000001,
        10.82,
        10.84,
        10.859999999999999,
        10.880000000000001,
        10.9,
        10.92,
        10.94,
        10.960000000000001,
        10.98,
        11.0,
        11.02,
        11.039999999999999,
        11.06,
        11.08
    ]
}