{
	"f0": [NaN,54.67547405,54.94640103,55.1124059,55.03892624,54.74636469,53.99597869,53.98221958,53.99088915,53.8941815,54.08752033,54.12160829,54.05856998,54.05023578,54.0900138,54.09956986,53.87378005,54.27509479,54.46548887,54.8189611,55.66244101,55.79301448,55.7484384,55.7526965,55.79203308,55.71430843,55.57679564,55.51149095,55.38332546,55.49281573,55.51337018,55.49409296,55.54604801,55.5992295,55.59378111,55.59061774,55.62599443,55.61923641,55.69375648,55.83711028,55.92140142,67.92245295,67.85279996,67.667171,55.84482143,55.88559864,55.80993306,55.66341686,55.59996959,55.51116923,55.48262824,55.60303051,55.65924749,55.58334062,56.16147952,56.56718039,56.70982139,45.64424259,45.63129675,56.93520015,56.5159752,56.47151425,56.27873913,55.2374858,45.38607444,57.39378357,56.84100803,56.33329903,58.24140416,58.38389221,56.54504872,56.63109681,56.68370712,56.91478094,53.43483728,56.87120965,56.94590788,57.17399484,56.66004571,57.07214445,57.6367616,57.9120248,57.98473122,57.88995222,57.75847928,57.95122922,58.10750537,58.04703009,76.99268183,77.21847841,58.13631394,58.14113837,58.29703416,58.13043799,57.87113684,57.64060854,57.62018304,57.9252489,60.20676814,72.26059438,59.92062548,59.45495463,59.37032393,59.11969113,59.14349746,59.22418043,59.16547163,59.23525203,59.25245744,59.33108292,59.76066651,59.87887047,59.38805094,59.20077725,59.32243338,59.28022959,71.7390385,71.35024808,71.58949827,62.15444483,59.24095326,59.51444393,59.14716685,59.09168397,59.34857243,59.47078799,59.37598751,59.37442744,59.35782801,59.49493684,59.9047088,59.99350402,59.4943702,59.5188153,59.95873479,60.48667102,59.96532396,59.82927666,60.39973487,60.62747971,60.53547498,60.35184011,60.2080923,60.30675812,60.91856072,62.3746379,62.3706399,63.83657672,64.2666845,62.80781824,61.24642702,61.52483579,63.10221195,57.46220087,56.65436412,57.42567834,57.72064462,57.91976555,58.02224297,57.93344468,57.81436998,57.98706419,57.83091549,76.64516737,76.81039288,76.19354484,58.59701022,58.44168815,58.23366073,57.6412362,57.57799945,57.33393433,63.20306868,63.19186559,63.28514279,75.78230018,75.82751378,76.19354484,63.72134228,63.63928901,63.52841888,63.80076946,64.07323539,64.40539443,64.62076051,64.70177,64.68968008,64.81544233,64.89131417,65.02883287,65.01901307,76.93907418,76.72863482,75.48682058,63.89899788,63.7936276,64.08912411,63.8005877,75.60372348,75.6635059,64.19709914,64.61228459,64.46894355,63.55622235,63.19705571,62.9893373,63.14764042,63.56228581,64.26002646,64.35708828,64.50474912,64.19354484,63.83657672,61.21841468,60.77227376,60.70643047,60.84550785,61.17362336,61.22282135,61.24429142,61.39213644,61.34977487,61.42830877,61.33314599,61.32033365,61.44569249,61.70675337,62.56553983,62.88224713,63.26715258,63.12331302,61.86080966,61.780744,62.26520243,62.59466909,62.75040525,62.79444807,62.66787324,62.95776045,63.03449379,62.99621452,63.02776126,63.04239821,62.76862941,62.73706533,62.77613738,62.78988155,62.9353541,63.23368121,63.32968824,63.25121474,63.15754494,62.914464,62.63505382,62.73168699,62.97146891,63.08593279,62.82093306,62.62607667,62.70263088,63.43393223,63.15401149,62.39281861,62.72423013,62.85963064,62.93841093,63.01474037,63.21265719,62.84587436,63.20386544,63.29292199,63.53915545,63.29025676,62.83646287,62.72671237,62.7532463,62.91132294,63.15681581,63.09404485,63.15258643,63.27774646,63.44630737,63.30141305,61.92352871,64.43756111,63.90900569,63.73862406,64.05935369,61.99813708,61.57724144,61.51127091,61.16193316,60.85655917,63.17354619,53.99409893,67.16557577,65.69991543,68.12978007,68.61328834,61.53720575,43.56494692,60.0442468,58.42002457,57.17399484,56.01165637,53.91905358,54.98611176,55.61875392,67.79349433,67.89272829,68.69965447,55.27669431,55.47956828,55.54009119,55.61566689,55.69533688,55.67050845,55.82941978,55.91297756,55.68995524,55.53495535,62.80781824,76.93035138,76.93035138,73.27037132,71.76273913,72.38503711,72.82030695,60.83737999,60.65388458,59.91481603,59.98032061,60.61499684,72.91732291,61.83677829,62.1588516,61.48007302,61.01871952,60.54878214,60.40665404,73.52483579,63.83657672,62.4024909,62.47016547,61.86043267,62.80781824,61.32950136,61.19009669,60.99645071,60.4289669,60.33291565,60.47357913,60.65819307,60.85601905,61.02324214,72.91726242,72.9768223,73.1272245,73.45543464,61.22382294,61.29918327,61.1130719,61.08272235,61.08873371,60.59400633,60.92468947,61.0289054,60.98483143,60.9611165,61.03541214,61.19492882,61.2302481,61.83677829,60.74896662,61.10838993,62.98122634,63.48682058,76.92690525,51.4410566,60.88105252,61.19436566,62.15444483,60.8445074,60.98635121,61.4649113,61.73382111,61.22274378,60.57420929,60.91732291,61.20727207,73.14852692,73.13172523,63.14399075,60.93505661,61.01820818,60.79379059,72.34232645,61.87863776,61.49536195,61.15506566,61.06672577,60.92384904,60.74853847,60.67188444,60.82806645,60.97461279,61.01918525,61.02172677,60.96883517,60.74263687,72.83082869,60.87262142,60.98147307,60.69407542,60.72987833,60.80309166,60.80863279,61.03536564,73.26040434,73.14498046,73.04747985,73.02902022,73.39845938,75.56645385,74.74079311,61.728534,61.17759926,60.97664142,60.91732291,61.21841468,60.96280479,60.91732291,59.97605692,52.30720569,57.65785872,52.21573162,56.92215584,60.92527266,61.73709178,61.92223904,62.7618359,71.76273913,76.93035138,NaN,NaN,NaN],
	"ap0": [NaN,0.7541592204,0.8657155002,0.09983358594,0.08810743041,0.1240021858,0.0855856056,0.08104431397,0.05924510986,0.02669072385,0.07681312187,0.09272998741,0.06678820966,0.04351682825,0.03913046426,0.05823209633,0.1401371786,0.2244233818,0.1815322586,0.1777446569,0.1333640897,0.0440264236,0.02296033838,0.023821901,0.02973220607,0.04014318381,0.05094398323,0.08398698225,0.1519966407,0.09791890627,0.08299648033,0.05596485365,0.0316116174,0.0481857353,0.09266304851,0.09906582418,0.03182412024,0.01400776556,0.0172512281,0.04384230216,0.06256519881,0.06717851424,0.06421742753,0.541899329,0.1319447761,0.139528095,0.2094527314,0.2587674495,0.2121372946,0.104645692,0.1485660253,0.2710699598,0.307437123,0.3197134116,0.1481358274,0.1434743078,0.3165854225,0.3624323157,0.3570036033,0.4159648171,0.3432181381,0.424652434,0.5018485817,0.4493422156,0.643122656,0.3745223691,0.3916163959,0.4521490875,0.5403376956,0.5265071319,0.427332239,0.3479129282,0.4615485883,0.6412268325,0.7883039249,0.5758001242,0.3537133818,0.3036127941,0.04912800182,0.0841611625,0.1238611183,0.2185790822,0.1479443823,0.05073895688,0.03809438217,0.06933929916,0.1188514839,0.1375007418,0.1433444557,0.42713581,0.167792463,0.1397073826,0.1218035648,0.05055286561,0.05488552288,0.1706078981,0.292470501,0.2233377755,0.1709442166,0.1031872217,0.1017262293,0.06051852052,0.09160019996,0.1897787091,0.1701539769,0.1230300519,0.1586291979,0.1045985134,0.07921807049,0.0931753722,0.1320979611,0.1632752254,0.2346615678,0.2104126417,0.1926689579,0.2980868078,0.2796598292,0.1287053145,0.2193284117,0.6752376252,0.09073595613,0.2541659122,0.1413957895,0.07093809238,0.05834432347,0.04070432021,0.03029600249,0.03700458121,0.06599833051,0.1003368049,0.1081223654,0.0896685075,0.02882760489,0.01976135638,0.03228405854,0.04514676845,0.2609355061,0.3183087194,0.2383845603,0.1250233429,0.1192214763,0.2665487826,0.07699847937,0.08118365107,0.4227713959,0.5358244378,0.6542380633,0.7482927643,0.535201695,0.4272934978,0.2106238329,0.2493594121,0.4856050373,0.4742649223,0.1535766307,0.1507779934,0.1693426813,0.1863896672,0.1028782853,0.04466198571,0.04008995952,0.1098593028,0.2400183477,0.1436849929,0.2652441335,0.6427661666,0.2762431043,0.1930205881,0.0891186834,0.2898338728,0.5478261472,0.6126997692,0.4888600056,0.558828687,0.3103529766,0.2470381273,0.10883064,0.2719858888,0.09825375681,0.2115176975,0.4525346512,0.3630738845,0.285328403,0.1632680204,0.1346069377,0.1178784224,0.0968285741,0.1075408978,0.07262058722,0.04090318168,0.02983181859,0.05078576277,0.202188618,0.5702349269,0.2090906031,0.1705240185,0.2028154748,0.2303262777,0.1581949274,0.3651813517,0.2974798049,0.228768084,0.3103943282,0.222082403,0.1011006325,0.1562829977,0.2158511539,0.1599697081,0.1806345146,0.2517614254,0.4091502744,0.5102698103,0.5007119425,0.3582007423,0.08463651082,0.02425760051,0.02424952179,0.05211074221,0.1388293043,0.09330428178,0.03340291981,0.01781151992,0.01520277951,0.01173298206,0.009758165629,0.01828100766,0.113612758,0.07158640106,0.05937074548,0.04611646735,0.06048777427,0.05280555593,0.03610301196,0.04627371141,0.04662067728,0.04769168623,0.05510587148,0.09977961333,0.1383413903,0.03330174074,0.01918374064,0.1270646983,0.187151778,0.08677900889,0.04475740134,0.01618149377,0.005832899887,0.019135564,0.05667312049,0.104145894,0.06779014291,0.03450722664,0.04705273583,0.07413882079,0.03711526808,0.02507693564,0.01679745597,0.01495563715,0.03236993914,0.1607325625,0.2517757252,0.2747663404,0.2304630747,0.05108915475,0.01812791156,0.01309897921,0.03504936897,0.1372072233,0.1955101994,0.03600295292,0.03126658177,0.06453295834,0.1770822954,0.06848815541,0.04855825308,0.04136773085,0.04417276961,0.0705580155,0.272769441,0.1111152289,0.0867345538,0.1680275475,0.2489375563,0.3877233217,0.6027765225,0.34146948,0.1470967284,0.171682617,0.3126903801,0.2711232765,0.2331263492,0.4839974085,0.5388877933,0.68034397,0.7136453921,0.7628108682,0.543418361,0.5361432719,0.5593163337,0.7603416616,0.7029328746,0.5526871944,0.4292517964,0.3749340154,0.430042564,0.242376776,0.169374295,0.0968531955,0.09113927008,0.08095414333,0.3400911046,0.2208091194,0.07614126142,0.1162460605,0.1332527003,0.1837263616,0.1933544645,0.09271214238,0.1198942918,0.2470622013,0.4045115022,0.7356065337,0.5898015367,0.5324501171,0.6519024044,0.5816993807,0.2700231695,0.1466294098,0.05507251933,0.2250714494,0.2828961357,0.2738358912,0.3092905822,0.6591227527,0.4570142022,0.3113956626,0.2417974058,0.197277123,0.2470424293,0.4338043374,0.5542449293,0.8394664873,0.3166181593,0.3232790897,0.3068241053,0.3908536758,0.1892337024,0.07775571481,0.08401612066,0.05749852776,0.03068978797,0.03863755252,0.06145405014,0.1101204117,0.08225797554,0.04615286487,0.02943069493,0.07486655752,0.4979815889,0.1110010365,0.06356722452,0.04744313687,0.03197919066,0.04793362329,0.1487098817,0.1555179492,0.1202487103,0.08535511898,0.1061217025,0.1356281351,0.1388055816,0.1369965537,0.3527165341,0.2568108278,0.307912331,0.5490780041,0.7359531584,0.9662795214,0.7420443168,0.5909312266,0.3021694259,0.4998956897,0.3844245244,0.2537690974,0.2946781014,0.1910492521,0.290200705,0.4178255274,0.3145509926,0.2365809548,0.07505373312,0.2110540093,0.5798042842,0.2479164971,0.3404631823,0.3920526599,0.6361267735,0.4250574421,0.207136154,0.173006889,0.2164204513,0.1523134461,0.1136068449,0.2185255358,0.377591219,0.2962890122,0.1115837871,0.06842330596,0.1689584363,0.5338753577,0.1228863812,0.06015738302,0.06034330835,0.1337498705,0.0750208583,0.05244665316,0.07655594623,0.2060677661,0.1350723648,0.05148626814,0.03775321209,0.06345127395,0.2696374929,1.106306253,0.5215439995,0.2467549509,0.1035003093,0.09355848479,0.3064556211,0.4135549583,0.5510304338,0.4555778899,0.8342477538,0.7776509972,0.7406369236,0.7344992144,0.7142452155,0.7595255633,0.8140275892,0.7983827437,0.6492244345,1,1,NaN,NaN,NaN],
	"ap": [NaN,0.4731993309,0.3467096465,0.6074152504,0.2588673001,0.01962217052,0.2066564573,0.02956303862,0.05877079111,0.02432379992,0.01515299063,0.02410456851,0.07230070154,0.01243645859,0.01062355566,0.0265611606,0.009583183074,0.05605911813,0.2287447417,0.06613530832,0.08204567415,0.07805296075,0.08182907946,0.01356713483,0.01203858034,0.02821608356,0.01509614248,0.02676751914,0.06680936047,0.1543403936,0.1170477376,0.01160097337,0.02068442202,0.01990223269,0.03076252526,0.05112031029,0.04666286466,0.03450045612,0.00210580166,0.01511308783,0.01546713017,0.07737384039,0.03053227437,0.01818110728,0.03117048139,0.03221465359,0.127916109,0.1187485182,0.1797410571,0.1085707547,0.07879439932,0.04144779583,0.1755554611,0.04775178637,0.3132247437,0.06006997214,0.1128676229,0.4100534156,0.1679106491,0.103228019,0.08149854926,0.379367695,0.1819417617,0.2267260809,0.5073677676,0.438331899,0.1133368601,0.2762420587,0.2572602279,0.2676541134,0.1523808229,0.2255931852,0.16711508,0.2955709564,0.7216716322,0.6494939993,0.3302101031,0.09806099128,0.1230484218,0.1144164605,0.02442449149,0.0254702112,0.09101707252,0.05990339936,0.03579178944,0.02155266669,0.04285956286,0.0295170707,0.1370160182,0.08297666012,0.3316506084,0.0373416672,0.05001243173,0.1197281361,0.01934489087,0.003380237135,0.09737278104,0.05499696186,0.5350763625,0.8947678226,0.06127629474,0.09444325179,0.03449102901,0.02689030359,0.09378389663,0.1132553237,0.1428191219,0.02695187459,0.1579204357,0.01258097871,0.08086492651,0.06177840549,0.09144332181,0.04588861715,0.1580991674,0.07699251447,0.8367207693,0.497482346,0.02774671342,0.7607383591,0.3361676444,0.02732172834,0.09179328994,0.1245888549,0.07319638909,0.05923240641,0.03801876351,0.0262500841,0.02203974286,0.002693690967,0.0564515639,0.02983143161,0.08657061653,0.01980007154,0.0152376935,0.01007369521,0.04966935077,0.08621912637,0.07403313194,0.1174269387,0.08708424753,0.05692799096,0.1496361212,0.1832019373,0.05410655365,0.1871915098,0.4480954586,0.4144136104,0.3730924645,0.4670317678,0.3441159372,0.125051948,0.129889747,0.4331505301,0.407371081,0.1521362656,0.08863515675,0.1264041011,0.1170705842,0.04374526145,0.04064747439,0.02973400226,0.02482655996,0.122332956,0.06028931778,0.01568897036,0.4030855563,0.03951128694,0.1672353217,0.09119730697,0.04984111472,0.39368596,0.431750539,0.2258400888,0.2335484908,0.5385547423,0.6159592688,0.04282831868,0.1051029031,0.05641067367,0.1142972886,0.4093938735,0.2218128483,0.2394733734,0.101264133,0.05712277567,0.05115059744,0.0610149903,0.05087258531,0.04892699532,0.03259045545,0.0663967982,0.007111104312,0.2171687327,0.2432629296,0.06853018567,0.04448206251,0.07740987714,0.3338327743,0.01468266734,0.3309290063,0.05969528103,0.2053289644,0.1852916436,0.3042936337,0.06532416858,0.04934531621,0.1668088558,0.2030027808,0.08087194366,0.08818228487,0.1116372389,0.1453780978,0.5654755243,0.1210026027,0.2072491472,0.02069402449,0.006196120541,0.02334749872,0.1558873094,0.1432387085,0.05577081447,0.004837949788,0.006598932279,0.01082172286,0.009179368038,0.01519173838,0.1031817122,0.07490430481,0.04970221155,0.03305809702,0.1082036555,0.01408844228,0.01623348987,0.01523048331,0.02922620429,0.03252849762,0.1261390041,0.03904841375,0.08534454231,0.04616390048,0.01003690254,0.07004005301,0.07568093978,0.1070633621,0.06724953384,0.001927376926,0.001409082413,0.01364975471,0.02439933661,0.08658616449,0.1247694837,0.009957893221,0.009336441699,0.01724886873,0.01831572296,0.009604893976,0.007791742328,0.0200371089,0.01416272051,0.2218175646,0.02896257967,0.1731717917,0.2504145828,0.09220579309,0.01110795215,0.005999620083,0.03813049772,0.1003283248,0.09215405318,0.04915722832,0.0226808342,0.009820609867,0.1201723149,0.05642356218,0.0102785861,0.02162485447,0.05516714871,0.02075242874,0.0793895387,0.4397167237,0.02775535075,0.06373040329,0.3156279602,0.2113847698,0.2510504803,0.2158450652,0.07955882644,0.1245840197,0.1496995507,0.2776517598,0.1232726489,0.08563313967,0.4198080196,0.6456876426,0.2327009749,0.6017941354,0.4449752762,0.74644879,0.4345337387,0.3671508493,0.7513599127,0.7056858307,0.5497544401,0.242271199,0.09645405227,0.1917625155,0.1471447569,0.381366262,0.05494957998,0.1141626945,0.1649587865,0.203962822,0.0362564733,0.02240506271,0.0624080768,0.05777292742,0.07225066461,0.03519632784,0.03274617038,0.1112696907,0.1517774456,0.4163861278,0.5085930628,0.5925351387,0.3863149098,0.2342881155,0.5514100014,0.1880012074,0.02055674054,0.2643053567,0.1050297388,0.1077186513,0.0280391897,0.5245826585,0.3783591362,0.09732173102,0.2676543688,0.1622354127,0.08837463605,0.6347128748,0.3120256027,0.3682984541,0.1214905442,0.4596650529,0.2980025988,0.1795623692,0.2758770374,0.01922371156,0.1022964924,0.04648410367,0.04137096958,0.0191408884,0.08604055954,0.06160739433,0.0674682357,0.04863287368,0.00204285019,0.01667558991,0.044990852,0.07805451652,0.01474572065,0.0374012316,0.02431413198,0.05046136559,0.1340361179,0.05372401279,0.04414323988,0.04137717772,0.07426122441,0.03188813438,0.02129453444,0.03452627351,0.1797938335,0.2553842082,0.1768407213,0.09430124137,0.2742039679,0.5716858557,0.282926143,0.3418557054,0.2313130213,0.1577238545,0.416979995,0.1401846477,0.2970189222,0.04986148623,0.4763500143,0.2836883112,0.1989371347,0.9196835625,0.03945320665,0.4733308353,0.2963190127,0.0770055913,0.3094941162,0.219660961,0.5700277545,0.3760868875,0.1187046075,0.07120253421,0.03376003689,0.1133771352,0.01999176475,0.4072309752,0.08762416652,0.1511104774,0.04754636335,0.0105576614,0.04630263754,0.5174210261,0.5301428148,0.02083708259,0.02461339486,0.0493331176,0.02102793281,0.01053248549,0.03158417144,0.124787865,0.5770651931,0.05508699418,0.01221776122,0.01441470146,0.4463683315,0.5637513751,0.5813671062,0.2522856442,0.0964985931,0.09406811166,0.2554456247,0.1414558887,0.2872504446,0.3070746834,0.5379892324,0.4228456047,0.1722011624,0.7002280824,0.5794512455,0.4558015849,0.3462782869,0.3485457988,0.5000021117,1,NaN,NaN,NaN],
	"pwr": [NaN,6.888154073e-06,5.111318778e-06,1.800055706e-05,0.0001118811693,0.005558330158,0.0008877025436,0.0006504344794,0.0009646339193,0.0003758975345,0.0006723168423,0.0004745370792,0.000830929419,0.001213236764,0.0008067903671,0.0006260924383,0.0004265980288,0.0003666248681,0.000201452512,0.0003177474077,0.0005158562098,0.0006691988818,0.003499761839,0.01903153973,0.01690458678,0.01920294728,0.008576271191,0.005506451249,0.00304485672,0.001378605625,0.0007603925545,0.003958442774,0.005620831104,0.008749301087,0.01372424835,0.005646802505,0.003598495419,0.004628737894,0.01020581526,0.0171602406,0.01860362728,0.03124467101,0.05472811401,0.03212060069,0.01406852641,0.01277064608,0.01343532904,0.01783861443,0.008537809775,0.006375589286,0.003819788551,0.00677084691,0.002544037833,0.006096402255,0.002905180803,0.002081754205,0.004454975382,0.005905430374,0.004094009619,0.002441158515,0.003987636601,0.002906780622,0.001491915338,0.002965493489,0.0005110916037,0.0004953928598,0.0004204487272,0.0004569510973,0.0003821951393,0.0002324323064,0.0004960781252,0.0002612960786,0.0003733729369,0.0001781920332,5.259433071e-05,1.107303053e-05,4.497118553e-05,8.721796864e-05,0.0001053827752,0.0005339627126,0.01372031378,0.01322542857,0.01957069537,0.02226367875,0.03862496421,0.03537543459,0.009710600549,0.01272534831,0.01396996312,0.04479332601,0.0175563346,0.003205524392,0.001510394239,0.00116284726,0.003403039455,0.003786361661,0.0007107332355,0.001000454287,0.001428854717,0.009750318654,0.1080381595,0.1401325834,0.04991199536,0.06392213648,0.02435915603,0.04186091703,0.01625266673,0.01337318235,0.004755484402,0.07379171391,0.04400683967,0.02090050395,0.01052397607,0.0115913602,0.002643617971,0.004601710627,0.003332519405,0.0003178929859,0.006177072559,0.003067687305,0.0007862283934,0.006189177883,0.0007138390884,0.0002887622557,0.002836278819,0.005307496809,0.004553453112,0.006312193163,0.005062548409,0.007280614084,0.003949582866,0.001817707386,0.00010154362,0.003137177788,0.01225632496,0.01123459333,0.005504582088,0.000396149763,0.0004960757509,0.0009608030274,0.001085123434,0.0009005156372,5.648076817e-05,0.000154306818,0.002263318432,7.765506485e-05,0.0002367468845,0.0003067012068,0.0006755753595,0.0001312773182,5.588224993e-05,0.0001177125492,0.0001070243766,5.259407131e-05,3.61637678e-05,9.467822238e-05,0.0021021025,0.007524123267,0.01513463093,0.01936521492,0.04004604141,0.04213356669,0.0130132519,0.02336870848,0.06000426708,0.007330281153,0.001659751907,0.002195678506,0.001054878417,0.001695206466,0.001827790394,0.001764917542,0.001358305574,0.001456405051,0.0005199704538,0.001500277334,0.01144900065,0.1362148804,0.08984977187,0.03576547667,0.03164348871,0.001476854517,0.0147115867,0.01597871035,0.03230319608,0.05860351647,0.1001401694,0.0701051998,0.04023076365,0.02006992278,0.05775788315,0.09467036604,0.2364903635,0.03304194028,0.005916666953,0.0204926608,0.04796000252,0.05998219983,0.06168899129,0.08626138987,0.01217481363,0.01686429512,0.009317198852,0.006312167122,0.001983162052,0.007101244945,0.02330814816,0.01405336913,0.01710269319,0.003197429702,0.01166207272,0.00236414534,0.0001253908422,0.0001294073361,0.0003973866703,0.002311162118,0.01406963095,0.05304114737,0.01215535672,0.002497905707,0.001327630722,0.001596498714,0.007758516892,0.007952715892,0.01534030505,0.03970448361,0.02208943824,0.003018959883,0.000886122214,0.01623460839,0.007777909976,0.002635202399,0.005827604968,0.01577483734,0.00602023914,0.00305854942,0.01378665658,0.00419591098,0.001668830119,0.0002636271269,0.003412980861,0.008259610243,0.0003204426262,0.0001563508425,0.0002701066774,0.001514404164,0.01912111957,0.02126677729,0.01687993081,0.008367133551,0.007612238428,0.0004423716012,0.004695569919,0.001653497742,0.001677994912,0.00428558077,0.00775312084,0.01038229265,0.004453769567,0.009071305779,0.0002915382705,0.0002155810517,0.000121239874,4.786570604e-05,0.001106185942,0.0117990084,0.01002964739,0.002081881432,0.0001323816838,0.0002820717449,0.0005121575446,0.009037484075,0.002004572893,3.82438036e-05,0.0001466976962,0.00137894856,0.001476116538,0.0009754094711,0.0003442692543,6.928208909e-05,7.775375869e-06,0.0002456071632,5.578196254e-05,2.511823426e-05,2.811742809e-05,4.150241274e-05,9.23394945e-05,0.0001399412071,0.0002427634041,0.0001985008121,3.71637654e-05,0.0001126435645,4.680762127e-05,2.039411198e-05,1.953916662e-05,3.829479693e-05,1.401894869e-05,2.700535231e-05,1.079725278e-05,5.333914294e-05,1.158649989e-05,5.446826719e-06,9.397345199e-05,3.165901095e-05,0.0003394723837,0.0009207614509,0.0003105201573,0.001718373245,0.009762010505,0.04959434095,0.07308323491,0.01404677949,0.003775069005,0.00372799655,0.007465232515,0.01036971167,0.009795031421,0.01798335607,0.006855243875,0.01148840409,0.002876654648,0.001051014134,0.0006628131909,0.0001494671426,4.575395427e-05,7.391257039e-05,9.671671812e-05,0.001703471832,0.0234401429,0.3545335378,0.01631876287,0.03391123739,0.03891262299,0.01016728691,0.001836761393,0.001745477075,0.006096729234,0.01148396208,0.01169665041,0.006038660415,0.001743383961,0.004203536138,0.003283489903,0.001659393547,0.001109236924,0.001301317158,0.001268656621,0.002465686043,0.03024228795,0.1333053165,0.04446568311,0.04754495647,0.08814883929,0.05066552488,0.026910029,0.006318647005,0.01819166693,0.2091563414,0.09203344876,0.07349131225,0.0187704012,0.002908878033,0.006040200176,0.01748840242,0.01078136732,0.001659523002,0.008197263267,0.006846825648,0.009169465423,0.001245378552,0.001585771542,0.002046284156,0.001355132634,0.0002535556278,0.000295922548,0.0006545157826,0.0003328085982,0.0003008812165,1.049771512e-05,1.184940008e-05,7.704426023e-06,1.282925843e-05,1.806498654e-05,9.929600296e-05,6.990334013e-05,2.744193304e-05,2.510265043e-05,6.085558996e-06,1.315881522e-06,3.392010476e-06,3.082924924e-06,3.501825971e-06,3.669636927e-06,8.4409924e-07,9.157455324e-07,3.227766528e-07,2.196008798e-07,9.680669893e-08,5.007792757e-08,1.341938062e-07,9.847801841e-08,2.331918117e-07,1.431259273e-07,2.233136018e-07,6.260727153e-08,4.074038977e-08,2.735851602e-08,9.772736571e-08,1.819346818e-07,1.014806172e-08,7.454753061e-09,3.610178998e-09,3.51248685e-07,1.185764643e-07,1.744401985e-08,4.444573443e-08,9.897714282e-08,6.84201424e-08,1.255854126e-08,6.553562567e-09,1.803028455e-09,5.967214715e-08,3.389049456e-08,4.67934729e-09,6.131494131e-10,6.683914079e-10,4.255294327e-09,1.624539052e-09,4.054464657e-09,3.533307136e-10,3.313002439e-09,7.577031722e-10,2.34766792e-10,1.586841462e-11,3.00449124e-11,1.365245086e-10,2.159670626e-10,1.224930393e-10,1.431052765e-10,2.039151517e-10,2.317142347e-10,2.628733074e-11,0,NaN,NaN,NaN],
	"sr": 16000,
	"range": [1,142592],
	"minf0": 63.1883,
	"maxf0": 706.3069,
	"thresh": 0.1,
	"relflag": 1,
	"hop": 320,
	"bufsize": 10000,
	"wsize": 640,
	"lpf": 4000,
	"shift": 0,
	"plotthreshold": 0.2
}
