{
	"f0": [NaN,53.30773818,53.83127454,54.0979178,53.39023575,52.94119624,52.62899773,52.35814595,52.43658722,56.13574395,54.7640062,58.30304196,74.92214567,74.88612774,69.94902285,74.23355032,74.1925133,74.21531437,43.33297291,74.26408521,74.00889178,73.64169499,54.64364355,54.70931689,70.28291476,69.481509,74.11892071,73.57859239,60.45873642,60.28863978,59.341524,64.60071119,54.71262168,55.63761787,56.01590284,56.53314022,56.76748423,56.8845663,57.41612942,69.73477599,69.48545852,56.82782928,56.92331695,57.19705833,57.70267356,56.58387402,54.31691499,66.48218328,67.04390062,67.31468132,67.33002883,67.30557254,67.44682507,67.573669,67.66262504,67.80727442,67.94642757,67.84453253,67.75093625,67.35589291,67.16491544,66.8655473,66.43896566,66.85313565,66.48015385,66.21885427,66.60771084,66.61132508,66.6471221,66.68997926,66.66177409,66.64605074,66.73020656,66.58902056,67.06801359,67.0529968,66.90266284,66.31854764,66.48532823,66.56831251,66.41434209,66.05749875,65.78104418,65.64301896,76.93035138,76.93035138,65.48811746,65.57957898,65.62715043,65.64069687,65.63876336,65.63360495,65.60135704,65.57536113,76.93035138,76.93035138,76.93035138,65.44688476,65.55586123,65.5468559,65.50412615,65.49504475,65.51278792,76.93035138,76.93035138,76.93035138,76.93035138,65.48981615,65.40349984,65.40888263,65.58376836,65.5193006,65.39476223,65.51647442,65.55429653,65.47736591,65.45337304,65.42212912,65.22440568,67.34995772,65.30596431,65.57092467,65.67650471,65.54710307,65.44630889,65.14477605,65.00489122,72.955974,63.40038931,59.89320871,52.25956257,58.50872171,49.75777673,49.73384435,49.60876562,58.74073556,58.76517044,58.64937103,58.48388298,58.46210834,58.53590911,58.67248226,58.80259679,58.64582961,58.81181566,59.16849982,59.48573577,58.75009732,57.48595877,66.91063726,66.49891459,67.01004361,67.35877282,67.54077426,67.67620779,67.92738105,67.94784228,67.92763517,67.82138814,67.84689153,67.88139132,67.76229026,67.70593113,67.65214727,67.46992253,67.27545774,66.91060534,66.62889599,66.5673909,66.59604201,66.58700562,66.59214672,66.6040135,66.63390246,66.67661955,66.61672814,66.72286451,66.71022435,66.69206348,66.70098228,65.94480175,65.72694844,66.16540301,66.47440466,66.45164739,65.85039911,65.77453052,65.72468547,65.7038633,65.7349663,65.78783174,65.75711087,65.73010596,65.76241443,65.73779677,65.7048295,65.70875708,65.76588318,65.82487245,65.76564995,65.74219416,65.71463744,65.6987884,65.65955113,65.6043606,65.60627331,65.61225009,65.60234079,65.60866307,65.65889053,65.71088031,65.71406441,65.82351647,65.82086702,65.7560006,65.66767927,65.15916774,64.90881935,65.33219027,65.58782029,65.59469515,65.48604968,65.71636318,65.87641568,65.78501769,58.84835227,59.52778244,50.23782306,62.48353867,62.84256092,62.91450335,62.9966653,63.18551334,63.21213424,63.2231859,63.17666124,63.06115853,62.98656497,63.26944412,63.2634597,62.89193158,63.01974028,63.36812119,62.09121002,62.80781824,63.3300897,63.31379071,63.22010574,74.84279703,73.46953261,63.69895755,76.56031691,76.93035138,60.88812852,61.46797891,61.84260325,61.948785,62.02941021,62.13648548,62.28688159,63.04386266,63.47272374,63.5667364,63.34367237,63.06743841,62.98048094,62.62998346,62.28542103,62.19706068,62.12083869,62.08915703,62.02132891,61.86446767,61.8458311,62.13852816,61.95495604,61.81866786,61.82318496,61.89476271,62.02482578,62.0555674,62.08289014,62.0943982,62.10389872,62.34708782,62.30753613,62.18214674,62.13876814,62.10409317,61.99008364,62.05079789,61.90580303,61.88304843,62.04885606,62.06164344,62.08532793,62.07238296,62.00115769,62.00885676,62.08528992,62.12691437,62.05103439,61.98049678,61.92327244,62.05480102,62.14751281,62.04420501,62.04196414,61.85723412,61.82033207,61.82017056,61.86688291,61.76624049,61.8971327,61.92158395,73.88132849,73.99732797,61.9183329,61.89834423,61.79829171,61.7523758,61.69321233,61.97470475,62.01942521,61.83979575,61.73375856,61.82575956,61.87571485,62.17164278,62.0641085,61.94715184,61.82315559,61.78145975,61.74425493,61.83677829,61.70466958,62.13435141,73.99935806,74.07968494,75.48682058,61.85327259,61.75194055,61.74892428,61.90394322,61.89849646,61.81051288,61.95386593,74.05495524,73.990112,62.05542906,62.02697911,62.01136747,61.97948415,61.90554089,61.86392912,61.90074044,61.95840162,61.9562786,61.92222178,61.97324827,62.03078449,61.98686662,61.91409052,61.89259967,61.78811977,61.88936946,61.94561604,61.91899395,61.91919484,61.96764368,62.00699433,62.0333127,62.18692026,61.77782691,61.55905527,61.53146547,61.45043643,61.20626993,60.51311049,76.3480075,77.15239123,76.99400876,76.95932602,76.93035138,76.93035138,76.93035138,76.93035138,NaN,NaN,NaN],
	"ap0": [NaN,0.541124049,0.401060424,0.4461306333,0.5757603731,0.5267016336,0.5099585728,0.4387237491,0.5743447853,0.6977452367,0.5428790379,0.6701945238,0.566468849,0.5074456205,0.6010833879,0.6572951638,0.5963463441,0.8600968281,0.8001560699,0.5682088975,0.5667148544,0.4816312869,0.4090373003,0.6475269943,0.6961902305,0.5974664318,0.6074388602,0.6715813933,0.6166022776,0.517406011,0.4884599162,0.7750606322,0.9168957681,0.09739498953,0.04647673664,0.01946302191,0.02859730099,0.07418618796,0.284215562,0.1512556182,0.2689997105,0.1787113861,0.1569434219,0.1670635511,0.3405568235,0.6359729496,0.4779281992,0.2497204042,0.1165322397,0.03595120775,0.02918802137,0.05061435955,0.05891590482,0.05901472008,0.06166795055,0.05108943226,0.04803844611,0.03964622305,0.04400454407,0.148246927,0.1081268024,0.07832687999,0.0711237093,0.143024772,0.1601882092,0.1175174415,0.08884590462,0.05990792603,0.02996602878,0.0213547767,0.0172416284,0.01860896305,0.05583568065,0.1726319302,0.2896816846,0.205236453,0.1852169413,0.07673772675,0.06806043153,0.1020651813,0.1293139425,0.1427585342,0.1421758582,0.1203759804,0.1138510354,0.1161285545,0.02258798348,0.03292458861,0.04540195292,0.0528736406,0.0439334346,0.02939924363,0.01610935011,0.009855529486,0.07137458608,0.05750294262,0.1016012683,0.05100066763,0.06671123563,0.05886150677,0.03401283901,0.01785916627,0.01170243537,0.07028079677,0.04919311759,0.04843809083,0.1016320431,0.08999251931,0.09667774849,0.1340155911,0.09561065517,0.1121261892,0.0902714347,0.03870871995,0.0490022542,0.07625887059,0.1046420633,0.1348335575,0.1670072918,0.5321432117,0.1303532337,0.07328689969,0.1142785917,0.1358324242,0.1320673349,0.1852588505,0.3078414102,0.6012590381,0.661723906,0.7104927291,0.6420539837,0.4223085729,0.3830778419,0.5332794662,0.8093709052,0.7955641485,0.6110135908,0.1524836331,0.06104458481,0.04065591964,0.06064660969,0.08945866265,0.04907414916,0.03423431614,0.08763864493,0.2152670598,0.2397056354,0.3300548643,0.6254723465,0.4608758602,0.1313488344,0.1112317815,0.0787916627,0.06682503645,0.06208443642,0.05560094212,0.08541725143,0.09969231826,0.1136099275,0.08354498813,0.06688418398,0.03323574175,0.02485974032,0.03846275898,0.05338308002,0.07197394363,0.1266781897,0.05789211142,0.04336668094,0.04847040272,0.06016436867,0.03424580994,0.03321252187,0.05016503127,0.03958504928,0.03966832588,0.0529154774,0.0377622301,0.02007747332,0.02554217208,0.1109257573,0.1282872992,0.1007081434,0.03171719815,0.08811531167,0.07312914852,0.04535852307,0.03613838039,0.04132850111,0.05967794394,0.04851254757,0.04070392155,0.05313614726,0.05474131007,0.05151635643,0.03217978876,0.02489774644,0.05826750725,0.08595472055,0.05998275103,0.04253670005,0.03803287846,0.02860492455,0.02078983783,0.01251256902,0.01030479684,0.01742938761,0.02356940732,0.02468627877,0.03605244522,0.05996144145,0.06469674408,0.0982422289,0.04929850131,0.03453165046,0.04493012209,0.1252267878,0.2454438705,0.4850939561,0.2517694499,0.3838268822,0.5906197534,0.4764324773,0.2143952419,0.2525139437,0.5212959356,0.4524005599,0.6412318108,0.232771292,0.0976252074,0.08447902679,0.147608328,0.1659370424,0.1580325416,0.1903358745,0.1680713991,0.1347633746,0.1281636907,0.2439849551,0.3235698583,0.2837420928,0.2856634618,0.3063238345,0.5012827898,0.587129061,0.3275523431,0.1261408699,0.1344212736,0.2318942395,0.5846717846,0.7098891713,0.3707010327,0.7774029733,0.4321991053,0.2052699701,0.1229416227,0.1690161126,0.1499189982,0.09004147248,0.1325420438,0.2062581825,0.1544934017,0.156187834,0.2313808119,0.2845534281,0.2994153206,0.2619272812,0.1606373363,0.1357052924,0.1892541125,0.1865217332,0.1682565411,0.2651822576,0.4077422983,0.3524712481,0.1537176444,0.1044424073,0.124444896,0.09478739932,0.1244793498,0.09786346783,0.05987185249,0.05418344193,0.06466213345,0.1175613759,0.2857832121,0.2387425282,0.1147981278,0.1087658609,0.1098972631,0.06133741023,0.09708258821,0.08699350312,0.04686883387,0.0541218791,0.09135985664,0.136440398,0.1505933343,0.1723857143,0.1667591086,0.1552181259,0.1432702654,0.1026143522,0.07478059562,0.06706816784,0.04244483351,0.04809706028,0.1310211637,0.2161972564,0.1959164418,0.1088380464,0.03756254493,0.04899715098,0.04695007272,0.03385041526,0.06455192499,0.3711568532,0.2189354041,0.106008692,0.07550912673,0.09879071565,0.2221139467,0.1764431128,0.163939875,0.2046826471,0.197390619,0.1854858756,0.2577899878,0.3264154201,0.2703147967,0.2258694364,0.21709305,0.2288348203,0.2743838934,0.2148615982,0.1799414037,0.2368771369,0.2285012061,0.1126105122,0.651319253,0.2228960413,0.1336158464,0.1445162408,0.1921252597,0.1222868537,0.1312630009,0.1872587005,0.08965934697,0.3107984344,0.2117035982,0.2070145904,0.2278924702,0.1821940757,0.1778752125,0.2023941773,0.1788741054,0.1303378266,0.1240410268,0.09347353012,0.090808812,0.1253785097,0.1478227958,0.1673333722,0.2298715707,0.5300415567,0.345930535,0.1708612581,0.1133619319,0.09874551228,0.1358563068,0.2331068567,0.2370272455,0.30345762,0.4223337966,0.3581001002,0.3523314873,0.4913730463,0.6461878555,0.8292333137,0.6876133518,0.8783952178,0.7883171576,0.7775112585,1,1,1,1,NaN,NaN,NaN],
	"ap": [NaN,0.3126766744,0.246854665,0.1265281602,0.2831806127,0.3650401015,0.4438206271,0.4367717584,0.1786829764,0.3837453952,0.5492618341,0.3032210278,0.1864250999,0.2800912386,0.4433301506,0.2506797186,0.6195249724,0.2042614982,0.5683398136,0.3152899318,0.6247304283,0.3118602195,0.4807467813,0.2295431135,0.3378973111,0.5495195747,0.3793502355,0.6038410942,0.3962962473,0.4775504705,0.3921513266,0.5425223837,0.6360382288,0.6731305525,0.32692105,0.04784014386,0.0204428903,0.003167827963,0.08230480122,0.414273937,0.38256158,0.109228135,0.09434910825,0.040871398,0.1882589602,0.09300748403,0.2822752565,0.6217320796,0.1918329154,0.1047618078,0.01405805508,0.01437366497,0.01064333911,0.0594320107,0.01495103132,0.03259683007,0.02737732212,0.009615835863,0.01472242312,0.03665327434,0.05279106704,0.1436795091,0.04524796532,0.0231396422,0.04975844305,0.06318493075,0.1372150665,0.09251148551,0.01914314345,0.05317739735,0.01640763763,0.003307905042,0.008775835167,0.03141120216,0.02385038914,0.3661883075,0.00908834593,0.1260314489,0.0178574623,0.02502429008,0.05538359448,0.04192933556,0.07718818095,0.04224951807,0.5709085782,0.07528973302,0.002465085347,0.003929430605,0.01292257165,0.0176612194,0.04793305967,0.008137264027,0.03736247924,0.006921224636,0.1058799558,0.03607581824,0.05023998668,0.02025108619,0.02998554635,0.008597807907,0.04387453533,0.04045415319,0.007968443555,0.04203793363,0.01264047657,0.01121339228,0.02166247,0.0160623174,0.07814802408,0.03989916015,0.07472055292,0.117659116,0.02514994671,0.1609087009,0.01138685359,0.020451201,0.0233388199,0.1115990449,0.1729635511,0.4683946711,0.463942404,0.2236359434,0.02416682017,0.03590877259,0.07726172173,0.07238156191,0.08946484337,0.5877546409,0.3975068571,0.3103878254,0.5965149505,0.4008873438,0.4618676813,0.2018557803,0.5183093239,0.5589750538,0.1606685498,0.2699752319,0.2473080698,0.03935849702,0.02455764852,0.02674111734,0.07674321446,0.01792282742,0.01474554698,0.03621431143,0.1575209137,0.1804946068,0.09953409357,0.7104245824,0.5084035974,0.1385065106,0.1352639724,0.03323884402,0.008971299689,0.02853886383,0.02450579976,0.03489136225,0.02622123635,0.08869742508,0.103911574,0.0102778837,0.01862375733,0.006377589467,0.02593222529,0.05966832975,0.02887503032,0.1360803666,0.04443972681,0.009580932564,0.03891584471,0.1584950673,0.006721994788,0.01379042943,0.02691351431,0.0516237944,0.00720371828,0.09219859662,0.03282962154,0.008006497084,0.0310207459,0.04978081157,0.03585542301,0.02447879717,0.01692906331,0.06479547264,0.07061358554,0.0141941151,0.03167928306,0.01658802526,0.03418944558,0.02993540704,0.01346527159,0.03982603763,0.02181772039,0.03711669793,0.03445004185,0.01855989058,0.02700092411,0.03343998519,0.03100283165,0.02674585527,0.02218982372,0.01613141154,0.007117387553,0.005579234264,0.0009256331659,0.002120439661,0.0247147685,0.02366000413,0.01030870247,0.01152899916,0.06073717257,0.04076988425,0.06774474961,0.02278314481,0.07739165004,0.09541086388,0.154353846,0.5304942689,0.1860309085,0.2372854649,0.7072871099,0.2776024355,0.1703745054,0.083722673,0.4701483226,0.4511295855,0.4721220043,0.1229164407,0.07915108052,0.03173977695,0.1352067418,0.1055509995,0.02773256708,0.1194760288,0.09401670394,0.08483662547,0.06502171023,0.06095274086,0.1009306227,0.1908103666,0.2070648735,0.1535497099,0.1451730619,0.2997803985,0.2924476178,0.05260083793,0.05758911343,0.1183581432,0.3665316641,0.8089268655,0.4111133117,0.8564553825,0.3534653046,0.09293875721,0.08713603168,0.04881734102,0.08230809566,0.02490561996,0.2684846886,0.213868507,0.07021822162,0.04214220364,0.1326135737,0.1263335594,0.2917503095,0.1983128875,0.133683712,0.05187484725,0.1809843964,0.1096047482,0.09493844948,0.08113012136,0.1801172876,0.3126403812,0.0910190212,0.03572955029,0.05807639815,0.07097378368,0.05603180796,0.05642114459,0.02245191854,0.02323319606,0.08243244878,0.02910565757,0.07601601197,0.1866790907,0.09624062608,0.01491343852,0.06621320454,0.04893685861,0.04037601437,0.02524366964,0.02154035539,0.02885761459,0.04386497607,0.07207780722,0.06241811505,0.07156374615,0.05661593458,0.08714330425,0.1297385024,0.07933108199,0.0177829969,0.04117034077,0.0352307463,0.008308599756,0.03055192469,0.1395990271,0.0645769058,0.2468104208,0.003856901453,0.01213821927,0.04904011477,0.03664721493,0.01803673209,0.2500617976,0.1450898222,0.1425257993,0.02051115441,0.07685670019,0.1141288123,0.1492041322,0.03156367944,0.1127094071,0.145248087,0.05655493402,0.2504398521,0.3101749218,0.1509483163,0.131165741,0.02860384039,0.08221241867,0.1553666864,0.1671226083,0.07717324518,0.9382402046,0.2757674813,0.07559392132,0.1538754104,0.1545663723,0.05145108707,0.1932910579,0.1559490068,0.0447997538,0.0646787684,0.8843254848,0.04475504941,0.08426878081,0.1486877179,0.167818334,0.1623196734,0.1201410873,0.1048772821,0.3982070096,0.03693985804,0.1117765223,0.0183321185,0.03948172907,0.02253133929,0.02365105499,0.03244229525,0.04003241978,0.1357159409,0.1398176063,0.2723598328,0.1650412422,0.06163110392,0.04721319783,0.08142527126,0.3596924194,0.1736732457,0.2089158652,0.3183523837,0.2468766432,0.1927625286,0.1340864322,0.3347566187,0.5413774249,0.4062863433,0.5725940195,0.5000002297,0.500000213,1,1,1,NaN,NaN,NaN],
	"pwr": [NaN,8.782978369e-08,9.048665811e-07,9.308846635e-07,9.787242189e-07,1.7267107e-07,1.895307146e-07,1.05157811e-06,1.639062396e-06,1.495917117e-06,4.726826073e-07,6.743535814e-07,1.049849933e-06,1.327810577e-06,3.166906817e-06,6.225229401e-06,1.288414374e-06,5.396097369e-06,6.146034939e-06,4.653303225e-06,5.794216599e-06,2.57138923e-05,1.040984696e-05,2.711003895e-05,2.47123541e-06,4.388962927e-06,5.371677793e-06,4.864704187e-06,4.170751533e-06,9.694578012e-06,4.131963647e-06,5.379640712e-06,3.637750886e-06,7.739989676e-06,3.906819754e-05,0.00151604931,0.002776605982,0.006491190031,0.003063818756,0.0003369553953,7.219520929e-05,0.0009330830592,0.0003334304466,0.001165567146,0.0003778694057,0.001019909112,0.0007145381942,0.001294198139,0.004094905981,0.01305701816,0.02730072776,0.0384912884,0.01886104614,0.01231455967,0.01934843196,0.02690778595,0.01015982478,0.01805656066,0.04532757312,0.05091604935,0.008853680814,0.0141221003,0.02055540453,0.01747847045,0.00401908053,0.005470716056,0.001914243511,0.002799796594,0.01309482538,0.04632560237,0.08050640507,0.2369129195,0.1691084912,0.01306032602,0.004759586516,0.0007481305374,0.004355896748,0.01399155103,0.004403760272,0.007872239012,0.002216355134,0.0056158509,0.002521394499,0.004335416942,0.005847846474,0.02835998252,0.2740017723,0.1059408129,0.05492839378,0.04172799403,0.04145415382,0.02476690722,0.03159843446,0.03960403498,0.03773521533,0.1469877796,0.1168492337,0.03958472946,0.008568236481,0.00623761152,0.00798745896,0.02353005868,0.05174397473,0.05985794078,0.03689081737,0.02679668306,0.01616820899,0.00919522229,0.005909608455,0.001475214355,0.0006562929546,0.0004077677271,0.000927275775,0.0009266805157,0.001225521002,0.001179233999,0.001070583699,0.0005719127229,4.144955083e-05,0.0002692038572,1.018128697e-05,3.163634773e-05,7.277230198e-05,4.406035914e-05,6.074204967e-05,0.0002575340404,0.0001431102574,8.815508268e-05,3.958953894e-05,2.245521134e-06,2.517233747e-06,5.863728631e-06,8.189978867e-06,2.095280279e-05,5.559689762e-05,1.155295478e-05,7.902628297e-05,0.0004755837624,0.0007103139695,0.01035686405,0.02451491191,0.02092035398,0.005742565795,0.005233061492,0.005239905778,0.00186346911,0.0008487675666,0.001422364535,0.000981026462,0.0004651841815,0.0003538387975,0.002800277395,0.04238497546,0.05877857786,0.06860454085,0.03764585861,0.02044775791,0.04648296411,0.0171010827,0.01525864474,0.004773135341,0.01855692767,0.004833487863,0.03171872238,0.01878535904,0.003840965929,0.004076028234,0.001055159899,0.002857348389,0.01156118159,0.009704701425,0.001246951634,0.01225953121,0.02317515085,0.00590991525,0.001518745345,0.00647663999,0.001419260411,0.004459950807,0.009334606451,0.01378086561,0.0005769295586,0.001317611812,0.0008032227024,0.001460890348,0.005615970544,0.003733124453,0.06615463165,0.04850028466,0.05057757726,0.01874819738,0.007529162604,0.02091539662,0.008829290602,0.02022815361,0.01718726899,0.03204487899,0.03024160431,0.00498746603,0.002903666694,0.003612403588,0.006966914021,0.02130067567,0.02887489444,0.06750730742,0.08868345528,0.05175157501,0.04141889748,0.02835858303,0.02843618909,0.012706849,0.006537412991,0.003973421276,0.003704200645,0.003347087244,0.02053015271,0.005277676334,0.0053560859,0.009400945986,0.003765350223,0.001825839715,0.0001026332363,4.688053284e-05,0.000144968008,0.000389478091,0.001416440509,0.0004634480617,0.002058008208,0.01335946313,0.005259549946,0.01003979346,0.01703160449,0.003173525547,0.001015458671,0.002892201062,0.002468355547,0.003650891466,0.003543630241,0.004181987916,0.001251563547,0.000509356739,0.002515626666,0.01389789403,0.003449127497,0.000373216778,0.0001517720522,0.0002123242349,0.000478498582,0.0006829612179,0.0004386635174,0.0001988340536,0.0001478089138,0.0002995617232,0.004373336137,0.01023302628,0.01009791635,0.009855346391,0.003533006337,0.01043744747,0.007833814538,0.01412400182,0.005180722447,0.006439664066,0.01244331475,0.008845514309,0.01020115362,0.003323016789,0.01158573353,0.00601359553,0.02967555795,0.003350085367,0.003098803576,0.01714762088,0.007714828081,0.005857049905,0.001163939102,0.001792990189,0.003393377035,0.002603993271,0.002737555179,0.004682134629,0.0063465379,0.01277255525,0.01513141924,0.006333844722,0.003848653069,0.003025341245,0.004743405199,0.008160309285,0.01887527911,0.005579211012,0.006027661944,0.005450200137,0.003766395052,0.005493221857,0.002976988421,0.003949152904,0.001289266108,0.002718092259,0.003530448188,0.001548573405,0.0009665393961,0.0008074266987,0.003405990469,0.006255419337,0.004716261091,0.005070998335,0.004139642078,0.00115160906,0.0005626629751,0.004266093565,0.0003446012338,0.002342701049,0.002229133192,0.001185583845,0.001498315497,0.0007218893251,7.553258145e-05,4.165908046e-05,0.0002525589806,0.0006917249618,0.0005842347028,0.0001240945819,5.309462445e-06,7.275861975e-05,2.72454226e-05,1.697834638e-05,1.124044927e-05,4.323584501e-06,2.450814429e-06,2.79310733e-06,7.946141766e-06,1.955373189e-06,1.900711632e-06,1.996603202e-06,3.092431603e-07,5.597569243e-07,6.206977424e-07,9.396033523e-08,1.715051476e-06,4.619014689e-07,1.74646707e-07,1.714851174e-07,6.771783233e-08,1.877100932e-08,1.515913903e-07,2.358270605e-07,6.249642941e-08,4.730609297e-08,3.423170211e-08,9.204221205e-09,1.679399299e-08,7.103557665e-09,1.378854029e-08,2.016979683e-08,1.622644519e-09,3.318993809e-09,2.206561194e-09,1.774607683e-08,1.06448564e-08,3.175849298e-08,1.375617203e-08,6.259275799e-09,3.065240589e-09,8.062327517e-09,5.843767822e-10,3.09546582e-10,1.262453698e-09,6.240254599e-09,1.021420155e-08,6.639416151e-09,4.351369828e-10,1.118249131e-09,4.247903167e-10,5.865979824e-10,1.041750456e-09,7.071308464e-10,3.510419943e-10,2.189583377e-10,2.202349497e-11,2.307091799e-11,2.309338227e-10,8.112022425e-11,2.606690902e-10,0,0,0,NaN,NaN,NaN],
	"sr": 16000,
	"range": [1,124672],
	"minf0": 63.1883,
	"maxf0": 706.3069,
	"thresh": 0.1,
	"relflag": 1,
	"hop": 320,
	"bufsize": 10000,
	"wsize": 640,
	"lpf": 4000,
	"shift": 0,
	"plotthreshold": 0.2
}
