{
    "f0": [
        53.481508883780094,
        53.653774467428285,
        42.19113323232537,
        41.593997000582988,
        40.975529501190309,
        40.701018879192368,
        40.236639955446201,
        40.255831186180103,
        40.133848394048627,
        40.410249744998808,
        40.538104189615737,
        40.736744031792171,
        40.628414939151462,
        40.633990863786323,
        40.933285400918237,
        40.760684840587956,
        40.586346346984698,
        40.636961917658624,
        39.883546765559153,
        40.581714316033953,
        40.645098670037221,
        40.830181766883626,
        43.632596987002877,
        43.554438982036579,
        43.360382490857276,
        43.222651753518647,
        42.90629801733045,
        43.064731615186339,
        43.065012155783791,
        43.065296915680847,
        43.047711688191427,
        43.036560260146622,
        43.211400793419848,
        43.128993795940303,
        43.311760941380946,
        43.406583869020864,
        43.500890433242127,
        43.420689919509698,
        42.926508660115999,
        43.205085880525175,
        43.369228431805659,
        43.531834452191816,
        43.692919589886884,
        43.806793630880847,
        43.980580769645755,
        44.122642385915242,
        43.928672061996373,
        43.802562062754127,
        43.640276373047847,
        43.631054500741982,
        43.621830440360597,
        43.784865390422034,
        44.20172048617804,
        44.827374676185975,
        45.431202337477231,
        45.664922622033998,
        45.541654385221499,
        45.718002700128686,
        45.649337122275959,
        45.637770035195473,
        45.626197643203774,
        45.539798062745746,
        45.316603686249707,
        44.80995034251724,
        45.323236665485965,
        45.511664969182597,
        45.502378108086454,
        45.623891588005627,
        45.379866980032865,
        45.490124137309962,
        42.14874730758217,
        43.844613225864379,
        44.050085528657831,
        44.753325237620942,
        45.533231225364489,
        45.523004319802439,
        45.512771216545545,
        45.502532061054509,
        45.318291875394181,
        45.392491544550126,
        43.316410619228826,
        45.749434508078963,
        45.455794427615771,
        45.612087354174093,
        45.079454788125588,
        44.465677704997056,
        0.0,
        38.092381034979056,
        45.076410220680188,
        44.428864609891662,
        43.901541745666904,
        43.631778409928742,
        43.570884782155971,
        43.745984285185251,
        44.338363649476619,
        44.817423333544127,
        45.501527749351844,
        45.444592422140545,
        45.102103174504578,
        45.410620091748235,
        45.433421690622296,
        45.246972892072215,
        45.332298344521433,
        45.337189590215758,
        45.342074825210226,
        45.346960841736866,
        45.327451738521361,
        44.449687668641289,
        44.325811520685072,
        45.055608643312226,
        44.658059781596407,
        46.403250997012577,
        43.460641032327686,
        43.857909041886856,
        43.486708246280102,
        55.043455808814564,
        55.106729415694161,
        43.31970412270033,
        43.142730305364807,
        43.159365856194142,
        43.330969691335056,
        43.93605775002883,
        43.234495120951181,
        43.476605735585146,
        43.370035826906459,
        44.040601020265328,
        43.323976123570986,
        43.381756539014532,
        43.390943217514831,
        42.77574868510272,
        42.137880910410892,
        43.257459299374808,
        43.512042696767828,
        44.575761565041262,
        44.849330420863154,
        48.333311348264729,
        41.167036944839992,
        40.7537762977461,
        40.631564796654175,
        40.508482809446747,
        40.636591145991858,
        40.54290915204033,
        40.303403753554797,
        40.515298635768843,
        40.572860957619753,
        40.63023718203879,
        40.830736242515556,
        40.576992858020468,
        40.408192855369244,
        40.86411681990193,
        40.788213591844624,
        40.739086358307411,
        40.434688427087046,
        41.292673006276594,
        40.604627770464965,
        40.702074789662447,
        41.183631873356944,
        41.177098344774656,
        41.357354685526175,
        40.770000923911688,
        40.721532035903309,
        40.555024067147258,
        0.0,
        0.0,
        0.0,
        56.7450312100339,
        55.683030136971922,
        41.661853331055454,
        52.583526043698434,
        52.583526043698434,
        53.375017855350528,
        53.583477405020759,
        53.535273943874749,
        56.357141310714034,
        55.412276917720796,
        54.994258174463468,
        53.208351848619102,
        53.008328196155546,
        55.383786714242518,
        54.899541467624388,
        54.330937703035829,
        51.730350823634794,
        39.444896280130294,
        39.653673140168664,
        39.628169834637077,
        39.446819465330734,
        39.430037648468002,
        39.330113925694192,
        39.342273410643102,
        39.554288868068618,
        39.656421686492926,
        39.498736886380279,
        39.430761495438951,
        40.17187285545657,
        39.73797283757682,
        39.388329117934802,
        0.0,
        0.0,
        0.0,
        51.658949106717998,
        42.162642739066023,
        42.038231951965535,
        41.912922147564693,
        41.60897283735752,
        41.390284760140361,
        41.496417554436967,
        41.403328615559253,
        41.309735064216063,
        41.713651078570727,
        41.837110095918192,
        41.959690421388792,
        42.147100737262321,
        42.354073623501392,
        42.436132281020505,
        42.987063759892266,
        42.959237190249652,
        43.202628343338688,
        42.386572044483295,
        38.975249254473532,
        38.970631605875312,
        45.867626513649824,
        45.475151402491754,
        45.245835253510393,
        45.438087728588172,
        45.042043704764097,
        44.873025571942335,
        44.702342175772557,
        44.580126953848549,
        45.110803105456498,
        45.00292601041685,
        44.894371224951847,
        44.785131622823961,
        45.519868922861704,
        45.287329279303719,
        45.390667320428676,
        45.493396779837155,
        44.88879267241402,
        44.695581951528069,
        45.150121978966254,
        45.108678072334101,
        44.855705232087871,
        44.87885597742617,
        45.620206818230365,
        45.462845499594259,
        45.568155092964304,
        45.49646463588293,
        45.342366769065059,
        45.306732713565559,
        45.722813816543791,
        45.827792645664246,
        45.555237053032741,
        45.156465616666253,
        46.162382931190074,
        47.113049026723672,
        46.899919799680411,
        46.684135179867681,
        46.977358961643517,
        47.265698936662332,
        47.021996072005962,
        0.0,
        57.140308044638203,
        0.0,
        0.0,
        47.12775495785705,
        46.421030039692944,
        45.71430785517245,
        45.54031017684602,
        45.599203282283597,
        45.540412536829066,
        45.410842949404966,
        45.315888029799325,
        45.152894184207682,
        45.210738428853489,
        45.225050264856883,
        45.433277712999072,
        45.297325800383106,
        44.254620679492547,
        0.0,
        0.0,
        71.641412641482489,
        0.0,
        0.0,
        45.332367821154115,
        56.904268873208032,
        44.406074264994494,
        43.699350220308808,
        43.349593113270778,
        42.774270039711894,
        43.240716911963958,
        42.969835073958322,
        42.993384462615111,
        42.912411237133497,
        43.084673692804422,
        43.198663528586238,
        43.001469737906369,
        43.787804613928571,
        45.03817063157058,
        45.266466374131774,
        45.426521544535035,
        45.267720900189516,
        45.107451383474839,
        45.457418976018175,
        45.122140911734604,
        44.691707641540489,
        45.304536028400484,
        45.579589932902849,
        45.479698743932062,
        45.457458675755198,
        45.435186470423254,
        45.412884345734504,
        45.390560532123345,
        45.368201886518676,
        45.278130501421714,
        45.221639947262069,
        45.320153251120388,
        45.30197916635916,
        45.283778860822537,
        45.168595279510029,
        45.101519570976691,
        44.835668125780849,
        44.317018990291345,
        45.378478430209462,
        45.625060365712542,
        45.533726136575055,
        45.105765033191219,
        45.012422182887477,
        44.918573168868029,
        45.167043315234864,
        45.389263170863416,
        46.131619523693132,
        45.706472199130204,
        45.741266118831874,
        45.49918193704768,
        45.977179419978675,
        46.106972773482248,
        52.721449115212366,
        37.74914789432647,
        56.785496372126154,
        52.82280869694614,
        72.953791458126659,
        0.0,
        45.034894659945479,
        45.034894659945479,
        45.034894659945479,
        59.737461173863302,
        0.0,
        0.0,
        46.808908451184251,
        45.920900302388873,
        45.571144556487027,
        45.397149860117807,
        45.569411096021796,
        45.368615721564609,
        45.949363313555708,
        45.662928150711792,
        45.834283962600345,
        46.160591990885194,
        46.746996253882827,
        46.836161176810315,
        47.164309809489652,
        46.481246728983606,
        45.453161685573576,
        45.374352157185264,
        45.801952521165916,
        48.249391142457903,
        47.625612979873203,
        47.72970526972064,
        48.535376489242324,
        45.762323266958191,
        45.429663298158232,
        45.571938055851447,
        45.713056581520931,
        45.503273829155049,
        45.413032027572029,
        44.911291000612707,
        45.119258740950649,
        44.82307723874063,
        44.0508376807323,
        45.354979689053579,
        45.491564494435849,
        44.045213871132653,
        42.466916298155027,
        42.625065255046934,
        43.555156863397173,
        43.191576288611159,
        42.96926930227059,
        43.751702235910436,
        45.205725937665498,
        43.002018207582545,
        43.562770116914649,
        43.560997011986508,
        43.055171158350042,
        43.523355066193204,
        43.395617782564145,
        43.165274193329509,
        42.931823051148733,
        42.907044704518775,
        42.983335374101436,
        43.059296608025569,
        43.134928632165632,
        43.051218044770408,
        43.078798098389406,
        43.275367352195651,
        42.524522593991378,
        42.780701638670457,
        42.720909279251373,
        43.069876365955096,
        43.265365146887234,
        43.531302513559758,
        44.100316592403729,
        44.651224589272481,
        43.769809135021987,
        42.926784708041311,
        42.985284624209015,
        43.052861498548182,
        43.323491856917464,
        49.456358100419479,
        46.950674252149035,
        44.698945818549312,
        44.173518811267726,
        42.831924461853895,
        42.084265547772162,
        41.456421697619049,
        38.785936434094651,
        41.117219527358628,
        42.53076102439217,
        44.137575336014827,
        45.470688178632869,
        45.538381546724146,
        46.024457423421921,
        0.0,
        0.0,
        0.0,
        0.0,
        45.261501929677664,
        43.190708460008153,
        43.372479052815294,
        0.0,
        0.0,
        0.0,
        0.0,
        0.0,
        0.0,
        0.0,
        0.0,
        0.0,
        0.0,
        0.0,
        0.0,
        0.0,
        0.0,
        0.0,
        0.0,
        0.0,
        0.0,
        0.0,
        0.0,
        0.0,
        0.0,
        0.0,
        0.0,
        0.0,
        0.0,
        0.0,
        0.0,
        0.0,
        0.0,
        0.0,
        0.0,
        0.0,
        0.0,
        0.0,
        0.0,
        0.0,
        0.0,
        0.0,
        0.0,
        0.0,
        0.0,
        0.0,
        0.0,
        0.0,
        0.0,
        0.0,
        0.0,
        0.0,
        0.0,
        0.0,
        0.0,
        0.0,
        0.0
    ],
    "time": [
        0.02,
        0.040000000000000001,
        0.059999999999999998,
        0.080000000000000002,
        0.10000000000000001,
        0.12,
        0.14000000000000001,
        0.16,
        0.17999999999999999,
        0.20000000000000001,
        0.22,
        0.23999999999999999,
        0.26000000000000001,
        0.28000000000000003,
        0.29999999999999999,
        0.32000000000000001,
        0.34000000000000002,
        0.35999999999999999,
        0.38,
        0.40000000000000002,
        0.41999999999999998,
        0.44,
        0.46000000000000002,
        0.47999999999999998,
        0.5,
        0.52000000000000002,
        0.54000000000000004,
        0.56000000000000005,
        0.57999999999999996,
        0.59999999999999998,
        0.62,
        0.64000000000000001,
        0.66000000000000003,
        0.68000000000000005,
        0.69999999999999996,
        0.71999999999999997,
        0.73999999999999999,
        0.76000000000000001,
        0.78000000000000003,
        0.80000000000000004,
        0.81999999999999995,
        0.83999999999999997,
        0.85999999999999999,
        0.88,
        0.90000000000000002,
        0.92000000000000004,
        0.93999999999999995,
        0.95999999999999996,
        0.97999999999999998,
        1.0,
        1.02,
        1.04,
        1.0600000000000001,
        1.0800000000000001,
        1.1000000000000001,
        1.1200000000000001,
        1.1399999999999999,
        1.1599999999999999,
        1.1799999999999999,
        1.2,
        1.22,
        1.24,
        1.26,
        1.28,
        1.3,
        1.3200000000000001,
        1.3400000000000001,
        1.3600000000000001,
        1.3799999999999999,
        1.3999999999999999,
        1.4199999999999999,
        1.4399999999999999,
        1.46,
        1.48,
        1.5,
        1.52,
        1.54,
        1.5600000000000001,
        1.5800000000000001,
        1.6000000000000001,
        1.6200000000000001,
        1.6399999999999999,
        1.6599999999999999,
        1.6799999999999999,
        1.7,
        1.72,
        1.74,
        1.76,
        1.78,
        1.8,
        1.8200000000000001,
        1.8400000000000001,
        1.8600000000000001,
        1.8799999999999999,
        1.8999999999999999,
        1.9199999999999999,
        1.9399999999999999,
        1.96,
        1.98,
        2.0,
        2.02,
        2.04,
        2.0600000000000001,
        2.0800000000000001,
        2.1000000000000001,
        2.1200000000000001,
        2.1400000000000001,
        2.1600000000000001,
        2.1800000000000002,
        2.2000000000000002,
        2.2200000000000002,
        2.2400000000000002,
        2.2599999999999998,
        2.2799999999999998,
        2.2999999999999998,
        2.3199999999999998,
        2.3399999999999999,
        2.3599999999999999,
        2.3799999999999999,
        2.3999999999999999,
        2.4199999999999999,
        2.4399999999999999,
        2.46,
        2.48,
        2.5,
        2.52,
        2.54,
        2.5600000000000001,
        2.5800000000000001,
        2.6000000000000001,
        2.6200000000000001,
        2.6400000000000001,
        2.6600000000000001,
        2.6800000000000002,
        2.7000000000000002,
        2.7200000000000002,
        2.7400000000000002,
        2.7599999999999998,
        2.7799999999999998,
        2.7999999999999998,
        2.8199999999999998,
        2.8399999999999999,
        2.8599999999999999,
        2.8799999999999999,
        2.8999999999999999,
        2.9199999999999999,
        2.9399999999999999,
        2.96,
        2.98,
        3.0,
        3.02,
        3.04,
        3.0600000000000001,
        3.0800000000000001,
        3.1000000000000001,
        3.1200000000000001,
        3.1400000000000001,
        3.1600000000000001,
        3.1800000000000002,
        3.2000000000000002,
        3.2200000000000002,
        3.2400000000000002,
        3.2599999999999998,
        3.2799999999999998,
        3.2999999999999998,
        3.3199999999999998,
        3.3399999999999999,
        3.3599999999999999,
        3.3799999999999999,
        3.3999999999999999,
        3.4199999999999999,
        3.4399999999999999,
        3.46,
        3.48,
        3.5,
        3.52,
        3.54,
        3.5600000000000001,
        3.5800000000000001,
        3.6000000000000001,
        3.6200000000000001,
        3.6400000000000001,
        3.6600000000000001,
        3.6800000000000002,
        3.7000000000000002,
        3.7200000000000002,
        3.7400000000000002,
        3.7599999999999998,
        3.7799999999999998,
        3.7999999999999998,
        3.8199999999999998,
        3.8399999999999999,
        3.8599999999999999,
        3.8799999999999999,
        3.8999999999999999,
        3.9199999999999999,
        3.9399999999999999,
        3.96,
        3.98,
        4.0,
        4.0199999999999996,
        4.04,
        4.0599999999999996,
        4.0800000000000001,
        4.0999999999999996,
        4.1200000000000001,
        4.1399999999999997,
        4.1600000000000001,
        4.1799999999999997,
        4.2000000000000002,
        4.2199999999999998,
        4.2400000000000002,
        4.2599999999999998,
        4.2800000000000002,
        4.2999999999999998,
        4.3200000000000003,
        4.3399999999999999,
        4.3600000000000003,
        4.3799999999999999,
        4.4000000000000004,
        4.4199999999999999,
        4.4400000000000004,
        4.46,
        4.4800000000000004,
        4.5,
        4.5199999999999996,
        4.54,
        4.5599999999999996,
        4.5800000000000001,
        4.5999999999999996,
        4.6200000000000001,
        4.6399999999999997,
        4.6600000000000001,
        4.6799999999999997,
        4.7000000000000002,
        4.7199999999999998,
        4.7400000000000002,
        4.7599999999999998,
        4.7800000000000002,
        4.7999999999999998,
        4.8200000000000003,
        4.8399999999999999,
        4.8600000000000003,
        4.8799999999999999,
        4.9000000000000004,
        4.9199999999999999,
        4.9400000000000004,
        4.96,
        4.9800000000000004,
        5.0,
        5.0199999999999996,
        5.04,
        5.0599999999999996,
        5.0800000000000001,
        5.0999999999999996,
        5.1200000000000001,
        5.1399999999999997,
        5.1600000000000001,
        5.1799999999999997,
        5.2000000000000002,
        5.2199999999999998,
        5.2400000000000002,
        5.2599999999999998,
        5.2800000000000002,
        5.2999999999999998,
        5.3200000000000003,
        5.3399999999999999,
        5.3600000000000003,
        5.3799999999999999,
        5.4000000000000004,
        5.4199999999999999,
        5.4400000000000004,
        5.46,
        5.4800000000000004,
        5.5,
        5.5199999999999996,
        5.54,
        5.5599999999999996,
        5.5800000000000001,
        5.5999999999999996,
        5.6200000000000001,
        5.6399999999999997,
        5.6600000000000001,
        5.6799999999999997,
        5.7000000000000002,
        5.7199999999999998,
        5.7400000000000002,
        5.7599999999999998,
        5.7800000000000002,
        5.7999999999999998,
        5.8200000000000003,
        5.8399999999999999,
        5.8600000000000003,
        5.8799999999999999,
        5.9000000000000004,
        5.9199999999999999,
        5.9400000000000004,
        5.96,
        5.9800000000000004,
        6.0,
        6.0199999999999996,
        6.04,
        6.0599999999999996,
        6.0800000000000001,
        6.0999999999999996,
        6.1200000000000001,
        6.1399999999999997,
        6.1600000000000001,
        6.1799999999999997,
        6.2000000000000002,
        6.2199999999999998,
        6.2400000000000002,
        6.2599999999999998,
        6.2800000000000002,
        6.2999999999999998,
        6.3200000000000003,
        6.3399999999999999,
        6.3600000000000003,
        6.3799999999999999,
        6.4000000000000004,
        6.4199999999999999,
        6.4400000000000004,
        6.46,
        6.4800000000000004,
        6.5,
        6.5199999999999996,
        6.54,
        6.5599999999999996,
        6.5800000000000001,
        6.5999999999999996,
        6.6200000000000001,
        6.6399999999999997,
        6.6600000000000001,
        6.6799999999999997,
        6.7000000000000002,
        6.7199999999999998,
        6.7400000000000002,
        6.7599999999999998,
        6.7800000000000002,
        6.7999999999999998,
        6.8200000000000003,
        6.8399999999999999,
        6.8600000000000003,
        6.8799999999999999,
        6.9000000000000004,
        6.9199999999999999,
        6.9400000000000004,
        6.96,
        6.9800000000000004,
        7.0,
        7.0199999999999996,
        7.04,
        7.0599999999999996,
        7.0800000000000001,
        7.0999999999999996,
        7.1200000000000001,
        7.1399999999999997,
        7.1600000000000001,
        7.1799999999999997,
        7.2000000000000002,
        7.2199999999999998,
        7.2400000000000002,
        7.2599999999999998,
        7.2800000000000002,
        7.2999999999999998,
        7.3200000000000003,
        7.3399999999999999,
        7.3600000000000003,
        7.3799999999999999,
        7.4000000000000004,
        7.4199999999999999,
        7.4400000000000004,
        7.46,
        7.4800000000000004,
        7.5,
        7.5199999999999996,
        7.54,
        7.5599999999999996,
        7.5800000000000001,
        7.5999999999999996,
        7.6200000000000001,
        7.6399999999999997,
        7.6600000000000001,
        7.6799999999999997,
        7.7000000000000002,
        7.7199999999999998,
        7.7400000000000002,
        7.7599999999999998,
        7.7800000000000002,
        7.7999999999999998,
        7.8200000000000003,
        7.8399999999999999,
        7.8600000000000003,
        7.8799999999999999,
        7.9000000000000004,
        7.9199999999999999,
        7.9400000000000004,
        7.96,
        7.9800000000000004,
        8.0,
        8.0199999999999996,
        8.0399999999999991,
        8.0600000000000005,
        8.0800000000000001,
        8.0999999999999996,
        8.1199999999999992,
        8.1400000000000006,
        8.1600000000000001,
        8.1799999999999997,
        8.1999999999999993,
        8.2200000000000006,
        8.2400000000000002,
        8.2599999999999998,
        8.2799999999999994,
        8.3000000000000007,
        8.3200000000000003,
        8.3399999999999999,
        8.3599999999999994,
        8.3800000000000008,
        8.4000000000000004,
        8.4199999999999999,
        8.4399999999999995,
        8.4600000000000009,
        8.4800000000000004,
        8.5,
        8.5199999999999996,
        8.5399999999999991,
        8.5600000000000005,
        8.5800000000000001,
        8.5999999999999996,
        8.6199999999999992,
        8.6400000000000006,
        8.6600000000000001,
        8.6799999999999997,
        8.6999999999999993,
        8.7200000000000006,
        8.7400000000000002,
        8.7599999999999998,
        8.7799999999999994,
        8.8000000000000007,
        8.8200000000000003,
        8.8399999999999999,
        8.8599999999999994,
        8.8800000000000008,
        8.9000000000000004,
        8.9199999999999999,
        8.9399999999999995,
        8.9600000000000009,
        8.9800000000000004,
        9.0,
        9.0199999999999996,
        9.0399999999999991,
        9.0600000000000005,
        9.0800000000000001,
        9.0999999999999996,
        9.1199999999999992,
        9.1400000000000006,
        9.1600000000000001,
        9.1799999999999997,
        9.1999999999999993,
        9.2200000000000006,
        9.2400000000000002,
        9.2599999999999998,
        9.2799999999999994,
        9.3000000000000007,
        9.3200000000000003,
        9.3399999999999999,
        9.3599999999999994,
        9.3800000000000008,
        9.4000000000000004,
        9.4199999999999999,
        9.4399999999999995,
        9.4600000000000009,
        9.4800000000000004,
        9.5,
        9.5199999999999996,
        9.5399999999999991,
        9.5600000000000005,
        9.5800000000000001,
        9.5999999999999996,
        9.6199999999999992,
        9.6400000000000006,
        9.6600000000000001,
        9.6799999999999997,
        9.6999999999999993,
        9.7200000000000006,
        9.7400000000000002,
        9.7599999999999998,
        9.7799999999999994,
        9.8000000000000007,
        9.8200000000000003
    ]
}