{
    "DU": 118,
    "DV": 455,
    "F-measure": 0.8111111111111111,
    "F-measure Chroma": 0.8555555555555556,
    "FN": 50,
    "FNC": 4,
    "FNCch": 17,
    "FNI": 46,
    "FNIch": 33,
    "FP": 16,
    "GU": 84,
    "GV": 489,
    "Overall Accuracy": 0.7643979057591623,
    "Overall Chroma Accuracy": 0.806282722513089,
    "Precision": 0.8374760994263862,
    "Precision Chroma": 0.8833652007648184,
    "Raw Chroma Accuracy": 0.8404907975460123,
    "Raw Pitch Accuracy": 0.7648261758691206,
    "Recall": 0.7863554757630161,
    "Recall Chroma": 0.829443447037702,
    "TN": 68,
    "TO": 573,
    "TP": 439,
    "TPC": 370,
    "TPCch": 394,
    "TPI": 69,
    "TPIch": 45,
    "Voiced Chroma Accuracy": 0.8057259713701431,
    "Voiced Pitch Accuracy": 0.7566462167689162,
    "Voicing Accuracy": 0.8848167539267016,
    "Voicing Detection": 0.8977505112474438,
    "Voicing False Alarm": 0.19047619047619047
}