{
    "DU": 96,
    "DV": 365,
    "F-measure": 0.6577992744860942,
    "F-measure Chroma": 0.7980652962515116,
    "FN": 0,
    "FNC": 0,
    "FNCch": 0,
    "FNI": 0,
    "FNIch": 0,
    "FP": 95,
    "GU": 191,
    "GV": 270,
    "Overall Accuracy": 0.5900216919739696,
    "Overall Chroma Accuracy": 0.7158351409978309,
    "Precision": 0.5900216919739696,
    "Precision Chroma": 0.7158351409978309,
    "Raw Chroma Accuracy": 0.8666666666666667,
    "Raw Pitch Accuracy": 0.6518518518518519,
    "Recall": 0.7431693989071039,
    "Recall Chroma": 0.9016393442622951,
    "TN": 96,
    "TO": 461,
    "TP": 270,
    "TPC": 176,
    "TPCch": 234,
    "TPI": 94,
    "TPIch": 36,
    "Voiced Chroma Accuracy": 0.8666666666666667,
    "Voiced Pitch Accuracy": 0.6518518518518519,
    "Voicing Accuracy": 0.7939262472885033,
    "Voicing Detection": 1.0,
    "Voicing False Alarm": 0.4973821989528796
}