{
    "DU": 92,
    "DV": 228,
    "F-measure": 0.7448275862068965,
    "F-measure Chroma": 0.8689655172413793,
    "FN": 44,
    "FNC": 0,
    "FNCch": 3,
    "FNI": 44,
    "FNIch": 41,
    "FP": 16,
    "GU": 64,
    "GV": 256,
    "Overall Accuracy": 0.675,
    "Overall Chroma Accuracy": 0.7875,
    "Precision": 0.782608695652174,
    "Precision Chroma": 0.9130434782608695,
    "Raw Chroma Accuracy": 0.80859375,
    "Raw Pitch Accuracy": 0.65625,
    "Recall": 0.7105263157894737,
    "Recall Chroma": 0.8289473684210527,
    "TN": 48,
    "TO": 320,
    "TP": 212,
    "TPC": 168,
    "TPCch": 204,
    "TPI": 44,
    "TPIch": 8,
    "Voiced Chroma Accuracy": 0.796875,
    "Voiced Pitch Accuracy": 0.65625,
    "Voicing Accuracy": 0.8125,
    "Voicing Detection": 0.828125,
    "Voicing False Alarm": 0.25
}