{
    "f0": [
        0.0,
        0.0,
        36.014544805530974,
        48.408961028811831,
        58.960921844508491,
        56.859810529040331,
        45.915810150847804,
        43.32314663743815,
        0.0,
        0.0,
        52.906899251438894,
        53.07915920233755,
        44.798675890726898,
        36.576504699376457,
        36.734245274811791,
        58.174944475345086,
        58.220028995079588,
        0.0,
        52.633102344508863,
        53.144828049784607,
        44.097933505178567,
        52.624088091241731,
        36.527372699751481,
        45.60888113806125,
        45.550049969564881,
        45.932061336219959,
        46.305822631111447,
        43.199337811988997,
        0.0,
        0.0,
        51.539046414990544,
        48.019077961825204,
        48.361907876318881,
        0.0,
        44.73871664782942,
        53.322303808133306,
        46.691621339807128,
        58.659736198077326,
        48.844370214188245,
        46.254682464994538,
        51.257386762311022,
        48.448949913246281,
        47.378649891978341,
        47.151437880445023,
        0.0,
        36.04400668339477,
        38.415880490043406,
        40.401618197550555,
        55.09969146425847,
        43.545910580665236,
        45.329041121443076,
        44.500823324005843,
        42.742978958906718,
        41.398086944369524,
        41.085340092347508,
        40.766842390902923,
        40.292982102209749,
        40.175286143372027,
        43.754513993986031,
        40.841265105122694,
        42.236832926431958,
        40.435160451322638,
        41.620371558574064,
        41.98719335773955,
        43.02240682621126,
        53.220676244420225,
        53.361955459642843,
        52.795362534310485,
        52.035603798338087,
        50.713646222971164,
        50.415379998159203,
        49.716878423740354,
        49.538943301758636,
        44.850832231136735,
        42.423846835065909,
        61.479485533357142,
        61.518982726505996,
        61.558382635907641,
        61.769962619105932,
        61.894100266408351,
        62.402386204069039,
        63.221868092522548,
        63.675425557985733,
        64.278479305926311,
        64.433789619662036,
        64.626870744583144,
        64.798471382576835,
        64.628217104354519,
        64.505072308421532,
        64.766422335147695,
        64.819164515566229,
        64.446779221702968,
        64.827494140658303,
        64.88390764369754,
        65.098402120313239,
        64.704963487273204,
        64.69995226152119,
        64.683025520830583,
        64.498051595263902,
        64.568476695578354,
        64.924690523428268,
        64.784375297600874,
        64.762260167396761,
        65.023296314782513,
        64.873750600926101,
        65.057731376622911,
        64.742153048564731,
        64.527045542116213,
        64.598303768063488,
        64.653651326001722,
        64.708824064357771,
        64.763821480756931,
        64.818649344600487,
        64.523547026012551,
        63.796662748041236,
        62.374110636161411,
        60.483533533067558,
        58.204469559048675,
        35.862699065398928,
        38.459049711229987,
        39.13284579805778,
        39.781396992033009,
        40.057742939647277,
        40.247040063905317,
        39.497944941162416,
        39.226811408688526,
        39.18003266969562,
        39.133127189864993,
        39.326163344204708,
        38.824602098352798,
        40.802730352206225,
        36.635924901626765,
        37.741782848980847,
        37.953975321984146,
        38.162807273654401,
        36.420006328892157,
        36.268982884409191,
        34.984285631269955,
        63.680745510206926,
        63.538376490774617,
        63.404078084354403,
        62.736751321691337,
        63.166241539775562,
        63.110732692293794,
        63.055046901770012,
        63.342007072720207,
        63.187017282840749,
        63.366548648269983,
        63.305500600538977,
        63.114422410681293,
        63.019128910314727,
        63.110169120333154,
        62.910195058195995,
        62.707884141458415,
        62.675444594992307,
        62.296368079002463,
        61.737125581596175,
        61.420446121120662,
        61.308112245457885,
        61.195042796000351,
        61.081226285874635,
        60.616898165511422,
        60.663250778789845,
        63.040081841451688,
        38.666077876611716,
        39.766878158831972,
        42.516415067310291,
        61.921169545247814,
        61.899030374752506,
        61.876862856239271,
        62.026934647786405,
        61.769687329038618,
        61.879346866902864,
        60.829013707203082,
        61.433210755944373,
        61.562872328154022,
        61.691571869065235,
        61.64532688347947,
        61.634538787572424,
        61.431959644025,
        60.617556825332272,
        60.258015953819239,
        60.318781163381857,
        60.234222566156625,
        60.439031799083011,
        60.1309622781596,
        58.683479306739173,
        58.413093912455508,
        58.138415213662512,
        57.50955350599169,
        57.884135107659098,
        57.849782967217664,
        58.603460340670281,
        58.677064277366959,
        59.51246208931326,
        58.490508968112721,
        58.215058621456755,
        58.039706850124112,
        58.32156163129364,
        58.20544734219223,
        57.841150501338646,
        59.760619899577485,
        59.756770114359654,
        59.716929867653761,
        59.521047706495438,
        59.401968257379309,
        59.754048182851783,
        60.090908194823754,
        59.898043960322795,
        60.085467377328918,
        60.203358592263029,
        60.320452434461274,
        59.730035553452588,
        59.701420938894721,
        59.895134843775182,
        60.130547347875485,
        59.991432464143287,
        60.176787665010387,
        60.107481212043453,
        59.743854839592871,
        59.866091915757494,
        59.014430235382299,
        59.835970726598127,
        60.065789545199621,
        60.218695753315842,
        59.721644299305105,
        59.625573760928731,
        59.421566075854145,
        59.61238358385237,
        59.731594335030174,
        60.227383737910912,
        60.084205386387779,
        60.022512869019522,
        60.091426432339354,
        60.16006879780867,
        59.998342948800456,
        59.547597818238671,
        60.077711115174672,
        60.051471998265299,
        60.082054949981668,
        59.897586865778095,
        59.111287888753772,
        58.704469694267047,
        58.754589823364086,
        59.856216834735378,
        60.576834833716745,
        60.351868431656435,
        60.273032456330768,
        60.577436394238347,
        60.4189595495139,
        41.50376644184265,
        51.283109368213076,
        55.484965210883672,
        42.553201358855915,
        36.220799296754443,
        40.466646979243691,
        37.331500138074389,
        39.162145612110152,
        37.223516298491212,
        41.245082323636304,
        43.268551661731138,
        62.213959060885649,
        61.7570680966124,
        61.630626352473925,
        61.843153387681745,
        61.491126646841863,
        61.289439436223923,
        61.085374802331508,
        61.051141648675802,
        61.103018430986104,
        61.425005181369414,
        61.608956889282794,
        61.329168211936675,
        62.121243408801618,
        62.076061913920384,
        62.211926063470607,
        62.346737530954222,
        62.130746972166776,
        62.046130021020858,
        62.063215953435311,
        62.086818350434356,
        62.279385113354749,
        62.386465855284847,
        62.492888347939804,
        62.424669027780169,
        62.083966464907121,
        62.048085695962911,
        61.856682442108266,
        61.914170247968961,
        61.971471451052537,
        62.027520246814106,
        61.909928089523319,
        62.642746529240576,
        62.584379285142191,
        62.228533199786874,
        62.258862365988044,
        62.520385923654167,
        62.314726612518371,
        62.36000046557313,
        62.349602847881911,
        62.514529447412365,
        62.069115988251667,
        61.225917118854753,
        61.846128725292822,
        61.380549820285111,
        62.320338437278096,
        62.243368234077955,
        62.012477392601852,
        62.368207979757557,
        62.39693101505285,
        62.412009013319931,
        63.44263708892921,
        42.865740829008239,
        42.888802753273225,
        40.068003698383549,
        43.371743008944193,
        43.075258451700392,
        43.809402242427268,
        43.972357816526412,
        42.823193136229747,
        44.648423551687429,
        43.387161057905431,
        43.261980202393218,
        41.031924034859799,
        39.057386133555028,
        39.102837640684285,
        37.428021627172257,
        37.108506795277471,
        35.129991207931454,
        58.305779137821403,
        46.060395372074737,
        52.575214688791228,
        53.322361711980008,
        52.395569076368787,
        51.242352863902923,
        46.728853541384709,
        58.304263591136319,
        57.028081986937423,
        0.0,
        0.0,
        51.52085292127078,
        0.0,
        0.0,
        0.0,
        0.0,
        0.0,
        0.0,
        0.0,
        0.0,
        0.0,
        0.0,
        0.0,
        0.0,
        0.0,
        0.0,
        0.0,
        0.0,
        0.0,
        0.0,
        0.0,
        0.0,
        0.0,
        0.0,
        0.0,
        0.0,
        0.0,
        0.0,
        0.0,
        0.0,
        0.0,
        0.0,
        0.0,
        0.0,
        0.0,
        0.0,
        0.0,
        0.0,
        0.0,
        0.0,
        0.0,
        0.0,
        0.0,
        0.0,
        0.0,
        0.0,
        0.0,
        0.0,
        0.0,
        0.0,
        0.0,
        0.0,
        0.0,
        0.0,
        0.0,
        0.0,
        0.0,
        0.0,
        0.0,
        0.0,
        0.0
    ],
    "time": [
        0.02,
        0.040000000000000001,
        0.059999999999999998,
        0.080000000000000002,
        0.10000000000000001,
        0.12,
        0.14000000000000001,
        0.16,
        0.17999999999999999,
        0.20000000000000001,
        0.22,
        0.23999999999999999,
        0.26000000000000001,
        0.28000000000000003,
        0.29999999999999999,
        0.32000000000000001,
        0.34000000000000002,
        0.35999999999999999,
        0.38,
        0.40000000000000002,
        0.41999999999999998,
        0.44,
        0.46000000000000002,
        0.47999999999999998,
        0.5,
        0.52000000000000002,
        0.54000000000000004,
        0.56000000000000005,
        0.57999999999999996,
        0.59999999999999998,
        0.62,
        0.64000000000000001,
        0.66000000000000003,
        0.68000000000000005,
        0.69999999999999996,
        0.71999999999999997,
        0.73999999999999999,
        0.76000000000000001,
        0.78000000000000003,
        0.80000000000000004,
        0.81999999999999995,
        0.83999999999999997,
        0.85999999999999999,
        0.88,
        0.90000000000000002,
        0.92000000000000004,
        0.93999999999999995,
        0.95999999999999996,
        0.97999999999999998,
        1.0,
        1.02,
        1.04,
        1.0600000000000001,
        1.0800000000000001,
        1.1000000000000001,
        1.1200000000000001,
        1.1399999999999999,
        1.1599999999999999,
        1.1799999999999999,
        1.2,
        1.22,
        1.24,
        1.26,
        1.28,
        1.3,
        1.3200000000000001,
        1.3400000000000001,
        1.3600000000000001,
        1.3799999999999999,
        1.3999999999999999,
        1.4199999999999999,
        1.4399999999999999,
        1.46,
        1.48,
        1.5,
        1.52,
        1.54,
        1.5600000000000001,
        1.5800000000000001,
        1.6000000000000001,
        1.6200000000000001,
        1.6399999999999999,
        1.6599999999999999,
        1.6799999999999999,
        1.7,
        1.72,
        1.74,
        1.76,
        1.78,
        1.8,
        1.8200000000000001,
        1.8400000000000001,
        1.8600000000000001,
        1.8799999999999999,
        1.8999999999999999,
        1.9199999999999999,
        1.9399999999999999,
        1.96,
        1.98,
        2.0,
        2.02,
        2.04,
        2.0600000000000001,
        2.0800000000000001,
        2.1000000000000001,
        2.1200000000000001,
        2.1400000000000001,
        2.1600000000000001,
        2.1800000000000002,
        2.2000000000000002,
        2.2200000000000002,
        2.2400000000000002,
        2.2599999999999998,
        2.2799999999999998,
        2.2999999999999998,
        2.3199999999999998,
        2.3399999999999999,
        2.3599999999999999,
        2.3799999999999999,
        2.3999999999999999,
        2.4199999999999999,
        2.4399999999999999,
        2.46,
        2.48,
        2.5,
        2.52,
        2.54,
        2.5600000000000001,
        2.5800000000000001,
        2.6000000000000001,
        2.6200000000000001,
        2.6400000000000001,
        2.6600000000000001,
        2.6800000000000002,
        2.7000000000000002,
        2.7200000000000002,
        2.7400000000000002,
        2.7599999999999998,
        2.7799999999999998,
        2.7999999999999998,
        2.8199999999999998,
        2.8399999999999999,
        2.8599999999999999,
        2.8799999999999999,
        2.8999999999999999,
        2.9199999999999999,
        2.9399999999999999,
        2.96,
        2.98,
        3.0,
        3.02,
        3.04,
        3.0600000000000001,
        3.0800000000000001,
        3.1000000000000001,
        3.1200000000000001,
        3.1400000000000001,
        3.1600000000000001,
        3.1800000000000002,
        3.2000000000000002,
        3.2200000000000002,
        3.2400000000000002,
        3.2599999999999998,
        3.2799999999999998,
        3.2999999999999998,
        3.3199999999999998,
        3.3399999999999999,
        3.3599999999999999,
        3.3799999999999999,
        3.3999999999999999,
        3.4199999999999999,
        3.4399999999999999,
        3.46,
        3.48,
        3.5,
        3.52,
        3.54,
        3.5600000000000001,
        3.5800000000000001,
        3.6000000000000001,
        3.6200000000000001,
        3.6400000000000001,
        3.6600000000000001,
        3.6800000000000002,
        3.7000000000000002,
        3.7200000000000002,
        3.7400000000000002,
        3.7599999999999998,
        3.7799999999999998,
        3.7999999999999998,
        3.8199999999999998,
        3.8399999999999999,
        3.8599999999999999,
        3.8799999999999999,
        3.8999999999999999,
        3.9199999999999999,
        3.9399999999999999,
        3.96,
        3.98,
        4.0,
        4.0199999999999996,
        4.04,
        4.0599999999999996,
        4.0800000000000001,
        4.0999999999999996,
        4.1200000000000001,
        4.1399999999999997,
        4.1600000000000001,
        4.1799999999999997,
        4.2000000000000002,
        4.2199999999999998,
        4.2400000000000002,
        4.2599999999999998,
        4.2800000000000002,
        4.2999999999999998,
        4.3200000000000003,
        4.3399999999999999,
        4.3600000000000003,
        4.3799999999999999,
        4.4000000000000004,
        4.4199999999999999,
        4.4400000000000004,
        4.46,
        4.4800000000000004,
        4.5,
        4.5199999999999996,
        4.54,
        4.5599999999999996,
        4.5800000000000001,
        4.5999999999999996,
        4.6200000000000001,
        4.6399999999999997,
        4.6600000000000001,
        4.6799999999999997,
        4.7000000000000002,
        4.7199999999999998,
        4.7400000000000002,
        4.7599999999999998,
        4.7800000000000002,
        4.7999999999999998,
        4.8200000000000003,
        4.8399999999999999,
        4.8600000000000003,
        4.8799999999999999,
        4.9000000000000004,
        4.9199999999999999,
        4.9400000000000004,
        4.96,
        4.9800000000000004,
        5.0,
        5.0199999999999996,
        5.04,
        5.0599999999999996,
        5.0800000000000001,
        5.0999999999999996,
        5.1200000000000001,
        5.1399999999999997,
        5.1600000000000001,
        5.1799999999999997,
        5.2000000000000002,
        5.2199999999999998,
        5.2400000000000002,
        5.2599999999999998,
        5.2800000000000002,
        5.2999999999999998,
        5.3200000000000003,
        5.3399999999999999,
        5.3600000000000003,
        5.3799999999999999,
        5.4000000000000004,
        5.4199999999999999,
        5.4400000000000004,
        5.46,
        5.4800000000000004,
        5.5,
        5.5199999999999996,
        5.54,
        5.5599999999999996,
        5.5800000000000001,
        5.5999999999999996,
        5.6200000000000001,
        5.6399999999999997,
        5.6600000000000001,
        5.6799999999999997,
        5.7000000000000002,
        5.7199999999999998,
        5.7400000000000002,
        5.7599999999999998,
        5.7800000000000002,
        5.7999999999999998,
        5.8200000000000003,
        5.8399999999999999,
        5.8600000000000003,
        5.8799999999999999,
        5.9000000000000004,
        5.9199999999999999,
        5.9400000000000004,
        5.96,
        5.9800000000000004,
        6.0,
        6.0199999999999996,
        6.04,
        6.0599999999999996,
        6.0800000000000001,
        6.0999999999999996,
        6.1200000000000001,
        6.1399999999999997,
        6.1600000000000001,
        6.1799999999999997,
        6.2000000000000002,
        6.2199999999999998,
        6.2400000000000002,
        6.2599999999999998,
        6.2800000000000002,
        6.2999999999999998,
        6.3200000000000003,
        6.3399999999999999,
        6.3600000000000003,
        6.3799999999999999,
        6.4000000000000004,
        6.4199999999999999,
        6.4400000000000004,
        6.46,
        6.4800000000000004,
        6.5,
        6.5199999999999996,
        6.54,
        6.5599999999999996,
        6.5800000000000001,
        6.5999999999999996,
        6.6200000000000001,
        6.6399999999999997,
        6.6600000000000001,
        6.6799999999999997,
        6.7000000000000002,
        6.7199999999999998,
        6.7400000000000002,
        6.7599999999999998,
        6.7800000000000002,
        6.7999999999999998,
        6.8200000000000003,
        6.8399999999999999,
        6.8600000000000003,
        6.8799999999999999,
        6.9000000000000004,
        6.9199999999999999,
        6.9400000000000004,
        6.96,
        6.9800000000000004,
        7.0,
        7.0199999999999996,
        7.04,
        7.0599999999999996,
        7.0800000000000001,
        7.0999999999999996,
        7.1200000000000001,
        7.1399999999999997,
        7.1600000000000001,
        7.1799999999999997,
        7.2000000000000002,
        7.2199999999999998,
        7.2400000000000002,
        7.2599999999999998,
        7.2800000000000002,
        7.2999999999999998,
        7.3200000000000003,
        7.3399999999999999,
        7.3600000000000003,
        7.3799999999999999,
        7.4000000000000004,
        7.4199999999999999,
        7.4400000000000004,
        7.46,
        7.4800000000000004,
        7.5,
        7.5199999999999996,
        7.54,
        7.5599999999999996,
        7.5800000000000001,
        7.5999999999999996,
        7.6200000000000001,
        7.6399999999999997,
        7.6600000000000001,
        7.6799999999999997,
        7.7000000000000002,
        7.7199999999999998,
        7.7400000000000002,
        7.7599999999999998,
        7.7800000000000002,
        7.7999999999999998,
        7.8200000000000003,
        7.8399999999999999,
        7.8600000000000003,
        7.8799999999999999,
        7.9000000000000004,
        7.9199999999999999,
        7.9400000000000004,
        7.96,
        7.9800000000000004,
        8.0
    ]
}