{
    "DU": 154,
    "DV": 149,
    "F-measure": 0.6338582677165354,
    "F-measure Chroma": 0.7362204724409448,
    "FN": 76,
    "FNC": 24,
    "FNCch": 47,
    "FNI": 52,
    "FNIch": 29,
    "FP": 22,
    "GU": 100,
    "GV": 203,
    "Overall Accuracy": 0.5313531353135313,
    "Overall Chroma Accuracy": 0.6171617161716172,
    "Precision": 0.7092511013215859,
    "Precision Chroma": 0.8237885462555066,
    "Raw Chroma Accuracy": 0.7684729064039408,
    "Raw Pitch Accuracy": 0.5270935960591133,
    "Recall": 0.5729537366548043,
    "Recall Chroma": 0.6654804270462633,
    "TN": 78,
    "TO": 303,
    "TP": 127,
    "TPC": 83,
    "TPCch": 109,
    "TPI": 44,
    "TPIch": 18,
    "Voiced Chroma Accuracy": 0.5369458128078818,
    "Voiced Pitch Accuracy": 0.4088669950738916,
    "Voicing Accuracy": 0.6765676567656765,
    "Voicing Detection": 0.625615763546798,
    "Voicing False Alarm": 0.22
}