{
    "DU": 174,
    "DV": 146,
    "F-measure": 0.7718696397941681,
    "F-measure Chroma": 0.8473413379073755,
    "FN": 49,
    "FNC": 22,
    "FNCch": 35,
    "FNI": 27,
    "FNIch": 14,
    "FP": 8,
    "GU": 133,
    "GV": 187,
    "Overall Accuracy": 0.703125,
    "Overall Chroma Accuracy": 0.771875,
    "Precision": 0.8302583025830258,
    "Precision Chroma": 0.9114391143911439,
    "Raw Chroma Accuracy": 0.839572192513369,
    "Raw Pitch Accuracy": 0.6524064171122995,
    "Recall": 0.7211538461538461,
    "Recall Chroma": 0.7916666666666666,
    "TN": 125,
    "TO": 320,
    "TP": 138,
    "TPC": 100,
    "TPCch": 122,
    "TPI": 38,
    "TPIch": 16,
    "Voiced Chroma Accuracy": 0.6524064171122995,
    "Voiced Pitch Accuracy": 0.5347593582887701,
    "Voicing Accuracy": 0.821875,
    "Voicing Detection": 0.7379679144385026,
    "Voicing False Alarm": 0.06015037593984962
}