{
    "DU": 1,
    "DV": 441,
    "F-measure": 0.6794520547945205,
    "F-measure Chroma": 0.7452054794520548,
    "FN": 0,
    "FNC": 0,
    "FNCch": 0,
    "FNI": 0,
    "FNIch": 0,
    "FP": 154,
    "GU": 155,
    "GV": 287,
    "Overall Accuracy": 0.5610859728506787,
    "Overall Chroma Accuracy": 0.6153846153846154,
    "Precision": 0.5610859728506787,
    "Precision Chroma": 0.6153846153846154,
    "Raw Chroma Accuracy": 0.9442508710801394,
    "Raw Pitch Accuracy": 0.8606271777003485,
    "Recall": 0.8611111111111112,
    "Recall Chroma": 0.9444444444444444,
    "TN": 1,
    "TO": 442,
    "TP": 287,
    "TPC": 247,
    "TPCch": 271,
    "TPI": 40,
    "TPIch": 16,
    "Voiced Chroma Accuracy": 0.9442508710801394,
    "Voiced Pitch Accuracy": 0.8606271777003485,
    "Voicing Accuracy": 0.6515837104072398,
    "Voicing Detection": 1.0,
    "Voicing False Alarm": 0.9935483870967742
}