{
	"f0": [NaN,36.6710213,36.58024306,36.3153808,36.56020681,36.68948616,36.54440447,35.34887861,36.42399303,36.48765186,36.54794809,36.61516631,36.44476162,36.32708891,53.61985332,53.73711488,54.37146822,36.46119959,36.81981132,36.59885706,35.34887861,35.34887861,41.80018755,70.87463762,71.00159045,71.06955847,70.90136794,70.96653946,70.74946783,70.63817715,71.25174919,40.97024386,41.45704663,53.41072438,73.94944369,73.94464333,73.72034296,73.73689819,73.67630573,73.67334584,73.76606582,73.92341236,74.28492909,74.2740495,74.3391064,74.08278676,55.27240036,55.38958964,55.48061789,71.27135351,71.74714625,72.32963033,66.66713269,55.48888519,55.18187238,54.94305408,54.99639439,35.34887861,35.34887861,42.19886468,62.36469097,62.78756958,63.27652921,64.20825569,64.90078372,65.07374354,65.17459563,65.33996257,65.48485824,65.49090167,65.51539315,65.56598013,65.85097788,66.02390139,66.0771714,66.01167754,65.97932497,65.84594787,65.35313294,64.67777351,64.33418801,64.15982815,63.88773803,63.54056139,63.43510724,63.33009341,63.3118941,63.34936033,63.44436198,63.58262156,63.7369338,63.76806148,63.80546331,63.87543505,63.96167755,64.03098357,64.06797497,64.1989707,64.23864648,64.24177681,64.33871008,64.61801315,65.96300618,67.27565878,68.11921038,68.65569047,69.12855281,69.22599477,69.46018679,69.62789478,69.77828969,69.96213722,70.20061461,70.49457772,70.94724748,71.09600479,71.05736241,71.00100765,70.95262549,70.88884787,70.92957827,70.99056729,70.98800137,70.8162469,70.40493165,70.3229854,70.58845784,70.4609453,70.49202992,70.50995712,70.3072452,69.46729241,68.06266707,68.00223869,68.06271676,68.10362973,68.11166724,68.04520205,68.01992754,68.05752114,68.09847241,68.11919204,68.08090378,68.06239549,68.13584441,68.14225612,68.11978805,68.1257458,68.18849398,68.23471991,68.11464906,68.00863044,68.01225898,68.11491878,68.0898659,68.12391433,68.19339609,68.10699771,65.64091799,66.82648765,66.99928587,67.07158564,67.15847926,67.27301634,67.34692658,67.34608819,67.37429265,67.36768768,67.34924241,67.1679076,66.92420904,66.92270831,67.18302895,67.24837123,64.66203095,65.05809497,65.46854805,65.49653884,65.48798802,65.5666361,65.73158536,65.90347961,66.00380974,66.0584806,66.04169357,65.98809514,65.88122605,65.82565924,65.83453884,65.82694747,65.78288962,65.70987766,65.63447567,65.77501516,65.04166559,64.63488814,64.50245911,64.4979987,64.526119,64.54499651,64.55785579,64.53849384,64.47031614,64.44537179,64.46946712,64.4685919,64.41199216,64.23487848,63.96248438,63.81083314,63.82404979,63.33469966,63.10915866,63.22424314,63.28429426,63.29932128,63.31398472,63.31693474,63.30901692,63.3013863,63.30349214,63.35040521,63.41166125,63.44220842,63.43068198,63.32397449,63.35813066,63.44598165,63.43189198,63.34030775,63.32424091,63.48000005,63.97086777,64.21520767,64.29171945,64.04476459,63.44792415,63.04206763,62.66249133,62.25633632,62.01710412,62.02015712,62.23156611,62.41995472,62.35272298,62.08951726,62.22992946,62.28013362,62.19609423,62.24722178,61.08551608,60.62601804,60.68035216,60.77671858,60.86303397,60.93957272,60.97509758,60.9799735,60.99529772,61.01704319,61.06154121,61.08840801,61.06451656,61.06078957,61.03169878,60.94370844,60.859315,60.78346083,60.76340918,60.60089463,60.52221486,60.66141811,60.64133087,60.61744362,60.65860853,60.71360871,60.74325887,60.7127157,61.06161227,60.89911024,60.64019878,42.5784038,55.11029006,55.49383899,55.74983792,55.90698485,56.07426145,56.21941652,56.29241059,56.32502898,56.35203183,56.19831481,56.11240116,56.1091189,56.06521179,55.9729956,55.93144993,55.99562372,56.04373991,56.08048541,56.09758212,56.02670515,55.97476105,55.95699782,55.9601409,55.78455927,55.64713096,55.75142272,56.26159135,58.14863027,58.51131473,58.99812375,59.19389744,59.25063311,59.39381099,59.4672921,59.41984572,59.37958063,59.43276831,59.61992609,59.87203578,60.43972636,60.75230925,60.82326964,61.34809395,61.25812825,61.22767085,61.30531633,61.09053389,61.14313302,61.09091596,61.02821369,61.01581887,60.96651377,60.97936623,61.03889766,61.10464327,61.13785158,61.1170859,61.00836856,60.99597934,60.92238024,60.83616586,60.84347053,60.75644549,60.75587698,60.90868627,60.996884,60.97039716,60.77872926,60.74403459,60.88321219,60.88517332,60.94026209,61.20452697,61.14090754,61.07388073,60.95802149,60.88191057,60.85481117,60.97859659,60.96870353,60.95737133,61.00368549,61.06592005,61.10342835,61.13003837,61.10089798,61.07878612,61.14064566,61.0936453,61.47338749,NaN,NaN,NaN],
	"ap0": [NaN,0.7398269024,0.7631474795,0.630312162,0.675725829,0.6731792878,0.6142714817,0.6408023785,0.7608044957,0.7008387994,0.6576296959,0.6202704774,0.5863605039,0.7867548645,0.7679968971,0.782538422,0.8295308499,0.7362032141,0.7003164487,0.7620372806,0.7019742816,0.729544705,0.9032700697,0.4244331201,0.3379325563,0.3303688447,0.5243684154,0.5490124109,0.7229172631,0.7459004077,0.6937518944,0.6334110859,0.7229634216,0.7685879883,0.7558529781,0.7075530396,0.6435915739,0.5173590513,0.4578019382,0.4823869333,0.4053735186,0.4390615222,0.3433957049,0.4146064219,0.5413679408,0.6429648813,0.602704104,0.6284933252,0.7234483772,0.6373288986,0.6062754274,0.6206388999,0.8623496528,0.7083637197,0.8592586733,0.7487053279,1.039663764,0.6304981816,0.4433925007,2.166365088,0.02613211668,0.01537387331,0.01167653592,0.05763271164,0.0347832371,0.0203119664,0.01692848642,0.0112492038,0.002725998362,0.001808006197,0.00362103665,0.01771131285,0.01737531206,0.007782691377,0.01260055247,0.0111894831,0.01257098692,0.03910350607,0.04199181836,0.03645959368,0.04461583599,0.08942749569,0.0943259389,0.0504836018,0.02779089034,0.01466827993,0.007715185905,0.007485004072,0.01160128212,0.01853846746,0.01975712529,0.01942021808,0.01356299112,0.01709440203,0.02158916847,0.02690358851,0.03391986488,0.01807773221,0.008166825327,0.007848658413,0.01033117935,0.04158809841,0.136862818,0.1008671586,0.05179312641,0.06160937517,0.05792751094,0.04845786336,0.04930701829,0.04839602309,0.03433742088,0.02313966437,0.01903939506,0.04372728425,0.050050323,0.01363477266,0.009475811675,0.008177208525,0.006374887274,0.01074906083,0.01074377208,0.004668487856,0.002725499406,0.01146605347,0.02230299838,0.02785677735,0.02259529932,0.01322019549,0.01022633055,0.01812089097,0.0621485903,0.1046837247,0.03181725583,0.009031992716,0.004670884792,0.003674773678,0.002996334341,0.00142479527,0.000726938877,0.0005189988277,0.0004330296917,0.0005524737319,0.0008597373226,0.001186120735,0.001741959282,0.002377652697,0.002605910248,0.005147886604,0.01227906994,0.02382250064,0.03404618981,0.05275881311,0.05863777274,0.03584416006,0.01557816069,0.01586082155,0.02173483558,0.1094534375,0.0364188743,0.02760396939,0.01078843019,0.004294469108,0.006291850797,0.008347396677,0.008946994964,0.009334958789,0.01060116234,0.009250997806,0.01142923569,0.01884819703,0.008324838432,0.01332247679,0.05641071456,0.04966881667,0.5077328709,0.1991683486,0.02737873709,0.008806557505,0.004530475109,0.004347370991,0.008581151754,0.01404309094,0.01312945299,0.01062912382,0.008075152011,0.009830353485,0.01532010104,0.01056981971,0.01137561525,0.02932229251,0.03280368151,0.01017494753,0.01303795116,0.02705694275,0.08666808646,0.04485027387,0.009401224231,0.00474751604,0.003214655013,0.002337130574,0.001751764526,0.002348868439,0.003841145499,0.004354064888,0.003723489399,0.002775998796,0.008328378201,0.01776706894,0.04311463517,0.07899346513,0.1258841475,0.08513780081,0.0428554294,0.01891061595,0.01001699685,0.009532615398,0.01224455066,0.009980962646,0.0106190902,0.009635931409,0.006231352151,0.00641977231,0.006077194366,0.008965712374,0.02139652655,0.02082764335,0.008653316644,0.008462961623,0.01510334033,0.02565073877,0.02887892818,0.06926439744,0.05345974575,0.01654511893,0.005985510837,0.02692464951,0.05032623179,0.04482810139,0.06967195764,0.08389085711,0.04144454019,0.007409248785,0.01061205036,0.02287417992,0.06327923902,0.05266135335,0.02006368996,0.0177089657,0.03814949701,0.1097754953,0.283611211,0.08902271629,0.01510030415,0.009843372405,0.01024183978,0.006352081711,0.00447526299,0.005286385981,0.003939465919,0.002549651595,0.002534812034,0.002440490526,0.00269609008,0.00256637689,0.004214569824,0.006055691802,0.009531501379,0.008256600924,0.006506275106,0.008562209433,0.007082216446,0.00611515448,0.006984414989,0.00836640653,0.01867907441,0.03330438019,0.05877369628,0.1109196485,0.2260289456,0.3317126455,0.3647264933,0.2477538336,0.1050905452,0.05270495832,0.0224835932,0.01507541042,0.01341387429,0.0109649383,0.00696357809,0.01153419019,0.01492672374,0.01138386931,0.005178810872,0.003894663918,0.002431651576,0.001832504712,0.00111885928,0.001539369358,0.00214045106,0.006811164867,0.01003857873,0.00575774039,0.005896861438,0.007043022864,0.01409324821,0.05761689539,0.1523847986,0.252798598,0.5691061683,0.07210927205,0.04930769825,0.02898707319,0.01371017058,0.0156040501,0.01155056018,0.004609090446,0.002938737157,0.002609857191,0.004475844691,0.004794237719,0.008034781104,0.03461117153,0.02329265523,0.0591021011,0.03399777479,0.006369826329,0.00883349853,0.02339618414,0.03152019933,0.0223894738,0.01617226349,0.02566298049,0.03060200058,0.03418949707,0.03941706413,0.05424208126,0.05495976419,0.031358469,0.02456878236,0.05617622134,0.03839034518,0.008618494092,0.00677943728,0.010511026,0.02188376523,0.044453334,0.0290316632,0.009247061948,0.009890443152,0.01650092944,0.02098410585,0.01281153125,0.01249258486,0.03041562952,0.02921201004,0.00977749301,0.009224607851,0.0224611079,0.08187438165,0.2056240378,0.1332781467,0.04677379896,0.01492353752,0.007926751485,0.006380301309,0.00568013009,0.007769259094,0.01075292681,0.01386040993,0.03840052741,0.2141000272,1.01340742,NaN,NaN,NaN],
	"ap": [NaN,0.3225128313,0.3937866946,0.3784601746,0.3314035278,0.3730829992,0.2680254153,0.360037588,0.3354861442,0.314473269,0.2882433313,0.3853222456,0.2736010123,0.3520127379,0.3176634514,0.4696406616,0.6443308721,0.4112031023,0.350656511,0.3598151169,0.3860270919,0.354076628,0.3738019562,0.3262637462,0.7676993427,0.4170129165,0.2182995267,0.3314753795,0.3552692287,0.3311856189,0.6813822539,0.4015566351,0.2691796664,0.6225550923,0.5630482675,0.3944779389,0.3778680225,0.2863671212,0.2417041157,0.2343332593,0.5262807915,0.1979542023,0.1837040634,0.3432268878,0.0736760995,0.7751096252,0.5248045264,0.4503839829,0.4188449892,0.5732199365,0.3528896434,0.330049171,0.5343505807,0.738670526,0.2528984784,0.3391391959,0.4301312974,0.349179723,0.2263107627,0.6800675911,0.4530266897,0.2373477979,0.0384788011,0.0392317381,0.08951945869,0.01418277767,0.007269208777,0.005700893394,0.006803416113,0.00293615753,0.0008094405456,0.0003312534712,0.007292642879,0.02404350499,0.0009725563062,0.0121913212,0.002391871565,0.008332707448,0.1186601212,0.07759551716,0.02237357835,0.006113351091,0.01232007693,0.04157166694,0.02718946845,0.01558774408,0.005857953698,0.004632751645,0.004569854051,0.01021626944,0.01187321959,0.01241063701,0.03148367358,0.003844550333,0.01113904529,0.008849499769,0.01296937563,0.02374439397,0.01409388755,0.002544469564,0.003686019155,0.009550933822,0.05489973798,0.3270031125,0.1646838933,0.01216414747,0.011938011,0.01428307143,0.06255847613,0.004391635445,0.0314581265,0.03330789501,0.02147669953,0.003036861509,0.02860251454,0.0379161197,0.03218571925,0.001437241668,0.004568248994,0.002275600428,0.007653098669,0.003977045494,0.003042323414,0.005178577088,0.01688758482,0.00764184023,0.003449501921,0.1077234216,0.008760718205,0.002295707931,0.05863455133,0.02305248734,0.294142616,0.1252352088,0.001826397809,0.00980550705,0.002321333939,0.00314861358,0.0007055082466,0.0003321282399,0.000233336678,0.0004331549806,0.0002049007608,0.0004007728782,0.001675862512,0.0004009377759,0.001219475848,0.0008754103076,0.002039611042,0.0025915042,0.006554431364,0.01357534935,0.01980971408,0.01497139709,0.01953614595,0.008611648905,0.003722646685,0.01643169605,0.1738179745,0.1834351034,0.104267604,0.009898037758,0.002346730095,0.008464345952,0.005791896841,0.007632411249,0.002316497877,0.007646416975,0.005485646021,0.008012278776,0.02698358399,0.002736479539,0.007406723319,0.03002662938,0.6774442679,0.2355026416,0.3600290929,0.02503089163,0.006304977619,0.001427624563,0.004416356669,0.009888157325,0.006830173541,0.006054895044,0.006845056225,0.002951696532,0.001967149234,0.005508561716,0.002617957602,0.007547991874,0.01706403201,0.02363867702,0.005344214631,0.006503441308,0.03535146832,0.1081300629,0.0021283032,0.002725392122,0.003842244218,0.001082192676,0.001431715872,0.0006763724477,0.001410102534,0.001918999009,0.001600473349,0.003121459753,0.001457402861,0.008342401956,0.01135454566,0.01071143522,0.01111994179,0.04349060728,0.1093695053,0.0228420934,0.01068446706,0.00753496778,0.003692559561,0.01260225327,0.003944765248,0.008413314954,0.004287253355,0.001299968211,0.004892330459,0.004238083225,0.003886670645,0.01435986269,0.01513025955,0.006156825552,0.0008593569794,0.01153312804,0.02081802685,0.01628471154,0.01879629013,0.03702679374,0.006156078369,0.004182619088,0.03507638733,0.09663311027,0.02468887837,0.07596634311,0.04938415033,0.007486124413,0.003484695694,0.001208230659,0.007573566125,0.04449651732,0.0813493502,0.01352948256,0.01133414993,0.02386161619,0.04128359226,0.08466284253,0.06404833822,0.007693333211,0.00401904555,0.00786471075,0.002991031828,0.00105321858,0.00193651239,0.001312886937,0.002704124836,0.001740682804,0.0008890514838,0.001730675857,0.001162317529,0.00518839393,0.00327277577,0.002140175587,0.003681558036,0.006972660503,0.005165329669,0.005103132525,0.001721380122,0.003611705799,0.005188945684,0.007745311316,0.03345797846,0.02547825928,0.0637243423,0.02426762654,0.2692445758,0.3419876681,0.4981822564,0.117271063,0.05119989985,0.007913737351,0.01739342677,0.002637459542,0.01095082256,0.003818238026,0.0059914354,0.008395276443,0.003935819158,0.0006143896221,0.003256780394,0.004273322199,0.0009612529306,0.0009895420933,0.0005764441232,0.0008662758744,0.002573997294,0.005774405357,0.004757888134,0.003689799683,0.002682929055,0.006537957977,0.009456713279,0.09950908254,0.1798219294,0.7824857084,0.3363052593,0.02463223673,0.03200466019,0.004001081725,0.009348498209,0.01267199159,0.0003556801447,0.001293528447,0.001750085427,0.00814218012,0.005235449612,0.01752873637,0.01647562775,0.02815536564,0.02270784146,0.02318673365,0.004592339813,0.007419535211,0.01590362047,0.02510735978,0.01417499581,0.006448921605,0.02519372241,0.001074339606,0.03242356997,0.01999454904,0.009270500723,0.01019831456,0.009461974869,0.009381824371,0.01478183918,0.03881920455,0.003938409754,0.002142719115,0.01167210933,0.008529548801,0.01774368686,0.02729828541,0.004882025138,0.006922043572,0.006661413055,0.04428108439,0.00407661054,0.002168380816,0.009096121151,0.03154475447,0.01173908819,0.00150558717,0.01289398243,0.05702775796,0.03510476312,0.08917511625,0.02423826673,0.00539811442,0.009144303767,0.002910426718,0.004154551102,0.004823745902,0.003303322705,0.00537526469,0.02733031991,0.1411770186,NaN,NaN,NaN],
	"pwr": [NaN,2.462914912e-07,2.688538239e-07,1.35762015e-07,2.925018404e-07,3.096796847e-07,3.814671403e-07,2.225214711e-07,3.291618524e-07,2.662891868e-07,2.084594457e-07,2.672159403e-07,2.5675302e-07,3.22872423e-07,5.670096041e-07,3.176689994e-07,3.626533843e-07,3.205516536e-07,2.633873927e-07,2.082890141e-07,2.023625998e-07,3.275532994e-07,2.835442212e-07,8.604220927e-08,4.304485625e-07,3.475375775e-06,5.783095908e-07,6.001203221e-07,8.173170803e-07,1.663641557e-06,5.104570852e-07,2.816192866e-07,4.455802445e-07,2.962531303e-07,6.652358898e-07,8.585965263e-07,1.402943383e-07,2.426192792e-07,1.594881791e-06,1.516447482e-06,1.497345344e-06,4.966098368e-06,1.945097273e-06,2.951113872e-06,2.102887672e-05,6.573923515e-06,9.728425426e-06,1.957249714e-05,1.278766758e-05,1.978408557e-05,2.318175032e-05,8.539179149e-06,3.339553545e-06,2.327719532e-06,1.444367857e-06,7.999538435e-07,4.86551e-07,3.771278934e-07,1.039847779e-06,1.068853321e-06,1.332537742e-06,2.505735416e-06,0.002748690009,0.005616623643,0.008800987201,0.01264507111,0.01167660916,0.005915233613,0.02871529312,0.01701554703,0.03554936243,0.03528184538,0.01603478613,0.009676364404,0.03383616939,0.0160003911,0.02190535353,0.01669828649,0.002202481578,0.003607064662,0.006950604462,0.01532508858,0.0132640383,0.02856672423,0.01495842766,0.02856044722,0.05977544509,0.08546861299,0.09216267556,0.0658805646,0.07562752707,0.04340858821,0.02040707526,0.05051448624,0.04790262621,0.05504381082,0.02164865559,0.01306572585,0.009499496579,0.01932867443,0.02771075783,0.01868124557,0.01622680676,0.001733217754,0.0154763252,0.03179250954,0.07027805388,0.05022815008,0.07789637219,0.0354033049,0.06794424725,0.08115125448,0.04189421375,0.03553382559,0.03566611629,0.03551795281,0.0261334486,0.08206434015,0.1101958983,0.09485381186,0.04638821292,0.02784467106,0.04506209989,0.07240652471,0.0921820439,0.07221712557,0.09760334805,0.005562369584,0.02565886009,0.01546719687,0.001971231711,0.0006830004261,0.0001483000005,0.001442961231,0.03512930166,0.03660928273,0.0672599864,0.05874392173,0.08112781209,0.1054927566,0.08461423124,0.08293635415,0.0605134165,0.04160528555,0.02792404424,0.01409472836,0.004833121357,0.002875640344,0.001493496357,0.001600528899,0.0009122071879,0.0007167410151,0.0008125293958,0.0003903348902,0.0001948775831,0.0001367526107,0.000106612696,5.182202651e-05,8.81996216e-06,5.555936449e-06,0.002168348279,0.06445808802,0.1253701848,0.1836774711,0.1305654689,0.05737902009,0.06930577629,0.04186686288,0.04717107717,0.02587036088,0.005202207334,0.01181181316,0.01792720274,0.00298320782,0.0003351973339,0.001360398182,0.00782233495,0.02739791365,0.04620804411,0.06869949756,0.1152568177,0.1217732485,0.1671471968,0.1881600918,0.1374323036,0.1331907422,0.1002694185,0.09646179142,0.1300001861,0.1317077478,0.02803329387,0.00783744815,0.01488592746,0.01324893871,0.005754044123,0.003834345614,0.01938742475,0.03499161783,0.05187852368,0.06348478515,0.07007520358,0.05857746952,0.05479533583,0.04337059593,0.03706672154,0.02904027648,0.02411182529,0.02708257297,0.01337891736,0.01328643084,0.008222232468,0.01337832435,0.003397827763,0.0249022829,0.030772682,0.09933596232,0.1418070844,0.05372912714,0.02849297664,0.02280905368,0.01990032247,0.0186762692,0.01536938251,0.01696367988,0.01613334875,0.006862015601,0.003229970065,0.005272215686,0.01028173185,0.004122977139,0.001118629245,0.001853013018,0.0008081655885,0.001237469918,0.008498674713,0.01167725572,0.01103696766,0.005953443533,0.02451308863,0.01773016764,0.02591947682,0.03367822945,0.02496224283,0.03616796536,0.009446067659,0.006022064912,0.005322725032,0.009942839583,0.01970995479,0.0029872754,0.00264553583,0.001225890764,0.008626326227,0.01494518915,0.0258233224,0.03431314934,0.03146705542,0.03153686835,0.03117046596,0.02421101511,0.02762486694,0.02711025588,0.02299762006,0.02469769176,0.02312890941,0.01735837594,0.0150345284,0.01394013634,0.01599384113,0.01574352729,0.01360222342,0.01328244245,0.01334039306,0.01133010583,0.00735137974,0.002794881985,0.001923296461,0.0005334508507,0.0002787806919,0.0001811928489,0.0001272012047,0.00018683202,0.0002544780205,0.002441369258,0.004527263517,0.006494304955,0.01505012582,0.01094124457,0.01817480222,0.01953262023,0.02229564657,0.01634817524,0.01135031828,0.00951011047,0.01393071627,0.02625027457,0.03254915681,0.02709125628,0.02828354118,0.02413937374,0.01503103406,0.006620753768,0.005331391124,0.004809583937,0.004145730418,0.001992611559,0.0006556633066,0.0002695518699,0.0001601438085,0.000226344604,0.0001145135819,0.007831377955,0.005620949256,0.007636137603,0.008078705444,0.00953791644,0.01097015502,0.0176358558,0.02015010552,0.01258588201,0.007028095713,0.006039205068,0.005747950288,0.003486557513,0.0180165077,0.00597546692,0.0289648887,0.03387845456,0.004801181982,0.002755701521,0.002749307319,0.004632799891,0.001478141713,0.0009024160933,0.001544103395,0.0008010892539,0.0008428524338,0.0006415204021,0.0006605518524,0.0006478479896,0.0003516631961,7.030032615e-05,0.0006293785665,0.0006666165008,0.0003726128776,0.0001150719393,3.234285255e-05,1.574388185e-05,4.147053582e-05,5.856353359e-05,2.558881193e-05,1.307276929e-05,1.720432126e-05,7.143621245e-06,2.304184559e-06,8.048861765e-07,1.625094506e-06,2.840549788e-06,1.161236853e-06,1.597358028e-07,4.568600425e-08,1.855479472e-08,7.43096585e-08,1.507874584e-07,1.937561903e-07,1.359615917e-07,1.275177771e-07,1.195039771e-07,7.684162544e-08,3.525024001e-08,1.191117284e-08,1.027011133e-09,NaN,NaN,NaN],
	"sr": 16000,
	"range": [1,119927],
	"minf0": 63.1883,
	"maxf0": 706.3069,
	"thresh": 0.1,
	"relflag": 1,
	"hop": 320,
	"bufsize": 10000,
	"wsize": 640,
	"lpf": 4000,
	"shift": 0,
	"plotthreshold": 0.2
}
