{
    "f0": [
        64.215147999127765,
        45.914359129826551,
        76.368086309165307,
        77.212751882963758,
        49.525766371497575,
        53.570700342036702,
        35.200309748686244,
        46.782887816008696,
        55.532038314839291,
        55.51453515965315,
        56.210454714971661,
        55.446132886222053,
        54.992544463028466,
        55.194548538361332,
        55.889320468850244,
        0.0,
        50.765575580564374,
        0.0,
        58.862030762001631,
        53.915734777503189,
        53.388417959835756,
        53.214424023433125,
        53.038666597918052,
        52.687112841368602,
        52.929043150496447,
        52.784038238692133,
        52.624721954077074,
        52.463925938500083,
        52.301623891739879,
        51.788029685254429,
        51.508559336989755,
        51.224503308316386,
        50.761712589302448,
        51.2205218479885,
        51.428187293785172,
        52.596708934582161,
        52.60274388889718,
        52.454704453308267,
        52.884695053449448,
        51.552512541582132,
        52.743989421058934,
        54.967106121323006,
        56.101361224211246,
        57.214007413360356,
        61.89862139462852,
        49.731036328705628,
        49.731213679830233,
        49.731387197166796,
        49.73156993335121,
        49.557757001506239,
        49.488208373516983,
        49.41837727051206,
        50.027270564737947,
        49.857455181122404,
        53.326988235908985,
        52.934258867564836,
        52.703798524980172,
        52.400282376541739,
        52.299257960204955,
        52.09339217356046,
        52.280720387313877,
        52.04870691357322,
        51.958005438188849,
        52.306098332666743,
        52.467959184027919,
        52.62832063108938,
        52.613215899743579,
        51.867587117242749,
        52.414655488032786,
        52.312710906526064,
        52.037254415065213,
        52.113445096778079,
        52.493554984140289,
        52.367518255570786,
        53.199014603672083,
        53.586772581620011,
        54.337898786769337,
        54.628378767697654,
        54.776831459506866,
        55.164455879430577,
        55.769226498066615,
        56.353580645595365,
        56.378096851575009,
        56.211796955460287,
        56.069004592921999,
        56.084627101787575,
        56.018219910691258,
        56.010476426339622,
        55.967759922973343,
        56.114740662380783,
        55.866432527410261,
        55.971628969739157,
        56.076190056727015,
        55.830365521283753,
        55.772802444278199,
        55.960789431440674,
        55.865455628749942,
        55.33909185088784,
        56.326777757235746,
        56.741575004194829,
        57.402392331017708,
        57.742138030574978,
        58.075345629142348,
        58.402256600679024,
        58.373355561500887,
        58.293209669766235,
        58.238431976010375,
        58.342837372326358,
        58.558249706038687,
        58.888233185803465,
        59.27818736241133,
        59.483136767040783,
        59.599094497964721,
        59.714281720036254,
        59.654713612963263,
        59.828220143358827,
        59.568150681895673,
        59.498486958590242,
        59.428542805983817,
        59.35831286289735,
        58.938042852323044,
        59.199212132236205,
        59.341637990887399,
        59.482902711843543,
        59.449028992996276,
        59.323981153506878,
        59.416228250523986,
        59.570733363057712,
        59.518810582713058,
        59.466730652776533,
        59.586756896780372,
        59.530440362073875,
        59.528284419969907,
        60.507745822282054,
        59.039367919332186,
        55.994701515436859,
        49.60471653254541,
        38.179249837666653,
        52.510818792172643,
        38.405797646266308,
        38.627156882629436,
        50.81308622879687,
        51.320839913745331,
        50.926122138155961,
        51.690886109574436,
        52.198012860465013,
        49.153013496028606,
        52.23404045449017,
        52.033559465324451,
        0.0,
        0.0,
        41.664027222604574,
        46.506511535738014,
        71.430712332531385,
        0.0,
        53.419558563360866,
        71.208090829501316,
        76.357119576736025,
        52.221304866775178,
        46.140802052282574,
        75.70176605257501,
        64.238007474488938,
        41.692840647045067,
        38.971909083867004,
        47.038610088626797,
        46.004355967673405,
        55.328917365848554,
        37.47129816001646,
        37.492523678647558,
        38.806869372508338,
        38.466907370295864,
        38.530072601673062,
        41.711920542900017,
        41.167724683893013,
        41.526092369697523,
        41.475660772827496,
        43.504369177281916,
        43.379093052557891,
        43.348685730618016,
        44.283084846392605,
        41.308161393671035,
        43.377711203199645,
        43.257723506571089,
        43.320082534544675,
        43.339931140056592,
        43.359758053344621,
        40.221331830734414,
        43.347140248583358,
        43.40149231224617,
        47.047448777481485,
        0.0,
        41.699037325822964,
        64.197596116481762,
        36.330508031069357,
        76.361802515924467,
        71.225819766810915,
        0.0,
        46.17148061895729,
        71.35225636762523,
        0.0,
        38.826734371807291,
        49.497536086623292,
        46.168016069381764,
        46.340280495483185,
        40.167809768351056,
        43.36269767882564,
        43.356220013916634,
        43.565353175697176,
        44.91330516036917,
        43.494415863851124,
        43.502054496893365,
        43.408083333697533,
        43.288237882162029,
        43.70529848403568,
        0.0,
        76.531102999457133,
        43.361149467930339,
        60.464002394593535,
        55.371025262551044,
        53.688908476431777,
        41.693286824109052,
        40.074660027243674,
        43.526659134582843,
        43.503994772241114,
        76.404317955344027,
        64.389060233378601,
        38.574286286606494,
        44.636194761560319,
        53.796065379131633,
        54.011634897005123,
        54.716169498675335,
        54.808756496571831,
        54.900857809284076,
        54.894192627982711,
        54.902035653440095,
        54.86707327265011,
        54.825475018187106,
        54.959333076115243,
        54.88538684850414,
        54.993842884079186,
        54.95101178340434,
        54.908077207591866,
        54.865034464996896,
        54.821884530000908,
        54.778628119674273,
        54.561268125455769,
        54.772303596475084,
        54.883430319116059,
        54.514970879002774,
        54.883247130477194,
        54.773640476427339,
        57.635989983897943,
        57.707974136735537,
        57.535360708084127,
        57.367463707191462,
        57.366931200119694,
        57.624927081371986,
        57.813577744691727,
        58.032655078794292,
        58.744702435692446,
        59.192138120585845,
        59.216682914490065,
        59.098177509333397,
        59.33101306307173,
        59.053139352897752,
        58.902846143040954,
        59.027555098051735,
        58.823935387433565,
        59.081162701999219,
        58.814264907783198,
        59.069922803675652,
        58.823016780617117,
        58.720852973503007,
        58.369644936625249,
        57.78867106726382,
        57.593760180083962,
        55.840570623358573,
        55.62230115033524,
        55.802901732630907,
        55.925791323609445,
        56.247824918993061,
        56.292075957704398,
        56.644614579455897,
        56.13292398921206,
        56.507763887588105,
        57.11660050123497,
        57.080897449113834,
        57.09402837599913,
        57.096864511258644,
        57.10484490898294,
        57.087507807393067,
        57.070154502112779,
        57.052778920930777,
        57.316259383621627,
        57.374281616686361,
        57.35882847746845,
        57.522975153804964,
        57.601555495078429,
        57.547660632276298,
        56.832243318113761,
        56.777208021691791,
        56.890462673231781,
        57.002982423281118,
        56.94077859791706,
        57.11666490844506,
        57.029956837107648,
        57.029349114076034,
        57.157792315340288,
        57.081022926268545,
        56.935302815455728,
        56.995241993756437,
        56.653331693534099,
        56.841190041321809,
        56.920493671680873,
        56.999436867620688,
        57.07801451374516,
        57.156241877822993,
        57.576946723659539,
        57.481963242183177,
        57.442649570262326,
        57.375105367016374,
        57.307297766758083,
        56.889466964435357,
        57.21560009480406,
        57.401707199739818,
        57.478257475764828,
        57.258351990300667,
        57.035617236240689,
        56.809979461847242,
        57.035874893637541,
        57.258858310743271,
        55.653148449252797,
        55.259052661713781,
        55.191733530934513,
        55.468055918894379,
        55.495149285924867,
        55.295130667537421,
        55.368362891490641,
        55.523400743722881,
        55.46242324087104,
        55.438599574940739,
        55.436047490089436,
        55.472772712889181,
        55.50942413951298,
        55.545999420222927,
        55.408499330170052,
        55.652394385273993,
        55.892902400896553,
        55.780355393774983,
        55.597222716140152,
        55.619727853400775,
        55.642202411333194,
        55.314892611209714,
        55.664741333495982,
        55.203972384946425,
        0.0,
        0.0,
        55.357799035112826,
        57.500641264765882,
        56.97332159812315,
        56.44599965579232,
        56.096243393462942,
        55.983288173052685,
        55.919471075236061,
        55.987210986815199,
        56.174065384544235,
        56.358924553469144,
        56.528628011037384,
        56.875488052523174,
        56.954107717283705,
        57.03237078575107,
        56.936293522116344,
        56.970513234098433,
        57.004665519202888,
        56.511428892493399,
        57.096754643146262,
        56.721373623492781,
        56.556276053175004,
        56.389588791954473,
        56.393547516506963,
        56.267348638715148,
        55.814669943629269,
        56.029536596674788,
        56.71631507337942,
        56.800365512631508,
        56.171446843070044,
        56.176240281392822,
        56.181032392876467,
        56.011826512320589,
        56.791107188832711,
        56.203779935778201,
        56.151310227218794,
        55.863243938921116,
        55.690434515579369,
        55.798142795558817,
        55.742518979687986,
        55.600780955778035,
        55.327252326657167,
        55.115824947926328,
        54.868157025852369,
        54.806222930998089,
        54.744067818736895,
        54.331932341180831,
        54.089820813764817,
        54.096019057379685,
        54.389177560026525,
        53.474936541282467,
        54.112248237478696,
        52.953323636094979,
        52.877860193205983,
        51.338004199981938,
        51.985679666014761,
        52.302865055773516,
        52.938120246979949,
        53.221390243072449,
        53.13568754961544,
        53.445333176401576,
        52.39777785776036,
        51.577358837293318,
        50.561919759232353,
        50.58236145252684,
        52.883665494773695,
        52.191074163092736,
        52.030556633020637,
        52.432367044246362,
        52.240264885313167,
        52.425248006016915,
        52.372104313930365,
        52.691487149824688,
        51.989089811956688,
        52.317202800814059,
        52.333192231514559,
        52.15295685759304,
        51.54978528858949,
        51.989048084012353,
        58.792867089183424,
        58.918782800154133,
        58.69403751470599,
        58.617366331024996,
        58.6369283722861,
        58.648217024555905,
        58.659498320764598,
        58.670773413740605,
        58.822588836265737,
        58.973088806407596,
        58.925216276526264,
        59.057605164739655,
        59.335456047833347,
        59.285857707163771,
        58.705331503032987,
        58.724286860985558,
        58.743222625803632,
        58.762136635673144,
        58.953298193261332,
        58.5300664966501,
        58.377806084499511,
        59.263756269871443,
        59.125349636717786,
        58.946628312315561,
        58.785858920717423,
        58.956409583135752,
        59.074745393702628,
        58.32939516102887,
        59.240559997595483,
        59.094122180237051,
        59.25569978537866,
        58.314822953045145,
        58.836101797632871,
        59.250577361164801,
        59.172827268632616,
        59.438826455177647,
        59.128941035848335,
        55.375312192496239,
        55.351913725850068,
        40.215835085348836,
        76.369394874741133,
        40.154791733457529,
        71.218622424682806,
        55.372035822252201,
        55.355951940672419,
        76.327474525569585,
        49.517665662349799,
        43.371522552787098,
        49.334648827604909,
        43.380841508606707,
        76.224219479534099,
        76.327660108528903,
        55.330030827247889,
        43.368366869097557,
        76.544833654432196,
        36.41805881776218,
        41.605047706697547,
        36.650049187933533,
        36.734955613655274,
        53.614089813072844,
        53.381552778513623,
        50.76410036508436,
        50.670931494957642,
        0.0,
        0.0,
        0.0,
        0.0,
        0.0,
        0.0,
        0.0,
        0.0,
        0.0,
        0.0,
        0.0,
        0.0,
        0.0,
        0.0,
        0.0,
        0.0,
        0.0,
        0.0,
        0.0,
        0.0,
        0.0,
        0.0,
        0.0,
        0.0,
        0.0,
        0.0,
        0.0,
        0.0,
        0.0,
        0.0
    ],
    "time": [
        0.02,
        0.040000000000000001,
        0.059999999999999998,
        0.080000000000000002,
        0.10000000000000001,
        0.12,
        0.14000000000000001,
        0.16,
        0.17999999999999999,
        0.20000000000000001,
        0.22,
        0.23999999999999999,
        0.26000000000000001,
        0.28000000000000003,
        0.29999999999999999,
        0.32000000000000001,
        0.34000000000000002,
        0.35999999999999999,
        0.38,
        0.40000000000000002,
        0.41999999999999998,
        0.44,
        0.46000000000000002,
        0.47999999999999998,
        0.5,
        0.52000000000000002,
        0.54000000000000004,
        0.56000000000000005,
        0.57999999999999996,
        0.59999999999999998,
        0.62,
        0.64000000000000001,
        0.66000000000000003,
        0.68000000000000005,
        0.69999999999999996,
        0.71999999999999997,
        0.73999999999999999,
        0.76000000000000001,
        0.78000000000000003,
        0.80000000000000004,
        0.81999999999999995,
        0.83999999999999997,
        0.85999999999999999,
        0.88,
        0.90000000000000002,
        0.92000000000000004,
        0.93999999999999995,
        0.95999999999999996,
        0.97999999999999998,
        1.0,
        1.02,
        1.04,
        1.0600000000000001,
        1.0800000000000001,
        1.1000000000000001,
        1.1200000000000001,
        1.1399999999999999,
        1.1599999999999999,
        1.1799999999999999,
        1.2,
        1.22,
        1.24,
        1.26,
        1.28,
        1.3,
        1.3200000000000001,
        1.3400000000000001,
        1.3600000000000001,
        1.3799999999999999,
        1.3999999999999999,
        1.4199999999999999,
        1.4399999999999999,
        1.46,
        1.48,
        1.5,
        1.52,
        1.54,
        1.5600000000000001,
        1.5800000000000001,
        1.6000000000000001,
        1.6200000000000001,
        1.6399999999999999,
        1.6599999999999999,
        1.6799999999999999,
        1.7,
        1.72,
        1.74,
        1.76,
        1.78,
        1.8,
        1.8200000000000001,
        1.8400000000000001,
        1.8600000000000001,
        1.8799999999999999,
        1.8999999999999999,
        1.9199999999999999,
        1.9399999999999999,
        1.96,
        1.98,
        2.0,
        2.02,
        2.04,
        2.0600000000000001,
        2.0800000000000001,
        2.1000000000000001,
        2.1200000000000001,
        2.1400000000000001,
        2.1600000000000001,
        2.1800000000000002,
        2.2000000000000002,
        2.2200000000000002,
        2.2400000000000002,
        2.2599999999999998,
        2.2799999999999998,
        2.2999999999999998,
        2.3199999999999998,
        2.3399999999999999,
        2.3599999999999999,
        2.3799999999999999,
        2.3999999999999999,
        2.4199999999999999,
        2.4399999999999999,
        2.46,
        2.48,
        2.5,
        2.52,
        2.54,
        2.5600000000000001,
        2.5800000000000001,
        2.6000000000000001,
        2.6200000000000001,
        2.6400000000000001,
        2.6600000000000001,
        2.6800000000000002,
        2.7000000000000002,
        2.7200000000000002,
        2.7400000000000002,
        2.7599999999999998,
        2.7799999999999998,
        2.7999999999999998,
        2.8199999999999998,
        2.8399999999999999,
        2.8599999999999999,
        2.8799999999999999,
        2.8999999999999999,
        2.9199999999999999,
        2.9399999999999999,
        2.96,
        2.98,
        3.0,
        3.02,
        3.04,
        3.0600000000000001,
        3.0800000000000001,
        3.1000000000000001,
        3.1200000000000001,
        3.1400000000000001,
        3.1600000000000001,
        3.1800000000000002,
        3.2000000000000002,
        3.2200000000000002,
        3.2400000000000002,
        3.2599999999999998,
        3.2799999999999998,
        3.2999999999999998,
        3.3199999999999998,
        3.3399999999999999,
        3.3599999999999999,
        3.3799999999999999,
        3.3999999999999999,
        3.4199999999999999,
        3.4399999999999999,
        3.46,
        3.48,
        3.5,
        3.52,
        3.54,
        3.5600000000000001,
        3.5800000000000001,
        3.6000000000000001,
        3.6200000000000001,
        3.6400000000000001,
        3.6600000000000001,
        3.6800000000000002,
        3.7000000000000002,
        3.7200000000000002,
        3.7400000000000002,
        3.7599999999999998,
        3.7799999999999998,
        3.7999999999999998,
        3.8199999999999998,
        3.8399999999999999,
        3.8599999999999999,
        3.8799999999999999,
        3.8999999999999999,
        3.9199999999999999,
        3.9399999999999999,
        3.96,
        3.98,
        4.0,
        4.0199999999999996,
        4.04,
        4.0599999999999996,
        4.0800000000000001,
        4.0999999999999996,
        4.1200000000000001,
        4.1399999999999997,
        4.1600000000000001,
        4.1799999999999997,
        4.2000000000000002,
        4.2199999999999998,
        4.2400000000000002,
        4.2599999999999998,
        4.2800000000000002,
        4.2999999999999998,
        4.3200000000000003,
        4.3399999999999999,
        4.3600000000000003,
        4.3799999999999999,
        4.4000000000000004,
        4.4199999999999999,
        4.4400000000000004,
        4.46,
        4.4800000000000004,
        4.5,
        4.5199999999999996,
        4.54,
        4.5599999999999996,
        4.5800000000000001,
        4.5999999999999996,
        4.6200000000000001,
        4.6399999999999997,
        4.6600000000000001,
        4.6799999999999997,
        4.7000000000000002,
        4.7199999999999998,
        4.7400000000000002,
        4.7599999999999998,
        4.7800000000000002,
        4.7999999999999998,
        4.8200000000000003,
        4.8399999999999999,
        4.8600000000000003,
        4.8799999999999999,
        4.9000000000000004,
        4.9199999999999999,
        4.9400000000000004,
        4.96,
        4.9800000000000004,
        5.0,
        5.0199999999999996,
        5.04,
        5.0599999999999996,
        5.0800000000000001,
        5.0999999999999996,
        5.1200000000000001,
        5.1399999999999997,
        5.1600000000000001,
        5.1799999999999997,
        5.2000000000000002,
        5.2199999999999998,
        5.2400000000000002,
        5.2599999999999998,
        5.2800000000000002,
        5.2999999999999998,
        5.3200000000000003,
        5.3399999999999999,
        5.3600000000000003,
        5.3799999999999999,
        5.4000000000000004,
        5.4199999999999999,
        5.4400000000000004,
        5.46,
        5.4800000000000004,
        5.5,
        5.5199999999999996,
        5.54,
        5.5599999999999996,
        5.5800000000000001,
        5.5999999999999996,
        5.6200000000000001,
        5.6399999999999997,
        5.6600000000000001,
        5.6799999999999997,
        5.7000000000000002,
        5.7199999999999998,
        5.7400000000000002,
        5.7599999999999998,
        5.7800000000000002,
        5.7999999999999998,
        5.8200000000000003,
        5.8399999999999999,
        5.8600000000000003,
        5.8799999999999999,
        5.9000000000000004,
        5.9199999999999999,
        5.9400000000000004,
        5.96,
        5.9800000000000004,
        6.0,
        6.0199999999999996,
        6.04,
        6.0599999999999996,
        6.0800000000000001,
        6.0999999999999996,
        6.1200000000000001,
        6.1399999999999997,
        6.1600000000000001,
        6.1799999999999997,
        6.2000000000000002,
        6.2199999999999998,
        6.2400000000000002,
        6.2599999999999998,
        6.2800000000000002,
        6.2999999999999998,
        6.3200000000000003,
        6.3399999999999999,
        6.3600000000000003,
        6.3799999999999999,
        6.4000000000000004,
        6.4199999999999999,
        6.4400000000000004,
        6.46,
        6.4800000000000004,
        6.5,
        6.5199999999999996,
        6.54,
        6.5599999999999996,
        6.5800000000000001,
        6.5999999999999996,
        6.6200000000000001,
        6.6399999999999997,
        6.6600000000000001,
        6.6799999999999997,
        6.7000000000000002,
        6.7199999999999998,
        6.7400000000000002,
        6.7599999999999998,
        6.7800000000000002,
        6.7999999999999998,
        6.8200000000000003,
        6.8399999999999999,
        6.8600000000000003,
        6.8799999999999999,
        6.9000000000000004,
        6.9199999999999999,
        6.9400000000000004,
        6.96,
        6.9800000000000004,
        7.0,
        7.0199999999999996,
        7.04,
        7.0599999999999996,
        7.0800000000000001,
        7.0999999999999996,
        7.1200000000000001,
        7.1399999999999997,
        7.1600000000000001,
        7.1799999999999997,
        7.2000000000000002,
        7.2199999999999998,
        7.2400000000000002,
        7.2599999999999998,
        7.2800000000000002,
        7.2999999999999998,
        7.3200000000000003,
        7.3399999999999999,
        7.3600000000000003,
        7.3799999999999999,
        7.4000000000000004,
        7.4199999999999999,
        7.4400000000000004,
        7.46,
        7.4800000000000004,
        7.5,
        7.5199999999999996,
        7.54,
        7.5599999999999996,
        7.5800000000000001,
        7.5999999999999996,
        7.6200000000000001,
        7.6399999999999997,
        7.6600000000000001,
        7.6799999999999997,
        7.7000000000000002,
        7.7199999999999998,
        7.7400000000000002,
        7.7599999999999998,
        7.7800000000000002,
        7.7999999999999998,
        7.8200000000000003,
        7.8399999999999999,
        7.8600000000000003,
        7.8799999999999999,
        7.9000000000000004,
        7.9199999999999999,
        7.9400000000000004,
        7.96,
        7.9800000000000004,
        8.0,
        8.0199999999999996,
        8.0399999999999991,
        8.0600000000000005,
        8.0800000000000001,
        8.0999999999999996,
        8.1199999999999992,
        8.1400000000000006,
        8.1600000000000001,
        8.1799999999999997,
        8.1999999999999993,
        8.2200000000000006,
        8.2400000000000002,
        8.2599999999999998,
        8.2799999999999994,
        8.3000000000000007,
        8.3200000000000003,
        8.3399999999999999,
        8.3599999999999994,
        8.3800000000000008,
        8.4000000000000004,
        8.4199999999999999,
        8.4399999999999995,
        8.4600000000000009,
        8.4800000000000004,
        8.5,
        8.5199999999999996,
        8.5399999999999991,
        8.5600000000000005,
        8.5800000000000001,
        8.5999999999999996,
        8.6199999999999992,
        8.6400000000000006,
        8.6600000000000001,
        8.6799999999999997,
        8.6999999999999993,
        8.7200000000000006,
        8.7400000000000002,
        8.7599999999999998,
        8.7799999999999994,
        8.8000000000000007,
        8.8200000000000003,
        8.8399999999999999,
        8.8599999999999994,
        8.8800000000000008,
        8.9000000000000004,
        8.9199999999999999,
        8.9399999999999995,
        8.9600000000000009,
        8.9800000000000004,
        9.0,
        9.0199999999999996,
        9.0399999999999991,
        9.0600000000000005,
        9.0800000000000001,
        9.0999999999999996,
        9.1199999999999992,
        9.1400000000000006,
        9.1600000000000001,
        9.1799999999999997,
        9.1999999999999993,
        9.2200000000000006,
        9.2400000000000002,
        9.2599999999999998,
        9.2799999999999994,
        9.3000000000000007,
        9.3200000000000003,
        9.3399999999999999,
        9.3599999999999994,
        9.3800000000000008,
        9.4000000000000004,
        9.4199999999999999,
        9.4399999999999995,
        9.4600000000000009,
        9.4800000000000004,
        9.5,
        9.5199999999999996,
        9.5399999999999991,
        9.5600000000000005,
        9.5800000000000001,
        9.5999999999999996,
        9.6199999999999992,
        9.6400000000000006,
        9.6600000000000001,
        9.6799999999999997,
        9.6999999999999993,
        9.7200000000000006,
        9.7400000000000002,
        9.7599999999999998,
        9.7799999999999994,
        9.8000000000000007,
        9.8200000000000003,
        9.8399999999999999,
        9.8599999999999994,
        9.8800000000000008,
        9.9000000000000004,
        9.9199999999999999,
        9.9399999999999995,
        9.9600000000000009,
        9.9800000000000004,
        10.0,
        10.02,
        10.039999999999999,
        10.06,
        10.08,
        10.1,
        10.119999999999999,
        10.140000000000001,
        10.16,
        10.18,
        10.199999999999999,
        10.220000000000001,
        10.24,
        10.26,
        10.279999999999999,
        10.300000000000001,
        10.32,
        10.34,
        10.359999999999999,
        10.380000000000001,
        10.4,
        10.42,
        10.44,
        10.460000000000001,
        10.48,
        10.5,
        10.52,
        10.539999999999999,
        10.56
    ]
}