{
    "DU": 58,
    "DV": 276,
    "F-measure": 0.6959578207381372,
    "F-measure Chroma": 0.7662565905096662,
    "FN": 0,
    "FNC": 0,
    "FNCch": 0,
    "FNI": 0,
    "FNIch": 0,
    "FP": 99,
    "GU": 157,
    "GV": 177,
    "Overall Accuracy": 0.592814371257485,
    "Overall Chroma Accuracy": 0.6526946107784432,
    "Precision": 0.592814371257485,
    "Precision Chroma": 0.6526946107784432,
    "Raw Chroma Accuracy": 0.903954802259887,
    "Raw Pitch Accuracy": 0.7909604519774012,
    "Recall": 0.8425531914893617,
    "Recall Chroma": 0.9276595744680851,
    "TN": 58,
    "TO": 334,
    "TP": 177,
    "TPC": 140,
    "TPCch": 160,
    "TPI": 37,
    "TPIch": 17,
    "Voiced Chroma Accuracy": 0.903954802259887,
    "Voiced Pitch Accuracy": 0.7909604519774012,
    "Voicing Accuracy": 0.7035928143712575,
    "Voicing Detection": 1.0,
    "Voicing False Alarm": 0.6305732484076433
}