{
    "f0": [
        0.0,
        0.0,
        0.0,
        0.0,
        0.0,
        0.0,
        0.0,
        0.0,
        0.0,
        0.0,
        0.0,
        0.0,
        0.0,
        0.0,
        0.0,
        0.0,
        0.0,
        0.0,
        0.0,
        0.0,
        0.0,
        0.0,
        0.0,
        0.0,
        0.0,
        0.0,
        0.0,
        0.0,
        0.0,
        0.0,
        0.0,
        0.0,
        0.0,
        58.807264334340076,
        59.053799541548031,
        58.783588703362511,
        58.750954620014824,
        58.866349943132619,
        59.042299601737028,
        59.228900589636552,
        59.359209819209624,
        59.738002461595997,
        60.297792841951534,
        60.142823055462941,
        59.99750881440297,
        60.055766091654114,
        60.215965633393921,
        60.553069052051747,
        60.144178888090835,
        59.366211718614977,
        59.858073799441449,
        59.849206652652256,
        59.785518444347851,
        59.646281642166855,
        60.414669850892814,
        59.910751441462175,
        60.023724913782495,
        60.138045622762768,
        60.141024411781409,
        60.122364136097218,
        60.146487824848457,
        60.088400977915285,
        60.031061983070046,
        60.051711554584493,
        60.075871500520442,
        60.135535243886942,
        60.11947637294287,
        59.819476435949667,
        60.11299334947082,
        59.766210840020264,
        60.180800969116547,
        60.106148546276927,
        60.296838039181694,
        60.18557054743188,
        60.007307686972041,
        60.263635487689278,
        60.059829702854529,
        60.067026710403695,
        59.922396823748713,
        55.070752823734608,
        55.215813965205925,
        55.044802837455251,
        54.955004048209503,
        54.929228941668683,
        54.987008512727314,
        55.218768712329634,
        55.320606522440698,
        55.316935932449425,
        55.376174792534101,
        55.07960174324657,
        55.263861185789885,
        55.076682153436877,
        54.851285295132456,
        54.921157232994744,
        55.283839139005792,
        55.156424936880668,
        54.016895369534453,
        54.77769156415151,
        54.188000453903513,
        53.771122129659929,
        54.537943971697672,
        54.61811260633457,
        54.775934446436352,
        54.723136290078969,
        54.71828606375059,
        54.796079418037863,
        54.712849487993658,
        54.879245131067364,
        55.001275693829172,
        54.871930852031369,
        54.765769137372942,
        55.302592897171465,
        54.651332644874707,
        54.531208264877549,
        54.58905129093165,
        54.623854603809477,
        53.904266120183152,
        54.342771330135108,
        54.569165329577828,
        54.614952923561319,
        53.851551555461697,
        54.69716700700171,
        60.593394274713297,
        60.960639763265291,
        60.972694094257243,
        61.153606694505626,
        60.926949330915477,
        60.478112583072829,
        60.861557866395508,
        60.990225837875201,
        61.284253846249968,
        61.626951994181567,
        61.922281043181719,
        62.220960802562445,
        62.182968963284559,
        62.340497436983142,
        62.299070233240904,
        62.017055822678216,
        62.150088077005066,
        61.812926697934415,
        62.065524608529962,
        61.932521125668863,
        61.924014029824967,
        62.103935685510613,
        62.262493590011822,
        62.23262524621618,
        62.225523422006127,
        62.217338553814727,
        62.125300197584423,
        62.097730898878687,
        62.060313590011241,
        62.063658713756752,
        62.103544058173767,
        62.149627883974155,
        62.15759525714568,
        62.140489812434048,
        62.071432780664999,
        62.048220263955656,
        61.885552545555178,
        62.021606016727027,
        61.943542219207387,
        61.977981075554275,
        61.982136367250618,
        61.929109069194965,
        61.781674282811451,
        61.673709863901344,
        61.921256304940179,
        61.860369998882305,
        61.856849356655793,
        61.920112285723533,
        61.991718407871268,
        61.99721096226164,
        58.549099418386042,
        58.758118974571552,
        59.066353220579664,
        59.032951051031148,
        59.019126146760271,
        59.082526620466098,
        59.012650489238858,
        58.855934012316183,
        58.946220501691727,
        59.005780996105429,
        59.033384532670624,
        58.988160232773254,
        59.000944552038348,
        59.082832156405203,
        59.084193780585473,
        59.079263070945004,
        59.154067495116273,
        59.151197143139271,
        59.041031756882603,
        58.935456356300328,
        59.321319416272978,
        59.249182322353683,
        59.173546417127248,
        59.216328981494911,
        59.260751221190247,
        59.363930468661195,
        59.279233694246564,
        59.125057517875078,
        59.118145384679494,
        59.105714298839025,
        59.072616001541263,
        59.04507073080471,
        59.007128371012534,
        59.062338419537326,
        59.100224996541826,
        59.140949082441168,
        59.11692883265556,
        59.14826257538644,
        59.100639790057173,
        58.982143117861256,
        58.987424782592377,
        58.987413066210557,
        59.035414089972512,
        59.16330102526377,
        59.018705123688356,
        58.917276939451988,
        58.942880790798469,
        58.980018377588117,
        58.992516518799633,
        59.074548333131276,
        59.044665302469866,
        59.077707244716869,
        59.089162423595042,
        59.002197110416795,
        58.986977309396678,
        59.103566412213425,
        59.126454103465392,
        59.112860899150533,
        59.194803917063481,
        59.189517403109726,
        59.18855550942601,
        59.258739484739529,
        59.336360446097515,
        59.462542053174587,
        59.72435909325921,
        59.810973228016081,
        59.803724109060717,
        59.895801239119038,
        59.8250524149299,
        0.0,
        0.0,
        0.0,
        0.0,
        0.0,
        0.0,
        0.0,
        0.0,
        0.0,
        0.0,
        0.0,
        0.0,
        0.0,
        0.0,
        0.0,
        0.0,
        0.0,
        0.0,
        0.0,
        0.0,
        0.0,
        0.0,
        0.0,
        0.0,
        0.0,
        0.0,
        0.0,
        0.0,
        0.0,
        0.0,
        0.0,
        0.0,
        0.0,
        0.0,
        0.0,
        0.0,
        0.0,
        0.0,
        0.0,
        0.0,
        0.0,
        0.0,
        0.0,
        59.939766156880978,
        60.081835900524695,
        60.150484148919503,
        60.152443954501109,
        60.087143217047881,
        60.029856463183535,
        60.042318543329131,
        60.082191607514375,
        60.154951882900924,
        60.207349788415712,
        60.206056763857418,
        60.235565319594919,
        60.195181728606158,
        60.182107864092018,
        60.157961796147234,
        60.168996203544708,
        60.155872506702678,
        60.186781246145642,
        60.19600037391313,
        60.16481007255458,
        60.147835366145273,
        60.10434411486937,
        60.04725536997465,
        60.024475121753184,
        60.038418062747368,
        60.110920717634372,
        60.16585221062185,
        60.155029925997106,
        60.102904841582422,
        60.068460928266376,
        59.983185201880111,
        59.870383429453668,
        59.922408987661086,
        59.863332094895625,
        59.956209116933323,
        59.999930300636755,
        60.044040873543651,
        60.023027144273257,
        60.044560515892123,
        60.080008777825327,
        60.058139148053499,
        60.060878113414063,
        60.118046375340406,
        60.130350978224754,
        60.014334883944755,
        60.084378244745515,
        60.214539597161092,
        60.118465614321934,
        60.042546212564041,
        60.026005635505868,
        60.082239881941589,
        60.064582419702845,
        60.012966794024315,
        60.097789095466233,
        60.122219713384375,
        60.161915417990613,
        60.173677056591259,
        60.178548606176406,
        60.171599687444498,
        60.184100037555496,
        60.146776133232905,
        60.156717079255245,
        60.15917239452385,
        60.164762093366967,
        60.190564543059125,
        60.322458435294656,
        60.29054220370513,
        60.16706428902944,
        60.308006502309908,
        60.227040928790814,
        60.203013279651998,
        60.017107032191134,
        60.209211378003729,
        60.099766914958508,
        60.440421723523002,
        60.450644061163473,
        60.64959609970704,
        60.240331778721668,
        60.530690584880062,
        60.263026834223758,
        60.305010732251496,
        0.0,
        0.0,
        0.0,
        0.0,
        0.0,
        0.0,
        0.0,
        0.0,
        0.0,
        0.0,
        0.0,
        0.0,
        0.0,
        0.0,
        0.0,
        0.0,
        0.0,
        0.0,
        0.0,
        0.0,
        0.0,
        0.0,
        0.0,
        0.0,
        0.0,
        0.0,
        0.0,
        0.0,
        0.0,
        0.0,
        0.0,
        0.0,
        0.0,
        0.0,
        0.0,
        0.0,
        0.0,
        0.0,
        48.914186965066932,
        48.963203310522772,
        48.916504603365198,
        49.210643195840127,
        50.217335060778296,
        0.0,
        0.0,
        0.0,
        0.0,
        0.0,
        0.0,
        0.0,
        58.078861526461353,
        58.072180141399663,
        58.563417674937099,
        58.735994514765196,
        59.054863785893261,
        58.73194251483369,
        58.989376256330473,
        59.265648399846597,
        59.202633932151741,
        59.578535914556738,
        59.868603062471529,
        60.035431668813445,
        60.073030333496817,
        60.087259753381289,
        59.675034863652776,
        58.728874193336942,
        60.046395409093343,
        59.710421615537221,
        59.673199294801861,
        58.410705662520073,
        59.374966475513425,
        57.754592037044198,
        57.961736185572711,
        56.522148906059833,
        56.530776123860335,
        56.613335837330638,
        56.45767706282664,
        56.663241856054427,
        56.793735762307321,
        56.983563497087992,
        57.072555643253992,
        57.355929092165347,
        56.907683102651319,
        56.349505573130912,
        56.942326817660003,
        56.894672083747693,
        57.121823663575675,
        56.852908039151146,
        56.957768509945652,
        56.990263950257699,
        56.762265357493817,
        56.585028701176803,
        57.458747334960051,
        53.718801129381035,
        54.118781602516677,
        54.46862171938497,
        54.624477180860126,
        54.63562877351081,
        54.577888924220176,
        54.520514347009879,
        54.568318257030455,
        54.557940382725647,
        54.650621624156869,
        54.755990144750299,
        54.829696416234029,
        54.810616554676443,
        54.719608000029098,
        54.560691651251467,
        54.467762790311752,
        54.498292264189871,
        54.599849138697081,
        54.611071706567287,
        54.613012468992522,
        54.635262615137648,
        54.750600884113496,
        54.944845988787158,
        54.947493221598506,
        54.962353607418009,
        55.034642251260465,
        55.144970459193246,
        55.147195697091675,
        55.146834857663883,
        55.124387250408716,
        55.087056804292388,
        55.059573275544899,
        55.048032935587869,
        55.007991339132488,
        55.03119839886449,
        55.04735149996646,
        55.087315627330305,
        55.146028984981797,
        55.089569728897807,
        55.198183865005234,
        55.19405277667196,
        55.213735989407866,
        55.244080759180065,
        55.310214675443852,
        55.367028871640002,
        55.390341125920351,
        55.385102252638234,
        55.406856422344504,
        55.442999900792998,
        55.487939988526186,
        55.391060576303587,
        55.302885580422299,
        55.249296043011469,
        55.144501306171094,
        55.148425122150371,
        55.133810614909677,
        55.163192854603381,
        55.175186341567802,
        55.229881961885653,
        55.308873564196261,
        55.369898612168363,
        55.401201205014999,
        55.347012029362176,
        55.305070740232864,
        55.23164285001841,
        55.228515958317438,
        55.222610507595952,
        0.0,
        0.0,
        0.0,
        0.0,
        0.0,
        0.0,
        0.0,
        0.0,
        0.0,
        0.0,
        0.0,
        0.0,
        0.0,
        0.0,
        0.0,
        0.0,
        0.0,
        0.0,
        0.0,
        0.0
    ],
    "time": [
        0.02,
        0.040000000000000001,
        0.059999999999999998,
        0.080000000000000002,
        0.10000000000000001,
        0.12,
        0.14000000000000001,
        0.16,
        0.17999999999999999,
        0.20000000000000001,
        0.22,
        0.23999999999999999,
        0.26000000000000001,
        0.28000000000000003,
        0.29999999999999999,
        0.32000000000000001,
        0.34000000000000002,
        0.35999999999999999,
        0.38,
        0.40000000000000002,
        0.41999999999999998,
        0.44,
        0.46000000000000002,
        0.47999999999999998,
        0.5,
        0.52000000000000002,
        0.54000000000000004,
        0.56000000000000005,
        0.57999999999999996,
        0.59999999999999998,
        0.62,
        0.64000000000000001,
        0.66000000000000003,
        0.68000000000000005,
        0.69999999999999996,
        0.71999999999999997,
        0.73999999999999999,
        0.76000000000000001,
        0.78000000000000003,
        0.80000000000000004,
        0.81999999999999995,
        0.83999999999999997,
        0.85999999999999999,
        0.88,
        0.90000000000000002,
        0.92000000000000004,
        0.93999999999999995,
        0.95999999999999996,
        0.97999999999999998,
        1.0,
        1.02,
        1.04,
        1.0600000000000001,
        1.0800000000000001,
        1.1000000000000001,
        1.1200000000000001,
        1.1399999999999999,
        1.1599999999999999,
        1.1799999999999999,
        1.2,
        1.22,
        1.24,
        1.26,
        1.28,
        1.3,
        1.3200000000000001,
        1.3400000000000001,
        1.3600000000000001,
        1.3799999999999999,
        1.3999999999999999,
        1.4199999999999999,
        1.4399999999999999,
        1.46,
        1.48,
        1.5,
        1.52,
        1.54,
        1.5600000000000001,
        1.5800000000000001,
        1.6000000000000001,
        1.6200000000000001,
        1.6399999999999999,
        1.6599999999999999,
        1.6799999999999999,
        1.7,
        1.72,
        1.74,
        1.76,
        1.78,
        1.8,
        1.8200000000000001,
        1.8400000000000001,
        1.8600000000000001,
        1.8799999999999999,
        1.8999999999999999,
        1.9199999999999999,
        1.9399999999999999,
        1.96,
        1.98,
        2.0,
        2.02,
        2.04,
        2.0600000000000001,
        2.0800000000000001,
        2.1000000000000001,
        2.1200000000000001,
        2.1400000000000001,
        2.1600000000000001,
        2.1800000000000002,
        2.2000000000000002,
        2.2200000000000002,
        2.2400000000000002,
        2.2599999999999998,
        2.2799999999999998,
        2.2999999999999998,
        2.3199999999999998,
        2.3399999999999999,
        2.3599999999999999,
        2.3799999999999999,
        2.3999999999999999,
        2.4199999999999999,
        2.4399999999999999,
        2.46,
        2.48,
        2.5,
        2.52,
        2.54,
        2.5600000000000001,
        2.5800000000000001,
        2.6000000000000001,
        2.6200000000000001,
        2.6400000000000001,
        2.6600000000000001,
        2.6800000000000002,
        2.7000000000000002,
        2.7200000000000002,
        2.7400000000000002,
        2.7599999999999998,
        2.7799999999999998,
        2.7999999999999998,
        2.8199999999999998,
        2.8399999999999999,
        2.8599999999999999,
        2.8799999999999999,
        2.8999999999999999,
        2.9199999999999999,
        2.9399999999999999,
        2.96,
        2.98,
        3.0,
        3.02,
        3.04,
        3.0600000000000001,
        3.0800000000000001,
        3.1000000000000001,
        3.1200000000000001,
        3.1400000000000001,
        3.1600000000000001,
        3.1800000000000002,
        3.2000000000000002,
        3.2200000000000002,
        3.2400000000000002,
        3.2599999999999998,
        3.2799999999999998,
        3.2999999999999998,
        3.3199999999999998,
        3.3399999999999999,
        3.3599999999999999,
        3.3799999999999999,
        3.3999999999999999,
        3.4199999999999999,
        3.4399999999999999,
        3.46,
        3.48,
        3.5,
        3.52,
        3.54,
        3.5600000000000001,
        3.5800000000000001,
        3.6000000000000001,
        3.6200000000000001,
        3.6400000000000001,
        3.6600000000000001,
        3.6800000000000002,
        3.7000000000000002,
        3.7200000000000002,
        3.7400000000000002,
        3.7599999999999998,
        3.7799999999999998,
        3.7999999999999998,
        3.8199999999999998,
        3.8399999999999999,
        3.8599999999999999,
        3.8799999999999999,
        3.8999999999999999,
        3.9199999999999999,
        3.9399999999999999,
        3.96,
        3.98,
        4.0,
        4.0199999999999996,
        4.04,
        4.0599999999999996,
        4.0800000000000001,
        4.0999999999999996,
        4.1200000000000001,
        4.1399999999999997,
        4.1600000000000001,
        4.1799999999999997,
        4.2000000000000002,
        4.2199999999999998,
        4.2400000000000002,
        4.2599999999999998,
        4.2800000000000002,
        4.2999999999999998,
        4.3200000000000003,
        4.3399999999999999,
        4.3600000000000003,
        4.3799999999999999,
        4.4000000000000004,
        4.4199999999999999,
        4.4400000000000004,
        4.46,
        4.4800000000000004,
        4.5,
        4.5199999999999996,
        4.54,
        4.5599999999999996,
        4.5800000000000001,
        4.5999999999999996,
        4.6200000000000001,
        4.6399999999999997,
        4.6600000000000001,
        4.6799999999999997,
        4.7000000000000002,
        4.7199999999999998,
        4.7400000000000002,
        4.7599999999999998,
        4.7800000000000002,
        4.7999999999999998,
        4.8200000000000003,
        4.8399999999999999,
        4.8600000000000003,
        4.8799999999999999,
        4.9000000000000004,
        4.9199999999999999,
        4.9400000000000004,
        4.96,
        4.9800000000000004,
        5.0,
        5.0199999999999996,
        5.04,
        5.0599999999999996,
        5.0800000000000001,
        5.0999999999999996,
        5.1200000000000001,
        5.1399999999999997,
        5.1600000000000001,
        5.1799999999999997,
        5.2000000000000002,
        5.2199999999999998,
        5.2400000000000002,
        5.2599999999999998,
        5.2800000000000002,
        5.2999999999999998,
        5.3200000000000003,
        5.3399999999999999,
        5.3600000000000003,
        5.3799999999999999,
        5.4000000000000004,
        5.4199999999999999,
        5.4400000000000004,
        5.46,
        5.4800000000000004,
        5.5,
        5.5199999999999996,
        5.54,
        5.5599999999999996,
        5.5800000000000001,
        5.5999999999999996,
        5.6200000000000001,
        5.6399999999999997,
        5.6600000000000001,
        5.6799999999999997,
        5.7000000000000002,
        5.7199999999999998,
        5.7400000000000002,
        5.7599999999999998,
        5.7800000000000002,
        5.7999999999999998,
        5.8200000000000003,
        5.8399999999999999,
        5.8600000000000003,
        5.8799999999999999,
        5.9000000000000004,
        5.9199999999999999,
        5.9400000000000004,
        5.96,
        5.9800000000000004,
        6.0,
        6.0199999999999996,
        6.04,
        6.0599999999999996,
        6.0800000000000001,
        6.0999999999999996,
        6.1200000000000001,
        6.1399999999999997,
        6.1600000000000001,
        6.1799999999999997,
        6.2000000000000002,
        6.2199999999999998,
        6.2400000000000002,
        6.2599999999999998,
        6.2800000000000002,
        6.2999999999999998,
        6.3200000000000003,
        6.3399999999999999,
        6.3600000000000003,
        6.3799999999999999,
        6.4000000000000004,
        6.4199999999999999,
        6.4400000000000004,
        6.46,
        6.4800000000000004,
        6.5,
        6.5199999999999996,
        6.54,
        6.5599999999999996,
        6.5800000000000001,
        6.5999999999999996,
        6.6200000000000001,
        6.6399999999999997,
        6.6600000000000001,
        6.6799999999999997,
        6.7000000000000002,
        6.7199999999999998,
        6.7400000000000002,
        6.7599999999999998,
        6.7800000000000002,
        6.7999999999999998,
        6.8200000000000003,
        6.8399999999999999,
        6.8600000000000003,
        6.8799999999999999,
        6.9000000000000004,
        6.9199999999999999,
        6.9400000000000004,
        6.96,
        6.9800000000000004,
        7.0,
        7.0199999999999996,
        7.04,
        7.0599999999999996,
        7.0800000000000001,
        7.0999999999999996,
        7.1200000000000001,
        7.1399999999999997,
        7.1600000000000001,
        7.1799999999999997,
        7.2000000000000002,
        7.2199999999999998,
        7.2400000000000002,
        7.2599999999999998,
        7.2800000000000002,
        7.2999999999999998,
        7.3200000000000003,
        7.3399999999999999,
        7.3600000000000003,
        7.3799999999999999,
        7.4000000000000004,
        7.4199999999999999,
        7.4400000000000004,
        7.46,
        7.4800000000000004,
        7.5,
        7.5199999999999996,
        7.54,
        7.5599999999999996,
        7.5800000000000001,
        7.5999999999999996,
        7.6200000000000001,
        7.6399999999999997,
        7.6600000000000001,
        7.6799999999999997,
        7.7000000000000002,
        7.7199999999999998,
        7.7400000000000002,
        7.7599999999999998,
        7.7800000000000002,
        7.7999999999999998,
        7.8200000000000003,
        7.8399999999999999,
        7.8600000000000003,
        7.8799999999999999,
        7.9000000000000004,
        7.9199999999999999,
        7.9400000000000004,
        7.96,
        7.9800000000000004,
        8.0,
        8.0199999999999996,
        8.0399999999999991,
        8.0600000000000005,
        8.0800000000000001,
        8.0999999999999996,
        8.1199999999999992,
        8.1400000000000006,
        8.1600000000000001,
        8.1799999999999997,
        8.1999999999999993,
        8.2200000000000006,
        8.2400000000000002,
        8.2599999999999998,
        8.2799999999999994,
        8.3000000000000007,
        8.3200000000000003,
        8.3399999999999999,
        8.3599999999999994,
        8.3800000000000008,
        8.4000000000000004,
        8.4199999999999999,
        8.4399999999999995,
        8.4600000000000009,
        8.4800000000000004,
        8.5,
        8.5199999999999996,
        8.5399999999999991,
        8.5600000000000005,
        8.5800000000000001,
        8.5999999999999996,
        8.6199999999999992,
        8.6400000000000006,
        8.6600000000000001,
        8.6799999999999997,
        8.6999999999999993,
        8.7200000000000006,
        8.7400000000000002,
        8.7599999999999998,
        8.7799999999999994,
        8.8000000000000007,
        8.8200000000000003,
        8.8399999999999999,
        8.8599999999999994,
        8.8800000000000008,
        8.9000000000000004,
        8.9199999999999999,
        8.9399999999999995,
        8.9600000000000009,
        8.9800000000000004,
        9.0,
        9.0199999999999996,
        9.0399999999999991,
        9.0600000000000005,
        9.0800000000000001,
        9.0999999999999996,
        9.1199999999999992,
        9.1400000000000006,
        9.1600000000000001,
        9.1799999999999997,
        9.1999999999999993,
        9.2200000000000006,
        9.2400000000000002,
        9.2599999999999998,
        9.2799999999999994,
        9.3000000000000007,
        9.3200000000000003,
        9.3399999999999999,
        9.3599999999999994,
        9.3800000000000008,
        9.4000000000000004,
        9.4199999999999999,
        9.4399999999999995,
        9.4600000000000009,
        9.4800000000000004,
        9.5,
        9.5199999999999996,
        9.5399999999999991,
        9.5600000000000005,
        9.5800000000000001,
        9.5999999999999996,
        9.6199999999999992,
        9.6400000000000006,
        9.6600000000000001,
        9.6799999999999997,
        9.6999999999999993,
        9.7200000000000006,
        9.7400000000000002,
        9.7599999999999998,
        9.7799999999999994,
        9.8000000000000007,
        9.8200000000000003,
        9.8399999999999999,
        9.8599999999999994,
        9.8800000000000008,
        9.9000000000000004,
        9.9199999999999999,
        9.9399999999999995,
        9.9600000000000009,
        9.9800000000000004,
        10.0,
        10.02,
        10.039999999999999,
        10.06,
        10.08,
        10.1,
        10.119999999999999,
        10.140000000000001,
        10.16,
        10.18,
        10.199999999999999,
        10.220000000000001,
        10.24,
        10.26,
        10.279999999999999,
        10.300000000000001,
        10.32,
        10.34,
        10.359999999999999,
        10.380000000000001,
        10.4,
        10.42,
        10.44,
        10.460000000000001,
        10.48,
        10.5,
        10.52,
        10.539999999999999,
        10.56,
        10.58,
        10.6,
        10.619999999999999,
        10.640000000000001,
        10.66,
        10.68,
        10.699999999999999,
        10.720000000000001,
        10.74,
        10.76,
        10.779999999999999,
        10.800000000000001,
        10.82,
        10.84,
        10.859999999999999,
        10.880000000000001,
        10.9
    ]
}