{
    "DU": 77,
    "DV": 283,
    "F-measure": 0.218562874251497,
    "F-measure Chroma": 0.36826347305389223,
    "FN": 16,
    "FNC": 0,
    "FNCch": 0,
    "FNI": 16,
    "FNIch": 16,
    "FP": 36,
    "GU": 97,
    "GV": 263,
    "Overall Accuracy": 0.20277777777777778,
    "Overall Chroma Accuracy": 0.3416666666666667,
    "Precision": 0.21220930232558138,
    "Precision Chroma": 0.35755813953488375,
    "Raw Chroma Accuracy": 0.23574144486692014,
    "Raw Pitch Accuracy": 0.045627376425855515,
    "Recall": 0.22530864197530864,
    "Recall Chroma": 0.37962962962962965,
    "TN": 61,
    "TO": 360,
    "TP": 247,
    "TPC": 12,
    "TPCch": 62,
    "TPI": 235,
    "TPIch": 185,
    "Voiced Chroma Accuracy": 0.23574144486692014,
    "Voiced Pitch Accuracy": 0.045627376425855515,
    "Voicing Accuracy": 0.8555555555555555,
    "Voicing Detection": 0.9391634980988594,
    "Voicing False Alarm": 0.3711340206185567
}