{
    "DU": 128,
    "DV": 223,
    "F-measure": 0.360759493670886,
    "F-measure Chroma": 0.4240506329113924,
    "FN": 23,
    "FNC": 0,
    "FNCch": 0,
    "FNI": 23,
    "FNIch": 23,
    "FP": 47,
    "GU": 152,
    "GV": 199,
    "Overall Accuracy": 0.3247863247863248,
    "Overall Chroma Accuracy": 0.3817663817663818,
    "Precision": 0.3475609756097561,
    "Precision Chroma": 0.40853658536585363,
    "Raw Chroma Accuracy": 0.1457286432160804,
    "Raw Pitch Accuracy": 0.04522613065326633,
    "Recall": 0.375,
    "Recall Chroma": 0.4407894736842105,
    "TN": 105,
    "TO": 351,
    "TP": 176,
    "TPC": 9,
    "TPCch": 29,
    "TPI": 167,
    "TPIch": 147,
    "Voiced Chroma Accuracy": 0.1457286432160804,
    "Voiced Pitch Accuracy": 0.04522613065326633,
    "Voicing Accuracy": 0.8005698005698005,
    "Voicing Detection": 0.8844221105527639,
    "Voicing False Alarm": 0.3092105263157895
}