{
    "DU": 27,
    "DV": 312,
    "F-measure": 0.8448,
    "F-measure Chroma": 0.8544,
    "FN": 0,
    "FNC": 0,
    "FNCch": 0,
    "FNI": 0,
    "FNIch": 0,
    "FP": 53,
    "GU": 80,
    "GV": 259,
    "Overall Accuracy": 0.7787610619469026,
    "Overall Chroma Accuracy": 0.7876106194690266,
    "Precision": 0.7787610619469026,
    "Precision Chroma": 0.7876106194690266,
    "Raw Chroma Accuracy": 0.9266409266409267,
    "Raw Pitch Accuracy": 0.915057915057915,
    "Recall": 0.9230769230769231,
    "Recall Chroma": 0.9335664335664335,
    "TN": 27,
    "TO": 339,
    "TP": 259,
    "TPC": 237,
    "TPCch": 240,
    "TPI": 22,
    "TPIch": 19,
    "Voiced Chroma Accuracy": 0.9266409266409267,
    "Voiced Pitch Accuracy": 0.915057915057915,
    "Voicing Accuracy": 0.8436578171091446,
    "Voicing Detection": 1.0,
    "Voicing False Alarm": 0.6625
}