{
    "DU": 6,
    "DV": 325,
    "F-measure": 0.8783570300157979,
    "F-measure Chroma": 0.9131121642969984,
    "FN": 0,
    "FNC": 0,
    "FNCch": 0,
    "FNI": 0,
    "FNIch": 0,
    "FP": 29,
    "GU": 35,
    "GV": 296,
    "Overall Accuracy": 0.8398791540785498,
    "Overall Chroma Accuracy": 0.8731117824773413,
    "Precision": 0.8398791540785498,
    "Precision Chroma": 0.8731117824773413,
    "Raw Chroma Accuracy": 0.956081081081081,
    "Raw Pitch Accuracy": 0.918918918918919,
    "Recall": 0.9205298013245033,
    "Recall Chroma": 0.956953642384106,
    "TN": 6,
    "TO": 331,
    "TP": 296,
    "TPC": 272,
    "TPCch": 283,
    "TPI": 24,
    "TPIch": 13,
    "Voiced Chroma Accuracy": 0.956081081081081,
    "Voiced Pitch Accuracy": 0.918918918918919,
    "Voicing Accuracy": 0.9123867069486404,
    "Voicing Detection": 1.0,
    "Voicing False Alarm": 0.8285714285714286
}