{
    "DU": 14,
    "DV": 351,
    "F-measure": 0.03293413173652694,
    "F-measure Chroma": 0.10179640718562874,
    "FN": 5,
    "FNC": 0,
    "FNCch": 0,
    "FNI": 5,
    "FNIch": 5,
    "FP": 57,
    "GU": 66,
    "GV": 299,
    "Overall Accuracy": 0.030136986301369864,
    "Overall Chroma Accuracy": 0.09315068493150686,
    "Precision": 0.030555555555555555,
    "Precision Chroma": 0.09444444444444444,
    "Raw Chroma Accuracy": 0.08361204013377926,
    "Raw Pitch Accuracy": 0.006688963210702341,
    "Recall": 0.03571428571428571,
    "Recall Chroma": 0.11038961038961038,
    "TN": 9,
    "TO": 365,
    "TP": 294,
    "TPC": 2,
    "TPCch": 25,
    "TPI": 292,
    "TPIch": 269,
    "Voiced Chroma Accuracy": 0.08361204013377926,
    "Voiced Pitch Accuracy": 0.006688963210702341,
    "Voicing Accuracy": 0.8301369863013699,
    "Voicing Detection": 0.9832775919732442,
    "Voicing False Alarm": 0.8636363636363636
}