{
    "f0": [
        0.0,
        0.0,
        0.0,
        0.0,
        0.0,
        0.0,
        45.461854053853969,
        45.461850529293336,
        48.793675208243243,
        48.619680776682436,
        52.499088779193642,
        0.0,
        0.0,
        0.0,
        45.943362876960187,
        0.0,
        0.0,
        55.395110650965577,
        0.0,
        0.0,
        0.0,
        0.0,
        0.0,
        0.0,
        0.0,
        50.123917662057941,
        50.105416382212709,
        49.578093264504581,
        49.050771052067745,
        48.701014782144703,
        48.756953946318163,
        48.961415364933742,
        48.916159795388722,
        48.882177289991951,
        48.842421834848139,
        48.977695103561516,
        51.204148565842551,
        52.785975974310688,
        53.458559645595543,
        54.10598771909951,
        54.902337941118276,
        54.874726272496005,
        54.482068467045693,
        51.456684414872988,
        48.218241166176163,
        54.478926820091282,
        53.7728945459626,
        53.387604364728844,
        53.113968882278755,
        52.805980302927402,
        52.679939046288531,
        52.552973421386142,
        52.936799316871941,
        52.745369716838781,
        52.745718244747671,
        53.314887887669855,
        52.704765012526536,
        52.728241451766777,
        53.404376546295076,
        54.384636481820465,
        53.90727538245789,
        53.015769297985116,
        52.828117595763622,
        52.941221822561886,
        53.272639810573978,
        53.490692056927315,
        53.681387659920119,
        53.354879678415884,
        53.277187337037468,
        53.414327515863015,
        53.355445866776819,
        53.175720541437968,
        53.227432405705905,
        52.900719826938285,
        52.55455214612951,
        52.412993491275053,
        52.497740147289491,
        52.418776920733841,
        52.339448691465314,
        52.259755292197731,
        52.279730037207344,
        52.503442385704176,
        52.503784901056662,
        52.494131269715538,
        52.484473886644345,
        52.647078226330684,
        52.692703704594408,
        52.617314969127293,
        52.54159813660371,
        52.561805938572846,
        52.572422144385854,
        52.413816663699805,
        52.505962781013046,
        52.597620938346338,
        52.339036883378355,
        54.467351345457537,
        53.807845699344789,
        53.235869328915342,
        52.757905265308935,
        52.380311499587258,
        52.389856352645985,
        50.03963697653127,
        49.187879362544564,
        48.788709455032077,
        47.953637728140464,
        47.30187056019421,
        47.516422719390874,
        47.585153909305205,
        47.691868756427702,
        47.951191641816095,
        47.857633995965628,
        47.836276477321803,
        47.428777665644979,
        47.72203222992735,
        47.859936702282859,
        47.996749362423088,
        47.605165428153846,
        47.625881289165413,
        47.731805562558193,
        47.360187340171223,
        48.063866120914426,
        47.755596549060627,
        47.381853311228149,
        47.373329210927487,
        47.690719548071115,
        47.846354477267269,
        47.728351537955888,
        47.752579422476153,
        47.773512487438367,
        45.748964113205787,
        49.073476568273222,
        49.09189066699723,
        48.760531598435776,
        47.877529523938094,
        48.081510284904951,
        48.053817409526033,
        47.835465093768988,
        48.053948287202729,
        47.63889930075274,
        47.649243137738367,
        49.293334118983793,
        49.537485465907707,
        49.521590736743924,
        49.458214391047079,
        49.394601523934618,
        49.156759554295178,
        49.058559447286328,
        49.131522567619236,
        49.204175646863483,
        49.276526947526079,
        49.150823648750141,
        49.204616364611283,
        49.036123425605346,
        48.947234957875779,
        48.643102359496318,
        47.915872012730546,
        47.61348535962123,
        47.586494215444709,
        47.762253818347702,
        48.007913227254697,
        48.214836839334723,
        48.262774216222297,
        48.039056847906437,
        48.838191545178447,
        49.438093601150285,
        49.390656831070551,
        49.241140128932742,
        49.090322619469305,
        49.154485125796931,
        49.147085719047503,
        49.217870552587698,
        49.23525182065039,
        49.105170690982945,
        48.813179145091794,
        48.770489497497124,
        48.943513965343357,
        48.956678958066583,
        49.221295886053994,
        49.441126277152549,
        50.02119091335819,
        50.00837975809182,
        49.844028393095456,
        49.493147850494587,
        49.229664386714603,
        49.267062509340484,
        49.666859189825395,
        49.836300474982139,
        49.764291704024629,
        49.691985769755192,
        49.445382721276033,
        49.283700683131649,
        49.754887690539491,
        49.864685989988288,
        49.620704367243903,
        49.560458830188907,
        49.749146099931465,
        49.304447402463424,
        49.341667721325734,
        49.453845987964641,
        49.70032204827389,
        49.527142071895888,
        49.452735704515135,
        49.32759534019349,
        49.56978457306495,
        49.644979862673651,
        49.719853552110386,
        49.444645181424967,
        0.0,
        55.691843483879126,
        36.668720968667401,
        36.046719772005943,
        45.909509866819207,
        35.071318398024793,
        36.844108795939015,
        44.58314800534589,
        44.237030346065467,
        43.883851336824847,
        43.349321128537227,
        43.08785742941285,
        43.239100604378208,
        43.100884047598441,
        43.301239302976938,
        43.062815404857155,
        43.330513524484623,
        43.080605279751119,
        42.919842433953264,
        43.105857411152783,
        42.881195285280128,
        45.792996920477819,
        44.68010628016664,
        43.804813642753253,
        43.497099433171236,
        43.620448231023921,
        43.639172302745479,
        43.535779881578613,
        43.935089877174221,
        43.204602466735459,
        43.351759143425546,
        43.828090232850514,
        43.424892259047198,
        50.576433760063935,
        49.8317684572351,
        49.586429246107372,
        49.744204109044482,
        49.827800435054975,
        50.052859133700196,
        50.205148224442524,
        51.153786055457118,
        51.151742668331309,
        50.16705752217392,
        49.824035063345292,
        50.307449844072025,
        51.94087600070403,
        52.202810353476096,
        52.189951815270973,
        51.412755556554316,
        50.115773908290691,
        49.822061179297108,
        50.831654528074822,
        51.33649532571954,
        52.199160126739102,
        53.02086824781523,
        53.098614272514787,
        53.004081696803176,
        52.510204101170999,
        52.380592133414048,
        52.40305120387076,
        52.416681872342053,
        52.43030653061389,
        52.443918939092868,
        52.457522289602785,
        52.297120105636594,
        51.86213041173486,
        52.401247072372641,
        52.421919735615752,
        52.442567640682661,
        53.471961549462279,
        53.267298667074911,
        52.736745541773828,
        51.469081057323365,
        50.32070406828484,
        49.145488598494921,
        47.681214974842007,
        49.135469976874518,
        49.057786318127974,
        47.446027785527676,
        46.037293580368541,
        43.415270678245228,
        39.992997918591563,
        39.629258692367856,
        39.914491171856781,
        39.968985478991627,
        41.118295259351967,
        42.003203624519649,
        42.234801799390382,
        42.463349336056694,
        42.914795276554159,
        43.354768838345912,
        43.1400459086898,
        43.154482780978356,
        43.210496784533888,
        43.075847505014721,
        43.041122996099986,
        43.016738963813296,
        42.987106896756089,
        42.957424024027013,
        43.12532917755702,
        42.844273368301067,
        42.993628519654962,
        43.141702328740408,
        43.117009752639419,
        43.087514158236829,
        43.069115202513302,
        43.069244000898742,
        43.285650153565356,
        44.927658653684219,
        44.72503758381832,
        44.71100587332905,
        44.537832875454313,
        44.362910134347558,
        44.358471001997948,
        44.521599541020755,
        44.5974976109474,
        44.486529514396523,
        44.517907155028908,
        44.444612233146586,
        44.22834201837091,
        43.907555232376069,
        43.975479285190353,
        44.203734700229816,
        44.175950608035606,
        43.950430559960054,
        44.66704552935434,
        43.419477092151283,
        49.227068489440697,
        49.991869575360568,
        50.196987579433895,
        50.312542837795341,
        50.427333747382534,
        50.491706249948379,
        50.438652981996356,
        50.45119537647976,
        50.459599806057888,
        50.467998436197753,
        50.302403087602478,
        50.225425721139054,
        50.428825631791462,
        50.797216236963379,
        51.076181246290659,
        50.50299585721362,
        50.170713421598776,
        50.037376927153709,
        50.03239274088498,
        50.135085294119989,
        50.019433473282881,
        49.983492446524984,
        50.005694845312348,
        50.003162294321676,
        49.839333220330467,
        49.766587683742706,
        49.819339825848147,
        50.00823763232782,
        50.195096570065935,
        50.276754321634357,
        50.192758898615793,
        50.040672729000413,
        49.747417293382085,
        49.692641437327431,
        49.776043632819452,
        49.742467628545597,
        49.737624283893858,
        49.979169971871315,
        49.929213843369894,
        49.824449442016302,
        49.717454530766133,
        49.827218937728354,
        49.793529148526815,
        49.606879145954593,
        49.61590217718323,
        50.009512597777665,
        49.852315461850395,
        49.829232242818513,
        49.56438896654722,
        49.76143728978937,
        49.89120197900813,
        0.0,
        0.0,
        0.0,
        0.0,
        0.0,
        0.0,
        0.0,
        0.0,
        0.0,
        0.0,
        0.0,
        0.0,
        0.0,
        0.0,
        0.0,
        0.0,
        0.0,
        0.0,
        0.0,
        0.0,
        0.0,
        0.0,
        0.0,
        0.0,
        0.0,
        0.0
    ],
    "time": [
        0.02,
        0.040000000000000001,
        0.059999999999999998,
        0.080000000000000002,
        0.10000000000000001,
        0.12,
        0.14000000000000001,
        0.16,
        0.17999999999999999,
        0.20000000000000001,
        0.22,
        0.23999999999999999,
        0.26000000000000001,
        0.28000000000000003,
        0.29999999999999999,
        0.32000000000000001,
        0.34000000000000002,
        0.35999999999999999,
        0.38,
        0.40000000000000002,
        0.41999999999999998,
        0.44,
        0.46000000000000002,
        0.47999999999999998,
        0.5,
        0.52000000000000002,
        0.54000000000000004,
        0.56000000000000005,
        0.57999999999999996,
        0.59999999999999998,
        0.62,
        0.64000000000000001,
        0.66000000000000003,
        0.68000000000000005,
        0.69999999999999996,
        0.71999999999999997,
        0.73999999999999999,
        0.76000000000000001,
        0.78000000000000003,
        0.80000000000000004,
        0.81999999999999995,
        0.83999999999999997,
        0.85999999999999999,
        0.88,
        0.90000000000000002,
        0.92000000000000004,
        0.93999999999999995,
        0.95999999999999996,
        0.97999999999999998,
        1.0,
        1.02,
        1.04,
        1.0600000000000001,
        1.0800000000000001,
        1.1000000000000001,
        1.1200000000000001,
        1.1399999999999999,
        1.1599999999999999,
        1.1799999999999999,
        1.2,
        1.22,
        1.24,
        1.26,
        1.28,
        1.3,
        1.3200000000000001,
        1.3400000000000001,
        1.3600000000000001,
        1.3799999999999999,
        1.3999999999999999,
        1.4199999999999999,
        1.4399999999999999,
        1.46,
        1.48,
        1.5,
        1.52,
        1.54,
        1.5600000000000001,
        1.5800000000000001,
        1.6000000000000001,
        1.6200000000000001,
        1.6399999999999999,
        1.6599999999999999,
        1.6799999999999999,
        1.7,
        1.72,
        1.74,
        1.76,
        1.78,
        1.8,
        1.8200000000000001,
        1.8400000000000001,
        1.8600000000000001,
        1.8799999999999999,
        1.8999999999999999,
        1.9199999999999999,
        1.9399999999999999,
        1.96,
        1.98,
        2.0,
        2.02,
        2.04,
        2.0600000000000001,
        2.0800000000000001,
        2.1000000000000001,
        2.1200000000000001,
        2.1400000000000001,
        2.1600000000000001,
        2.1800000000000002,
        2.2000000000000002,
        2.2200000000000002,
        2.2400000000000002,
        2.2599999999999998,
        2.2799999999999998,
        2.2999999999999998,
        2.3199999999999998,
        2.3399999999999999,
        2.3599999999999999,
        2.3799999999999999,
        2.3999999999999999,
        2.4199999999999999,
        2.4399999999999999,
        2.46,
        2.48,
        2.5,
        2.52,
        2.54,
        2.5600000000000001,
        2.5800000000000001,
        2.6000000000000001,
        2.6200000000000001,
        2.6400000000000001,
        2.6600000000000001,
        2.6800000000000002,
        2.7000000000000002,
        2.7200000000000002,
        2.7400000000000002,
        2.7599999999999998,
        2.7799999999999998,
        2.7999999999999998,
        2.8199999999999998,
        2.8399999999999999,
        2.8599999999999999,
        2.8799999999999999,
        2.8999999999999999,
        2.9199999999999999,
        2.9399999999999999,
        2.96,
        2.98,
        3.0,
        3.02,
        3.04,
        3.0600000000000001,
        3.0800000000000001,
        3.1000000000000001,
        3.1200000000000001,
        3.1400000000000001,
        3.1600000000000001,
        3.1800000000000002,
        3.2000000000000002,
        3.2200000000000002,
        3.2400000000000002,
        3.2599999999999998,
        3.2799999999999998,
        3.2999999999999998,
        3.3199999999999998,
        3.3399999999999999,
        3.3599999999999999,
        3.3799999999999999,
        3.3999999999999999,
        3.4199999999999999,
        3.4399999999999999,
        3.46,
        3.48,
        3.5,
        3.52,
        3.54,
        3.5600000000000001,
        3.5800000000000001,
        3.6000000000000001,
        3.6200000000000001,
        3.6400000000000001,
        3.6600000000000001,
        3.6800000000000002,
        3.7000000000000002,
        3.7200000000000002,
        3.7400000000000002,
        3.7599999999999998,
        3.7799999999999998,
        3.7999999999999998,
        3.8199999999999998,
        3.8399999999999999,
        3.8599999999999999,
        3.8799999999999999,
        3.8999999999999999,
        3.9199999999999999,
        3.9399999999999999,
        3.96,
        3.98,
        4.0,
        4.0199999999999996,
        4.04,
        4.0599999999999996,
        4.0800000000000001,
        4.0999999999999996,
        4.1200000000000001,
        4.1399999999999997,
        4.1600000000000001,
        4.1799999999999997,
        4.2000000000000002,
        4.2199999999999998,
        4.2400000000000002,
        4.2599999999999998,
        4.2800000000000002,
        4.2999999999999998,
        4.3200000000000003,
        4.3399999999999999,
        4.3600000000000003,
        4.3799999999999999,
        4.4000000000000004,
        4.4199999999999999,
        4.4400000000000004,
        4.46,
        4.4800000000000004,
        4.5,
        4.5199999999999996,
        4.54,
        4.5599999999999996,
        4.5800000000000001,
        4.5999999999999996,
        4.6200000000000001,
        4.6399999999999997,
        4.6600000000000001,
        4.6799999999999997,
        4.7000000000000002,
        4.7199999999999998,
        4.7400000000000002,
        4.7599999999999998,
        4.7800000000000002,
        4.7999999999999998,
        4.8200000000000003,
        4.8399999999999999,
        4.8600000000000003,
        4.8799999999999999,
        4.9000000000000004,
        4.9199999999999999,
        4.9400000000000004,
        4.96,
        4.9800000000000004,
        5.0,
        5.0199999999999996,
        5.04,
        5.0599999999999996,
        5.0800000000000001,
        5.0999999999999996,
        5.1200000000000001,
        5.1399999999999997,
        5.1600000000000001,
        5.1799999999999997,
        5.2000000000000002,
        5.2199999999999998,
        5.2400000000000002,
        5.2599999999999998,
        5.2800000000000002,
        5.2999999999999998,
        5.3200000000000003,
        5.3399999999999999,
        5.3600000000000003,
        5.3799999999999999,
        5.4000000000000004,
        5.4199999999999999,
        5.4400000000000004,
        5.46,
        5.4800000000000004,
        5.5,
        5.5199999999999996,
        5.54,
        5.5599999999999996,
        5.5800000000000001,
        5.5999999999999996,
        5.6200000000000001,
        5.6399999999999997,
        5.6600000000000001,
        5.6799999999999997,
        5.7000000000000002,
        5.7199999999999998,
        5.7400000000000002,
        5.7599999999999998,
        5.7800000000000002,
        5.7999999999999998,
        5.8200000000000003,
        5.8399999999999999,
        5.8600000000000003,
        5.8799999999999999,
        5.9000000000000004,
        5.9199999999999999,
        5.9400000000000004,
        5.96,
        5.9800000000000004,
        6.0,
        6.0199999999999996,
        6.04,
        6.0599999999999996,
        6.0800000000000001,
        6.0999999999999996,
        6.1200000000000001,
        6.1399999999999997,
        6.1600000000000001,
        6.1799999999999997,
        6.2000000000000002,
        6.2199999999999998,
        6.2400000000000002,
        6.2599999999999998,
        6.2800000000000002,
        6.2999999999999998,
        6.3200000000000003,
        6.3399999999999999,
        6.3600000000000003,
        6.3799999999999999,
        6.4000000000000004,
        6.4199999999999999,
        6.4400000000000004,
        6.46,
        6.4800000000000004,
        6.5,
        6.5199999999999996,
        6.54,
        6.5599999999999996,
        6.5800000000000001,
        6.5999999999999996,
        6.6200000000000001,
        6.6399999999999997,
        6.6600000000000001,
        6.6799999999999997,
        6.7000000000000002,
        6.7199999999999998,
        6.7400000000000002,
        6.7599999999999998,
        6.7800000000000002,
        6.7999999999999998,
        6.8200000000000003,
        6.8399999999999999,
        6.8600000000000003,
        6.8799999999999999,
        6.9000000000000004,
        6.9199999999999999,
        6.9400000000000004,
        6.96,
        6.9800000000000004,
        7.0,
        7.0199999999999996,
        7.04,
        7.0599999999999996,
        7.0800000000000001,
        7.0999999999999996,
        7.1200000000000001,
        7.1399999999999997,
        7.1600000000000001,
        7.1799999999999997,
        7.2000000000000002,
        7.2199999999999998,
        7.2400000000000002,
        7.2599999999999998,
        7.2800000000000002,
        7.2999999999999998,
        7.3200000000000003,
        7.3399999999999999,
        7.3600000000000003,
        7.3799999999999999,
        7.4000000000000004,
        7.4199999999999999,
        7.4400000000000004,
        7.46,
        7.4800000000000004,
        7.5,
        7.5199999999999996,
        7.54,
        7.5599999999999996,
        7.5800000000000001,
        7.5999999999999996,
        7.6200000000000001,
        7.6399999999999997,
        7.6600000000000001,
        7.6799999999999997,
        7.7000000000000002,
        7.7199999999999998,
        7.7400000000000002,
        7.7599999999999998,
        7.7800000000000002,
        7.7999999999999998,
        7.8200000000000003,
        7.8399999999999999,
        7.8600000000000003,
        7.8799999999999999,
        7.9000000000000004,
        7.9199999999999999,
        7.9400000000000004,
        7.96,
        7.9800000000000004,
        8.0,
        8.0199999999999996,
        8.0399999999999991,
        8.0600000000000005,
        8.0800000000000001,
        8.0999999999999996,
        8.1199999999999992,
        8.1400000000000006,
        8.1600000000000001,
        8.1799999999999997,
        8.1999999999999993,
        8.2200000000000006
    ]
}