{
    "DU": 20,
    "DV": 300,
    "F-measure": 0.7121212121212122,
    "F-measure Chroma": 0.7386363636363636,
    "FN": 0,
    "FNC": 0,
    "FNCch": 0,
    "FNI": 0,
    "FNIch": 0,
    "FP": 112,
    "GU": 132,
    "GV": 188,
    "Overall Accuracy": 0.5875,
    "Overall Chroma Accuracy": 0.609375,
    "Precision": 0.5875,
    "Precision Chroma": 0.609375,
    "Raw Chroma Accuracy": 0.9308510638297872,
    "Raw Pitch Accuracy": 0.8936170212765957,
    "Recall": 0.9038461538461539,
    "Recall Chroma": 0.9375,
    "TN": 20,
    "TO": 320,
    "TP": 188,
    "TPC": 168,
    "TPCch": 175,
    "TPI": 20,
    "TPIch": 13,
    "Voiced Chroma Accuracy": 0.9308510638297872,
    "Voiced Pitch Accuracy": 0.8936170212765957,
    "Voicing Accuracy": 0.65,
    "Voicing Detection": 1.0,
    "Voicing False Alarm": 0.8484848484848485
}