{
    "DU": 0,
    "DV": 200,
    "F-measure": 0.7555555555555556,
    "F-measure Chroma": 0.8055555555555555,
    "FN": 0,
    "FNC": 0,
    "FNCch": 0,
    "FNI": 0,
    "FNIch": 0,
    "FP": 40,
    "GU": 40,
    "GV": 160,
    "Overall Accuracy": 0.68,
    "Overall Chroma Accuracy": 0.725,
    "Precision": 0.68,
    "Precision Chroma": 0.725,
    "Raw Chroma Accuracy": 0.90625,
    "Raw Pitch Accuracy": 0.85,
    "Recall": 0.85,
    "Recall Chroma": 0.90625,
    "TN": 0,
    "TO": 200,
    "TP": 160,
    "TPC": 136,
    "TPCch": 145,
    "TPI": 24,
    "TPIch": 15,
    "Voiced Chroma Accuracy": 0.90625,
    "Voiced Pitch Accuracy": 0.85,
    "Voicing Accuracy": 0.8,
    "Voicing Detection": 1.0,
    "Voicing False Alarm": 1.0
}