{
    "f0": [
        0.0,
        0.0,
        50.663143333300788,
        38.195343843432681,
        62.821347705486076,
        62.993607068081474,
        62.9936020026093,
        62.993595211534384,
        62.819589018494632,
        63.074757693707539,
        63.14644786758403,
        63.415235843917749,
        63.512839477922917,
        63.519172035001858,
        63.570907874477577,
        63.772137518111165,
        63.723249740264549,
        63.692406807592661,
        63.652399231162548,
        63.61686494609981,
        63.730538011489884,
        63.673063839101552,
        63.734013341970837,
        63.886970584484558,
        63.750381136637664,
        63.772131025665772,
        63.793853677243462,
        63.895385165673154,
        63.884461697164781,
        63.956016264778413,
        63.916391710114802,
        63.876676201620256,
        64.009127571036416,
        63.941665648282658,
        63.942482608933489,
        64.037342407899715,
        63.485129835544342,
        63.294984730256118,
        63.280735288947589,
        62.827866276571065,
        61.527491523342697,
        61.588218395236488,
        63.851289392398712,
        63.668042142271311,
        63.299282992008692,
        63.861215940413956,
        64.252760712104447,
        64.003779364620485,
        64.149399409663189,
        63.962996793714773,
        63.927913128644384,
        64.15892625858055,
        63.999824058621016,
        64.026226510512686,
        63.963451381484624,
        63.867170387403711,
        63.787090182497529,
        64.041060495641204,
        63.739051718853567,
        63.317237256284614,
        62.593896309952811,
        62.163860619232473,
        60.669006503469078,
        0.0,
        0.0,
        0.0,
        53.197055309566288,
        36.969280344039078,
        54.792975205123696,
        36.063141814802407,
        53.989393919935807,
        53.781904304099278,
        54.18897510540409,
        54.350627494875738,
        55.139864013492385,
        55.596410230494641,
        57.374725801410136,
        58.042772032166376,
        42.474260719025629,
        36.886339258142037,
        49.396032371823807,
        49.775143265976361,
        48.314589511003526,
        48.56164956546705,
        49.374272275875185,
        49.706744099319408,
        61.700329426069665,
        61.773615831894077,
        61.760125691209105,
        61.746626885002371,
        61.905384602725242,
        61.986611143799252,
        61.931374240227342,
        61.94017918662307,
        61.964934154104739,
        61.951606753860482,
        62.00414801168251,
        61.941083670302348,
        61.877788761821897,
        61.814259746870455,
        62.019947427845118,
        62.223220060263088,
        62.074378068901936,
        62.014771265030092,
        61.974756265784265,
        61.924729592683214,
        61.943603552773546,
        61.947297952281687,
        62.007379903322239,
        62.008207109312551,
        61.864588073272259,
        62.122917316676272,
        62.011335791960676,
        62.001077391482042,
        61.990812967783981,
        61.806547558779357,
        61.880716423122415,
        61.9545706643054,
        62.028107591747279,
        61.993511040729658,
        61.992233185862332,
        61.974268008385415,
        62.000629490701535,
        62.051770388252294,
        61.916399461990117,
        61.982372301991155,
        61.983474448779326,
        61.984574696242873,
        62.129232746770292,
        62.201652549788946,
        62.135187074292787,
        62.029363085813088,
        62.114828551477217,
        62.199872425086575,
        62.200500163122307,
        62.114996567929531,
        61.830527662450578,
        61.98537060020665,
        62.186272626874185,
        62.011682792790928,
        62.228641471749377,
        62.416465395698005,
        62.441366352686238,
        62.197001742863804,
        61.222848354879069,
        61.424504888061009,
        61.943291323032085,
        53.854260453995622,
        50.351533380325691,
        49.840740513623771,
        61.685811038962093,
        61.491400877560764,
        61.243044089036353,
        60.991072604319676,
        64.012034874451842,
        61.627255283999247,
        61.673673158424549,
        62.567856016653181,
        54.868922981980845,
        54.350907285732767,
        54.328640103658778,
        52.510983705557443,
        50.097303312954168,
        46.349574037648949,
        49.097378646792414,
        49.646661888959059,
        52.094960820149787,
        50.943922331565396,
        51.934776309005386,
        56.701509081076352,
        58.818098749252208,
        61.27369609004969,
        62.112537239324638,
        61.232716906515407,
        60.131783965766445,
        59.894055974556139,
        59.695525439396413,
        59.494695892179045,
        59.803240021540759,
        60.52351528259112,
        60.236748571864709,
        59.667687372966256,
        58.873607883676655,
        57.799801781084177,
        56.480963756776703,
        56.335511610195596,
        55.896972473551756,
        38.112374528992653,
        60.388992132697012,
        60.394289053784959,
        60.399582350177212,
        60.290889744132521,
        60.181510416179393,
        59.806724172637168,
        59.731733854360854,
        59.845215545292035,
        60.311416346398119,
        60.146001219743567,
        60.278625239913623,
        60.248811862428354,
        60.226999064990608,
        59.673806385122518,
        59.378978504977702,
        59.281693535684774,
        60.602752419840925,
        60.695294863645799,
        60.78734335759016,
        60.696860327569638,
        60.695186226841997,
        60.64892112985973,
        57.596936734740694,
        57.219453805642587,
        0.0,
        0.0,
        40.419573161300519,
        37.038236467080111,
        47.591325938467527,
        60.08430587492311,
        60.237194775421145,
        60.214749065846561,
        60.305552376951127,
        60.236676901467867,
        60.167526251158918,
        60.098098350276345,
        60.200652020106119,
        60.156721079384376,
        60.112678312274483,
        60.240783893695152,
        60.177223364965329,
        60.142158094283886,
        36.942498554627768,
        48.517603145190193,
        50.092266571291461,
        53.114469331882283,
        54.135788558049228,
        56.695639374824495,
        62.086111215793387,
        50.892242329912406,
        50.819709174887208,
        47.050162669955157,
        46.985678743773029,
        62.759632719879875,
        62.727935276766104,
        62.696179691824,
        62.314613493731656,
        62.219351415268399,
        62.123558621395439,
        62.027236425937566,
        62.102637356787476,
        61.736583049963826,
        61.194494309793001,
        60.894177077615332,
        59.569079232390145,
        58.867574552545264,
        58.100587276658018,
        57.995826329662151,
        58.05464676607329,
        58.039359661775798,
        58.00973832528318,
        57.980065030157938,
        58.122604332991202,
        58.216514879534003,
        58.159545362547078,
        58.508425437869448,
        58.489181431975346,
        58.396757834357729,
        58.30383817500207,
        58.601288681503689,
        58.309514564993215,
        57.868551584163107,
        57.416275869471832,
        57.006553683641101,
        56.731171793807974,
        56.72100024333394,
        56.576437031323707,
        56.670815243302279,
        55.595648399894131,
        55.331763015197637,
        54.793548108319989,
        54.378117547227518,
        53.991344122723916,
        53.918690429008002,
        54.196056967854219,
        54.39469449008142,
        54.437616547953972,
        54.397602971840442,
        54.522351605673038,
        54.512513147466834,
        54.505078234394063,
        54.497640217900752,
        54.490201733459742,
        54.458107427101751,
        54.438304344726504,
        54.584559631239173,
        54.729592382860666,
        54.699421789857865,
        54.500123609107817,
        54.384239897682491,
        54.267572408069825,
        54.322385901028888,
        54.377026302199731,
        54.390865495646167,
        54.42500462170085,
        54.459078017588773,
        54.405092493504249,
        54.350933879843083,
        54.003513506754054,
        54.364198239217011,
        54.931779776314741,
        55.589228643588847,
        55.820944996537378,
        56.248967359928983,
        56.39564775323614,
        54.887352669737609,
        54.87460544976409,
        55.077787774190369,
        55.302798175236582,
        56.357657209084259,
        56.436454295770147,
        56.514894281093007,
        56.418986970503632,
        56.322545307369516,
        56.737297679093174,
        55.630346317935604,
        52.874483595548227,
        50.107050749940861,
        47.967103724677706,
        0.0,
        0.0,
        0.0,
        0.0,
        0.0,
        0.0,
        0.0,
        0.0,
        0.0,
        0.0,
        0.0,
        0.0,
        0.0,
        0.0,
        0.0,
        0.0,
        0.0,
        0.0,
        0.0,
        0.0,
        0.0,
        0.0,
        0.0,
        0.0,
        0.0,
        0.0,
        0.0,
        0.0,
        0.0,
        0.0
    ],
    "time": [
        0.02,
        0.040000000000000001,
        0.059999999999999998,
        0.080000000000000002,
        0.10000000000000001,
        0.12,
        0.14000000000000001,
        0.16,
        0.17999999999999999,
        0.20000000000000001,
        0.22,
        0.23999999999999999,
        0.26000000000000001,
        0.28000000000000003,
        0.29999999999999999,
        0.32000000000000001,
        0.34000000000000002,
        0.35999999999999999,
        0.38,
        0.40000000000000002,
        0.41999999999999998,
        0.44,
        0.46000000000000002,
        0.47999999999999998,
        0.5,
        0.52000000000000002,
        0.54000000000000004,
        0.56000000000000005,
        0.57999999999999996,
        0.59999999999999998,
        0.62,
        0.64000000000000001,
        0.66000000000000003,
        0.68000000000000005,
        0.69999999999999996,
        0.71999999999999997,
        0.73999999999999999,
        0.76000000000000001,
        0.78000000000000003,
        0.80000000000000004,
        0.81999999999999995,
        0.83999999999999997,
        0.85999999999999999,
        0.88,
        0.90000000000000002,
        0.92000000000000004,
        0.93999999999999995,
        0.95999999999999996,
        0.97999999999999998,
        1.0,
        1.02,
        1.04,
        1.0600000000000001,
        1.0800000000000001,
        1.1000000000000001,
        1.1200000000000001,
        1.1399999999999999,
        1.1599999999999999,
        1.1799999999999999,
        1.2,
        1.22,
        1.24,
        1.26,
        1.28,
        1.3,
        1.3200000000000001,
        1.3400000000000001,
        1.3600000000000001,
        1.3799999999999999,
        1.3999999999999999,
        1.4199999999999999,
        1.4399999999999999,
        1.46,
        1.48,
        1.5,
        1.52,
        1.54,
        1.5600000000000001,
        1.5800000000000001,
        1.6000000000000001,
        1.6200000000000001,
        1.6399999999999999,
        1.6599999999999999,
        1.6799999999999999,
        1.7,
        1.72,
        1.74,
        1.76,
        1.78,
        1.8,
        1.8200000000000001,
        1.8400000000000001,
        1.8600000000000001,
        1.8799999999999999,
        1.8999999999999999,
        1.9199999999999999,
        1.9399999999999999,
        1.96,
        1.98,
        2.0,
        2.02,
        2.04,
        2.0600000000000001,
        2.0800000000000001,
        2.1000000000000001,
        2.1200000000000001,
        2.1400000000000001,
        2.1600000000000001,
        2.1800000000000002,
        2.2000000000000002,
        2.2200000000000002,
        2.2400000000000002,
        2.2599999999999998,
        2.2799999999999998,
        2.2999999999999998,
        2.3199999999999998,
        2.3399999999999999,
        2.3599999999999999,
        2.3799999999999999,
        2.3999999999999999,
        2.4199999999999999,
        2.4399999999999999,
        2.46,
        2.48,
        2.5,
        2.52,
        2.54,
        2.5600000000000001,
        2.5800000000000001,
        2.6000000000000001,
        2.6200000000000001,
        2.6400000000000001,
        2.6600000000000001,
        2.6800000000000002,
        2.7000000000000002,
        2.7200000000000002,
        2.7400000000000002,
        2.7599999999999998,
        2.7799999999999998,
        2.7999999999999998,
        2.8199999999999998,
        2.8399999999999999,
        2.8599999999999999,
        2.8799999999999999,
        2.8999999999999999,
        2.9199999999999999,
        2.9399999999999999,
        2.96,
        2.98,
        3.0,
        3.02,
        3.04,
        3.0600000000000001,
        3.0800000000000001,
        3.1000000000000001,
        3.1200000000000001,
        3.1400000000000001,
        3.1600000000000001,
        3.1800000000000002,
        3.2000000000000002,
        3.2200000000000002,
        3.2400000000000002,
        3.2599999999999998,
        3.2799999999999998,
        3.2999999999999998,
        3.3199999999999998,
        3.3399999999999999,
        3.3599999999999999,
        3.3799999999999999,
        3.3999999999999999,
        3.4199999999999999,
        3.4399999999999999,
        3.46,
        3.48,
        3.5,
        3.52,
        3.54,
        3.5600000000000001,
        3.5800000000000001,
        3.6000000000000001,
        3.6200000000000001,
        3.6400000000000001,
        3.6600000000000001,
        3.6800000000000002,
        3.7000000000000002,
        3.7200000000000002,
        3.7400000000000002,
        3.7599999999999998,
        3.7799999999999998,
        3.7999999999999998,
        3.8199999999999998,
        3.8399999999999999,
        3.8599999999999999,
        3.8799999999999999,
        3.8999999999999999,
        3.9199999999999999,
        3.9399999999999999,
        3.96,
        3.98,
        4.0,
        4.0199999999999996,
        4.04,
        4.0599999999999996,
        4.0800000000000001,
        4.0999999999999996,
        4.1200000000000001,
        4.1399999999999997,
        4.1600000000000001,
        4.1799999999999997,
        4.2000000000000002,
        4.2199999999999998,
        4.2400000000000002,
        4.2599999999999998,
        4.2800000000000002,
        4.2999999999999998,
        4.3200000000000003,
        4.3399999999999999,
        4.3600000000000003,
        4.3799999999999999,
        4.4000000000000004,
        4.4199999999999999,
        4.4400000000000004,
        4.46,
        4.4800000000000004,
        4.5,
        4.5199999999999996,
        4.54,
        4.5599999999999996,
        4.5800000000000001,
        4.5999999999999996,
        4.6200000000000001,
        4.6399999999999997,
        4.6600000000000001,
        4.6799999999999997,
        4.7000000000000002,
        4.7199999999999998,
        4.7400000000000002,
        4.7599999999999998,
        4.7800000000000002,
        4.7999999999999998,
        4.8200000000000003,
        4.8399999999999999,
        4.8600000000000003,
        4.8799999999999999,
        4.9000000000000004,
        4.9199999999999999,
        4.9400000000000004,
        4.96,
        4.9800000000000004,
        5.0,
        5.0199999999999996,
        5.04,
        5.0599999999999996,
        5.0800000000000001,
        5.0999999999999996,
        5.1200000000000001,
        5.1399999999999997,
        5.1600000000000001,
        5.1799999999999997,
        5.2000000000000002,
        5.2199999999999998,
        5.2400000000000002,
        5.2599999999999998,
        5.2800000000000002,
        5.2999999999999998,
        5.3200000000000003,
        5.3399999999999999,
        5.3600000000000003,
        5.3799999999999999,
        5.4000000000000004,
        5.4199999999999999,
        5.4400000000000004,
        5.46,
        5.4800000000000004,
        5.5,
        5.5199999999999996,
        5.54,
        5.5599999999999996,
        5.5800000000000001,
        5.5999999999999996,
        5.6200000000000001,
        5.6399999999999997,
        5.6600000000000001,
        5.6799999999999997,
        5.7000000000000002,
        5.7199999999999998,
        5.7400000000000002,
        5.7599999999999998,
        5.7800000000000002,
        5.7999999999999998,
        5.8200000000000003,
        5.8399999999999999,
        5.8600000000000003,
        5.8799999999999999,
        5.9000000000000004,
        5.9199999999999999,
        5.9400000000000004,
        5.96,
        5.9800000000000004,
        6.0,
        6.0199999999999996,
        6.04,
        6.0599999999999996,
        6.0800000000000001,
        6.0999999999999996,
        6.1200000000000001,
        6.1399999999999997,
        6.1600000000000001,
        6.1799999999999997,
        6.2000000000000002,
        6.2199999999999998,
        6.2400000000000002,
        6.2599999999999998,
        6.2800000000000002,
        6.2999999999999998,
        6.3200000000000003,
        6.3399999999999999,
        6.3600000000000003,
        6.3799999999999999,
        6.4000000000000004,
        6.4199999999999999,
        6.4400000000000004,
        6.46,
        6.4800000000000004,
        6.5,
        6.5199999999999996,
        6.54,
        6.5599999999999996,
        6.5800000000000001,
        6.5999999999999996,
        6.6200000000000001,
        6.6399999999999997,
        6.6600000000000001,
        6.6799999999999997,
        6.7000000000000002,
        6.7199999999999998,
        6.7400000000000002,
        6.7599999999999998,
        6.7800000000000002,
        6.7999999999999998,
        6.8200000000000003,
        6.8399999999999999,
        6.8600000000000003,
        6.8799999999999999,
        6.9000000000000004,
        6.9199999999999999,
        6.9400000000000004,
        6.96,
        6.9800000000000004,
        7.0,
        7.0199999999999996,
        7.04,
        7.0599999999999996,
        7.0800000000000001,
        7.0999999999999996,
        7.1200000000000001,
        7.1399999999999997
    ]
}