{
    "f0": [
        37.305436282049016,
        43.501081617577171,
        57.933648439965708,
        39.874554979722255,
        0.0,
        0.0,
        0.0,
        44.569873666882913,
        38.570141818772775,
        44.397414486409048,
        36.134918064822784,
        67.682596060066885,
        67.811965580748151,
        68.112637626146267,
        67.796398738900137,
        67.896524521360831,
        68.104042223666013,
        68.309101909486515,
        69.023492362661344,
        69.291541418664224,
        69.555498751710616,
        69.548940269718202,
        69.474095273404188,
        69.398928837908301,
        69.495694472808694,
        69.286238060589326,
        69.209106154149907,
        69.406838067286301,
        69.483801250194347,
        69.269776878787482,
        69.053073430679561,
        68.833620600321879,
        45.674905610678508,
        44.082716722520431,
        44.594447000765499,
        44.069953715326037,
        45.077445452488881,
        45.147062505521959,
        44.954765031825232,
        44.699698486999544,
        44.440821463248326,
        44.689748129640556,
        42.455626386957704,
        46.489514155911088,
        46.172449015451058,
        48.422828513602781,
        45.960930799020993,
        43.95956915013538,
        39.589836765369796,
        63.46988423416537,
        63.583717176363308,
        63.347049340061091,
        63.281184717071987,
        63.23712418300336,
        63.192949576282572,
        63.320924905754616,
        63.447959533899407,
        63.746328438838688,
        64.127434489069245,
        64.107668668302765,
        36.520043064777816,
        41.04591520111758,
        35.926185701789798,
        51.459123791210473,
        62.683277436855008,
        45.099696504666582,
        37.037017436166146,
        63.396803752380293,
        40.369528160205228,
        61.396770093207046,
        61.726827688140041,
        61.876712462411383,
        61.937785182473213,
        61.692557184894738,
        61.819977999765968,
        61.467599127765901,
        61.291698047462447,
        61.866047676040374,
        61.918818103175994,
        61.902455656105488,
        61.905359291938893,
        62.095095572849075,
        62.183556366221026,
        62.163757255562189,
        62.149140968427815,
        61.913410878802281,
        61.67442485424592,
        61.634573649385082,
        61.836276848379271,
        61.899710800918413,
        61.503448716460873,
        61.195791046198764,
        61.467018415156488,
        61.697956912791142,
        62.28651793785054,
        61.794155448142774,
        61.740793030157661,
        61.973071630991718,
        60.788018706006035,
        60.375490882495761,
        60.36245960247107,
        59.618370439054743,
        60.635539376942063,
        61.434753657286386,
        62.102147301019009,
        0.0,
        0.0,
        0.0,
        39.650055752523386,
        61.71078941725515,
        38.66217888631914,
        0.0,
        0.0,
        0.0,
        0.0,
        0.0,
        0.0,
        0.0,
        0.0,
        0.0,
        0.0,
        0.0,
        40.020572980368087,
        41.963336972620631,
        45.993048711276515,
        44.704851145000163,
        43.67857642568611,
        0.0,
        0.0,
        62.413164963686683,
        61.351164366849353,
        40.784336999204989,
        41.509543454862204,
        39.732802402774269,
        41.590083229562694,
        39.175188623083187,
        37.098690316260175,
        60.664620908147114,
        60.269167719728877,
        46.844632123040746,
        48.603329754863225,
        48.362793843800212,
        47.107530139794065,
        46.480464068432809,
        45.799367242792201,
        44.399523052838788,
        43.314297063312374,
        49.683141613030173,
        37.680708074136646,
        45.473756538931724,
        69.420532869003623,
        69.636375394028903,
        69.726230402412341,
        69.703083975799558,
        69.862318564917985,
        69.912507109974769,
        70.188538435172063,
        70.175374173472335,
        70.162198753543251,
        70.321277903929527,
        70.196588171200602,
        70.396066627064513,
        70.486247111986202,
        70.575963582257074,
        70.137895768339291,
        70.547192094767752,
        52.692486519402586,
        54.991643711265723,
        55.313692126662083,
        55.782357430222937,
        56.507401902677493,
        44.698161407117546,
        72.340326253097629,
        72.562668023628873,
        44.549563213647545,
        44.231936100423589,
        72.32899436656183,
        71.917955926120555,
        48.585409336577612,
        46.730604027341329,
        47.327933540300172,
        47.905343124007032,
        47.173594030769038,
        46.726496493286845,
        48.510187131411868,
        48.270907368377763,
        48.574906806279131,
        48.46477299609549,
        49.766016914246975,
        50.088248603998437,
        47.369575486995267,
        47.37116081825797,
        44.8739145023562,
        72.750569901007353,
        72.850258358027403,
        72.775381260070176,
        72.70017890610012,
        73.136381490384565,
        73.241172034754214,
        74.017188806359002,
        74.267344728331238,
        74.059442251462812,
        74.109451808257788,
        73.435300126909027,
        73.477957792998296,
        73.520510608751309,
        73.905786191632174,
        74.115798971870959,
        74.056180606738835,
        46.59047547050578,
        0.0,
        0.0,
        38.058647894883563,
        44.161339172521771,
        42.040794911351291,
        39.196542867934625,
        72.983232807277886,
        45.543679195705749,
        47.002767138880259,
        41.733124135661228,
        43.396204151144083,
        43.053914840257711,
        43.503493207794989,
        43.325314765169772,
        45.14777315923088,
        73.102455659059657,
        73.131851676738478,
        72.811443073528636,
        72.821529662279175,
        73.423939458163076,
        42.231196474394736,
        51.478897069214746,
        45.619029816246012,
        39.961947938344792,
        41.171056551849837,
        45.291919253093951,
        69.913160938157574,
        70.076532722711335,
        70.064379440413461,
        70.288628064259612,
        70.298497433760332,
        70.926109058690869,
        70.886501812641896,
        70.374443640621436,
        70.434700760944764,
        70.494751115994617,
        70.55459278252205,
        70.7323347565098,
        71.048168923261017,
        70.967718058914983,
        70.903536797632881,
        70.520319503944989,
        70.292212292001878,
        69.27153231174357,
        67.723642783221649,
        66.714118318728794,
        65.64206081867701,
        65.680241496344365,
        65.635945873806392,
        65.993912674975277,
        66.472212592433678,
        66.348349199892141,
        66.280258712468424,
        65.656159050210007,
        66.144069073925607,
        65.69584483322059,
        65.469975444844451,
        65.634556033901475,
        66.620749643816353,
        66.634205457393904,
        65.91387074531238,
        65.9957981563674,
        65.991548465567362,
        65.987299136086762,
        66.155310738100908,
        65.881972902685661,
        65.821946625321758,
        65.825091419644679,
        65.841233483228493,
        65.857360509936768,
        65.873472527758125,
        65.539813028434779,
        65.735909589209086,
        65.943214438542171,
        65.999201416239316,
        66.472187595460781,
        66.380977138082642,
        66.289283544034319,
        66.369365323880345,
        66.146388514141663,
        66.287057633548969,
        66.142305946716434,
        65.996333752145972,
        66.021385595965583,
        66.3930823080794,
        66.756964736370392,
        67.113356022555379,
        67.076354709766534,
        66.992326017577653,
        67.103758072987475,
        67.072901730143442,
        66.884049055537673,
        67.115970903330322,
        66.859767383491118,
        66.944283520399381,
        66.796736765090131,
        66.686026213356186,
        66.898271227855219,
        67.14719565330094,
        67.139115340426244,
        66.965627445561935,
        66.874130335998856,
        66.912361122266503,
        66.916908023088212,
        66.944836551697506,
        66.972720053905405,
        67.044714119517735,
        67.094437630821446,
        66.980980960595602,
        67.174982255439701,
        67.265063782305447,
        67.149146683413036,
        67.017750209757651,
        67.235586788289055,
        67.144540066961383,
        67.076612329792496,
        67.168842282811013,
        67.133932271589444,
        66.882506263836319,
        66.910060786939709,
        66.619538645594247,
        67.297852032663712,
        66.273631401101227,
        67.201670532167327,
        66.772157444482076,
        66.927449262949523,
        66.789959172648722,
        67.168820939621796,
        67.49523443778547,
        39.282711721959437,
        43.40141843551136,
        46.72613780869419,
        0.0,
        0.0,
        0.0,
        0.0,
        0.0,
        0.0,
        0.0,
        0.0,
        0.0,
        0.0,
        0.0,
        0.0,
        0.0,
        0.0,
        0.0,
        0.0,
        0.0,
        0.0,
        0.0,
        0.0,
        0.0,
        0.0,
        0.0,
        0.0,
        0.0,
        0.0,
        0.0,
        0.0,
        0.0,
        0.0,
        0.0,
        0.0,
        0.0
    ],
    "time": [
        0.02,
        0.040000000000000001,
        0.059999999999999998,
        0.080000000000000002,
        0.10000000000000001,
        0.12,
        0.14000000000000001,
        0.16,
        0.17999999999999999,
        0.20000000000000001,
        0.22,
        0.23999999999999999,
        0.26000000000000001,
        0.28000000000000003,
        0.29999999999999999,
        0.32000000000000001,
        0.34000000000000002,
        0.35999999999999999,
        0.38,
        0.40000000000000002,
        0.41999999999999998,
        0.44,
        0.46000000000000002,
        0.47999999999999998,
        0.5,
        0.52000000000000002,
        0.54000000000000004,
        0.56000000000000005,
        0.57999999999999996,
        0.59999999999999998,
        0.62,
        0.64000000000000001,
        0.66000000000000003,
        0.68000000000000005,
        0.69999999999999996,
        0.71999999999999997,
        0.73999999999999999,
        0.76000000000000001,
        0.78000000000000003,
        0.80000000000000004,
        0.81999999999999995,
        0.83999999999999997,
        0.85999999999999999,
        0.88,
        0.90000000000000002,
        0.92000000000000004,
        0.93999999999999995,
        0.95999999999999996,
        0.97999999999999998,
        1.0,
        1.02,
        1.04,
        1.0600000000000001,
        1.0800000000000001,
        1.1000000000000001,
        1.1200000000000001,
        1.1399999999999999,
        1.1599999999999999,
        1.1799999999999999,
        1.2,
        1.22,
        1.24,
        1.26,
        1.28,
        1.3,
        1.3200000000000001,
        1.3400000000000001,
        1.3600000000000001,
        1.3799999999999999,
        1.3999999999999999,
        1.4199999999999999,
        1.4399999999999999,
        1.46,
        1.48,
        1.5,
        1.52,
        1.54,
        1.5600000000000001,
        1.5800000000000001,
        1.6000000000000001,
        1.6200000000000001,
        1.6399999999999999,
        1.6599999999999999,
        1.6799999999999999,
        1.7,
        1.72,
        1.74,
        1.76,
        1.78,
        1.8,
        1.8200000000000001,
        1.8400000000000001,
        1.8600000000000001,
        1.8799999999999999,
        1.8999999999999999,
        1.9199999999999999,
        1.9399999999999999,
        1.96,
        1.98,
        2.0,
        2.02,
        2.04,
        2.0600000000000001,
        2.0800000000000001,
        2.1000000000000001,
        2.1200000000000001,
        2.1400000000000001,
        2.1600000000000001,
        2.1800000000000002,
        2.2000000000000002,
        2.2200000000000002,
        2.2400000000000002,
        2.2599999999999998,
        2.2799999999999998,
        2.2999999999999998,
        2.3199999999999998,
        2.3399999999999999,
        2.3599999999999999,
        2.3799999999999999,
        2.3999999999999999,
        2.4199999999999999,
        2.4399999999999999,
        2.46,
        2.48,
        2.5,
        2.52,
        2.54,
        2.5600000000000001,
        2.5800000000000001,
        2.6000000000000001,
        2.6200000000000001,
        2.6400000000000001,
        2.6600000000000001,
        2.6800000000000002,
        2.7000000000000002,
        2.7200000000000002,
        2.7400000000000002,
        2.7599999999999998,
        2.7799999999999998,
        2.7999999999999998,
        2.8199999999999998,
        2.8399999999999999,
        2.8599999999999999,
        2.8799999999999999,
        2.8999999999999999,
        2.9199999999999999,
        2.9399999999999999,
        2.96,
        2.98,
        3.0,
        3.02,
        3.04,
        3.0600000000000001,
        3.0800000000000001,
        3.1000000000000001,
        3.1200000000000001,
        3.1400000000000001,
        3.1600000000000001,
        3.1800000000000002,
        3.2000000000000002,
        3.2200000000000002,
        3.2400000000000002,
        3.2599999999999998,
        3.2799999999999998,
        3.2999999999999998,
        3.3199999999999998,
        3.3399999999999999,
        3.3599999999999999,
        3.3799999999999999,
        3.3999999999999999,
        3.4199999999999999,
        3.4399999999999999,
        3.46,
        3.48,
        3.5,
        3.52,
        3.54,
        3.5600000000000001,
        3.5800000000000001,
        3.6000000000000001,
        3.6200000000000001,
        3.6400000000000001,
        3.6600000000000001,
        3.6800000000000002,
        3.7000000000000002,
        3.7200000000000002,
        3.7400000000000002,
        3.7599999999999998,
        3.7799999999999998,
        3.7999999999999998,
        3.8199999999999998,
        3.8399999999999999,
        3.8599999999999999,
        3.8799999999999999,
        3.8999999999999999,
        3.9199999999999999,
        3.9399999999999999,
        3.96,
        3.98,
        4.0,
        4.0199999999999996,
        4.04,
        4.0599999999999996,
        4.0800000000000001,
        4.0999999999999996,
        4.1200000000000001,
        4.1399999999999997,
        4.1600000000000001,
        4.1799999999999997,
        4.2000000000000002,
        4.2199999999999998,
        4.2400000000000002,
        4.2599999999999998,
        4.2800000000000002,
        4.2999999999999998,
        4.3200000000000003,
        4.3399999999999999,
        4.3600000000000003,
        4.3799999999999999,
        4.4000000000000004,
        4.4199999999999999,
        4.4400000000000004,
        4.46,
        4.4800000000000004,
        4.5,
        4.5199999999999996,
        4.54,
        4.5599999999999996,
        4.5800000000000001,
        4.5999999999999996,
        4.6200000000000001,
        4.6399999999999997,
        4.6600000000000001,
        4.6799999999999997,
        4.7000000000000002,
        4.7199999999999998,
        4.7400000000000002,
        4.7599999999999998,
        4.7800000000000002,
        4.7999999999999998,
        4.8200000000000003,
        4.8399999999999999,
        4.8600000000000003,
        4.8799999999999999,
        4.9000000000000004,
        4.9199999999999999,
        4.9400000000000004,
        4.96,
        4.9800000000000004,
        5.0,
        5.0199999999999996,
        5.04,
        5.0599999999999996,
        5.0800000000000001,
        5.0999999999999996,
        5.1200000000000001,
        5.1399999999999997,
        5.1600000000000001,
        5.1799999999999997,
        5.2000000000000002,
        5.2199999999999998,
        5.2400000000000002,
        5.2599999999999998,
        5.2800000000000002,
        5.2999999999999998,
        5.3200000000000003,
        5.3399999999999999,
        5.3600000000000003,
        5.3799999999999999,
        5.4000000000000004,
        5.4199999999999999,
        5.4400000000000004,
        5.46,
        5.4800000000000004,
        5.5,
        5.5199999999999996,
        5.54,
        5.5599999999999996,
        5.5800000000000001,
        5.5999999999999996,
        5.6200000000000001,
        5.6399999999999997,
        5.6600000000000001,
        5.6799999999999997,
        5.7000000000000002,
        5.7199999999999998,
        5.7400000000000002,
        5.7599999999999998,
        5.7800000000000002,
        5.7999999999999998,
        5.8200000000000003,
        5.8399999999999999,
        5.8600000000000003,
        5.8799999999999999,
        5.9000000000000004,
        5.9199999999999999,
        5.9400000000000004,
        5.96,
        5.9800000000000004,
        6.0,
        6.0199999999999996,
        6.04,
        6.0599999999999996,
        6.0800000000000001,
        6.0999999999999996,
        6.1200000000000001,
        6.1399999999999997,
        6.1600000000000001,
        6.1799999999999997,
        6.2000000000000002,
        6.2199999999999998,
        6.2400000000000002,
        6.2599999999999998,
        6.2800000000000002,
        6.2999999999999998,
        6.3200000000000003,
        6.3399999999999999,
        6.3600000000000003,
        6.3799999999999999,
        6.4000000000000004,
        6.4199999999999999,
        6.4400000000000004,
        6.46,
        6.4800000000000004,
        6.5,
        6.5199999999999996,
        6.54,
        6.5599999999999996,
        6.5800000000000001,
        6.5999999999999996,
        6.6200000000000001,
        6.6399999999999997,
        6.6600000000000001,
        6.6799999999999997,
        6.7000000000000002,
        6.7199999999999998,
        6.7400000000000002,
        6.7599999999999998,
        6.7800000000000002,
        6.7999999999999998,
        6.8200000000000003,
        6.8399999999999999,
        6.8600000000000003,
        6.8799999999999999,
        6.9000000000000004,
        6.9199999999999999,
        6.9400000000000004,
        6.96,
        6.9800000000000004,
        7.0,
        7.0199999999999996,
        7.04,
        7.0599999999999996,
        7.0800000000000001,
        7.0999999999999996,
        7.1200000000000001,
        7.1399999999999997,
        7.1600000000000001,
        7.1799999999999997,
        7.2000000000000002,
        7.2199999999999998,
        7.2400000000000002,
        7.2599999999999998,
        7.2800000000000002,
        7.2999999999999998,
        7.3200000000000003,
        7.3399999999999999,
        7.3600000000000003,
        7.3799999999999999,
        7.4000000000000004,
        7.4199999999999999,
        7.4400000000000004,
        7.46,
        7.4800000000000004,
        7.5
    ]
}