{
	"f0": [NaN,43.38947659,48.71621431,57.33892692,57.07104356,56.83859904,69.4366989,70.07445379,48.91732291,48.62137826,47.43336953,49.68477794,49.79527593,55.93213879,43.66892929,48.62201365,47.85880237,53.63199227,48.27827905,48.63339524,48.0442468,47.21309485,46.29297064,43.41487036,53.42190416,46.50147517,44.12773329,49.06721424,49.06934826,49.16284059,42.69903312,42.50528578,48.1971513,48.23442222,43.2766188,43.43574541,45.41612942,44.07364983,66.9224708,67.30995869,67.34995772,64.93035138,64.43585661,76.93035138,76.94385806,76.93035138,73.96168579,55.84150872,44.05269332,65.3108577,65.3108577,68.74993739,66.9224708,66.50528578,66.02736151,53.74629303,53.25776619,66.30736224,67.34995772,40.72090128,70.97857577,71.34204488,71.16874568,70.67258716,43.45561375,62.98757969,64.19354484,65.20677378,62.75140786,44.11527002,45.03715655,64.8104299,54.9224708,55.08145384,56.69965447,58.11925331,58.98255796,60.09971298,60.16261956,71.71210129,60.01059594,59.70334573,59.69650961,59.75373324,59.79096872,59.68654685,60.29773187,60.36197109,60.28077415,60.29980126,60.38173466,60.36107736,72.29914967,72.36996294,60.30518767,60.1508623,60.03045096,59.92356673,59.92728328,59.97077554,60.02095848,60.09440756,60.14443831,60.14178266,60.14535294,60.13478519,60.03303455,59.87045897,59.89663988,60.00583168,60.10971893,59.98364158,60.15460554,60.27157896,60.30100883,60.30180241,60.11654688,59.96636423,59.86133518,59.89331269,59.95168419,60.06535776,60.16424691,60.16867135,60.16399642,60.11787225,60.06577364,60.06637537,60.01902019,60.06919938,60.07915465,59.99808805,60.03628085,60.04843524,60.04636192,60.1056235,60.13105324,60.05644863,60.01152218,60.03937886,60.0232038,59.89670384,59.82540598,59.60590763,60.01247779,60.15375947,60.37031018,60.34498356,60.2243285,60.19961668,60.2833014,59.21309485,60.83663414,61.43890071,62.4780494,61.38919894,60.0442468,62.00287579,61.16227442,60.91732291,67.15475482,50.15444483,49.79274022,45.74616009,47.75990749,48.33040771,48.52323467,41.33624954,45.78580198,48.7866696,49.3709473,49.47424868,54.0979178,48.89967109,48.66159406,48.39150692,56.69025159,43.89864007,43.62914588,35.34887861,50.82331945,63.14399075,64.19354484,69.03019666,46.76504651,44.30536877,44.01674158,63.83657672,62.80781824,63.48682058,67.34995772,50.39952859,42.62176022,42.99080323,62.11671308,50.36128712,50.40287952,50.41303834,50.56962607,50.56238985,50.71612501,50.76263342,50.42271502,38.55094312,38.56759889,38.5386837,50.29838864,50.64214864,49.52483579,49.21841468,49.3709473,49.52483579,49.31027877,49.3709473,49.20100977,53.50069115,55.54255041,56.17838093,56.34392255,56.52125235,56.68528449,56.61343003,56.5286605,56.65063475,56.9318723,57.22759142,57.4301095,57.67608725,57.81307895,57.71439668,57.59214788,57.78233935,58.01940691,57.89131171,57.76595093,57.80232202,57.88258203,57.87453339,57.85051046,57.91232835,57.8359588,57.75712003,57.72008749,57.73793284,57.7437388,57.57810331,57.41408711,57.41281636,57.57281439,57.64115244,57.63860158,57.62679421,57.66911544,57.90834373,57.93324374,57.83840337,57.91080137,58.68036542,56.05468308,55.60515321,54.73133613,54.37789184,54.330753,54.46035448,54.88156278,54.89383954,56.71024816,55.47481863,55.46401446,55.44691504,55.45815566,55.31995647,55.08600875,55.15520168,55.22781291,55.3515556,55.50999389,55.62506217,55.64723813,55.6092028,55.57919176,55.60657659,55.64463084,55.58501675,55.59843088,55.59052302,55.52496167,55.57173515,55.60079358,55.59402892,55.63413938,55.79448765,55.88589572,55.80097064,55.7414878,55.71674029,55.73874677,55.81129895,55.85036777,55.74086281,55.63707595,55.6187587,55.70420986,55.74889771,55.7635499,55.78451735,55.78859695,55.81351816,55.82934198,55.80335163,55.73791658,55.70484016,55.77701717,55.93240892,55.95216196,56.0102042,56.03473503,56.12149397,56.19390778,56.13794149,55.95168119,55.80417109,55.97399032,56.02046548,56.00097354,55.98878969,55.94719293,56.41143681,56.46727057,56.46727057,56.06064522,55.90228058,56.23796469,56.69132219,56.45567962,55.9022793,55.92313004,55.92829243,55.56772588,48.91732291,49.45925815,50.14560349,57.31721036,58.42002457,57.66169865,44.25761985,43.77540999,48.47609315,54.15011393,54.50528578,45.66169865,46.9446811,46.93115336,68.23796469,65.69991543,61.52483579,62.80781824,55.34995772,57.66169865,47.62368344,47.14881855,49.52483579,40.08116331,60.0442468,58.65411671,59.48573577,56.01165637,55.97373866,54.50528578,46.68036542,45.29463881,42.29797909,49.21841468,39.83657672,39.22906385,39.57359941,55.13489482,45.17399484,45.17399484,45.13967899,49.79747671,49.863029,60.76871822,69.66169865,76.93035138,76.93035138,76.93035138,76.93035138,76.93035138,76.93035138,76.93035138,76.93035138,76.93035138,76.93035138,76.93035138,76.93035138,76.93035138,76.93035138,76.93035138,76.93035138,76.93035138,76.93035138,76.93035138,76.93035138,76.93035138,76.93035138,76.93035138,76.93035138,76.93035138,76.93035138,76.93035138,NaN,NaN,NaN],
	"ap0": [NaN,0.4950053325,0.5891738655,0.6639600795,0.5013887908,0.5801333528,0.6742638804,0.8543959855,0.7119603839,0.5724548797,0.5968667213,0.769338371,0.6293493968,0.6105609851,0.3806201122,0.452116148,0.6438732407,0.7497877013,0.6893265781,0.7284561211,0.6073204278,0.5257431534,0.7599541946,0.6499076769,0.6502043978,0.6619669748,0.5719100398,0.5322105337,0.4860630378,0.6624202997,0.7700684902,0.6492253285,0.5854594585,0.5994097923,0.5064496013,0.6093852431,0.5141347079,0.5689662864,0.4610860417,0.4191026371,0.5139410361,0.6944465165,0.7067652935,0.4728131485,0.4930755339,0.5719315194,0.7459667327,0.6218299331,0.6058135908,0.5508020689,0.5125318854,0.8762471977,0.5182722336,0.2685486596,0.2527882845,0.1707797697,0.4222379837,0.4532223005,0.4804707726,0.2606091455,0.1969671553,0.2538284559,0.3844398117,0.5422850538,0.6111865772,0.5160383872,0.4369238131,0.2821060546,0.8218218519,0.6317195427,0.8291029744,0.7218225814,0.3792009592,0.2206227575,0.27242181,0.1342548913,0.1561103934,0.1618166593,0.1968519951,0.3831536841,0.3487435589,0.1209147481,0.1153845212,0.08593635719,0.06480679157,0.06243496483,0.08816234544,0.05380194845,0.0424283211,0.04104769436,0.03135940527,0.02799423641,0.08454872562,0.1457615448,0.04220030504,0.02571932377,0.02415568765,0.0320908211,0.01991998173,0.009252442448,0.008671736833,0.01121515313,0.01831393867,0.02493098585,0.02383502776,0.03077132979,0.0310073954,0.03161504804,0.01927597906,0.02472141972,0.03912340916,0.05324174373,0.06589111504,0.05272632256,0.03357521431,0.03055041524,0.03625656858,0.05361175512,0.03905985952,0.01982215501,0.0277100281,0.04026345491,0.0192673318,0.01304626613,0.01881005628,0.02602164781,0.02770957469,0.04633491043,0.06321423435,0.07184196237,0.04572431652,0.01696263307,0.02296466966,0.02530609925,0.02436437078,0.01913421613,0.03160796077,0.06778187188,0.09748123614,0.1121015286,0.09863301198,0.1093393116,0.20962157,0.3135152729,0.2366950326,0.1376296621,0.06713367504,0.03446137111,0.03222108907,0.05063731201,0.1130258362,0.4609668712,0.4116081422,0.4423538558,0.398594775,0.4128175769,0.8161842588,0.6174811639,0.3472104681,0.2282009218,0.8144054093,0.5638789419,0.6619075665,0.635167939,0.470129345,0.6285519232,0.6430334735,0.7404988251,0.5762919007,0.7048008318,0.683943043,0.7172130675,0.5772629166,0.6994278557,0.7743001219,0.8302413743,0.6765323415,0.4744936253,0.4547610589,0.4161922925,0.6505066217,0.5234970206,0.7195959404,0.713643774,0.632680465,0.7529716227,0.5608999272,0.3192438763,0.2394312568,0.4815023467,0.614384331,0.5567966854,0.5302985884,0.4909541127,0.236875326,0.07745255179,0.02349159403,0.02503623005,0.074932399,0.06595992481,0.1504291195,0.2405952915,0.1985873849,0.1819032202,0.2621377777,0.3698783136,0.244650033,0.441786748,0.2503410787,0.1524352744,0.1436442696,0.1687077101,0.2065062298,0.2155141535,0.329290153,0.5268151971,0.4303570447,0.1492740301,0.07550733647,0.05935665512,0.06687353679,0.03595224559,0.06478643099,0.08102671707,0.05530060433,0.03072918898,0.03537023863,0.03831532977,0.02784616692,0.03561062312,0.03924253819,0.06632608013,0.05377892986,0.05169078672,0.04695580579,0.01976288619,0.01035037896,0.01817992176,0.03375432483,0.0329904201,0.01681931011,0.01338253511,0.02087156704,0.03387698552,0.06580511581,0.1221462327,0.161044541,0.1290426603,0.07073528999,0.08068912206,0.09361339178,0.09509174035,0.1323639573,0.169672606,0.1306273337,0.1655487224,0.2588143675,0.4845026944,0.6530494071,0.4313252253,0.3556890335,0.1912584891,0.1667677029,0.2856768557,0.4012104544,0.4357089425,0.3452857724,0.3091924823,0.1468404424,0.1135962238,0.1446781387,0.1521155581,0.08877471045,0.1005735883,0.08200591661,0.06297940627,0.05140437683,0.05912009459,0.06451228684,0.04956907298,0.03735168259,0.02970198346,0.02348504361,0.02041794524,0.01297250441,0.01075196037,0.008219505847,0.009108363075,0.00994367906,0.01329147701,0.02382968264,0.04933523005,0.09305170044,0.07631684737,0.04348410834,0.0292500877,0.01830045418,0.02077779279,0.03514103837,0.03943181435,0.02561117898,0.01531291844,0.008796378263,0.01360086557,0.02114964536,0.01960146616,0.01610140941,0.009717019738,0.01037151172,0.01288817771,0.01254840209,0.01417710427,0.02402116132,0.0354594386,0.05084700641,0.06200296871,0.05920007816,0.03913547284,0.02830534056,0.03931293989,0.1283733165,0.1399701914,0.04333991731,0.0212318063,0.01831554709,0.02565502569,0.0527799638,0.1628757025,0.2564127719,0.2479848344,0.1644026413,0.2478343912,0.2777476528,0.1408821269,0.1123653338,0.07113315811,0.07195420463,0.1337669067,0.3728926112,0.5758607131,0.452110502,0.5603187858,0.6245883309,0.6270658666,0.6658831536,0.6139154365,0.5745702526,0.7340520452,0.6389506402,0.695354311,0.3559809417,0.5480372782,0.7781756874,0.4387134548,0.7262222169,0.4106857947,0.5915432457,0.6961689277,0.6087540943,0.4591302429,0.4285157101,0.4576100707,0.6703376382,0.571443118,0.2892372483,0.542855222,0.4641407094,0.2244711612,0.6745274568,0.4224470763,0.258921889,0.8009090414,0.7438932416,0.5074173738,0.4423081649,0.6606213985,0.469044942,0.8163820611,0.4068455746,0.3967748161,0.7554809209,0.7399401812,0.6496715116,1,1,1,1,1,1,1,1,1,1,1,1,1,1,1,1,1,1,1,1,1,1,1,1,1,1,1,1,NaN,NaN,NaN],
	"ap": [NaN,0.3265652449,0.2761224119,0.6942178332,0.3637956165,0.1489867957,0.1672454498,0.5842713957,0.2317523959,0.4616648928,0.4765442744,0.3019080101,0.1871245933,0.1155071219,0.4676790005,0.307032364,0.2531305687,0.3633360728,0.5053675434,0.2447338115,0.5269804925,0.3726781459,0.2184819194,0.4465957197,0.4309273407,0.7230709739,0.3475992237,0.3114539849,0.1308988658,0.144936498,0.3420609058,0.4518627495,0.2265264714,0.2361961537,0.2545187108,0.3959025995,0.7365698766,0.1175587159,0.5746984276,0.1968457366,0.1973730243,0.1762950369,0.4590723215,0.2171460635,0.01531583918,0.2842872969,0.4282402675,0.4535165428,0.309285301,0.678225988,0.270489141,0.4517328558,0.7727813695,0.3067032202,0.5763591214,0.06275973222,0.06352923677,0.5435966289,0.5904044446,0.1407187068,0.2941901684,0.06405791566,0.1120099258,0.4420412515,0.2553027463,0.5166387866,0.4333560232,0.4985198612,0.4575281275,0.2649243935,0.3691654287,0.5445027129,0.271335007,0.4218756697,0.3465829616,0.2342284752,0.05287258259,0.1026221027,0.07770942147,0.08040009446,0.03951486352,0.06546273994,0.05793059338,0.05337617681,0.05511351136,0.02559050189,0.04726393206,0.06503684685,0.04363363791,0.01603501952,0.03149534311,0.01773793185,0.00846104458,0.02683531633,0.004269912578,0.005981422814,0.01589799334,0.02833168854,0.00771257981,0.03176619044,0.002953742475,0.006820856111,0.003934947528,0.01880827516,0.007430482123,0.009379011196,0.01180555469,0.02101259872,0.03240370568,0.02010300332,0.01750757407,0.01770276327,0.006785973121,0.01688934854,0.02675219763,0.02996117537,0.009455978969,0.007409751303,0.007805986508,0.05931515223,0.002378325799,0.01133148405,0.03448794006,0.01422898632,0.008778481816,0.003447944917,0.004579192307,0.00839030964,0.02746087581,0.02386495452,0.02593929694,0.01385979436,0.002640722174,0.01921650812,0.01135800567,0.006769665416,0.01670614361,0.01888947287,0.04530897292,0.01877736941,0.09851248175,0.03793386558,0.05620118855,0.1448295628,0.03333096746,0.1550229492,0.04499364137,0.0118607232,0.03026081088,0.01252741292,0.07223547472,0.05111317681,0.2798723002,0.3989766382,0.3910035724,0.142385499,0.4983265209,0.3949822731,0.5183948799,0.3953131604,0.5481601699,0.327358746,0.2594828944,0.3676289794,0.4207742684,0.3427347158,0.391566944,0.3331620177,0.7479745116,0.5022916597,0.5168047424,0.2500064048,0.2864808855,0.4918670411,0.2670695374,0.6413693132,0.6049929803,0.3901176685,0.2062367061,0.1695476899,0.4865158845,0.762123701,0.0307404743,0.9123351977,0.6335346922,0.4207318538,0.2140030377,0.7423809473,0.4250549048,0.05830625444,0.3072045982,0.2134324616,0.4120685852,0.3712712048,0.4359492715,0.776481826,0.02804404628,0.01329479016,0.0125538507,0.0197049955,0.1071397812,0.01639680786,0.1813798575,0.1030760617,0.08898063052,0.1363487583,0.2126028561,0.1363551557,0.2512583061,0.06056688096,0.1022040213,0.04532783819,0.1053314221,0.1228353884,0.2026080175,0.56930456,0.4294090449,0.5786691382,0.1767689026,0.04019256406,0.02070746927,0.04696651023,0.009506638788,0.02017610315,0.03359878719,0.0101240201,0.05628345875,0.03781932789,0.009297066918,0.00982378176,0.03067568289,0.04114054325,0.07183871506,0.02913167257,0.0225961792,0.02891982467,0.01742102745,0.007922636607,0.007936652729,0.01956688931,0.02950624018,0.005489945724,0.003923456019,0.007396501783,0.01772794125,0.02157294112,0.072800507,0.03115910488,0.02754015704,0.007310557932,0.0434846837,0.05436902567,0.05683988998,0.02042936486,0.1135765375,0.04641300923,0.08651398343,0.1633867772,0.2433254546,0.6287870745,0.4573507813,0.04473174536,0.1938536419,0.08699039647,0.1707129489,0.1029040409,0.5014877168,0.09226092914,0.082010209,0.2031136481,0.02764058984,0.04819681891,0.07235524542,0.03862937626,0.01999547064,0.04564444045,0.04812958359,0.04046744981,0.04253005159,0.02904430748,0.02972165627,0.01216527402,0.01100777732,0.01107382333,0.007801143607,0.003630271651,0.005992315693,0.002163972885,0.01142876866,0.00485095557,0.002616500552,0.009589834989,0.01791420852,0.06153834868,0.0591154192,0.02406326367,0.01237638718,0.01455996553,0.004068648593,0.01364462845,0.02180322414,0.01428864827,0.00446627958,0.001181013992,0.004198265743,0.01000382459,0.01683111692,0.009988792436,0.008004864526,0.001300176779,0.006387592016,0.008396660916,0.007384724353,0.01219433166,0.02780493703,0.0442916342,0.04647280832,0.02968512863,0.03374227496,0.0117974595,0.03139805328,0.01716400861,0.2263814686,0.01686618957,0.01082228185,0.006121629408,0.0139332834,0.05921517613,0.1209808713,0.154018518,0.3153013133,0.1177884291,0.09958757369,0.292599257,0.123174322,0.05141175274,0.02831442882,0.03552778473,0.02454561267,0.6743935333,0.3508970048,0.1820109475,0.3246281365,0.4379263379,0.4841136584,0.2889801736,0.4191845552,0.2912435524,0.7509300087,0.4145959808,0.3907520197,0.1908241086,0.3645213623,0.2857562152,0.1922645958,0.7458404097,0.6169528869,0.5362952076,0.7734372417,0.3883183404,0.5136837663,0.5449039918,0.3568653024,0.2607716038,0.3267871725,0.1444143059,0.1668482803,0.5241833511,0.224434,0.3428410145,0.05534072354,0.3520264017,0.4546900784,0.377071984,0.3357467227,0.2468662701,0.6995708653,0.4351416009,0.7270993797,0.07039251485,0.5002774273,0.3849750235,0.5572688675,1,1,1,1,1,1,1,1,1,1,1,1,1,1,1,1,1,1,1,1,1,1,1,1,1,1,1,1,NaN,NaN,NaN],
	"pwr": [NaN,3.959795613e-05,2.435901106e-05,2.075031511e-05,6.216154753e-06,2.03187231e-05,1.912789992e-05,2.416065451e-05,3.006590273e-05,1.634145797e-05,9.293352507e-06,5.844091792e-05,2.249040587e-05,1.693578859e-05,5.817537001e-06,1.717613266e-05,2.504992566e-05,2.495367237e-05,5.156549303e-06,1.145924009e-05,1.218253136e-05,1.97434556e-05,2.27290542e-05,1.923762239e-05,8.157144584e-06,1.091126655e-05,9.107958903e-06,3.422937589e-05,4.018645019e-05,2.65153656e-05,1.287700849e-05,1.97581134e-05,1.207703116e-05,1.095495127e-05,9.43390479e-06,2.00068752e-05,5.178238039e-05,5.408585739e-05,0.0001731729902,4.824524173e-05,0.0001916319787,0.0001308112684,4.005821635e-05,5.839730147e-05,2.480921231e-05,6.087326809e-06,9.68047134e-05,0.0002362739824,0.0003139712483,0.000556942708,0.0003287272567,0.002175732598,0.001253653404,0.001213217875,0.02061889997,0.1697494077,0.0632403646,0.0125244692,0.01741829844,0.03101655163,0.009602039844,0.03161115084,0.03911451855,0.02826957378,0.01341219561,0.001913962113,0.01962963143,0.0108909212,0.01203066089,0.0005592920046,0.001343581288,0.006879758418,0.007026530909,0.004555159787,0.04314747665,0.0178093839,0.04218135833,0.07974749471,0.03446791573,0.0679843927,0.09600729832,0.02943164301,0.03948677629,0.03795352945,0.0793621995,0.02689097571,0.01538511743,0.02050185195,0.04917644761,0.04913030613,0.03467863488,0.02874463184,0.125989466,0.1081303544,0.05832984927,0.09938116012,0.05521887056,0.06068049208,0.04329626182,0.06272380079,0.1699983917,0.1555640696,0.05724525206,0.04258611278,0.02284243386,0.01969559475,0.01405201375,0.01595777926,0.03960970073,0.1382855073,0.2177481698,0.07337658275,0.03041154917,0.02970401022,0.02699653766,0.03431100714,0.03108969665,0.01834722659,0.02831734333,0.02094665609,0.07884985373,0.1143638286,0.02852309583,0.0383558157,0.04825874062,0.04005067297,0.0274791707,0.01074375573,0.006010089698,0.01942574817,0.0197073448,0.02969020502,0.02609276314,0.01994230161,0.02360488871,0.0285445527,0.01912044271,0.01905661026,0.01321608311,0.006330962862,0.006048219182,0.01002492116,0.005026359711,0.0003143314971,0.0008730397635,0.0003723743621,0.002225208535,0.004123950153,0.00823806497,0.0248836444,0.00403308728,0.001496545703,0.0003248412903,0.0001660628778,6.699311341e-05,0.000372479087,4.642135196e-05,4.090584992e-05,1.936410555e-05,5.318503325e-05,0.000123488427,3.749994977e-05,2.143145279e-05,4.531830205e-05,3.1485998e-05,1.212315304e-05,2.681886773e-05,1.767438964e-05,1.292211538e-05,1.578569499e-05,2.401753069e-05,5.309647204e-05,6.502314246e-05,1.752478562e-05,1.233826399e-05,1.291516078e-05,5.719604562e-06,1.332739481e-05,2.754579757e-05,4.618706486e-05,3.600933182e-05,3.17819889e-05,7.332305783e-05,4.117540263e-05,1.536065948e-05,2.634182413e-05,3.895997927e-05,5.545007892e-06,7.491778188e-06,0.0002551679267,0.0003038748851,0.0003119171347,2.442523613e-05,0.000113542424,0.000195131078,0.0009039943829,0.01009381384,0.01110448573,0.006753103183,0.003395703123,0.004801719132,0.01169864455,0.0167211928,0.005246597241,0.002905377624,0.003129693102,0.001596121059,0.001013015404,0.0002522058956,5.64687867e-05,0.0002170872691,0.001130553977,0.00178461313,0.001649739793,0.0007750142233,0.00072137221,0.0001237269701,0.009271773007,0.02006156244,0.07384930303,0.03301073311,0.01175747504,0.02035275111,0.02800965876,0.02170274774,0.0713828957,0.1115283291,0.2561956249,0.3342139009,0.2371311106,0.1340735783,0.07419186987,0.04231880171,0.01730015132,0.01464641439,0.02334296593,0.03166710859,0.06053760437,0.04487669032,0.03719775673,0.02965253311,0.02630476807,0.0245629725,0.03170399119,0.02585946128,0.01372648297,0.01443270683,0.02177159745,0.01506917145,0.01156030402,0.01122319491,0.01490157576,0.01886837375,0.01199867838,0.004781872253,0.004162492351,0.0081452531,0.0141679927,0.01870099182,0.04828437302,0.03806696018,0.03230142826,0.04562259067,0.05229344719,0.0483843348,0.02003239797,0.01397185798,0.007912301596,0.004668358651,0.008425094762,0.04829217895,0.04788189644,0.02946640378,0.01340542558,0.01759165458,0.0285924767,0.03213647306,0.03045089509,0.0307427936,0.02843855392,0.01646228953,0.01870185929,0.01341071153,0.01330625946,0.01472843003,0.02129678072,0.02319652558,0.01909402472,0.01987231742,0.02001906802,0.01634576277,0.01032567795,0.008852771651,0.008389056323,0.006985438301,0.01316494933,0.037037866,0.03498562905,0.02804591462,0.0151443246,0.01276523117,0.0202220329,0.02633985516,0.01979719884,0.01595017582,0.01129682947,0.009961305614,0.01060320631,0.01006736612,0.009145847367,0.008833307364,0.01229162212,0.01467382747,0.01101893327,0.004285321985,0.002262653573,0.001803131094,0.002483542992,0.004110669396,0.003495096533,0.004129856068,0.002062482803,0.0009294115176,0.001747221866,0.00352816329,0.006261394244,0.00472322868,0.00210830573,0.000295970592,2.8937608e-05,6.740936601e-05,0.0001095952794,0.0002632389652,0.0002050106352,0.0001934803312,0.0005889465028,0.0005311753435,0.0003613718479,0.0003618600946,0.0001152857645,4.51078962e-05,3.36421602e-05,2.284853396e-05,6.435307198e-05,6.176990823e-05,9.9007696e-05,4.046584905e-05,1.28084498e-05,2.536587631e-05,4.635518209e-05,9.827107923e-06,4.488206021e-06,1.966357952e-08,9.22790557e-08,1.707759855e-07,3.497766946e-06,1.059512635e-06,4.256464308e-07,9.538273194e-07,2.919812687e-07,1.440706665e-08,4.560986002e-09,4.237932467e-09,1.77581077e-09,6.543737127e-09,1.346075257e-08,1.819102795e-08,4.119685895e-09,8.024341826e-09,4.528732406e-10,1.806472721e-09,1.112980036e-09,2.665298158e-10,1.544284881e-10,2.896046183e-10,3.006908313e-10,3.600251619e-10,3.856257536e-10,9.377900925e-11,4.364998255e-10,2.412780139e-10,8.232100147e-11,2.17408101e-10,0,0,0,0,0,0,0,0,0,0,0,0,0,0,0,0,0,0,0,0,0,0,0,0,0,0,0,0,NaN,NaN,NaN],
	"sr": 16000,
	"range": [1,132352],
	"minf0": 63.1883,
	"maxf0": 706.3069,
	"thresh": 0.1,
	"relflag": 1,
	"hop": 320,
	"bufsize": 10000,
	"wsize": 640,
	"lpf": 4000,
	"shift": 0,
	"plotthreshold": 0.2
}
