{
    "DU": 138,
    "DV": 171,
    "F-measure": 0.5619223659889094,
    "F-measure Chroma": 0.8022181146025877,
    "FN": 53,
    "FNC": 14,
    "FNCch": 31,
    "FNI": 39,
    "FNIch": 22,
    "FP": 24,
    "GU": 109,
    "GV": 200,
    "Overall Accuracy": 0.4919093851132686,
    "Overall Chroma Accuracy": 0.7022653721682848,
    "Precision": 0.59375,
    "Precision Chroma": 0.84765625,
    "Raw Chroma Accuracy": 0.815,
    "Raw Pitch Accuracy": 0.405,
    "Recall": 0.5333333333333333,
    "Recall Chroma": 0.7614035087719299,
    "TN": 85,
    "TO": 309,
    "TP": 147,
    "TPC": 67,
    "TPCch": 132,
    "TPI": 80,
    "TPIch": 15,
    "Voiced Chroma Accuracy": 0.66,
    "Voiced Pitch Accuracy": 0.335,
    "Voicing Accuracy": 0.7508090614886731,
    "Voicing Detection": 0.735,
    "Voicing False Alarm": 0.22018348623853212
}