{
    "DU": 63,
    "DV": 260,
    "F-measure": 0.44684684684684683,
    "F-measure Chroma": 0.6738738738738739,
    "FN": 9,
    "FNC": 0,
    "FNCch": 4,
    "FNI": 9,
    "FNIch": 5,
    "FP": 82,
    "GU": 136,
    "GV": 187,
    "Overall Accuracy": 0.38390092879256965,
    "Overall Chroma Accuracy": 0.5789473684210527,
    "Precision": 0.39490445859872614,
    "Precision Chroma": 0.5955414012738853,
    "Raw Chroma Accuracy": 0.732620320855615,
    "Raw Pitch Accuracy": 0.37433155080213903,
    "Recall": 0.5145228215767634,
    "Recall Chroma": 0.7759336099585062,
    "TN": 54,
    "TO": 323,
    "TP": 178,
    "TPC": 70,
    "TPCch": 133,
    "TPI": 108,
    "TPIch": 45,
    "Voiced Chroma Accuracy": 0.7112299465240641,
    "Voiced Pitch Accuracy": 0.37433155080213903,
    "Voicing Accuracy": 0.718266253869969,
    "Voicing Detection": 0.9518716577540107,
    "Voicing False Alarm": 0.6029411764705882
}