{
    "DU": 126,
    "DV": 124,
    "F-measure": 0.696230598669623,
    "F-measure Chroma": 0.8248337028824834,
    "FN": 31,
    "FNC": 4,
    "FNCch": 15,
    "FNI": 27,
    "FNIch": 16,
    "FP": 18,
    "GU": 113,
    "GV": 137,
    "Overall Accuracy": 0.628,
    "Overall Chroma Accuracy": 0.744,
    "Precision": 0.7168949771689498,
    "Precision Chroma": 0.8493150684931506,
    "Raw Chroma Accuracy": 0.7737226277372263,
    "Raw Pitch Accuracy": 0.48175182481751827,
    "Recall": 0.6767241379310345,
    "Recall Chroma": 0.8017241379310345,
    "TN": 95,
    "TO": 250,
    "TP": 106,
    "TPC": 62,
    "TPCch": 91,
    "TPI": 44,
    "TPIch": 15,
    "Voiced Chroma Accuracy": 0.6642335766423357,
    "Voiced Pitch Accuracy": 0.45255474452554745,
    "Voicing Accuracy": 0.804,
    "Voicing Detection": 0.7737226277372263,
    "Voicing False Alarm": 0.1592920353982301
}