{
	"f0": [0,0,0,0,0,0,0,0,0,0,0,0,0,0,0,0,0,0,0,0,0,0,0,0,0,0,0,0,0,0,0,0,0,0,0,0,0,0,0,0,0,0,0,0,0,0,0,0,0,0,0,0,0,0,0,0,0,0,0,0,0,0,0,0,0,0,0,0,0,0,0,0,0,0,0,0,170.1504305,173.789678,172.9528444,173.1194548,172.8449926,174.9364706,179.8081253,0,0,0,0,0,0,0,0,0,0,0,0,184.7153444,186.0159411,188.3883516,188.9727431,194.5675267,199.2335378,202.7782382,204.6790666,198.1114808,0,0,0,0,0,0,0,0,0,0,0,0,213.8623029,213.7965214,213.6809813,214.5685214,212.989024,213.8313768,214.4492023,214.0114425,215.7529498,110.2575947,217.8504532,0,0,0,0,0,0,0,0,0,0,0,0,0,0,0,0,0,0,0,0,0,207.8429432,209.5993565,212.4878786,212.8099492,210.6342912,208.3616241,207.961422,209.0945426,208.3821587,205.2708871,200.7015705,0,0,0,0,0,0,0,0,216.8968811,215.3421247,214.6407617,214.9768711,211.7825296,208.8957816,208.2647156,212.8134919,215.0697656,219.7334557,223.9136495,227.8909309,224.0667663,223.7937312,224.1251208,218.3617962,0,0,0,216.1960083,218.4591583,219.9449479,220.3192077,222.1098156,223.6705644,223.5585693,224.7231046,226.6467095,229.6551318,233.9963084,239.1236826,245.1801776,249.9567611,251.3573538,253.6001665,253.1436462,251.8443367,249.7380443,249.0024349,250.7817829,251.3872512,250.8094448,250.9669706,0,0,0,0,0,0,0,0,0,0,0,0,0,214.1864396,209.8843624,0,0,0,214.4948651,215.7208324,216.7246788,219.577871,221.4533206,217.6051526,217.1524587,208.3048005,212.3031598,214.3149805,207.7395426,201.9540063,203.9555476,211.3231816,205.67485,204.5374097,203.2186203,207.8055913,247.1285713,253.670943,255.0004288,251.7809107,251.7321616,251.2510934,248.7893809,246.7171925,246.3546903,245.7099659,245.7895829,246.2021013,245.6508715,245.7566848,246.1040635,245.147472,245.3084707,243.5071717,241.7339817,243.6658985,243.306691,249.7875137,252.0211978,255.0732154,263.1430758,263.2993963,258.0681955,256.3676862,255.4016752,254.8079783,273.5058326,282.8726947,280.6232005,278.0727976,274.5284284,275.1759493,275.7472037,273.3363483,276.4223296,0,0,0,0,277.2855708,272.1157157,270.7632012,269.7044266,266.3131749,265.3473234,266.3296779,266.4644196,133.0203749,133.1340319,133.9100256,133.8114779,132.9621627,132.9765664,132.0955857,129.8675646,0,0,0,0,0,281.8174194,278.5530768,276.7768626,275.7671232,274.0208407,272.9981597,274.9840727,278.0998898,284.6647386,288.2858504,291.2896437,293.1515287,295.0611078,297.5363737,147.6167983,293.4309613,289.547041,287.3605058,286.2028554,290.2001893,288.424023,281.7629971,277.7439311,276.5463323,276.5836183,274.1823571,266.1745023,254.0497622,244.2315688,232.6032101,230.5171463,239.9430786,246.4165262,248.1578838,244.8817963,243.5482977,244.4840353,254.5221459,0,0,0,252.6000391,247.1383029,245.268061,244.0777281,244.444571,243.8469429,121.134167,120.8332623,120.7474876,120.8705181,120.7589592,121.0113839,121.3744217,121.5120491,121.6379154,122.5587595,122.9791092,123.5692973,125.9963941,201.2717118,0,0,0,0,0,0,437.0806529,443.3942404,0,0,0,0,0,0,0,0,0,0,0,0,0,121.9483445,123.0131569,0,0,0,0,0,0,0,0,0,0,0,0,0,0,0,0,0,0,0,0,0,0,0,0,0,0,0],
	"score": [0.1312596581,0.1285537542,0.1231761973,0.03079404933,0.007698512332,0.001924628083,0.0004811570208,0.0001202892552,3.00723138e-05,7.518078449e-06,1.879519612e-06,4.698799031e-07,1.174699758e-07,2.936749394e-08,7.341873486e-09,1.835468371e-09,4.588670929e-10,1.147167732e-10,2.86791933e-11,7.169798326e-12,1.792449582e-12,4.481123954e-13,1.120280988e-13,2.800702471e-14,7.001756178e-15,1.750439044e-15,4.376097611e-16,1.094024403e-16,2.735061007e-17,6.837652517e-18,1.709413129e-18,4.273532823e-19,1.068383206e-19,2.670958015e-20,6.677395036e-21,1.669348759e-21,4.173371898e-22,1.043342974e-22,2.608357436e-23,6.52089359e-24,1.630223398e-24,4.075558494e-25,1.018889623e-25,2.547224059e-26,6.368060147e-27,1.592015037e-27,3.980037592e-28,9.950093979e-29,2.487523495e-29,6.218808737e-30,1.554702184e-30,3.886755461e-31,9.716888652e-32,2.429222163e-32,6.073055407e-33,1.518263852e-33,3.79565963e-34,9.489149074e-35,0.1575331755,0.3117075707,0.1635240765,0.105512864,0.2287747403,0.4028067328,0.1965341416,0.08195356892,0.2603200005,0.1708066169,0.1844789513,0.1311837856,0.093427886,0.1878306567,0.2202005876,0.2150402482,0.1481895408,0.3035103212,0.5965942598,0.7415077471,0.8256701119,0.8563516618,0.8587063289,0.7546299573,0.685185211,0.4299427936,0.3037756038,0.1822889191,0.1444628098,0.1513844504,0.1618015837,0.2734047872,0.2284939876,0.2710828943,0.4712424573,0.3464605585,0.182503107,0.4628880765,0.6070915418,0.5515286642,0.5452726654,0.5757776258,0.6110644498,0.5227641758,0.565000625,0.4809731425,0.2354843926,0.3313004529,0.1266938595,0.1676682405,0.3678207667,0.2249906966,0.1815223977,0.1828437821,0.07868731569,0.3027551089,0.3409683303,0.4076467254,0.6022561565,0.7780798427,0.8370654858,0.8378645057,0.8628520711,0.8957649586,0.9204474071,0.9116727397,0.802453768,0.610185543,0.6186889954,0.4035087807,0.3512159281,0.3341273963,0.4136958022,0.4559746659,0.3184620562,0.2634049903,0.2050562958,0.2973058121,0.1825297478,0.2765211783,0.2235416146,0.3419247958,0.3355530938,0.2098387249,0.1712737159,0.2579078095,0.1473600663,0.140670785,0.1383262755,0.2863937547,0.5979053058,0.6909401695,0.6154460639,0.6843012319,0.6918716432,0.7358413156,0.7146924984,0.7176778115,0.6788972317,0.7074489578,0.6883544423,0.2789043843,0.2986153384,0.2750334639,0.2905537221,0.2230538967,0.2062826296,0.1243058672,0.3941553582,0.6507101766,0.8045420561,0.8514976984,0.8682125573,0.8816961626,0.9042192953,0.8950043367,0.8800104396,0.857867906,0.8847037807,0.8752773821,0.7438811932,0.6771480191,0.6591177091,0.5535693827,0.5201411472,0.2762012697,0.1936947576,0.2048695509,0.5609191603,0.7860490073,0.8420617844,0.8674070814,0.8774539966,0.9030347246,0.9264184137,0.9151227304,0.9291259317,0.9147518504,0.9024002411,0.9115023516,0.9273614767,0.9444490585,0.9561980414,0.9591279204,0.9549912845,0.9581189017,0.9387854185,0.8800055433,0.8505173104,0.8283278204,0.634116542,0.567306343,0.3727634186,0.2457320556,0.1669689513,0.2334252042,0.210520416,0.2862158111,0.2994486313,0.261706136,0.1875592411,0.2646546439,0.3353218088,0.1749600918,0.0990511201,0.4982347872,0.4929928273,0.4283104557,0.3045822376,0.3645059321,0.656388735,0.781507629,0.8350532095,0.8475588057,0.7531986902,0.7585714832,0.7579089947,0.6559881748,0.7180306858,0.7603997958,0.6849173005,0.6336376018,0.5843875095,0.6424583193,0.6569561183,0.67161133,0.6497865083,0.4735735378,0.6892295336,0.8608980174,0.9048657605,0.9409402615,0.9586430285,0.9595118094,0.9600872733,0.9584009151,0.9627848018,0.9688824521,0.9626872563,0.9488129283,0.9521036429,0.9554664541,0.9578116343,0.9549916584,0.9424822702,0.9148337134,0.9188995904,0.8909369682,0.8048858176,0.8790287987,0.9245589927,0.9303592284,0.926851789,0.9228175218,0.8831364723,0.8975071435,0.8928598742,0.8124383512,0.7025235757,0.7815478285,0.8441264198,0.8885438072,0.9340906636,0.947273382,0.9356997982,0.8589916993,0.6025948405,0.2309858049,0.302778241,0.3939933955,0.3501036509,0.7095983169,0.8631905533,0.9313517138,0.9456067368,0.9426238269,0.9411504054,0.942031542,0.9450563131,0.8819556351,0.8922465171,0.8903704428,0.8686720771,0.8461375861,0.807845655,0.6064292561,0.5797526357,0.2085761172,0.1793214117,0.1441121443,0.1286345249,0.1871792948,0.6339866556,0.8581652855,0.9237693465,0.9516445178,0.9356072687,0.9184748241,0.9225664369,0.8909440924,0.9184344986,0.9317741374,0.9186819786,0.8848027331,0.8213620652,0.7432109168,0.7752236928,0.8474571702,0.9149645161,0.9252911384,0.8854377505,0.7463884182,0.7306796321,0.8620083356,0.9368991807,0.9526410309,0.9620591071,0.9419941138,0.8562686563,0.8106454199,0.7557977803,0.7889823554,0.8219537836,0.8754962258,0.9234268732,0.9355835395,0.8761419723,0.8094115801,0.7356479361,0.5326543365,0.3932903436,0.3312817701,0.2154624482,0.6506887219,0.8187674993,0.876219268,0.8573827213,0.8951341448,0.880824219,0.8229323189,0.8227159456,0.8439396029,0.8616297871,0.8464236746,0.8256971401,0.8227686392,0.7798330352,0.8207153238,0.8304698963,0.818480207,0.7250147732,0.5398243725,0.4571837548,0.3919416469,0.4297610924,0.3848249469,0.352884538,0.4131317617,0.4456054809,0.6675399982,0.6580495515,0.3931537075,0.2476419944,0.1554172794,0.1621875092,0.1617926558,0.2280061839,0.1814307082,0.186633327,0.2602602147,0.1935231697,0.3972551262,0.4072502092,0.4337116293,0.5265817722,0.4679499027,0.3086164339,0.3152464926,0.3026959937,0.2837606832,0.4358789416,0.3578567469,0.4374188043,0.4419677031,0.3602485396,0.4412260313,0.4922841295,0.1032632689,0.1692901398,0.04232253495,0.01058063374,0.002645158435,0.0006612896087,0.0001653224022,4.133060054e-05,1.033265014e-05,2.583162534e-06,6.457906334e-07,1.614476584e-07,4.036191459e-08,0.1267083671,0.3493328945,0.6597867571]
}
