{
	"f0": [187.6382699,184.8394283,0,0,0,0,0,0,0,0,186.9701571,181.3294886,183.0199585,0,0,0,0,0,0,0,0,0,0,0,0,0,191.1434726,165.4179825,166.7450973,172.3956094,179.1222177,188.9275537,212.8626309,227.2150658,232.8371768,233.6948946,232.5860266,231.5845154,231.4261067,229.9129353,232.1558369,238.2200104,242.8259086,245.6031837,249.3831445,252.2866507,253.2679739,250.1820912,248.3085513,247.8116697,244.6602658,243.5344524,239.3259738,238.9583523,237.6721581,235.3507047,234.3767626,234.9631351,235.2262871,234.3471591,235.7849621,236.1640819,237.0916249,235.6604623,231.2275472,234.3140816,237.7812011,239.8587971,236.7100078,232.253387,233.7277855,225.2693362,234.304598,238.3172245,239.6188064,238.1191451,233.2577552,232.5009115,233.0348048,234.0329847,236.1278899,241.1738749,244.0101336,245.4000545,247.5434257,247.6632633,244.3828313,242.8820347,242.6760156,240.9439883,242.3570867,242.4808505,240.6621973,240.825725,240.3831871,239.3448835,238.7062374,239.0202817,239.4837589,239.8286737,239.3714313,239.3346242,237.4608658,234.1431842,229.7726763,235.0732448,240.0861503,240.4545153,241.6728899,244.4057054,241.87132,0,227.7408485,216.0814277,220.4390634,229.276938,233.3516641,229.3790058,224.5966544,222.8361754,222.1342149,226.3211255,228.7562344,234.2771906,237.6515223,241.2954457,243.3490486,245.1782843,246.265633,243.1496998,234.3766815,227.1897494,232.6517677,236.3509543,238.8133886,238.0451073,236.9442657,235.2907186,231.8120379,225.0208043,225.4025077,227.1613718,232.3572285,234.9563633,238.8263597,233.7800596,233.4680171,0,0,0,0,252.1666572,247.8935183,245.2012958,239.3035994,233.0410356,230.1107694,228.2446027,228.3122145,229.2094552,232.6381343,235.898222,237.0997321,240.6788226,244.3534395,246.3784054,245.3166013,244.1792901,242.8901577,241.3957884,238.2952015,234.9932118,235.7078479,236.5501323,233.941985,232.2634563,230.2454818,227.51535,228.8915305,230.6435746,235.3876415,239.3865079,239.1115723,236.3775323,234.7418295,235.082867,237.1873006,235.5048479,233.969105,233.2167419,235.6625777,235.74625,241.3267889,252.1925413,255.8439835,254.8608219,249.3773757,244.4772081,241.7053746,239.732902,240.6298306,241.0655096,240.9229534,241.5278159,241.0372386,242.5635654,243.1077149,242.6590896,241.2437658,241.0203968,241.8913806,242.2386038,246.0639405,250.1604513,250.3087843,253.5101005,248.5879938,243.9378311,242.7482512,241.0068242,239.4169432,237.9393588,240.5957781,247.1578774,267.1488815,276.3545992,280.7133518,284.6109274,279.2055514,271.3085729,257.6522799,252.1800634,259.7731903,282.0503448,194.2200065,198.0549991,194.4457386,191.5852986,190.9980723,191.5300096,192.2332198,192.2990007,190.2785095,189.8201089,191.1942827,193.1169319,193.0172528,184.4660979,179.9549528,179.5121957,179.5963906,180.2699894,180.6268745,182.0602275,184.1685671,186.6659645,190.8549114,192.5761105,192.0837125,190.3025973,189.8626069,186.8401189,182.9200089,181.5392477,183.6630358,195.1215312,193.9388496,192.5332383,192.8591882,194.0105333,194.6067469,194.8124874,194.3487419,193.850542,192.744299,192.2495535,193.3896381,194.3486137,195.4058063,198.8292986,201.8386391,205.2489724,208.1665474,206.3232828,203.2321847,202.7937932,203.6281058,203.9348212,204.5121273,207.7795055,212.9538645,212.0367495,210.460239,208.9266849,206.6161952,203.7502359,200.3374806,206.4222325,210.1205218,208.4013887,207.5397355,209.1444627,208.1496263,205.5901611,205.5073718,205.8662644,207.056139,206.622498,207.1710977,207.3143468,206.8679911,206.8614119,206.865525,207.3629525,207.6832444,206.6293011,206.7671284,206.9852839,206.9555524,206.5845049,208.189886,208.3658709,206.8167079,206.2902363,206.2425044,204.8143916,206.1677486,202.9829119,198.0484978,195.0399486,193.3770535,193.4715563,194.2603605,195.7919542,196.8121998,199.6245142,200.5088804,200.3619845,201.8778698,204.0113885,205.487305,205.9691676,205.1590521,203.8062655,202.2863684,200.8590555,202.1781005,205.9101874,207.0848951,208.6321302,208.5015952,207.2493274,206.1263413,208.4493569,208.332072,208.0202065,211.7150049,211.1034311,209.4250942,207.6977075,205.3274565,204.5037887,202.3493744,0,0,0,0,0,0,0,0,0,0,0,0,0,0,0,0,0,278.2287681,281.6252691],
	"score": [0.7349141761,0.7257580962,0.2656883857,0.2898407843,0.2226898211,0.3832193762,0.2931042637,0.1982676123,0.2643302642,0.2067207843,0.4938561791,0.4977146851,0.4643056823,0.2029096635,0.1239342913,0.2105176271,0.2903862405,0.2487013956,0.1996467995,0.1896157767,0.3572723151,0.5177827864,0.3723286552,0.2645031886,0.2643948795,0.4481335678,0.4466589437,0.5830057727,0.7818327108,0.8570344487,0.8928150796,0.8682308489,0.7961399404,0.8646841561,0.9269859479,0.9540724932,0.9570049701,0.9549148264,0.9407108548,0.9248248099,0.9335245498,0.9345072595,0.9411047509,0.9450055169,0.9521669624,0.9489840065,0.9550209411,0.9577708823,0.9533241981,0.9419556952,0.9104934037,0.8056853135,0.816316295,0.872337162,0.8985795513,0.9323049871,0.95059931,0.9565951515,0.9501641878,0.9375665144,0.9331597375,0.9226092448,0.931410676,0.9347056704,0.9037395625,0.8294039019,0.7642104167,0.6845675609,0.6615256418,0.6305202923,0.6193365931,0.8175561927,0.8975975113,0.9252817101,0.9211466549,0.907548207,0.9113519811,0.936430702,0.9428856481,0.9416372081,0.9214511923,0.9197389638,0.9436856932,0.936624536,0.9202274584,0.9157891978,0.9178658973,0.893157466,0.8026405779,0.6738189325,0.7399859011,0.8212978599,0.7925220889,0.8669388271,0.9016692673,0.9224860154,0.9420148856,0.9494753568,0.9540895568,0.9596125518,0.960697182,0.9575195778,0.9453038971,0.9156409416,0.8416962077,0.6710035041,0.6291696782,0.8274910901,0.8844241658,0.7117566954,0.5036593461,0.3392209143,0.4708588986,0.7431174386,0.8455884132,0.8545765012,0.8990216655,0.8632682326,0.8546506809,0.8332558315,0.8048771601,0.8554403823,0.8985400768,0.8986737194,0.9207658147,0.9388272084,0.9447095435,0.9469864835,0.9226554055,0.9137120649,0.8879043282,0.7912938667,0.709084781,0.7967716103,0.8821538048,0.9286530251,0.9446774644,0.9435773879,0.9084014843,0.8296621442,0.7249150086,0.5803958903,0.5926924482,0.4980724739,0.5129693973,0.4708258021,0.5752635702,0.3316411745,0.2484889495,0.2106421243,0.1435245799,0.4546003289,0.8010031347,0.8698771219,0.8643222997,0.8786681245,0.9024244425,0.9130668654,0.9272592821,0.925699755,0.9104619304,0.9219108382,0.922979895,0.9100601496,0.9260452055,0.9389194953,0.9393300446,0.9226339816,0.9121672842,0.8797879052,0.8806743623,0.8922800992,0.8924028036,0.8978577471,0.9231514186,0.9431504793,0.9304724518,0.8867090344,0.8658763306,0.8927715981,0.8926377776,0.9248726079,0.937327975,0.9143913891,0.8201533988,0.7726952802,0.7918846119,0.8051519535,0.8538319693,0.8937078175,0.8566133399,0.8237257053,0.7231320582,0.831462526,0.9095256865,0.9260597313,0.9295332518,0.9255558152,0.9276506186,0.9244412607,0.8860488234,0.9130199557,0.9355617196,0.9454393018,0.9485550596,0.9539219911,0.9457191432,0.9418386649,0.9518046023,0.9434756366,0.9424942394,0.9466331171,0.9371252301,0.9422370622,0.904952069,0.8639710957,0.8598474117,0.912380774,0.9434601873,0.9505600831,0.9434357199,0.9391826983,0.9170255168,0.7425993925,0.7288199217,0.8655388436,0.8881178719,0.7202139521,0.721099193,0.789275832,0.7728800353,0.6678667164,0.5326328976,0.5786343038,0.4090696989,0.6428751652,0.7413871659,0.7726907724,0.8057043163,0.8372204526,0.8654104931,0.8932225879,0.8966411459,0.8476816387,0.7562682462,0.7282701228,0.7245564898,0.6159359832,0.8143777423,0.8931945197,0.9140213719,0.9171876269,0.927536623,0.9044202947,0.9089594043,0.9219017789,0.9239317908,0.9299207355,0.9021145706,0.8308993348,0.8209955285,0.8271004825,0.8171507871,0.8274984583,0.6473009865,0.6663333521,0.808965498,0.866144125,0.8906957328,0.9176122883,0.9218589682,0.9205834908,0.9152156043,0.9008115409,0.9029519374,0.8905823468,0.8920574602,0.9253584442,0.9225231993,0.9011113617,0.8857717914,0.8833107404,0.9109717764,0.9185265534,0.9200939286,0.9159264542,0.8911841706,0.920982636,0.9248158537,0.9061419758,0.9055823368,0.9276519812,0.9375340078,0.9074207483,0.9170417988,0.9182917584,0.9216060816,0.9262987019,0.9258611891,0.9304896664,0.9356884486,0.9450370543,0.9522092718,0.949238869,0.9458427941,0.9344354284,0.8989760016,0.9038976958,0.9013148036,0.8887157639,0.9070710027,0.928782616,0.926714364,0.9198224655,0.9120948858,0.8832754791,0.8727976406,0.9109958659,0.9300382437,0.9298204486,0.9311418197,0.9378417867,0.9385804524,0.9430234361,0.9256766061,0.9105436145,0.9067447544,0.8566696559,0.8446386276,0.8228900843,0.8105324453,0.844906325,0.8383782888,0.7913454141,0.7746385745,0.673754408,0.7649099432,0.8557392026,0.8943459368,0.9138030819,0.9315035415,0.9154727332,0.8765165762,0.8744412599,0.8559945348,0.8312284592,0.8188639256,0.7978484083,0.8399959807,0.8489138812,0.8947784475,0.9076746208,0.910086013,0.9132624699,0.8927480318,0.8736674812,0.8479962033,0.8600472177,0.8900630485,0.8627088703,0.7751219935,0.6747928093,0.3399670113,0.2474176689,0.06185441723,0.01546360431,0.003865901077,0.0009664752693,0.0002416188173,6.040470433e-05,1.510117608e-05,3.775294021e-06,9.438235051e-07,2.359558763e-07,5.898896907e-08,1.474724227e-08,3.686810567e-09,0.3349833399,0.08374583497,0.02093645874,0.5139704025,0.6709186279]
}
