{
    "DU": 206,
    "DV": 140,
    "F-measure": 0.6379928315412187,
    "F-measure Chroma": 0.7491039426523297,
    "FN": 114,
    "FNC": 48,
    "FNCch": 83,
    "FNI": 66,
    "FNIch": 31,
    "FP": 20,
    "GU": 112,
    "GV": 234,
    "Overall Accuracy": 0.5144508670520231,
    "Overall Chroma Accuracy": 0.6040462427745664,
    "Precision": 0.7672413793103449,
    "Precision Chroma": 0.9008620689655172,
    "Raw Chroma Accuracy": 0.8547008547008547,
    "Raw Pitch Accuracy": 0.5726495726495726,
    "Recall": 0.5460122699386503,
    "Recall Chroma": 0.6411042944785276,
    "TN": 92,
    "TO": 346,
    "TP": 120,
    "TPC": 86,
    "TPCch": 117,
    "TPI": 34,
    "TPIch": 3,
    "Voiced Chroma Accuracy": 0.5,
    "Voiced Pitch Accuracy": 0.36752136752136755,
    "Voicing Accuracy": 0.6127167630057804,
    "Voicing Detection": 0.5128205128205128,
    "Voicing False Alarm": 0.17857142857142858
}