{
	"f0": [NaN,51.65016382,42.27947291,42.60986376,51.94959549,42.66300723,51.68548289,51.78867292,42.27636681,42.4556858,51.75323708,51.83909343,45.01831518,48.91732291,49.21841468,42.31669868,42.5966779,42.52089065,52.01414075,51.75659105,48.91732291,49.02643562,51.50397643,51.87938161,52.55802863,52.37482755,51.25602188,51.62600056,51.85179216,49.68033831,49.68010446,51.42093718,42.42191595,42.40993668,43.33213606,44.55578353,44.80713601,51.62056749,51.97463438,49.21841468,51.76189154,52.60278167,52.4534859,49.08776518,49.65441956,50.96893617,49.51550232,63.14301631,72.34032742,73.30118871,51.60946166,57.77360909,72.85395094,57.89870227,63.28007672,72.25969772,71.78177077,72.10562507,72.56263623,72.14930471,72.05775736,72.5213158,72.52939846,72.93369401,63.4321566,72.33040771,67.8453232,72.20883337,72.33390412,63.64236961,76.93035138,56.85122164,56.75584724,52.30714467,53.11955917,56.70462096,71.90263419,56.86307807,56.50117097,55.93362325,55.44814387,55.55885434,55.6995547,55.81997426,56.10847595,56.34257782,56.54342644,56.51087745,56.29184387,56.10127625,55.75323237,55.59545981,55.64547937,56.02197489,56.14847796,71.82529737,72.07829938,57.56061663,70.49189262,55.38187051,55.28303328,55.41311785,56.00700988,56.45741239,56.52078863,68.63393379,68.49131497,56.0384018,56.02874631,56.23683321,56.2450862,73.25734628,72.06002918,56.69965447,55.63094155,55.59783463,55.68966898,56.13902534,74.76065864,74.80781824,75.62206593,71.79896234,57.91080137,56.69965447,56.03351385,55.76198435,56.01165637,55.25823076,70.63895562,74.15444483,56.6081894,56.05565203,55.63593258,55.50911028,55.48469444,36.44361397,36.34636583,76.13476835,75.48682058,56.1034997,56.25893149,55.36129021,55.48088888,55.67918719,56.23796469,73.63627818,74.6758434,75.84487931,74.80781824,72.68370988,66.78389445,56.05547331,55.37544921,71.21309485,70.62390725,70.48211857,70.43415934,70.49566229,58.00180516,58.13901268,58.55677709,58.86205809,71.81737376,71.67940567,59.11546691,57.92437732,58.3473655,58.71791548,58.98946387,59.11446493,59.16638088,59.36433828,59.43258036,59.51251749,52.77122185,68.75176468,65.6192333,60.27866715,60.00150575,60.67908061,60.98516651,61.07963966,61.25589216,61.26730296,61.0903004,60.33040771,59.71640628,58.89832245,59.48573577,60.91732291,61.33783214,61.14082432,61.21841468,60.91840199,61.21398178,73.16951725,73.03247991,60.81875769,60.68414469,60.68714984,72.71182794,63.14399075,60.78501376,60.71966721,60.13660813,60.8918616,73.88360639,74.0320531,74.21856646,74.1421166,62.15444483,62.08971821,61.89235938,61.66246389,61.77754994,61.8908121,62.24738927,70.96400703,63.89089497,64.06412105,63.99192667,63.60559136,63.36229473,63.22186332,63.26738334,63.21877934,63.21588813,63.21823432,62.76523489,62.20863045,61.99051355,61.35797632,61.13588102,61.76992363,62.19942977,62.01665498,61.89939243,61.87828174,61.77631275,61.53372057,61.30482748,61.38121468,61.53181359,61.50216345,61.56078578,61.73747935,74.15444483,61.62645926,61.86413408,61.80158914,62.87200345,62.96564791,62.8829266,72.35973719,72.20652746,75.95155697,74.20270212,72.63589766,72.67546537,72.23403297,62.72152623,60.89240818,53.48603603,53.88510545,45.88810622,54.07159335,68.72409348,70.54369598,71.21309485,55.13118106,54.34226946,46.73730892,41.5591209,53.58462188,53.50638735,53.23878285,53.13644042,53.20054681,53.47521996,65.56515146,65.7244338,53.94824774,54.46057886,54.157825,53.94106034,53.79986838,53.77769956,53.72548389,53.68200786,53.64061247,53.59170537,53.57315667,53.57276662,53.53331088,53.58105162,53.58303375,53.53072086,53.51966852,53.60550943,53.66447264,53.64759432,53.57831625,53.39222179,52.30001714,54.9224708,53.3108577,54.71262168,54.93800231,54.94696068,54.99052676,55.41838271,55.76303401,55.86224827,55.83082823,55.95342152,56.13556806,55.9498154,55.82197927,55.82643665,55.78716419,55.71293299,55.65455359,55.60124009,55.47693298,55.98868351,68.66874272,69.15456649,57.73342558,55.36461153,55.32043446,54.61031523,65.61826644,56.24262613,56.01165637,39.57359941,45.91314886,56.46727057,56.13072567,56.93520015,70.49483992,70.16481021,69.66169865,67.78826823,65.96434478,66.9224708,56.01165637,56.01165637,55.73258389,57.39620617,46.68036542,50.92259899,71.17595082,71.76273913,62.15444483,58.03722662,56.93520015,55.72454862,54.43378416,49.18315859,51.29416321,72.91732291,72.65401228,72.77215969,76.93035138,76.93035138,76.93035138,76.93035138,76.93035138,76.93035138,76.93035138,76.93035138,76.93035138,76.93035138,76.93035138,76.93035138,76.93035138,76.93035138,76.93035138,76.93035138,76.93035138,76.93035138,76.93035138,76.93035138,76.93035138,76.93035138,76.93035138,76.93035138,76.93035138,76.93035138,76.93035138,76.93035138,76.93035138,76.93035138,76.93035138,76.93035138,76.93035138,76.93035138,76.93035138,76.93035138,76.93035138,76.93035138,76.93035138,76.93035138,76.93035138,76.93035138,76.93035138,76.93035138,76.93035138,76.93035138,76.93035138,76.93035138,76.93035138,76.93035138,76.93035138,76.93035138,76.93035138,76.93035138,76.93035138,76.93035138,76.93035138,76.93035138,76.93035138,76.93035138,76.93035138,76.93035138,76.93035138,76.93035138,76.93035138,76.93035138,76.93035138,76.93035138,76.93035138,76.93035138,76.93035138,76.93035138,76.93035138,76.93035138,76.93035138,76.93035138,76.93035138,76.93035138,76.93035138,76.93035138,76.93035138,76.93035138,76.93035138,76.93035138,76.93035138,76.93035138,76.93035138,76.93035138,76.93035138,76.93035138,76.93035138,76.93035138,76.93035138,76.93035138,76.93035138,76.93035138,76.93035138,76.93035138,76.93035138,76.93035138,76.93035138,76.93035138,76.93035138,76.93035138,76.93035138,76.93035138,76.93035138,76.93035138,76.93035138,76.93035138,76.93035138,76.93035138,76.93035138,76.93035138,76.93035138,NaN,NaN],
	"ap0": [NaN,0.5791960266,0.7494847308,0.6867234856,0.6717841832,0.6478934922,0.6980914066,0.7135528833,0.6271279102,0.5363940352,0.4808520284,0.6108415653,0.7448584156,0.5687797704,0.6088135426,0.6623650447,0.8024942631,0.7973479695,0.6555196309,0.6297839893,0.5066301946,0.6117369177,0.6531800684,0.6249390538,0.6377660963,0.6318065514,0.6467473353,0.6552819521,0.6142396029,0.4209661942,0.5102632781,0.6526902117,0.5909545058,0.6040498721,0.7984576478,0.6824848647,0.727064535,0.6753855733,0.679735739,0.6595741173,0.6504878383,0.5357131761,0.6445121622,0.6852902056,0.6268620398,0.6105882001,0.7131573178,0.7468541714,0.6268139291,0.6806748466,0.5179935136,0.6660850652,0.6899110549,0.6091032686,0.4699770056,0.5138808783,0.7773298274,0.7170923562,0.6113306417,0.6205822126,0.5927853104,0.6579989852,0.8346772358,0.7132007706,0.6414206281,0.7803661439,0.7986463928,0.6180272634,0.3537261903,0.6163446948,0.5998015709,0.3937712332,0.4673926592,0.6529954134,0.5358167502,0.4801304904,0.2767645437,0.2646320889,0.2920703533,0.4249109891,0.3537972841,0.2853625308,0.1745925179,0.2320178626,0.2432736865,0.2237847098,0.2818964409,0.2986492029,0.2739238166,0.2108932851,0.1929194493,0.3132116876,0.5527382808,0.5015895795,0.5937600486,0.4677748069,0.7393324117,0.7382385422,0.6909588861,0.4907050781,0.4876249749,0.3987257552,0.2597133251,0.2196847778,0.1081759771,0.08712278393,0.1384763211,0.1021913301,0.2582757181,0.387697981,0.5478017408,0.426761645,0.5926309474,0.5158091874,0.1692442107,0.1951450199,0.3087371827,0.4843113469,0.4786917024,0.3651748058,0.5326792511,0.7763171859,0.4433029496,0.3160530202,0.2864171499,0.282313506,0.4726757548,0.3398049284,0.2503262046,0.6303035684,0.2758618971,0.3672195955,0.3621691407,0.4164061785,0.568810045,0.5866775748,0.5531646933,0.5227893509,0.6175176618,0.4742125626,0.4301944524,0.1561626617,0.08502854008,0.199156981,0.6851581762,0.3479955833,0.3676841619,0.5179452986,0.651251204,0.6752768842,1.001608876,0.295365872,0.4173408442,0.3336249375,0.1770885476,0.1513667606,0.1331146696,0.1775047317,0.05047213796,0.04806453273,0.1360192548,0.2808590645,0.2796297396,0.2481008126,0.2450441061,0.04686606449,0.09509379991,0.1261255691,0.09231154698,0.05870285657,0.07642020749,0.08380835527,0.08584976744,0.1892631608,0.5285030256,0.4734971825,0.7404117714,0.2301735004,0.2186633177,0.3772225239,0.1031603468,0.03294046459,0.03422950528,0.0398935274,0.1330177384,0.3672192128,0.3260341716,0.3403839574,0.2940146078,0.1689166988,0.08130185871,0.1407853857,0.4657723449,0.2121873884,0.1121031042,0.08017579697,0.1138991105,0.0722707325,0.04624209434,0.05407823172,0.1437507705,0.5175452103,0.04470409914,0.04772346092,0.1913846168,0.3292744692,0.1105154677,0.1731921448,0.3595852465,0.5224598296,0.4085740731,0.4555939569,0.4219563039,0.112785575,0.1403163347,0.4128909561,0.3847760969,0.653607151,0.2050292016,0.1070668285,0.09253457522,0.09556120374,0.1598563662,0.1567841986,0.1103283411,0.1400163089,0.1681823465,0.268100023,0.5448383875,0.401896189,0.4010452855,0.4276842867,0.3172063337,0.3990462346,0.4192565863,0.4565373824,0.3156897396,0.2575486722,0.1698991288,0.1593473278,0.2250176,0.2610112889,0.3770921879,0.6185222661,0.5621725605,0.5256725999,0.4751110292,0.3776962239,0.4625980617,0.3469537758,0.3029343506,0.3384053879,0.5961417555,0.6924342698,0.6422373243,0.6908374895,0.6747636048,0.7047302976,0.5994546629,0.6354931102,0.7563372168,0.6506356091,0.7870115358,0.6304057407,0.7702378834,0.8087664787,0.7669234452,0.1493511041,0.651728589,0.5079525948,0.422137415,0.4659192281,0.5604732408,0.3866108697,0.3503217668,0.3562492104,0.3722294519,0.42521972,0.2016811436,0.09254362834,0.08085430793,0.1288672502,0.3006949815,0.2689912467,0.1699714436,0.1213748468,0.09350882437,0.08764618952,0.09880955395,0.1255916831,0.1499525228,0.179890196,0.1292158328,0.08816906982,0.07347538974,0.05198393093,0.04337022631,0.02887142286,0.01758172573,0.01114054608,0.019070172,0.05221187619,0.1824620253,0.6874645824,0.6223020935,0.5369948732,0.402942778,0.2654832833,0.1931240588,0.1661286556,0.1051678037,0.04382498056,0.04230861317,0.049679672,0.06106571883,0.03664824711,0.01921750287,0.01804569213,0.01974089683,0.01490629693,0.009482663793,0.01409983877,0.02538930562,0.1482755124,0.3458844593,0.3306058124,0.4854478709,0.3394850075,0.3372414316,0.3447081649,0.6558092473,0.5259729559,0.5228342696,0.6473853512,0.5263637335,0.5899221349,0.3732360117,0.2002480007,0.4467463444,0.4106858706,0.2823045355,0.4482501536,0.5756113686,0.5412828409,0.8092861574,0.3788349137,0.1935384567,0.2611893307,0.6158697344,0.5787210417,0.6630227868,0.3292575781,0.2682346705,0.7294082221,0.3169554332,0.4121170043,0.3242764105,0.6622131671,0.6524147289,0.8079708639,0.6010541686,0.5264866247,0.2285330533,1,1,1,1,1,1,1,1,1,1,1,1,1,1,1,1,1,1,1,1,1,1,1,1,1,1,1,1,1,1,1,1,1,1,1,1,1,1,1,1,1,1,1,1,1,1,1,1,1,1,1,1,1,1,1,1,1,1,1,1,1,1,1,1,1,1,1,1,1,1,1,1,1,1,1,1,1,1,1,1,1,1,1,1,1,1,1,1,1,1,1,1,1,1,1,1,1,1,1,1,1,1,1,1,1,1,1,1,1,1,1,1,1,1,1,NaN,NaN],
	"ap": [NaN,0.2151393597,0.3666604807,0.255396132,0.2615336594,0.3252005683,0.3947621405,0.269413444,0.3853314327,0.2544770449,0.3284736552,0.3125525246,0.3115665393,0.4732883208,0.3592616265,0.5984586439,0.3979556539,0.5647964109,0.3611239597,0.3547981612,0.3329157303,0.3213673072,0.1856190876,0.4209375387,0.4434346977,0.5273926949,0.4259581642,0.1753970604,0.3430687873,0.4064768073,0.2942548895,0.3212508457,0.3590665677,0.200948823,0.2798288044,0.4812964443,0.4654982277,0.5251306306,0.5223241585,0.3939112401,0.4819648128,0.727917545,0.3535618101,0.4016125592,0.2832652425,0.408944992,0.1520005473,0.6141990501,0.727143069,0.4684759692,0.4571184453,0.3985156902,0.2628239984,0.3681017609,0.4337255074,0.5343281928,0.1638042713,0.7782122646,0.3165370143,0.2289642592,0.3097024765,0.545677169,0.4563806623,0.2935888207,0.4231779297,0.5180497448,0.5342717325,0.4354922929,0.1586724551,0.2939447311,0.4159189229,0.6455335569,0.318716678,0.5448913567,0.4657307197,0.3274084569,0.3627890519,0.3261374692,0.2775414673,0.2760491616,0.2544338675,0.1850375865,0.06226982591,0.06476668849,0.2107147298,0.1497803794,0.1358096552,0.1558521675,0.2447872364,0.1143973337,0.1021268233,0.1516122484,0.1775984779,0.5827015254,0.3423435088,0.228840977,0.2130878774,0.5339431684,0.6545601752,0.276884228,0.347470803,0.2115492298,0.3220729016,0.2230963249,0.04551687221,0.4033552313,0.03230942842,0.07409252604,0.03247555722,0.0731661809,0.2132371587,0.1637348501,0.4699567828,0.1649932809,0.2809467109,0.1604791558,0.1092915044,0.2345635166,0.5572763166,0.2532750587,0.5152159408,0.2383191599,0.4995137865,0.4586248195,0.1811767457,0.07530117175,0.1218240051,0.3273636069,0.6855998909,0.7145127683,0.3723738063,0.1580435967,0.1537713652,0.1135607872,0.1592258194,0.3536386733,0.2783068393,0.091300761,0.1087134348,0.2833629962,0.3935777259,0.1554312464,0.1414774522,0.01709100284,0.07990893074,0.947092855,0.230712764,0.1534707467,0.09420118371,0.4891280826,0.629330554,0.224076251,0.2083761339,0.7075772815,0.2580238018,0.1288683201,0.1185171187,0.212033319,0.1066700125,0.05197785204,0.07210834219,0.1771608169,0.07363973083,0.3713175889,0.1065054342,0.1227094565,0.02246619585,0.06055625674,0.1172880085,0.03305157483,0.01202588065,0.08125151359,0.06246242783,0.02284278071,0.219407495,0.1184531239,0.1542490533,0.5587640895,0.09451952322,0.06525320067,0.1024549792,0.3191099279,0.005230404622,0.04997195644,0.0111035515,0.06325819491,0.1840084525,0.1200540039,0.2112148401,0.3414130858,0.1026825705,0.02834579837,0.03323912205,0.11377154,0.4806087801,0.4663904306,0.02647566162,0.03520990344,0.01856197843,0.0459147307,0.02704800338,0.7128060861,0.08480337334,0.03701510745,0.05051312088,0.01103878985,0.4113491025,0.03213472217,0.0171651766,0.08175711518,0.1881806662,0.2207054437,0.1952359894,0.3485663993,0.04256963231,0.0748898918,0.153608028,0.2491477838,0.236837644,0.4559456965,0.04650275093,0.0236271266,0.02521241683,0.09207879781,0.09576666049,0.06062477908,0.02380485867,0.01444891133,0.09962343492,0.1927520927,0.1443871412,0.2704895744,0.1278929544,0.2295490797,0.08035478489,0.05489843958,0.2868474603,0.3133908613,0.1402617079,0.08595689512,0.07023500771,0.08852802125,0.1239639353,0.1741148853,0.2717641429,0.3185299587,0.8650672348,0.2714485761,0.1358765137,0.1820928749,0.1291506206,0.1581476914,0.1183170133,0.6673427117,0.2860849397,0.642602341,0.5211730983,0.4632994564,0.540475834,0.4081282192,0.4425792794,0.622848504,0.5768430952,0.2003889201,0.3647110658,0.3026394803,0.5355700162,0.3192621101,0.5525811283,0.8046274556,0.2525918205,0.2183140093,0.2044235895,0.3169419841,0.1512976538,0.2080252077,0.1759177959,0.23520507,0.3551370562,0.7501652328,0.08580969513,0.03845430783,0.0742458929,0.1978525996,0.3167772721,0.1286421818,0.04963017441,0.06610793188,0.03831899933,0.03259594438,0.05288389262,0.0693642846,0.1292449701,0.05950790332,0.05419757292,0.06441505864,0.02597352167,0.01736513338,0.01581442808,0.01696174654,0.003274819938,0.003165117097,0.0378380805,0.3767057481,0.7979955732,0.6218738693,0.2502183575,0.8481192699,0.2923605886,0.1590273949,0.1080358945,0.1719062633,0.02353118229,0.03155774226,0.007841256456,0.05298759536,0.01662683322,0.01450811601,0.01007305361,0.004672333016,0.009870293755,0.004303831264,0.004558410448,0.02335131485,0.05185914958,0.5125510481,0.6048246658,0.05551513405,0.3392755311,0.06239633961,0.3916687031,0.2484681429,0.1510819782,0.3765073634,0.1749090079,0.1925104372,0.614048611,0.1801041756,0.07352039047,0.8866902454,0.656698219,0.07126345274,0.5340604499,0.3130724974,0.448974022,0.2170491993,0.3873775599,0.06373850926,0.6788198153,0.1423790067,0.246924271,0.4693820398,0.2559107632,0.8866704773,0.349669316,0.1235524638,0.1827520845,0.17334154,0.5349090368,0.5182275022,0.5000007278,0.4846409652,0.5000001942,1,1,1,1,1,1,1,1,1,1,1,1,1,1,1,1,1,1,1,1,1,1,1,1,1,1,1,1,1,1,1,1,1,1,1,1,1,1,1,1,1,1,1,1,1,1,1,1,1,1,1,1,1,1,1,1,1,1,1,1,1,1,1,1,1,1,1,1,1,1,1,1,1,1,1,1,1,1,1,1,1,1,1,1,1,1,1,1,1,1,1,1,1,1,1,1,1,1,1,1,1,1,1,1,1,1,1,1,1,1,1,1,1,1,1,NaN,NaN],
	"pwr": [NaN,1.436347534e-07,1.492639035e-07,1.259402438e-07,7.11297093e-08,6.402115652e-08,7.009859698e-08,1.482866738e-07,1.786927822e-07,1.150359595e-07,1.018367929e-07,2.466651551e-08,1.269589562e-07,1.155025655e-07,5.200599206e-08,9.263207389e-08,7.426724804e-08,1.115735939e-07,1.1738925e-07,8.57747743e-08,5.090159589e-08,1.092650038e-07,3.34781544e-07,1.018006234e-07,1.340373816e-07,1.940520872e-07,1.63149746e-07,1.951904357e-07,6.483495611e-08,7.130200011e-08,8.001088727e-08,2.156630388e-07,2.495486976e-07,1.562126492e-07,8.353999477e-08,6.789528546e-08,5.705082033e-08,2.852676702e-07,7.568065461e-08,1.273185358e-07,9.804936016e-08,5.961943106e-08,2.008093686e-07,3.569602445e-07,2.027549133e-07,1.432593486e-07,1.745050188e-07,1.158762231e-07,2.987090532e-07,4.638310473e-07,2.216936868e-07,3.560976577e-07,3.861530112e-07,6.910050936e-07,8.828028196e-07,3.058272728e-06,3.885103534e-06,2.20686436e-06,8.123943724e-06,1.443972691e-05,7.129062304e-06,1.455072565e-05,1.453596192e-05,8.063541929e-06,3.360865329e-06,7.674713076e-06,9.45846979e-06,9.126781636e-06,9.404778453e-06,1.380345362e-06,1.374950997e-06,3.60984172e-06,5.147463955e-06,2.850287858e-06,7.842753113e-07,1.753983158e-06,1.873740206e-06,1.017194734e-05,0.004175796005,0.01693451381,0.007360203613,0.003457146753,0.002852247189,0.002920042266,0.005259929835,0.004129250154,0.003855209207,0.00333235343,0.001882158167,0.002332520688,0.001779726805,0.001576178509,0.002050812534,0.001642649826,0.0003524705365,0.0002755117561,0.0001027769486,1.941299621e-05,6.728829355e-05,9.89051639e-06,3.364815696e-05,7.739864279e-05,8.358646562e-05,5.975823917e-05,0.0008532145413,0.0008503026101,0.0138349676,0.03775980547,0.009578548494,0.003649968289,0.001647651114,0.00329245392,0.0004719737696,0.001493747109,0.001798438272,0.001729664417,0.003762221691,0.003505486996,0.002104388305,0.004432182387,3.496893935e-05,2.198599831e-05,3.371752994e-05,9.968563776e-05,0.0001605130973,9.00771572e-05,8.358980012e-05,1.834074204e-05,2.036075125e-05,0.000171706503,0.00235955171,0.01753835304,0.003918838002,0.004058250649,0.004937979391,0.00345482997,0.001933416395,0.001087220319,0.004100094663,0.002458795063,0.00096842212,0.001113939127,0.0009784183182,0.001202115191,0.0004344906292,1.747392893e-05,0.0001328534413,4.466046858e-05,3.08089209e-05,1.479827264e-05,1.472717486e-05,7.394847911e-06,8.015073565e-06,7.743913739e-05,0.0006009227035,0.00787451401,0.06519699639,0.02938690422,0.02190571173,0.006141375135,0.02727961933,0.004795118839,0.01489132735,0.007651167497,0.008223889173,0.0008855686752,0.0009183972673,0.001597985464,0.005318163343,0.01222301547,0.008107172503,0.006360266754,0.01058312065,0.005750200269,0.004182915565,0.001766510687,0.0007296891085,9.66618291e-05,2.880635549e-05,0.000139043271,0.002090719198,0.0003683456799,0.005215813424,0.004809903885,0.004282400363,0.00126525989,0.0005093692777,0.001725053043,0.0002527998849,0.0001340100787,0.0001029439802,8.237568193e-05,0.0004334926846,0.0009351098986,0.001374278956,0.004020265278,0.06737904103,0.02345470113,0.01822280776,0.009109020957,0.1044916113,0.06135001772,0.001656468666,0.002969616052,0.002451093494,0.001961717899,0.004557890531,0.01104811024,0.07647449423,0.02506846579,0.02007296554,0.001058395859,0.001941947142,0.0001732945225,0.0001222269704,0.0003470938443,0.0001386560805,5.902290114e-05,0.0003037522678,0.003106715319,0.07164556425,0.06109377207,0.03337600204,0.01519839673,0.0169838051,0.01867292661,0.0234469207,0.01767240583,0.0170217058,0.005673919915,0.007795323426,0.02061967694,0.007506305955,0.01139392834,0.003544636659,0.006860541383,0.002600442549,0.0007114811287,0.003121136622,0.002935610175,0.001766081656,0.001291024905,0.0005459188757,0.0001670999743,0.0001589795649,9.305298706e-05,0.0002235464916,8.617187809e-05,5.618244493e-05,4.957947981e-05,6.385439496e-05,8.894446534e-05,6.683264643e-05,3.064469612e-05,1.861553814e-05,1.160257446e-05,6.055806276e-06,8.700366841e-06,7.028694291e-06,3.268814583e-06,5.944249234e-06,6.894257964e-06,3.551370143e-06,2.380088888e-06,7.741513724e-07,3.697097427e-06,3.310114827e-06,7.232239124e-06,2.574531936e-05,0.0009671940562,0.00311762583,0.001398155383,0.0009085207401,0.0002395188989,0.0002965471975,0.0005396185499,0.0005245251581,0.0002436494434,9.254694345e-05,1.356262875e-05,0.0005093463251,0.001434102527,0.002020208995,0.001986870908,0.002908415592,0.006197522843,0.002780338854,0.003353975291,0.00235859857,0.001384422773,0.001224618266,0.001092095803,0.0006760850913,0.0007322629921,0.0006785579033,0.00136318583,0.001361518795,0.00120382627,0.001061847467,0.001727463463,0.002838091825,0.002256258717,0.001291324996,0.000235270886,7.792010906e-05,1.513122827e-05,0.0002615547919,0.0001374607292,0.0001940699003,0.0001450757081,0.0006900458808,0.0005093549918,0.002130341067,0.003893248866,0.003499987652,0.00201192774,0.001497831252,0.00262353973,0.003060169071,0.002299924283,0.001913288196,0.002276974278,0.001453956082,0.0007359662353,0.0004031816694,7.646738001e-05,4.385392566e-05,0.002530769733,0.0005053684917,0.0002501751695,0.0005548769171,3.500990288e-05,1.005443033e-05,4.78294542e-06,0.0001313428376,7.540485662e-05,9.682986109e-05,7.959269065e-05,3.622683269e-05,7.565585413e-06,7.14212871e-07,1.707669747e-06,5.740514144e-07,6.817871178e-07,8.772320409e-08,1.990251461e-06,2.401625411e-07,2.698142e-06,3.626369996e-07,1.51116789e-07,6.554276995e-08,8.518034989e-09,1.674878501e-09,6.424401093e-09,3.38076256e-08,2.034158408e-08,3.085912629e-08,3.531590374e-09,1.350176592e-09,3.197515256e-10,7.62721074e-11,4.665398935e-10,0,0,0,0,0,0,0,0,0,0,0,0,0,0,0,0,0,0,0,0,0,0,0,0,0,0,0,0,0,0,0,0,0,0,0,0,0,0,0,0,0,0,0,0,0,0,0,0,0,0,0,0,0,0,0,0,0,0,0,0,0,0,0,0,0,0,0,0,0,0,0,0,0,0,0,0,0,0,0,0,0,0,0,0,0,0,0,0,0,0,0,0,0,0,0,0,0,0,0,0,0,0,0,0,0,0,0,0,0,0,0,0,0,0,0,0,NaN,NaN],
	"sr": 16000,
	"range": [1,153600],
	"minf0": 63.1883,
	"maxf0": 706.3069,
	"thresh": 0.1,
	"relflag": 1,
	"hop": 320,
	"bufsize": 10000,
	"wsize": 640,
	"lpf": 4000,
	"shift": 0,
	"plotthreshold": 0.2
}
