{
    "DU": 66,
    "DV": 315,
    "F-measure": 0.5440251572327044,
    "F-measure Chroma": 0.6981132075471699,
    "FN": 4,
    "FNC": 0,
    "FNCch": 3,
    "FNI": 4,
    "FNIch": 1,
    "FP": 122,
    "GU": 184,
    "GV": 197,
    "Overall Accuracy": 0.4540682414698163,
    "Overall Chroma Accuracy": 0.5826771653543307,
    "Precision": 0.4588859416445623,
    "Precision Chroma": 0.5888594164456233,
    "Raw Chroma Accuracy": 0.8274111675126904,
    "Raw Pitch Accuracy": 0.5634517766497462,
    "Recall": 0.667953667953668,
    "Recall Chroma": 0.8571428571428571,
    "TN": 62,
    "TO": 381,
    "TP": 193,
    "TPC": 111,
    "TPCch": 160,
    "TPI": 82,
    "TPIch": 33,
    "Voiced Chroma Accuracy": 0.8121827411167513,
    "Voiced Pitch Accuracy": 0.5634517766497462,
    "Voicing Accuracy": 0.6692913385826772,
    "Voicing Detection": 0.9796954314720813,
    "Voicing False Alarm": 0.6630434782608695
}