{
    "f0": [
        0.0,
        0.0,
        0.0,
        0.0,
        0.0,
        0.0,
        0.0,
        0.0,
        0.0,
        0.0,
        0.0,
        0.0,
        0.0,
        0.0,
        0.0,
        0.0,
        50.785726749237512,
        49.460349037367237,
        38.443928408176362,
        48.693927159826309,
        48.344175106486141,
        0.0,
        0.0,
        0.0,
        42.64323200366286,
        48.960305473864629,
        49.303134536731648,
        49.129144514849585,
        46.321017576428147,
        45.949563401551146,
        44.621795008370611,
        43.079498344205106,
        43.055705779102503,
        42.128585575249737,
        41.686867206285065,
        40.485050678860745,
        49.474022751717577,
        47.841052354821684,
        49.408982642216309,
        49.14565867270764,
        47.066174222750597,
        44.175049040906039,
        36.327569721454879,
        57.842864986648621,
        35.590119353763285,
        45.917710923800264,
        55.805885363469486,
        56.057135505624586,
        55.955032974031234,
        56.000457555648453,
        56.176147107784757,
        56.457916185097631,
        56.361825074669817,
        58.570731335626554,
        57.479134697192819,
        58.004277774768056,
        58.021834985680279,
        57.873706899045544,
        57.724295922945458,
        57.916417244646965,
        58.018423011567975,
        57.989636706929943,
        57.958877001667503,
        58.101296031128619,
        57.851195958738927,
        58.131105513657658,
        58.038626949233347,
        58.010494976109641,
        57.77587874014722,
        57.642994522479846,
        57.509082507986513,
        57.276333219410063,
        57.267138048926221,
        57.317148405999383,
        57.80164763948936,
        57.822124310071302,
        57.719434489702699,
        57.829492326937469,
        57.966600462715988,
        57.914878570514389,
        57.730866515364681,
        57.784044581551129,
        58.150326825408094,
        59.365077412148764,
        59.754795738192371,
        59.97718876612808,
        58.653497898184888,
        56.870400527247931,
        54.355020725631462,
        50.506558720070231,
        50.688015531160659,
        50.8675901397228,
        50.695562706739452,
        51.424096574209329,
        46.879283728449543,
        46.630215316829343,
        46.690579064926482,
        58.168289925248679,
        58.08732323967439,
        58.114479569466418,
        58.294767441783705,
        58.397565266585993,
        58.436505577159828,
        58.457939728736406,
        58.314053958025518,
        58.394082578536597,
        58.370321677340982,
        58.532865880779731,
        58.693899295588281,
        58.679456417374588,
        58.112635257627019,
        57.986778708250192,
        58.964534727022055,
        59.100524923010958,
        59.765725702402605,
        59.978838680395086,
        59.513824640676319,
        59.167966315850755,
        58.920088576404844,
        58.958234826248244,
        59.521755664012083,
        59.640932269981775,
        60.651445726398023,
        57.742281874829445,
        58.522224240996934,
        58.793374876896323,
        58.407911917486445,
        57.851873794120579,
        57.533464108566065,
        59.372273867102891,
        59.736210510759364,
        59.573629203569048,
        59.409509748503559,
        59.639963244335789,
        59.723458333154994,
        59.171597615834855,
        59.129742657186995,
        60.391282495150207,
        60.336644824899032,
        60.100292913741846,
        59.971139679128342,
        59.841015624385172,
        59.856084520400039,
        59.839464593885658,
        59.670923072874288,
        59.577593360539908,
        59.483756762806223,
        59.90114352438777,
        60.022682313234739,
        59.758660322080068,
        59.475558534737559,
        59.02137850230632,
        58.554961620720441,
        58.075630050939182,
        58.318800131758223,
        58.489959221941874,
        58.343702881708531,
        58.03050678600917,
        59.706690006748474,
        59.323177948030015,
        58.93098045844124,
        59.041418106909106,
        59.605261492349314,
        59.758809822744709,
        59.932664045963392,
        59.920080140559314,
        60.04790781889298,
        59.975087683911092,
        59.9100003466366,
        59.840632487895157,
        59.743315749631527,
        58.597363824699819,
        58.619563350393967,
        57.761312075002905,
        57.316778152965654,
        57.338292997572367,
        57.414587835275711,
        57.635555941590809,
        57.682209668882621,
        57.739697924244197,
        57.826395973579146,
        57.898041327048254,
        57.762619730495594,
        57.822470104159521,
        57.882113160390567,
        58.113817546548013,
        58.033090621253869,
        57.970846898053082,
        57.883307856990129,
        58.012686575253333,
        57.932874777687331,
        57.942025653171953,
        57.786519729232971,
        57.629606675145318,
        57.471256023274591,
        57.483705480389602,
        57.496146067891992,
        56.620570169606708,
        56.259397389075289,
        56.117966654608828,
        56.065362569012812,
        55.956932086099215,
        55.845597694310172,
        56.246391521957108,
        56.212456630536501,
        56.62519672283112,
        56.900556859621744,
        57.171605836868707,
        57.438479948135537,
        57.527309659309594,
        57.727987354379749,
        57.870943889661405,
        57.695936465886774,
        57.758216156135489,
        57.820276055630842,
        57.882113160390567,
        57.769735214548156,
        57.468917670338342,
        56.908809321531393,
        56.152123612580965,
        55.796983119310397,
        55.614261364126115,
        55.338929271800808,
        55.617014983005959,
        55.533228978926594,
        55.500428252694817,
        55.467569217649533,
        55.405554443258367,
        55.447006339863457,
        55.440757167713684,
        55.432079177638045,
        55.596872501186695,
        55.673045482684778,
        55.87776949241119,
        55.842531045898866,
        55.628476030970532,
        55.502468155683935,
        55.502160550991562,
        55.610916674896004,
        55.718097833556385,
        55.41371931377985,
        55.564678806421995,
        55.565818926563956,
        55.840882538910932,
        56.044208922255685,
        55.973442094706684,
        55.781092337625452,
        55.749668230195866,
        55.97951730528726,
        56.194191889267728,
        56.406235839139761,
        55.908993994687648,
        55.617662684286593,
        58.834960248203316,
        58.075356943983266,
        57.087555567702722,
        55.793176594895115,
        55.709394837524698,
        55.821540131387387,
        55.7794521557134,
        55.737260340989216,
        56.037792089740798,
        56.715348336342565,
        58.029090261609205,
        58.417633855607036,
        41.633196813186984,
        46.406997448921615,
        44.123056628226223,
        0.0,
        52.528542732146647,
        48.893223876143395,
        56.004055995026093,
        55.476735576496154,
        53.669381205812456,
        53.381036228344669,
        53.744947348047091,
        53.613797761416237,
        53.234150033589771,
        53.145251116972119,
        50.747723654413491,
        49.182363388796219,
        46.722113992192661,
        43.230975140367264,
        40.1233258101716,
        41.647621350229059,
        37.886086868388531,
        42.414902997712801,
        41.882093694615882,
        44.781670025986145,
        39.221926818374918,
        39.74646343745971,
        47.587449770841083,
        50.965087195511558,
        51.380418639493442,
        51.422124596361172,
        50.408433546359859,
        51.0109493999243,
        50.070045936501671,
        51.137260184855023,
        47.238102809670025,
        47.485586486694437,
        55.586363781553821,
        56.023334212161366,
        56.086174084864524,
        56.156769887147512,
        55.516381187607394,
        55.707998828407355,
        55.613046420600398,
        55.19242136195443,
        55.246176344208372,
        55.167057673885722,
        54.849561470418777,
        54.526132205479875,
        54.539376629588077,
        54.648537964296217,
        55.221148175855518,
        55.55221851111331,
        55.642175175233973,
        55.848915352074229,
        56.053215789207286,
        56.148651706220207,
        56.170732604137271,
        56.192785457453894,
        56.21480893757942,
        56.236806986065609,
        56.258775803886579,
        56.058752083399725,
        55.592016207944184,
        54.360747160035281,
        53.617171844275205,
        54.656865603519407,
        55.637643342792757,
        55.503823181523956,
        55.637730350707464,
        52.955600364193621,
        53.33391670857074,
        53.422486454691565,
        53.301533324906842,
        53.519873106443413,
        53.937126163056973,
        54.072390453547882,
        54.271884229985687,
        54.609128016165485,
        54.939930385156721,
        54.811100290643694,
        54.789643963733866,
        54.768161101099352,
        54.816448971792596,
        55.136764667229208,
        54.430154961742709,
        54.410787039180114,
        54.880731203005553,
        58.221770166032996,
        58.964800553910386,
        57.368806150153681,
        55.610599224089739,
        54.90941181327716,
        52.668216680683386,
        50.458087835712746,
        53.333315678956907,
        53.322128635653179,
        53.429427017680354,
        53.3684790086307,
        53.307315674141385,
        53.373512207413611,
        54.03117349612311,
        54.210653738847284,
        54.614517415031621,
        54.898980235175912,
        54.854426637395889,
        54.809759423862978,
        54.764976756733233,
        54.884343476673621,
        54.652238840767993,
        54.581966798345945,
        54.771607103586391,
        55.021922254169453,
        54.531048991232268,
        54.401920204453006,
        53.19538450512276,
        52.998545094422127,
        53.096431405762637,
        52.747164399626577,
        52.754029522240302,
        52.644612196013171,
        52.708280946223965,
        52.875219604973225,
        52.815383583557676,
        52.801327243029462,
        52.829115317545828,
        52.732341170594836,
        52.509692096983024,
        52.511726051305423,
        52.577599086530199,
        52.783711965441263,
        52.747141361094776,
        52.772781672151481,
        52.766468360892702,
        52.739834185246742,
        52.794834414520253,
        52.731847978794434,
        52.725415060255379,
        52.718586243869588,
        52.784032114850824,
        52.759655621360935,
        52.754667897020553,
        52.75600581316283,
        53.268429348883274,
        53.345705604319207,
        52.745183979989072,
        52.377797820572582,
        51.295722560531033,
        0.0,
        0.0,
        0.0,
        73.900159541423335,
        73.900159541423335,
        0.0,
        0.0,
        0.0,
        58.473733056480938,
        48.105955911555839,
        47.931962596525025,
        59.991959778620767,
        47.864980690936903,
        47.78900817293011,
        47.712698772903053,
        47.636049363805299,
        47.636734050996303,
        47.831615680965903,
        47.754582710357781,
        47.83389125130703,
        47.459697410062311,
        46.954500500880499,
        46.260121613115921,
        45.627654348280259,
        44.217316697426043,
        43.55846803946465,
        41.37989376946809,
        39.963297064038443,
        39.223497674726438,
        39.389514774104441,
        58.738046209530374,
        51.427004391859967,
        38.79807872494699,
        51.068755990011859,
        55.033151788986991,
        44.884647028911971,
        51.430806219244047,
        51.536450395157885,
        51.46745628522963,
        51.303211333705704,
        51.357666692394226,
        50.847069723624934,
        50.964724664272396,
        51.220842033487521,
        50.698021795206273,
        50.762251458425339,
        51.054285207729748,
        51.401969484807253,
        51.320693197765479,
        51.392161097343021,
        51.686974549138753,
        52.039509385110875,
        51.82700656826696,
        53.20089596031977,
        53.468635567514305,
        53.707220068655054,
        53.780941150123745,
        54.107266379743251,
        54.129882351919264,
        54.301750483924245,
        54.398177951722914,
        55.209783055369336,
        55.296785514119648,
        56.408186662771655,
        57.986420273060617,
        58.482487903764834,
        58.905996781807055,
        58.460088650238312,
        58.251985162380777,
        52.014464469995815,
        54.690084093884352,
        54.744936365295466,
        54.799616732366189,
        54.504366816881259,
        54.665623474590916,
        55.467697750751071,
        54.867980528949474,
        55.501995549067587,
        55.30382322716283,
        55.40662209059083,
        0.0,
        0.0,
        46.481661234334183,
        0.0,
        0.0,
        0.0,
        0.0,
        0.0,
        0.0,
        0.0,
        0.0,
        0.0,
        0.0,
        0.0,
        0.0,
        0.0,
        0.0,
        0.0,
        0.0,
        0.0,
        0.0,
        0.0,
        0.0,
        0.0,
        0.0,
        0.0,
        0.0,
        0.0,
        0.0,
        0.0,
        0.0,
        0.0,
        0.0,
        0.0,
        0.0,
        0.0,
        0.0,
        0.0,
        0.0,
        0.0,
        0.0,
        0.0,
        0.0,
        0.0,
        0.0,
        0.0,
        0.0,
        0.0,
        0.0,
        0.0,
        0.0,
        0.0,
        0.0,
        0.0,
        0.0,
        0.0,
        0.0,
        0.0,
        0.0,
        0.0,
        0.0,
        0.0,
        0.0,
        0.0,
        0.0,
        0.0,
        0.0,
        0.0,
        0.0,
        0.0,
        0.0,
        0.0,
        0.0,
        0.0,
        0.0,
        0.0,
        0.0,
        0.0,
        0.0,
        0.0,
        0.0,
        0.0,
        0.0,
        0.0,
        0.0,
        0.0,
        0.0,
        0.0,
        0.0,
        0.0,
        0.0,
        0.0,
        0.0,
        0.0,
        0.0,
        0.0,
        0.0,
        0.0,
        0.0,
        0.0,
        0.0,
        0.0,
        0.0,
        0.0,
        0.0,
        0.0,
        0.0,
        0.0,
        0.0,
        0.0,
        0.0,
        0.0,
        0.0,
        0.0,
        0.0,
        0.0,
        0.0,
        0.0,
        0.0,
        0.0,
        0.0,
        0.0,
        0.0,
        0.0,
        0.0,
        0.0,
        0.0,
        0.0,
        0.0,
        0.0,
        0.0,
        0.0,
        0.0,
        0.0,
        0.0,
        0.0
    ],
    "time": [
        0.02,
        0.040000000000000001,
        0.059999999999999998,
        0.080000000000000002,
        0.10000000000000001,
        0.12,
        0.14000000000000001,
        0.16,
        0.17999999999999999,
        0.20000000000000001,
        0.22,
        0.23999999999999999,
        0.26000000000000001,
        0.28000000000000003,
        0.29999999999999999,
        0.32000000000000001,
        0.34000000000000002,
        0.35999999999999999,
        0.38,
        0.40000000000000002,
        0.41999999999999998,
        0.44,
        0.46000000000000002,
        0.47999999999999998,
        0.5,
        0.52000000000000002,
        0.54000000000000004,
        0.56000000000000005,
        0.57999999999999996,
        0.59999999999999998,
        0.62,
        0.64000000000000001,
        0.66000000000000003,
        0.68000000000000005,
        0.69999999999999996,
        0.71999999999999997,
        0.73999999999999999,
        0.76000000000000001,
        0.78000000000000003,
        0.80000000000000004,
        0.81999999999999995,
        0.83999999999999997,
        0.85999999999999999,
        0.88,
        0.90000000000000002,
        0.92000000000000004,
        0.93999999999999995,
        0.95999999999999996,
        0.97999999999999998,
        1.0,
        1.02,
        1.04,
        1.0600000000000001,
        1.0800000000000001,
        1.1000000000000001,
        1.1200000000000001,
        1.1399999999999999,
        1.1599999999999999,
        1.1799999999999999,
        1.2,
        1.22,
        1.24,
        1.26,
        1.28,
        1.3,
        1.3200000000000001,
        1.3400000000000001,
        1.3600000000000001,
        1.3799999999999999,
        1.3999999999999999,
        1.4199999999999999,
        1.4399999999999999,
        1.46,
        1.48,
        1.5,
        1.52,
        1.54,
        1.5600000000000001,
        1.5800000000000001,
        1.6000000000000001,
        1.6200000000000001,
        1.6399999999999999,
        1.6599999999999999,
        1.6799999999999999,
        1.7,
        1.72,
        1.74,
        1.76,
        1.78,
        1.8,
        1.8200000000000001,
        1.8400000000000001,
        1.8600000000000001,
        1.8799999999999999,
        1.8999999999999999,
        1.9199999999999999,
        1.9399999999999999,
        1.96,
        1.98,
        2.0,
        2.02,
        2.04,
        2.0600000000000001,
        2.0800000000000001,
        2.1000000000000001,
        2.1200000000000001,
        2.1400000000000001,
        2.1600000000000001,
        2.1800000000000002,
        2.2000000000000002,
        2.2200000000000002,
        2.2400000000000002,
        2.2599999999999998,
        2.2799999999999998,
        2.2999999999999998,
        2.3199999999999998,
        2.3399999999999999,
        2.3599999999999999,
        2.3799999999999999,
        2.3999999999999999,
        2.4199999999999999,
        2.4399999999999999,
        2.46,
        2.48,
        2.5,
        2.52,
        2.54,
        2.5600000000000001,
        2.5800000000000001,
        2.6000000000000001,
        2.6200000000000001,
        2.6400000000000001,
        2.6600000000000001,
        2.6800000000000002,
        2.7000000000000002,
        2.7200000000000002,
        2.7400000000000002,
        2.7599999999999998,
        2.7799999999999998,
        2.7999999999999998,
        2.8199999999999998,
        2.8399999999999999,
        2.8599999999999999,
        2.8799999999999999,
        2.8999999999999999,
        2.9199999999999999,
        2.9399999999999999,
        2.96,
        2.98,
        3.0,
        3.02,
        3.04,
        3.0600000000000001,
        3.0800000000000001,
        3.1000000000000001,
        3.1200000000000001,
        3.1400000000000001,
        3.1600000000000001,
        3.1800000000000002,
        3.2000000000000002,
        3.2200000000000002,
        3.2400000000000002,
        3.2599999999999998,
        3.2799999999999998,
        3.2999999999999998,
        3.3199999999999998,
        3.3399999999999999,
        3.3599999999999999,
        3.3799999999999999,
        3.3999999999999999,
        3.4199999999999999,
        3.4399999999999999,
        3.46,
        3.48,
        3.5,
        3.52,
        3.54,
        3.5600000000000001,
        3.5800000000000001,
        3.6000000000000001,
        3.6200000000000001,
        3.6400000000000001,
        3.6600000000000001,
        3.6800000000000002,
        3.7000000000000002,
        3.7200000000000002,
        3.7400000000000002,
        3.7599999999999998,
        3.7799999999999998,
        3.7999999999999998,
        3.8199999999999998,
        3.8399999999999999,
        3.8599999999999999,
        3.8799999999999999,
        3.8999999999999999,
        3.9199999999999999,
        3.9399999999999999,
        3.96,
        3.98,
        4.0,
        4.0199999999999996,
        4.04,
        4.0599999999999996,
        4.0800000000000001,
        4.0999999999999996,
        4.1200000000000001,
        4.1399999999999997,
        4.1600000000000001,
        4.1799999999999997,
        4.2000000000000002,
        4.2199999999999998,
        4.2400000000000002,
        4.2599999999999998,
        4.2800000000000002,
        4.2999999999999998,
        4.3200000000000003,
        4.3399999999999999,
        4.3600000000000003,
        4.3799999999999999,
        4.4000000000000004,
        4.4199999999999999,
        4.4400000000000004,
        4.46,
        4.4800000000000004,
        4.5,
        4.5199999999999996,
        4.54,
        4.5599999999999996,
        4.5800000000000001,
        4.5999999999999996,
        4.6200000000000001,
        4.6399999999999997,
        4.6600000000000001,
        4.6799999999999997,
        4.7000000000000002,
        4.7199999999999998,
        4.7400000000000002,
        4.7599999999999998,
        4.7800000000000002,
        4.7999999999999998,
        4.8200000000000003,
        4.8399999999999999,
        4.8600000000000003,
        4.8799999999999999,
        4.9000000000000004,
        4.9199999999999999,
        4.9400000000000004,
        4.96,
        4.9800000000000004,
        5.0,
        5.0199999999999996,
        5.04,
        5.0599999999999996,
        5.0800000000000001,
        5.0999999999999996,
        5.1200000000000001,
        5.1399999999999997,
        5.1600000000000001,
        5.1799999999999997,
        5.2000000000000002,
        5.2199999999999998,
        5.2400000000000002,
        5.2599999999999998,
        5.2800000000000002,
        5.2999999999999998,
        5.3200000000000003,
        5.3399999999999999,
        5.3600000000000003,
        5.3799999999999999,
        5.4000000000000004,
        5.4199999999999999,
        5.4400000000000004,
        5.46,
        5.4800000000000004,
        5.5,
        5.5199999999999996,
        5.54,
        5.5599999999999996,
        5.5800000000000001,
        5.5999999999999996,
        5.6200000000000001,
        5.6399999999999997,
        5.6600000000000001,
        5.6799999999999997,
        5.7000000000000002,
        5.7199999999999998,
        5.7400000000000002,
        5.7599999999999998,
        5.7800000000000002,
        5.7999999999999998,
        5.8200000000000003,
        5.8399999999999999,
        5.8600000000000003,
        5.8799999999999999,
        5.9000000000000004,
        5.9199999999999999,
        5.9400000000000004,
        5.96,
        5.9800000000000004,
        6.0,
        6.0199999999999996,
        6.04,
        6.0599999999999996,
        6.0800000000000001,
        6.0999999999999996,
        6.1200000000000001,
        6.1399999999999997,
        6.1600000000000001,
        6.1799999999999997,
        6.2000000000000002,
        6.2199999999999998,
        6.2400000000000002,
        6.2599999999999998,
        6.2800000000000002,
        6.2999999999999998,
        6.3200000000000003,
        6.3399999999999999,
        6.3600000000000003,
        6.3799999999999999,
        6.4000000000000004,
        6.4199999999999999,
        6.4400000000000004,
        6.46,
        6.4800000000000004,
        6.5,
        6.5199999999999996,
        6.54,
        6.5599999999999996,
        6.5800000000000001,
        6.5999999999999996,
        6.6200000000000001,
        6.6399999999999997,
        6.6600000000000001,
        6.6799999999999997,
        6.7000000000000002,
        6.7199999999999998,
        6.7400000000000002,
        6.7599999999999998,
        6.7800000000000002,
        6.7999999999999998,
        6.8200000000000003,
        6.8399999999999999,
        6.8600000000000003,
        6.8799999999999999,
        6.9000000000000004,
        6.9199999999999999,
        6.9400000000000004,
        6.96,
        6.9800000000000004,
        7.0,
        7.0199999999999996,
        7.04,
        7.0599999999999996,
        7.0800000000000001,
        7.0999999999999996,
        7.1200000000000001,
        7.1399999999999997,
        7.1600000000000001,
        7.1799999999999997,
        7.2000000000000002,
        7.2199999999999998,
        7.2400000000000002,
        7.2599999999999998,
        7.2800000000000002,
        7.2999999999999998,
        7.3200000000000003,
        7.3399999999999999,
        7.3600000000000003,
        7.3799999999999999,
        7.4000000000000004,
        7.4199999999999999,
        7.4400000000000004,
        7.46,
        7.4800000000000004,
        7.5,
        7.5199999999999996,
        7.54,
        7.5599999999999996,
        7.5800000000000001,
        7.5999999999999996,
        7.6200000000000001,
        7.6399999999999997,
        7.6600000000000001,
        7.6799999999999997,
        7.7000000000000002,
        7.7199999999999998,
        7.7400000000000002,
        7.7599999999999998,
        7.7800000000000002,
        7.7999999999999998,
        7.8200000000000003,
        7.8399999999999999,
        7.8600000000000003,
        7.8799999999999999,
        7.9000000000000004,
        7.9199999999999999,
        7.9400000000000004,
        7.96,
        7.9800000000000004,
        8.0,
        8.0199999999999996,
        8.0399999999999991,
        8.0600000000000005,
        8.0800000000000001,
        8.0999999999999996,
        8.1199999999999992,
        8.1400000000000006,
        8.1600000000000001,
        8.1799999999999997,
        8.1999999999999993,
        8.2200000000000006,
        8.2400000000000002,
        8.2599999999999998,
        8.2799999999999994,
        8.3000000000000007,
        8.3200000000000003,
        8.3399999999999999,
        8.3599999999999994,
        8.3800000000000008,
        8.4000000000000004,
        8.4199999999999999,
        8.4399999999999995,
        8.4600000000000009,
        8.4800000000000004,
        8.5,
        8.5199999999999996,
        8.5399999999999991,
        8.5600000000000005,
        8.5800000000000001,
        8.5999999999999996,
        8.6199999999999992,
        8.6400000000000006,
        8.6600000000000001,
        8.6799999999999997,
        8.6999999999999993,
        8.7200000000000006,
        8.7400000000000002,
        8.7599999999999998,
        8.7799999999999994,
        8.8000000000000007,
        8.8200000000000003,
        8.8399999999999999,
        8.8599999999999994,
        8.8800000000000008,
        8.9000000000000004,
        8.9199999999999999,
        8.9399999999999995,
        8.9600000000000009,
        8.9800000000000004,
        9.0,
        9.0199999999999996,
        9.0399999999999991,
        9.0600000000000005,
        9.0800000000000001,
        9.0999999999999996,
        9.1199999999999992,
        9.1400000000000006,
        9.1600000000000001,
        9.1799999999999997,
        9.1999999999999993,
        9.2200000000000006,
        9.2400000000000002,
        9.2599999999999998,
        9.2799999999999994,
        9.3000000000000007,
        9.3200000000000003,
        9.3399999999999999,
        9.3599999999999994,
        9.3800000000000008,
        9.4000000000000004,
        9.4199999999999999,
        9.4399999999999995,
        9.4600000000000009,
        9.4800000000000004,
        9.5,
        9.5199999999999996,
        9.5399999999999991,
        9.5600000000000005,
        9.5800000000000001,
        9.5999999999999996,
        9.6199999999999992,
        9.6400000000000006,
        9.6600000000000001,
        9.6799999999999997,
        9.6999999999999993,
        9.7200000000000006,
        9.7400000000000002,
        9.7599999999999998,
        9.7799999999999994,
        9.8000000000000007,
        9.8200000000000003,
        9.8399999999999999,
        9.8599999999999994,
        9.8800000000000008,
        9.9000000000000004,
        9.9199999999999999,
        9.9399999999999995,
        9.9600000000000009,
        9.9800000000000004,
        10.0,
        10.02,
        10.039999999999999,
        10.06,
        10.08,
        10.1,
        10.119999999999999,
        10.140000000000001,
        10.16,
        10.18,
        10.199999999999999,
        10.220000000000001,
        10.24,
        10.26,
        10.279999999999999,
        10.300000000000001,
        10.32,
        10.34,
        10.359999999999999,
        10.380000000000001,
        10.4,
        10.42,
        10.44,
        10.460000000000001,
        10.48,
        10.5,
        10.52,
        10.539999999999999,
        10.56,
        10.58,
        10.6,
        10.619999999999999,
        10.640000000000001,
        10.66,
        10.68,
        10.699999999999999,
        10.720000000000001,
        10.74,
        10.76,
        10.779999999999999,
        10.800000000000001,
        10.82,
        10.84,
        10.859999999999999,
        10.880000000000001,
        10.9,
        10.92,
        10.94,
        10.960000000000001,
        10.98,
        11.0,
        11.02,
        11.039999999999999,
        11.06,
        11.08,
        11.1,
        11.119999999999999,
        11.140000000000001,
        11.16,
        11.18,
        11.199999999999999,
        11.220000000000001,
        11.24,
        11.26,
        11.279999999999999,
        11.300000000000001,
        11.32,
        11.34,
        11.359999999999999,
        11.380000000000001,
        11.4,
        11.42,
        11.44,
        11.460000000000001,
        11.48,
        11.5,
        11.52,
        11.539999999999999,
        11.56,
        11.58,
        11.6,
        11.619999999999999,
        11.640000000000001,
        11.66,
        11.68,
        11.699999999999999,
        11.720000000000001,
        11.74,
        11.76,
        11.779999999999999,
        11.800000000000001,
        11.82,
        11.84,
        11.859999999999999,
        11.880000000000001,
        11.9,
        11.92,
        11.94,
        11.960000000000001,
        11.98,
        12.0,
        12.02,
        12.039999999999999,
        12.06,
        12.08,
        12.1,
        12.119999999999999,
        12.140000000000001,
        12.16,
        12.18,
        12.199999999999999,
        12.220000000000001,
        12.24,
        12.26,
        12.279999999999999,
        12.300000000000001,
        12.32,
        12.34,
        12.359999999999999,
        12.380000000000001,
        12.4,
        12.42,
        12.44,
        12.460000000000001,
        12.48,
        12.5,
        12.52,
        12.539999999999999,
        12.56
    ]
}