{
    "DU": 167,
    "DV": 134,
    "F-measure": 0.7192660550458716,
    "F-measure Chroma": 0.8220183486238533,
    "FN": 46,
    "FNC": 8,
    "FNCch": 27,
    "FNI": 38,
    "FNIch": 19,
    "FP": 11,
    "GU": 132,
    "GV": 169,
    "Overall Accuracy": 0.6511627906976745,
    "Overall Chroma Accuracy": 0.7441860465116279,
    "Precision": 0.7686274509803922,
    "Precision Chroma": 0.8784313725490196,
    "Raw Chroma Accuracy": 0.7692307692307693,
    "Raw Pitch Accuracy": 0.4911242603550296,
    "Recall": 0.6758620689655173,
    "Recall Chroma": 0.7724137931034483,
    "TN": 121,
    "TO": 301,
    "TP": 123,
    "TPC": 75,
    "TPCch": 103,
    "TPI": 48,
    "TPIch": 20,
    "Voiced Chroma Accuracy": 0.6094674556213018,
    "Voiced Pitch Accuracy": 0.4437869822485207,
    "Voicing Accuracy": 0.8106312292358804,
    "Voicing Detection": 0.727810650887574,
    "Voicing False Alarm": 0.08333333333333333
}