{
	"f0": [NaN,76.93035138,76.93035138,76.93035138,76.93035138,76.93035138,76.93035138,76.93035138,76.93035138,76.93035138,76.93035138,76.93035138,76.93035138,76.93035138,76.93035138,76.93035138,76.93035138,76.93035138,76.93035138,65.69991543,53.50429368,53.69991543,56.27597204,76.93035138,76.93035138,67.34995772,53.25148431,52.51718883,46.81201884,46.76853272,48.59008036,49.01751669,48.76871822,48.58143074,48.03319213,53.22404455,53.11955917,48.90793837,48.76871822,50.4780494,51.63888855,51.58652562,50.97508853,50.13499411,53.3108577,53.3108577,52.75361239,52.68847757,52.29823455,52.10388339,52.37964988,52.15164591,52.4673556,52.85843104,52.74318912,52.47632508,52.55802863,52.31952013,42.25686186,53.2369896,53.25177845,47.86583717,46.99340061,63.36294756,60.97448779,61.14377246,72.69608443,47.25621992,60.64555011,60.60276723,51.43168211,64.14701741,64.93035138,60.91732291,71.21309485,70.65912658,46.93969846,46.55650731,56.83859045,58.44058259,52.11125207,47.56678694,44.54847097,44.3053863,55.78826823,54.71262168,52.99546837,43.7575765,43.77923124,46.9446811,49.22205075,66.41823387,47.01775216,44.38278291,43.95333168,55.69033898,55.78826823,55.56772588,54.0799712,43.21854829,54.96179049,44.23536769,44.7438097,44.00740642,53.79267518,45.78580198,44.93596199,44.13264802,43.96255872,56.14383536,55.98990013,55.77115752,55.74539121,55.76576903,55.98566321,44.11044414,44.06940241,44.09909739,44.10836289,43.79082154,43.83653995,46.2432669,53.92398299,63.3016187,48.27574479,47.74411996,47.49320581,47.33469819,47.21282192,46.98740474,46.81803985,46.82440122,46.80694846,46.74738165,46.82047858,46.82225089,46.79785724,46.87231835,46.97268345,47.19313437,47.27318309,46.89820107,36.88679462,53.12450964,53.21779194,47.05179663,46.82978791,46.7235637,46.60628637,46.64597378,46.72125858,46.6991074,46.61395047,46.74597788,46.81914229,46.80900022,46.79740953,46.88727227,46.87734283,46.77718132,46.79846248,46.83891705,46.76596402,46.47399989,45.65449272,45.18376621,44.75372937,44.68532637,44.89038446,44.76694947,44.65778554,44.67412485,44.77419149,44.79630898,44.49490921,45.08707989,45.3093073,57.3833569,57.55049547,58.39484847,74.04420702,76.72601285,76.91718694,77.13209215,74.26940501,74.48982855,72.10616556,75.75907428,60.66883192,49.06479523,48.88085503,48.76092404,48.63258878,48.39036253,48.08456629,47.95027349,48.35901523,48.32816912,48.29467554,48.31393192,48.38114888,48.4500585,48.45555475,48.30876877,48.20261675,47.9947561,47.69225022,47.48573577,45.05418577,50.61801919,49.6264119,49.47374886,48.64626984,48.50157249,48.45999508,47.83961644,47.8447177,48.79331301,48.75772323,49.32931811,49.34601753,52.50338866,47.78223677,52.70278233,60.0395901,60.04720799,59.37037171,41.10904453,40.24395643,40.43979204,40.70717875,40.71529377,52.59139542,55.11130349,52.31221986,54.22289738,44.5824793,44.20642938,43.72008935,43.70155927,55.81055927,55.92995986,44.21178806,44.45395807,44.53275863,44.85341887,45.28071552,45.31305077,45.1834233,45.15951469,45.3154485,45.12135127,56.93520015,45.05418577,44.45672486,45.05418577,45.50012365,44.83672659,45.05418577,45.45134207,45.4559495,45.40287543,45.27842517,45.15101233,45.10156325,45.03966592,44.92229682,44.9558021,45.18074686,45.31098866,45.25427199,45.18776837,45.20927299,45.08243573,56.7681897,62.21808882,67.09164901,74.72649824,74.56604991,53.68566155,63.75582931,56.93520015,56.01165637,43.53276522,43.28676708,43.16621915,42.9875477,43.12145395,55.10477899,55.14784541,54.9224708,43.03176402,55.13489482,55.34995772,55.53802826,55.71997342,55.57116363,54.92408703,53.75751509,69.01820543,43.04338224,53.86512519,43.03652338,42.77872816,42.36838926,42.11793618,41.96523417,42.04659001,54.50528578,54.30040362,54.20124508,54.30040362,52.30195164,54.00622976,54.47903889,54.7479023,45.62346428,76.34228319,76.73212744,70.68285187,75.61606526,54.81966418,53.51892875,52.5649321,53.69991543,40.76602293,40.41883097,40.48911446,40.78330537,40.92287016,40.82288486,40.69392846,40.86139275,53.11955917,52.98798085,40.74187345,40.54887538,40.59666609,40.71837766,40.79376496,40.83701236,52.83701641,52.88074574,52.79249207,40.71837303,40.63123231,40.57325363,40.52629659,40.4556326,59.5790267,59.37263996,54.0979178,53.3108577,40.66571573,40.36261229,40.33797299,40.22819207,40.470517,56.69965447,54.62675685,53.8977729,53.3108577,52.74318912,52.37482755,40.39482568,48.05541243,59.98978994,63.72562153,63.71933824,57.77543069,53.61454274,51.86377526,72.7678062,72.69838501,63.14399075,60.62653655,72.86969133,72.82148928,72.15535538,77.28030916,73.60548235,72.7354358,72.71276841,72.78412212,72.80363724,63.95445665,70.42197333,62.19225496,77.19109207,56.24518577,58.50128543,58.37042971,58.03717556,72.70257598,53.50810373,46.79912105,58.71358744,53.73314221,51.88919559,42.92911346,52.37736631,72.73657961,72.90389557,72.68265641,59.76270441,62.05181256,53.58400029,51.84675365,53.45278013,52.74318912,50.77501453,49.90423197,48.05018406,38.31532106,59.65749661,57.04092469,65.69991543,75.48682058,76.93035138,76.93035138,76.93035138,76.93035138,76.93035138,76.93035138,76.93035138,76.93035138,76.93035138,76.93035138,76.93035138,76.93035138,76.93035138,76.93035138,76.93035138,76.93035138,76.93035138,76.93035138,76.93035138,76.93035138,76.93035138,76.93035138,76.93035138,76.93035138,76.93035138,76.93035138,76.93035138,76.93035138,76.93035138,76.93035138,76.93035138,76.93035138,76.93035138,76.93035138,76.93035138,76.93035138,76.93035138,76.93035138,76.93035138,76.93035138,76.93035138,76.93035138,76.93035138,76.93035138,76.93035138,76.93035138,76.93035138,76.93035138,76.93035138,76.93035138,76.93035138,76.93035138,76.93035138,76.93035138,76.93035138,76.93035138,76.93035138,76.93035138,76.93035138,76.93035138,76.93035138,76.93035138,76.93035138,76.93035138,76.93035138,76.93035138,76.93035138,76.93035138,76.93035138,76.93035138,76.93035138,76.93035138,76.93035138,76.93035138,76.93035138,76.93035138,76.93035138,76.93035138,76.93035138,76.93035138,76.93035138,76.93035138,76.93035138,76.93035138,76.93035138,76.93035138,76.93035138,76.93035138,76.93035138,76.93035138,76.93035138,76.93035138,76.93035138,76.93035138,76.93035138,76.93035138,76.93035138,76.93035138,76.93035138,76.93035138,76.93035138,76.93035138,76.93035138,76.93035138,76.93035138,76.93035138,76.93035138,76.93035138,76.93035138,76.93035138,76.93035138,76.93035138,76.93035138,76.93035138,76.93035138,76.93035138,76.93035138,NaN,NaN,NaN],
	"ap0": [NaN,1,1,1,1,1,1,1,1,1,1,1,1,1,1,1,1,1,1,0.7248789132,0.5634843995,0.5740589455,0.9524978591,1,1,2.037750872,0.2285015354,0.3500136491,0.7843538778,0.7395445786,0.3813887204,0.2777448311,0.3987226012,0.5769114317,0.7626559506,0.4394503745,0.528520086,0.8391603479,0.6546143999,0.392714287,0.4598509897,0.4595089474,0.5695798299,0.6640809138,0.6807171513,0.7369065704,0.504835906,0.4148541787,0.4498774123,0.5139769914,0.6244631792,0.7933850256,0.7249096747,0.476227165,0.5216609049,0.6232477699,0.5836915076,0.5340692004,0.5722486601,0.5352900757,0.5628268074,0.7015830048,0.6719096512,0.8098305195,0.7294754411,0.7773763854,0.6955605598,0.6575079037,0.6398878029,0.5226676273,0.6641136618,0.4742230448,0.6116208791,0.6685118352,0.513921283,0.8099866518,0.6271074943,0.8630367747,0.8107531066,0.8002118753,0.6574953162,0.7588603891,0.5803673786,0.4068768352,0.388127273,0.2820269994,0.6129883999,0.5807148522,0.6611957584,0.6880565544,0.7721544372,0.9192966824,0.4325416914,0.4277711846,0.1792041686,0.1099349745,0.08993729661,0.2015161632,0.4075255269,0.6033303903,0.9009136858,0.8174690392,0.8058162881,0.7237432904,0.6294288898,0.4863933728,0.3226030457,0.1302664429,0.0639904997,0.1190254668,0.08408553508,0.05061401958,0.07875410203,0.1617684383,0.1992897485,0.08521432541,0.07857651307,0.06711261508,0.05017011356,0.1186491409,0.4664734609,0.6479695532,0.8596528253,0.8081958829,0.4449591374,0.2262853013,0.09244181637,0.08083798816,0.08061840249,0.09104096967,0.09136682657,0.06152317555,0.04558232535,0.06678416545,0.06815604228,0.04572419061,0.03107196246,0.03280005707,0.04375959631,0.06539309808,0.1211959517,0.2406306082,0.4855140069,0.7292928327,1.004342046,0.2145790555,0.09489433117,0.05302672643,0.06028191108,0.1228957325,0.1986001238,0.19732795,0.09399740424,0.04860943549,0.03767779775,0.05653617317,0.05428134547,0.03512369837,0.02417353023,0.02089925634,0.02696320125,0.02615815185,0.05939107647,0.24288551,0.228089129,0.1468993237,0.2366268152,0.4188457861,0.3461941313,0.2756138803,0.1924391937,0.17044794,0.3114392282,0.3460061554,0.2039015284,0.1326059026,0.1402987705,0.1814022759,0.3995181515,0.8203408899,0.8135815571,0.7608928213,0.7603953853,0.6384870435,0.5864576579,0.7143829173,0.8392729343,0.7384216479,0.7061516049,0.2093023857,0.1235286309,0.05927082665,0.04425936695,0.1291415362,0.3450292266,0.209378528,0.07910166132,0.062402379,0.08268784697,0.06426947159,0.05276047618,0.02941779853,0.01983473444,0.02021627146,0.02762836545,0.05679164685,0.06449886273,0.1402378174,0.7850474454,0.3742223743,0.4435176334,0.5189068982,0.3476517988,0.3446606841,0.3876052208,0.2158027401,0.1515426935,0.1961912749,0.4113429751,0.3364220592,0.4503873321,0.6346341699,0.7836053344,0.721510885,0.6489907862,0.6576013766,0.6723700973,0.4459572927,0.1967903304,0.402497671,0.4980172195,0.8076286178,0.6618017955,0.8228780723,0.687019441,0.672303007,0.4077261318,0.206697413,0.05948291476,0.05126530172,0.0945430588,0.1910844314,0.1642689861,0.1701222768,0.2416763887,0.2287382874,0.1244644522,0.07868855343,0.05517452313,0.06712497588,0.1149459169,0.1212020991,0.2530361391,0.3954721191,0.2595597707,0.2216465161,0.1913276064,0.1821114115,0.1833174252,0.1113084262,0.05459422267,0.03605556913,0.06330814579,0.1031210205,0.1122693435,0.1420628138,0.160941447,0.1190280631,0.160318962,0.1120661899,0.09349663876,0.1090578269,0.2972942485,0.6172393685,0.7296144389,0.8774988277,0.8167599078,0.8505588429,0.9765691976,0.7159348156,0.5903180544,0.5573318992,0.3560539358,0.08536067272,0.05421656131,0.1183444806,0.1022756946,0.06785332041,0.1150175111,0.1988366593,0.7427076115,0.6229338632,0.6058629258,0.1989273563,0.1266932963,0.09726019912,0.1191084304,0.590171524,0.8750961735,0.8272685752,0.7792548774,0.6961863222,0.6501640623,0.4695881142,0.336557472,0.3204870929,0.5596943643,0.3474203616,0.3440387054,0.1325489273,0.07060427534,0.3313033753,0.3950174496,0.1792133304,0.1291396072,0.1858565906,0.8653540116,0.8748832732,0.7745774162,0.6703577379,0.8710032335,0.5145564455,0.2981719148,0.643645375,0.6666804557,0.2547818802,0.1796753891,0.195586595,0.1377499064,0.08933518845,0.09340805735,0.1047265643,0.1323755556,0.09547220607,0.05972899006,0.05220802378,0.04731826558,0.03992582304,0.03536230763,0.03414749509,0.03125763109,0.08206662744,0.06685833991,0.0836894703,0.03738944487,0.03151960564,0.03232925344,0.06830022156,0.1522184686,0.1497403939,0.2682632038,0.3543312607,0.1949098419,0.1299745022,0.05729502292,0.0751769095,0.1764307033,0.4111907196,0.6223724382,0.3914325102,0.3608731138,0.4550981986,0.4270716251,0.2509134249,0.220410863,0.7661822748,0.6130111447,0.6857206497,0.6316697866,0.5884191567,0.5586457805,0.681376849,0.6112823202,0.5540684808,0.763983292,0.7194294783,0.5709385208,0.4884764922,0.6863174463,0.7527762472,0.6800563767,0.5170568562,0.4277717092,0.3649309133,0.4005790619,0.7451987711,0.8282322255,0.6875664609,0.7457483554,0.6565523754,0.4872888044,0.535764909,0.6819848628,0.6417951955,0.6035115721,0.6989175082,0.6975146486,0.5259289858,0.5303491858,0.6151542395,0.8196345438,0.7879096947,0.5994073535,0.6905620148,0.5630149859,0.6952935608,0.6199687164,0.4178954283,0.4031222897,0.6277975002,0.8004374433,0.7837234068,0.6952780296,0.6370225038,0.6919353013,0.7733957492,0.8111840997,1,1,1,1,1,1,1,1,1,1,1,1,1,1,1,1,1,1,1,1,1,1,1,1,1,1,1,1,1,1,1,1,1,1,1,1,1,1,1,1,1,1,1,1,1,1,1,1,1,1,1,1,1,1,1,1,1,1,1,1,1,1,1,1,1,1,1,1,1,1,1,1,1,1,1,1,1,1,1,1,1,1,1,1,1,1,1,1,1,1,1,1,1,1,1,1,1,1,1,1,1,1,1,1,1,1,1,1,1,1,1,1,1,1,1,1,1,1,NaN,NaN,NaN],
	"ap": [NaN,1,1,1,1,1,1,1,1,1,1,1,1,1,1,1,1,1,1,1,1,0.1723927233,0.7805013076,1,1,1,1,0.5000000027,0.9243392992,0.2439397335,0.260448748,0.3130397386,0.07410765164,0.4462445681,0.2606679692,0.3850299718,0.6608111919,0.7549336472,0.6048425074,0.1733785753,0.2726630741,0.6229142279,0.3657621578,0.1913860304,0.5718931793,0.3712348354,0.5102153301,0.3151982623,0.1087894598,0.1864236321,0.3882157378,0.3202252231,0.5439064499,0.491443038,0.2545764977,0.1819624124,0.1562635525,0.3119863371,0.1990747218,0.4209983577,0.3415994549,0.4888590374,0.5548939529,0.7793171823,0.7210264721,0.3278060287,0.3607240773,0.3214671942,0.3303746341,0.459272608,0.5217728831,0.390816709,0.3015243065,0.7813988625,0.04987495609,0.1941719988,0.2732887127,0.1964531112,0.6108526649,0.7618894196,0.4121435753,0.5317458583,0.3596749745,0.5298411129,0.3596175999,0.1414986775,0.49612443,0.4702082566,0.3281051211,0.271557982,0.4926752251,0.5613227497,0.6182220548,0.7113541641,0.1907314599,0.1562826379,0.05532699936,0.02176084135,0.2256203797,0.2639080761,0.3181724933,0.3703161651,0.2709671406,0.5070967595,0.4990048886,0.1916983582,0.3794126794,0.1099653253,0.05178835239,0.0720009526,0.07960538607,0.02382728494,0.01566270601,0.04422538397,0.06324718,0.08250826748,0.04174010312,0.0613182237,0.02460636402,0.02561413962,0.04245183013,0.7539319294,0.6347372555,0.7686233643,0.6257832746,0.7244081983,0.1074297148,0.08036569327,0.01878262643,0.06189224172,0.05106734797,0.03226655419,0.01584365501,0.01174911662,0.0408778732,0.05821066146,0.007760359634,0.03179512655,0.01096752961,0.03234238149,0.02845534391,0.02460273641,0.2271970767,0.611515216,0.5059414054,0.4934921215,0.4400554352,0.01917090242,0.03883626081,0.04179796143,0.05139720753,0.200347941,0.09478301457,0.05246406367,0.009345518223,0.03265101707,0.02319580076,0.02357603098,0.03545739306,0.01739571879,0.005827978595,0.007282279467,0.009063775004,0.05752351993,0.2875169202,0.2329858306,0.1006431496,0.06384446293,0.05882515281,0.1721086109,0.1840598488,0.08510178981,0.1063880494,0.2628519547,0.2210337726,0.2189940886,0.07030543492,0.04188069065,0.1658898846,0.2453719294,0.4992577709,0.2744435654,0.3805029297,0.563917272,0.5400114819,0.2940547274,0.4576676791,0.7508342499,0.6038847753,0.4952644984,0.4216065003,0.04271858689,0.008297697606,0.03595888273,0.1465578098,0.1987208009,0.3316589919,0.0472340554,0.02101777521,0.07382309242,0.02481901641,0.01519052398,0.02493308203,0.02080941835,0.01339264331,0.01673772402,0.01579374409,0.02570164623,0.2732140832,0.2227124077,0.2034159063,0.2259676043,0.267527575,0.2082997869,0.1534717421,0.3186980823,0.0846571028,0.08227125578,0.05507807783,0.3192855473,0.1356663062,0.3099030063,0.6792680464,0.4336222704,0.5357202817,0.3333917067,0.3538844857,0.2436487443,0.06729955234,0.1652063156,0.2207425103,0.2061303756,0.5705496283,0.7095668186,0.4758451207,0.2865503151,0.801295435,0.5874207012,0.09943540854,0.02734666996,0.01863684301,0.04471344639,0.1009236453,0.03780083544,0.07165819586,0.1830590313,0.1243874608,0.1677896633,0.02866504167,0.02405454769,0.06962847487,0.07947393303,0.09770100431,0.09467621316,0.2010361249,0.2283502954,0.07375494697,0.1062302349,0.1073836819,0.04581803098,0.1303035185,0.009203158751,0.02712485568,0.04795618747,0.02522555821,0.07395111821,0.07075154239,0.09331312068,0.08979939723,0.06213724341,0.04729800195,0.01238387374,0.07904984535,0.1346051376,0.5173477429,0.5599255323,0.4878079995,0.3549093975,0.3359393864,0.4962349017,0.5477990691,0.4881837021,0.6229838635,0.06421976913,0.04160883263,0.05217899455,0.09120643793,0.04712153112,0.07202314306,0.03496832056,0.0713232231,0.2572944112,0.8970933662,0.4788653542,0.1699585284,0.07272852871,0.0547032824,0.07962906534,0.5754007853,0.4294307029,0.4204331635,0.5888506918,0.3639902822,0.457259231,0.2509912991,0.132446755,0.2834648292,0.1739182046,0.3357835758,0.1562645607,0.05877430588,0.05501379954,0.2248718744,0.6714089129,0.1801555182,0.04121090215,0.5958931179,0.5479525908,0.1260312613,0.282500149,0.7552906605,0.5910549719,0.4455144207,0.3129728831,0.1824369889,0.1758433639,0.08634271575,0.12179996,0.1289432936,0.03916937545,0.04628403875,0.02202389361,0.07025284023,0.2304477547,0.03161205489,0.01749608313,0.03918635436,0.0258654274,0.01788280226,0.01835806549,0.02175054557,0.04374538731,0.04536531051,0.02099181497,0.01237471275,0.02482088071,0.01469163378,0.01473896191,0.0338808277,0.2715295906,0.1021642674,0.5572190789,0.4081594463,0.1008659177,0.02708097333,0.02983433189,0.07377678672,0.1499169472,0.2689135369,0.2510205562,0.09238886211,0.2291975219,0.07186619487,0.4024495256,0.05147688348,0.4904826655,0.04709009454,0.1987385109,0.6743853607,0.4769045553,0.4637195936,0.2767489106,0.7620514051,0.5017844453,0.4525489359,0.2832069925,0.4682527998,0.2405620757,0.1770683824,0.4971537227,0.6131916907,0.2147001138,0.5118466308,0.1550301711,0.08792518255,0.1170007333,0.5220188096,0.4430159574,0.4231260151,0.7821968553,0.5426069062,0.114563659,0.2971866426,0.4495770054,0.3928264449,0.4915989103,0.5049037738,0.5803214945,0.2770413532,0.5625424617,0.5917593667,0.6330479055,0.6590695745,0.4521653418,0.3568710261,0.5850887995,0.4663668935,0.4893153231,0.09259374436,0.1167432187,0.6530429733,0.3713283633,0.1804579747,0.2375022046,0.5119399588,0.4533444956,0.6446542756,1,1,1,1,1,1,1,1,1,1,1,1,1,1,1,1,1,1,1,1,1,1,1,1,1,1,1,1,1,1,1,1,1,1,1,1,1,1,1,1,1,1,1,1,1,1,1,1,1,1,1,1,1,1,1,1,1,1,1,1,1,1,1,1,1,1,1,1,1,1,1,1,1,1,1,1,1,1,1,1,1,1,1,1,1,1,1,1,1,1,1,1,1,1,1,1,1,1,1,1,1,1,1,1,1,1,1,1,1,1,1,1,1,1,1,1,1,1,NaN,NaN,NaN],
	"pwr": [NaN,0,0,0,0,0,0,0,0,0,0,0,0,0,0,0,0,0,0,0,0,3.426314586e-10,9.333694374e-10,0,0,0,0,0,9.624490102e-07,3.603869715e-06,3.576153439e-05,1.061082504e-06,1.672850862e-06,1.504821404e-06,1.548895226e-06,2.839659711e-07,1.359660598e-07,5.318311616e-07,5.489469975e-07,1.154248032e-06,2.007810526e-07,1.415626909e-07,2.33168022e-07,4.213856259e-07,1.225374743e-07,6.638260351e-08,2.510849928e-08,8.96715792e-08,2.498945531e-07,1.410428376e-07,1.782264627e-07,1.390249363e-07,1.839022989e-07,1.477620258e-07,1.384572486e-07,3.044987889e-07,6.018548292e-08,7.885656252e-08,2.22975864e-07,2.00490606e-07,1.72885149e-07,1.064452562e-07,1.896601323e-07,3.69515498e-07,8.034915342e-07,6.085884238e-07,2.247321095e-06,1.389428297e-05,2.324426731e-05,2.506866439e-05,6.533476827e-05,4.36928277e-06,4.685010619e-06,3.624125384e-06,9.923842299e-07,1.457195998e-06,8.900438565e-07,8.442904729e-07,1.527934033e-06,2.635361633e-06,6.091362864e-06,1.0892034e-05,0.0001870905505,0.0008825787628,0.006165702887,0.001128148058,0.000140020754,3.773177724e-05,2.479163898e-05,1.738472224e-05,8.414296242e-06,1.564648846e-05,0.0003819484809,0.0001834604797,0.002096984624,0.003036730376,0.004724016106,0.004814920247,0.001869707501,0.0003657130955,0.0001610472731,3.815644734e-05,5.481542189e-05,0.0009003044783,0.0004566548949,0.0002709842122,0.0004370043424,0.006218086678,0.005651783223,0.003907784949,0.006149132895,0.003078215152,0.001773580681,0.0007381271238,0.0001690227434,0.0003410934571,0.0008826899941,0.0010218818,0.001414525836,0.0007457176847,0.0005593818108,4.487363799e-05,0.0002404641788,0.0004593153551,0.001134680424,0.0009290684415,0.03411499914,0.04326984499,0.02109279336,0.01725452757,0.01473924537,0.008581779568,0.006396783124,0.007487103397,0.006415144792,0.006790529155,0.007319137745,0.009746168191,0.01351128929,0.01104997187,0.01843819544,0.008764003622,0.001744589704,0.0004263111036,4.588874279e-05,0.0002112490004,0.0008667204981,0.04623560643,0.03338717275,0.01606523016,0.004747760866,0.0009264530114,0.001934718676,0.001390313386,0.002965479812,0.004015411062,0.007015639844,0.01266721424,0.01015229973,0.007891219434,0.009854549893,0.01028627582,0.008076395499,0.009075942058,0.002869457039,0.002615446411,0.005350073899,0.00517058504,0.016309966,0.02247948897,0.04852211185,0.05974870644,0.01477982356,0.002634622538,0.0003836706598,0.001064678741,0.004357073917,0.008790920093,0.002270138057,0.001138177541,0.0006185710334,0.002440455001,0.001198277032,0.001069866267,0.0006169559922,0.002279522437,0.003081061127,0.000469569597,0.0008616445214,0.0002988940948,0.0004562026634,0.01982520077,0.06687734613,0.03481388953,0.01148343166,0.0008966486723,0.001028319686,0.006536666978,0.009559410655,0.00283902897,0.002367480452,0.005356203479,0.01281660868,0.01289080024,0.006578254317,0.00329044369,0.004914191008,0.006598528357,0.002157785443,0.0001085045389,0.000132982171,0.0004080575797,0.0002291836947,0.0002965400556,0.0003798989123,0.0002112963099,0.0004521877026,0.0004271982734,6.121554153e-05,8.711508577e-06,8.719529151e-06,9.633774909e-06,7.861230685e-06,3.689003323e-05,0.0003670830545,0.0005931923244,0.003996996065,0.004697122528,0.001290282095,0.002221792051,0.0004004222709,0.0003955836894,7.813267605e-05,5.455994e-05,0.0002492649918,0.0005653797751,0.001392234603,0.005190657497,0.03394343573,0.0389752054,0.03169371732,0.03115159325,0.008512969749,0.002645379878,0.001979991122,0.001902691447,0.002006354831,0.002176488695,0.006895826306,0.01086859573,0.008962257746,0.002283800612,0.005093524166,0.002380865387,0.0003175073475,0.0003779311311,0.0003475465754,0.0004443738986,0.001616126999,0.002781426182,0.002311502162,0.006597572095,0.005700434478,0.005162116077,0.002914635866,0.002481678978,0.0006062476069,0.0005793449888,0.0004426014913,0.0009524669824,0.001671576421,0.0037421741,0.001895462845,0.0006026129341,0.0001988981952,0.001262497711,0.001515541698,0.002124715444,0.001669605603,0.0004300901524,0.000127242197,0.0003754741405,0.0004981184596,0.02606477023,0.03327454658,0.02285149435,0.007076072469,0.004189784119,0.006209908558,0.006610145707,0.001433488242,0.0003543751911,0.000255266806,0.0001743608729,0.0006100580555,0.003532166503,0.0027159455,0.0009773650289,8.843883215e-05,0.0006290903118,0.0002382696668,0.0002102856526,0.0005412485012,0.0007001154785,0.007524838644,0.004848476389,0.002530326247,0.0005460471099,0.0004138061694,0.0004819807898,0.0003114405457,0.0009120049606,0.00014635146,7.338908362e-05,0.001343435248,0.006457776672,0.001229700426,6.622375767e-05,0.0006015116842,0.0002084210613,0.0004548836571,9.912031473e-05,6.704372032e-05,0.0001196433783,0.00101213805,0.01120213203,0.003982849684,0.002537551591,0.001266342871,0.001355637982,0.002678496433,0.001833208603,0.0008476122538,0.0005756632871,0.003854326459,0.003026007292,0.001321103932,0.0009050665879,0.001075253499,0.0009670432951,0.0008467137728,0.001026136591,0.001239931105,0.001727783979,0.001188251055,0.0008167493232,0.0006310346343,0.0007839279081,0.0004690805542,0.0002215559788,0.0001193163274,2.858329559e-05,7.79958015e-06,0.0003041775835,0.0007672332508,0.0007416931291,0.0004383941124,0.0001185453229,1.403243073e-05,5.597048667e-06,1.361497796e-05,0.0001017932683,6.69366426e-05,8.473983096e-05,2.644264978e-05,3.12836746e-05,1.66294594e-06,1.72684417e-06,7.711122978e-06,2.941138888e-05,3.464401112e-05,1.269917366e-05,4.00257806e-05,2.015433068e-05,1.903311646e-05,1.10202884e-05,4.880575298e-05,1.624965785e-05,1.285552514e-05,3.718829214e-05,3.129042417e-06,7.415793505e-06,1.445054508e-05,6.009609069e-05,4.313058861e-05,6.235968204e-05,1.214249639e-05,3.770854941e-06,2.890018803e-06,5.780756761e-07,3.818879301e-07,7.689606545e-07,7.653595311e-07,4.505838008e-07,2.659113231e-07,2.155400539e-07,7.836327678e-08,8.099032283e-08,4.352652743e-08,4.472377614e-08,3.084320359e-08,7.87703403e-09,5.419349252e-09,1.330107381e-08,5.12133673e-09,4.943081401e-09,1.970530863e-09,3.252061735e-09,4.9450287e-09,3.656442527e-09,1.02631266e-09,7.672443336e-10,5.879836081e-10,4.664818459e-10,3.639259034e-10,7.264815259e-11,1.627168703e-10,0,0,0,0,0,0,0,0,0,0,0,0,0,0,0,0,0,0,0,0,0,0,0,0,0,0,0,0,0,0,0,0,0,0,0,0,0,0,0,0,0,0,0,0,0,0,0,0,0,0,0,0,0,0,0,0,0,0,0,0,0,0,0,0,0,0,0,0,0,0,0,0,0,0,0,0,0,0,0,0,0,0,0,0,0,0,0,0,0,0,0,0,0,0,0,0,0,0,0,0,0,0,0,0,0,0,0,0,0,0,0,0,0,0,0,0,0,0,NaN,NaN,NaN],
	"sr": 16000,
	"range": [1,172032],
	"minf0": 63.1883,
	"maxf0": 706.3069,
	"thresh": 0.1,
	"relflag": 1,
	"hop": 320,
	"bufsize": 10000,
	"wsize": 640,
	"lpf": 4000,
	"shift": 0,
	"plotthreshold": 0.2
}
