{
    "DU": 118,
    "DV": 308,
    "F-measure": 0.5948051948051948,
    "F-measure Chroma": 0.6961038961038961,
    "FN": 54,
    "FNC": 1,
    "FNCch": 10,
    "FNI": 53,
    "FNIch": 44,
    "FP": 28,
    "GU": 92,
    "GV": 334,
    "Overall Accuracy": 0.5375586854460094,
    "Overall Chroma Accuracy": 0.6291079812206573,
    "Precision": 0.6155913978494624,
    "Precision Chroma": 0.7204301075268817,
    "Raw Chroma Accuracy": 0.6407185628742516,
    "Raw Pitch Accuracy": 0.49700598802395207,
    "Recall": 0.5753768844221105,
    "Recall Chroma": 0.6733668341708543,
    "TN": 64,
    "TO": 426,
    "TP": 280,
    "TPC": 165,
    "TPCch": 204,
    "TPI": 115,
    "TPIch": 76,
    "Voiced Chroma Accuracy": 0.6107784431137725,
    "Voiced Pitch Accuracy": 0.4940119760479042,
    "Voicing Accuracy": 0.8075117370892019,
    "Voicing Detection": 0.8383233532934131,
    "Voicing False Alarm": 0.30434782608695654
}