{
    "f0": [
        37.937312092907845,
        49.469098117660529,
        49.295105060766808,
        49.467372851571696,
        49.64297077215631,
        49.986585892490297,
        50.240467488340727,
        50.181900853848219,
        49.61386764584276,
        46.05124236397198,
        39.927814926371191,
        70.341630640510175,
        50.053128194443389,
        49.106941990145749,
        49.618677752616406,
        49.42539021880426,
        47.906989653850523,
        47.326025158151623,
        47.187487870374724,
        47.047831768306636,
        46.768289308609098,
        46.714909702998895,
        46.777698251309388,
        46.680638759405781,
        46.58303305154098,
        46.491052054556533,
        46.567736231596669,
        46.721622704533353,
        46.600191736920252,
        46.799264253841088,
        46.771752871571834,
        46.784184502741084,
        47.127810213470909,
        47.17110406423911,
        47.704198477439249,
        47.635599828827694,
        47.690590072101998,
        47.678197260434274,
        48.595193268262612,
        48.733488478184341,
        49.063953583341664,
        49.119663523503299,
        48.602840229176309,
        48.009879119410343,
        47.427118259838743,
        48.913321113303738,
        49.052475693420426,
        49.104570118964553,
        48.849650799009424,
        48.813358323829519,
        48.665891850560122,
        47.866553843658338,
        47.715823489403078,
        48.740993331749671,
        49.022154561694492,
        48.933398809334989,
        48.552908694017383,
        48.825165258623741,
        48.776630494639505,
        48.855546752127211,
        48.656272167129728,
        48.225045722057139,
        48.073233482434276,
        0.0,
        0.0,
        0.0,
        46.792522832286309,
        58.946787101989663,
        47.543447424249536,
        40.148732072464718,
        47.139731002398101,
        58.715240254979733,
        49.56380036750253,
        48.195535179802157,
        47.890810839358416,
        47.332339627226808,
        47.056307553662826,
        46.795731421421124,
        46.863892974408316,
        46.339680364856832,
        58.024199380826325,
        58.104698505149059,
        46.441103393943578,
        46.633823471787437,
        47.167253323353037,
        47.519218665226568,
        47.725009504759981,
        47.823295925277513,
        48.485088728380461,
        48.325649448218257,
        48.450197393713637,
        48.766255013496121,
        48.982423889337156,
        48.892769377638942,
        49.393651304289349,
        49.464329812105895,
        49.393427722799515,
        49.23358948436352,
        49.170644888048002,
        49.404467684754486,
        48.756039527557213,
        48.903155635379989,
        49.523188683782216,
        49.720387501539918,
        49.58765463457943,
        49.319174844351224,
        49.115027052600858,
        49.216609455617771,
        49.217079956808192,
        49.217548718219781,
        49.560848122911537,
        49.556212080577502,
        49.551576611423229,
        49.838149201316206,
        50.010986957799979,
        50.408461759652255,
        50.969280899222383,
        50.034840181774598,
        49.047070380154551,
        49.592094311180702,
        49.249604196995875,
        49.292912480416227,
        50.214971860110481,
        53.237199029730384,
        52.875114448419076,
        51.703644432503289,
        51.394460226024208,
        51.282768544767009,
        51.209897099905291,
        51.169130776544975,
        51.212928398075633,
        51.198888253928658,
        51.1941820877704,
        51.678676869820571,
        51.733839152004393,
        51.997490110782792,
        52.497553265608815,
        52.983576689713303,
        53.266750481424829,
        53.638904431432508,
        53.957494804603343,
        54.4650633988946,
        56.834251043418419,
        55.738465413972854,
        42.27721229057645,
        43.056201644462767,
        53.144017871352716,
        48.562562522882608,
        51.925276557688662,
        51.028891394802542,
        50.825749768045512,
        50.926940677310242,
        50.753351989444099,
        50.653302180622774,
        50.857674588448461,
        51.019715796207471,
        51.117495727976973,
        51.245960987835559,
        51.466428267325611,
        51.4489821969293,
        51.376856617590875,
        51.304429405028955,
        51.231701319543632,
        50.808909311833276,
        51.067456927204553,
        51.168567504417318,
        50.995876417535385,
        50.934616230868798,
        50.998502237586052,
        50.872442308429896,
        50.928992107926163,
        51.275778925478882,
        51.64624774050381,
        52.16629379768311,
        53.273942878390514,
        54.160776733108136,
        50.869224201156698,
        51.010328238616289,
        51.000069570287003,
        51.306831944090362,
        51.298752214464884,
        51.384388534705487,
        51.335477729970052,
        49.31987102694896,
        46.191580797366669,
        43.790996830979864,
        42.214290148840661,
        37.417188252330043,
        48.743285966517689,
        48.553458340316695,
        49.214420112264747,
        49.388901377854069,
        49.825298178633261,
        49.593289725280371,
        49.129318593292979,
        49.113372119041344,
        49.097414669345454,
        50.433033732388964,
        49.820988676629895,
        49.284568851936733,
        49.861476314817601,
        50.020989658241646,
        49.259940079681158,
        49.144719341747759,
        49.368367572656858,
        48.206992589819109,
        47.736733294223725,
        47.632934952315381,
        47.430030971750497,
        47.100623758901094,
        46.953615648825398,
        46.710399225887983,
        46.667555658375512,
        46.624606947314632,
        46.581552572571368,
        46.710657007243682,
        46.818460847081923,
        46.521095968336233,
        46.493639748041559,
        46.455350021219076,
        46.59464496860263,
        46.695990731841533,
        47.104858395551865,
        47.310002138159547,
        47.431540754798959,
        47.242840693246102,
        47.145784812970589,
        47.001115743167205,
        47.390704691538048,
        47.54397096566742,
        47.459390056046722,
        47.636521592728457,
        48.067505521288012,
        48.706569868309217,
        48.868014376631976,
        49.154864836984565,
        49.318710788824362,
        49.36573637597111,
        49.296221815377322,
        48.974089493324911,
        48.971653555161225,
        49.044933622757448,
        48.938082166266966,
        48.80627423717921,
        48.71949205347309,
        48.882305825977653,
        48.873410569240406,
        49.002318733394858,
        49.100013064084038,
        49.03821378242155,
        48.976191105983716,
        48.907437145816338,
        49.057860395605701,
        49.206989751576032,
        49.306228375951775,
        49.253765190600973,
        49.081522192973729,
        48.978073083738366,
        49.033623890102355,
        49.08899527845692,
        48.906806691809663,
        48.903345316348137,
        48.899883374332546,
        48.854431942394548,
        48.833134618374558,
        48.850212272870067,
        48.991640883238375,
        49.102523895509449,
        49.053321288679697,
        49.049632621341814,
        49.023127262635406,
        49.6870091839655,
        49.484431325658079,
        49.581099705291052,
        49.58405767744182,
        49.10633204405292,
        50.238318750056891,
        50.051790137213906,
        50.002874537256872,
        49.177215481125764,
        49.731544307292211,
        49.299974462332671,
        49.394124589059032,
        48.76129101336592,
        49.005859279501102,
        48.876751245182369,
        49.556961454603467,
        50.034946083033091,
        50.929051779831155,
        50.045437450761554,
        49.424183154466512,
        49.29868004267145,
        48.912865133361549,
        48.994262823303508,
        0.0,
        0.0,
        0.0,
        0.0,
        0.0,
        0.0,
        0.0,
        0.0,
        0.0,
        0.0,
        0.0,
        0.0,
        0.0,
        0.0,
        0.0,
        0.0,
        0.0,
        0.0,
        0.0,
        0.0,
        0.0,
        0.0,
        0.0,
        0.0,
        0.0,
        0.0,
        0.0,
        0.0,
        0.0,
        0.0,
        0.0,
        0.0,
        0.0,
        0.0,
        0.0,
        0.0,
        0.0,
        0.0,
        0.0,
        0.0,
        0.0,
        0.0,
        0.0,
        0.0,
        0.0,
        0.0,
        0.0,
        0.0,
        0.0,
        0.0,
        0.0,
        0.0,
        0.0,
        0.0,
        0.0,
        0.0,
        0.0,
        0.0,
        0.0,
        0.0,
        0.0,
        0.0,
        0.0,
        0.0,
        0.0,
        0.0,
        0.0,
        0.0,
        0.0,
        0.0,
        0.0,
        0.0,
        0.0,
        0.0,
        0.0,
        0.0,
        0.0,
        0.0,
        0.0,
        0.0,
        0.0,
        0.0,
        0.0,
        0.0,
        0.0,
        0.0,
        0.0,
        0.0,
        0.0,
        0.0,
        0.0,
        0.0,
        0.0,
        0.0,
        0.0,
        0.0,
        0.0,
        0.0,
        0.0,
        0.0,
        0.0,
        0.0,
        0.0,
        0.0,
        0.0,
        0.0,
        0.0,
        0.0,
        0.0,
        0.0,
        0.0,
        0.0,
        0.0,
        0.0,
        0.0,
        0.0,
        0.0,
        0.0,
        0.0,
        0.0,
        0.0,
        0.0,
        0.0,
        0.0,
        0.0,
        0.0,
        0.0,
        0.0,
        0.0,
        0.0,
        0.0,
        0.0,
        0.0,
        0.0,
        0.0,
        0.0,
        0.0,
        0.0,
        0.0,
        0.0,
        0.0,
        0.0,
        0.0,
        0.0,
        0.0,
        0.0,
        0.0,
        0.0,
        0.0,
        0.0,
        0.0,
        0.0,
        0.0,
        0.0,
        0.0,
        0.0,
        0.0,
        0.0
    ],
    "time": [
        0.02,
        0.040000000000000001,
        0.059999999999999998,
        0.080000000000000002,
        0.10000000000000001,
        0.12,
        0.14000000000000001,
        0.16,
        0.17999999999999999,
        0.20000000000000001,
        0.22,
        0.23999999999999999,
        0.26000000000000001,
        0.28000000000000003,
        0.29999999999999999,
        0.32000000000000001,
        0.34000000000000002,
        0.35999999999999999,
        0.38,
        0.40000000000000002,
        0.41999999999999998,
        0.44,
        0.46000000000000002,
        0.47999999999999998,
        0.5,
        0.52000000000000002,
        0.54000000000000004,
        0.56000000000000005,
        0.57999999999999996,
        0.59999999999999998,
        0.62,
        0.64000000000000001,
        0.66000000000000003,
        0.68000000000000005,
        0.69999999999999996,
        0.71999999999999997,
        0.73999999999999999,
        0.76000000000000001,
        0.78000000000000003,
        0.80000000000000004,
        0.81999999999999995,
        0.83999999999999997,
        0.85999999999999999,
        0.88,
        0.90000000000000002,
        0.92000000000000004,
        0.93999999999999995,
        0.95999999999999996,
        0.97999999999999998,
        1.0,
        1.02,
        1.04,
        1.0600000000000001,
        1.0800000000000001,
        1.1000000000000001,
        1.1200000000000001,
        1.1399999999999999,
        1.1599999999999999,
        1.1799999999999999,
        1.2,
        1.22,
        1.24,
        1.26,
        1.28,
        1.3,
        1.3200000000000001,
        1.3400000000000001,
        1.3600000000000001,
        1.3799999999999999,
        1.3999999999999999,
        1.4199999999999999,
        1.4399999999999999,
        1.46,
        1.48,
        1.5,
        1.52,
        1.54,
        1.5600000000000001,
        1.5800000000000001,
        1.6000000000000001,
        1.6200000000000001,
        1.6399999999999999,
        1.6599999999999999,
        1.6799999999999999,
        1.7,
        1.72,
        1.74,
        1.76,
        1.78,
        1.8,
        1.8200000000000001,
        1.8400000000000001,
        1.8600000000000001,
        1.8799999999999999,
        1.8999999999999999,
        1.9199999999999999,
        1.9399999999999999,
        1.96,
        1.98,
        2.0,
        2.02,
        2.04,
        2.0600000000000001,
        2.0800000000000001,
        2.1000000000000001,
        2.1200000000000001,
        2.1400000000000001,
        2.1600000000000001,
        2.1800000000000002,
        2.2000000000000002,
        2.2200000000000002,
        2.2400000000000002,
        2.2599999999999998,
        2.2799999999999998,
        2.2999999999999998,
        2.3199999999999998,
        2.3399999999999999,
        2.3599999999999999,
        2.3799999999999999,
        2.3999999999999999,
        2.4199999999999999,
        2.4399999999999999,
        2.46,
        2.48,
        2.5,
        2.52,
        2.54,
        2.5600000000000001,
        2.5800000000000001,
        2.6000000000000001,
        2.6200000000000001,
        2.6400000000000001,
        2.6600000000000001,
        2.6800000000000002,
        2.7000000000000002,
        2.7200000000000002,
        2.7400000000000002,
        2.7599999999999998,
        2.7799999999999998,
        2.7999999999999998,
        2.8199999999999998,
        2.8399999999999999,
        2.8599999999999999,
        2.8799999999999999,
        2.8999999999999999,
        2.9199999999999999,
        2.9399999999999999,
        2.96,
        2.98,
        3.0,
        3.02,
        3.04,
        3.0600000000000001,
        3.0800000000000001,
        3.1000000000000001,
        3.1200000000000001,
        3.1400000000000001,
        3.1600000000000001,
        3.1800000000000002,
        3.2000000000000002,
        3.2200000000000002,
        3.2400000000000002,
        3.2599999999999998,
        3.2799999999999998,
        3.2999999999999998,
        3.3199999999999998,
        3.3399999999999999,
        3.3599999999999999,
        3.3799999999999999,
        3.3999999999999999,
        3.4199999999999999,
        3.4399999999999999,
        3.46,
        3.48,
        3.5,
        3.52,
        3.54,
        3.5600000000000001,
        3.5800000000000001,
        3.6000000000000001,
        3.6200000000000001,
        3.6400000000000001,
        3.6600000000000001,
        3.6800000000000002,
        3.7000000000000002,
        3.7200000000000002,
        3.7400000000000002,
        3.7599999999999998,
        3.7799999999999998,
        3.7999999999999998,
        3.8199999999999998,
        3.8399999999999999,
        3.8599999999999999,
        3.8799999999999999,
        3.8999999999999999,
        3.9199999999999999,
        3.9399999999999999,
        3.96,
        3.98,
        4.0,
        4.0199999999999996,
        4.04,
        4.0599999999999996,
        4.0800000000000001,
        4.0999999999999996,
        4.1200000000000001,
        4.1399999999999997,
        4.1600000000000001,
        4.1799999999999997,
        4.2000000000000002,
        4.2199999999999998,
        4.2400000000000002,
        4.2599999999999998,
        4.2800000000000002,
        4.2999999999999998,
        4.3200000000000003,
        4.3399999999999999,
        4.3600000000000003,
        4.3799999999999999,
        4.4000000000000004,
        4.4199999999999999,
        4.4400000000000004,
        4.46,
        4.4800000000000004,
        4.5,
        4.5199999999999996,
        4.54,
        4.5599999999999996,
        4.5800000000000001,
        4.5999999999999996,
        4.6200000000000001,
        4.6399999999999997,
        4.6600000000000001,
        4.6799999999999997,
        4.7000000000000002,
        4.7199999999999998,
        4.7400000000000002,
        4.7599999999999998,
        4.7800000000000002,
        4.7999999999999998,
        4.8200000000000003,
        4.8399999999999999,
        4.8600000000000003,
        4.8799999999999999,
        4.9000000000000004,
        4.9199999999999999,
        4.9400000000000004,
        4.96,
        4.9800000000000004,
        5.0,
        5.0199999999999996,
        5.04,
        5.0599999999999996,
        5.0800000000000001,
        5.0999999999999996,
        5.1200000000000001,
        5.1399999999999997,
        5.1600000000000001,
        5.1799999999999997,
        5.2000000000000002,
        5.2199999999999998,
        5.2400000000000002,
        5.2599999999999998,
        5.2800000000000002,
        5.2999999999999998,
        5.3200000000000003,
        5.3399999999999999,
        5.3600000000000003,
        5.3799999999999999,
        5.4000000000000004,
        5.4199999999999999,
        5.4400000000000004,
        5.46,
        5.4800000000000004,
        5.5,
        5.5199999999999996,
        5.54,
        5.5599999999999996,
        5.5800000000000001,
        5.5999999999999996,
        5.6200000000000001,
        5.6399999999999997,
        5.6600000000000001,
        5.6799999999999997,
        5.7000000000000002,
        5.7199999999999998,
        5.7400000000000002,
        5.7599999999999998,
        5.7800000000000002,
        5.7999999999999998,
        5.8200000000000003,
        5.8399999999999999,
        5.8600000000000003,
        5.8799999999999999,
        5.9000000000000004,
        5.9199999999999999,
        5.9400000000000004,
        5.96,
        5.9800000000000004,
        6.0,
        6.0199999999999996,
        6.04,
        6.0599999999999996,
        6.0800000000000001,
        6.0999999999999996,
        6.1200000000000001,
        6.1399999999999997,
        6.1600000000000001,
        6.1799999999999997,
        6.2000000000000002,
        6.2199999999999998,
        6.2400000000000002,
        6.2599999999999998,
        6.2800000000000002,
        6.2999999999999998,
        6.3200000000000003,
        6.3399999999999999,
        6.3600000000000003,
        6.3799999999999999,
        6.4000000000000004,
        6.4199999999999999,
        6.4400000000000004,
        6.46,
        6.4800000000000004,
        6.5,
        6.5199999999999996,
        6.54,
        6.5599999999999996,
        6.5800000000000001,
        6.5999999999999996,
        6.6200000000000001,
        6.6399999999999997,
        6.6600000000000001,
        6.6799999999999997,
        6.7000000000000002,
        6.7199999999999998,
        6.7400000000000002,
        6.7599999999999998,
        6.7800000000000002,
        6.7999999999999998,
        6.8200000000000003,
        6.8399999999999999,
        6.8600000000000003,
        6.8799999999999999,
        6.9000000000000004,
        6.9199999999999999,
        6.9400000000000004,
        6.96,
        6.9800000000000004,
        7.0,
        7.0199999999999996,
        7.04,
        7.0599999999999996,
        7.0800000000000001,
        7.0999999999999996,
        7.1200000000000001,
        7.1399999999999997,
        7.1600000000000001,
        7.1799999999999997,
        7.2000000000000002,
        7.2199999999999998,
        7.2400000000000002,
        7.2599999999999998,
        7.2800000000000002,
        7.2999999999999998,
        7.3200000000000003,
        7.3399999999999999,
        7.3600000000000003,
        7.3799999999999999,
        7.4000000000000004,
        7.4199999999999999,
        7.4400000000000004,
        7.46,
        7.4800000000000004,
        7.5,
        7.5199999999999996,
        7.54,
        7.5599999999999996,
        7.5800000000000001,
        7.5999999999999996,
        7.6200000000000001,
        7.6399999999999997,
        7.6600000000000001,
        7.6799999999999997,
        7.7000000000000002,
        7.7199999999999998,
        7.7400000000000002,
        7.7599999999999998,
        7.7800000000000002,
        7.7999999999999998,
        7.8200000000000003,
        7.8399999999999999,
        7.8600000000000003,
        7.8799999999999999,
        7.9000000000000004,
        7.9199999999999999,
        7.9400000000000004,
        7.96,
        7.9800000000000004,
        8.0,
        8.0199999999999996,
        8.0399999999999991,
        8.0600000000000005,
        8.0800000000000001,
        8.0999999999999996,
        8.1199999999999992,
        8.1400000000000006,
        8.1600000000000001,
        8.1799999999999997,
        8.1999999999999993,
        8.2200000000000006,
        8.2400000000000002,
        8.2599999999999998,
        8.2799999999999994,
        8.3000000000000007,
        8.3200000000000003,
        8.3399999999999999,
        8.3599999999999994,
        8.3800000000000008,
        8.4000000000000004,
        8.4199999999999999,
        8.4399999999999995,
        8.4600000000000009,
        8.4800000000000004,
        8.5,
        8.5199999999999996,
        8.5399999999999991,
        8.5600000000000005,
        8.5800000000000001,
        8.5999999999999996,
        8.6199999999999992,
        8.6400000000000006,
        8.6600000000000001,
        8.6799999999999997,
        8.6999999999999993,
        8.7200000000000006,
        8.7400000000000002,
        8.7599999999999998,
        8.7799999999999994,
        8.8000000000000007,
        8.8200000000000003,
        8.8399999999999999,
        8.8599999999999994,
        8.8800000000000008,
        8.9000000000000004,
        8.9199999999999999,
        8.9399999999999995,
        8.9600000000000009,
        8.9800000000000004,
        9.0,
        9.0199999999999996,
        9.0399999999999991
    ]
}