{
    "DU": 136,
    "DV": 259,
    "F-measure": 0.5637982195845698,
    "F-measure Chroma": 0.7448071216617211,
    "FN": 72,
    "FNC": 11,
    "FNCch": 28,
    "FNI": 61,
    "FNIch": 44,
    "FP": 44,
    "GU": 108,
    "GV": 287,
    "Overall Accuracy": 0.4810126582278481,
    "Overall Chroma Accuracy": 0.6354430379746835,
    "Precision": 0.5882352941176471,
    "Precision Chroma": 0.7770897832817337,
    "Raw Chroma Accuracy": 0.7491289198606271,
    "Raw Pitch Accuracy": 0.47735191637630664,
    "Recall": 0.5413105413105413,
    "Recall Chroma": 0.7150997150997151,
    "TN": 64,
    "TO": 395,
    "TP": 215,
    "TPC": 126,
    "TPCch": 187,
    "TPI": 89,
    "TPIch": 28,
    "Voiced Chroma Accuracy": 0.6515679442508711,
    "Voiced Pitch Accuracy": 0.43902439024390244,
    "Voicing Accuracy": 0.7063291139240506,
    "Voicing Detection": 0.7491289198606271,
    "Voicing False Alarm": 0.4074074074074074
}