{
    "DU": 77,
    "DV": 288,
    "F-measure": 0.22916666666666666,
    "F-measure Chroma": 0.3333333333333333,
    "FN": 0,
    "FNC": 0,
    "FNCch": 0,
    "FNI": 0,
    "FNIch": 0,
    "FP": 58,
    "GU": 135,
    "GV": 230,
    "Overall Accuracy": 0.21095890410958903,
    "Overall Chroma Accuracy": 0.30684931506849317,
    "Precision": 0.21095890410958903,
    "Precision Chroma": 0.30684931506849317,
    "Raw Chroma Accuracy": 0.15217391304347827,
    "Raw Pitch Accuracy": 0.0,
    "Recall": 0.250814332247557,
    "Recall Chroma": 0.36482084690553745,
    "TN": 77,
    "TO": 365,
    "TP": 230,
    "TPC": 0,
    "TPCch": 35,
    "TPI": 230,
    "TPIch": 195,
    "Voiced Chroma Accuracy": 0.15217391304347827,
    "Voiced Pitch Accuracy": 0.0,
    "Voicing Accuracy": 0.8410958904109589,
    "Voicing Detection": 1.0,
    "Voicing False Alarm": 0.42962962962962964
}