{
    "f0": [
        41.555840840900444,
        40.868797192675061,
        36.744394264529404,
        39.654204452658249,
        39.222813669890186,
        0.0,
        58.384934799538584,
        48.912752140880357,
        45.884094056379602,
        58.401750491026291,
        58.4017527407578,
        58.574020882406813,
        58.659514694149962,
        58.613552294079305,
        58.567465387467507,
        58.661627874879471,
        58.684792099076788,
        58.707923160240298,
        58.557029342918433,
        58.29100757701552,
        58.250986578048924,
        58.095911635271598,
        57.997536857533163,
        57.937227296526352,
        57.876706905451606,
        58.158801969254469,
        57.65840323564089,
        57.143106874044726,
        57.123734878536496,
        57.02234116109075,
        56.787645591765923,
        56.617123377663283,
        56.061148129862964,
        55.8584001907386,
        55.638456534740669,
        55.535910564002151,
        55.544646407695474,
        56.081954503256391,
        55.821329288358832,
        55.817764700657449,
        55.856409535310306,
        55.894965698295735,
        55.759443701166632,
        55.655296394623193,
        55.706466946630769,
        55.071391731117984,
        54.912344831574337,
        54.151438397526164,
        54.712724746198333,
        55.118685747839173,
        55.055451941959817,
        54.972451416944743,
        55.743542863297471,
        55.481780314840883,
        49.443350332178085,
        49.431193629916017,
        49.761851256843137,
        49.393841425654912,
        49.342215300030531,
        49.471348243375502,
        49.921174934429082,
        49.315546074309921,
        50.224871742722996,
        52.656558884718912,
        52.471952443318187,
        52.346026507496262,
        52.360910949708405,
        52.558340884730789,
        52.66352644113131,
        52.638877512271861,
        52.622169339394766,
        52.427462432490699,
        52.663602057846042,
        52.923453614531923,
        52.992224222106117,
        57.333029842281015,
        57.262976779343589,
        57.05192776430129,
        56.909649428674989,
        56.902509592260955,
        56.653315797274111,
        56.695976622725489,
        56.738532582328027,
        56.953249328382356,
        56.553144203142324,
        56.786216048241812,
        56.939370093538727,
        56.914474508837657,
        56.883585626388026,
        56.855628896177691,
        56.998392081056096,
        56.921240327034916,
        56.924791104065477,
        56.945844302316907,
        56.941407519666754,
        56.850438613864554,
        56.83749847463605,
        56.824548656042495,
        56.811589143592514,
        56.798620002375323,
        56.846218353739019,
        56.943049636005014,
        57.014815697644707,
        56.924508867569102,
        56.877586266794523,
        56.980827774733022,
        57.105276976117622,
        56.902633915798134,
        56.69758965160576,
        57.000720414452353,
        57.223646911173887,
        57.131040322584816,
        56.94595276416927,
        57.148247068207198,
        57.082629141494991,
        57.233759606126966,
        57.335145191364553,
        56.932715005148538,
        56.970663634601244,
        56.71975553132441,
        56.859293671594884,
        57.362855037081943,
        57.325904606208518,
        57.024424089482977,
        56.852700898119906,
        57.122890797632856,
        57.01266327922319,
        56.470741939025629,
        56.307481021783069,
        56.921201749971765,
        56.776292110125553,
        56.630160572448602,
        56.133023766221854,
        56.646872114084715,
        56.315264008840018,
        56.187267949256686,
        45.10010726290777,
        44.869087855623768,
        43.572945027734995,
        41.527931016732857,
        0.0,
        69.045181717301105,
        0.0,
        0.0,
        0.0,
        0.0,
        41.230519860183776,
        56.805244222100285,
        56.805240561295314,
        45.368910761731513,
        41.68264726564923,
        53.054979373472669,
        35.68201933127154,
        41.430442422221041,
        46.3097628449582,
        44.571424598559346,
        43.380567249279636,
        43.682006574355611,
        43.515426089271436,
        42.736987660162058,
        45.520517856588867,
        43.419759874394096,
        46.518081307057386,
        45.679632927887702,
        45.469861994595703,
        45.093211492255321,
        45.020765340395613,
        44.338676780177117,
        43.421389748102037,
        43.656125511556624,
        45.618613875495967,
        49.077406889748104,
        48.915470284360495,
        48.886701886488758,
        49.067413235706709,
        49.310639825686948,
        49.344780887696459,
        49.307822026819046,
        49.576854391844222,
        49.252968846080023,
        49.01740242450623,
        50.975568881969913,
        50.903968667146884,
        50.855429749619432,
        50.79504440098674,
        50.899198870891375,
        50.854876714892519,
        50.850271408758871,
        50.651760251483836,
        50.721567092938514,
        50.893462339447453,
        50.8390621892284,
        42.313584404586848,
        54.014343081932481,
        53.94915744257726,
        53.533968384078136,
        53.414030622707855,
        53.651861580503137,
        53.717693776103758,
        54.039817670281799,
        54.356057344244014,
        53.778617058718034,
        53.290847809790833,
        57.058878266811718,
        57.182591429531101,
        57.477687487652396,
        57.156031237810062,
        56.554360256336949,
        56.490846953053023,
        55.974421853024381,
        55.849269504173691,
        55.954129942998492,
        56.773513708043083,
        56.594555189339033,
        57.138376097461794,
        57.039605902045011,
        57.109469125590621,
        56.92323167211903,
        56.734971440450067,
        56.716899729102742,
        56.491570311307868,
        56.586607773314761,
        56.940237620077319,
        56.986289179124924,
        56.832964708562628,
        56.383950760185641,
        56.247002291822014,
        56.234554310109047,
        56.222098688506946,
        56.888634272546113,
        56.838310594708553,
        57.013840325288768,
        56.923787724915037,
        56.925289175842693,
        56.951452878325981,
        56.615510236054121,
        56.982213768440459,
        56.513981705396162,
        56.852232242310251,
        57.469774304042225,
        57.040573857270459,
        57.706347699107816,
        57.43784657667355,
        57.051404606620281,
        57.226132337084564,
        57.23787931439584,
        56.980613807877255,
        53.988285105288561,
        54.13800986368517,
        56.737036817784741,
        57.075370147577146,
        43.735750432137316,
        44.883908379495317,
        45.118763873929517,
        44.708922743074744,
        45.396933901727678,
        44.982344689244535,
        45.369610056175347,
        50.344203296809141,
        49.833243508003584,
        49.785616540548787,
        50.178411042551105,
        49.957975992999224,
        50.315896080829297,
        49.927401811938807,
        50.898662456624855,
        50.437295303666232,
        51.243407770939399,
        50.972359745799579,
        51.197313512520608,
        49.0261440718985,
        53.029164907067155,
        52.7992229176865,
        52.669345435534922,
        52.998318128020102,
        52.840452902913498,
        52.681131771416602,
        52.863160686834973,
        52.801920953307793,
        52.95647248556493,
        52.882233792416315,
        56.173030083219089,
        55.940741955202029,
        55.996810003704752,
        55.718134017684207,
        55.697115933996223,
        55.545300673667157,
        55.801059103790294,
        55.693473826276602,
        55.763355691508188,
        55.832956525649344,
        55.614957332938744,
        55.394177935527111,
        59.247327440429515,
        59.311167395510374,
        59.348916474971396,
        59.111467535260928,
        59.068957523917938,
        59.026346023350918,
        59.004445291285094,
        59.144361211293194,
        59.239361490484221,
        59.527902527695602,
        59.542535095453708,
        59.557158428847288,
        59.50472427605095,
        59.531811901149197,
        59.703563641155931,
        59.452374592788118,
        59.648408556853241,
        59.606454566589662,
        59.564395606154541,
        59.522237278984321,
        59.652237209119775,
        59.23721746723416,
        59.274158252868276,
        59.31101714630779,
        59.173809054010121,
        59.156346968123813,
        59.590220786543817,
        59.508654407996616,
        59.287843127534899,
        59.321171319703836,
        59.354434375652708,
        59.387634741060921,
        59.492483502530185,
        59.561097377637566,
        59.473186459022301,
        59.384827952274172,
        59.468281046464071,
        59.617023330199473,
        57.074205661650687,
        59.441855017225052,
        57.93175978124448,
        59.161489913550255,
        59.399744944361245,
        57.206119879898154,
        57.354142182088964,
        56.78516444898235,
        56.734177711981346,
        57.524196037086256,
        57.241822820603822,
        57.751975489495059,
        58.247528971322915,
        57.841282056415885,
        57.587849928885056,
        57.248335337750447,
        56.90203136170112,
        56.720920912008083,
        56.600401522455002,
        56.959322388976908,
        0.0,
        0.0,
        0.0,
        0.0,
        0.0,
        0.0,
        0.0,
        0.0,
        0.0,
        0.0,
        0.0,
        0.0,
        0.0,
        0.0,
        0.0,
        0.0,
        0.0,
        0.0,
        0.0,
        0.0,
        0.0,
        0.0,
        0.0,
        0.0,
        0.0,
        0.0,
        0.0,
        0.0,
        0.0,
        0.0,
        0.0,
        0.0,
        0.0,
        0.0,
        0.0,
        0.0,
        0.0,
        0.0,
        0.0,
        0.0,
        0.0,
        0.0,
        0.0,
        0.0,
        0.0,
        0.0,
        0.0,
        0.0,
        0.0,
        0.0,
        0.0,
        0.0,
        0.0,
        0.0,
        0.0,
        0.0,
        0.0,
        0.0,
        0.0,
        0.0
    ],
    "time": [
        0.02,
        0.040000000000000001,
        0.059999999999999998,
        0.080000000000000002,
        0.10000000000000001,
        0.12,
        0.14000000000000001,
        0.16,
        0.17999999999999999,
        0.20000000000000001,
        0.22,
        0.23999999999999999,
        0.26000000000000001,
        0.28000000000000003,
        0.29999999999999999,
        0.32000000000000001,
        0.34000000000000002,
        0.35999999999999999,
        0.38,
        0.40000000000000002,
        0.41999999999999998,
        0.44,
        0.46000000000000002,
        0.47999999999999998,
        0.5,
        0.52000000000000002,
        0.54000000000000004,
        0.56000000000000005,
        0.57999999999999996,
        0.59999999999999998,
        0.62,
        0.64000000000000001,
        0.66000000000000003,
        0.68000000000000005,
        0.69999999999999996,
        0.71999999999999997,
        0.73999999999999999,
        0.76000000000000001,
        0.78000000000000003,
        0.80000000000000004,
        0.81999999999999995,
        0.83999999999999997,
        0.85999999999999999,
        0.88,
        0.90000000000000002,
        0.92000000000000004,
        0.93999999999999995,
        0.95999999999999996,
        0.97999999999999998,
        1.0,
        1.02,
        1.04,
        1.0600000000000001,
        1.0800000000000001,
        1.1000000000000001,
        1.1200000000000001,
        1.1399999999999999,
        1.1599999999999999,
        1.1799999999999999,
        1.2,
        1.22,
        1.24,
        1.26,
        1.28,
        1.3,
        1.3200000000000001,
        1.3400000000000001,
        1.3600000000000001,
        1.3799999999999999,
        1.3999999999999999,
        1.4199999999999999,
        1.4399999999999999,
        1.46,
        1.48,
        1.5,
        1.52,
        1.54,
        1.5600000000000001,
        1.5800000000000001,
        1.6000000000000001,
        1.6200000000000001,
        1.6399999999999999,
        1.6599999999999999,
        1.6799999999999999,
        1.7,
        1.72,
        1.74,
        1.76,
        1.78,
        1.8,
        1.8200000000000001,
        1.8400000000000001,
        1.8600000000000001,
        1.8799999999999999,
        1.8999999999999999,
        1.9199999999999999,
        1.9399999999999999,
        1.96,
        1.98,
        2.0,
        2.02,
        2.04,
        2.0600000000000001,
        2.0800000000000001,
        2.1000000000000001,
        2.1200000000000001,
        2.1400000000000001,
        2.1600000000000001,
        2.1800000000000002,
        2.2000000000000002,
        2.2200000000000002,
        2.2400000000000002,
        2.2599999999999998,
        2.2799999999999998,
        2.2999999999999998,
        2.3199999999999998,
        2.3399999999999999,
        2.3599999999999999,
        2.3799999999999999,
        2.3999999999999999,
        2.4199999999999999,
        2.4399999999999999,
        2.46,
        2.48,
        2.5,
        2.52,
        2.54,
        2.5600000000000001,
        2.5800000000000001,
        2.6000000000000001,
        2.6200000000000001,
        2.6400000000000001,
        2.6600000000000001,
        2.6800000000000002,
        2.7000000000000002,
        2.7200000000000002,
        2.7400000000000002,
        2.7599999999999998,
        2.7799999999999998,
        2.7999999999999998,
        2.8199999999999998,
        2.8399999999999999,
        2.8599999999999999,
        2.8799999999999999,
        2.8999999999999999,
        2.9199999999999999,
        2.9399999999999999,
        2.96,
        2.98,
        3.0,
        3.02,
        3.04,
        3.0600000000000001,
        3.0800000000000001,
        3.1000000000000001,
        3.1200000000000001,
        3.1400000000000001,
        3.1600000000000001,
        3.1800000000000002,
        3.2000000000000002,
        3.2200000000000002,
        3.2400000000000002,
        3.2599999999999998,
        3.2799999999999998,
        3.2999999999999998,
        3.3199999999999998,
        3.3399999999999999,
        3.3599999999999999,
        3.3799999999999999,
        3.3999999999999999,
        3.4199999999999999,
        3.4399999999999999,
        3.46,
        3.48,
        3.5,
        3.52,
        3.54,
        3.5600000000000001,
        3.5800000000000001,
        3.6000000000000001,
        3.6200000000000001,
        3.6400000000000001,
        3.6600000000000001,
        3.6800000000000002,
        3.7000000000000002,
        3.7200000000000002,
        3.7400000000000002,
        3.7599999999999998,
        3.7799999999999998,
        3.7999999999999998,
        3.8199999999999998,
        3.8399999999999999,
        3.8599999999999999,
        3.8799999999999999,
        3.8999999999999999,
        3.9199999999999999,
        3.9399999999999999,
        3.96,
        3.98,
        4.0,
        4.0199999999999996,
        4.04,
        4.0599999999999996,
        4.0800000000000001,
        4.0999999999999996,
        4.1200000000000001,
        4.1399999999999997,
        4.1600000000000001,
        4.1799999999999997,
        4.2000000000000002,
        4.2199999999999998,
        4.2400000000000002,
        4.2599999999999998,
        4.2800000000000002,
        4.2999999999999998,
        4.3200000000000003,
        4.3399999999999999,
        4.3600000000000003,
        4.3799999999999999,
        4.4000000000000004,
        4.4199999999999999,
        4.4400000000000004,
        4.46,
        4.4800000000000004,
        4.5,
        4.5199999999999996,
        4.54,
        4.5599999999999996,
        4.5800000000000001,
        4.5999999999999996,
        4.6200000000000001,
        4.6399999999999997,
        4.6600000000000001,
        4.6799999999999997,
        4.7000000000000002,
        4.7199999999999998,
        4.7400000000000002,
        4.7599999999999998,
        4.7800000000000002,
        4.7999999999999998,
        4.8200000000000003,
        4.8399999999999999,
        4.8600000000000003,
        4.8799999999999999,
        4.9000000000000004,
        4.9199999999999999,
        4.9400000000000004,
        4.96,
        4.9800000000000004,
        5.0,
        5.0199999999999996,
        5.04,
        5.0599999999999996,
        5.0800000000000001,
        5.0999999999999996,
        5.1200000000000001,
        5.1399999999999997,
        5.1600000000000001,
        5.1799999999999997,
        5.2000000000000002,
        5.2199999999999998,
        5.2400000000000002,
        5.2599999999999998,
        5.2800000000000002,
        5.2999999999999998,
        5.3200000000000003,
        5.3399999999999999,
        5.3600000000000003,
        5.3799999999999999,
        5.4000000000000004,
        5.4199999999999999,
        5.4400000000000004,
        5.46,
        5.4800000000000004,
        5.5,
        5.5199999999999996,
        5.54,
        5.5599999999999996,
        5.5800000000000001,
        5.5999999999999996,
        5.6200000000000001,
        5.6399999999999997,
        5.6600000000000001,
        5.6799999999999997,
        5.7000000000000002,
        5.7199999999999998,
        5.7400000000000002,
        5.7599999999999998,
        5.7800000000000002,
        5.7999999999999998,
        5.8200000000000003,
        5.8399999999999999,
        5.8600000000000003,
        5.8799999999999999,
        5.9000000000000004,
        5.9199999999999999,
        5.9400000000000004,
        5.96,
        5.9800000000000004,
        6.0,
        6.0199999999999996,
        6.04,
        6.0599999999999996,
        6.0800000000000001,
        6.0999999999999996,
        6.1200000000000001,
        6.1399999999999997,
        6.1600000000000001,
        6.1799999999999997,
        6.2000000000000002,
        6.2199999999999998,
        6.2400000000000002,
        6.2599999999999998,
        6.2800000000000002,
        6.2999999999999998,
        6.3200000000000003,
        6.3399999999999999,
        6.3600000000000003,
        6.3799999999999999,
        6.4000000000000004,
        6.4199999999999999,
        6.4400000000000004,
        6.46,
        6.4800000000000004,
        6.5,
        6.5199999999999996,
        6.54,
        6.5599999999999996,
        6.5800000000000001,
        6.5999999999999996,
        6.6200000000000001,
        6.6399999999999997,
        6.6600000000000001,
        6.6799999999999997,
        6.7000000000000002,
        6.7199999999999998,
        6.7400000000000002,
        6.7599999999999998,
        6.7800000000000002,
        6.7999999999999998,
        6.8200000000000003,
        6.8399999999999999,
        6.8600000000000003,
        6.8799999999999999,
        6.9000000000000004,
        6.9199999999999999,
        6.9400000000000004,
        6.96,
        6.9800000000000004,
        7.0,
        7.0199999999999996,
        7.04,
        7.0599999999999996,
        7.0800000000000001,
        7.0999999999999996,
        7.1200000000000001,
        7.1399999999999997,
        7.1600000000000001,
        7.1799999999999997,
        7.2000000000000002,
        7.2199999999999998,
        7.2400000000000002,
        7.2599999999999998,
        7.2800000000000002,
        7.2999999999999998,
        7.3200000000000003,
        7.3399999999999999,
        7.3600000000000003,
        7.3799999999999999,
        7.4000000000000004,
        7.4199999999999999,
        7.4400000000000004,
        7.46,
        7.4800000000000004,
        7.5,
        7.5199999999999996,
        7.54,
        7.5599999999999996,
        7.5800000000000001,
        7.5999999999999996,
        7.6200000000000001,
        7.6399999999999997,
        7.6600000000000001,
        7.6799999999999997,
        7.7000000000000002,
        7.7199999999999998,
        7.7400000000000002,
        7.7599999999999998,
        7.7800000000000002,
        7.7999999999999998,
        7.8200000000000003,
        7.8399999999999999,
        7.8600000000000003,
        7.8799999999999999,
        7.9000000000000004,
        7.9199999999999999,
        7.9400000000000004,
        7.96,
        7.9800000000000004,
        8.0,
        8.0199999999999996,
        8.0399999999999991,
        8.0600000000000005,
        8.0800000000000001,
        8.0999999999999996,
        8.1199999999999992,
        8.1400000000000006,
        8.1600000000000001,
        8.1799999999999997,
        8.1999999999999993,
        8.2200000000000006
    ]
}