{
	"f0": [NaN,53.65698461,53.50429368,35.34887861,35.34887861,35.37098923,35.41867425,71.61341388,71.49318855,71.26217538,62.08732013,58.89261903,58.75538584,49.92513937,54.31867269,61.3997198,64.96293018,64.39982892,52.81077131,73.88627991,73.8193656,66.17427993,55.49888127,55.34995772,61.69161621,62.4780494,62.88401946,63.40384228,63.72114371,63.96060071,64.08555652,64.06155038,76.06899251,76.13710633,64.13608625,64.16679238,64.17771556,64.94630797,65.4354346,65.60765737,65.69062661,65.709191,65.76260735,65.75355224,65.65996662,65.67659463,65.65286503,65.66045448,65.69981794,65.6365073,65.60949147,66.82704218,67.43401296,67.57747234,67.67379245,67.70642562,67.6323033,67.62874328,67.61100568,67.60391399,67.62731024,67.69928414,67.66112471,67.49958364,67.42975245,67.44990456,67.40240307,67.4356124,67.63387391,67.73331549,67.89496686,68.03033303,68.01564098,68.20248078,68.37309673,68.41939482,68.45957942,68.66383869,68.64362169,68.81366764,69.27333664,69.48897105,69.5567618,69.53149331,69.45417067,69.3621753,69.3798454,69.45532505,69.45757134,69.31710052,69.39979405,69.55391514,69.54137326,69.57190442,69.47954192,69.4503386,69.41870536,69.54998825,69.40651435,69.28784128,69.22016166,69.16887782,69.30418096,69.12760289,69.21948885,69.41432671,69.35249407,66.39833637,66.38789253,66.6285521,66.77299311,66.80802293,66.86306652,66.79077191,66.7842158,66.91585282,66.8884702,66.74395623,66.76287338,66.4660379,66.09069547,66.15155503,66.12604394,65.90188746,65.69412578,65.58631339,65.60580435,65.70672524,65.73919449,65.58724396,65.53934372,65.49341637,65.53985779,65.60795731,65.63361053,64.82691323,64.51394785,64.29438456,64.20577141,64.21652398,64.26400481,64.37979583,64.50621532,64.55838525,64.55519731,64.55724151,64.56533749,64.52286282,64.51768775,64.53951728,64.56711281,64.54252252,64.55346511,64.52872117,64.52896836,64.51146804,64.44846373,64.42998284,64.46907985,64.51379332,64.53701207,64.46435188,62.4477732,42.60326309,61.6527084,61.66141483,61.79305706,62.01972333,62.14925668,62.24416134,62.37106694,62.46550758,62.59171701,62.67149611,62.7359995,62.80244808,62.82789471,62.80263361,62.77020678,62.72308119,62.58336651,62.39604495,62.40307871,62.55967012,62.52873626,62.42406004,62.47525773,62.4421663,62.68895763,62.82098715,62.8144769,62.8794836,62.82948665,62.5813771,62.55677977,62.64094595,62.7014619,62.70189474,62.75252018,62.60668502,62.63228661,55.60335722,67.593642,67.70702743,67.92273061,68.08314344,68.19342981,68.32089126,68.42321016,68.35059194,68.71656635,69.08133001,69.23443656,69.21521291,69.21004452,69.40829882,69.31242266,68.99716474,68.52939543,68.29075243,68.23255044,68.19982151,68.19013604,68.15409517,68.12984458,68.01937667,67.87197501,67.67693585,67.32703284,66.64610422,66.64500113,66.51939307,66.34279655,66.27557315,66.17120354,66.15902485,66.15408788,66.13101902,66.07528222,66.01937115,65.7890236,65.53407436,65.51582579,65.64754001,65.78779678,65.97775286,66.01837439,66.0950127,66.12748844,66.10908098,66.05038165,66.03208412,66.0058892,65.9688784,66.03856173,65.9398476,65.93762861,65.4241213,65.25691623,77.23982995,77.19974188,77.15336893,77.13600503,77.13765856,77.13474349,77.13327697,77.12778601,65.09822061,65.12111843,65.27954069,65.63271619,65.73137731,65.74287436,65.71968352,65.78383738,65.83034574,65.74691823,65.7625747,65.73336163,65.68920272,65.83633173,65.86545834,65.80815808,65.78853769,66.24060782,66.21232776,66.10025033,66.04598359,65.99290203,65.88562361,65.98919604,66.05847262,66.2185423,66.60821722,67.00156859,67.32905,67.76975445,67.79081895,67.65203417,67.97468785,67.89647895,67.89923584,67.90832481,67.82343107,67.77172914,67.73304071,67.69884135,67.78643877,67.78761992,67.74301452,67.53638898,67.44020143,67.61752958,67.71660921,67.853348,67.83860655,67.74341007,67.80854653,67.76525132,67.79748253,67.90286957,67.87570154,67.78786751,60.33481301,67.72472039,39.45286975,64.03369852,76.42956885,64.65483592,65.04288049,65.35234785,65.44858043,65.59116166,65.83815946,65.62646729,65.45056545,65.41592344,65.62766806,65.67765092,65.03617831,64.95878135,64.9398104,64.82180538,64.79896885,64.87474288,64.97326536,64.96985735,64.92076011,64.8271041,64.7292205,64.83067295,64.94971354,64.5863942,64.10709077,63.50562377,63.12937886,62.85790777,62.80816322,62.8241336,62.78360414,62.647176,62.55268883,62.53220735,62.67502722,62.85530709,62.76195159,62.68082717,62.7066283,62.72670954,62.71725284,62.66144711,62.84468533,62.85924773,62.68481906,62.55557469,62.46321382,62.47430171,62.53746698,62.55493588,62.67938339,62.94568916,63.0544957,62.83362394,62.80760746,63.01711942,63.01020078,62.80986811,62.74189744,62.73304044,62.8680947,62.96704905,62.85004587,74.7230353,74.79879595,75.48682058,63.32056249,63.6859422,63.24048982,63.01051902,75.26364514,75.3490332,75.41974649,75.592295,63.52545561,63.46806798,63.15302926,75.1661988,63.11371708,63.36160963,63.53556799,63.88988291,64.28056016,76.27437343,62.98588072,74.7870529,74.79156798,62.77711961,63.02001066,63.18707842,63.1248422,62.9444282,62.80319117,62.6474094,62.68199586,62.71996888,62.65450977,62.65229006,62.63005731,74.49663268,73.52483579,36.44932226,35.34887861,38.11441628,46.9446811,76.93035138,76.93035138,76.93035138,76.93035138,76.93035138,76.93035138,76.93035138,NaN,NaN,NaN],
	"ap0": [NaN,0.5338397973,0.5143901348,0.4127328738,0.4564812714,0.6860437294,0.7268593777,0.7832228855,0.7768728387,0.7469262757,0.7002691804,0.6679897056,0.7240534396,0.7361056608,0.7489308298,0.6716344656,0.7843542681,0.8218862026,0.7181113793,0.6694816198,0.6179016986,0.8959413123,0.6645169705,0.7625551657,0.3148471723,0.1946467456,0.06818489921,0.06913447284,0.03669217088,0.02738667164,0.01167836585,0.004877220463,0.03555017545,0.1021531713,0.01082975002,0.01825316895,0.03218443371,0.2429591111,0.07035600154,0.03265306718,0.01988754292,0.0207827387,0.03473243482,0.07777737627,0.1203593786,0.1014937245,0.04357034696,0.03290556622,0.0329503582,0.0426893397,0.05933248969,0.0827509259,0.02621474827,0.008065619005,0.005108682811,0.003768551239,0.003624653172,0.004068921852,0.004702146422,0.0044937344,0.006601239463,0.01223998316,0.007526642269,0.01060861579,0.02332028359,0.04078454518,0.03535338464,0.04280634769,0.007112090589,0.001926742628,0.002281846839,0.003610020462,0.01166777277,0.03021981566,0.01780763345,0.006303254478,0.005054507366,0.00581178816,0.006840602121,0.01474074172,0.00880317631,0.005201051274,0.00360426475,0.00286227582,0.01677980856,0.01441648167,0.003370224009,0.008330688427,0.01728068941,0.01369119783,0.01569150797,0.007435050737,0.005306433193,0.006484521039,0.006454952727,0.01011470656,0.02084603527,0.08180222435,0.09435203364,0.03962713139,0.03286571302,0.05978558796,0.1092658949,0.08495613339,0.06403865541,0.07423703766,0.1200966369,0.1034129361,0.06712641521,0.02413315862,0.01558521063,0.01859265245,0.009893759311,0.006435824975,0.03083771081,0.03143607549,0.02316059098,0.03683916833,0.04226162419,0.2179339162,0.1443221454,0.09131558213,0.03699031944,0.0272937329,0.02508093224,0.01889654491,0.01418231857,0.007647947615,0.01116221212,0.02481471162,0.03727668674,0.03391894469,0.02865734279,0.02268853293,0.0302737431,0.0665132276,0.0391137505,0.04072501672,0.02738670565,0.01012295649,0.01311135009,0.02713575714,0.01163798304,0.005029220859,0.007748793484,0.008187437001,0.005455843864,0.005726959362,0.004368777796,0.003419961215,0.006125722642,0.009637988769,0.007728535475,0.006887671686,0.005843966929,0.004899812741,0.005821432927,0.01161919632,0.008106453281,0.003649487884,0.005025611546,0.05708050574,0.5343672999,0.2255279185,0.1542441973,0.06674436585,0.07229167427,0.08530119124,0.04586452806,0.05298989939,0.0804381051,0.06283281167,0.03736236328,0.03392049544,0.03028645877,0.02311658971,0.01716299379,0.015376096,0.012181314,0.01286297873,0.02535330837,0.06184425633,0.06582863506,0.02229882781,0.05739576261,0.05663307426,0.03884390742,0.0516667292,0.3629536639,0.3771021598,0.1159145341,0.02773528814,0.02214036705,0.01469632988,0.008773535668,0.02300460543,0.0687254487,0.02606690755,0.04292887209,0.03149197567,0.01704359282,0.2434213032,0.1448410808,0.02005924611,0.01881655601,0.0222208589,0.03129388045,0.0680868653,0.1647928726,0.07917120282,0.07944105969,0.05034374539,0.03219080225,0.03720510697,0.04203040076,0.02192450261,0.02705794579,0.08287830411,0.07840133444,0.01827316573,0.01520604327,0.01767304627,0.01324999326,0.01137413058,0.01034790212,0.007832737295,0.004417553249,0.007870366523,0.02591620947,0.06568492166,0.04637843885,0.04093924674,0.03524121145,0.03105736393,0.02193911018,0.01415404467,0.005300878761,0.006454679508,0.01047831041,0.0118573789,0.01627250634,0.01487509387,0.006667048998,0.006613864795,0.009970496344,0.01620097988,0.0102473411,0.009531078561,0.005562160938,0.002753156408,0.004573946753,0.0108297336,0.02073121146,0.02059579257,0.02115455975,0.0148296605,0.04708278216,0.03501292022,0.01237127124,0.01544815506,0.008630954617,0.006947557058,0.006249115791,0.008307453212,0.01291026524,0.02921351889,0.07929299718,0.003266151325,0.004516302316,0.03564373823,0.05769829878,0.03479120498,0.02917747212,0.02293220056,0.01717076281,0.01901231601,0.0234072859,0.0271528629,0.02721320547,0.02544501266,0.03028326996,0.01523831778,0.01229473043,0.05064683517,0.1828109026,0.1141695215,0.039970642,0.02245238466,0.03141336923,0.03324991539,0.008834378586,0.009614237739,0.0161047345,0.03210981908,0.03934510415,0.04422766164,0.03734904059,0.06316942777,0.1115784655,0.0788785898,0.03313995022,0.0131286964,0.004570401734,0.00252789297,0.003241778483,0.006115481615,0.01335303277,0.01897058375,0.00969586065,0.01088350347,0.03453436001,0.03740690617,0.02932107922,0.02544557604,0.03389012066,0.04030074868,0.04964667012,0.04052230521,0.02452770405,0.04685298582,0.1072238506,0.181272901,0.4151329738,0.7664627753,0.7008298213,0.5319144723,0.2531026824,0.2253153896,0.1359298038,0.06134309159,0.02503306365,0.02876151358,0.08521134803,0.1181913243,0.142380663,0.09754354832,0.07034657832,0.0660751132,0.0776375917,0.1299313931,0.1011219917,0.06260100962,0.01978757773,0.006364677622,0.006825448912,0.006768023065,0.008688258249,0.009300050727,0.008878942453,0.007995990427,0.009841047444,0.02691140692,0.08356409945,0.1162690052,0.156558156,0.1347013115,0.05914986223,0.04630846519,0.02960583539,0.01951743465,0.01884525583,0.02258513186,0.03388666263,0.04855472654,0.05081615875,0.03458848306,0.0303150304,0.02796036096,0.02535621838,0.05318971265,0.1191785461,0.0887949812,0.04772262656,0.05256090095,0.03418512549,0.01547974776,0.02422951226,0.05317398521,0.03691984899,0.02888160224,0.05264584345,0.07157661298,0.08743729942,0.1114523771,0.1554992931,0.1541214665,0.07855452514,0.05271901513,0.09159490068,0.1048316153,0.1585450965,0.1686752413,0.100554577,0.1249640613,0.2950272545,0.3389487986,0.2780212033,0.2452447595,0.2346555048,0.1561478977,0.1253683065,0.1447684229,0.3723922195,0.3213454567,0.3048498881,0.2597319083,0.2153202106,0.1969880768,0.2247191351,0.2078364463,0.2889708714,0.2624705536,0.2708005818,0.2367925468,0.1329611682,0.1267629914,0.1017301871,0.1265170405,0.1816654591,0.1465167568,0.04250508672,0.03029280828,0.05591694343,0.1211936227,0.1412504816,0.08193946461,0.07848458443,0.1062193923,0.2592383999,1.132344449,0.7045474202,0.8680625509,0.5713112484,1,1,1,1,1,1,1,1,NaN,NaN,NaN],
	"ap": [NaN,0.112377396,0.2738048578,0.2804173938,0.1249401159,0.2484229028,0.331532144,0.4492770708,0.2834300116,0.2190787586,0.4991208219,0.3734184164,0.2836296003,0.7149418742,0.4019903508,0.463381514,0.2818995486,0.4424205451,0.4278233888,0.4310193507,0.5679559514,0.5959098287,0.4823876162,0.5570236508,0.6330309523,0.5147399772,0.1364183121,0.1558464093,0.07063740076,0.03993911484,0.02067844798,0.006474629546,0.01628683661,0.022672859,0.003428508612,0.004812424634,0.005606799977,0.03879607884,0.1839943791,0.07190161374,0.03745574956,0.006320764799,0.00897069838,0.01137362668,0.03362974933,0.1090587153,0.05219536114,0.01191526574,0.01695593515,0.01307575896,0.01615275378,0.05272983355,0.2449996189,0.06206992587,0.00394200388,0.002405146029,0.00170861555,0.0008850562226,0.001788355297,0.001072774213,0.002980873676,0.003376032871,0.01943975911,0.00429991172,0.00185530887,0.007889236989,0.05844491231,0.0181795685,0.04471503294,0.03394118253,0.001218677775,0.001389758615,0.0002350347176,0.01336026369,0.1433055067,0.003814221713,0.01143207705,0.003567905388,0.00903521422,0.003497684223,0.03385458375,0.01013008864,0.002118648803,0.003962839337,0.001870196606,0.001988567701,0.008297034199,0.000840478377,0.00655102368,0.02519034336,0.003896287289,0.007173459437,0.01258816374,0.004542450353,0.002718542145,0.00354755162,0.00758643612,0.006256887867,0.1871862651,0.08443802293,0.06703232276,0.009937118306,0.1653660023,0.03214735952,0.1110312963,0.01073517142,0.02308636554,0.3271242377,0.3388996382,0.01387735474,0.008866027524,0.004698590808,0.01166453829,0.004057655068,0.007549093711,0.003795390826,0.09646555281,0.004936558258,0.01913437662,0.01867062186,0.1009784536,0.1425664681,0.07330652931,0.05980028358,0.01490258739,0.01510982424,0.003883709716,0.02806888501,0.002625086435,0.003951138794,0.02674660404,0.01588832757,0.02906265014,0.03773326186,0.001774818205,0.07204741195,0.06696498255,0.01791934183,0.01091810807,0.03890554599,0.002536895515,0.01395470903,0.0289623553,0.0105642107,0.0007563536162,0.00430845454,0.005658580797,0.003412893218,0.002359874957,0.002300841652,0.002594217068,0.001568954944,0.00746269699,0.005608551965,0.001344629941,0.006257623973,0.001220234276,0.003132769175,0.008009123676,0.0056518025,0.001163819032,0.005531974421,0.4916013252,0.176483827,0.1510739257,0.1908303256,0.05406949985,0.02339339305,0.04962992,0.02493057218,0.02451857486,0.03190807564,0.05563320541,0.02657527171,0.02434862726,0.01049548853,0.02082913777,0.01735615028,0.007238799821,0.004373140114,0.01559834518,0.02143714177,0.0153151548,0.01831809447,0.01405056823,0.01674781384,0.04962914706,0.03076028087,0.01671871144,0.08796572764,0.1643369495,0.1973745572,0.02528644417,0.01179917364,0.01190822038,0.01267831056,0.01003572576,0.1240163766,0.01272264814,0.06335999624,0.01168508908,0.06178655025,0.9725024896,0.4029494052,0.003963694445,0.004871625865,0.01542744108,0.005907732902,0.04727896068,0.4166296568,0.09353160515,0.0517484055,0.05061543879,0.04466028328,0.01927280426,0.1084135348,0.04296068919,0.02456891701,0.0244224121,0.2673180494,0.01289656911,0.003143265276,0.007098014217,0.0129693794,0.007870948036,0.004405530295,0.007817918609,0.004011546419,0.009540255828,0.04237016359,0.004910756098,0.09026971082,0.01712253142,0.03112707523,0.04750319578,0.006049222186,0.01547432706,0.005169225349,0.000715951544,0.01110227206,0.005904599357,0.007612097651,0.009427396605,0.01557589772,0.007596646183,0.004885109369,0.03341682547,0.005702911373,0.00594311126,0.002976530128,0.003108168469,0.0003954970006,0.009464638989,0.006661653231,0.01061792849,0.01396874408,0.00283544091,0.04671169885,0.1367305276,0.1003603821,0.009252521256,0.003922928186,0.004135832754,0.0006653499221,0.005649404654,0.003226467819,0.01463143717,0.00286399227,0.002075841978,0.003739906193,0.01909163052,0.04696511004,0.07524867253,0.011166024,0.01300820744,0.004558281598,0.001749519632,0.009656084692,0.009391201852,0.02519967281,0.01945594631,0.01111362354,0.01370869098,0.01379202284,0.02888946059,0.07131390583,0.0725267898,0.1020363922,0.01320627586,0.01187842832,0.02463156135,0.002821385534,0.009903603726,0.02075090341,0.02810354048,0.04939513496,0.03378622346,0.01597779142,0.01450545934,0.07468007197,0.06852685863,0.01988249092,0.0009755126978,0.001129082528,0.002563962253,0.001582519623,0.002645307465,0.009213605638,0.02114015451,0.005286216316,0.01077132115,0.03434644205,0.01175675902,0.03578752097,0.01145519706,0.02237686228,0.05468969669,0.01951903694,0.08010851788,0.01017485773,0.01382291217,0.01012131714,0.0727101183,0.4331847003,0.4979607462,0.3447795286,0.6563622395,0.5492159199,0.08442378161,0.0742535115,0.03487517031,0.009061575759,0.008520918112,0.26202305,0.00751293679,0.1502424512,0.1114416469,0.07021674358,0.04364972485,0.1732334037,0.09315275787,0.02688639289,0.06580240386,0.04529397332,0.004008179414,0.003314017662,0.002344492293,0.003955493251,0.008942969967,0.008415679596,0.00286501417,0.006640819321,0.01272606073,0.1096797985,0.0768090972,0.07858557024,0.05934167972,0.03573788171,0.01591658117,0.02548338056,0.01320273482,0.0110493858,0.01519919039,0.008550950507,0.05315125237,0.01063650657,0.01861015059,0.002528425059,0.01155702026,0.00728647297,0.004195431104,0.06080499047,0.04469356225,0.03856045962,0.02457860295,0.01394913486,0.01029799285,0.01789380312,0.01338344232,0.02997264207,0.02108813207,0.03475820346,0.06165638287,0.1126543172,0.03355722858,0.03893763982,0.2121296756,0.09192910453,0.004067083327,0.04614842466,0.03668269375,0.06402372076,0.1928232558,0.09660302264,0.03047881874,0.138946948,0.02431737282,0.1090664091,0.1391640572,0.4038899911,0.3689710037,0.0151089807,0.02468769581,0.153114326,0.4585569237,0.4719386498,0.3579262003,0.4532675315,0.03876472158,0.2628215275,0.04016331098,0.06046844054,0.9158644622,0.1713638698,0.3113202753,0.09733861963,0.01783929342,0.04713071249,0.057025309,0.08108432659,0.04028399098,0.0547134832,0.006878631852,0.01050261517,0.08231027717,0.04356653098,0.0541940406,0.03717186007,0.02879886223,0.0721545219,0.2457418385,0.2421395194,0.5000009343,0.5000154967,1,1,1,1,1,1,1,NaN,NaN,NaN],
	"pwr": [NaN,2.685248319e-08,7.592110235e-08,2.004722258e-07,3.396721802e-07,2.984759917e-07,4.98741409e-07,6.296562489e-07,1.679114199e-06,1.344501881e-06,1.454509549e-06,2.626221402e-06,6.61952837e-06,2.290455901e-06,7.589820557e-06,6.759798554e-06,4.179198955e-06,1.319663288e-05,8.561926713e-06,9.873376372e-06,1.37379007e-05,1.292249891e-05,1.439639025e-05,1.391578407e-05,3.328324462e-05,3.014604412e-05,0.001443856309,0.001084911455,0.005111510819,0.005103171849,0.01024371092,0.02677643002,0.04266644132,0.09432910891,0.04629152681,0.02820408608,0.01596496049,0.004598002913,0.0009127067767,0.005726122071,0.02529942755,0.05844123084,0.03559168381,0.02544062125,0.009151931697,0.004246249509,0.00292961033,0.00478222709,0.007317087022,0.003457018061,0.001095031221,0.001469019298,0.0004950169273,0.01079510939,0.03469395045,0.03838881939,0.0260661419,0.0336850611,0.02483436624,0.02960420511,0.03490030088,0.04043112792,0.007448189097,0.00474166165,0.00397394887,0.001287421774,0.000293306974,0.001034713451,0.0005200001658,0.006925007965,0.07161865019,0.08696774218,0.0539064774,0.02261353265,0.0004958766583,0.008536652309,0.00607609072,0.02602946456,0.008953078097,0.008719288822,0.005185110311,0.007401256451,0.02129167931,0.02027183034,0.02565846128,0.01288169438,0.006737097356,0.01394345947,0.007643387976,0.001216125862,0.00543387868,0.001579020016,0.0007919191322,0.001896248621,0.0006860154187,0.001364518503,0.0006760197515,0.0004134927697,2.6218061e-05,3.517088122e-05,4.640537316e-05,0.0002192791754,2.736714604e-05,1.81242047e-05,4.688817675e-06,2.249173948e-05,7.593874337e-06,8.888200564e-06,2.191142325e-06,0.007808467652,0.006228775871,0.00586363346,0.003706383638,0.004563342854,0.00439877537,0.007055215613,0.003221450866,0.01372872071,0.004895674263,0.003593948965,0.001022442418,0.002121655542,0.01794892958,0.01910899578,0.02539848098,0.01223846123,0.02080373598,0.01259349883,0.03912235302,0.03022608045,0.01036929173,0.005515815467,0.003657564114,0.003959119899,0.01089483483,0.003772530594,0.00320450893,0.0135827687,0.01693841582,0.02638181096,0.03722872323,0.02225246871,0.01137571231,0.01636611706,0.0396232283,0.02215186456,0.01309551023,0.01311907162,0.01518027864,0.01563317715,0.0191104076,0.009426655312,0.003294364126,0.002482980126,0.003035794054,0.003333297245,0.003373023744,0.002581353966,0.0009952649233,0.0008642092753,0.001577710035,0.0009218281582,0.0004588103,0.0007074482183,0.001616539528,0.003024592675,0.002925697581,0.00620666981,0.00269290016,0.003442620831,0.01651788785,0.004886839488,0.005768184904,0.007624526957,0.008182512924,0.009505591085,0.006117649539,0.005179170493,0.005613006473,0.005935281701,0.006494382175,0.007415885217,0.009169360035,0.003652883604,0.004991053748,0.00215788404,0.001512841915,0.001600420542,0.001447904152,0.0002567710681,0.004028877348,0.001762332883,0.003879637671,0.006305932624,0.00875283797,0.02188600432,0.01491526325,0.0009013543837,0.003006879293,0.002007235357,0.0014739328,0.002378328179,0.002284502826,0.004186870097,0.0352422414,0.03204855116,0.01907320204,0.01927783228,0.009299927509,0.0007422086953,0.008386889957,0.009194815018,0.01271812676,0.01129886837,0.009048397151,0.002797681981,0.003864507734,0.004673602353,0.003589550853,0.002012651569,0.008350814297,0.01106589454,0.00483577732,0.009840211863,0.006476373271,0.01341871954,0.01701557984,0.02506060818,0.03801740452,0.01935108792,0.004584683911,0.002860468969,0.0146534263,0.004365349542,0.003500076747,0.005053357474,0.005955210807,0.01045766906,0.01526396388,0.01019432291,0.009771944378,0.009711274944,0.01465478868,0.02456118727,0.05604100684,0.05057094646,0.006377814762,0.02673868109,0.0176587894,0.03056450493,0.04588884464,0.07886438595,0.04544562926,0.01427786185,0.02525389009,0.008432325206,0.0117463357,0.002525035083,0.01021854881,0.04066984145,0.1327807009,0.2828585,0.3220468523,0.2648021754,0.2705182735,0.238571175,0.1647812447,0.08100200327,0.04677860277,0.0211603247,0.01036843957,0.007045173338,0.02142778147,0.08156429455,0.01305013232,0.03716813695,0.03107484735,0.0068685738,0.004314568478,0.003327841836,0.0110906329,0.005958479985,0.004260298393,0.006657465852,0.001530040257,0.001648110331,0.01683056638,0.008019473804,0.02535356565,0.02203555179,0.001906229939,0.01468433041,0.01597821472,0.02152543335,0.02958492762,0.008673434104,0.06527500406,0.07289387252,0.06598233669,0.02063077165,0.006797940416,0.0220237648,0.0724138703,0.1088920986,0.1155646791,0.08555839066,0.04556688767,0.009689882639,0.005238918673,0.005410949884,0.006020837118,0.0008811122781,0.001432909443,0.0006615050072,0.00158514504,0.0005283265327,0.0004785545151,0.0007871180307,0.0001707381831,0.0006728056213,0.0002190119321,0.000102485782,2.478046913e-05,2.557402322e-05,2.809490581e-05,0.0002250925603,0.0001209157713,0.0009082325361,0.007258488952,0.01323537884,0.01194405606,0.06442767529,0.1771261405,0.007580339743,0.03168372488,0.00243351411,0.01783838989,0.006011257235,0.006494549543,0.002997112289,0.004666946699,0.01652188768,0.01503765964,0.01701008286,0.05328656592,0.04547865395,0.03752256497,0.02876915295,0.03176218149,0.03718239929,0.02618940789,0.02127408716,0.01445147854,0.003598565547,0.008434579936,0.008711097082,0.01310068852,0.008188703142,0.01560023337,0.006813039527,0.02008583445,0.01056396708,0.01037594426,0.01113392851,0.004133253157,0.002486778534,0.002432917347,0.005640959541,0.001808918088,0.003202301778,0.0009955284744,0.000114544353,0.0001324622685,0.0002171284751,0.000138450172,0.0002719754291,0.0002686613693,0.0001872820064,5.268914608e-05,3.07343787e-05,5.719683746e-05,1.648302496e-05,9.35782991e-06,5.812423279e-06,6.795945299e-06,3.669394013e-06,5.050694111e-07,8.098333851e-07,4.959000412e-06,1.418172221e-06,1.913567294e-06,8.357515901e-07,2.981157915e-07,1.051069597e-06,1.594603527e-06,2.436527639e-07,3.087344585e-07,1.536817885e-07,5.934251481e-08,3.815492983e-08,1.009675105e-07,4.035512471e-07,6.09256806e-07,3.621589168e-08,1.437785316e-08,6.620569972e-08,3.404485497e-08,8.398157176e-08,1.182961648e-07,6.264153486e-08,1.086913184e-07,8.368666119e-08,1.257283985e-08,9.098494539e-08,1.258484638e-08,2.059907985e-08,7.733872514e-08,4.31042143e-08,1.79775565e-08,3.08493738e-08,2.295899968e-08,1.957200834e-08,5.273053564e-08,1.665494218e-08,8.315235352e-09,3.899925066e-09,5.325482262e-09,6.456905148e-09,7.417149006e-09,1.496768423e-09,3.936561257e-10,3.849955525e-11,7.259154017e-12,3.582009902e-12,0,0,0,0,0,0,0,NaN,NaN,NaN],
	"sr": 16000,
	"range": [1,141984],
	"minf0": 63.1883,
	"maxf0": 706.3069,
	"thresh": 0.1,
	"relflag": 1,
	"hop": 320,
	"bufsize": 10000,
	"wsize": 640,
	"lpf": 4000,
	"shift": 0,
	"plotthreshold": 0.2
}
