{
    "DU": 33,
    "DV": 297,
    "F-measure": 0.06017699115044248,
    "F-measure Chroma": 0.1911504424778761,
    "FN": 17,
    "FNC": 0,
    "FNCch": 13,
    "FNI": 17,
    "FNIch": 4,
    "FP": 78,
    "GU": 94,
    "GV": 236,
    "Overall Accuracy": 0.051515151515151514,
    "Overall Chroma Accuracy": 0.16363636363636364,
    "Precision": 0.054313099041533544,
    "Precision Chroma": 0.17252396166134185,
    "Raw Chroma Accuracy": 0.21610169491525424,
    "Raw Pitch Accuracy": 0.00423728813559322,
    "Recall": 0.06746031746031746,
    "Recall Chroma": 0.21428571428571427,
    "TN": 16,
    "TO": 330,
    "TP": 219,
    "TPC": 1,
    "TPCch": 38,
    "TPI": 218,
    "TPIch": 181,
    "Voiced Chroma Accuracy": 0.16101694915254236,
    "Voiced Pitch Accuracy": 0.00423728813559322,
    "Voicing Accuracy": 0.7121212121212122,
    "Voicing Detection": 0.9279661016949152,
    "Voicing False Alarm": 0.8297872340425532
}