{
    "DU": 94,
    "DV": 197,
    "F-measure": 0.32806324110671936,
    "F-measure Chroma": 0.5217391304347826,
    "FN": 35,
    "FNC": 0,
    "FNCch": 0,
    "FNI": 35,
    "FNIch": 35,
    "FP": 41,
    "GU": 100,
    "GV": 191,
    "Overall Accuracy": 0.2852233676975945,
    "Overall Chroma Accuracy": 0.4536082474226804,
    "Precision": 0.32421875,
    "Precision Chroma": 0.515625,
    "Raw Chroma Accuracy": 0.38219895287958117,
    "Raw Pitch Accuracy": 0.1256544502617801,
    "Recall": 0.332,
    "Recall Chroma": 0.528,
    "TN": 59,
    "TO": 291,
    "TP": 156,
    "TPC": 24,
    "TPCch": 73,
    "TPI": 132,
    "TPIch": 83,
    "Voiced Chroma Accuracy": 0.38219895287958117,
    "Voiced Pitch Accuracy": 0.1256544502617801,
    "Voicing Accuracy": 0.738831615120275,
    "Voicing Detection": 0.8167539267015707,
    "Voicing False Alarm": 0.41
}