{
    "DU": 4,
    "DV": 260,
    "F-measure": 0.5630630630630632,
    "F-measure Chroma": 0.7522522522522522,
    "FN": 0,
    "FNC": 0,
    "FNCch": 0,
    "FNI": 0,
    "FNIch": 0,
    "FP": 84,
    "GU": 88,
    "GV": 176,
    "Overall Accuracy": 0.4734848484848485,
    "Overall Chroma Accuracy": 0.6325757575757576,
    "Precision": 0.4734848484848485,
    "Precision Chroma": 0.6325757575757576,
    "Raw Chroma Accuracy": 0.9261363636363636,
    "Raw Pitch Accuracy": 0.6875,
    "Recall": 0.6944444444444444,
    "Recall Chroma": 0.9277777777777778,
    "TN": 4,
    "TO": 264,
    "TP": 176,
    "TPC": 121,
    "TPCch": 163,
    "TPI": 55,
    "TPIch": 13,
    "Voiced Chroma Accuracy": 0.9261363636363636,
    "Voiced Pitch Accuracy": 0.6875,
    "Voicing Accuracy": 0.6818181818181818,
    "Voicing Detection": 1.0,
    "Voicing False Alarm": 0.9545454545454546
}