{
    "DU": 68,
    "DV": 259,
    "F-measure": 0.1340388007054674,
    "F-measure Chroma": 0.1940035273368607,
    "FN": 30,
    "FNC": 0,
    "FNCch": 18,
    "FNI": 30,
    "FNIch": 12,
    "FP": 57,
    "GU": 95,
    "GV": 232,
    "Overall Accuracy": 0.1162079510703364,
    "Overall Chroma Accuracy": 0.16819571865443425,
    "Precision": 0.12794612794612795,
    "Precision Chroma": 0.18518518518518517,
    "Raw Chroma Accuracy": 0.15086206896551724,
    "Raw Pitch Accuracy": 0.0,
    "Recall": 0.14074074074074075,
    "Recall Chroma": 0.2037037037037037,
    "TN": 38,
    "TO": 327,
    "TP": 202,
    "TPC": 0,
    "TPCch": 17,
    "TPI": 202,
    "TPIch": 185,
    "Voiced Chroma Accuracy": 0.07327586206896551,
    "Voiced Pitch Accuracy": 0.0,
    "Voicing Accuracy": 0.7339449541284404,
    "Voicing Detection": 0.8706896551724138,
    "Voicing False Alarm": 0.6
}