{
    "DU": 148,
    "DV": 151,
    "F-measure": 0.4044943820224719,
    "F-measure Chroma": 0.543071161048689,
    "FN": 40,
    "FNC": 0,
    "FNCch": 18,
    "FNI": 40,
    "FNIch": 22,
    "FP": 24,
    "GU": 132,
    "GV": 167,
    "Overall Accuracy": 0.3612040133779264,
    "Overall Chroma Accuracy": 0.48494983277591974,
    "Precision": 0.416988416988417,
    "Precision Chroma": 0.5598455598455598,
    "Raw Chroma Accuracy": 0.32934131736526945,
    "Raw Pitch Accuracy": 0.0,
    "Recall": 0.3927272727272727,
    "Recall Chroma": 0.5272727272727272,
    "TN": 108,
    "TO": 299,
    "TP": 127,
    "TPC": 0,
    "TPCch": 37,
    "TPI": 127,
    "TPIch": 90,
    "Voiced Chroma Accuracy": 0.2215568862275449,
    "Voiced Pitch Accuracy": 0.0,
    "Voicing Accuracy": 0.7859531772575251,
    "Voicing Detection": 0.7604790419161677,
    "Voicing False Alarm": 0.18181818181818182
}