{
    "DU": 75,
    "DV": 520,
    "F-measure": 0.7666034155597723,
    "F-measure Chroma": 0.8216318785578748,
    "FN": 0,
    "FNC": 0,
    "FNCch": 0,
    "FNI": 0,
    "FNIch": 0,
    "FP": 136,
    "GU": 211,
    "GV": 384,
    "Overall Accuracy": 0.6789915966386555,
    "Overall Chroma Accuracy": 0.7277310924369748,
    "Precision": 0.6789915966386555,
    "Precision Chroma": 0.7277310924369748,
    "Raw Chroma Accuracy": 0.9322916666666666,
    "Raw Pitch Accuracy": 0.8567708333333334,
    "Recall": 0.8801742919389978,
    "Recall Chroma": 0.9433551198257081,
    "TN": 75,
    "TO": 595,
    "TP": 384,
    "TPC": 329,
    "TPCch": 358,
    "TPI": 55,
    "TPIch": 26,
    "Voiced Chroma Accuracy": 0.9322916666666666,
    "Voiced Pitch Accuracy": 0.8567708333333334,
    "Voicing Accuracy": 0.7714285714285715,
    "Voicing Detection": 1.0,
    "Voicing False Alarm": 0.6445497630331753
}