{
    "DU": 161,
    "DV": 217,
    "F-measure": 0.39379844961240307,
    "F-measure Chroma": 0.4372093023255814,
    "FN": 34,
    "FNC": 0,
    "FNCch": 10,
    "FNI": 34,
    "FNIch": 24,
    "FP": 77,
    "GU": 204,
    "GV": 174,
    "Overall Accuracy": 0.335978835978836,
    "Overall Chroma Accuracy": 0.373015873015873,
    "Precision": 0.3691860465116279,
    "Precision Chroma": 0.40988372093023256,
    "Raw Chroma Accuracy": 0.13793103448275862,
    "Raw Pitch Accuracy": 0.0,
    "Recall": 0.4219269102990033,
    "Recall Chroma": 0.4684385382059801,
    "TN": 127,
    "TO": 378,
    "TP": 140,
    "TPC": 0,
    "TPCch": 14,
    "TPI": 140,
    "TPIch": 126,
    "Voiced Chroma Accuracy": 0.08045977011494253,
    "Voiced Pitch Accuracy": 0.0,
    "Voicing Accuracy": 0.7063492063492064,
    "Voicing Detection": 0.8045977011494253,
    "Voicing False Alarm": 0.37745098039215685
}