{
    "DU": 158,
    "DV": 287,
    "F-measure": 0.9557109557109557,
    "F-measure Chroma": 0.9627039627039627,
    "FN": 31,
    "FNC": 0,
    "FNCch": 3,
    "FNI": 31,
    "FNIch": 28,
    "FP": 1,
    "GU": 128,
    "GV": 317,
    "Overall Accuracy": 0.9213483146067416,
    "Overall Chroma Accuracy": 0.9280898876404494,
    "Precision": 0.9903381642512077,
    "Precision Chroma": 0.9975845410628019,
    "Raw Chroma Accuracy": 0.9116719242902208,
    "Raw Pitch Accuracy": 0.8927444794952681,
    "Recall": 0.9234234234234234,
    "Recall Chroma": 0.9301801801801802,
    "TN": 127,
    "TO": 445,
    "TP": 286,
    "TPC": 283,
    "TPCch": 286,
    "TPI": 3,
    "TPIch": 0,
    "Voiced Chroma Accuracy": 0.9022082018927445,
    "Voiced Pitch Accuracy": 0.8927444794952681,
    "Voicing Accuracy": 0.9280898876404494,
    "Voicing Detection": 0.9022082018927445,
    "Voicing False Alarm": 0.0078125
}