{
    "DU": 106,
    "DV": 361,
    "F-measure": 0.19743589743589743,
    "F-measure Chroma": 0.2615384615384615,
    "FN": 36,
    "FNC": 0,
    "FNCch": 1,
    "FNI": 36,
    "FNIch": 35,
    "FP": 118,
    "GU": 188,
    "GV": 279,
    "Overall Accuracy": 0.16488222698072805,
    "Overall Chroma Accuracy": 0.21841541755888652,
    "Precision": 0.17865429234338748,
    "Precision Chroma": 0.23665893271461716,
    "Raw Chroma Accuracy": 0.11827956989247312,
    "Raw Pitch Accuracy": 0.025089605734767026,
    "Recall": 0.22063037249283668,
    "Recall Chroma": 0.2922636103151863,
    "TN": 70,
    "TO": 467,
    "TP": 243,
    "TPC": 7,
    "TPCch": 32,
    "TPI": 236,
    "TPIch": 211,
    "Voiced Chroma Accuracy": 0.11469534050179211,
    "Voiced Pitch Accuracy": 0.025089605734767026,
    "Voicing Accuracy": 0.6702355460385439,
    "Voicing Detection": 0.8709677419354839,
    "Voicing False Alarm": 0.6276595744680851
}