{
    "DU": 23,
    "DV": 300,
    "F-measure": 0.7753623188405797,
    "F-measure Chroma": 0.8115942028985507,
    "FN": 2,
    "FNC": 0,
    "FNCch": 0,
    "FNI": 2,
    "FNIch": 2,
    "FP": 92,
    "GU": 113,
    "GV": 210,
    "Overall Accuracy": 0.6625386996904025,
    "Overall Chroma Accuracy": 0.6934984520123839,
    "Precision": 0.6666666666666666,
    "Precision Chroma": 0.6978193146417445,
    "Raw Chroma Accuracy": 0.9666666666666667,
    "Raw Pitch Accuracy": 0.919047619047619,
    "Recall": 0.9264069264069265,
    "Recall Chroma": 0.9696969696969697,
    "TN": 21,
    "TO": 323,
    "TP": 208,
    "TPC": 193,
    "TPCch": 203,
    "TPI": 15,
    "TPIch": 5,
    "Voiced Chroma Accuracy": 0.9666666666666667,
    "Voiced Pitch Accuracy": 0.919047619047619,
    "Voicing Accuracy": 0.7089783281733746,
    "Voicing Detection": 0.9904761904761905,
    "Voicing False Alarm": 0.8141592920353983
}