{
    "DU": 87,
    "DV": 334,
    "F-measure": 0.9197994987468672,
    "F-measure Chroma": 0.9448621553884711,
    "FN": 44,
    "FNC": 0,
    "FNCch": 12,
    "FNI": 44,
    "FNIch": 32,
    "FP": 0,
    "GU": 43,
    "GV": 378,
    "Overall Accuracy": 0.8717339667458432,
    "Overall Chroma Accuracy": 0.8954869358669834,
    "Precision": 0.9734748010610079,
    "Precision Chroma": 1.0,
    "Raw Chroma Accuracy": 0.9153439153439153,
    "Raw Pitch Accuracy": 0.8571428571428571,
    "Recall": 0.8717339667458432,
    "Recall Chroma": 0.8954869358669834,
    "TN": 43,
    "TO": 421,
    "TP": 334,
    "TPC": 324,
    "TPCch": 334,
    "TPI": 10,
    "TPIch": 0,
    "Voiced Chroma Accuracy": 0.8835978835978836,
    "Voiced Pitch Accuracy": 0.8571428571428571,
    "Voicing Accuracy": 0.8954869358669834,
    "Voicing Detection": 0.8835978835978836,
    "Voicing False Alarm": 0.0
}