{
	"f0": [NaN,46.9446811,47.21309485,35.62368344,35.6483996,35.56287924,35.63686716,35.69577384,35.34887861,46.17554377,46.65187786,43.73146794,35.3975114,49.38822258,48.03297121,48.08176459,48.47883279,49.16747871,50.03597007,50.71371673,51.29765133,51.83650664,52.13258108,52.45428607,52.96721732,53.17168158,53.29985745,53.33407467,53.34742392,53.10760742,52.87503365,52.82396744,53.14329725,53.20521787,53.2182951,53.07228759,52.39871142,51.8519181,52.49177707,52.69132083,52.73814524,52.80390485,52.85448434,52.9008333,53.08388601,53.34344355,53.56774413,53.36721118,53.17189686,53.08587677,53.14943315,53.19969066,53.13842233,53.0315159,53.00319089,53.04508205,53.0635373,53.11764808,53.19072264,53.14057938,52.96720529,53.24871087,53.38615937,53.58345972,53.43349594,53.16575775,52.93374958,52.93872273,53.12858286,53.28492196,53.35121762,53.27233177,53.07527803,52.77435242,52.43842161,52.58218787,53.07357757,53.42296648,53.65104547,53.84021013,54.12141921,54.45704721,55.12311541,55.34010252,55.57930838,55.87105365,55.92896369,55.93555455,56.00042233,55.40604785,54.73571104,55.91310446,56.51989472,56.34873913,55.99185689,55.64232214,55.30157036,55.11521126,54.90403831,54.70229865,54.49820021,54.17317329,53.98880795,54.12332452,54.53033047,54.73443349,53.42951221,53.26125827,53.17773715,53.17704607,53.35047523,53.48905936,53.55776811,53.56983622,53.49531563,53.33697629,53.1571651,53.24914488,53.44967446,53.56141289,53.35094382,59.76273913,53.86020949,53.15604546,52.70053885,52.24189631,52.05593632,52.28543264,53.16776326,53.47263465,53.59407631,53.60541463,53.45724751,53.41213816,53.57020979,53.48865058,52.84817282,53.74925622,52.80264627,52.26450282,51.5592446,51.98115354,52.91133855,53.72816322,54.35696224,55.10661996,55.29780188,55.22835759,54.61324969,54.02026048,54.9224708,55.43346647,55.22178405,54.84623146,54.6384678,54.330177,54.00445939,53.58946826,52.78667404,51.9695588,51.11030149,50.9368071,50.74850456,51.31455706,52.93035138,54.40741672,53.66321146,52.31031067,51.41011981,50.9177072,50.45528159,50.42887225,50.48855592,50.97407868,51.31812007,51.38190514,51.63330233,51.76622185,51.17644934,51.52820884,51.64658771,51.54046771,51.30102129,50.94819025,50.42758462,49.81620869,49.14886331,48.80360289,48.78734372,49.12880629,49.58677444,49.72274763,49.53037659,49.21115011,49.26161118,49.12347911,47.88336853,47.03811412,46.82449071,46.95089399,47.17015237,47.26483168,47.56890126,47.82460032,48.03789763,48.15394161,47.98650562,47.66015949,47.4716818,47.34739568,47.28537058,47.21437126,47.23336415,47.29241503,47.29411132,47.35299769,47.50873104,47.59583954,47.35346658,47.17045149,47.08714574,47.04788652,47.05691902,47.15985998,47.28187668,47.22669232,47.28830363,47.46067112,47.6584201,48.15590857,48.91732291,48.27818998,47.49392229,47.56912593,47.704397,47.71733248,47.34519387,47.31668049,47.62368344,47.70208519,48.33040771,48.0442468,47.33144156,47.49785227,47.69429395,47.80872902,47.60201977,47.23757219,47.42204416,47.65751239,47.71449394,47.75046378,47.5992346,35.6282858,36.25842282,36.40269316,37.3709473,38.97508853,43.99531665,35.34887861,35.34887861,38.30984784,37.29451301,37.44772056,42.05183405,35.34887861,35.34887861,38.01270671,39.48682058,39.05933366,47.83268807,49.91565014,76.93035138,76.93035138,76.93035138,76.93035138,76.93035138,76.93035138,76.93035138,76.93035138,76.93035138,76.93035138,76.93035138,76.93035138,76.93035138,76.93035138,76.93035138,76.93035138,76.93035138,76.93035138,76.93035138,76.93035138,76.93035138,76.93035138,76.93035138,76.93035138,76.93035138,76.93035138,76.93035138,76.93035138,76.93035138,76.93035138,76.93035138,76.93035138,76.93035138,76.93035138,76.93035138,76.93035138,76.93035138,76.93035138,76.93035138,76.93035138,76.93035138,76.93035138,76.93035138,76.93035138,76.93035138,76.93035138,76.93035138,76.93035138,76.93035138,76.93035138,76.93035138,76.93035138,76.93035138,76.93035138,76.93035138,76.93035138,76.93035138,76.93035138,76.93035138,76.93035138,76.93035138,76.93035138,76.93035138,76.93035138,76.93035138,76.93035138,76.93035138,76.93035138,76.93035138,76.93035138,76.93035138,76.93035138,76.93035138,76.93035138,76.93035138,76.93035138,76.93035138,76.93035138,76.93035138,76.93035138,76.93035138,76.93035138,76.93035138,76.93035138,76.93035138,76.93035138,76.93035138,76.93035138,76.93035138,76.93035138,76.93035138,76.93035138,76.93035138,76.93035138,76.93035138,76.93035138,76.93035138,76.93035138,76.93035138,76.93035138,76.93035138,76.93035138,76.93035138,76.93035138,76.93035138,76.93035138,76.93035138,76.93035138,76.93035138,76.93035138,76.93035138,76.93035138,76.93035138,76.93035138,76.93035138,76.93035138,76.93035138,NaN,NaN],
	"ap0": [NaN,0.4362296429,0.5395447581,0.4578773893,0.1737024192,0.3066313272,0.5598706742,0.7020567817,0.8031467657,0.7495718742,0.8674886194,0.7100315845,0.7230840509,0.4379584756,0.1711050861,0.04264904795,0.06060206092,0.1998962604,0.09921559835,0.08801507718,0.06640447829,0.0442808566,0.02103897772,0.06106732663,0.04139248099,0.01791983938,0.01687175032,0.03703205856,0.06122475206,0.05585782459,0.0299903951,0.02703241123,0.03852372218,0.01684964688,0.00689366605,0.03072255407,0.08678489304,0.1408463623,0.1672822645,0.07994440171,0.01604424516,0.01100291576,0.007694363226,0.004108361705,0.005510536392,0.003754311526,0.06444291379,0.04377648862,0.01150529666,0.003040162876,0.00333035906,0.001877817803,0.00267850207,0.00312686713,0.001997135153,0.00123942234,0.001559594018,0.007664002118,0.02510816803,0.07469189147,0.1029818686,0.1123714524,0.05620526108,0.02364950328,0.01733477471,0.02357969456,0.006622719424,0.005624030854,0.008377743599,0.003221817718,0.002042469094,0.007799769135,0.01769721592,0.03182020547,0.007981138242,0.02056264082,0.02891627019,0.01641006082,0.0106837647,0.01923863175,0.02276566536,0.05155402576,0.05261561956,0.03726643504,0.02818347685,0.01217454325,0.009401390386,0.02845218716,0.1055358242,0.418760725,0.1293914237,0.2993124133,0.1131854225,0.05395473232,0.01459909361,0.01742752302,0.0097702935,0.007373110721,0.009986985232,0.0101608434,0.01276763954,0.01624566026,0.05922382109,0.2590277476,0.06606472299,0.09171684601,0.1854945892,0.05886650817,0.01773198822,0.007255100978,0.007034337022,0.005003709451,0.002844010084,0.001678511234,0.00142263835,0.007038953102,0.004282120514,0.007527527919,0.05361253859,0.1362254513,0.2979397424,1.201435374,0.3572221228,0.2315109776,0.1029992242,0.05192868885,0.05449377242,0.09897011715,0.07025369718,0.03590842792,0.01201958986,0.0304475939,0.07055620713,0.1014563098,0.1512747183,0.2453559137,0.711062403,0.2346639031,0.2092260528,0.1338778048,0.05581986178,0.1536823131,0.1239757083,0.07160249398,0.07752092766,0.06275335926,0.0593327904,0.05175192768,0.06476048999,0.06026985922,0.1890146387,0.05323119678,0.03855507925,0.01843651418,0.01334094921,0.02157511849,0.01979558801,0.06355762262,0.223372243,0.3102153282,0.1188576868,0.1339045527,0.1671715767,0.2401520714,0.4695454508,0.3018939889,0.1262388685,0.1648477475,0.08084793809,0.09193801831,0.04809536598,0.04305581802,0.03631401654,0.04764684741,0.02101544936,0.02902256722,0.03609341481,0.06415481422,0.1056765873,0.05111314491,0.03016515533,0.01693554784,0.0150981715,0.01837225014,0.03849541722,0.05113230978,0.04056618071,0.01491892597,0.0110997842,0.05236677156,0.02887410111,0.02972585659,0.05161851883,0.04337336062,0.03961488785,0.1082703504,0.2281835499,0.1293856699,0.05141145406,0.03420435757,0.01190931087,0.01148385232,0.02250400268,0.01934709425,0.02127389934,0.01967870652,0.02026458571,0.01137743387,0.007058658173,0.007512870753,0.007978511844,0.005853970813,0.003346151947,0.001887387462,0.00199833767,0.00505084569,0.01349760128,0.01481137041,0.01527163592,0.004844269893,0.00776660095,0.01263563612,0.017754785,0.01861657822,0.006595722126,0.00585696575,0.008214148193,0.006500179129,0.03951981877,0.1300335638,0.1202813892,0.1425052949,0.103364102,0.08124448148,0.1595934966,0.2535134646,0.1905034232,0.2585935978,0.3160051154,0.2954813464,0.5856383578,0.6699320914,0.1901233308,0.1250586106,0.1124451827,0.1191794521,0.1600221787,0.2092386403,0.2966557044,0.3391866926,0.3477496483,0.288759435,0.2683747992,0.402356218,0.5603100127,0.4394702945,0.6575116115,0.702719296,0.7141883574,1.447475735,1.123143658,0.7093001314,0.2895770559,0.5384405847,0.8315199296,1.267293458,1.22519406,1.250806183,0.5527346947,0.5953184011,1.270686263,1.004131036,1,1,1,1,1,1,1,1,1,1,1,1,1,1,1,1,1,1,1,1,1,1,1,1,1,1,1,1,1,1,1,1,1,1,1,1,1,1,1,1,1,1,1,1,1,1,1,1,1,1,1,1,1,1,1,1,1,1,1,1,1,1,1,1,1,1,1,1,1,1,1,1,1,1,1,1,1,1,1,1,1,1,1,1,1,1,1,1,1,1,1,1,1,1,1,1,1,1,1,1,1,1,1,1,1,1,1,1,1,1,1,1,1,1,1,1,1,NaN,NaN],
	"ap": [NaN,0.3811794452,0.1207723797,0.263699659,0.15036292,0.01974522781,0.27639614,0.1968651964,0.3869552535,0.4710341666,0.1849979357,0.3655246838,0.2897063759,0.5031411453,0.5283216608,0.225291549,0.05091272286,0.1793836032,0.3424372973,0.1078060901,0.1278156796,0.05461348261,0.04082064703,0.02769289826,0.09280457542,0.007120273037,0.007969937374,0.004952733397,0.01310097635,0.06301959871,0.03637936869,0.008127118943,0.02323227487,0.007209637198,0.007589921523,0.004270558242,0.02454297148,0.0282869619,0.1197417646,0.099155773,0.05003378763,0.005376222775,0.00329049976,0.001978722468,0.00577271416,0.005008532198,0.003706161158,0.002322427351,0.03742416915,0.003198693198,0.003211276733,0.001098288053,0.001392472659,0.005303869245,0.0008314680998,0.001794446482,0.000220174148,0.002654377224,0.001984520294,0.01599445275,0.02973306902,0.06493629273,0.03047347664,0.04113027513,0.02124607018,0.03100857978,0.01862958929,0.001960124987,0.01915439716,0.008069650678,0.001964108255,0.003777322841,0.009556520611,0.02158711519,0.02138309608,0.007545059266,0.06494933153,0.03989937988,0.01321547712,0.01180459095,0.02568000995,0.03210623167,0.08294735557,0.04941672166,0.03502640358,0.0269699126,0.003416305795,0.005774853523,0.005046576579,0.1194871922,0.06954163461,0.1667376629,0.1572519839,0.158046708,0.01584844469,0.02257516736,0.01473543621,0.003284558819,0.01052320233,0.009586164978,0.0140200531,0.01105679918,0.008380929826,0.01602178762,0.1033774116,0.02317245305,0.1893953304,0.2086114972,0.02377276696,0.006732234909,0.004191491762,0.007343705718,0.004104780498,0.002002271746,0.0004744350547,0.003096704409,0.00798030079,0.006008250085,0.01208985541,0.0008910839141,0.1078105765,0.6994597501,0.0510516892,0.5193991154,0.2247377468,0.1310984373,0.006045572326,0.01946435719,0.1510204176,0.05285936767,0.009094384982,0.003610193138,0.01033997978,0.09739348147,0.0686942985,0.1519722379,0.1503041639,0.3191541575,0.8095046262,0.18876881,0.0484592342,0.1107246253,0.1240994727,0.1544239757,0.05015611628,0.07476352335,0.01918006592,0.08891025653,0.009633327563,0.03236721968,0.03031499769,0.2015595573,0.06459503515,0.05965582774,0.01638983628,0.03206780017,0.03374778758,0.03331871065,0.1934074747,0.3158049209,0.1347286191,0.04803818731,0.02783619301,0.221194614,0.1233488697,0.344184003,0.4020137658,0.2009432812,0.1518768976,0.05133005102,0.06072711045,0.01919331672,0.02896297111,0.02100177827,0.01251203288,0.007129882301,0.0166443273,0.01557328855,0.06710238596,0.0610421098,0.04049722943,0.00898048238,0.03057805425,0.01323173426,0.03750024087,0.06588183602,0.07157545572,0.009942659381,0.005734187993,0.03765842477,0.09916399401,0.002664037004,0.02337917582,0.02218500987,0.008292465845,0.02716151648,0.2261059432,0.2529043299,0.04962249222,0.05752316017,0.006434974295,0.00495083539,0.01725839429,0.01607304952,0.005314826925,0.01318476218,0.02708390966,0.02651797531,0.003186607509,0.005215344403,0.002194797495,0.008214248048,0.001288207257,0.002322789202,0.001523058634,0.002745910838,0.004148258537,0.006076845435,0.02379918316,0.005100091224,0.002495764612,0.003122554709,0.007849986114,0.01256154325,0.005942884519,0.004587918578,0.00285466565,0.007126241774,0.006255617072,0.03947925566,0.07989436786,0.04092495275,0.1037919605,0.0362271147,0.0331548941,0.1329451538,0.1079793868,0.05550158373,0.1021097751,0.2553809523,0.06927362626,0.1202028081,0.3555978971,0.1837650255,0.09450713279,0.03217269856,0.0439631933,0.09065597029,0.1758543623,0.0624507012,0.1083210907,0.38214279,0.1018983683,0.161033413,0.3917314868,0.2744578248,0.1347589145,0.4481703968,0.3718794938,0.800627961,0.7531828647,0.5654178082,0.3336025657,0.1168775938,0.2048238343,0.8089016482,0.8420398399,0.5769521012,0.4301616678,0.09744219746,0.5000001155,0.5000003897,1,1,1,1,1,1,1,1,1,1,1,1,1,1,1,1,1,1,1,1,1,1,1,1,1,1,1,1,1,1,1,1,1,1,1,1,1,1,1,1,1,1,1,1,1,1,1,1,1,1,1,1,1,1,1,1,1,1,1,1,1,1,1,1,1,1,1,1,1,1,1,1,1,1,1,1,1,1,1,1,1,1,1,1,1,1,1,1,1,1,1,1,1,1,1,1,1,1,1,1,1,1,1,1,1,1,1,1,1,1,1,1,1,1,1,1,1,NaN,NaN],
	"pwr": [NaN,7.698039497e-05,1.177639979e-05,4.469905514e-06,5.448108311e-06,8.068730976e-06,7.618921317e-06,4.251000885e-06,5.728027767e-06,2.860481944e-05,6.926408975e-06,1.021435611e-05,3.004395056e-05,3.66345026e-05,5.490566965e-05,0.007475546878,0.02553009956,0.03031346826,0.04299195746,0.05574570881,0.06031625289,0.05428563707,0.04515708642,0.04810584708,0.05039111241,0.041992112,0.06534848053,0.07251555395,0.02708880879,0.006787033415,0.003465812818,0.005602079823,0.005705749525,0.006201330741,0.02249951073,0.02633258656,0.01585302237,0.004860283369,0.004677859186,0.006450651558,0.01007241463,0.01208768101,0.01339940414,0.009395023545,0.009168622268,0.01129459637,0.01024171146,0.006773589837,0.02620605407,0.03096391175,0.02785811489,0.02659204705,0.02457021238,0.02300160328,0.02129393974,0.02030537953,0.02214017952,0.0256156571,0.02833759314,0.02650057362,0.004562697679,0.0008710785829,0.001919906826,0.01608319221,0.03680934664,0.08401562112,0.10902566,0.09481529783,0.08167312599,0.09132481313,0.1121087172,0.1041398627,0.1062809068,0.09691413014,0.04901352242,0.04644624136,0.0465897626,0.07407936147,0.1172238308,0.1372124759,0.1344124385,0.09948989506,0.1191285841,0.06253513814,0.06873556056,0.09937113365,0.1025620201,0.09951903185,0.1141552504,0.0777307398,0.00556793263,0.002705129215,0.002897463462,0.01163194681,0.1409425551,0.125739515,0.1364989235,0.07283679498,0.07995826575,0.07952628917,0.07116984155,0.09093852087,0.08396497674,0.0962911456,0.003409544728,0.006440881482,0.002506474446,0.004254847703,0.03913184325,0.07609786904,0.0597206716,0.05701912789,0.05794724155,0.05989366954,0.06275056424,0.06315817844,0.0637462302,0.04362672886,0.03961710071,0.05244185014,0.004815976342,0.000421554789,0.0006677317871,0.001666283099,0.08512456393,0.102773863,0.08156705801,0.04587368102,0.01957743893,0.01643145964,0.06026912145,0.08748334063,0.05953762737,0.02044064012,0.00422653607,0.0008900404475,0.001281019333,0.00164946467,0.0009132552784,0.0570328184,0.04289748142,0.01385709535,0.008256695022,0.001655720269,0.008425485901,0.008413182038,0.00942045523,0.006862019132,0.005904322799,0.003077550909,0.004110191841,0.0008306599278,0.01915423968,0.1045579709,0.07549750843,0.1139013629,0.10405281,0.09613573485,0.07824705701,0.09599695997,0.09801533712,0.04690762894,0.05153955462,0.08594437683,0.009102139219,0.005431934825,0.01891150512,0.03999223026,0.05998540002,0.05766294451,0.05376263035,0.03626670512,0.04980095819,0.02429763618,0.01155010512,0.01075405186,0.008149229011,0.01563678941,0.009224565541,0.001244323239,0.004395419374,0.01411260147,0.01932734238,0.03366638126,0.03896283648,0.04994587464,0.05352476764,0.04455732217,0.05044950133,0.0582850789,0.04506489083,0.06847034841,0.04848152965,0.02664552809,0.007775468608,0.005749082981,0.004123752383,0.006139947078,0.007469214426,0.02462355633,0.02947508678,0.0291633506,0.03213373033,0.02939080609,0.04099202015,0.0231344304,0.0194695158,0.02477258557,0.03789619765,0.0300690763,0.01861695073,0.02020807049,0.03181288318,0.0358857426,0.03491701239,0.03436794865,0.03444662367,0.02912167496,0.02154751945,0.01812052457,0.01866919484,0.0200943641,0.01561859783,0.009248247234,0.005188187687,0.004717680441,0.005298078793,0.005506376042,0.006216488273,0.005405795959,0.004973820484,0.006626469981,0.002520364798,0.0009972484536,0.0003878139645,0.0003639917005,9.048608043e-05,6.695803849e-05,4.218048882e-05,2.914293435e-05,4.108584932e-05,4.681397695e-05,7.64850902e-05,9.44277553e-06,1.113937067e-05,1.055407578e-05,1.505426723e-05,1.951287876e-06,2.620219311e-06,7.849855216e-07,3.324412871e-07,1.792499956e-07,9.236057142e-07,2.802386777e-07,1.300378467e-07,8.844106096e-08,5.066822349e-08,7.780471102e-08,7.340394817e-08,4.22404287e-08,1.481614134e-08,2.816323766e-08,5.985901482e-09,1.543486077e-08,2.119134833e-08,2.964694918e-09,7.811055599e-09,8.754685903e-09,6.222398952e-10,1.285679457e-09,4.807434343e-10,1.424625856e-10,0,0,0,0,0,0,0,0,0,0,0,0,0,0,0,0,0,0,0,0,0,0,0,0,0,0,0,0,0,0,0,0,0,0,0,0,0,0,0,0,0,0,0,0,0,0,0,0,0,0,0,0,0,0,0,0,0,0,0,0,0,0,0,0,0,0,0,0,0,0,0,0,0,0,0,0,0,0,0,0,0,0,0,0,0,0,0,0,0,0,0,0,0,0,0,0,0,0,0,0,0,0,0,0,0,0,0,0,0,0,0,0,0,0,0,0,0,NaN,NaN],
	"sr": 16000,
	"range": [1,125128],
	"minf0": 63.1883,
	"maxf0": 706.3069,
	"thresh": 0.1,
	"relflag": 1,
	"hop": 320,
	"bufsize": 10000,
	"wsize": 640,
	"lpf": 4000,
	"shift": 0,
	"plotthreshold": 0.2
}
