{
    "f0": [
        45.721844091953571,
        47.089229519954252,
        56.138225356256555,
        46.419871881295592,
        45.050270913300423,
        50.110590589294162,
        46.216654835826731,
        45.731343060025914,
        44.177859556962609,
        43.764950917833907,
        55.298181912078142,
        54.333163578881489,
        53.781427045872924,
        52.620363171599223,
        51.868183033010411,
        50.834622444675006,
        49.867565135561165,
        52.059856333923939,
        52.239883965614617,
        52.545308893982238,
        51.511729929366624,
        50.412504421847473,
        48.000960178345494,
        46.389748077077677,
        44.80775893262139,
        44.933165766962347,
        45.689420507644599,
        45.607300981178561,
        43.911005513504037,
        50.846379328624124,
        51.970033960708861,
        52.675427661119016,
        52.522203406716834,
        52.230950409941897,
        51.642628693604692,
        50.12349610752257,
        0.0,
        0.0,
        0.0,
        0.0,
        0.0,
        53.678210835129178,
        53.150892466641324,
        52.592564582932852,
        52.242806483592418,
        52.714875454857044,
        53.216705545820318,
        53.509859219867188,
        53.755968871575412,
        53.765860231077227,
        53.71846004700916,
        53.743948799213612,
        53.742880761184288,
        53.501848657434721,
        53.379516263300822,
        53.256311823795855,
        52.958228721588299,
        52.654921568732732,
        53.025205872358143,
        52.894755853688338,
        52.688560770507266,
        52.796218286925317,
        52.965927818089163,
        53.102964002515229,
        53.158792652762251,
        53.176608633092179,
        53.186914289042164,
        53.197213911934362,
        53.254527535942813,
        53.42736672112764,
        53.620167235360761,
        53.931495838035673,
        53.937490107411961,
        53.828920671960269,
        53.883575918227301,
        53.88340482643008,
        54.711803838352395,
        55.502367337453819,
        55.640664696226715,
        55.559731289116954,
        55.312414785619673,
        55.145926069510111,
        54.761262918107207,
        54.651229449991902,
        55.243151803419735,
        55.524136966604544,
        55.800635735270113,
        55.88507184714102,
        55.699627280221208,
        55.355308911396577,
        55.176762025831167,
        55.081553635984449,
        54.943031403251517,
        54.997238871821011,
        55.349183662953379,
        55.548742951603899,
        55.696686113013385,
        55.518100060390687,
        55.337651192822747,
        55.327568428604565,
        55.574336332479511,
        55.284125535725671,
        55.210685792611308,
        55.025954736527929,
        55.366209488466531,
        54.330043912150103,
        55.198185174863809,
        55.838288933650944,
        55.311793994203214,
        51.562057938724294,
        49.793776735861073,
        50.043122528077603,
        50.440528035451926,
        51.942571084780994,
        50.15370473095274,
        47.984476765578023,
        46.449257421740853,
        43.782462963001215,
        43.312203028500285,
        42.975759788985151,
        42.968164781957455,
        42.97237577496049,
        43.002088332726302,
        43.357958841441494,
        44.122867223699238,
        44.307414761258116,
        43.986264993476432,
        43.950105143631362,
        44.353216647744155,
        44.507172126176933,
        44.429365931995058,
        43.644485495231272,
        44.614843614695658,
        44.273046021096356,
        44.363490764385098,
        44.238321435394823,
        50.174039034480359,
        50.452743096687861,
        51.242115053760671,
        52.431426006713252,
        53.341954883911242,
        53.953741086458727,
        54.140153095418782,
        54.351868591017222,
        54.56102623149814,
        54.958248197934296,
        55.457232462510312,
        56.060781752889895,
        56.237035362586141,
        56.086828443567335,
        55.417514128460546,
        54.286004218400024,
        52.960339547124981,
        50.525249099148127,
        0.0,
        0.0,
        0.0,
        0.0,
        0.0,
        54.778406958285423,
        54.062324095821339,
        53.922349949621832,
        53.860779628304833,
        53.798986619077759,
        53.851004287995224,
        53.930467965406592,
        53.995835270450513,
        54.047638720934678,
        53.994628296537471,
        53.762918880237756,
        52.91205926156303,
        51.994529034523275,
        50.030160464426359,
        49.231409806143844,
        47.314935868998447,
        47.774173390490219,
        49.100155144787699,
        49.928162402818089,
        50.738347840543113,
        51.718793215222497,
        52.457832876273102,
        52.550779672640701,
        52.602485398387778,
        52.399926824485021,
        52.370877460303205,
        52.342106152797797,
        52.313288601296975,
        52.311056426469271,
        51.588784687197219,
        50.835062987418794,
        49.597996944620249,
        47.98228369955514,
        46.12521944211808,
        44.429849998225158,
        44.813939075427427,
        45.106167200651157,
        45.387893072753378,
        45.667889669664426,
        46.786733012018267,
        47.898046023777425,
        48.386573210474822,
        48.734767884080149,
        48.964441068620047,
        48.89654728519632,
        48.694633306436003,
        48.490336714555511,
        48.283600475355811,
        47.900373710230795,
        47.804165284182787,
        0.0,
        0.0,
        0.0,
        0.0,
        0.0,
        0.0,
        0.0,
        63.919543314826583,
        49.180475303984849,
        49.180475303984849,
        49.275574036069756,
        49.71283818478252,
        49.800974073213418,
        49.7577213040055,
        49.583269014802227,
        49.562807756529352,
        49.807346264528022,
        49.976494810818394,
        50.039827310252377,
        50.102928851928922,
        50.165799478850673,
        50.05444828291801,
        50.133437658952239,
        50.062515079111449,
        49.635610018670192,
        49.892948993930482,
        50.146518835091499,
        50.315403225734144,
        49.995505100891293,
        49.858870036304822,
        49.968840221126626,
        49.943942923969082,
        50.437677671602358,
        49.623196000694094,
        50.22232135124699,
        50.434909394516282,
        49.938919101156017,
        50.34624913579156,
        46.831584915299871,
        49.066142997286235,
        48.127550793652105,
        0.0,
        0.0,
        0.0,
        0.0,
        52.318146973599859,
        52.318153264474674,
        52.490418919361915,
        53.169423588605653,
        53.489814149485127,
        53.618923643202407,
        53.929743908069824,
        54.488420741479899,
        54.819109036488051,
        55.143603082669692,
        55.525169991089165,
        55.763042291493015,
        55.890649328443921,
        55.775335015663572,
        55.659250098081756,
        55.714642451742279,
        55.536741650301011,
        55.277280087429716,
        54.876888838982651,
        53.815697128221039,
        52.685184100103086,
        51.647922820123114,
        51.493745317678147,
        52.067077697875376,
        52.694312828770606,
        53.090761725542393,
        53.066539341950737,
        52.963026204074495,
        52.903549649213716,
        52.798688696682504,
        52.615223738808702,
        52.469239903865315,
        52.302132693047469,
        51.96944627579704,
        50.826027652527614,
        51.218955776494866,
        52.176809228920249,
        52.287311149290389,
        52.417559625119253,
        52.3500307968757,
        52.266928524546984,
        52.183425421899052,
        52.530602487740367,
        51.998269196389124,
        52.220841183813349,
        52.927239943953587,
        53.023918798048861,
        53.062145675053969,
        52.601889475812953,
        52.583011531505576,
        52.68120418061816,
        52.628003768445652,
        52.57464099440655,
        52.171353970944864,
        52.281262875060008,
        52.337068968818059,
        52.245341391412019,
        51.75636252784507,
        52.30320216962614,
        52.295714652315638,
        52.310193686052429,
        52.476013455557435,
        52.908303100299392,
        52.850023600876987,
        52.756283539728798,
        52.852036363316529,
        52.295442036299519,
        52.428511590700765,
        52.8497534746881,
        53.292661210677373,
        53.181759235529086,
        52.409637730461839,
        0.0,
        0.0,
        0.0,
        0.0,
        0.0,
        0.0,
        0.0,
        0.0,
        0.0,
        0.0,
        0.0,
        0.0,
        0.0,
        0.0,
        0.0,
        0.0,
        0.0,
        0.0,
        0.0,
        0.0,
        0.0,
        0.0,
        0.0,
        0.0,
        0.0,
        0.0,
        0.0,
        0.0,
        0.0,
        0.0,
        0.0,
        0.0,
        0.0,
        0.0,
        0.0,
        0.0,
        0.0,
        0.0,
        0.0,
        0.0,
        0.0,
        0.0,
        0.0,
        0.0,
        0.0,
        0.0,
        0.0,
        0.0,
        0.0,
        0.0,
        0.0,
        0.0,
        0.0,
        0.0,
        0.0,
        0.0,
        0.0,
        0.0,
        0.0,
        0.0,
        0.0,
        0.0,
        0.0,
        0.0,
        0.0,
        0.0,
        0.0,
        0.0,
        0.0,
        0.0,
        0.0,
        0.0,
        0.0,
        0.0,
        0.0,
        0.0,
        0.0,
        0.0,
        0.0,
        0.0,
        0.0,
        0.0,
        0.0,
        0.0,
        0.0,
        0.0,
        0.0,
        0.0,
        0.0,
        0.0,
        0.0,
        0.0,
        0.0,
        0.0,
        0.0,
        0.0,
        0.0,
        0.0,
        0.0,
        0.0,
        0.0,
        0.0,
        0.0,
        0.0,
        0.0,
        0.0,
        0.0,
        0.0,
        0.0,
        0.0,
        0.0,
        0.0,
        0.0,
        0.0,
        0.0,
        0.0,
        0.0,
        0.0,
        0.0,
        0.0,
        0.0,
        0.0,
        0.0,
        0.0,
        0.0,
        0.0,
        0.0,
        0.0,
        0.0,
        0.0,
        0.0,
        0.0,
        0.0,
        0.0,
        0.0,
        0.0
    ],
    "time": [
        0.02,
        0.040000000000000001,
        0.059999999999999998,
        0.080000000000000002,
        0.10000000000000001,
        0.12,
        0.14000000000000001,
        0.16,
        0.17999999999999999,
        0.20000000000000001,
        0.22,
        0.23999999999999999,
        0.26000000000000001,
        0.28000000000000003,
        0.29999999999999999,
        0.32000000000000001,
        0.34000000000000002,
        0.35999999999999999,
        0.38,
        0.40000000000000002,
        0.41999999999999998,
        0.44,
        0.46000000000000002,
        0.47999999999999998,
        0.5,
        0.52000000000000002,
        0.54000000000000004,
        0.56000000000000005,
        0.57999999999999996,
        0.59999999999999998,
        0.62,
        0.64000000000000001,
        0.66000000000000003,
        0.68000000000000005,
        0.69999999999999996,
        0.71999999999999997,
        0.73999999999999999,
        0.76000000000000001,
        0.78000000000000003,
        0.80000000000000004,
        0.81999999999999995,
        0.83999999999999997,
        0.85999999999999999,
        0.88,
        0.90000000000000002,
        0.92000000000000004,
        0.93999999999999995,
        0.95999999999999996,
        0.97999999999999998,
        1.0,
        1.02,
        1.04,
        1.0600000000000001,
        1.0800000000000001,
        1.1000000000000001,
        1.1200000000000001,
        1.1399999999999999,
        1.1599999999999999,
        1.1799999999999999,
        1.2,
        1.22,
        1.24,
        1.26,
        1.28,
        1.3,
        1.3200000000000001,
        1.3400000000000001,
        1.3600000000000001,
        1.3799999999999999,
        1.3999999999999999,
        1.4199999999999999,
        1.4399999999999999,
        1.46,
        1.48,
        1.5,
        1.52,
        1.54,
        1.5600000000000001,
        1.5800000000000001,
        1.6000000000000001,
        1.6200000000000001,
        1.6399999999999999,
        1.6599999999999999,
        1.6799999999999999,
        1.7,
        1.72,
        1.74,
        1.76,
        1.78,
        1.8,
        1.8200000000000001,
        1.8400000000000001,
        1.8600000000000001,
        1.8799999999999999,
        1.8999999999999999,
        1.9199999999999999,
        1.9399999999999999,
        1.96,
        1.98,
        2.0,
        2.02,
        2.04,
        2.0600000000000001,
        2.0800000000000001,
        2.1000000000000001,
        2.1200000000000001,
        2.1400000000000001,
        2.1600000000000001,
        2.1800000000000002,
        2.2000000000000002,
        2.2200000000000002,
        2.2400000000000002,
        2.2599999999999998,
        2.2799999999999998,
        2.2999999999999998,
        2.3199999999999998,
        2.3399999999999999,
        2.3599999999999999,
        2.3799999999999999,
        2.3999999999999999,
        2.4199999999999999,
        2.4399999999999999,
        2.46,
        2.48,
        2.5,
        2.52,
        2.54,
        2.5600000000000001,
        2.5800000000000001,
        2.6000000000000001,
        2.6200000000000001,
        2.6400000000000001,
        2.6600000000000001,
        2.6800000000000002,
        2.7000000000000002,
        2.7200000000000002,
        2.7400000000000002,
        2.7599999999999998,
        2.7799999999999998,
        2.7999999999999998,
        2.8199999999999998,
        2.8399999999999999,
        2.8599999999999999,
        2.8799999999999999,
        2.8999999999999999,
        2.9199999999999999,
        2.9399999999999999,
        2.96,
        2.98,
        3.0,
        3.02,
        3.04,
        3.0600000000000001,
        3.0800000000000001,
        3.1000000000000001,
        3.1200000000000001,
        3.1400000000000001,
        3.1600000000000001,
        3.1800000000000002,
        3.2000000000000002,
        3.2200000000000002,
        3.2400000000000002,
        3.2599999999999998,
        3.2799999999999998,
        3.2999999999999998,
        3.3199999999999998,
        3.3399999999999999,
        3.3599999999999999,
        3.3799999999999999,
        3.3999999999999999,
        3.4199999999999999,
        3.4399999999999999,
        3.46,
        3.48,
        3.5,
        3.52,
        3.54,
        3.5600000000000001,
        3.5800000000000001,
        3.6000000000000001,
        3.6200000000000001,
        3.6400000000000001,
        3.6600000000000001,
        3.6800000000000002,
        3.7000000000000002,
        3.7200000000000002,
        3.7400000000000002,
        3.7599999999999998,
        3.7799999999999998,
        3.7999999999999998,
        3.8199999999999998,
        3.8399999999999999,
        3.8599999999999999,
        3.8799999999999999,
        3.8999999999999999,
        3.9199999999999999,
        3.9399999999999999,
        3.96,
        3.98,
        4.0,
        4.0199999999999996,
        4.04,
        4.0599999999999996,
        4.0800000000000001,
        4.0999999999999996,
        4.1200000000000001,
        4.1399999999999997,
        4.1600000000000001,
        4.1799999999999997,
        4.2000000000000002,
        4.2199999999999998,
        4.2400000000000002,
        4.2599999999999998,
        4.2800000000000002,
        4.2999999999999998,
        4.3200000000000003,
        4.3399999999999999,
        4.3600000000000003,
        4.3799999999999999,
        4.4000000000000004,
        4.4199999999999999,
        4.4400000000000004,
        4.46,
        4.4800000000000004,
        4.5,
        4.5199999999999996,
        4.54,
        4.5599999999999996,
        4.5800000000000001,
        4.5999999999999996,
        4.6200000000000001,
        4.6399999999999997,
        4.6600000000000001,
        4.6799999999999997,
        4.7000000000000002,
        4.7199999999999998,
        4.7400000000000002,
        4.7599999999999998,
        4.7800000000000002,
        4.7999999999999998,
        4.8200000000000003,
        4.8399999999999999,
        4.8600000000000003,
        4.8799999999999999,
        4.9000000000000004,
        4.9199999999999999,
        4.9400000000000004,
        4.96,
        4.9800000000000004,
        5.0,
        5.0199999999999996,
        5.04,
        5.0599999999999996,
        5.0800000000000001,
        5.0999999999999996,
        5.1200000000000001,
        5.1399999999999997,
        5.1600000000000001,
        5.1799999999999997,
        5.2000000000000002,
        5.2199999999999998,
        5.2400000000000002,
        5.2599999999999998,
        5.2800000000000002,
        5.2999999999999998,
        5.3200000000000003,
        5.3399999999999999,
        5.3600000000000003,
        5.3799999999999999,
        5.4000000000000004,
        5.4199999999999999,
        5.4400000000000004,
        5.46,
        5.4800000000000004,
        5.5,
        5.5199999999999996,
        5.54,
        5.5599999999999996,
        5.5800000000000001,
        5.5999999999999996,
        5.6200000000000001,
        5.6399999999999997,
        5.6600000000000001,
        5.6799999999999997,
        5.7000000000000002,
        5.7199999999999998,
        5.7400000000000002,
        5.7599999999999998,
        5.7800000000000002,
        5.7999999999999998,
        5.8200000000000003,
        5.8399999999999999,
        5.8600000000000003,
        5.8799999999999999,
        5.9000000000000004,
        5.9199999999999999,
        5.9400000000000004,
        5.96,
        5.9800000000000004,
        6.0,
        6.0199999999999996,
        6.04,
        6.0599999999999996,
        6.0800000000000001,
        6.0999999999999996,
        6.1200000000000001,
        6.1399999999999997,
        6.1600000000000001,
        6.1799999999999997,
        6.2000000000000002,
        6.2199999999999998,
        6.2400000000000002,
        6.2599999999999998,
        6.2800000000000002,
        6.2999999999999998,
        6.3200000000000003,
        6.3399999999999999,
        6.3600000000000003,
        6.3799999999999999,
        6.4000000000000004,
        6.4199999999999999,
        6.4400000000000004,
        6.46,
        6.4800000000000004,
        6.5,
        6.5199999999999996,
        6.54,
        6.5599999999999996,
        6.5800000000000001,
        6.5999999999999996,
        6.6200000000000001,
        6.6399999999999997,
        6.6600000000000001,
        6.6799999999999997,
        6.7000000000000002,
        6.7199999999999998,
        6.7400000000000002,
        6.7599999999999998,
        6.7800000000000002,
        6.7999999999999998,
        6.8200000000000003,
        6.8399999999999999,
        6.8600000000000003,
        6.8799999999999999,
        6.9000000000000004,
        6.9199999999999999,
        6.9400000000000004,
        6.96,
        6.9800000000000004,
        7.0,
        7.0199999999999996,
        7.04,
        7.0599999999999996,
        7.0800000000000001,
        7.0999999999999996,
        7.1200000000000001,
        7.1399999999999997,
        7.1600000000000001,
        7.1799999999999997,
        7.2000000000000002,
        7.2199999999999998,
        7.2400000000000002,
        7.2599999999999998,
        7.2800000000000002,
        7.2999999999999998,
        7.3200000000000003,
        7.3399999999999999,
        7.3600000000000003,
        7.3799999999999999,
        7.4000000000000004,
        7.4199999999999999,
        7.4400000000000004,
        7.46,
        7.4800000000000004,
        7.5,
        7.5199999999999996,
        7.54,
        7.5599999999999996,
        7.5800000000000001,
        7.5999999999999996,
        7.6200000000000001,
        7.6399999999999997,
        7.6600000000000001,
        7.6799999999999997,
        7.7000000000000002,
        7.7199999999999998,
        7.7400000000000002,
        7.7599999999999998,
        7.7800000000000002,
        7.7999999999999998,
        7.8200000000000003,
        7.8399999999999999,
        7.8600000000000003,
        7.8799999999999999,
        7.9000000000000004,
        7.9199999999999999,
        7.9400000000000004,
        7.96,
        7.9800000000000004,
        8.0,
        8.0199999999999996,
        8.0399999999999991,
        8.0600000000000005,
        8.0800000000000001,
        8.0999999999999996,
        8.1199999999999992,
        8.1400000000000006,
        8.1600000000000001,
        8.1799999999999997,
        8.1999999999999993,
        8.2200000000000006,
        8.2400000000000002,
        8.2599999999999998,
        8.2799999999999994,
        8.3000000000000007,
        8.3200000000000003,
        8.3399999999999999,
        8.3599999999999994,
        8.3800000000000008,
        8.4000000000000004,
        8.4199999999999999,
        8.4399999999999995,
        8.4600000000000009,
        8.4800000000000004,
        8.5,
        8.5199999999999996,
        8.5399999999999991,
        8.5600000000000005,
        8.5800000000000001,
        8.5999999999999996,
        8.6199999999999992,
        8.6400000000000006,
        8.6600000000000001,
        8.6799999999999997,
        8.6999999999999993,
        8.7200000000000006,
        8.7400000000000002,
        8.7599999999999998,
        8.7799999999999994,
        8.8000000000000007,
        8.8200000000000003,
        8.8399999999999999,
        8.8599999999999994,
        8.8800000000000008,
        8.9000000000000004,
        8.9199999999999999,
        8.9399999999999995,
        8.9600000000000009,
        8.9800000000000004,
        9.0,
        9.0199999999999996,
        9.0399999999999991,
        9.0600000000000005,
        9.0800000000000001,
        9.0999999999999996,
        9.1199999999999992,
        9.1400000000000006,
        9.1600000000000001,
        9.1799999999999997,
        9.1999999999999993,
        9.2200000000000006,
        9.2400000000000002
    ]
}