{
    "DU": 67,
    "DV": 328,
    "F-measure": 0.13900709219858154,
    "F-measure Chroma": 0.3007092198581561,
    "FN": 22,
    "FNC": 0,
    "FNCch": 0,
    "FNI": 22,
    "FNIch": 22,
    "FP": 63,
    "GU": 108,
    "GV": 287,
    "Overall Accuracy": 0.1240506329113924,
    "Overall Chroma Accuracy": 0.2683544303797468,
    "Precision": 0.13136729222520108,
    "Precision Chroma": 0.28418230563002683,
    "Raw Chroma Accuracy": 0.21254355400696864,
    "Raw Pitch Accuracy": 0.013937282229965157,
    "Recall": 0.14759036144578314,
    "Recall Chroma": 0.3192771084337349,
    "TN": 45,
    "TO": 395,
    "TP": 265,
    "TPC": 4,
    "TPCch": 61,
    "TPI": 261,
    "TPIch": 204,
    "Voiced Chroma Accuracy": 0.21254355400696864,
    "Voiced Pitch Accuracy": 0.013937282229965157,
    "Voicing Accuracy": 0.7848101265822784,
    "Voicing Detection": 0.9233449477351916,
    "Voicing False Alarm": 0.5833333333333334
}