{
    "f0": [
        0.0,
        0.0,
        0.0,
        0.0,
        0.0,
        0.0,
        0.0,
        0.0,
        0.0,
        0.0,
        0.0,
        0.0,
        0.0,
        0.0,
        0.0,
        0.0,
        0.0,
        0.0,
        0.0,
        0.0,
        0.0,
        0.0,
        0.0,
        0.0,
        0.0,
        0.0,
        0.0,
        0.0,
        0.0,
        0.0,
        0.0,
        0.0,
        0.0,
        0.0,
        0.0,
        0.0,
        0.0,
        0.0,
        0.0,
        0.0,
        0.0,
        0.0,
        0.0,
        0.0,
        0.0,
        0.0,
        0.0,
        0.0,
        0.0,
        0.0,
        0.0,
        0.0,
        0.0,
        0.0,
        0.0,
        0.0,
        0.0,
        0.0,
        0.0,
        0.0,
        0.0,
        0.0,
        0.0,
        0.0,
        0.0,
        0.0,
        0.0,
        0.0,
        0.0,
        0.0,
        0.0,
        0.0,
        0.0,
        0.0,
        0.0,
        0.0,
        0.0,
        0.0,
        0.0,
        0.0,
        0.0,
        0.0,
        0.0,
        0.0,
        0.0,
        0.0,
        0.0,
        0.0,
        0.0,
        0.0,
        0.0,
        0.0,
        0.0,
        0.0,
        0.0,
        0.0,
        0.0,
        0.0,
        0.0,
        0.0,
        0.0,
        0.0,
        0.0,
        0.0,
        0.0,
        0.0,
        0.0,
        0.0,
        0.0,
        0.0,
        0.0,
        0.0,
        0.0,
        0.0,
        0.0,
        48.228782791127337,
        46.060762345083397,
        47.029229659690394,
        47.149692320123066,
        47.182549451956305,
        47.607076457109315,
        48.234672816979923,
        48.316138189881812,
        48.098775006852847,
        48.014244104467274,
        48.262605150413101,
        47.620011614890053,
        48.194634591291091,
        47.970686499003691,
        48.037785328589024,
        48.399574461363898,
        48.769127658233337,
        48.07055670676823,
        48.122251843928339,
        48.949670450362881,
        48.642141099138151,
        48.836398333757757,
        48.956508895622861,
        49.093595116086256,
        48.946032307882362,
        48.737136805974082,
        48.296627609935143,
        48.904579699269796,
        48.791360410898569,
        48.011778264519691,
        47.00606441187368,
        47.840088255215868,
        47.344516873408722,
        47.499652131370851,
        46.589137917645495,
        47.248737348494316,
        47.658256667256481,
        45.463938475906687,
        46.828966391776255,
        46.024292169796652,
        46.083034244309104,
        45.087318957140425,
        44.964174572709325,
        46.192643413584037,
        47.37764611245678,
        45.074192576213747,
        45.694788716825308,
        45.417772698209625,
        45.283568605655276,
        46.925958598550238,
        46.731214683263872,
        46.375933141959912,
        44.805942387123068,
        47.648021133961166,
        47.594010640022908,
        47.47847865757398,
        47.784271248266393,
        47.765936513907242,
        47.505469193226439,
        47.653906029097122,
        47.879016109357025,
        46.922043358906564,
        47.772147828512828,
        46.633905388455361,
        46.884356690743132,
        47.6177583573904,
        47.542312237503104,
        47.751194584532833,
        47.531367877862884,
        46.780603150769451,
        47.189653871044335,
        46.555572964866357,
        46.602359301265324,
        46.847944513926052,
        46.827784365328654,
        46.71768905089256,
        46.676703495714342,
        46.9084629357598,
        46.961865343074905,
        46.72457819928826,
        46.141923925889401,
        46.748164175911832,
        47.69966209439221,
        47.301929396567743,
        47.305543247588858,
        46.710561195152593,
        46.435958531582287,
        47.824224194372874,
        47.682504596110945,
        46.995947296537409,
        47.281191455665976,
        47.178813524201168,
        46.872015172125799,
        46.841215516231216,
        46.741251958467949,
        46.243147656124883,
        46.916170881705341,
        46.693066318294996,
        46.056114284509732,
        45.818260446884914,
        45.18826746004342,
        45.450686331333756,
        43.434407194576181,
        44.06758039651006,
        42.782833584895471,
        42.957818584029056,
        42.951767439420152,
        42.702335782555949,
        42.880302329406305,
        43.078164828098295,
        43.670303396266164,
        43.868879783269662,
        43.306998766952148,
        43.281032009200601,
        43.302277640874976,
        43.539939996927266,
        43.688578433700876,
        44.237454524759684,
        44.868338868278414,
        45.222693877038708,
        44.004235368081652,
        44.194561719237782,
        44.163246099244269,
        44.568938006972843,
        43.90807959068502,
        44.757336772702843,
        44.668658689118296,
        44.244432326655428,
        44.156058843117776,
        43.683127276322637,
        43.990599718427049,
        43.815038953864807,
        43.852072020652798,
        44.322675175598263,
        44.531432407065132,
        44.158421220916146,
        44.086711974836767,
        43.827878206507862,
        43.848169767158353,
        43.382975985950864,
        44.214474701352827,
        44.768293800530941,
        45.442649570262326,
        44.465993410873274,
        45.500423076793446,
        43.079682281527894,
        0.0,
        43.270469063299146,
        45.598306733430221,
        48.404128295208118,
        0.0,
        0.0,
        44.810045019941001,
        45.817376221985199,
        46.279261613965886,
        45.803988434147271,
        45.472173342114836,
        45.553782320360121,
        43.132885014480607,
        45.764461425667641,
        45.612716737767535,
        46.324836535762444,
        45.053923354269969,
        46.683067463405258,
        45.487265403996844,
        44.258122901859736,
        43.9603750484955,
        43.836048015782431,
        43.329503224640263,
        43.161260733942107,
        42.779463533116825,
        42.86097936907526,
        42.946611741658266,
        42.892789034714603,
        43.023685544326071,
        43.521022009646444,
        43.949486400954711,
        43.850394904526226,
        43.2078001841925,
        43.439345957648612,
        44.274127960589759,
        44.54955206783044,
        45.203308743306351,
        44.188880008720538,
        43.947208902953378,
        43.828602857695287,
        43.922593216253901,
        43.390886567218786,
        44.068207555629215,
        43.949043735529713,
        43.445185870480501,
        42.945631597384526,
        42.506065735610598,
        42.390474543849756,
        42.609638193908324,
        43.04586213150921,
        43.060944576258393,
        44.902565067100454,
        43.214224557301407,
        43.601566021583075,
        45.044477553692445,
        44.350328409679541,
        45.138385621508917,
        45.033388312208785,
        44.55422347480296,
        44.514982007545399,
        44.141659000174542,
        44.282341404996458,
        44.397560008555857,
        44.274993200918175,
        43.695427641700206,
        43.691786451788943,
        43.420947681791901,
        44.045745385256048,
        44.215336670185856,
        45.65816854224569,
        42.737660796089237,
        42.847048751729929,
        42.395696631049731,
        42.554020168411228,
        42.227191585756067,
        42.190895921874656,
        42.07183437307993,
        41.673549165851696,
        41.45982668558424,
        42.020511291977385,
        42.094412883734023,
        41.868922222460768,
        41.771187275713949,
        41.441919440886338,
        42.024592681625691,
        42.498524034314862,
        42.752193824953231,
        42.689140038054759,
        43.085151149988732,
        43.676264195073529,
        45.59810482489199,
        43.476611063292246,
        43.184001981969722,
        43.659121703856812,
        43.377248315176118,
        43.934250999103483,
        43.668328471546147,
        43.946865529672799,
        44.405442938655284,
        44.433864005832703,
        44.158518372729688,
        44.413347353689971,
        44.177819287344676,
        44.513257987985028,
        44.865158919012195,
        44.134795994700148,
        44.29684734467908,
        44.346802462425799,
        44.260551549841807,
        43.787682233611967,
        43.547642270762843,
        43.637826552687301,
        43.982465481003786,
        44.212019320653994,
        43.677078123238445,
        43.120653326181227,
        42.430057560286762,
        42.237432932002775,
        42.369855868016444,
        42.431648047433882,
        42.352249136884559,
        41.479008744174358,
        42.94536524231696,
        42.667361569126236,
        42.423445394948345,
        42.223794748108297,
        42.065031542376474,
        42.172427563601978,
        42.24104674111156,
        42.068522123103712,
        41.935470706701736,
        42.055854830787716,
        42.192546846600145,
        42.185545392313664,
        41.976256725516997,
        42.086729519190271,
        42.019806694585881,
        42.11175740580417,
        41.911871537941849,
        42.086445332970783,
        42.18103670407168,
        42.361310626081867,
        42.34752904302438,
        42.470169961194507,
        42.466560491292121,
        42.497022792627973,
        42.004471374555017,
        42.497597117057609,
        42.333543159186149,
        42.007698806163098,
        0.0,
        0.0,
        0.0,
        0.0,
        0.0,
        0.0,
        0.0,
        0.0,
        0.0,
        0.0,
        0.0,
        0.0,
        0.0,
        0.0,
        0.0,
        0.0,
        0.0,
        0.0,
        0.0,
        0.0,
        0.0,
        0.0,
        0.0,
        0.0,
        0.0,
        0.0,
        0.0,
        0.0,
        0.0,
        0.0,
        0.0,
        0.0,
        0.0,
        0.0,
        0.0,
        0.0,
        0.0,
        0.0,
        0.0,
        0.0,
        0.0,
        0.0,
        0.0,
        0.0,
        0.0,
        0.0,
        0.0,
        0.0,
        0.0,
        0.0,
        0.0,
        0.0,
        0.0,
        0.0,
        0.0,
        0.0,
        0.0,
        0.0,
        0.0,
        0.0,
        0.0,
        0.0,
        0.0,
        0.0,
        0.0,
        0.0,
        0.0,
        0.0,
        0.0,
        0.0,
        0.0,
        0.0,
        0.0,
        0.0,
        0.0,
        0.0,
        0.0,
        0.0,
        0.0,
        0.0,
        0.0,
        0.0,
        0.0,
        0.0,
        0.0,
        0.0,
        0.0,
        0.0,
        0.0,
        0.0,
        0.0,
        0.0,
        0.0,
        0.0,
        0.0,
        0.0,
        0.0,
        0.0,
        0.0,
        0.0,
        0.0
    ],
    "time": [
        0.02,
        0.040000000000000001,
        0.059999999999999998,
        0.080000000000000002,
        0.10000000000000001,
        0.12,
        0.14000000000000001,
        0.16,
        0.17999999999999999,
        0.20000000000000001,
        0.22,
        0.23999999999999999,
        0.26000000000000001,
        0.28000000000000003,
        0.29999999999999999,
        0.32000000000000001,
        0.34000000000000002,
        0.35999999999999999,
        0.38,
        0.40000000000000002,
        0.41999999999999998,
        0.44,
        0.46000000000000002,
        0.47999999999999998,
        0.5,
        0.52000000000000002,
        0.54000000000000004,
        0.56000000000000005,
        0.57999999999999996,
        0.59999999999999998,
        0.62,
        0.64000000000000001,
        0.66000000000000003,
        0.68000000000000005,
        0.69999999999999996,
        0.71999999999999997,
        0.73999999999999999,
        0.76000000000000001,
        0.78000000000000003,
        0.80000000000000004,
        0.81999999999999995,
        0.83999999999999997,
        0.85999999999999999,
        0.88,
        0.90000000000000002,
        0.92000000000000004,
        0.93999999999999995,
        0.95999999999999996,
        0.97999999999999998,
        1.0,
        1.02,
        1.04,
        1.0600000000000001,
        1.0800000000000001,
        1.1000000000000001,
        1.1200000000000001,
        1.1399999999999999,
        1.1599999999999999,
        1.1799999999999999,
        1.2,
        1.22,
        1.24,
        1.26,
        1.28,
        1.3,
        1.3200000000000001,
        1.3400000000000001,
        1.3600000000000001,
        1.3799999999999999,
        1.3999999999999999,
        1.4199999999999999,
        1.4399999999999999,
        1.46,
        1.48,
        1.5,
        1.52,
        1.54,
        1.5600000000000001,
        1.5800000000000001,
        1.6000000000000001,
        1.6200000000000001,
        1.6399999999999999,
        1.6599999999999999,
        1.6799999999999999,
        1.7,
        1.72,
        1.74,
        1.76,
        1.78,
        1.8,
        1.8200000000000001,
        1.8400000000000001,
        1.8600000000000001,
        1.8799999999999999,
        1.8999999999999999,
        1.9199999999999999,
        1.9399999999999999,
        1.96,
        1.98,
        2.0,
        2.02,
        2.04,
        2.0600000000000001,
        2.0800000000000001,
        2.1000000000000001,
        2.1200000000000001,
        2.1400000000000001,
        2.1600000000000001,
        2.1800000000000002,
        2.2000000000000002,
        2.2200000000000002,
        2.2400000000000002,
        2.2599999999999998,
        2.2799999999999998,
        2.2999999999999998,
        2.3199999999999998,
        2.3399999999999999,
        2.3599999999999999,
        2.3799999999999999,
        2.3999999999999999,
        2.4199999999999999,
        2.4399999999999999,
        2.46,
        2.48,
        2.5,
        2.52,
        2.54,
        2.5600000000000001,
        2.5800000000000001,
        2.6000000000000001,
        2.6200000000000001,
        2.6400000000000001,
        2.6600000000000001,
        2.6800000000000002,
        2.7000000000000002,
        2.7200000000000002,
        2.7400000000000002,
        2.7599999999999998,
        2.7799999999999998,
        2.7999999999999998,
        2.8199999999999998,
        2.8399999999999999,
        2.8599999999999999,
        2.8799999999999999,
        2.8999999999999999,
        2.9199999999999999,
        2.9399999999999999,
        2.96,
        2.98,
        3.0,
        3.02,
        3.04,
        3.0600000000000001,
        3.0800000000000001,
        3.1000000000000001,
        3.1200000000000001,
        3.1400000000000001,
        3.1600000000000001,
        3.1800000000000002,
        3.2000000000000002,
        3.2200000000000002,
        3.2400000000000002,
        3.2599999999999998,
        3.2799999999999998,
        3.2999999999999998,
        3.3199999999999998,
        3.3399999999999999,
        3.3599999999999999,
        3.3799999999999999,
        3.3999999999999999,
        3.4199999999999999,
        3.4399999999999999,
        3.46,
        3.48,
        3.5,
        3.52,
        3.54,
        3.5600000000000001,
        3.5800000000000001,
        3.6000000000000001,
        3.6200000000000001,
        3.6400000000000001,
        3.6600000000000001,
        3.6800000000000002,
        3.7000000000000002,
        3.7200000000000002,
        3.7400000000000002,
        3.7599999999999998,
        3.7799999999999998,
        3.7999999999999998,
        3.8199999999999998,
        3.8399999999999999,
        3.8599999999999999,
        3.8799999999999999,
        3.8999999999999999,
        3.9199999999999999,
        3.9399999999999999,
        3.96,
        3.98,
        4.0,
        4.0199999999999996,
        4.04,
        4.0599999999999996,
        4.0800000000000001,
        4.0999999999999996,
        4.1200000000000001,
        4.1399999999999997,
        4.1600000000000001,
        4.1799999999999997,
        4.2000000000000002,
        4.2199999999999998,
        4.2400000000000002,
        4.2599999999999998,
        4.2800000000000002,
        4.2999999999999998,
        4.3200000000000003,
        4.3399999999999999,
        4.3600000000000003,
        4.3799999999999999,
        4.4000000000000004,
        4.4199999999999999,
        4.4400000000000004,
        4.46,
        4.4800000000000004,
        4.5,
        4.5199999999999996,
        4.54,
        4.5599999999999996,
        4.5800000000000001,
        4.5999999999999996,
        4.6200000000000001,
        4.6399999999999997,
        4.6600000000000001,
        4.6799999999999997,
        4.7000000000000002,
        4.7199999999999998,
        4.7400000000000002,
        4.7599999999999998,
        4.7800000000000002,
        4.7999999999999998,
        4.8200000000000003,
        4.8399999999999999,
        4.8600000000000003,
        4.8799999999999999,
        4.9000000000000004,
        4.9199999999999999,
        4.9400000000000004,
        4.96,
        4.9800000000000004,
        5.0,
        5.0199999999999996,
        5.04,
        5.0599999999999996,
        5.0800000000000001,
        5.0999999999999996,
        5.1200000000000001,
        5.1399999999999997,
        5.1600000000000001,
        5.1799999999999997,
        5.2000000000000002,
        5.2199999999999998,
        5.2400000000000002,
        5.2599999999999998,
        5.2800000000000002,
        5.2999999999999998,
        5.3200000000000003,
        5.3399999999999999,
        5.3600000000000003,
        5.3799999999999999,
        5.4000000000000004,
        5.4199999999999999,
        5.4400000000000004,
        5.46,
        5.4800000000000004,
        5.5,
        5.5199999999999996,
        5.54,
        5.5599999999999996,
        5.5800000000000001,
        5.5999999999999996,
        5.6200000000000001,
        5.6399999999999997,
        5.6600000000000001,
        5.6799999999999997,
        5.7000000000000002,
        5.7199999999999998,
        5.7400000000000002,
        5.7599999999999998,
        5.7800000000000002,
        5.7999999999999998,
        5.8200000000000003,
        5.8399999999999999,
        5.8600000000000003,
        5.8799999999999999,
        5.9000000000000004,
        5.9199999999999999,
        5.9400000000000004,
        5.96,
        5.9800000000000004,
        6.0,
        6.0199999999999996,
        6.04,
        6.0599999999999996,
        6.0800000000000001,
        6.0999999999999996,
        6.1200000000000001,
        6.1399999999999997,
        6.1600000000000001,
        6.1799999999999997,
        6.2000000000000002,
        6.2199999999999998,
        6.2400000000000002,
        6.2599999999999998,
        6.2800000000000002,
        6.2999999999999998,
        6.3200000000000003,
        6.3399999999999999,
        6.3600000000000003,
        6.3799999999999999,
        6.4000000000000004,
        6.4199999999999999,
        6.4400000000000004,
        6.46,
        6.4800000000000004,
        6.5,
        6.5199999999999996,
        6.54,
        6.5599999999999996,
        6.5800000000000001,
        6.5999999999999996,
        6.6200000000000001,
        6.6399999999999997,
        6.6600000000000001,
        6.6799999999999997,
        6.7000000000000002,
        6.7199999999999998,
        6.7400000000000002,
        6.7599999999999998,
        6.7800000000000002,
        6.7999999999999998,
        6.8200000000000003,
        6.8399999999999999,
        6.8600000000000003,
        6.8799999999999999,
        6.9000000000000004,
        6.9199999999999999,
        6.9400000000000004,
        6.96,
        6.9800000000000004,
        7.0,
        7.0199999999999996,
        7.04,
        7.0599999999999996,
        7.0800000000000001,
        7.0999999999999996,
        7.1200000000000001,
        7.1399999999999997,
        7.1600000000000001,
        7.1799999999999997,
        7.2000000000000002,
        7.2199999999999998,
        7.2400000000000002,
        7.2599999999999998,
        7.2800000000000002,
        7.2999999999999998,
        7.3200000000000003,
        7.3399999999999999,
        7.3600000000000003,
        7.3799999999999999,
        7.4000000000000004,
        7.4199999999999999,
        7.4400000000000004,
        7.46,
        7.4800000000000004,
        7.5,
        7.5199999999999996,
        7.54,
        7.5599999999999996,
        7.5800000000000001,
        7.5999999999999996,
        7.6200000000000001,
        7.6399999999999997,
        7.6600000000000001,
        7.6799999999999997,
        7.7000000000000002,
        7.7199999999999998,
        7.7400000000000002,
        7.7599999999999998,
        7.7800000000000002,
        7.7999999999999998,
        7.8200000000000003,
        7.8399999999999999,
        7.8600000000000003,
        7.8799999999999999,
        7.9000000000000004,
        7.9199999999999999,
        7.9400000000000004,
        7.96,
        7.9800000000000004,
        8.0,
        8.0199999999999996,
        8.0399999999999991,
        8.0600000000000005,
        8.0800000000000001,
        8.0999999999999996,
        8.1199999999999992,
        8.1400000000000006,
        8.1600000000000001,
        8.1799999999999997,
        8.1999999999999993,
        8.2200000000000006,
        8.2400000000000002,
        8.2599999999999998,
        8.2799999999999994,
        8.3000000000000007,
        8.3200000000000003,
        8.3399999999999999,
        8.3599999999999994,
        8.3800000000000008,
        8.4000000000000004,
        8.4199999999999999,
        8.4399999999999995,
        8.4600000000000009,
        8.4800000000000004,
        8.5,
        8.5199999999999996,
        8.5399999999999991,
        8.5600000000000005,
        8.5800000000000001,
        8.5999999999999996,
        8.6199999999999992,
        8.6400000000000006,
        8.6600000000000001,
        8.6799999999999997,
        8.6999999999999993,
        8.7200000000000006,
        8.7400000000000002,
        8.7599999999999998,
        8.7799999999999994,
        8.8000000000000007,
        8.8200000000000003,
        8.8399999999999999,
        8.8599999999999994,
        8.8800000000000008,
        8.9000000000000004,
        8.9199999999999999,
        8.9399999999999995,
        8.9600000000000009,
        8.9800000000000004,
        9.0,
        9.0199999999999996,
        9.0399999999999991,
        9.0600000000000005,
        9.0800000000000001,
        9.0999999999999996,
        9.1199999999999992,
        9.1400000000000006,
        9.1600000000000001,
        9.1799999999999997,
        9.1999999999999993,
        9.2200000000000006,
        9.2400000000000002,
        9.2599999999999998,
        9.2799999999999994,
        9.3000000000000007,
        9.3200000000000003,
        9.3399999999999999,
        9.3599999999999994,
        9.3800000000000008,
        9.4000000000000004,
        9.4199999999999999,
        9.4399999999999995,
        9.4600000000000009,
        9.4800000000000004,
        9.5,
        9.5199999999999996,
        9.5399999999999991,
        9.5600000000000005,
        9.5800000000000001,
        9.5999999999999996,
        9.6199999999999992,
        9.6400000000000006,
        9.6600000000000001,
        9.6799999999999997,
        9.6999999999999993,
        9.7200000000000006,
        9.7400000000000002,
        9.7599999999999998,
        9.7799999999999994,
        9.8000000000000007,
        9.8200000000000003,
        9.8399999999999999,
        9.8599999999999994,
        9.8800000000000008,
        9.9000000000000004,
        9.9199999999999999,
        9.9399999999999995,
        9.9600000000000009,
        9.9800000000000004,
        10.0,
        10.02,
        10.039999999999999,
        10.06,
        10.08,
        10.1,
        10.119999999999999,
        10.140000000000001,
        10.16,
        10.18,
        10.199999999999999,
        10.220000000000001,
        10.24
    ]
}