{
	"f0": [NaN,56.01006763,55.39200254,52.41067202,72.84636766,72.84433432,73.23360398,73.60455522,73.53213809,68.2177415,68.08943099,68.04046055,56.20302927,44.25209328,45.33092473,74.47984039,75.00007477,75.19995399,67.17723254,40.20355712,35.89163587,35.88199764,41.9338564,41.99170286,52.6129626,43.1962847,51.24296662,42.57012586,41.79871537,42.00610522,35.33640459,50.98342652,75.45826834,67.2425704,67.32351782,67.32797837,59.36685471,59.38471115,59.50964033,59.67314032,59.90924447,60.29871875,60.72524565,60.84918702,60.82448176,60.88059062,60.95062936,61.11814983,61.15818043,61.14888468,61.19625664,61.25978783,61.23144671,61.45879121,61.72773008,62.04167417,62.16844084,62.22750883,62.33755578,62.2700511,62.32240085,62.24627075,61.95271637,61.59414791,61.22635485,61.18565129,61.16732319,61.2074585,60.64831479,60.32377646,60.26402203,60.21856074,60.11191241,60.12020296,60.13356568,60.10972661,60.10363359,60.12050462,60.12048157,60.10584985,60.15675284,60.04176699,59.98924143,60.19936209,59.99380053,59.99471946,60.14715618,60.06813439,60.05346847,59.5875061,58.93974357,58.38395972,58.35170506,58.41679818,58.34322806,58.34452187,58.4406202,58.5078237,58.40941461,58.29675941,58.46077,58.54837902,58.53699057,58.57912429,59.0240847,59.02084181,58.84621837,58.92454045,58.89597177,58.8925509,58.90849407,58.90538719,58.93914682,58.94810203,58.93057013,58.98615045,59.11288617,59.40342318,59.51766471,59.7049228,59.74913919,59.86631031,60.04582484,60.10345857,60.26183244,60.26186545,60.26323435,60.30670393,60.24627331,60.22042667,60.18350134,60.05228852,59.87431463,59.72634941,59.62855034,59.42942268,59.09336874,58.78530956,58.78057572,58.7632384,58.45250325,58.00288489,57.80097399,57.58409291,57.50886081,57.21673476,57.01964047,56.68746911,56.19759403,56.01165637,56.00013738,56.24335227,56.05091458,56.69965447,53.43456061,53.40654788,53.56862407,53.80541402,53.79034486,53.64686026,53.49732361,53.54274688,53.64694068,53.7011318,53.85064324,54.20564602,54.38144862,54.38362965,54.31210036,54.31338252,54.25421405,54.2155167,54.29800369,54.37034573,54.45158864,54.51942831,54.60840985,54.54064628,54.5075944,54.57826006,54.32748314,54.36590136,54.51777525,54.51241981,54.36265354,54.55758109,54.83701757,54.68772627,54.331357,54.30546169,54.35128205,54.28052047,54.31663302,54.40656901,54.11932009,53.8977729,54.30040362,54.05160839,53.71619748,54.07704495,35.34887861,35.34887861,53.85059572,35.34887861,35.34887861,35.34887861,35.34887861,35.34887861,35.34887861,35.34887861,35.34887861,35.34887861,35.34887861,35.34887861,35.34887861,35.34887861,35.34887861,35.34887861,42.0979178,41.19539446,42.00125568,54.0979178,35.54706338,35.34887861,35.34887861,52.543695,51.88642475,51.68346816,57.17399484,56.46727057,52.17620131,72.33040771,74.15444483,75.3511729,52.57146697,41.46440118,54.50528578,52.37482755,52.39855252,52.73119458,52.93035138,53.50429368,35.34887861,35.34887861,35.34887861,35.34887861,35.34887861,35.34887861,35.34887861,35.34887861,35.34887861,35.34887861,35.34887861,35.34887861,35.34887861,53.3108577,53.8977729,53.45418501,35.34887861,35.34887861,35.34887861,35.34887861,35.34887861,35.34887861,35.34887861,35.34887861,35.34887861,35.34887861,53.11955917,35.34887861,35.34887861,53.11955917,35.34887861,35.34887861,35.34887861,35.34887861,35.34887861,35.34887861,35.34887861,35.34887861,35.34887861,53.3108577,35.34887861,35.34887861,35.34887861,35.34887861,41.24678638,53.50429368,53.2203071,35.34887861,35.34887861,35.34887861,35.34887861,35.34887861,35.34887861,35.34887861,35.34887861,35.34887861,35.34887861,35.34887861,53.69991543,53.50429368,52.93035138,52.74318912,35.34887861,35.34887861,35.34887861,35.34887861,35.34887861,35.34887861,35.34887861,53.8977729,35.34887861,41.48438228,53.8977729,35.34887861,35.34887861,35.34887861,35.34887861,35.34887861,35.34887861,35.34887861,35.34887861,35.34887861,35.34887861,35.34887861,35.34887861,35.34887861,35.34887861,41.88282636,41.28393413,41.40110604,35.34887861,41.32992548,41.40730553,35.34887861,35.34887861,35.34887861,35.34887861,35.34887861,41.99755612,55.13489482,55.35196385,54.71262168,54.85449695,35.34887861,35.34887861,35.34887861,35.34887861,35.34887861,41.97347777,41.3108577,35.34887861,35.34887861,41.50429368,40.89830295,35.34887861,35.34887861,40.89488909,35.34887861,35.34887861,38.37506058,38.32112413,38.27669772,37.06721424,37.25837338,35.34887861,35.34887861,35.34887861,35.34887861,35.34887861,35.34887861,35.34887861,35.34887861,35.34887861,35.34887861,35.34887861,35.34887861,35.34887861,35.34887861,35.34887861,35.34887861,35.34887861,35.34887861,35.34887861,35.34887861,35.34887861,35.34887861,35.34887861,35.34887861,35.34887861,35.34887861,35.34887861,35.34887861,35.34887861,35.34887861,36.88005198,35.69307167,35.34887861,35.34887861,35.34887861,35.34887861,35.34887861,35.34887861,NaN,NaN],
	"ap0": [NaN,0.6242779971,0.6232838231,0.7439695719,0.3477707076,0.2871551414,0.4109377857,0.3793844649,0.3910514836,0.4079541336,0.4595416444,0.5274681411,0.4860703277,0.3888921114,0.4935685271,0.6674796632,0.6704639921,0.6840824355,0.8744984063,0.7203298578,0.6491722769,0.6508052259,0.8281221901,0.7183398567,0.8051617071,0.7084266487,0.7315568158,0.6998941149,0.6802590654,0.7274884986,0.7357695549,0.8803439051,0.8014675038,0.8497512997,0.8118014767,0.824294137,0.2576629129,0.04156076976,0.01607841431,0.01110762181,0.02978750437,0.05560416347,0.02122757626,0.009133715214,0.01893124081,0.09071945077,0.1353281286,0.1541124738,0.08987236636,0.06705339946,0.06521444278,0.09723776364,0.1139814503,0.08635632354,0.07692870943,0.104637105,0.08682980544,0.0937463936,0.1250966898,0.09261344634,0.06972350108,0.03313950649,0.02122554668,0.02596493358,0.03557780316,0.05269900032,0.04629657001,0.1031037702,0.1186012566,0.05849899631,0.0377079515,0.0358171881,0.03572987464,0.02423123037,0.01279592881,0.01045583202,0.01128488675,0.01063779111,0.00859873077,0.01668242367,0.05292364748,0.04493750538,0.0242434446,0.02398259707,0.03075267059,0.02638283949,0.04348728663,0.1049850186,0.09068131168,0.1372399852,0.1560456963,0.1243355842,0.04413502385,0.02350939992,0.01846123936,0.02025748788,0.01890385325,0.01642550392,0.02519029611,0.03849966441,0.03849386478,0.01768942168,0.008390207387,0.007438093753,0.02676096999,0.02291332505,0.0124709133,0.009142304792,0.007686471032,0.006308859965,0.005145673765,0.007240380969,0.008538692226,0.009901545597,0.01129196228,0.01634491999,0.03681384169,0.06014109634,0.07898330604,0.1483864143,0.2139664235,0.2585004604,0.1899631631,0.1381660761,0.07086864072,0.04722862016,0.05048297617,0.05417676252,0.05459127084,0.0487070041,0.03756413051,0.03908115973,0.05785637151,0.07772320438,0.08529330554,0.1162952145,0.1854973703,0.2608071489,0.1914457701,0.1605959101,0.1783146223,0.1805668762,0.1542955493,0.1765216075,0.2127434847,0.1678334474,0.1149005851,0.154125792,0.1250481568,0.2368700834,0.3915039162,0.2110729751,0.1874507742,0.4039999413,0.3392349429,0.1311346346,0.1115605487,0.120593784,0.1197456048,0.1228220066,0.09830177171,0.07832883985,0.1252940871,0.2332728388,0.349340443,0.2098005315,0.09602123176,0.04981507685,0.04345939824,0.09304217596,0.1205872891,0.1138775277,0.08207474139,0.03717632532,0.03414232763,0.04523392677,0.06425935344,0.06959390926,0.06043607071,0.1026963427,0.227831113,0.1894905819,0.1438422994,0.1063617731,0.07812413019,0.06539194694,0.07262722316,0.1273581969,0.09082492041,0.08699620802,0.2086860604,0.3192488819,0.2521373414,0.3949661745,0.7706059292,0.5390127668,0.3679426597,0.3949614637,0.3970516266,0.4268558799,0.3831765121,0.5095932603,0.5277096913,0.4819321865,0.3768751044,0.3792512797,0.3930828485,0.4290397582,0.5331592185,0.5129061704,0.4391425858,0.4089151035,0.3642701086,0.4174970208,0.4775355206,0.4502214868,0.4026025805,0.4125501963,0.429632981,0.4714128931,0.5497124719,0.6336641083,0.5498393727,0.5658273581,0.558141475,0.7525518513,0.64716363,0.6915900334,0.8033192445,0.8206666818,0.8853449678,0.7753013741,0.6791800992,0.8479062858,0.7875348387,0.6847495967,0.676863377,0.7176451013,0.5575103441,0.608935086,0.6063683232,0.6204959227,0.4316780681,0.4122734524,0.3870679904,0.4459593826,0.4209511277,0.4373495067,0.456275882,0.3840725559,0.4470564554,0.5634872842,0.4198495733,0.3772547682,0.4488154742,0.5103780687,0.5030234355,0.5559376119,0.4061992236,0.4126680368,0.4474729482,0.4331299851,0.3972944608,0.4821449082,0.4252533389,0.3971370707,0.428193313,0.4348829052,0.499743146,0.4421129967,0.4512862481,0.4840707918,0.4296364441,0.4010638893,0.4544891485,0.5136200517,0.400358795,0.3665699532,0.5002199612,0.5101116784,0.4499347638,0.4707668395,0.3749269358,0.3822375788,0.3867080646,0.392702693,0.4053245502,0.4111387462,0.4487124498,0.3805393285,0.4311397941,0.4492967127,0.4188237713,0.409726436,0.4138318491,0.4239792015,0.4396042658,0.3819357916,0.4537502227,0.4441900243,0.4280143477,0.4047249891,0.5212921481,0.5309573967,0.5291600867,0.5014968131,0.4505854049,0.446333198,0.4187322813,0.4712154727,0.5697311636,0.5653517196,0.4728286376,0.5485556071,0.689448521,0.5501348038,0.5126705375,0.4440638608,0.443809438,0.4494169926,0.4929876725,0.4421179492,0.4191391161,0.4853958229,0.4867370834,0.4916001981,0.4953793161,0.437579487,0.4581119876,0.5030385808,0.4272593511,0.436200018,0.4423117785,0.4698132902,0.462842809,0.4392490144,0.4483249024,0.4352869614,0.4796097415,0.6218889205,0.7866323473,0.7730043074,0.5320749596,0.5201003666,0.4684082598,0.3769624521,0.5478992277,0.4964033787,0.5390685879,0.6496787365,0.6294619777,0.5631768916,0.5090377218,0.3993609693,0.3912124628,0.4467765732,0.3425732345,0.3304048912,0.623190291,0.6060982025,0.4314397354,0.3764236264,0.3223445482,0.559918371,0.3842818002,0.4165603545,0.4246890064,0.2120006915,0.09951826816,0.08895757778,0.1137665874,0.1449635052,0.1189267438,0.04833749332,0.06404127686,0.1301576852,0.1268459913,0.04983080639,0.06498517457,0.1123774582,0.1708571596,0.1776196851,0.1421370671,0.1111036107,0.09710420549,0.08438486024,0.07122896818,0.08668867851,0.1390324579,0.101691926,0.04317995202,0.1121096764,0.3148857057,0.2709523181,0.1296360002,0.1507518512,0.2668299491,0.2925119014,0.1518359401,0.1719506484,0.1509156357,0.08902769196,0.1711303755,0.4445335763,NaN,NaN],
	"ap": [NaN,0.4770893917,0.5317318309,0.3257749009,0.3671980365,0.2906464436,0.2730763035,0.1793308482,0.2534168502,0.4810724272,0.2487869861,0.142434064,0.3247147743,0.2670079854,0.1410313466,0.3530647317,0.2006666099,0.5221244284,0.4357528857,0.5109720855,0.382279785,0.2442173654,0.5091376514,0.3867356633,0.5023965931,0.3591743895,0.4644776762,0.4242356112,0.3505551467,0.3024589498,0.3943988647,0.5005460516,0.4400282662,0.3990526914,0.4577857367,0.4192787023,0.504844418,0.4721256469,0.1226489759,0.00268546444,0.003580973165,0.01186815966,0.2273912006,0.02061836134,0.003982601409,0.01471491133,0.4603580573,0.02259631535,0.3627748966,0.1338069407,0.01543420046,0.04299926587,0.06209589268,0.03621526208,0.02431078654,0.05609671492,0.08739662467,0.0568832604,0.04345219641,0.03114984796,0.04737121654,0.05639089858,0.04316895242,0.0108495961,0.0141270737,0.009255508965,0.1110022912,0.03280987625,0.03214158703,0.1453574789,0.06630921803,0.0113667616,0.03176566125,0.04663113927,0.0122854315,0.008727182141,0.003034214469,0.003330101885,0.006115540915,0.004191660405,0.007060618478,0.06113112597,0.06756306099,0.006682000433,0.01914038748,0.05386676584,0.01783217092,0.009740136341,0.05343482914,0.06600190122,0.2708850762,0.07156972161,0.06399269473,0.02537421348,0.01411083177,0.01800945452,0.006652198163,0.01805083339,0.007484223408,0.006254179027,0.01748038376,0.03498488027,0.02174426349,0.006242863359,0.01842443392,0.01464021777,0.01399538072,0.005196856074,0.00498488995,0.004914706042,0.002123430805,0.0018237959,0.003118736307,0.003151282905,0.003959737265,0.004436232851,0.01289237146,0.03745475014,0.07021289472,0.02479072606,0.07329681832,0.09096990007,0.07085270367,0.04777372294,0.1350657924,0.05067303852,0.04420294699,0.01798393333,0.05279487259,0.02941701061,0.01893256247,0.02218270547,0.01966011132,0.03077161605,0.009605682364,0.05369909569,0.07288260822,0.1082713277,0.1118546073,0.1941592915,0.1184975639,0.1655428041,0.1042608517,0.05851927829,0.1677253143,0.1085150183,0.108675308,0.07676249381,0.06527484,0.05297754945,0.08662006504,0.1426628489,0.1532067857,0.099463188,0.1818802334,0.2308133103,0.01777328005,0.03745176719,0.06479482103,0.07806389689,0.1061713255,0.07812015264,0.01850334608,0.0453708522,0.08430587043,0.2570452239,0.2226189684,0.1625863893,0.03269000482,0.03508018133,0.03214044305,0.07156540591,0.06392011755,0.05164566554,0.01652193286,0.01495841819,0.02269968242,0.02917170905,0.03208826003,0.04056994817,0.05523062292,0.3351817533,0.08996913017,0.08531054961,0.05589347066,0.1189974024,0.0159856449,0.02141948578,0.1015008685,0.06130325907,0.05058794754,0.2003362072,0.2082844273,0.05244237338,0.173563087,0.3889550071,0.3917121418,0.2517224809,0.2196482594,0.2368539699,0.161338962,0.2278882447,0.6001965971,0.3262603902,0.2022024362,0.2353305034,0.1623414928,0.2197658875,0.1894263468,0.3268691453,0.2205732981,0.2517764722,0.1944869027,0.1548572973,0.2313835914,0.2651128779,0.1799331051,0.1900238109,0.2677077287,0.2052703912,0.2225240491,0.3466563046,0.23105671,0.3712385428,0.3050086279,0.4730469073,0.3599720537,0.2955734575,0.4178681321,0.7185941476,0.6665089962,0.4113089039,0.2532307207,0.2270628964,0.3407378423,0.3549501436,0.3873234246,0.3163806885,0.4535993752,0.2027520874,0.3329769039,0.21920336,0.158221212,0.300999376,0.1759088114,0.2180750427,0.2424820516,0.2534518508,0.2015541578,0.2520583152,0.2036723844,0.3219973002,0.3048256205,0.1170789294,0.2810322831,0.2859501964,0.2543921227,0.3946136434,0.2437110217,0.2079833149,0.2648116546,0.1997446323,0.2452341107,0.2139102443,0.3357787722,0.1590452667,0.2269651457,0.1827955639,0.2069019996,0.2381546983,0.1601099139,0.33050207,0.2674706824,0.1611562126,0.2077164224,0.3414512135,0.1782538891,0.1402109296,0.2680554864,0.308053599,0.1778124705,0.4574796867,0.2530333805,0.1785827048,0.2306412853,0.2034106434,0.3210418046,0.3054771839,0.1960632888,0.2076259271,0.2243371686,0.2167765903,0.2247193167,0.1720460136,0.2658196686,0.179278539,0.2216281006,0.2342174355,0.1881220339,0.2747829828,0.2022725508,0.4212992146,0.1326215311,0.05771563366,0.3411892051,0.2705140717,0.1455954302,0.2993230704,0.1853501079,0.1349054317,0.3143501859,0.6726256019,0.1818333893,0.3126554038,0.4739716087,0.2200748471,0.2987508094,0.288044333,0.1689944749,0.2109714781,0.2995686329,0.2801751583,0.1157985259,0.2794051344,0.29701556,0.3002388717,0.1770929385,0.3329266394,0.1802592758,0.243761213,0.184015034,0.199797826,0.2170473211,0.2780120214,0.2327708502,0.1527912465,0.2201694891,0.2017751369,0.2643793774,0.2219504905,0.166074014,0.5983191373,0.4005606651,0.207565393,0.4304668095,0.1396938144,0.3005231909,0.2853547143,0.2470687078,0.3661135721,0.4519235358,0.2606355731,0.2615767916,0.2287650384,0.2944109157,0.1397946204,0.2431546559,0.1033346313,0.4156859192,0.4333125077,0.2562279732,0.2915868212,0.1353462764,0.2212535517,0.4012089961,0.1672530675,0.2441509533,0.1463915869,0.0880772541,0.03451253093,0.05596435227,0.06012577646,0.1147192143,0.02342812727,0.02833112082,0.03028076183,0.1296436715,0.0271803994,0.02643105368,0.03740565468,0.09298725682,0.07538268446,0.08710568481,0.07621291622,0.0639535115,0.04318158986,0.05458596883,0.02252147721,0.07691654834,0.08029109594,0.02442166977,0.02614803441,0.1042909086,0.1878774718,0.1063516309,0.04173999654,0.1223707357,0.181399734,0.05828232521,0.05216504313,0.09263279877,0.08011057418,0.01458893856,0.1652260127,NaN,NaN],
	"pwr": [NaN,3.281304963e-07,7.686023626e-06,4.039506783e-06,7.019970656e-06,1.724376553e-05,9.348679909e-05,0.0001271445228,0.0001390955469,0.0005482577502,0.0002362717273,0.0001978335006,0.0003111773327,0.0002270667694,0.0003659856637,0.0002948933869,0.0003391427332,0.0001110961695,0.0002002178927,9.234314667e-05,0.0001260474639,9.767496721e-05,9.960243197e-05,5.601081607e-05,4.925149369e-05,4.014811866e-05,2.591630114e-05,2.179193289e-05,3.250357527e-05,4.276597349e-05,5.452148748e-05,3.46932158e-05,5.243473146e-05,0.0001109780586,0.0001259196299,0.0001462237385,0.0002408822104,0.0002479591901,0.002988153601,0.04453647461,0.06625565882,0.06888135518,0.005624241382,0.06071215805,0.1647742975,0.1469539379,0.003196446393,0.007897381486,0.0006848866423,0.003697862603,0.01226643003,0.007516280291,0.001927353234,0.003655704139,0.01837053943,0.01851772699,0.01270210483,0.005196844712,0.006834279943,0.001662955706,0.003300639041,0.007318621895,0.008721164749,0.018482827,0.01487257462,0.02137504668,0.01291839797,0.007224718496,0.01253178993,0.005392960693,0.03424692227,0.07736476005,0.08270888124,0.03896231384,0.04075870892,0.04744796469,0.07275657408,0.07734970154,0.09029753838,0.1170049161,0.08156973799,0.02884129202,0.01802162511,0.06849159574,0.03351148621,0.01320771313,0.03728999873,0.01887397986,0.003572868567,0.002694192075,0.001658577455,0.01258291215,0.02461486139,0.01625453375,0.03151833257,0.03137675399,0.04283208825,0.04392898475,0.0471241842,0.03253051361,0.01214641895,0.008790967685,0.02562780609,0.03855752204,0.06033294929,0.04944545023,0.0740814226,0.07070314275,0.1484730893,0.1590872515,0.1267287847,0.2093809136,0.1512065663,0.1647138434,0.1242577364,0.07704215851,0.06691726655,0.04913546072,0.02535968301,0.06840978436,0.03577594912,0.03820201207,0.02528564096,0.01225187081,0.03055616311,0.03472385476,0.02255662391,0.03956013992,0.02336984073,0.02169597859,0.02552943352,0.02659042967,0.04630938516,0.0384180668,0.02594362191,0.03883342564,0.05394915007,0.02119116617,0.01700744354,0.01280269774,0.02064820091,0.02679042973,0.0140607541,0.02221493634,0.01143093816,0.01786178049,0.0178018751,0.04511468695,0.0609663381,0.02313717623,0.0254078845,0.01499038708,0.02417885851,0.03047359503,0.01054367071,0.008549841401,0.02617538061,0.02827628874,0.01384502658,0.01150233231,0.009079839842,0.01180947942,0.008996903619,0.003417760697,0.00174142848,0.0009086696818,0.0008417439544,0.004962128973,0.0141811743,0.01411367846,0.00489245132,0.004269781459,0.002595107969,0.002591484587,0.005990153277,0.005944314721,0.003758607783,0.001816127576,0.001311447592,0.001851837366,0.001107501203,0.0001761419692,0.0004127139253,0.000327095164,0.0002678703271,0.0003060199277,0.0003418989838,0.0002239195163,9.151251932e-05,5.85721983e-05,0.0001461021603,2.668440388e-05,1.895548227e-05,3.211988506e-05,3.029700035e-05,1.7035228e-05,1.597635462e-05,1.08277052e-05,2.32446716e-05,7.708395665e-06,1.206228374e-05,9.464121774e-06,3.832275877e-06,6.088016483e-06,8.164555766e-06,8.294433786e-06,9.252336866e-06,7.976662124e-06,1.172760619e-05,9.581293108e-06,1.223181561e-05,1.043654171e-05,8.062608256e-06,8.932410375e-06,6.64610489e-06,1.080120491e-05,8.996364552e-06,1.051145015e-05,1.084932558e-05,9.313942047e-06,8.114394185e-06,1.530986019e-05,1.545703472e-05,1.127151433e-05,1.023058604e-05,1.58246319e-05,7.896793242e-06,9.779896066e-06,0.0004078123998,9.361011209e-05,0.000224119364,8.071547879e-05,0.0001083563612,2.6363125e-05,2.202073057e-05,4.836677859e-05,2.314910636e-05,1.216090199e-05,2.080817795e-05,2.107840554e-05,1.547047324e-05,1.576104269e-05,1.240027729e-05,1.042231108e-05,7.216796402e-06,1.027260373e-05,1.091232219e-05,8.513405507e-06,8.587603545e-06,6.069126722e-06,7.381468166e-06,8.216966723e-06,5.356746306e-06,9.08037654e-06,8.05991535e-06,8.927870982e-06,1.112182809e-05,7.841393784e-06,1.167254449e-05,8.106074254e-06,7.602544071e-06,6.321504369e-06,7.099504298e-06,4.132313326e-06,6.974967862e-06,8.901607522e-06,8.662999195e-06,1.106731017e-05,1.279591931e-05,1.04943135e-05,1.256983758e-05,7.467087906e-06,8.300747942e-06,8.444492449e-06,7.240293964e-06,6.87184497e-06,5.798368517e-06,7.415143819e-06,6.082545192e-06,5.009465193e-06,8.649163417e-06,5.178535098e-06,7.426318773e-06,8.577244186e-06,1.041176862e-05,1.12111947e-05,1.292114093e-05,7.286778353e-06,1.276782193e-05,9.994232462e-06,8.567112615e-06,8.930993453e-06,8.605292487e-06,9.565724621e-06,7.658292802e-06,8.710521167e-06,8.680518326e-06,8.394879355e-06,7.087635894e-06,9.014265012e-06,1.159778119e-05,1.114654862e-05,1.207335331e-05,1.580446648e-05,7.769246686e-06,7.731009524e-06,9.83257558e-06,1.209741962e-05,6.54030055e-06,7.447253365e-06,1.040671028e-05,4.403016814e-06,6.532841949e-06,1.277775173e-05,3.983494799e-06,8.552188538e-06,1.086827709e-05,1.10139436e-05,1.036358207e-05,1.064970274e-05,1.452830056e-05,9.368506524e-06,8.679125696e-06,1.17405936e-05,7.963221425e-06,7.027980604e-06,6.796578569e-06,7.507227193e-06,7.458308008e-06,1.001688265e-05,9.475688743e-06,9.797989068e-06,5.856124725e-06,9.597293341e-06,7.285147596e-06,9.571531179e-06,1.387389475e-05,9.545940662e-06,7.598017394e-06,4.976108078e-06,6.683068175e-06,1.482592959e-06,2.30415448e-06,2.651713811e-06,1.21213566e-06,1.584428572e-06,1.183140374e-06,7.751711285e-07,4.624429078e-07,3.331549847e-07,1.53920836e-07,2.191094811e-07,1.718005987e-07,1.617962142e-07,7.843024495e-08,9.152688756e-08,9.499467345e-08,5.204773207e-08,4.666464534e-08,8.57165098e-09,1.54571131e-08,1.059906792e-08,1.731234049e-08,6.054844135e-09,2.919746887e-09,2.435424542e-09,6.46838361e-09,2.432117737e-09,2.817800782e-09,5.926639868e-09,8.270987786e-09,3.640499611e-09,3.444793539e-09,3.564417157e-09,4.307366908e-09,3.474814025e-09,2.649823556e-09,2.292098521e-09,1.976310503e-09,2.287515241e-09,1.415775312e-09,7.901575387e-10,5.958264503e-10,1.477191269e-09,2.523554181e-09,1.997851921e-09,1.945602524e-09,2.005643497e-09,1.645855987e-09,1.052779505e-09,6.98491931e-10,7.278249254e-10,7.090334759e-10,4.564947265e-10,6.939086506e-10,5.509103025e-10,5.12227416e-10,3.889861356e-10,4.289950442e-10,5.405979216e-10,5.889515297e-10,6.141595718e-10,7.204916768e-10,5.884932017e-10,NaN,NaN],
	"sr": 16000,
	"range": [1,130065],
	"minf0": 63.1883,
	"maxf0": 706.3069,
	"thresh": 0.1,
	"relflag": 1,
	"hop": 320,
	"bufsize": 10000,
	"wsize": 640,
	"lpf": 4000,
	"shift": 0,
	"plotthreshold": 0.2
}
