{
    "DU": 125,
    "DV": 249,
    "F-measure": 0.8482269503546098,
    "F-measure Chroma": 0.9219858156028368,
    "FN": 18,
    "FNC": 2,
    "FNCch": 5,
    "FNI": 16,
    "FNIch": 13,
    "FP": 25,
    "GU": 132,
    "GV": 242,
    "Overall Accuracy": 0.7994652406417112,
    "Overall Chroma Accuracy": 0.8689839572192514,
    "Precision": 0.8398876404494382,
    "Precision Chroma": 0.9129213483146067,
    "Raw Chroma Accuracy": 0.9214876033057852,
    "Raw Pitch Accuracy": 0.8016528925619835,
    "Recall": 0.8567335243553008,
    "Recall Chroma": 0.9312320916905444,
    "TN": 107,
    "TO": 374,
    "TP": 224,
    "TPC": 192,
    "TPCch": 218,
    "TPI": 32,
    "TPIch": 6,
    "Voiced Chroma Accuracy": 0.9008264462809917,
    "Voiced Pitch Accuracy": 0.7933884297520661,
    "Voicing Accuracy": 0.8850267379679144,
    "Voicing Detection": 0.9256198347107438,
    "Voicing False Alarm": 0.1893939393939394
}