{
    "DU": 70,
    "DV": 226,
    "F-measure": 0.15139442231075698,
    "F-measure Chroma": 0.20318725099601595,
    "FN": 36,
    "FNC": 0,
    "FNCch": 1,
    "FNI": 36,
    "FNIch": 35,
    "FP": 54,
    "GU": 88,
    "GV": 208,
    "Overall Accuracy": 0.12837837837837837,
    "Overall Chroma Accuracy": 0.17229729729729729,
    "Precision": 0.14615384615384616,
    "Precision Chroma": 0.19615384615384615,
    "Raw Chroma Accuracy": 0.08653846153846154,
    "Raw Pitch Accuracy": 0.019230769230769232,
    "Recall": 0.15702479338842976,
    "Recall Chroma": 0.21074380165289255,
    "TN": 34,
    "TO": 296,
    "TP": 172,
    "TPC": 4,
    "TPCch": 17,
    "TPI": 168,
    "TPIch": 155,
    "Voiced Chroma Accuracy": 0.08173076923076923,
    "Voiced Pitch Accuracy": 0.019230769230769232,
    "Voicing Accuracy": 0.6959459459459459,
    "Voicing Detection": 0.8269230769230769,
    "Voicing False Alarm": 0.6136363636363636
}