{
    "f0": [
        0.0,
        0.0,
        0.0,
        42.94995083311094,
        42.299091121713232,
        41.911088006897955,
        41.528840746849845,
        41.192015447940413,
        42.055201483984604,
        41.871569386341726,
        41.985011154680123,
        41.772574724146367,
        41.76753625310171,
        41.417207608882364,
        41.208905021149583,
        41.376085157977371,
        41.475531131047838,
        41.336169216928837,
        41.350960436270121,
        41.470786770225942,
        41.795582829548444,
        41.660502025704496,
        41.58015091990012,
        41.495826572002812,
        41.416537065740187,
        41.358489795295313,
        41.380626255383305,
        41.574322805339776,
        41.311215107273121,
        42.812679370801945,
        40.858312455405063,
        40.622351840734368,
        40.372937245865984,
        40.174695922096973,
        39.954443086921685,
        40.027229947811065,
        39.746681309050096,
        39.11107022955261,
        39.148619870720658,
        39.405819971035363,
        39.59437413508202,
        39.687353177625845,
        39.676663473267695,
        39.658947392611424,
        39.75416615496718,
        39.928502225109426,
        40.340729477668276,
        40.462245244445732,
        40.296727837549668,
        39.918338687824217,
        39.539950178274509,
        0.0,
        0.0,
        0.0,
        0.0,
        0.0,
        0.0,
        40.62281553342973,
        40.322098017846272,
        40.544720262729676,
        39.782825358099487,
        40.195472570653017,
        40.298695593548516,
        39.893554875912052,
        40.371184978666719,
        39.941361577097908,
        40.013045432385759,
        40.160276044928743,
        39.757297201549036,
        40.285028402130067,
        39.596595818748959,
        40.066932463019896,
        40.376122825357569,
        41.612228138600123,
        44.614293562343441,
        42.962042893880884,
        40.638735477412027,
        40.437836036440707,
        40.943489499275145,
        39.486949336406006,
        38.832732961044172,
        39.232036341821313,
        39.631344780816505,
        38.90838730936661,
        38.65740068269772,
        38.802373410490802,
        38.844071487151481,
        38.939712205599832,
        39.326868177064881,
        39.193107338688101,
        38.645133388914672,
        38.85861451773021,
        38.874267490425076,
        39.068392297723172,
        39.140987967101438,
        39.288113762510321,
        38.873983428922315,
        38.842654268597258,
        38.867554141985977,
        39.775268402451793,
        38.610766376498269,
        37.658792981562769,
        41.10689623186164,
        39.554574917200895,
        39.463885800297433,
        39.454390391711485,
        39.263878759343186,
        39.11794427403099,
        39.133951018702007,
        39.054766012965878,
        39.173626818678002,
        39.232885782556082,
        39.459454549684693,
        39.379998290455688,
        39.369318154039476,
        39.333374130754834,
        38.712468806478917,
        39.0893870309541,
        38.932572393395503,
        39.044481146823529,
        39.871420942140261,
        39.036910017857188,
        39.025335975990885,
        38.980227774657749,
        43.216255804976562,
        0.0,
        0.0,
        0.0,
        0.0,
        0.0,
        0.0,
        0.0,
        32.515153736454103,
        34.589789621455402,
        37.211134590802686,
        35.905091220669817,
        37.321298500010499,
        37.13649123562989,
        36.407120731293787,
        37.425101959548741,
        35.74934666362158,
        36.097989914325034,
        36.518831945906939,
        38.404549807005559,
        37.168623407530959,
        37.563637979322081,
        37.395564877657215,
        38.020786752089833,
        38.329962757519247,
        38.332469120306399,
        38.841007364312247,
        39.042875312050953,
        38.944186267801264,
        38.756643397349805,
        38.879352008227556,
        39.07360630058389,
        39.387017358541073,
        39.198983858223329,
        39.151042473675773,
        38.904004477339505,
        38.936453635312262,
        39.058765475475504,
        39.064222536832993,
        38.903362568400297,
        39.02041643153877,
        39.096261499011121,
        39.016921976817414,
        38.973391999426482,
        38.852474040759773,
        38.823814682564752,
        38.834588063667951,
        38.848046267229051,
        38.859989143941661,
        39.056597476821253,
        39.245507407594744,
        39.389192687583439,
        39.390153924003698,
        39.572141818739325,
        39.638881363199133,
        39.479047321868642,
        39.425279566239716,
        39.210128646352146,
        39.117853195141699,
        39.310209892570136,
        39.442226546695537,
        39.707725080974342,
        39.929416260623611,
        40.201457338373395,
        40.316921137551446,
        40.488089475318411,
        40.717045486191417,
        40.610664629901507,
        40.482248148576183,
        40.531427930854633,
        40.711047026124326,
        40.786109177510973,
        40.790862867013772,
        40.777828555075317,
        40.876968924872529,
        40.913321297922437,
        41.159419321070189,
        41.144871507313546,
        41.372986587271164,
        41.535606830969947,
        41.323794746148472,
        41.365276758045482,
        41.284080756592289,
        41.244460410389834,
        41.106105363995177,
        40.994916448488311,
        40.85386261747928,
        40.667550449352916,
        40.814781115229067,
        40.877460995339312,
        40.876665567644267,
        41.072125037904414,
        40.808824048254337,
        40.708984027120771,
        40.670193595493977,
        40.629401141771872,
        40.542249075608929,
        40.508988525492484,
        40.488493055667647,
        40.507533353458996,
        40.471309895601053,
        40.390995494923573,
        40.200798442365716,
        40.11683486595215,
        40.079817209933282,
        39.990727107663574,
        40.009617640899982,
        40.10720349762866,
        40.067679551523682,
        39.945679203591112,
        0.0,
        0.0,
        0.0,
        0.0,
        0.0,
        0.0,
        0.0,
        0.0,
        0.0,
        0.0,
        0.0,
        0.0,
        0.0,
        0.0,
        0.0,
        0.0,
        0.0,
        0.0,
        0.0,
        0.0,
        0.0,
        0.0,
        0.0,
        0.0,
        0.0,
        0.0,
        0.0,
        0.0,
        0.0,
        0.0,
        0.0,
        0.0,
        0.0,
        0.0,
        0.0,
        0.0,
        0.0,
        0.0,
        0.0,
        0.0,
        0.0,
        0.0,
        0.0,
        41.431801359852855,
        41.381475869185245,
        41.366732841140305,
        41.286281538529494,
        41.198770941467366,
        41.116424600793785,
        41.024178596755789,
        41.073560769478512,
        41.008809114978504,
        41.038687668949308,
        41.029448777654608,
        40.829972307039824,
        40.755082204540052,
        40.781078464223384,
        40.816715312902922,
        40.728407529840183,
        40.74233730844081,
        40.773477517705544,
        40.7578439342888,
        40.680089934092074,
        40.661090557066665,
        40.726074435075446,
        40.758624732330432,
        40.700052283363014,
        40.753807071055498,
        40.739699115799596,
        40.720910977479434,
        40.712476120274573,
        40.78485780997552,
        40.856149563139518,
        40.816297868361339,
        40.756481525281039,
        40.91692285201843,
        40.980528252996251,
        40.990214102557118,
        40.999588962739985,
        41.01143990980561,
        41.18871173718582,
        40.682010154366097,
        41.17172312336902,
        41.318458851296718,
        41.36474943161457,
        41.47201017526838,
        41.72007542063109,
        41.995653958272996,
        42.041756506784687,
        42.094660082983218,
        44.805947321051313,
        42.38180692564238,
        41.529063844610981,
        41.193535590300471,
        41.378394365713042,
        41.619373259908208,
        42.022730334003469,
        42.036312611812988,
        42.015784014116797,
        41.657386941416398,
        40.794742613938965,
        41.421847272600814,
        42.008396787743905,
        41.772208718613165,
        40.539631325462679,
        41.127704768884428,
        42.307808698958993,
        42.620318389184632,
        0.0,
        0.0,
        0.0,
        0.0,
        0.0,
        0.0,
        0.0,
        0.0,
        0.0,
        0.0,
        0.0,
        0.0,
        0.0,
        0.0,
        0.0,
        0.0,
        0.0,
        0.0,
        0.0,
        0.0,
        0.0,
        0.0,
        0.0,
        0.0,
        0.0,
        0.0,
        0.0,
        66.714654102154711,
        64.482056400352135,
        61.663401638799762,
        0.0,
        0.0,
        0.0,
        0.0,
        0.0,
        0.0,
        0.0,
        0.0,
        0.0,
        0.0,
        0.0,
        0.0,
        0.0,
        0.0,
        0.0,
        0.0,
        0.0,
        0.0,
        0.0,
        0.0,
        0.0,
        0.0,
        0.0,
        0.0,
        0.0,
        0.0,
        0.0,
        0.0,
        0.0,
        0.0,
        0.0,
        0.0,
        44.384179731693436,
        42.713281182863177,
        0.0,
        0.0,
        0.0,
        0.0,
        0.0,
        0.0,
        0.0,
        0.0,
        0.0,
        0.0,
        34.053325885707544,
        35.595162221481189,
        33.661752837850472,
        32.11490754593067,
        37.228699399929063,
        37.073020931066559,
        37.168513803934268,
        36.527733169314097,
        36.323911330288162,
        36.592818526600006,
        36.501096498813084,
        36.617800296438688,
        36.005391844220739,
        36.440632412006522,
        36.606884727575746,
        36.769994928549849,
        37.053463877625177,
        36.998722121062706,
        38.024042384528094,
        40.931502345006123,
        0.0,
        0.0,
        45.275898275144073,
        45.558634560473578,
        45.671210942173737,
        45.523594958853806,
        45.497119188298463,
        45.450557524721049,
        45.348674454826877,
        45.409386484304932,
        45.422003525817829,
        45.406576494557946,
        45.398974631724151,
        45.429832023460264,
        45.463606437827551,
        45.420284406367692,
        45.647221689692863,
        45.585895321491023,
        45.32455303997569,
        45.643094078271083,
        45.688170912651913,
        45.755513976537593,
        45.717597133232275,
        45.775661736257945,
        45.81426396160397,
        45.800384179040293,
        45.921700614349312,
        46.004580222669986,
        45.925567645728179,
        45.940608727125024,
        45.907923908766605,
        45.828008847063714,
        45.862993681550662,
        45.836218901070453,
        45.9902956178503,
        45.897812176110079,
        45.735485285107771,
        45.74457319486487,
        45.652824884009803,
        0.0,
        0.0,
        0.0,
        0.0,
        0.0,
        0.0,
        0.0,
        0.0,
        0.0,
        0.0,
        0.0,
        0.0,
        0.0,
        0.0,
        0.0,
        0.0,
        0.0,
        0.0,
        0.0,
        0.0,
        0.0,
        0.0,
        0.0,
        0.0,
        0.0,
        0.0,
        0.0,
        0.0,
        0.0,
        0.0,
        0.0,
        0.0,
        0.0,
        0.0,
        0.0,
        0.0,
        0.0,
        0.0,
        0.0,
        0.0,
        0.0,
        0.0,
        0.0,
        0.0,
        0.0,
        0.0,
        0.0,
        0.0,
        0.0,
        0.0,
        0.0,
        0.0,
        0.0,
        0.0,
        0.0,
        0.0,
        0.0,
        0.0,
        0.0,
        0.0,
        0.0,
        0.0,
        0.0,
        0.0,
        0.0,
        0.0,
        0.0
    ],
    "time": [
        0.02,
        0.040000000000000001,
        0.059999999999999998,
        0.080000000000000002,
        0.10000000000000001,
        0.12,
        0.14000000000000001,
        0.16,
        0.17999999999999999,
        0.20000000000000001,
        0.22,
        0.23999999999999999,
        0.26000000000000001,
        0.28000000000000003,
        0.29999999999999999,
        0.32000000000000001,
        0.34000000000000002,
        0.35999999999999999,
        0.38,
        0.40000000000000002,
        0.41999999999999998,
        0.44,
        0.46000000000000002,
        0.47999999999999998,
        0.5,
        0.52000000000000002,
        0.54000000000000004,
        0.56000000000000005,
        0.57999999999999996,
        0.59999999999999998,
        0.62,
        0.64000000000000001,
        0.66000000000000003,
        0.68000000000000005,
        0.69999999999999996,
        0.71999999999999997,
        0.73999999999999999,
        0.76000000000000001,
        0.78000000000000003,
        0.80000000000000004,
        0.81999999999999995,
        0.83999999999999997,
        0.85999999999999999,
        0.88,
        0.90000000000000002,
        0.92000000000000004,
        0.93999999999999995,
        0.95999999999999996,
        0.97999999999999998,
        1.0,
        1.02,
        1.04,
        1.0600000000000001,
        1.0800000000000001,
        1.1000000000000001,
        1.1200000000000001,
        1.1399999999999999,
        1.1599999999999999,
        1.1799999999999999,
        1.2,
        1.22,
        1.24,
        1.26,
        1.28,
        1.3,
        1.3200000000000001,
        1.3400000000000001,
        1.3600000000000001,
        1.3799999999999999,
        1.3999999999999999,
        1.4199999999999999,
        1.4399999999999999,
        1.46,
        1.48,
        1.5,
        1.52,
        1.54,
        1.5600000000000001,
        1.5800000000000001,
        1.6000000000000001,
        1.6200000000000001,
        1.6399999999999999,
        1.6599999999999999,
        1.6799999999999999,
        1.7,
        1.72,
        1.74,
        1.76,
        1.78,
        1.8,
        1.8200000000000001,
        1.8400000000000001,
        1.8600000000000001,
        1.8799999999999999,
        1.8999999999999999,
        1.9199999999999999,
        1.9399999999999999,
        1.96,
        1.98,
        2.0,
        2.02,
        2.04,
        2.0600000000000001,
        2.0800000000000001,
        2.1000000000000001,
        2.1200000000000001,
        2.1400000000000001,
        2.1600000000000001,
        2.1800000000000002,
        2.2000000000000002,
        2.2200000000000002,
        2.2400000000000002,
        2.2599999999999998,
        2.2799999999999998,
        2.2999999999999998,
        2.3199999999999998,
        2.3399999999999999,
        2.3599999999999999,
        2.3799999999999999,
        2.3999999999999999,
        2.4199999999999999,
        2.4399999999999999,
        2.46,
        2.48,
        2.5,
        2.52,
        2.54,
        2.5600000000000001,
        2.5800000000000001,
        2.6000000000000001,
        2.6200000000000001,
        2.6400000000000001,
        2.6600000000000001,
        2.6800000000000002,
        2.7000000000000002,
        2.7200000000000002,
        2.7400000000000002,
        2.7599999999999998,
        2.7799999999999998,
        2.7999999999999998,
        2.8199999999999998,
        2.8399999999999999,
        2.8599999999999999,
        2.8799999999999999,
        2.8999999999999999,
        2.9199999999999999,
        2.9399999999999999,
        2.96,
        2.98,
        3.0,
        3.02,
        3.04,
        3.0600000000000001,
        3.0800000000000001,
        3.1000000000000001,
        3.1200000000000001,
        3.1400000000000001,
        3.1600000000000001,
        3.1800000000000002,
        3.2000000000000002,
        3.2200000000000002,
        3.2400000000000002,
        3.2599999999999998,
        3.2799999999999998,
        3.2999999999999998,
        3.3199999999999998,
        3.3399999999999999,
        3.3599999999999999,
        3.3799999999999999,
        3.3999999999999999,
        3.4199999999999999,
        3.4399999999999999,
        3.46,
        3.48,
        3.5,
        3.52,
        3.54,
        3.5600000000000001,
        3.5800000000000001,
        3.6000000000000001,
        3.6200000000000001,
        3.6400000000000001,
        3.6600000000000001,
        3.6800000000000002,
        3.7000000000000002,
        3.7200000000000002,
        3.7400000000000002,
        3.7599999999999998,
        3.7799999999999998,
        3.7999999999999998,
        3.8199999999999998,
        3.8399999999999999,
        3.8599999999999999,
        3.8799999999999999,
        3.8999999999999999,
        3.9199999999999999,
        3.9399999999999999,
        3.96,
        3.98,
        4.0,
        4.0199999999999996,
        4.04,
        4.0599999999999996,
        4.0800000000000001,
        4.0999999999999996,
        4.1200000000000001,
        4.1399999999999997,
        4.1600000000000001,
        4.1799999999999997,
        4.2000000000000002,
        4.2199999999999998,
        4.2400000000000002,
        4.2599999999999998,
        4.2800000000000002,
        4.2999999999999998,
        4.3200000000000003,
        4.3399999999999999,
        4.3600000000000003,
        4.3799999999999999,
        4.4000000000000004,
        4.4199999999999999,
        4.4400000000000004,
        4.46,
        4.4800000000000004,
        4.5,
        4.5199999999999996,
        4.54,
        4.5599999999999996,
        4.5800000000000001,
        4.5999999999999996,
        4.6200000000000001,
        4.6399999999999997,
        4.6600000000000001,
        4.6799999999999997,
        4.7000000000000002,
        4.7199999999999998,
        4.7400000000000002,
        4.7599999999999998,
        4.7800000000000002,
        4.7999999999999998,
        4.8200000000000003,
        4.8399999999999999,
        4.8600000000000003,
        4.8799999999999999,
        4.9000000000000004,
        4.9199999999999999,
        4.9400000000000004,
        4.96,
        4.9800000000000004,
        5.0,
        5.0199999999999996,
        5.04,
        5.0599999999999996,
        5.0800000000000001,
        5.0999999999999996,
        5.1200000000000001,
        5.1399999999999997,
        5.1600000000000001,
        5.1799999999999997,
        5.2000000000000002,
        5.2199999999999998,
        5.2400000000000002,
        5.2599999999999998,
        5.2800000000000002,
        5.2999999999999998,
        5.3200000000000003,
        5.3399999999999999,
        5.3600000000000003,
        5.3799999999999999,
        5.4000000000000004,
        5.4199999999999999,
        5.4400000000000004,
        5.46,
        5.4800000000000004,
        5.5,
        5.5199999999999996,
        5.54,
        5.5599999999999996,
        5.5800000000000001,
        5.5999999999999996,
        5.6200000000000001,
        5.6399999999999997,
        5.6600000000000001,
        5.6799999999999997,
        5.7000000000000002,
        5.7199999999999998,
        5.7400000000000002,
        5.7599999999999998,
        5.7800000000000002,
        5.7999999999999998,
        5.8200000000000003,
        5.8399999999999999,
        5.8600000000000003,
        5.8799999999999999,
        5.9000000000000004,
        5.9199999999999999,
        5.9400000000000004,
        5.96,
        5.9800000000000004,
        6.0,
        6.0199999999999996,
        6.04,
        6.0599999999999996,
        6.0800000000000001,
        6.0999999999999996,
        6.1200000000000001,
        6.1399999999999997,
        6.1600000000000001,
        6.1799999999999997,
        6.2000000000000002,
        6.2199999999999998,
        6.2400000000000002,
        6.2599999999999998,
        6.2800000000000002,
        6.2999999999999998,
        6.3200000000000003,
        6.3399999999999999,
        6.3600000000000003,
        6.3799999999999999,
        6.4000000000000004,
        6.4199999999999999,
        6.4400000000000004,
        6.46,
        6.4800000000000004,
        6.5,
        6.5199999999999996,
        6.54,
        6.5599999999999996,
        6.5800000000000001,
        6.5999999999999996,
        6.6200000000000001,
        6.6399999999999997,
        6.6600000000000001,
        6.6799999999999997,
        6.7000000000000002,
        6.7199999999999998,
        6.7400000000000002,
        6.7599999999999998,
        6.7800000000000002,
        6.7999999999999998,
        6.8200000000000003,
        6.8399999999999999,
        6.8600000000000003,
        6.8799999999999999,
        6.9000000000000004,
        6.9199999999999999,
        6.9400000000000004,
        6.96,
        6.9800000000000004,
        7.0,
        7.0199999999999996,
        7.04,
        7.0599999999999996,
        7.0800000000000001,
        7.0999999999999996,
        7.1200000000000001,
        7.1399999999999997,
        7.1600000000000001,
        7.1799999999999997,
        7.2000000000000002,
        7.2199999999999998,
        7.2400000000000002,
        7.2599999999999998,
        7.2800000000000002,
        7.2999999999999998,
        7.3200000000000003,
        7.3399999999999999,
        7.3600000000000003,
        7.3799999999999999,
        7.4000000000000004,
        7.4199999999999999,
        7.4400000000000004,
        7.46,
        7.4800000000000004,
        7.5,
        7.5199999999999996,
        7.54,
        7.5599999999999996,
        7.5800000000000001,
        7.5999999999999996,
        7.6200000000000001,
        7.6399999999999997,
        7.6600000000000001,
        7.6799999999999997,
        7.7000000000000002,
        7.7199999999999998,
        7.7400000000000002,
        7.7599999999999998,
        7.7800000000000002,
        7.7999999999999998,
        7.8200000000000003,
        7.8399999999999999,
        7.8600000000000003,
        7.8799999999999999,
        7.9000000000000004,
        7.9199999999999999,
        7.9400000000000004,
        7.96,
        7.9800000000000004,
        8.0,
        8.0199999999999996,
        8.0399999999999991,
        8.0600000000000005,
        8.0800000000000001,
        8.0999999999999996,
        8.1199999999999992,
        8.1400000000000006,
        8.1600000000000001,
        8.1799999999999997,
        8.1999999999999993,
        8.2200000000000006,
        8.2400000000000002,
        8.2599999999999998,
        8.2799999999999994,
        8.3000000000000007,
        8.3200000000000003,
        8.3399999999999999,
        8.3599999999999994,
        8.3800000000000008,
        8.4000000000000004,
        8.4199999999999999,
        8.4399999999999995,
        8.4600000000000009,
        8.4800000000000004,
        8.5,
        8.5199999999999996,
        8.5399999999999991,
        8.5600000000000005,
        8.5800000000000001,
        8.5999999999999996,
        8.6199999999999992,
        8.6400000000000006,
        8.6600000000000001,
        8.6799999999999997,
        8.6999999999999993,
        8.7200000000000006,
        8.7400000000000002,
        8.7599999999999998,
        8.7799999999999994,
        8.8000000000000007,
        8.8200000000000003,
        8.8399999999999999,
        8.8599999999999994,
        8.8800000000000008,
        8.9000000000000004,
        8.9199999999999999,
        8.9399999999999995,
        8.9600000000000009,
        8.9800000000000004,
        9.0,
        9.0199999999999996,
        9.0399999999999991,
        9.0600000000000005,
        9.0800000000000001,
        9.0999999999999996,
        9.1199999999999992,
        9.1400000000000006,
        9.1600000000000001,
        9.1799999999999997,
        9.1999999999999993,
        9.2200000000000006,
        9.2400000000000002,
        9.2599999999999998,
        9.2799999999999994,
        9.3000000000000007,
        9.3200000000000003,
        9.3399999999999999,
        9.3599999999999994,
        9.3800000000000008,
        9.4000000000000004,
        9.4199999999999999,
        9.4399999999999995,
        9.4600000000000009,
        9.4800000000000004,
        9.5,
        9.5199999999999996,
        9.5399999999999991,
        9.5600000000000005,
        9.5800000000000001,
        9.5999999999999996,
        9.6199999999999992,
        9.6400000000000006,
        9.6600000000000001,
        9.6799999999999997,
        9.6999999999999993,
        9.7200000000000006,
        9.7400000000000002,
        9.7599999999999998,
        9.7799999999999994,
        9.8000000000000007,
        9.8200000000000003,
        9.8399999999999999,
        9.8599999999999994,
        9.8800000000000008,
        9.9000000000000004,
        9.9199999999999999,
        9.9399999999999995,
        9.9600000000000009,
        9.9800000000000004,
        10.0,
        10.02,
        10.039999999999999,
        10.06,
        10.08,
        10.1,
        10.119999999999999,
        10.140000000000001,
        10.16,
        10.18,
        10.199999999999999,
        10.220000000000001,
        10.24,
        10.26,
        10.279999999999999,
        10.300000000000001,
        10.32,
        10.34,
        10.359999999999999,
        10.380000000000001,
        10.4,
        10.42,
        10.44,
        10.460000000000001,
        10.48,
        10.5,
        10.52,
        10.539999999999999,
        10.56,
        10.58,
        10.6,
        10.619999999999999,
        10.640000000000001,
        10.66,
        10.68,
        10.699999999999999,
        10.720000000000001,
        10.74,
        10.76,
        10.779999999999999,
        10.800000000000001,
        10.82,
        10.84
    ]
}