{
    "f0": [
        0.0,
        36.790243356737349,
        41.948922611115314,
        53.33547773202524,
        41.447879244690782,
        41.739170182292384,
        41.90716342190278,
        41.499244240942417,
        41.727730226600833,
        41.599951425047038,
        41.337268573415201,
        41.322865223988686,
        41.101675205340442,
        41.174783132818014,
        41.31172030684818,
        41.310467797754221,
        41.309215003255169,
        41.361290346705104,
        41.242776186082146,
        41.212122808445301,
        41.254681118543047,
        41.350275468700964,
        41.327291100837726,
        41.225598654061436,
        41.532488226809669,
        43.168971828407336,
        43.357806908658965,
        48.05869866182212,
        48.753661660668676,
        48.894476199114848,
        48.903351094676133,
        48.912219559722558,
        48.839336273757894,
        49.001882203233436,
        49.16292000653678,
        49.834206330494169,
        49.52910370695092,
        49.684997641007008,
        50.36239666225525,
        50.590471255447916,
        50.49872774764502,
        50.485581197116645,
        50.472422934872384,
        50.802084789860615,
        50.698429589818176,
        50.594151851558706,
        51.957676066237113,
        52.027545204423902,
        51.640059636526004,
        51.852474274379489,
        52.014192216915369,
        51.843594055815956,
        51.897602211370064,
        51.750937249421469,
        50.934836184565569,
        50.944336209479687,
        50.837721847873802,
        50.550926532045608,
        51.029822185466266,
        50.655661702169489,
        51.080447934068971,
        50.764826763945727,
        50.999887948146693,
        50.954015027067882,
        51.229073843677732,
        50.728495885873485,
        51.290401579226028,
        51.834641302003192,
        51.83497302303941,
        51.751212075607334,
        51.451660863695793,
        51.256767691996401,
        51.00414799902461,
        51.118802757444826,
        51.468900931772708,
        51.696680866683273,
        51.451227386714947,
        50.85248425462629,
        51.201231562195289,
        52.524780177708024,
        52.242009943579376,
        52.534859571593486,
        52.094728065586843,
        52.444189227070851,
        53.212178045888734,
        53.043656253874509,
        52.873479396535465,
        52.873877088282256,
        52.575115416433093,
        52.580874405539504,
        52.586631378000142,
        52.592386436697893,
        52.070818121975059,
        52.209897938696891,
        51.756884306554348,
        51.98807128503563,
        51.279430353795043,
        51.463932063792043,
        51.568208180125353,
        51.536815930702254,
        49.72753312194547,
        49.572860737715814,
        49.012210840340671,
        49.322149949246089,
        50.431543935624681,
        50.925837361500413,
        50.259883227467512,
        51.818694759984169,
        51.095525190092403,
        50.97413363248458,
        50.186124955373316,
        50.055689292910344,
        50.095437263931792,
        50.135097811943623,
        50.085717425185109,
        50.105382397163631,
        50.108409500205347,
        50.292009763126487,
        50.384572713619811,
        50.171262131026445,
        49.92195391997334,
        50.364928234792508,
        50.517730282695865,
        50.28078179756222,
        50.549654272711805,
        50.632075193397526,
        50.277765194431431,
        50.292338779030274,
        49.502611840562906,
        51.496803131142521,
        51.566408724409129,
        51.456343739729803,
        51.151806541619386,
        51.619727414840725,
        51.257435225613143,
        51.276176731001627,
        51.886110714947577,
        51.304082440034392,
        50.945153999574607,
        50.627035439218062,
        52.285189177556518,
        52.522764776784086,
        52.510067126235406,
        52.710774722725724,
        52.708210162655789,
        52.649776907045023,
        53.021066201344865,
        52.816654189871265,
        52.828516330896811,
        52.882960289103586,
        52.742025544815363,
        52.63635948560583,
        52.643106539582512,
        52.843089594403537,
        52.945535385911654,
        52.920794175255878,
        52.555202496532431,
        52.86842216204456,
        53.13369254383197,
        52.709119437242464,
        53.057446437734242,
        52.802736569719499,
        52.716485643940786,
        52.715718262789842,
        52.714950847622703,
        52.540187549037043,
        53.130751411870556,
        52.830731636976722,
        52.835086627916048,
        52.839440523614876,
        53.016053487358072,
        54.507599454625108,
        42.413571567896895,
        42.570920106722383,
        42.726851406236548,
        42.215900581683727,
        42.602388229541894,
        43.109741720432275,
        42.309434540415509,
        42.870863531354097,
        43.159801174836083,
        43.051802632692599,
        43.055603645978877,
        42.9355261958599,
        42.861859788535014,
        43.494658109456573,
        43.496918676118774,
        43.280748168553238,
        43.410092136735074,
        43.397543780338566,
        43.36636117456694,
        43.170685482840398,
        43.144090918242981,
        47.090524665869395,
        48.036969204050358,
        47.87234666799791,
        47.863967102072593,
        47.776810449529584,
        47.935177644183852,
        48.008450159402898,
        48.46594474454993,
        49.091617676144544,
        48.720795725495357,
        49.269044364132327,
        49.731849542324369,
        49.866308783842612,
        49.807635501617753,
        50.116973054536615,
        49.775535166612343,
        49.888254374107973,
        50.095843438381209,
        49.904042250128406,
        49.250365113790394,
        49.67290869361301,
        52.693604509626006,
        53.838636414850448,
        52.063753209552232,
        51.509428276671343,
        51.224451347251609,
        51.633699054636587,
        51.474489583087021,
        51.16010497570435,
        50.918357503049904,
        50.904728610685027,
        50.947875929603761,
        51.098351945425406,
        51.020360408433433,
        50.942015819832193,
        50.755808075605614,
        51.133730377771442,
        51.074067842175417,
        51.169487289346449,
        51.302448778969215,
        51.758351977848768,
        51.695681016898462,
        51.940432045271358,
        52.007773822680996,
        51.455010674047557,
        51.594356177228363,
        52.020864332636677,
        51.941947054291433,
        51.688258964549277,
        50.992682956700349,
        51.703378681009802,
        51.831461314595927,
        51.886334871958077,
        51.627337852239457,
        52.27838777537098,
        52.310467617499398,
        52.185504408348201,
        51.352907103687123,
        52.205100852554466,
        52.626864615547511,
        52.143873419729452,
        51.923917818959929,
        51.904279160590008,
        51.783226253787333,
        51.884711782745335,
        51.985605970603153,
        51.736163318379361,
        51.85588162945789,
        51.859150962408044,
        49.599352075604706,
        49.855339934104251,
        49.228360877512884,
        50.374441614644212,
        49.707382779816569,
        49.595564320973111,
        49.70430667992899,
        50.015511888646273,
        50.321221424701903,
        49.73362181091872,
        50.675191951451083,
        50.030235910113404,
        49.61148693096731,
        49.733073661551046,
        49.941083670302348,
        49.929562494109398,
        49.847813089679775,
        49.800986834964924,
        50.415350069483182,
        50.063217715571,
        50.26410251358201,
        50.592576730139335,
        50.144584888809874,
        50.315867832055616,
        50.348386254030174,
        50.449396957189265,
        50.12887744428312,
        50.117443016634176,
        50.460777094925582,
        50.258998848281443,
        50.277579315226184,
        49.408131792785163,
        50.10159815483766,
        50.794748901234513,
        50.560509046011916,
        51.339949116788887,
        50.945838792305977,
        50.777114518759326,
        50.606729792820552,
        50.777487876375581,
        50.946574573805577,
        50.586708155615405,
        52.533962792490499,
        52.556666178780297,
        52.579339830860796,
        52.657671511802846,
        52.608905330513124,
        52.768260757453803,
        52.825503059638471,
        52.758802684206131,
        52.762419637183712,
        52.606289932210949,
        52.690926480451026,
        52.775149763195842,
        52.765560485499336,
        52.918350194412731,
        52.781098445401497,
        52.770368849403923,
        52.695903439024818,
        52.65314511459863,
        52.76649750376842,
        52.361623547983527,
        52.571438991638097,
        52.567722852877502,
        52.744959805232675,
        52.812211971791413,
        52.609016680024368,
        52.682487803094418,
        52.78180319391204,
        53.0398183444239,
        52.865999751990735,
        52.893189594859621,
        52.755181858097657,
        52.655946211501018,
        52.708357880172827,
        52.706723842547476,
        52.864258516568121,
        52.770396478665113,
        52.605568772215662,
        52.788458585016812,
        52.728362913510026,
        52.767744069470666,
        52.934425867179471,
        53.099519734910054,
        52.735734730588675,
        52.377829166732312,
        52.472939728756245,
        52.567532150681387,
        0.0,
        0.0,
        0.0,
        0.0,
        0.0,
        0.0,
        0.0,
        0.0,
        0.0,
        0.0,
        0.0,
        0.0,
        0.0,
        0.0,
        0.0,
        0.0,
        0.0,
        0.0,
        0.0,
        0.0,
        0.0,
        0.0,
        0.0,
        0.0,
        0.0,
        0.0,
        0.0,
        0.0,
        0.0,
        0.0,
        0.0,
        0.0,
        0.0,
        0.0,
        0.0,
        0.0,
        0.0,
        0.0,
        0.0,
        0.0,
        0.0,
        0.0,
        0.0,
        0.0,
        0.0,
        0.0
    ],
    "time": [
        0.02,
        0.040000000000000001,
        0.059999999999999998,
        0.080000000000000002,
        0.10000000000000001,
        0.12,
        0.14000000000000001,
        0.16,
        0.17999999999999999,
        0.20000000000000001,
        0.22,
        0.23999999999999999,
        0.26000000000000001,
        0.28000000000000003,
        0.29999999999999999,
        0.32000000000000001,
        0.34000000000000002,
        0.35999999999999999,
        0.38,
        0.40000000000000002,
        0.41999999999999998,
        0.44,
        0.46000000000000002,
        0.47999999999999998,
        0.5,
        0.52000000000000002,
        0.54000000000000004,
        0.56000000000000005,
        0.57999999999999996,
        0.59999999999999998,
        0.62,
        0.64000000000000001,
        0.66000000000000003,
        0.68000000000000005,
        0.69999999999999996,
        0.71999999999999997,
        0.73999999999999999,
        0.76000000000000001,
        0.78000000000000003,
        0.80000000000000004,
        0.81999999999999995,
        0.83999999999999997,
        0.85999999999999999,
        0.88,
        0.90000000000000002,
        0.92000000000000004,
        0.93999999999999995,
        0.95999999999999996,
        0.97999999999999998,
        1.0,
        1.02,
        1.04,
        1.0600000000000001,
        1.0800000000000001,
        1.1000000000000001,
        1.1200000000000001,
        1.1399999999999999,
        1.1599999999999999,
        1.1799999999999999,
        1.2,
        1.22,
        1.24,
        1.26,
        1.28,
        1.3,
        1.3200000000000001,
        1.3400000000000001,
        1.3600000000000001,
        1.3799999999999999,
        1.3999999999999999,
        1.4199999999999999,
        1.4399999999999999,
        1.46,
        1.48,
        1.5,
        1.52,
        1.54,
        1.5600000000000001,
        1.5800000000000001,
        1.6000000000000001,
        1.6200000000000001,
        1.6399999999999999,
        1.6599999999999999,
        1.6799999999999999,
        1.7,
        1.72,
        1.74,
        1.76,
        1.78,
        1.8,
        1.8200000000000001,
        1.8400000000000001,
        1.8600000000000001,
        1.8799999999999999,
        1.8999999999999999,
        1.9199999999999999,
        1.9399999999999999,
        1.96,
        1.98,
        2.0,
        2.02,
        2.04,
        2.0600000000000001,
        2.0800000000000001,
        2.1000000000000001,
        2.1200000000000001,
        2.1400000000000001,
        2.1600000000000001,
        2.1800000000000002,
        2.2000000000000002,
        2.2200000000000002,
        2.2400000000000002,
        2.2599999999999998,
        2.2799999999999998,
        2.2999999999999998,
        2.3199999999999998,
        2.3399999999999999,
        2.3599999999999999,
        2.3799999999999999,
        2.3999999999999999,
        2.4199999999999999,
        2.4399999999999999,
        2.46,
        2.48,
        2.5,
        2.52,
        2.54,
        2.5600000000000001,
        2.5800000000000001,
        2.6000000000000001,
        2.6200000000000001,
        2.6400000000000001,
        2.6600000000000001,
        2.6800000000000002,
        2.7000000000000002,
        2.7200000000000002,
        2.7400000000000002,
        2.7599999999999998,
        2.7799999999999998,
        2.7999999999999998,
        2.8199999999999998,
        2.8399999999999999,
        2.8599999999999999,
        2.8799999999999999,
        2.8999999999999999,
        2.9199999999999999,
        2.9399999999999999,
        2.96,
        2.98,
        3.0,
        3.02,
        3.04,
        3.0600000000000001,
        3.0800000000000001,
        3.1000000000000001,
        3.1200000000000001,
        3.1400000000000001,
        3.1600000000000001,
        3.1800000000000002,
        3.2000000000000002,
        3.2200000000000002,
        3.2400000000000002,
        3.2599999999999998,
        3.2799999999999998,
        3.2999999999999998,
        3.3199999999999998,
        3.3399999999999999,
        3.3599999999999999,
        3.3799999999999999,
        3.3999999999999999,
        3.4199999999999999,
        3.4399999999999999,
        3.46,
        3.48,
        3.5,
        3.52,
        3.54,
        3.5600000000000001,
        3.5800000000000001,
        3.6000000000000001,
        3.6200000000000001,
        3.6400000000000001,
        3.6600000000000001,
        3.6800000000000002,
        3.7000000000000002,
        3.7200000000000002,
        3.7400000000000002,
        3.7599999999999998,
        3.7799999999999998,
        3.7999999999999998,
        3.8199999999999998,
        3.8399999999999999,
        3.8599999999999999,
        3.8799999999999999,
        3.8999999999999999,
        3.9199999999999999,
        3.9399999999999999,
        3.96,
        3.98,
        4.0,
        4.0199999999999996,
        4.04,
        4.0599999999999996,
        4.0800000000000001,
        4.0999999999999996,
        4.1200000000000001,
        4.1399999999999997,
        4.1600000000000001,
        4.1799999999999997,
        4.2000000000000002,
        4.2199999999999998,
        4.2400000000000002,
        4.2599999999999998,
        4.2800000000000002,
        4.2999999999999998,
        4.3200000000000003,
        4.3399999999999999,
        4.3600000000000003,
        4.3799999999999999,
        4.4000000000000004,
        4.4199999999999999,
        4.4400000000000004,
        4.46,
        4.4800000000000004,
        4.5,
        4.5199999999999996,
        4.54,
        4.5599999999999996,
        4.5800000000000001,
        4.5999999999999996,
        4.6200000000000001,
        4.6399999999999997,
        4.6600000000000001,
        4.6799999999999997,
        4.7000000000000002,
        4.7199999999999998,
        4.7400000000000002,
        4.7599999999999998,
        4.7800000000000002,
        4.7999999999999998,
        4.8200000000000003,
        4.8399999999999999,
        4.8600000000000003,
        4.8799999999999999,
        4.9000000000000004,
        4.9199999999999999,
        4.9400000000000004,
        4.96,
        4.9800000000000004,
        5.0,
        5.0199999999999996,
        5.04,
        5.0599999999999996,
        5.0800000000000001,
        5.0999999999999996,
        5.1200000000000001,
        5.1399999999999997,
        5.1600000000000001,
        5.1799999999999997,
        5.2000000000000002,
        5.2199999999999998,
        5.2400000000000002,
        5.2599999999999998,
        5.2800000000000002,
        5.2999999999999998,
        5.3200000000000003,
        5.3399999999999999,
        5.3600000000000003,
        5.3799999999999999,
        5.4000000000000004,
        5.4199999999999999,
        5.4400000000000004,
        5.46,
        5.4800000000000004,
        5.5,
        5.5199999999999996,
        5.54,
        5.5599999999999996,
        5.5800000000000001,
        5.5999999999999996,
        5.6200000000000001,
        5.6399999999999997,
        5.6600000000000001,
        5.6799999999999997,
        5.7000000000000002,
        5.7199999999999998,
        5.7400000000000002,
        5.7599999999999998,
        5.7800000000000002,
        5.7999999999999998,
        5.8200000000000003,
        5.8399999999999999,
        5.8600000000000003,
        5.8799999999999999,
        5.9000000000000004,
        5.9199999999999999,
        5.9400000000000004,
        5.96,
        5.9800000000000004,
        6.0,
        6.0199999999999996,
        6.04,
        6.0599999999999996,
        6.0800000000000001,
        6.0999999999999996,
        6.1200000000000001,
        6.1399999999999997,
        6.1600000000000001,
        6.1799999999999997,
        6.2000000000000002,
        6.2199999999999998,
        6.2400000000000002,
        6.2599999999999998,
        6.2800000000000002,
        6.2999999999999998,
        6.3200000000000003,
        6.3399999999999999,
        6.3600000000000003,
        6.3799999999999999,
        6.4000000000000004,
        6.4199999999999999,
        6.4400000000000004,
        6.46,
        6.4800000000000004,
        6.5,
        6.5199999999999996,
        6.54,
        6.5599999999999996,
        6.5800000000000001,
        6.5999999999999996,
        6.6200000000000001,
        6.6399999999999997,
        6.6600000000000001,
        6.6799999999999997,
        6.7000000000000002,
        6.7199999999999998,
        6.7400000000000002,
        6.7599999999999998,
        6.7800000000000002,
        6.7999999999999998,
        6.8200000000000003,
        6.8399999999999999,
        6.8600000000000003,
        6.8799999999999999,
        6.9000000000000004,
        6.9199999999999999,
        6.9400000000000004,
        6.96,
        6.9800000000000004,
        7.0,
        7.0199999999999996,
        7.04,
        7.0599999999999996,
        7.0800000000000001,
        7.0999999999999996,
        7.1200000000000001,
        7.1399999999999997,
        7.1600000000000001,
        7.1799999999999997,
        7.2000000000000002,
        7.2199999999999998,
        7.2400000000000002,
        7.2599999999999998,
        7.2800000000000002,
        7.2999999999999998,
        7.3200000000000003,
        7.3399999999999999,
        7.3600000000000003,
        7.3799999999999999,
        7.4000000000000004,
        7.4199999999999999,
        7.4400000000000004,
        7.46,
        7.4800000000000004,
        7.5,
        7.5199999999999996,
        7.54,
        7.5599999999999996,
        7.5800000000000001,
        7.5999999999999996,
        7.6200000000000001,
        7.6399999999999997,
        7.6600000000000001,
        7.6799999999999997,
        7.7000000000000002,
        7.7199999999999998,
        7.7400000000000002,
        7.7599999999999998,
        7.7800000000000002,
        7.7999999999999998,
        7.8200000000000003,
        7.8399999999999999,
        7.8600000000000003,
        7.8799999999999999,
        7.9000000000000004,
        7.9199999999999999
    ]
}