{
    "DU": 168,
    "DV": 278,
    "F-measure": 0.4733009708737864,
    "F-measure Chroma": 0.9029126213592233,
    "FN": 60,
    "FNC": 1,
    "FNCch": 50,
    "FNI": 59,
    "FNIch": 10,
    "FP": 8,
    "GU": 116,
    "GV": 330,
    "Overall Accuracy": 0.437219730941704,
    "Overall Chroma Accuracy": 0.8340807174887892,
    "Precision": 0.5051813471502591,
    "Precision Chroma": 0.9637305699481865,
    "Raw Chroma Accuracy": 0.9515151515151515,
    "Raw Pitch Accuracy": 0.26666666666666666,
    "Recall": 0.4452054794520548,
    "Recall Chroma": 0.8493150684931506,
    "TN": 108,
    "TO": 446,
    "TP": 270,
    "TPC": 87,
    "TPCch": 264,
    "TPI": 183,
    "TPIch": 6,
    "Voiced Chroma Accuracy": 0.8,
    "Voiced Pitch Accuracy": 0.2636363636363636,
    "Voicing Accuracy": 0.8475336322869955,
    "Voicing Detection": 0.8181818181818182,
    "Voicing False Alarm": 0.06896551724137931
}