{
    "DU": 93,
    "DV": 488,
    "F-measure": 0.7996373526745241,
    "F-measure Chroma": 0.8939256572982774,
    "FN": 15,
    "FNC": 0,
    "FNCch": 0,
    "FNI": 15,
    "FNIch": 15,
    "FP": 44,
    "GU": 122,
    "GV": 459,
    "Overall Accuracy": 0.7590361445783133,
    "Overall Chroma Accuracy": 0.8485370051635112,
    "Precision": 0.7791519434628975,
    "Precision Chroma": 0.8710247349823321,
    "Raw Chroma Accuracy": 0.9041394335511983,
    "Raw Pitch Accuracy": 0.7908496732026143,
    "Recall": 0.8212290502793296,
    "Recall Chroma": 0.9180633147113594,
    "TN": 78,
    "TO": 581,
    "TP": 444,
    "TPC": 363,
    "TPCch": 415,
    "TPI": 81,
    "TPIch": 29,
    "Voiced Chroma Accuracy": 0.9041394335511983,
    "Voiced Pitch Accuracy": 0.7908496732026143,
    "Voicing Accuracy": 0.8984509466437177,
    "Voicing Detection": 0.9673202614379085,
    "Voicing False Alarm": 0.36065573770491804
}