{
    "DU": 27,
    "DV": 308,
    "F-measure": 0.10613598673300166,
    "F-measure Chroma": 0.14925373134328357,
    "FN": 8,
    "FNC": 0,
    "FNCch": 0,
    "FNI": 8,
    "FNIch": 8,
    "FP": 59,
    "GU": 78,
    "GV": 257,
    "Overall Accuracy": 0.0955223880597015,
    "Overall Chroma Accuracy": 0.13432835820895522,
    "Precision": 0.09785932721712538,
    "Precision Chroma": 0.13761467889908258,
    "Raw Chroma Accuracy": 0.10116731517509728,
    "Raw Pitch Accuracy": 0.05058365758754864,
    "Recall": 0.11594202898550725,
    "Recall Chroma": 0.16304347826086957,
    "TN": 19,
    "TO": 335,
    "TP": 249,
    "TPC": 13,
    "TPCch": 26,
    "TPI": 236,
    "TPIch": 223,
    "Voiced Chroma Accuracy": 0.10116731517509728,
    "Voiced Pitch Accuracy": 0.05058365758754864,
    "Voicing Accuracy": 0.8,
    "Voicing Detection": 0.9688715953307393,
    "Voicing False Alarm": 0.7564102564102564
}