{
    "DU": 92,
    "DV": 244,
    "F-measure": 0.8156606851549756,
    "F-measure Chroma": 0.8678629690048939,
    "FN": 12,
    "FNC": 0,
    "FNCch": 1,
    "FNI": 12,
    "FNIch": 11,
    "FP": 47,
    "GU": 127,
    "GV": 209,
    "Overall Accuracy": 0.7440476190476191,
    "Overall Chroma Accuracy": 0.7916666666666666,
    "Precision": 0.7716049382716049,
    "Precision Chroma": 0.8209876543209876,
    "Raw Chroma Accuracy": 0.8947368421052632,
    "Raw Pitch Accuracy": 0.8133971291866029,
    "Recall": 0.8650519031141869,
    "Recall Chroma": 0.9204152249134948,
    "TN": 80,
    "TO": 336,
    "TP": 197,
    "TPC": 170,
    "TPCch": 186,
    "TPI": 27,
    "TPIch": 11,
    "Voiced Chroma Accuracy": 0.8899521531100478,
    "Voiced Pitch Accuracy": 0.8133971291866029,
    "Voicing Accuracy": 0.8244047619047619,
    "Voicing Detection": 0.9425837320574163,
    "Voicing False Alarm": 0.3700787401574803
}