{
    "f0": [
        0.0,
        0.0,
        0.0,
        0.0,
        0.0,
        0.0,
        54.345048891474491,
        53.774020085926722,
        53.988376596188004,
        54.332290925707284,
        54.958327974610718,
        54.833916696015933,
        54.814906929037839,
        54.816221508365977,
        54.804951185333891,
        54.672066749640834,
        54.678758863575112,
        54.617303775959051,
        54.693852969693225,
        54.68469901166992,
        54.705741454351383,
        54.810747379933083,
        54.779600051121591,
        54.79471155566965,
        54.789990509939578,
        54.808959498032202,
        54.773525747574396,
        54.797658617652587,
        54.733957596679573,
        54.648664521540127,
        54.714608889193528,
        54.63036983744221,
        54.332419816026587,
        54.489209233075279,
        54.520517162115702,
        54.977704585603391,
        54.945144782993793,
        54.931846107368571,
        54.979156672339712,
        54.941533032726511,
        55.04395722337523,
        55.066733491380262,
        55.182468385716447,
        55.344878394872133,
        55.334899039828926,
        55.433438431597153,
        55.502863529085523,
        55.770292651353834,
        55.776003931744796,
        55.947023836807332,
        56.600129973374344,
        55.417690456825774,
        55.163370392373821,
        54.10443363050868,
        55.901321729074127,
        55.027619374337306,
        54.662673122940241,
        55.46045602371904,
        55.384104377369134,
        55.429808749484998,
        54.745550480031383,
        55.086185126633886,
        54.847210580410774,
        55.367932785733444,
        54.686910088526069,
        54.934449311838108,
        54.770061061326224,
        55.093258001170263,
        55.159519452984,
        55.018983479247758,
        55.305959236888278,
        55.437631046536843,
        55.27518165705964,
        55.355877955879613,
        55.300277556604911,
        55.198859389576953,
        55.268327365444591,
        55.235927136011952,
        55.286095688154582,
        55.185419565864954,
        55.145688179150646,
        55.14198968475295,
        55.066185748260644,
        54.900014640763928,
        54.975971721216894,
        55.090014890237455,
        55.193386323419489,
        55.143436029332619,
        55.015447730424683,
        54.881618800638577,
        54.876245381801546,
        54.752018740352597,
        54.851627847875761,
        54.839666472422849,
        54.84375517376489,
        54.897486221593127,
        54.933053057600475,
        54.813374302590248,
        54.929177589436186,
        54.920199960564396,
        54.853670907264636,
        54.752078953884819,
        54.583047825954409,
        54.179784689399199,
        54.056949345978538,
        53.918371972951817,
        54.446881169033794,
        54.248564985710075,
        54.998090834461507,
        57.964142965586817,
        54.843643671674357,
        54.795094825444082,
        52.955350070963483,
        52.877403081927753,
        52.849385732261311,
        53.029338516061571,
        52.82370736524193,
        52.927862804195684,
        52.909460462354332,
        52.789389748245057,
        52.977930579219333,
        52.836338974261935,
        53.153690734615502,
        53.347056535487241,
        53.080287139086671,
        53.165932616784012,
        53.083885801291409,
        53.024325127843454,
        53.001932281320947,
        52.973832611365793,
        52.773474504142833,
        54.091744191506592,
        53.998824447943377,
        53.204121213473968,
        53.320085215062733,
        53.249337362617268,
        53.299909699716963,
        54.088640298971427,
        52.67862291357342,
        52.751041579152165,
        53.012306151472004,
        53.328790364728683,
        52.976326356479014,
        52.33894253077154,
        52.310977706541891,
        51.201956679290738,
        50.269706043941383,
        53.196084549070846,
        52.621798250782327,
        52.946474847188561,
        0.0,
        0.0,
        0.0,
        0.0,
        40.019253912637765,
        41.123639053330507,
        54.095507849080064,
        0.0,
        0.0,
        0.0,
        0.0,
        0.0,
        50.193139709910902,
        50.198303738065505,
        50.367186444843,
        50.491076719748051,
        50.412270822892815,
        50.49722079476453,
        50.592342130174174,
        50.497680661861381,
        50.744353071031945,
        50.743891238925755,
        50.780162355965963,
        51.759770849926902,
        51.594935335504736,
        51.881660386058741,
        52.341328278373254,
        52.011293306257016,
        52.126918963278591,
        52.455180638663961,
        52.462741472176191,
        52.515748177520798,
        52.367185579759088,
        52.542614034612036,
        52.384991252423902,
        52.395425031243036,
        52.215982292332939,
        52.321021768343741,
        52.400973034018435,
        52.458897483355898,
        53.327758667962719,
        54.716142023108191,
        54.039367450475524,
        54.096773045783671,
        54.223704585290903,
        54.136168219569541,
        54.046173371371069,
        54.449107507714629,
        54.499421625544962,
        54.55185840558913,
        54.683725785707637,
        54.689196333930354,
        54.662134332275357,
        54.773968192254848,
        54.949846656812156,
        54.627785300872873,
        54.767573749647156,
        54.651769931997535,
        54.915880129502639,
        55.013406110871642,
        54.631933908301832,
        54.57643600605752,
        54.598711122625772,
        54.592332997342098,
        54.571671711588465,
        54.607673561177236,
        54.588862156688492,
        54.694014888168383,
        54.774603202318744,
        54.81117798004145,
        54.673388079185742,
        55.041362415755131,
        55.171331382983496,
        55.358234670443089,
        55.837045847912592,
        56.000835382327601,
        56.212733093627399,
        55.90033019430021,
        55.789270072114164,
        55.816554855384865,
        55.837682844775038,
        55.807539735265436,
        55.982348391505568,
        56.011836760040389,
        56.420473198906436,
        56.284297545363344,
        56.270704158659484,
        56.119969191931986,
        56.425975218411224,
        56.135595101029629,
        55.717874117363145,
        55.957517382854668,
        56.567044589059279,
        56.403341446405008,
        56.395614180137933,
        56.354556605654416,
        56.319419583585173,
        56.315065397718143,
        56.368252387906004,
        56.24580826634925,
        56.298367941786715,
        56.346354804012179,
        56.396623789266748,
        56.328914822030882,
        56.418927320149976,
        56.4144254446988,
        56.321055558268768,
        56.379979889795131,
        56.377376159649927,
        56.4904524402059,
        56.377824240228691,
        56.455861899365786,
        56.261938773405753,
        56.477308435885007,
        56.211066753961738,
        56.260282173155026,
        55.906126577143851,
        55.811511588648095,
        54.905655741120611,
        54.924248041652973,
        54.872277089751456,
        54.76398206624048,
        54.850458775210718,
        54.830341516622447,
        54.874756166650073,
        54.998745944368636,
        55.053857076314102,
        54.92522132451969,
        54.88476406961091,
        55.005862660027049,
        54.982536620331331,
        54.927265208985503,
        55.017870037605221,
        55.028218163840876,
        55.042456813093885,
        55.053659567959315,
        55.11462400453857,
        55.206942594710682,
        55.211966647547314,
        55.171169844611654,
        55.225836897625058,
        55.399113771857493,
        55.294446905227218,
        55.266310046763365,
        55.008945093882488,
        55.750167703585333,
        55.96580469237302,
        55.965693838960192,
        55.974967150428697,
        56.061658967716056,
        56.290298359371306,
        56.309200594377884,
        56.254283513979487,
        56.241784286477824,
        56.255355289798203,
        56.275770682250766,
        56.260579144290119,
        56.2990156403539,
        56.206976858601564,
        56.267304800377154,
        56.368906209936668,
        56.540246199122279,
        56.247190425311942,
        56.303795109784154,
        56.253293093388514,
        56.269971512681444,
        56.195030961586696,
        56.261341095044415,
        56.275688053439119,
        56.143602078522115,
        56.220568825553116,
        56.21250316097548,
        56.41230265494675,
        56.287479635569326,
        56.32385515607421,
        56.513123390368179,
        56.531116598639471,
        56.485406372684871,
        56.849480528373583,
        56.914768929256155,
        57.390703711393776,
        57.751712223131044,
        57.353118584545101,
        57.427108497882202,
        57.670494806452027,
        57.73986825428878,
        57.99147603574913,
        57.573011452929101,
        58.023666298185084,
        57.983165844476119,
        58.184065844125584,
        57.958895168050844,
        0.0,
        0.0,
        0.0,
        0.0,
        0.0,
        0.0,
        0.0,
        0.0,
        0.0,
        0.0,
        0.0,
        0.0,
        0.0,
        0.0,
        0.0,
        0.0,
        0.0,
        0.0,
        0.0,
        0.0,
        0.0,
        0.0,
        0.0,
        0.0,
        0.0,
        0.0,
        0.0,
        0.0,
        0.0,
        0.0,
        0.0,
        0.0,
        0.0,
        0.0,
        0.0,
        0.0,
        0.0,
        0.0,
        0.0,
        0.0,
        0.0,
        0.0,
        0.0,
        0.0,
        0.0,
        0.0,
        0.0,
        0.0,
        0.0,
        0.0,
        0.0,
        0.0,
        0.0,
        0.0,
        0.0,
        0.0,
        0.0,
        0.0,
        0.0
    ],
    "time": [
        0.02,
        0.040000000000000001,
        0.059999999999999998,
        0.080000000000000002,
        0.10000000000000001,
        0.12,
        0.14000000000000001,
        0.16,
        0.17999999999999999,
        0.20000000000000001,
        0.22,
        0.23999999999999999,
        0.26000000000000001,
        0.28000000000000003,
        0.29999999999999999,
        0.32000000000000001,
        0.34000000000000002,
        0.35999999999999999,
        0.38,
        0.40000000000000002,
        0.41999999999999998,
        0.44,
        0.46000000000000002,
        0.47999999999999998,
        0.5,
        0.52000000000000002,
        0.54000000000000004,
        0.56000000000000005,
        0.57999999999999996,
        0.59999999999999998,
        0.62,
        0.64000000000000001,
        0.66000000000000003,
        0.68000000000000005,
        0.69999999999999996,
        0.71999999999999997,
        0.73999999999999999,
        0.76000000000000001,
        0.78000000000000003,
        0.80000000000000004,
        0.81999999999999995,
        0.83999999999999997,
        0.85999999999999999,
        0.88,
        0.90000000000000002,
        0.92000000000000004,
        0.93999999999999995,
        0.95999999999999996,
        0.97999999999999998,
        1.0,
        1.02,
        1.04,
        1.0600000000000001,
        1.0800000000000001,
        1.1000000000000001,
        1.1200000000000001,
        1.1399999999999999,
        1.1599999999999999,
        1.1799999999999999,
        1.2,
        1.22,
        1.24,
        1.26,
        1.28,
        1.3,
        1.3200000000000001,
        1.3400000000000001,
        1.3600000000000001,
        1.3799999999999999,
        1.3999999999999999,
        1.4199999999999999,
        1.4399999999999999,
        1.46,
        1.48,
        1.5,
        1.52,
        1.54,
        1.5600000000000001,
        1.5800000000000001,
        1.6000000000000001,
        1.6200000000000001,
        1.6399999999999999,
        1.6599999999999999,
        1.6799999999999999,
        1.7,
        1.72,
        1.74,
        1.76,
        1.78,
        1.8,
        1.8200000000000001,
        1.8400000000000001,
        1.8600000000000001,
        1.8799999999999999,
        1.8999999999999999,
        1.9199999999999999,
        1.9399999999999999,
        1.96,
        1.98,
        2.0,
        2.02,
        2.04,
        2.0600000000000001,
        2.0800000000000001,
        2.1000000000000001,
        2.1200000000000001,
        2.1400000000000001,
        2.1600000000000001,
        2.1800000000000002,
        2.2000000000000002,
        2.2200000000000002,
        2.2400000000000002,
        2.2599999999999998,
        2.2799999999999998,
        2.2999999999999998,
        2.3199999999999998,
        2.3399999999999999,
        2.3599999999999999,
        2.3799999999999999,
        2.3999999999999999,
        2.4199999999999999,
        2.4399999999999999,
        2.46,
        2.48,
        2.5,
        2.52,
        2.54,
        2.5600000000000001,
        2.5800000000000001,
        2.6000000000000001,
        2.6200000000000001,
        2.6400000000000001,
        2.6600000000000001,
        2.6800000000000002,
        2.7000000000000002,
        2.7200000000000002,
        2.7400000000000002,
        2.7599999999999998,
        2.7799999999999998,
        2.7999999999999998,
        2.8199999999999998,
        2.8399999999999999,
        2.8599999999999999,
        2.8799999999999999,
        2.8999999999999999,
        2.9199999999999999,
        2.9399999999999999,
        2.96,
        2.98,
        3.0,
        3.02,
        3.04,
        3.0600000000000001,
        3.0800000000000001,
        3.1000000000000001,
        3.1200000000000001,
        3.1400000000000001,
        3.1600000000000001,
        3.1800000000000002,
        3.2000000000000002,
        3.2200000000000002,
        3.2400000000000002,
        3.2599999999999998,
        3.2799999999999998,
        3.2999999999999998,
        3.3199999999999998,
        3.3399999999999999,
        3.3599999999999999,
        3.3799999999999999,
        3.3999999999999999,
        3.4199999999999999,
        3.4399999999999999,
        3.46,
        3.48,
        3.5,
        3.52,
        3.54,
        3.5600000000000001,
        3.5800000000000001,
        3.6000000000000001,
        3.6200000000000001,
        3.6400000000000001,
        3.6600000000000001,
        3.6800000000000002,
        3.7000000000000002,
        3.7200000000000002,
        3.7400000000000002,
        3.7599999999999998,
        3.7799999999999998,
        3.7999999999999998,
        3.8199999999999998,
        3.8399999999999999,
        3.8599999999999999,
        3.8799999999999999,
        3.8999999999999999,
        3.9199999999999999,
        3.9399999999999999,
        3.96,
        3.98,
        4.0,
        4.0199999999999996,
        4.04,
        4.0599999999999996,
        4.0800000000000001,
        4.0999999999999996,
        4.1200000000000001,
        4.1399999999999997,
        4.1600000000000001,
        4.1799999999999997,
        4.2000000000000002,
        4.2199999999999998,
        4.2400000000000002,
        4.2599999999999998,
        4.2800000000000002,
        4.2999999999999998,
        4.3200000000000003,
        4.3399999999999999,
        4.3600000000000003,
        4.3799999999999999,
        4.4000000000000004,
        4.4199999999999999,
        4.4400000000000004,
        4.46,
        4.4800000000000004,
        4.5,
        4.5199999999999996,
        4.54,
        4.5599999999999996,
        4.5800000000000001,
        4.5999999999999996,
        4.6200000000000001,
        4.6399999999999997,
        4.6600000000000001,
        4.6799999999999997,
        4.7000000000000002,
        4.7199999999999998,
        4.7400000000000002,
        4.7599999999999998,
        4.7800000000000002,
        4.7999999999999998,
        4.8200000000000003,
        4.8399999999999999,
        4.8600000000000003,
        4.8799999999999999,
        4.9000000000000004,
        4.9199999999999999,
        4.9400000000000004,
        4.96,
        4.9800000000000004,
        5.0,
        5.0199999999999996,
        5.04,
        5.0599999999999996,
        5.0800000000000001,
        5.0999999999999996,
        5.1200000000000001,
        5.1399999999999997,
        5.1600000000000001,
        5.1799999999999997,
        5.2000000000000002,
        5.2199999999999998,
        5.2400000000000002,
        5.2599999999999998,
        5.2800000000000002,
        5.2999999999999998,
        5.3200000000000003,
        5.3399999999999999,
        5.3600000000000003,
        5.3799999999999999,
        5.4000000000000004,
        5.4199999999999999,
        5.4400000000000004,
        5.46,
        5.4800000000000004,
        5.5,
        5.5199999999999996,
        5.54,
        5.5599999999999996,
        5.5800000000000001,
        5.5999999999999996,
        5.6200000000000001,
        5.6399999999999997,
        5.6600000000000001,
        5.6799999999999997,
        5.7000000000000002,
        5.7199999999999998,
        5.7400000000000002,
        5.7599999999999998,
        5.7800000000000002,
        5.7999999999999998,
        5.8200000000000003,
        5.8399999999999999,
        5.8600000000000003,
        5.8799999999999999,
        5.9000000000000004,
        5.9199999999999999,
        5.9400000000000004,
        5.96,
        5.9800000000000004,
        6.0,
        6.0199999999999996,
        6.04,
        6.0599999999999996,
        6.0800000000000001,
        6.0999999999999996,
        6.1200000000000001,
        6.1399999999999997,
        6.1600000000000001,
        6.1799999999999997,
        6.2000000000000002,
        6.2199999999999998,
        6.2400000000000002,
        6.2599999999999998,
        6.2800000000000002,
        6.2999999999999998,
        6.3200000000000003,
        6.3399999999999999,
        6.3600000000000003,
        6.3799999999999999,
        6.4000000000000004,
        6.4199999999999999,
        6.4400000000000004,
        6.46,
        6.4800000000000004,
        6.5,
        6.5199999999999996,
        6.54,
        6.5599999999999996,
        6.5800000000000001,
        6.5999999999999996,
        6.6200000000000001,
        6.6399999999999997,
        6.6600000000000001,
        6.6799999999999997,
        6.7000000000000002,
        6.7199999999999998,
        6.7400000000000002,
        6.7599999999999998,
        6.7800000000000002,
        6.7999999999999998,
        6.8200000000000003,
        6.8399999999999999,
        6.8600000000000003,
        6.8799999999999999,
        6.9000000000000004,
        6.9199999999999999,
        6.9400000000000004,
        6.96,
        6.9800000000000004,
        7.0,
        7.0199999999999996,
        7.04,
        7.0599999999999996,
        7.0800000000000001,
        7.0999999999999996,
        7.1200000000000001,
        7.1399999999999997,
        7.1600000000000001,
        7.1799999999999997,
        7.2000000000000002,
        7.2199999999999998,
        7.2400000000000002,
        7.2599999999999998,
        7.2800000000000002,
        7.2999999999999998,
        7.3200000000000003,
        7.3399999999999999,
        7.3600000000000003,
        7.3799999999999999,
        7.4000000000000004,
        7.4199999999999999,
        7.4400000000000004,
        7.46,
        7.4800000000000004,
        7.5,
        7.5199999999999996,
        7.54,
        7.5599999999999996,
        7.5800000000000001,
        7.5999999999999996,
        7.6200000000000001,
        7.6399999999999997,
        7.6600000000000001,
        7.6799999999999997,
        7.7000000000000002,
        7.7199999999999998,
        7.7400000000000002,
        7.7599999999999998,
        7.7800000000000002,
        7.7999999999999998,
        7.8200000000000003,
        7.8399999999999999,
        7.8600000000000003,
        7.8799999999999999,
        7.9000000000000004,
        7.9199999999999999,
        7.9400000000000004,
        7.96,
        7.9800000000000004,
        8.0,
        8.0199999999999996
    ]
}