{
    "f0": [
        0.0,
        0.0,
        0.0,
        0.0,
        0.0,
        0.0,
        0.0,
        0.0,
        0.0,
        0.0,
        0.0,
        0.0,
        51.695392265184893,
        48.879369509027867,
        48.626265061661847,
        0.0,
        0.0,
        0.0,
        49.538854665356517,
        47.787669252878388,
        49.083132808684795,
        48.998956480107438,
        48.964219510414665,
        48.727084192613837,
        48.638525246763564,
        48.370267292636143,
        48.661163312164746,
        49.1762852799177,
        49.175777808925794,
        49.16693202058741,
        49.164472088808679,
        49.077473297438438,
        49.203333560831716,
        49.173670111829907,
        49.167349191935259,
        49.338684821759003,
        49.18949704160417,
        49.179801927081712,
        49.058895704122179,
        49.250688185499335,
        49.087081819505997,
        49.1236988442175,
        49.101402151004514,
        48.953416924216647,
        50.506144663097267,
        50.659652277527364,
        50.210095392865945,
        50.687095642898427,
        50.384651819675675,
        50.311843068457385,
        50.159180078981592,
        50.075633851162138,
        49.298994724590095,
        51.136557637584005,
        50.026589777256042,
        50.681606685620174,
        50.394687284591896,
        50.161459911707652,
        51.953710264551333,
        50.622209420898706,
        50.590737331028976,
        50.627321762302017,
        50.626592982280393,
        50.689199823823806,
        50.631266807701351,
        50.559375050128828,
        50.526805882329427,
        50.609297146670315,
        50.628152845655777,
        50.607302992446101,
        50.699944947885406,
        50.811470823707154,
        50.943470817101385,
        51.006405788178782,
        50.980370496829096,
        50.894063746195727,
        50.795642367143415,
        50.677877177665039,
        51.097924802198939,
        51.085397959348136,
        51.777038194038255,
        51.520190500177762,
        50.976039953997173,
        50.877041721375626,
        51.00228382720276,
        51.038465438299632,
        51.761937118974188,
        50.957174795741068,
        51.100820316999489,
        51.384687418370092,
        51.383891871378054,
        51.247953133038436,
        50.580183358913033,
        51.439468626447962,
        51.547837495966078,
        51.535176139186625,
        51.462138206470556,
        51.629899032364889,
        51.487221785194315,
        51.596544855045522,
        51.415282291926616,
        51.369747041633218,
        51.46924959161953,
        51.457814025301737,
        51.541589409825747,
        51.486556452943049,
        51.46474875121821,
        51.440703620627474,
        51.508506492465877,
        51.501350135086284,
        51.511403517642151,
        51.556673364487523,
        51.46259947395837,
        51.442944894298535,
        51.473035548604834,
        51.446614163674681,
        51.513822016474933,
        51.578907675101448,
        52.130851753266683,
        51.730228662330163,
        51.424910147814444,
        51.79491441331821,
        51.83381600169399,
        51.979818797460965,
        51.978469170784876,
        51.847475267759002,
        51.716271207058803,
        51.749135479355076,
        52.133086643696245,
        51.414030596749967,
        51.819060753278613,
        51.612492395833911,
        51.237226327445441,
        52.037839802701924,
        51.656552405701049,
        51.621405062313073,
        51.688415539277088,
        51.897453962793072,
        52.016097898574429,
        51.94298589821036,
        51.652517013003717,
        51.468967003298765,
        0.0,
        0.0,
        42.719083367246597,
        42.934171967447313,
        42.84062268107521,
        42.808347717820787,
        42.856234234273565,
        42.953681100801695,
        43.154951663590737,
        43.245692596008034,
        43.32135540827349,
        43.138108574048879,
        43.141493642207472,
        43.213779961082892,
        43.300040475615333,
        43.380700318304832,
        43.40913650488806,
        43.390229030250552,
        43.431483684306244,
        43.474714811593955,
        43.522242142649034,
        43.605081744613997,
        43.660572078075091,
        43.592419955240373,
        43.972852158936483,
        43.593595975630443,
        43.526199012429061,
        43.492432618744942,
        43.484201208789429,
        43.500478023936992,
        43.357639227309008,
        43.261435904885623,
        43.153478264915165,
        43.090423750210668,
        43.493994029075651,
        43.945473401536361,
        44.05343139044129,
        43.813508761453761,
        44.052369815175133,
        43.56711677338965,
        44.180376387240692,
        44.23083144757976,
        44.392688181219938,
        44.015948772045952,
        43.960887615097221,
        44.110557115711792,
        44.129041671026201,
        44.127144876779177,
        44.096910139276176,
        44.56328796036216,
        44.635563252759937,
        46.55961913180942,
        47.344969907059223,
        46.591880679862697,
        45.337451055807328,
        43.981785466219534,
        45.192098853451952,
        45.080946480869301,
        45.189170084597002,
        47.695776167776394,
        46.300988077088618,
        45.98094098488356,
        46.21838395089344,
        46.572482504065071,
        45.985197583052084,
        46.052210844736095,
        45.762331249024939,
        45.745194313109621,
        46.382046074293321,
        46.453586963882294,
        45.879891355882457,
        46.167086707239207,
        47.107515229784724,
        46.14319408667518,
        45.192713964263788,
        45.509877710832626,
        45.936561815222888,
        45.144658488284328,
        46.161690065748267,
        46.149548205919501,
        46.392029574773304,
        46.544773906499429,
        46.654910088266874,
        45.836154866495605,
        45.509852037514847,
        45.423890182739541,
        45.988351810527419,
        46.354009500878917,
        46.674486498482487,
        46.234133287152844,
        46.217353133337404,
        46.567819611632672,
        46.613341167093182,
        46.394418224218953,
        46.020467457582654,
        46.1768977364937,
        46.294504415110495,
        46.423506452454333,
        46.509093457759001,
        46.003933291087201,
        46.066085465471289,
        45.44517515849526,
        46.034649365734751,
        46.479056432947587,
        46.531414095308413,
        45.96978538686308,
        45.362343503385397,
        47.547870463804671,
        45.878470382303284,
        46.332496264285737,
        0.0,
        51.557367258609517,
        51.328514495420961,
        51.264469079249288,
        51.394805384451502,
        51.521254962012989,
        51.615688368727618,
        51.659848132224752,
        51.690248128347307,
        51.723687879802306,
        51.747076647316973,
        51.634956317297608,
        51.630506512520306,
        51.638414900963625,
        51.567345416791866,
        51.593749040269003,
        51.614214997022948,
        51.55999139034882,
        51.648280971315785,
        51.640224905845415,
        51.822473098524739,
        51.973650966721912,
        52.242541008853628,
        52.232055903964735,
        52.544864699607253,
        52.880430195989632,
        52.701973216053659,
        52.59877754209451,
        52.672373781218916,
        52.551469032759996,
        52.503120066140731,
        52.592397298087775,
        52.241603683702067,
        52.043767401320814,
        52.304788044297965,
        51.921481971446539,
        52.02917739935252,
        51.861930082428508,
        52.02011836870868,
        51.469768614955143,
        52.60084448204104,
        51.93120094830617,
        51.871550153835692,
        51.849376819252342,
        51.894883661111891,
        51.641304962596259,
        51.822314335536682,
        51.545394197472433,
        51.643646409210611,
        51.454019859433465,
        51.629802344367803,
        51.700918122123923,
        51.703903768688875,
        51.688834990005539,
        51.447545864427582,
        51.502001818077076,
        51.506382527799559,
        51.544507218209993,
        51.514914848874056,
        51.454714519647219,
        51.498700663570673,
        51.503004700329186,
        51.558958939542151,
        51.456844940671203,
        51.441393933463992,
        51.490216383481332,
        51.584168706388141,
        51.387980565714848,
        51.484639408660989,
        51.49159141637454,
        51.463189774393925,
        51.632703715056358,
        51.472087133530934,
        51.434203153910261,
        51.513144417098829,
        51.368217726065396,
        51.61598328577702,
        51.951947172006214,
        52.099672173630637,
        51.922517190484456,
        51.904645039014397,
        51.683595832406681,
        51.640856582604798,
        51.674759231487641,
        51.960142307640012,
        51.709133473649572,
        51.701086017627802,
        51.735138014419888,
        51.732336757465518,
        51.852147761885234,
        51.600634376492621,
        51.671276855603011,
        51.751503094625562,
        51.760299022810571,
        51.671324174023447,
        51.604196547138947,
        51.465416547115211,
        51.661350296240812,
        0.0,
        0.0,
        0.0,
        0.0,
        0.0,
        0.0,
        0.0,
        0.0,
        0.0,
        0.0,
        0.0,
        0.0,
        0.0,
        0.0,
        0.0,
        0.0,
        0.0,
        0.0,
        0.0,
        0.0,
        0.0,
        0.0,
        0.0,
        0.0,
        0.0,
        0.0,
        0.0,
        0.0,
        0.0,
        0.0,
        0.0,
        0.0,
        0.0,
        0.0,
        0.0,
        0.0,
        0.0,
        0.0,
        0.0,
        0.0,
        0.0,
        0.0,
        0.0,
        0.0,
        0.0,
        0.0,
        0.0,
        0.0,
        0.0,
        0.0,
        0.0,
        0.0,
        0.0,
        0.0,
        0.0,
        0.0
    ],
    "time": [
        0.02,
        0.040000000000000001,
        0.059999999999999998,
        0.080000000000000002,
        0.10000000000000001,
        0.12,
        0.14000000000000001,
        0.16,
        0.17999999999999999,
        0.20000000000000001,
        0.22,
        0.23999999999999999,
        0.26000000000000001,
        0.28000000000000003,
        0.29999999999999999,
        0.32000000000000001,
        0.34000000000000002,
        0.35999999999999999,
        0.38,
        0.40000000000000002,
        0.41999999999999998,
        0.44,
        0.46000000000000002,
        0.47999999999999998,
        0.5,
        0.52000000000000002,
        0.54000000000000004,
        0.56000000000000005,
        0.57999999999999996,
        0.59999999999999998,
        0.62,
        0.64000000000000001,
        0.66000000000000003,
        0.68000000000000005,
        0.69999999999999996,
        0.71999999999999997,
        0.73999999999999999,
        0.76000000000000001,
        0.78000000000000003,
        0.80000000000000004,
        0.81999999999999995,
        0.83999999999999997,
        0.85999999999999999,
        0.88,
        0.90000000000000002,
        0.92000000000000004,
        0.93999999999999995,
        0.95999999999999996,
        0.97999999999999998,
        1.0,
        1.02,
        1.04,
        1.0600000000000001,
        1.0800000000000001,
        1.1000000000000001,
        1.1200000000000001,
        1.1399999999999999,
        1.1599999999999999,
        1.1799999999999999,
        1.2,
        1.22,
        1.24,
        1.26,
        1.28,
        1.3,
        1.3200000000000001,
        1.3400000000000001,
        1.3600000000000001,
        1.3799999999999999,
        1.3999999999999999,
        1.4199999999999999,
        1.4399999999999999,
        1.46,
        1.48,
        1.5,
        1.52,
        1.54,
        1.5600000000000001,
        1.5800000000000001,
        1.6000000000000001,
        1.6200000000000001,
        1.6399999999999999,
        1.6599999999999999,
        1.6799999999999999,
        1.7,
        1.72,
        1.74,
        1.76,
        1.78,
        1.8,
        1.8200000000000001,
        1.8400000000000001,
        1.8600000000000001,
        1.8799999999999999,
        1.8999999999999999,
        1.9199999999999999,
        1.9399999999999999,
        1.96,
        1.98,
        2.0,
        2.02,
        2.04,
        2.0600000000000001,
        2.0800000000000001,
        2.1000000000000001,
        2.1200000000000001,
        2.1400000000000001,
        2.1600000000000001,
        2.1800000000000002,
        2.2000000000000002,
        2.2200000000000002,
        2.2400000000000002,
        2.2599999999999998,
        2.2799999999999998,
        2.2999999999999998,
        2.3199999999999998,
        2.3399999999999999,
        2.3599999999999999,
        2.3799999999999999,
        2.3999999999999999,
        2.4199999999999999,
        2.4399999999999999,
        2.46,
        2.48,
        2.5,
        2.52,
        2.54,
        2.5600000000000001,
        2.5800000000000001,
        2.6000000000000001,
        2.6200000000000001,
        2.6400000000000001,
        2.6600000000000001,
        2.6800000000000002,
        2.7000000000000002,
        2.7200000000000002,
        2.7400000000000002,
        2.7599999999999998,
        2.7799999999999998,
        2.7999999999999998,
        2.8199999999999998,
        2.8399999999999999,
        2.8599999999999999,
        2.8799999999999999,
        2.8999999999999999,
        2.9199999999999999,
        2.9399999999999999,
        2.96,
        2.98,
        3.0,
        3.02,
        3.04,
        3.0600000000000001,
        3.0800000000000001,
        3.1000000000000001,
        3.1200000000000001,
        3.1400000000000001,
        3.1600000000000001,
        3.1800000000000002,
        3.2000000000000002,
        3.2200000000000002,
        3.2400000000000002,
        3.2599999999999998,
        3.2799999999999998,
        3.2999999999999998,
        3.3199999999999998,
        3.3399999999999999,
        3.3599999999999999,
        3.3799999999999999,
        3.3999999999999999,
        3.4199999999999999,
        3.4399999999999999,
        3.46,
        3.48,
        3.5,
        3.52,
        3.54,
        3.5600000000000001,
        3.5800000000000001,
        3.6000000000000001,
        3.6200000000000001,
        3.6400000000000001,
        3.6600000000000001,
        3.6800000000000002,
        3.7000000000000002,
        3.7200000000000002,
        3.7400000000000002,
        3.7599999999999998,
        3.7799999999999998,
        3.7999999999999998,
        3.8199999999999998,
        3.8399999999999999,
        3.8599999999999999,
        3.8799999999999999,
        3.8999999999999999,
        3.9199999999999999,
        3.9399999999999999,
        3.96,
        3.98,
        4.0,
        4.0199999999999996,
        4.04,
        4.0599999999999996,
        4.0800000000000001,
        4.0999999999999996,
        4.1200000000000001,
        4.1399999999999997,
        4.1600000000000001,
        4.1799999999999997,
        4.2000000000000002,
        4.2199999999999998,
        4.2400000000000002,
        4.2599999999999998,
        4.2800000000000002,
        4.2999999999999998,
        4.3200000000000003,
        4.3399999999999999,
        4.3600000000000003,
        4.3799999999999999,
        4.4000000000000004,
        4.4199999999999999,
        4.4400000000000004,
        4.46,
        4.4800000000000004,
        4.5,
        4.5199999999999996,
        4.54,
        4.5599999999999996,
        4.5800000000000001,
        4.5999999999999996,
        4.6200000000000001,
        4.6399999999999997,
        4.6600000000000001,
        4.6799999999999997,
        4.7000000000000002,
        4.7199999999999998,
        4.7400000000000002,
        4.7599999999999998,
        4.7800000000000002,
        4.7999999999999998,
        4.8200000000000003,
        4.8399999999999999,
        4.8600000000000003,
        4.8799999999999999,
        4.9000000000000004,
        4.9199999999999999,
        4.9400000000000004,
        4.96,
        4.9800000000000004,
        5.0,
        5.0199999999999996,
        5.04,
        5.0599999999999996,
        5.0800000000000001,
        5.0999999999999996,
        5.1200000000000001,
        5.1399999999999997,
        5.1600000000000001,
        5.1799999999999997,
        5.2000000000000002,
        5.2199999999999998,
        5.2400000000000002,
        5.2599999999999998,
        5.2800000000000002,
        5.2999999999999998,
        5.3200000000000003,
        5.3399999999999999,
        5.3600000000000003,
        5.3799999999999999,
        5.4000000000000004,
        5.4199999999999999,
        5.4400000000000004,
        5.46,
        5.4800000000000004,
        5.5,
        5.5199999999999996,
        5.54,
        5.5599999999999996,
        5.5800000000000001,
        5.5999999999999996,
        5.6200000000000001,
        5.6399999999999997,
        5.6600000000000001,
        5.6799999999999997,
        5.7000000000000002,
        5.7199999999999998,
        5.7400000000000002,
        5.7599999999999998,
        5.7800000000000002,
        5.7999999999999998,
        5.8200000000000003,
        5.8399999999999999,
        5.8600000000000003,
        5.8799999999999999,
        5.9000000000000004,
        5.9199999999999999,
        5.9400000000000004,
        5.96,
        5.9800000000000004,
        6.0,
        6.0199999999999996,
        6.04,
        6.0599999999999996,
        6.0800000000000001,
        6.0999999999999996,
        6.1200000000000001,
        6.1399999999999997,
        6.1600000000000001,
        6.1799999999999997,
        6.2000000000000002,
        6.2199999999999998,
        6.2400000000000002,
        6.2599999999999998,
        6.2800000000000002,
        6.2999999999999998,
        6.3200000000000003,
        6.3399999999999999,
        6.3600000000000003,
        6.3799999999999999,
        6.4000000000000004,
        6.4199999999999999,
        6.4400000000000004,
        6.46,
        6.4800000000000004,
        6.5,
        6.5199999999999996,
        6.54,
        6.5599999999999996,
        6.5800000000000001,
        6.5999999999999996,
        6.6200000000000001,
        6.6399999999999997,
        6.6600000000000001,
        6.6799999999999997,
        6.7000000000000002,
        6.7199999999999998,
        6.7400000000000002,
        6.7599999999999998,
        6.7800000000000002,
        6.7999999999999998,
        6.8200000000000003,
        6.8399999999999999,
        6.8600000000000003,
        6.8799999999999999,
        6.9000000000000004,
        6.9199999999999999,
        6.9400000000000004,
        6.96,
        6.9800000000000004,
        7.0,
        7.0199999999999996,
        7.04,
        7.0599999999999996,
        7.0800000000000001,
        7.0999999999999996,
        7.1200000000000001,
        7.1399999999999997,
        7.1600000000000001,
        7.1799999999999997,
        7.2000000000000002,
        7.2199999999999998,
        7.2400000000000002,
        7.2599999999999998,
        7.2800000000000002,
        7.2999999999999998,
        7.3200000000000003,
        7.3399999999999999,
        7.3600000000000003,
        7.3799999999999999,
        7.4000000000000004,
        7.4199999999999999,
        7.4400000000000004,
        7.46,
        7.4800000000000004,
        7.5,
        7.5199999999999996,
        7.54,
        7.5599999999999996,
        7.5800000000000001,
        7.5999999999999996,
        7.6200000000000001,
        7.6399999999999997,
        7.6600000000000001,
        7.6799999999999997,
        7.7000000000000002,
        7.7199999999999998,
        7.7400000000000002,
        7.7599999999999998,
        7.7800000000000002,
        7.7999999999999998,
        7.8200000000000003,
        7.8399999999999999,
        7.8600000000000003,
        7.8799999999999999,
        7.9000000000000004,
        7.9199999999999999,
        7.9400000000000004,
        7.96,
        7.9800000000000004,
        8.0,
        8.0199999999999996,
        8.0399999999999991,
        8.0600000000000005,
        8.0800000000000001,
        8.0999999999999996,
        8.1199999999999992
    ]
}