{
    "f0": [
        0.0,
        0.0,
        0.0,
        0.0,
        0.0,
        0.0,
        0.0,
        0.0,
        0.0,
        0.0,
        0.0,
        0.0,
        0.0,
        0.0,
        0.0,
        0.0,
        0.0,
        0.0,
        0.0,
        0.0,
        0.0,
        0.0,
        0.0,
        0.0,
        0.0,
        0.0,
        0.0,
        0.0,
        0.0,
        0.0,
        0.0,
        0.0,
        0.0,
        0.0,
        0.0,
        0.0,
        0.0,
        0.0,
        0.0,
        0.0,
        0.0,
        0.0,
        0.0,
        0.0,
        0.0,
        0.0,
        0.0,
        0.0,
        0.0,
        0.0,
        0.0,
        0.0,
        0.0,
        0.0,
        74.985937247574526,
        73.349315139194715,
        73.755150420465156,
        73.953362077891185,
        72.884207594278237,
        74.651983771593422,
        72.771028323587359,
        73.970496508775113,
        0.0,
        0.0,
        0.0,
        0.0,
        0.0,
        0.0,
        0.0,
        0.0,
        0.0,
        0.0,
        0.0,
        0.0,
        0.0,
        0.0,
        0.0,
        35.755653997695546,
        38.772063592343152,
        38.612534340740048,
        40.688630019330176,
        42.09757241258594,
        43.471690657036461,
        43.195002974105435,
        43.45671784142489,
        0.0,
        0.0,
        44.761170893692999,
        44.974219894689099,
        43.987955697014499,
        45.459020995048412,
        42.833040383813035,
        44.1612030498313,
        44.798743880016758,
        44.712639425202092,
        44.969620736308627,
        46.067772271148172,
        0.0,
        43.956063507020922,
        44.731676665973524,
        45.767985844361377,
        45.77487872388231,
        47.595587880790013,
        47.559044693630739,
        47.005322222765443,
        47.160515903405795,
        46.983622926743593,
        46.760434900128985,
        47.18799357679319,
        47.177344963423792,
        46.766231388764055,
        47.068062441398872,
        46.756331167871295,
        46.866140816908867,
        46.962942841546251,
        47.074546238958007,
        47.379358415258942,
        47.126145090943957,
        47.122503060251262,
        47.122368289580365,
        47.125219969133646,
        47.0968211675413,
        47.038344273432116,
        47.040855644433272,
        46.934963485727899,
        46.895141994483346,
        46.987389422948851,
        46.86543471463672,
        46.829135893445233,
        47.029610954158265,
        47.340819862669164,
        47.472113307729245,
        47.498238601674942,
        47.632060448208577,
        47.599440691661712,
        47.738268967533692,
        47.834845407871136,
        47.904874045912372,
        47.896930790538164,
        47.950158799125163,
        47.951134971115053,
        47.997013966554675,
        48.045152742624609,
        47.891873730239155,
        48.204945241337114,
        47.99301243962541,
        47.815931515805531,
        47.839472742100995,
        48.329711563139725,
        48.900437442139093,
        49.399938610750311,
        49.497184087911762,
        49.682001864972825,
        49.885436587489309,
        49.639398172234323,
        49.776486512991809,
        49.572864363235666,
        48.976088032836145,
        49.323506246899086,
        49.302072486109921,
        49.511084174621686,
        49.307546774794474,
        49.335817309398003,
        49.409643504008997,
        49.542381486924157,
        49.706125662423148,
        49.650963508079812,
        49.371677432902608,
        49.308149672877434,
        49.422724887044332,
        49.456747916062312,
        49.536424858292037,
        49.472403607067051,
        49.574606941896235,
        49.43832038214569,
        49.597525459662585,
        49.801833144701966,
        49.562099266649554,
        49.637675106397168,
        49.559753872439678,
        49.195391419400906,
        49.455166090953838,
        49.520384785397383,
        49.557474566583011,
        49.551626463080424,
        49.34328040184031,
        49.573793679786007,
        49.426530167053642,
        49.106477921574758,
        48.920518531486167,
        49.509488869992367,
        49.588223949437349,
        50.082342531055424,
        49.743375200965545,
        49.444920210275967,
        50.11280349994567,
        48.378213637768241,
        49.598111103111663,
        49.286276922232901,
        49.137627686990129,
        48.223155850422934,
        0.0,
        0.0,
        0.0,
        0.0,
        0.0,
        0.0,
        0.0,
        0.0,
        36.606787099219972,
        37.63397653330528,
        36.250971491481749,
        36.597206875814706,
        36.926321406100143,
        37.414592394698218,
        37.133658085846498,
        37.46785324420037,
        37.568593095282623,
        49.30619843069951,
        49.504298534245777,
        49.559864534201907,
        37.701643763203933,
        38.241445135287179,
        38.085570536002791,
        37.806714838164488,
        38.335790405749833,
        38.246174455346015,
        38.460650919658477,
        38.113740123774647,
        39.545282262655896,
        39.525215692703242,
        39.314621146465385,
        38.845868784640864,
        38.790706782623381,
        38.591222295958318,
        38.074141506284469,
        0.0,
        0.0,
        0.0,
        47.801650863761324,
        48.846091518235205,
        49.084035707392296,
        49.760428569740959,
        49.329289856106485,
        49.580825140226338,
        49.457559152187258,
        49.493185001425772,
        49.287268683142464,
        49.803680069650866,
        50.472340672164819,
        50.836473862186274,
        50.32947735937438,
        50.345129218859014,
        50.130211312298755,
        50.073002203624092,
        50.135031830042379,
        49.806525739609967,
        50.008358191819639,
        50.338089303964793,
        49.463038258654421,
        49.710688767902425,
        49.464207349731836,
        49.972228336883759,
        50.037407516434627,
        49.770695569515283,
        50.685209141158872,
        49.73587241794057,
        49.097647820402116,
        48.549499164027495,
        48.326428310536322,
        48.121509869407689,
        48.320331546047669,
        48.141693354475471,
        48.190400726409571,
        48.197675492587095,
        48.100286926853741,
        48.084649480723968,
        48.236603207280481,
        48.212287632370533,
        48.144621512296069,
        48.132469354216205,
        47.98129510623059,
        48.041262934842806,
        48.06341344962815,
        48.047235176463211,
        47.886809064529011,
        47.816917291794162,
        47.497951685739935,
        46.694941299249116,
        47.17634956865561,
        47.400025066285068,
        47.909214761835187,
        46.380432920926069,
        46.123682474538583,
        45.457894907023707,
        43.622914826488078,
        45.659384549866644,
        45.809354434311032,
        43.355072582833429,
        46.358284205550753,
        45.335736331385675,
        45.234168282757778,
        45.336232135575031,
        45.226692881539236,
        44.433213852134244,
        44.847942162388293,
        44.436218535254561,
        46.252134787678727,
        44.469746542235526,
        42.579572317571049,
        0.0,
        0.0,
        0.0,
        45.369088245613426,
        45.49542020649416,
        45.390657934163116,
        45.740983086763961,
        46.288475320757314,
        45.801594896969014,
        44.767309304638154,
        44.376989004775325,
        45.517871569379729,
        46.374310551041532,
        42.76845338181468,
        42.120541365201404,
        41.214763235317491,
        41.204146591353478,
        41.135456373286566,
        41.271728522202899,
        41.880423073098051,
        0.0,
        0.0,
        0.0,
        0.0,
        0.0,
        0.0,
        0.0,
        0.0,
        0.0,
        0.0,
        0.0,
        0.0,
        0.0,
        0.0,
        0.0,
        0.0,
        0.0,
        0.0,
        0.0,
        0.0,
        0.0,
        0.0,
        0.0,
        0.0,
        0.0,
        0.0,
        0.0,
        0.0,
        0.0,
        0.0,
        0.0,
        0.0,
        0.0,
        0.0,
        0.0,
        0.0,
        0.0,
        0.0,
        0.0,
        0.0,
        0.0,
        0.0,
        0.0,
        0.0,
        0.0,
        0.0,
        0.0,
        0.0,
        0.0,
        0.0,
        0.0,
        0.0
    ],
    "time": [
        0.02,
        0.040000000000000001,
        0.059999999999999998,
        0.080000000000000002,
        0.10000000000000001,
        0.12,
        0.14000000000000001,
        0.16,
        0.17999999999999999,
        0.20000000000000001,
        0.22,
        0.23999999999999999,
        0.26000000000000001,
        0.28000000000000003,
        0.29999999999999999,
        0.32000000000000001,
        0.34000000000000002,
        0.35999999999999999,
        0.38,
        0.40000000000000002,
        0.41999999999999998,
        0.44,
        0.46000000000000002,
        0.47999999999999998,
        0.5,
        0.52000000000000002,
        0.54000000000000004,
        0.56000000000000005,
        0.57999999999999996,
        0.59999999999999998,
        0.62,
        0.64000000000000001,
        0.66000000000000003,
        0.68000000000000005,
        0.69999999999999996,
        0.71999999999999997,
        0.73999999999999999,
        0.76000000000000001,
        0.78000000000000003,
        0.80000000000000004,
        0.81999999999999995,
        0.83999999999999997,
        0.85999999999999999,
        0.88,
        0.90000000000000002,
        0.92000000000000004,
        0.93999999999999995,
        0.95999999999999996,
        0.97999999999999998,
        1.0,
        1.02,
        1.04,
        1.0600000000000001,
        1.0800000000000001,
        1.1000000000000001,
        1.1200000000000001,
        1.1399999999999999,
        1.1599999999999999,
        1.1799999999999999,
        1.2,
        1.22,
        1.24,
        1.26,
        1.28,
        1.3,
        1.3200000000000001,
        1.3400000000000001,
        1.3600000000000001,
        1.3799999999999999,
        1.3999999999999999,
        1.4199999999999999,
        1.4399999999999999,
        1.46,
        1.48,
        1.5,
        1.52,
        1.54,
        1.5600000000000001,
        1.5800000000000001,
        1.6000000000000001,
        1.6200000000000001,
        1.6399999999999999,
        1.6599999999999999,
        1.6799999999999999,
        1.7,
        1.72,
        1.74,
        1.76,
        1.78,
        1.8,
        1.8200000000000001,
        1.8400000000000001,
        1.8600000000000001,
        1.8799999999999999,
        1.8999999999999999,
        1.9199999999999999,
        1.9399999999999999,
        1.96,
        1.98,
        2.0,
        2.02,
        2.04,
        2.0600000000000001,
        2.0800000000000001,
        2.1000000000000001,
        2.1200000000000001,
        2.1400000000000001,
        2.1600000000000001,
        2.1800000000000002,
        2.2000000000000002,
        2.2200000000000002,
        2.2400000000000002,
        2.2599999999999998,
        2.2799999999999998,
        2.2999999999999998,
        2.3199999999999998,
        2.3399999999999999,
        2.3599999999999999,
        2.3799999999999999,
        2.3999999999999999,
        2.4199999999999999,
        2.4399999999999999,
        2.46,
        2.48,
        2.5,
        2.52,
        2.54,
        2.5600000000000001,
        2.5800000000000001,
        2.6000000000000001,
        2.6200000000000001,
        2.6400000000000001,
        2.6600000000000001,
        2.6800000000000002,
        2.7000000000000002,
        2.7200000000000002,
        2.7400000000000002,
        2.7599999999999998,
        2.7799999999999998,
        2.7999999999999998,
        2.8199999999999998,
        2.8399999999999999,
        2.8599999999999999,
        2.8799999999999999,
        2.8999999999999999,
        2.9199999999999999,
        2.9399999999999999,
        2.96,
        2.98,
        3.0,
        3.02,
        3.04,
        3.0600000000000001,
        3.0800000000000001,
        3.1000000000000001,
        3.1200000000000001,
        3.1400000000000001,
        3.1600000000000001,
        3.1800000000000002,
        3.2000000000000002,
        3.2200000000000002,
        3.2400000000000002,
        3.2599999999999998,
        3.2799999999999998,
        3.2999999999999998,
        3.3199999999999998,
        3.3399999999999999,
        3.3599999999999999,
        3.3799999999999999,
        3.3999999999999999,
        3.4199999999999999,
        3.4399999999999999,
        3.46,
        3.48,
        3.5,
        3.52,
        3.54,
        3.5600000000000001,
        3.5800000000000001,
        3.6000000000000001,
        3.6200000000000001,
        3.6400000000000001,
        3.6600000000000001,
        3.6800000000000002,
        3.7000000000000002,
        3.7200000000000002,
        3.7400000000000002,
        3.7599999999999998,
        3.7799999999999998,
        3.7999999999999998,
        3.8199999999999998,
        3.8399999999999999,
        3.8599999999999999,
        3.8799999999999999,
        3.8999999999999999,
        3.9199999999999999,
        3.9399999999999999,
        3.96,
        3.98,
        4.0,
        4.0199999999999996,
        4.04,
        4.0599999999999996,
        4.0800000000000001,
        4.0999999999999996,
        4.1200000000000001,
        4.1399999999999997,
        4.1600000000000001,
        4.1799999999999997,
        4.2000000000000002,
        4.2199999999999998,
        4.2400000000000002,
        4.2599999999999998,
        4.2800000000000002,
        4.2999999999999998,
        4.3200000000000003,
        4.3399999999999999,
        4.3600000000000003,
        4.3799999999999999,
        4.4000000000000004,
        4.4199999999999999,
        4.4400000000000004,
        4.46,
        4.4800000000000004,
        4.5,
        4.5199999999999996,
        4.54,
        4.5599999999999996,
        4.5800000000000001,
        4.5999999999999996,
        4.6200000000000001,
        4.6399999999999997,
        4.6600000000000001,
        4.6799999999999997,
        4.7000000000000002,
        4.7199999999999998,
        4.7400000000000002,
        4.7599999999999998,
        4.7800000000000002,
        4.7999999999999998,
        4.8200000000000003,
        4.8399999999999999,
        4.8600000000000003,
        4.8799999999999999,
        4.9000000000000004,
        4.9199999999999999,
        4.9400000000000004,
        4.96,
        4.9800000000000004,
        5.0,
        5.0199999999999996,
        5.04,
        5.0599999999999996,
        5.0800000000000001,
        5.0999999999999996,
        5.1200000000000001,
        5.1399999999999997,
        5.1600000000000001,
        5.1799999999999997,
        5.2000000000000002,
        5.2199999999999998,
        5.2400000000000002,
        5.2599999999999998,
        5.2800000000000002,
        5.2999999999999998,
        5.3200000000000003,
        5.3399999999999999,
        5.3600000000000003,
        5.3799999999999999,
        5.4000000000000004,
        5.4199999999999999,
        5.4400000000000004,
        5.46,
        5.4800000000000004,
        5.5,
        5.5199999999999996,
        5.54,
        5.5599999999999996,
        5.5800000000000001,
        5.5999999999999996,
        5.6200000000000001,
        5.6399999999999997,
        5.6600000000000001,
        5.6799999999999997,
        5.7000000000000002,
        5.7199999999999998,
        5.7400000000000002,
        5.7599999999999998,
        5.7800000000000002,
        5.7999999999999998,
        5.8200000000000003,
        5.8399999999999999,
        5.8600000000000003,
        5.8799999999999999,
        5.9000000000000004,
        5.9199999999999999,
        5.9400000000000004,
        5.96,
        5.9800000000000004,
        6.0,
        6.0199999999999996,
        6.04,
        6.0599999999999996,
        6.0800000000000001,
        6.0999999999999996,
        6.1200000000000001,
        6.1399999999999997,
        6.1600000000000001,
        6.1799999999999997,
        6.2000000000000002,
        6.2199999999999998,
        6.2400000000000002,
        6.2599999999999998,
        6.2800000000000002,
        6.2999999999999998,
        6.3200000000000003,
        6.3399999999999999,
        6.3600000000000003,
        6.3799999999999999,
        6.4000000000000004,
        6.4199999999999999,
        6.4400000000000004,
        6.46,
        6.4800000000000004,
        6.5,
        6.5199999999999996,
        6.54,
        6.5599999999999996,
        6.5800000000000001,
        6.5999999999999996,
        6.6200000000000001,
        6.6399999999999997,
        6.6600000000000001,
        6.6799999999999997,
        6.7000000000000002,
        6.7199999999999998,
        6.7400000000000002,
        6.7599999999999998,
        6.7800000000000002,
        6.7999999999999998,
        6.8200000000000003,
        6.8399999999999999,
        6.8600000000000003,
        6.8799999999999999,
        6.9000000000000004,
        6.9199999999999999,
        6.9400000000000004,
        6.96,
        6.9800000000000004,
        7.0,
        7.0199999999999996,
        7.04,
        7.0599999999999996,
        7.0800000000000001,
        7.0999999999999996,
        7.1200000000000001,
        7.1399999999999997,
        7.1600000000000001,
        7.1799999999999997,
        7.2000000000000002,
        7.2199999999999998,
        7.2400000000000002,
        7.2599999999999998,
        7.2800000000000002,
        7.2999999999999998,
        7.3200000000000003,
        7.3399999999999999,
        7.3600000000000003,
        7.3799999999999999,
        7.4000000000000004,
        7.4199999999999999,
        7.4400000000000004,
        7.46,
        7.4800000000000004,
        7.5,
        7.5199999999999996,
        7.54,
        7.5599999999999996,
        7.5800000000000001,
        7.5999999999999996,
        7.6200000000000001,
        7.6399999999999997
    ]
}