{
	"f0": [NaN,56.74766718,57.74885266,57.61389923,56.88584619,56.75864946,56.46952741,56.31902082,56.14422374,55.84557771,55.90281061,55.91524078,55.86110786,55.56618771,55.52430047,55.36761538,55.16199163,55.0575956,54.91370117,54.95944445,55.1505893,55.11524479,55.10534715,59.255334,60.11872563,62.34585304,62.49172746,62.87722345,62.89123218,62.919316,62.88013197,62.91392956,63.1494252,63.35647987,63.56439208,63.70334254,63.92338393,64.00613623,64.04175523,64.0186059,63.82636187,63.51970634,63.26347521,63.12709797,63.20218785,63.2760508,63.05955742,62.86207208,62.80253089,62.46447136,62.27411065,62.28032752,62.21120232,61.69839761,61.53971147,61.66718111,61.79814003,61.70496621,61.47700564,61.4332182,61.37328321,61.41911424,61.57011335,61.63657496,61.59647337,61.57835242,61.79301402,62.03051627,62.06423889,61.93035446,61.85209986,61.82929947,61.85035125,61.90154569,61.84540576,61.78427617,61.77294869,61.77102146,61.76305116,61.75406526,61.71315558,61.72078353,61.74349054,61.74368258,61.73078696,61.69972663,61.67752604,61.6763725,61.71276665,61.73963231,61.73913176,61.74069225,61.73484215,61.74484286,61.77286894,61.84479694,61.90814477,61.94043992,61.94707439,61.91801076,61.90367012,61.89457988,61.64916857,61.38933407,61.46711824,75.47547722,74.92559079,49.68990885,46.02114525,45.99958076,76.19354484,58.3118682,58.48799123,58.94418898,59.50165593,59.76273913,62.26340019,74.62736408,74.84217432,75.26148912,75.29983467,75.36121037,75.19176836,75.12898051,75.26426892,75.84295353,76.93035138,75.95975274,75.384265,74.96782491,74.85361181,74.63663646,61.78283472,61.28826975,61.34299257,61.39799975,61.30210006,61.41900512,61.50224389,61.57253623,61.63086878,61.57451301,61.57857863,61.62635303,61.63407804,61.64168769,61.66589558,61.68689469,61.64766026,61.51131079,61.58417887,61.6366956,73.60943803,73.59678549,73.54766893,61.56590584,61.56992872,61.57556934,61.67838951,61.47532742,61.16509603,56.46727057,42.70694763,72.85062237,60.71554932,60.723209,60.77643902,60.80112931,60.7542886,60.82547449,60.89024774,60.89270734,60.93153196,60.85773745,61.24275196,64.55802863,64.90393284,65.27646196,65.50503306,65.77689984,65.84860802,65.80054558,65.7643647,65.62837698,65.85653539,66.05852351,66.09570861,66.15537528,65.94166142,65.83992639,65.75084324,65.60609381,65.61299936,65.55954236,65.46499474,65.398484,65.36361605,65.21033748,65.11732668,65.18989375,65.21294215,65.19665534,65.21426074,65.27384273,65.32022902,65.3384054,65.34579145,65.37531736,65.39904032,65.38394147,65.34855902,65.36743766,65.31055478,65.26623717,65.29366785,65.39268224,65.45795284,65.31904064,65.11745478,64.78457967,64.42646379,64.11463832,64.02757678,64.16855663,64.25828481,64.12948653,64.04607666,64.05711194,64.08549086,64.11531534,64.13878373,64.19205355,64.25169453,64.31596239,64.25948604,64.21708049,64.25498918,64.29034642,64.29304969,64.28586242,64.24414537,64.12966016,64.04832734,64.00526886,63.97682897,64.39031299,65.98474386,66.51617912,66.40490287,66.14792594,66.27937585,66.16546801,65.99879622,66.15237825,66.04613103,64.55802863,63.62034622,63.73399355,63.88490677,64.07723535,64.09194273,64.18440565,64.24660743,64.26816165,64.31893336,64.46227845,64.54339462,64.60469205,64.77985334,65.27398471,65.63527186,65.64113758,65.6539844,65.81544071,65.91619976,65.83804613,65.80820072,65.57689862,65.30423232,64.99951437,64.93665854,64.85466466,64.54218855,64.96112236,65.09069511,65.01062318,65.19077502,64.93035138,55.72680697,55.62208457,55.72968564,55.82192245,56.14384309,56.30753475,56.56505851,56.6486733,56.64571906,56.68832641,56.51654736,56.47815227,56.76484481,56.84233721,56.84983831,56.72712098,56.59045077,56.43857317,56.43053398,56.20731694,56.09798917,56.61987526,56.86687313,56.71665653,56.58404335,56.82143627,56.85557045,56.73259178,56.52490651,56.73305778,56.88353163,56.98178547,56.90090199,56.82327514,56.77712959,56.7945012,56.95166995,57.00373655,56.97413029,68.69965447,69.08161239,56.84633022,57.00828042,56.99041486,56.80331587,56.91828553,57.00532319,56.93520015,37.82400448,65.27537326,77.06785611,77.01465915,77.03551923,56.46727057,56.27999562,56.72332918,56.693636,56.49656365,56.28750453,56.32549748,56.29452489,56.48567047,56.45414626,56.25155958,56.31794865,56.61118478,56.51873447,56.33432334,56.55784095,56.73328124,56.90253417,57.01001032,56.93520015,56.77662502,57.00694266,57.15337933,56.86325462,56.82070745,57.17399484,37.61935487,35.34887861,35.34887861,35.34887861,35.34887861,37.06721424,45.91080137,NaN,NaN],
	"ap0": [NaN,0.6677949643,0.3361602576,0.163043797,0.07963177436,0.08772609702,0.05634561783,0.02538845964,0.03829999888,0.05210155127,0.09280338621,0.06387515123,0.05381693856,0.09359539171,0.1168290865,0.1509248941,0.1194083051,0.1711073984,0.1598301907,0.2010959321,0.1387258488,0.1092074145,0.1479444723,0.4187020583,0.4606960825,0.4445147434,0.3170713721,0.1761660237,0.1805404384,0.1436026949,0.1138970231,0.1068656128,0.0541875209,0.05817237119,0.07061026793,0.05172395038,0.02167026862,0.008326012593,0.009035447598,0.01422577071,0.03133202935,0.07289023283,0.1259107777,0.1712348494,0.1108519969,0.09699867265,0.1137529739,0.1118452239,0.1812795933,0.1776512596,0.1019795314,0.1160656213,0.1553429939,0.1141835167,0.05545899792,0.05642867478,0.04879495233,0.0742464387,0.0525867738,0.03527575258,0.06418524935,0.08789392146,0.06380763108,0.05294616949,0.03596050543,0.03398238698,0.05308015496,0.03555336279,0.05298498732,0.07344557134,0.05962879016,0.04085438946,0.04352382093,0.055493992,0.0235372774,0.01501911896,0.01132474827,0.00851022648,0.006888512498,0.00424137943,0.004167334846,0.003858522187,0.003284117339,0.002522112838,0.003082436993,0.005491244402,0.004857588292,0.005053110303,0.006307921393,0.004549665869,0.005810127846,0.01280119469,0.01251704187,0.005906536407,0.004387736812,0.006570992579,0.006205938834,0.007605678361,0.0208540062,0.04016698827,0.01366452271,0.01748149805,0.1207303024,0.2245178889,0.3982362056,0.4503931116,0.4823554379,0.4014772328,0.4167630549,0.3953467284,0.5512782053,0.3404232563,0.3454259116,0.3312944353,0.3312313665,0.5615950618,0.6435060649,0.3966529595,0.281224346,0.1607021224,0.08758581678,0.08298794825,0.1005917181,0.06925914479,0.1231244011,0.3435032187,0.4216609971,0.3298523572,0.2964096357,0.2566500442,0.3069220349,0.3933060301,0.2176604237,0.1600680166,0.1372289801,0.1495369878,0.07853275459,0.04276964975,0.04808987094,0.05399794912,0.06898547715,0.0317147182,0.02337642645,0.0464497103,0.0270603136,0.01128305975,0.01166409334,0.01653700779,0.02957183962,0.03904370064,0.01100242773,0.00440191855,0.05188580761,0.04808673841,0.1017308774,0.0941378631,0.1825716694,0.1662732432,0.1599284973,0.2957972691,0.4541703409,0.6850842896,0.4084813087,0.2135328696,0.1267891246,0.05276874134,0.05808066832,0.07809581938,0.04496985207,0.07250141343,0.08694587268,0.06447838486,0.06197916137,0.06414019559,0.5242523145,0.4221548121,0.2030030056,0.08565355475,0.07212895822,0.07541095277,0.04313531237,0.0388044077,0.07181710464,0.08192500193,0.07681812904,0.03819511405,0.02598503544,0.04237527202,0.01607110128,0.008163619118,0.01377722198,0.02285074198,0.04662006038,0.05831601082,0.05951065071,0.03792741596,0.02327543034,0.01561777354,0.01369986486,0.01493014209,0.01284978395,0.006062897415,0.004761105863,0.007739440211,0.009278065203,0.0109093507,0.007333309096,0.003759342308,0.003472684739,0.008885328519,0.01548591153,0.02360675925,0.07333010956,0.08901912076,0.03672695881,0.02804543972,0.02618067011,0.05647105128,0.08969720377,0.105429351,0.07933469977,0.03423912891,0.03046765879,0.0408007564,0.03851214812,0.03405929727,0.02028865373,0.008037101567,0.002816395666,0.001971971251,0.002712664034,0.003361829154,0.004901601648,0.00462464157,0.005806551024,0.005511128849,0.004306257362,0.001897557123,0.0006165324909,0.0004777086376,0.0008846829422,0.001910414525,0.005083083974,0.01382266492,0.03077492928,0.1627428855,0.2104329418,0.09472673444,0.1005240739,0.1327090732,0.09201442713,0.1134065052,0.1913988326,0.3477551545,0.4350673525,0.3552745745,0.2363159799,0.0548975433,0.03814113054,0.03115431347,0.02165031301,0.01656631387,0.01101682131,0.01166502743,0.01856895678,0.02401031992,0.04281766193,0.05703043082,0.04974869844,0.04524049008,0.04069966778,0.06218665154,0.04303067824,0.03918087176,0.05202956704,0.02169376069,0.02018681869,0.02426801041,0.02328679338,0.1774151584,0.2407514167,0.2165956125,0.1466597539,0.1536735567,0.1734712566,0.1675260798,0.3209805746,0.5876241154,0.4354031039,0.2802498061,0.2175289143,0.1880797683,0.1271186706,0.1032999244,0.1667057897,0.1940189624,0.1044573926,0.08931191659,0.1390063108,0.15776736,0.1376670866,0.1263916765,0.1253850813,0.08288224913,0.08658084184,0.180192654,0.1986017091,0.1079568706,0.08557127959,0.1177568031,0.07602416838,0.1053950235,0.07530223045,0.046941443,0.0683712702,0.1307120186,0.1342706174,0.1041472057,0.0851611496,0.09617326867,0.1215415674,0.1643998368,0.1053598909,0.07893128195,0.1289265719,0.1176983283,0.1654267551,0.3809401434,0.5480916014,0.3376768116,0.2863481434,0.2631474366,0.192168525,0.2085281548,0.307026697,0.4268647922,0.3441196973,0.5915417369,0.5344608708,0.488789519,0.6741049806,0.5394460801,0.5873611211,0.4577265023,0.3044986114,0.2140809018,0.1950534215,0.1236751441,0.08917717454,0.1262493721,0.08267991552,0.0881929095,0.1576535932,0.2196921576,0.3271336481,0.3381128127,0.3061531399,0.1466296673,0.1028031811,0.1341943184,0.1382862266,0.1952763377,0.175538632,0.1171801347,0.06858995622,0.1281361492,0.3922686396,0.4068275165,0.3961529148,0.3286901443,0.1737363668,0.3251977663,0.7075017459,1,NaN,NaN],
	"ap": [NaN,0.5342826175,0.1141821345,0.4173801477,0.1531750915,0.04903693707,0.03419068831,0.06044766122,0.02087311083,0.03044390677,0.04663993078,0.01076681305,0.06604016422,0.03201582813,0.1011006851,0.02016332177,0.2261318768,0.04748932134,0.1640713924,0.05230807645,0.07702642837,0.1619527179,0.05707572374,0.695482645,0.4094123888,0.1987304478,0.2828820656,0.1949686648,0.07227492326,0.2306380985,0.05594086405,0.0716744835,0.1051696912,0.06168149556,0.01974372229,0.08460183977,0.04974646756,0.01282200869,0.00328515633,0.003302924645,0.01423083247,0.009775718299,0.05542297743,0.02865933198,0.1646869615,0.08392723961,0.04861568149,0.07920261385,0.04359393261,0.03707363704,0.09933500086,0.174171605,0.06858955675,0.06005391139,0.119082539,0.04703833386,0.02199493565,0.04960999788,0.03048986448,0.04294731629,0.0125390602,0.02742449809,0.1489716998,0.02707806594,0.0281000527,0.0131369034,0.01524931018,0.03085916302,0.02331352482,0.01634034505,0.1307483215,0.0409266006,0.01377542468,0.009732593541,0.01578902832,0.01665046412,0.003811841297,0.01675412237,0.003783379936,0.008164843906,0.002671541795,0.00255093516,0.001766165253,0.00301525909,0.0005203835697,0.00196420421,0.001965369092,0.003265016181,0.001327304427,0.00684801673,0.003543612496,0.001874495524,0.01047603007,0.003265744495,0.008272363627,0.004855866302,0.002161103465,0.003626725475,0.002253270016,0.009217482386,0.07556144426,0.01201014882,0.01656537285,0.1450432367,0.05611260109,0.2681470781,0.5576156387,0.2328961814,0.1793284494,0.1267890159,0.7908251129,0.1204615447,0.2152677071,0.2313075844,0.3448328652,0.1033396334,0.7061610638,0.5888578227,0.676697631,0.262739672,0.3165648201,0.06454292902,0.02361581124,0.05427640599,0.01412669255,0.03452997024,0.09861704765,0.6813918255,0.1192276299,0.08339779527,0.2375811911,0.2701307329,0.233326539,0.4358682064,0.2185736024,0.07654782587,0.08063668136,0.2078998582,0.01535170705,0.01067056922,0.01678407355,0.01140301063,0.02267117698,0.007593513809,0.03125405444,0.01386752268,0.006935123543,0.00339271154,0.01183500875,0.0190949439,0.04251292967,0.01684100531,0.05627514708,0.01391661408,0.008895919565,0.009412504395,0.05637379032,0.09967565194,0.1474187494,0.106415622,0.1063058806,0.2863158829,0.1487685635,0.5990848526,0.1459728679,0.07047609108,0.02387413916,0.01572543367,0.1460562306,0.01663363956,0.03669244005,0.08324557759,0.04904312091,0.0325387454,0.03268914409,0.8180503277,0.2515287826,0.0858228709,0.09177896366,0.05827921729,0.01528776724,0.124436526,0.04294093053,0.02596902297,0.08112879574,0.02111131852,0.05414768773,0.008802343816,0.1782200463,0.01871581006,0.006788554709,0.006679159731,0.009048454086,0.03330911061,0.01753153687,0.0522579638,0.06772424702,0.01207946342,0.002744779283,0.004500589274,0.007242345058,0.002488924538,0.005285265235,0.004580115354,0.004873171204,0.008844008216,0.00567677186,0.00938653417,0.001950203256,0.001140050586,0.004621254119,0.009226221578,0.009373286815,0.01465770432,0.08752283382,0.01916491484,0.01802825934,0.02206285165,0.01179120322,0.08363299529,0.03981391569,0.05059338297,0.01669419094,0.01055311932,0.04491369534,0.01879825602,0.0148976709,0.0178539534,0.006117159196,0.0006450001604,0.0003372771042,0.001025953461,0.001428397369,0.002652982627,0.002786765584,0.004024137678,0.002973193044,0.002366650899,0.001655680384,0.0003483159934,0.0001941615974,0.001182094453,0.001203855021,0.001261722622,0.01196896755,0.02070209596,0.2223408245,0.359670072,0.03188733766,0.02629720035,0.08024616892,0.009262346785,0.04610960673,0.1483076368,0.6114758069,0.1464462585,0.1323752368,0.5920097937,0.07338917221,0.01851265676,0.006723311474,0.005188950941,0.007583318893,0.007803527967,0.002252101793,0.02045054778,0.008862073101,0.01171282859,0.06874569621,0.0892984834,0.04260545374,0.005957446054,0.1031464276,0.01886593516,0.03090965743,0.01553127107,0.01597311134,0.006027620074,0.02102505226,0.008318114907,0.06166609231,0.0919257496,0.1542137846,0.121422996,0.07309520255,0.06911494647,0.03159707678,0.3992971453,0.4722605305,0.2820416866,0.1860999106,0.2112362949,0.09205205734,0.05330206162,0.05015356447,0.1087603667,0.2792045768,0.05877867552,0.02685709696,0.05208572319,0.1425262032,0.04698728804,0.03467505877,0.1222221648,0.03100364352,0.02756036007,0.07481955741,0.256278269,0.05683542485,0.05034772239,0.06611087367,0.05584841889,0.08101820006,0.0778521518,0.01743261271,0.05856927855,0.1160974705,0.06210787911,0.07153204059,0.04097437695,0.04787569039,0.02192079748,0.1159815545,0.0877537207,0.02855464823,0.06699070295,0.05773179669,0.05955457422,0.07535757414,0.1952445603,0.1156270021,0.1584833098,0.1103145072,0.1649211657,0.04730784704,0.1233707655,0.1160038097,0.5557398987,0.02235572656,0.3149308886,0.5032533013,0.5507948578,0.2614084846,0.4454853539,0.4230824712,0.2127515991,0.1170017881,0.1588882406,0.08418656103,0.0282617996,0.04091746107,0.05670268375,0.02594113488,0.2075339276,0.07166993937,0.1045544162,0.156381363,0.2504322118,0.05567734002,0.05850671247,0.1000359979,0.04899173212,0.1322377001,0.08287247019,0.04914293218,0.05189963926,0.04628140565,0.2152244659,0.1854552622,0.2559107619,0.1659822962,0.0510205059,0.2532695412,1,NaN,NaN],
	"pwr": [NaN,4.342841694e-07,1.487176611e-05,0.000214463842,0.003180869276,0.007451980856,0.02598224362,0.01770816077,0.06540857352,0.05348821945,0.0362402655,0.02876995801,0.0272230651,0.03767587014,0.01413646288,0.03852690335,0.02016198158,0.02307819313,0.01044256922,0.01023853305,0.003697575782,0.003300591435,0.005671190585,0.002849123892,0.006588544279,0.009037050672,0.002581811751,0.01214683596,0.004124510887,0.002588883239,0.003347782793,0.002057682422,0.003434766381,0.003185836819,0.01048506662,0.003331319335,0.009492709252,0.01353099072,0.0369415753,0.05170029059,0.02896964983,0.02754897074,0.007807826118,0.005390511627,0.003228118433,0.001724899963,0.006479141793,0.002363029464,0.00358518043,0.003996730361,0.001923012366,0.0007563770756,0.002237555229,0.002724095689,0.002444415438,0.005154717091,0.007900480503,0.008061039346,0.01630356533,0.008852415192,0.03396773255,0.01828816613,0.005714323772,0.02901117038,0.0238654605,0.01943232275,0.01774325227,0.0262391692,0.01600076265,0.007834682469,0.002833256862,0.007300172612,0.0137647873,0.007939720006,0.005179035637,0.006708238337,0.0111863119,0.00982614955,0.01084939306,0.009194064507,0.01266858343,0.01369288697,0.01636863605,0.02385107614,0.02131020736,0.01722693902,0.01561554146,0.01653979319,0.02205459258,0.01683321202,0.01363432859,0.01337690011,0.007851780353,0.006807346937,0.01100241862,0.01923286957,0.02571774285,0.03895142069,0.04329750085,0.02115045537,0.002370394251,0.0136385111,0.01980097577,0.004619719955,0.01345239388,0.01239031397,0.004392324288,0.02059976326,0.008720587991,0.008762212638,0.002732278442,0.00844017519,0.007301512088,0.01815601636,0.005675234926,0.01217265916,0.007438293164,0.005227434582,0.03304493288,0.02410411578,0.03554478799,0.1400649608,0.246442806,0.08726966059,0.1787231748,0.08628806544,0.05315628552,0.007153266453,0.02302588186,0.03963708279,0.04229633603,0.007151490585,0.01986370829,0.004958569711,0.005828316634,0.008500363834,0.007451928508,0.00186452216,0.0132076305,0.01496251582,0.008203612824,0.006882918534,0.004949432645,0.01495405612,0.008416669698,0.004968064878,0.01330253177,0.01532761365,0.005492724659,0.002973388025,0.0006634125143,0.00191582404,0.006053889133,0.004349292512,0.003542861947,0.001322634437,0.0001966234769,0.0001505517846,0.0001589183967,0.0001098530769,0.0001294971974,0.0001229660306,4.081085045e-05,7.446917196e-05,5.267061795e-05,0.003666052499,0.007617105022,0.02130899967,0.003527023133,0.007317505673,0.008683203181,0.007657971005,0.003021810572,0.002576657129,0.001485959781,0.00373141659,0.005840443568,0.00468144418,0.01403990761,0.06896213458,0.06493575874,0.0235085412,0.04306510856,0.02874096137,0.007565450174,0.03199884434,0.00513133651,0.0171692673,0.002911941344,0.01900664698,0.04690233183,0.06945744829,0.05254125309,0.01124205405,0.008183227796,0.00626144092,0.009941533038,0.05958333683,0.06739749624,0.07379801067,0.05845423444,0.1147917056,0.0876754492,0.1340275775,0.07662087229,0.04545280655,0.04175659529,0.05082714197,0.13121309,0.1677782833,0.1087990132,0.05408659925,0.04190432098,0.03192941802,0.03777426944,0.02736155717,0.1555379873,0.06207222438,0.1139374823,0.04886755588,0.03657836141,0.02988759327,0.03757310569,0.05640478067,0.02520216302,0.04695345228,0.05277945031,0.03105242864,0.05390681007,0.1144533733,0.08805225198,0.07421583387,0.07905416185,0.04958582106,0.02719810297,0.02452806814,0.02751687655,0.03329123283,0.0498685755,0.06641071759,0.07873282403,0.08532286275,0.09388194238,0.09636221674,0.04136339032,0.01983780324,0.01200992405,0.005010424028,0.02760154548,0.05446484226,0.03214509064,0.04696978845,0.02859876759,0.05942621551,0.006961975871,0.006669275101,0.007290531149,0.004047017567,0.01076048366,0.07221903842,0.03508961901,0.03265329032,0.05404389582,0.06791271522,0.05165243184,0.02586359179,0.03902348462,0.04012631539,0.03414552751,0.03743453131,0.07635154363,0.04973928306,0.0186057304,0.05957903699,0.04408830889,0.01424179934,0.03580273974,0.06978404219,0.07075236594,0.07227333629,0.01240808811,0.01465789536,0.0326749738,0.02447722479,0.02530485559,0.01535863426,0.02982795531,0.004331330298,0.01260033062,0.01328340738,0.01709859952,0.009636989367,0.01401758712,0.01788267787,0.03039612006,0.007333563873,0.004506474866,0.00444102733,0.007148647084,0.006851004824,0.003921983857,0.004336412909,0.002399411574,0.002143824431,0.00204030969,0.002930480104,0.0007566695651,0.0003729482748,0.0007662916057,0.0006044790895,0.0001896763836,0.000159357344,0.0001775542571,0.0001847460748,0.0001357397545,8.063698987e-05,2.733193084e-05,1.912877895e-05,1.522347583e-05,1.97810749e-05,7.296460804e-06,5.375251175e-06,2.396945323e-06,2.474825828e-06,3.522550724e-06,2.742241596e-06,2.748547035e-06,3.437083718e-06,1.748451881e-06,2.659665511e-07,5.719428901e-07,4.748132859e-07,4.620272172e-07,2.211708871e-07,1.604051505e-07,9.509537063e-08,1.523370654e-07,1.652105599e-07,3.270317816e-07,3.104998765e-08,6.136900847e-08,1.564187308e-07,1.652239247e-07,3.135655714e-08,8.124273791e-08,3.003881331e-08,5.886543274e-08,4.295886552e-08,3.138444767e-08,7.312095092e-08,3.782690645e-08,3.718310775e-08,4.039326213e-08,9.437032972e-09,1.95291582e-08,7.101078256e-09,1.645486052e-08,7.854166902e-09,1.125655715e-08,9.887006897e-09,8.579649746e-09,1.150516359e-08,2.755263331e-09,2.517784488e-09,7.661584162e-10,1.049136465e-09,5.600870483e-09,1.726035707e-09,6.657214762e-10,5.949097942e-10,4.562655625e-10,5.628268315e-10,4.398474551e-10,0,NaN,NaN],
	"sr": 16000,
	"range": [1,120337],
	"minf0": 63.1883,
	"maxf0": 706.3069,
	"thresh": 0.1,
	"relflag": 1,
	"hop": 320,
	"bufsize": 10000,
	"wsize": 640,
	"lpf": 4000,
	"shift": 0,
	"plotthreshold": 0.2
}
