{
    "DU": 73,
    "DV": 273,
    "F-measure": 0.6794258373205742,
    "F-measure Chroma": 0.8070175438596491,
    "FN": 36,
    "FNC": 3,
    "FNCch": 8,
    "FNI": 33,
    "FNIch": 28,
    "FP": 29,
    "GU": 66,
    "GV": 280,
    "Overall Accuracy": 0.615606936416185,
    "Overall Chroma Accuracy": 0.7312138728323699,
    "Precision": 0.6870967741935484,
    "Precision Chroma": 0.8161290322580645,
    "Raw Chroma Accuracy": 0.8,
    "Raw Pitch Accuracy": 0.6392857142857142,
    "Recall": 0.6719242902208202,
    "Recall Chroma": 0.7981072555205048,
    "TN": 37,
    "TO": 346,
    "TP": 244,
    "TPC": 176,
    "TPCch": 216,
    "TPI": 68,
    "TPIch": 28,
    "Voiced Chroma Accuracy": 0.7714285714285715,
    "Voiced Pitch Accuracy": 0.6285714285714286,
    "Voicing Accuracy": 0.8121387283236994,
    "Voicing Detection": 0.8714285714285714,
    "Voicing False Alarm": 0.4393939393939394
}