{
    "f0": [
        48.761360671172895,
        44.570822667061336,
        0.0,
        0.0,
        0.0,
        0.0,
        0.0,
        0.0,
        0.0,
        37.165102632752891,
        48.83990766408705,
        44.666508043438306,
        48.582607646801009,
        48.925444744570306,
        48.734299566023502,
        47.508884915719904,
        47.599296986902544,
        47.689241362650961,
        47.778722867116478,
        47.867740249023754,
        59.857124992224541,
        60.128112075392878,
        60.39493055959413,
        60.483708305663612,
        60.658803399869321,
        60.615249458530513,
        60.509581301976283,
        60.434483137209455,
        60.169390161817972,
        60.339583671170317,
        60.130310850239432,
        60.03105187686868,
        60.21752518519537,
        59.7858353377665,
        59.989850424335565,
        59.823761135635237,
        59.656060897362934,
        59.571546870904434,
        59.486617291420629,
        59.573537100861572,
        59.546910683460553,
        59.450572639360132,
        59.353695501298255,
        59.256275343303663,
        58.984304998365076,
        58.707996028502244,
        57.053402610393583,
        57.009452160490241,
        56.937968661276891,
        56.879961093516727,
        56.804938223882296,
        57.080868781920898,
        57.281068959151852,
        57.340315805586002,
        57.399361817248163,
        57.808392999913366,
        58.037765173790561,
        57.821031876556795,
        58.05482646435896,
        57.805885374040471,
        58.057731957089857,
        58.126271539503733,
        58.125937364672673,
        57.931609523775499,
        57.833449826733542,
        57.857594033199334,
        57.872601778137465,
        57.887596449649429,
        57.902574709154209,
        57.913781747875333,
        57.856387300207366,
        57.798804272936636,
        57.913294223957919,
        57.822426580109976,
        57.819380525354347,
        57.91910009949865,
        57.939041492121014,
        57.824570009550825,
        57.836675384245055,
        57.848772300365574,
        57.860863090854338,
        57.831547879666317,
        57.80218414650956,
        57.945032026099277,
        57.868246675605633,
        57.871547919409871,
        57.718643117115143,
        57.54067087487001,
        57.545095202098167,
        57.596019084402471,
        57.679934291263791,
        57.549427680392739,
        57.602639825504156,
        57.435942793405388,
        57.520150858460127,
        57.603947817482755,
        57.614102804947464,
        57.624253053729333,
        57.46040302352597,
        57.728103625569211,
        57.789254967560467,
        57.601611130702864,
        57.69603911931096,
        57.789953652142088,
        57.568049317721027,
        57.323512398774696,
        57.485671735254151,
        57.534340826205742,
        57.582869980269621,
        57.631264693816007,
        57.679525561661549,
        57.496793597444949,
        57.934970430676287,
        57.727860745408634,
        57.518244496451558,
        57.627923074738447,
        57.736908842418941,
        57.845217377247579,
        0.0,
        0.0,
        38.428121690017278,
        38.753319252820781,
        0.0,
        0.0,
        37.151086172620992,
        55.897486920727616,
        0.0,
        0.0,
        49.544697763381429,
        48.837972274176977,
        0.0,
        0.0,
        0.0,
        0.0,
        37.562770754703308,
        57.718541805525547,
        57.890805058892802,
        58.063067332061969,
        57.205416283135818,
        57.322819427100299,
        57.339559923146346,
        57.578501798480858,
        57.530944347353916,
        58.068733983133249,
        58.104998170213278,
        57.857723216721865,
        58.209334366665047,
        57.899183599604115,
        57.453133551567106,
        56.898240424500514,
        57.991166447654948,
        58.18681188412264,
        58.09010838523767,
        58.089602082201083,
        57.517044120686705,
        55.931856407927683,
        55.254695673227062,
        55.720412194349059,
        55.818484636006971,
        55.743883777715865,
        55.759270819487085,
        55.689445003483371,
        55.72675385366891,
        55.725337305096517,
        55.885736452765656,
        55.962362809725988,
        56.079670216749975,
        56.19618818482472,
        56.2002252479137,
        56.603023539729776,
        56.453153010402467,
        56.222570888888484,
        56.540889840740725,
        56.419587938384865,
        59.746594825339443,
        59.841009547159985,
        59.760914773139021,
        59.430940837295914,
        59.733936444084911,
        59.651734485995902,
        59.610586839255305,
        44.113938190925133,
        44.205215629253182,
        45.831388799624378,
        47.638946732665033,
        48.242158047124626,
        48.444317304094973,
        59.564215441377101,
        59.540876229703649,
        59.51750244945211,
        59.494099181232393,
        59.470664164813968,
        59.447201618147901,
        59.290796185467556,
        59.287762109904563,
        59.372246626702506,
        59.49478010321193,
        59.428992620311689,
        59.523468261337939,
        59.658829187447282,
        59.709115499271299,
        59.627203909356091,
        59.544897688916564,
        59.229582544261554,
        59.539027467772115,
        56.709731154129905,
        59.04295160207927,
        58.531603102254934,
        58.507475654137878,
        48.020302342408101,
        52.120698284894502,
        37.740088136463868,
        51.06486360922252,
        50.341734006278031,
        51.026946882963202,
        50.485978320654127,
        51.287058073497491,
        51.650914296724835,
        50.843238688783437,
        50.338860275961835,
        50.83105263505584,
        52.249242611714855,
        52.242781210324026,
        52.34493774069923,
        52.285651036960758,
        52.402922717419472,
        52.20557128919922,
        52.288993105981945,
        52.372018057642251,
        52.269245306190342,
        52.306060457890418,
        52.314853128887648,
        52.323642779838934,
        52.40729277388008,
        52.432242053638539,
        52.312287423382116,
        52.330343057142017,
        52.256398155354184,
        52.295380593839454,
        52.283968755527951,
        52.251440117089857,
        52.241086884986657,
        52.240226969830822,
        52.239370223543702,
        52.238514988924813,
        52.237659712054999,
        52.409066422141407,
        52.306682543175192,
        52.196127099611473,
        52.088666360874811,
        52.150885100643052,
        52.145841230576451,
        52.140795786382419,
        52.135753769739232,
        52.130710179988149,
        52.253185602081736,
        52.23650556523998,
        52.237556930936734,
        52.067935060949424,
        52.16959231012455,
        52.270656012278735,
        52.371133263322662,
        52.29703502376347,
        52.311398023475306,
        52.325749116953922,
        52.340086778944894,
        52.354415664054699,
        52.018976803309513,
        52.216689781303813,
        52.025189450570522,
        52.081007360192821,
        52.105132626591768,
        52.823973290796488,
        52.09095936713986,
        52.144347085604629,
        52.161244841269273,
        52.094987981609428,
        52.974374959012394,
        52.297621088963055,
        53.288291899363543,
        52.727832645161243,
        52.529526795722958,
        52.309556043524296,
        51.569246756170614,
        50.718605632328405,
        0.0,
        0.0,
        0.0,
        36.583964531991541,
        36.741267977050967,
        37.938548867063957,
        37.740350971392928,
        38.697833465821255,
        36.295358995879944,
        37.031483601996356,
        36.973406164058922,
        37.159632369683969,
        42.201556688301125,
        52.981350584823431,
        51.908565811223127,
        54.542359131331793,
        54.545940320703508,
        54.839812055612029,
        55.329475405462567,
        55.534338541443717,
        55.871426561480796,
        55.24816675397517,
        55.173167584375292,
        55.32491522937179,
        55.360665028886615,
        55.625916686281897,
        55.42472255435959,
        54.578194209799449,
        54.874226694395183,
        51.94415819828145,
        52.157690657514316,
        52.368626066210879,
        52.049701036110704,
        52.350546000695843,
        52.646252106341478,
        53.279816396487078,
        54.571070683832268,
        56.467522757971707,
        55.8826051390757,
        56.862009876480627,
        56.966316154761415,
        56.939654456881279,
        56.912951556489361,
        56.712214569321802,
        56.769630006228809,
        56.795589978627106,
        56.821511082146984,
        57.042323953139572,
        57.164382893340701,
        57.285588451516503,
        57.375357944102838,
        57.130135833656666,
        57.422919925522308,
        57.147283866200823,
        56.867188285743708,
        57.261491310428511,
        57.281988049133268,
        57.311727874415183,
        57.336797461600455,
        57.190139287196665,
        57.443005405358321,
        57.161601846612335,
        56.905273384226518,
        58.756102221999399,
        59.422925332123214,
        49.000561429499328,
        48.9370644309612,
        48.86925707087719,
        49.314964041390226,
        49.580806658567546,
        49.751911281179844,
        49.792323854741717,
        49.89712118443795,
        50.312095743686882,
        50.717354233561778,
        50.763589081139941,
        50.278271536900021,
        50.383085775400566,
        50.292952623910864,
        50.658479809426595,
        50.419099729733972,
        50.279677244181833,
        50.359750278506667,
        50.696450999736427,
        50.551377893801728,
        50.438040832847797,
        50.307379187588275,
        50.513734783176595,
        50.255338427200492,
        50.414141598411881,
        50.396668973395876,
        50.185658603769546,
        50.522060064507549,
        50.603117914037711,
        50.458375129425548,
        50.312412103623757,
        50.508040358314908,
        50.434653216257026,
        50.420165618478975,
        50.376061281435483,
        50.518956031361213,
        50.618819542841933,
        50.564937813207706,
        50.510889579266049,
        50.456665075958149,
        50.402273656604095,
        50.3477038794557,
        50.465222722227736,
        51.255825667046722,
        51.342871101234664,
        50.703557401525117,
        50.680485809078135,
        50.851271680652204,
        50.228579336176097,
        51.064823030110546,
        50.925726489573272,
        50.587866347548143,
        50.561338092233136,
        50.026467578778671,
        46.131487871350409,
        0.0,
        0.0,
        0.0,
        36.565856123290644,
        49.004935185622145,
        49.177196563534487,
        44.270627825717007,
        44.270627825717007,
        48.289952390615049,
        45.464518263172153,
        47.046753247834303,
        46.97967789238799,
        47.447100437060911,
        47.699832708249737,
        47.699220402719746,
        48.8887911266226,
        48.864084318100915,
        48.702600951477955,
        48.539599312773532,
        48.547311896223462,
        48.591737444483499,
        48.272243306122718,
        52.346062647531276,
        52.459323532900321,
        52.571853032379252,
        52.683652584644889,
        52.527410974595313,
        52.617454240352011,
        52.436417071162452,
        52.518188998725947,
        49.245051295140492,
        49.060075228019144,
        48.852561546104113,
        48.310474188996082,
        48.413898889594499,
        48.507800699939033,
        48.791420212671071,
        49.070467996514601,
        49.17109400517225,
        49.008098004608001,
        48.726085069809422,
        48.638412362774019,
        48.962297843441767,
        49.137671185445328,
        49.032248430656992,
        49.215287937629896,
        48.249251819586483,
        48.072670352732914,
        47.814604842910128,
        47.552635294407551,
        47.629463171505122,
        47.662276663970324,
        48.059664644448333,
        47.601466923674955,
        48.767093561043083,
        48.384432308886041,
        47.169958914808106,
        45.863818534650349,
        44.277038948101897,
        46.356124719534847,
        46.451463792715955,
        45.830540798084073,
        45.470082865602258,
        45.802378955824878,
        45.71186034882848,
        45.493003508006282,
        45.162223966772842,
        45.228478860024303,
        45.288505521882719,
        45.18536077639655,
        45.097123606304045,
        45.00843440599153,
        45.182332442427075,
        45.27701272050723,
        45.371181555359698,
        45.464838639402217,
        45.455939444454785,
        45.605495757697952,
        45.861403456292848,
        46.060625711830596,
        46.109786201442894,
        46.035516781431383,
        45.89136168156179,
        45.745997060353332,
        45.771668047989102,
        45.972248927570831,
        46.256538492117357,
        46.078054841737412,
        46.057896817799978,
        46.037721075940219,
        46.013810027811203,
        45.991725426260665,
        45.982381826558594,
        45.97303213984052,
        46.029149137471613,
        45.998304292877506,
        45.825993013076591,
        46.044064231382329,
        45.965161656106872,
        45.597536488366728,
        45.712709652342035,
        45.926779934483214,
        45.382358330169069,
        45.296561076530097,
        45.484359367557445,
        45.223604185791288,
        45.344355004147971,
        45.693257963954508,
        45.216666204817642,
        45.571376930245194,
        45.547132495520913,
        45.436965035412364,
        45.326096663540731,
        45.726245305694455,
        45.863127391574508,
        45.418800622338068,
        45.645392725206086,
        45.469596700591026,
        45.584593953194037,
        45.740733375354225,
        45.700731726464603,
        45.146958885592227,
        43.780252212377604,
        44.149766574242491,
        41.381111781800684,
        43.689380239311262,
        0.0,
        0.0,
        0.0,
        0.0,
        0.0,
        0.0,
        0.0,
        0.0,
        0.0,
        0.0,
        0.0,
        0.0,
        0.0,
        0.0,
        0.0,
        0.0,
        0.0,
        0.0,
        0.0,
        0.0,
        0.0,
        0.0,
        0.0,
        0.0,
        0.0,
        0.0,
        0.0,
        0.0,
        0.0,
        0.0,
        0.0,
        0.0,
        0.0,
        0.0,
        0.0,
        0.0,
        0.0,
        0.0,
        0.0,
        0.0,
        0.0,
        0.0,
        0.0,
        0.0,
        0.0,
        0.0,
        0.0,
        0.0,
        0.0,
        0.0,
        0.0,
        0.0,
        0.0,
        0.0,
        0.0,
        0.0,
        0.0,
        0.0,
        0.0,
        0.0,
        0.0,
        0.0,
        0.0,
        0.0
    ],
    "time": [
        0.02,
        0.040000000000000001,
        0.059999999999999998,
        0.080000000000000002,
        0.10000000000000001,
        0.12,
        0.14000000000000001,
        0.16,
        0.17999999999999999,
        0.20000000000000001,
        0.22,
        0.23999999999999999,
        0.26000000000000001,
        0.28000000000000003,
        0.29999999999999999,
        0.32000000000000001,
        0.34000000000000002,
        0.35999999999999999,
        0.38,
        0.40000000000000002,
        0.41999999999999998,
        0.44,
        0.46000000000000002,
        0.47999999999999998,
        0.5,
        0.52000000000000002,
        0.54000000000000004,
        0.56000000000000005,
        0.57999999999999996,
        0.59999999999999998,
        0.62,
        0.64000000000000001,
        0.66000000000000003,
        0.68000000000000005,
        0.69999999999999996,
        0.71999999999999997,
        0.73999999999999999,
        0.76000000000000001,
        0.78000000000000003,
        0.80000000000000004,
        0.81999999999999995,
        0.83999999999999997,
        0.85999999999999999,
        0.88,
        0.90000000000000002,
        0.92000000000000004,
        0.93999999999999995,
        0.95999999999999996,
        0.97999999999999998,
        1.0,
        1.02,
        1.04,
        1.0600000000000001,
        1.0800000000000001,
        1.1000000000000001,
        1.1200000000000001,
        1.1399999999999999,
        1.1599999999999999,
        1.1799999999999999,
        1.2,
        1.22,
        1.24,
        1.26,
        1.28,
        1.3,
        1.3200000000000001,
        1.3400000000000001,
        1.3600000000000001,
        1.3799999999999999,
        1.3999999999999999,
        1.4199999999999999,
        1.4399999999999999,
        1.46,
        1.48,
        1.5,
        1.52,
        1.54,
        1.5600000000000001,
        1.5800000000000001,
        1.6000000000000001,
        1.6200000000000001,
        1.6399999999999999,
        1.6599999999999999,
        1.6799999999999999,
        1.7,
        1.72,
        1.74,
        1.76,
        1.78,
        1.8,
        1.8200000000000001,
        1.8400000000000001,
        1.8600000000000001,
        1.8799999999999999,
        1.8999999999999999,
        1.9199999999999999,
        1.9399999999999999,
        1.96,
        1.98,
        2.0,
        2.02,
        2.04,
        2.0600000000000001,
        2.0800000000000001,
        2.1000000000000001,
        2.1200000000000001,
        2.1400000000000001,
        2.1600000000000001,
        2.1800000000000002,
        2.2000000000000002,
        2.2200000000000002,
        2.2400000000000002,
        2.2599999999999998,
        2.2799999999999998,
        2.2999999999999998,
        2.3199999999999998,
        2.3399999999999999,
        2.3599999999999999,
        2.3799999999999999,
        2.3999999999999999,
        2.4199999999999999,
        2.4399999999999999,
        2.46,
        2.48,
        2.5,
        2.52,
        2.54,
        2.5600000000000001,
        2.5800000000000001,
        2.6000000000000001,
        2.6200000000000001,
        2.6400000000000001,
        2.6600000000000001,
        2.6800000000000002,
        2.7000000000000002,
        2.7200000000000002,
        2.7400000000000002,
        2.7599999999999998,
        2.7799999999999998,
        2.7999999999999998,
        2.8199999999999998,
        2.8399999999999999,
        2.8599999999999999,
        2.8799999999999999,
        2.8999999999999999,
        2.9199999999999999,
        2.9399999999999999,
        2.96,
        2.98,
        3.0,
        3.02,
        3.04,
        3.0600000000000001,
        3.0800000000000001,
        3.1000000000000001,
        3.1200000000000001,
        3.1400000000000001,
        3.1600000000000001,
        3.1800000000000002,
        3.2000000000000002,
        3.2200000000000002,
        3.2400000000000002,
        3.2599999999999998,
        3.2799999999999998,
        3.2999999999999998,
        3.3199999999999998,
        3.3399999999999999,
        3.3599999999999999,
        3.3799999999999999,
        3.3999999999999999,
        3.4199999999999999,
        3.4399999999999999,
        3.46,
        3.48,
        3.5,
        3.52,
        3.54,
        3.5600000000000001,
        3.5800000000000001,
        3.6000000000000001,
        3.6200000000000001,
        3.6400000000000001,
        3.6600000000000001,
        3.6800000000000002,
        3.7000000000000002,
        3.7200000000000002,
        3.7400000000000002,
        3.7599999999999998,
        3.7799999999999998,
        3.7999999999999998,
        3.8199999999999998,
        3.8399999999999999,
        3.8599999999999999,
        3.8799999999999999,
        3.8999999999999999,
        3.9199999999999999,
        3.9399999999999999,
        3.96,
        3.98,
        4.0,
        4.0199999999999996,
        4.04,
        4.0599999999999996,
        4.0800000000000001,
        4.0999999999999996,
        4.1200000000000001,
        4.1399999999999997,
        4.1600000000000001,
        4.1799999999999997,
        4.2000000000000002,
        4.2199999999999998,
        4.2400000000000002,
        4.2599999999999998,
        4.2800000000000002,
        4.2999999999999998,
        4.3200000000000003,
        4.3399999999999999,
        4.3600000000000003,
        4.3799999999999999,
        4.4000000000000004,
        4.4199999999999999,
        4.4400000000000004,
        4.46,
        4.4800000000000004,
        4.5,
        4.5199999999999996,
        4.54,
        4.5599999999999996,
        4.5800000000000001,
        4.5999999999999996,
        4.6200000000000001,
        4.6399999999999997,
        4.6600000000000001,
        4.6799999999999997,
        4.7000000000000002,
        4.7199999999999998,
        4.7400000000000002,
        4.7599999999999998,
        4.7800000000000002,
        4.7999999999999998,
        4.8200000000000003,
        4.8399999999999999,
        4.8600000000000003,
        4.8799999999999999,
        4.9000000000000004,
        4.9199999999999999,
        4.9400000000000004,
        4.96,
        4.9800000000000004,
        5.0,
        5.0199999999999996,
        5.04,
        5.0599999999999996,
        5.0800000000000001,
        5.0999999999999996,
        5.1200000000000001,
        5.1399999999999997,
        5.1600000000000001,
        5.1799999999999997,
        5.2000000000000002,
        5.2199999999999998,
        5.2400000000000002,
        5.2599999999999998,
        5.2800000000000002,
        5.2999999999999998,
        5.3200000000000003,
        5.3399999999999999,
        5.3600000000000003,
        5.3799999999999999,
        5.4000000000000004,
        5.4199999999999999,
        5.4400000000000004,
        5.46,
        5.4800000000000004,
        5.5,
        5.5199999999999996,
        5.54,
        5.5599999999999996,
        5.5800000000000001,
        5.5999999999999996,
        5.6200000000000001,
        5.6399999999999997,
        5.6600000000000001,
        5.6799999999999997,
        5.7000000000000002,
        5.7199999999999998,
        5.7400000000000002,
        5.7599999999999998,
        5.7800000000000002,
        5.7999999999999998,
        5.8200000000000003,
        5.8399999999999999,
        5.8600000000000003,
        5.8799999999999999,
        5.9000000000000004,
        5.9199999999999999,
        5.9400000000000004,
        5.96,
        5.9800000000000004,
        6.0,
        6.0199999999999996,
        6.04,
        6.0599999999999996,
        6.0800000000000001,
        6.0999999999999996,
        6.1200000000000001,
        6.1399999999999997,
        6.1600000000000001,
        6.1799999999999997,
        6.2000000000000002,
        6.2199999999999998,
        6.2400000000000002,
        6.2599999999999998,
        6.2800000000000002,
        6.2999999999999998,
        6.3200000000000003,
        6.3399999999999999,
        6.3600000000000003,
        6.3799999999999999,
        6.4000000000000004,
        6.4199999999999999,
        6.4400000000000004,
        6.46,
        6.4800000000000004,
        6.5,
        6.5199999999999996,
        6.54,
        6.5599999999999996,
        6.5800000000000001,
        6.5999999999999996,
        6.6200000000000001,
        6.6399999999999997,
        6.6600000000000001,
        6.6799999999999997,
        6.7000000000000002,
        6.7199999999999998,
        6.7400000000000002,
        6.7599999999999998,
        6.7800000000000002,
        6.7999999999999998,
        6.8200000000000003,
        6.8399999999999999,
        6.8600000000000003,
        6.8799999999999999,
        6.9000000000000004,
        6.9199999999999999,
        6.9400000000000004,
        6.96,
        6.9800000000000004,
        7.0,
        7.0199999999999996,
        7.04,
        7.0599999999999996,
        7.0800000000000001,
        7.0999999999999996,
        7.1200000000000001,
        7.1399999999999997,
        7.1600000000000001,
        7.1799999999999997,
        7.2000000000000002,
        7.2199999999999998,
        7.2400000000000002,
        7.2599999999999998,
        7.2800000000000002,
        7.2999999999999998,
        7.3200000000000003,
        7.3399999999999999,
        7.3600000000000003,
        7.3799999999999999,
        7.4000000000000004,
        7.4199999999999999,
        7.4400000000000004,
        7.46,
        7.4800000000000004,
        7.5,
        7.5199999999999996,
        7.54,
        7.5599999999999996,
        7.5800000000000001,
        7.5999999999999996,
        7.6200000000000001,
        7.6399999999999997,
        7.6600000000000001,
        7.6799999999999997,
        7.7000000000000002,
        7.7199999999999998,
        7.7400000000000002,
        7.7599999999999998,
        7.7800000000000002,
        7.7999999999999998,
        7.8200000000000003,
        7.8399999999999999,
        7.8600000000000003,
        7.8799999999999999,
        7.9000000000000004,
        7.9199999999999999,
        7.9400000000000004,
        7.96,
        7.9800000000000004,
        8.0,
        8.0199999999999996,
        8.0399999999999991,
        8.0600000000000005,
        8.0800000000000001,
        8.0999999999999996,
        8.1199999999999992,
        8.1400000000000006,
        8.1600000000000001,
        8.1799999999999997,
        8.1999999999999993,
        8.2200000000000006,
        8.2400000000000002,
        8.2599999999999998,
        8.2799999999999994,
        8.3000000000000007,
        8.3200000000000003,
        8.3399999999999999,
        8.3599999999999994,
        8.3800000000000008,
        8.4000000000000004,
        8.4199999999999999,
        8.4399999999999995,
        8.4600000000000009,
        8.4800000000000004,
        8.5,
        8.5199999999999996,
        8.5399999999999991,
        8.5600000000000005,
        8.5800000000000001,
        8.5999999999999996,
        8.6199999999999992,
        8.6400000000000006,
        8.6600000000000001,
        8.6799999999999997,
        8.6999999999999993,
        8.7200000000000006,
        8.7400000000000002,
        8.7599999999999998,
        8.7799999999999994,
        8.8000000000000007,
        8.8200000000000003,
        8.8399999999999999,
        8.8599999999999994,
        8.8800000000000008,
        8.9000000000000004,
        8.9199999999999999,
        8.9399999999999995,
        8.9600000000000009,
        8.9800000000000004,
        9.0,
        9.0199999999999996,
        9.0399999999999991,
        9.0600000000000005,
        9.0800000000000001,
        9.0999999999999996,
        9.1199999999999992,
        9.1400000000000006,
        9.1600000000000001,
        9.1799999999999997,
        9.1999999999999993,
        9.2200000000000006,
        9.2400000000000002,
        9.2599999999999998,
        9.2799999999999994,
        9.3000000000000007,
        9.3200000000000003,
        9.3399999999999999,
        9.3599999999999994,
        9.3800000000000008,
        9.4000000000000004,
        9.4199999999999999,
        9.4399999999999995,
        9.4600000000000009,
        9.4800000000000004,
        9.5,
        9.5199999999999996,
        9.5399999999999991,
        9.5600000000000005,
        9.5800000000000001,
        9.5999999999999996,
        9.6199999999999992,
        9.6400000000000006,
        9.6600000000000001,
        9.6799999999999997,
        9.6999999999999993,
        9.7200000000000006,
        9.7400000000000002,
        9.7599999999999998,
        9.7799999999999994,
        9.8000000000000007,
        9.8200000000000003,
        9.8399999999999999,
        9.8599999999999994,
        9.8800000000000008,
        9.9000000000000004,
        9.9199999999999999,
        9.9399999999999995,
        9.9600000000000009,
        9.9800000000000004,
        10.0,
        10.02,
        10.039999999999999,
        10.06,
        10.08,
        10.1,
        10.119999999999999,
        10.140000000000001,
        10.16,
        10.18,
        10.199999999999999,
        10.220000000000001,
        10.24,
        10.26,
        10.279999999999999,
        10.300000000000001,
        10.32,
        10.34,
        10.359999999999999,
        10.380000000000001,
        10.4,
        10.42,
        10.44,
        10.460000000000001,
        10.48,
        10.5,
        10.52,
        10.539999999999999,
        10.56,
        10.58,
        10.6,
        10.619999999999999,
        10.640000000000001,
        10.66,
        10.68,
        10.699999999999999,
        10.720000000000001,
        10.74,
        10.76,
        10.779999999999999,
        10.800000000000001,
        10.82,
        10.84,
        10.859999999999999,
        10.880000000000001,
        10.9,
        10.92,
        10.94,
        10.960000000000001,
        10.98,
        11.0,
        11.02,
        11.039999999999999,
        11.06,
        11.08,
        11.1,
        11.119999999999999,
        11.140000000000001,
        11.16,
        11.18,
        11.199999999999999,
        11.220000000000001,
        11.24,
        11.26,
        11.279999999999999,
        11.300000000000001,
        11.32,
        11.34,
        11.359999999999999,
        11.380000000000001,
        11.4,
        11.42,
        11.44,
        11.460000000000001,
        11.48,
        11.5,
        11.52,
        11.539999999999999,
        11.56,
        11.58,
        11.6,
        11.619999999999999,
        11.640000000000001,
        11.66,
        11.68,
        11.699999999999999,
        11.720000000000001,
        11.74,
        11.76,
        11.779999999999999,
        11.800000000000001,
        11.82,
        11.84,
        11.859999999999999,
        11.880000000000001,
        11.9
    ]
}