{
    "f0": [
        0.0,
        0.0,
        0.0,
        0.0,
        0.0,
        0.0,
        0.0,
        41.812537666544429,
        40.971256674895528,
        41.017209611575808,
        41.284266652829132,
        41.946123910746152,
        42.948219086499577,
        42.861359749966255,
        43.026143036038619,
        43.507764534331841,
        44.665460299042998,
        44.70825482718174,
        45.623713357273076,
        45.047186364450894,
        44.910349565921877,
        44.180231668275169,
        44.347352417577525,
        48.118836605078954,
        45.366637358909685,
        47.349211024523598,
        44.883335437095248,
        44.605419179395575,
        45.295722982077763,
        48.453874449304223,
        53.683460170245198,
        53.516390412981501,
        53.738884508271461,
        54.037317224388133,
        53.962824738568031,
        53.337860617874426,
        53.494213744382591,
        53.162382499672489,
        53.143759766498221,
        52.937796864744882,
        52.839500065204234,
        53.089035454703023,
        52.873892368571433,
        53.166283287362603,
        53.122946607353114,
        53.224792344662646,
        53.883570171228513,
        53.784323372586115,
        53.431286403511677,
        54.022858745975583,
        54.175608275415321,
        54.455583181389677,
        54.501746672313892,
        54.924681239572095,
        54.618433707926172,
        55.170367815324497,
        54.932376480625244,
        55.392255708068333,
        54.919111296110756,
        54.684742908547491,
        54.767443940586681,
        54.52628181094866,
        54.702295974025056,
        54.858360996315469,
        54.987001706264394,
        54.680981675763149,
        54.510584709510738,
        54.520730473157975,
        54.616554239923389,
        54.838477512077844,
        54.712859007489001,
        54.847311277009268,
        54.661671185874646,
        54.844239321595708,
        54.735078505729852,
        54.768016256943831,
        54.738091872722904,
        54.641918109356553,
        54.659458234289033,
        54.525069769745556,
        0.0,
        0.0,
        0.0,
        0.0,
        0.0,
        0.0,
        0.0,
        0.0,
        0.0,
        0.0,
        0.0,
        0.0,
        0.0,
        0.0,
        0.0,
        0.0,
        0.0,
        0.0,
        0.0,
        0.0,
        0.0,
        0.0,
        0.0,
        0.0,
        0.0,
        0.0,
        0.0,
        0.0,
        0.0,
        0.0,
        0.0,
        0.0,
        54.300264363297813,
        50.441308481538833,
        50.637092570148496,
        54.21476394072279,
        54.250562215846131,
        54.752733762525367,
        54.498300629426851,
        0.0,
        0.0,
        54.744598507744996,
        54.822975220534843,
        54.01029210259874,
        54.609624371334263,
        54.429749651236449,
        0.0,
        0.0,
        0.0,
        0.0,
        0.0,
        0.0,
        0.0,
        0.0,
        0.0,
        0.0,
        0.0,
        0.0,
        0.0,
        0.0,
        0.0,
        0.0,
        0.0,
        0.0,
        0.0,
        0.0,
        0.0,
        0.0,
        0.0,
        0.0,
        63.434973221950884,
        64.232416423198288,
        0.0,
        0.0,
        0.0,
        0.0,
        0.0,
        0.0,
        53.935162609976437,
        53.927033920970757,
        54.262442411422363,
        54.369094167468454,
        54.41197229140036,
        54.355413854067073,
        54.3862648253101,
        54.355826500967851,
        54.242264895675603,
        54.15050838737055,
        54.062150565368157,
        53.967371856694754,
        53.955535061648391,
        54.008441030334467,
        54.258150732960196,
        54.183743983867402,
        54.24388407799546,
        54.169397506088622,
        54.343552446518771,
        54.343132534327992,
        54.387401518171231,
        54.437027546642426,
        54.237465424018609,
        54.191545556125057,
        54.347463278372111,
        54.134985196907529,
        54.16943568625905,
        54.132835660418166,
        53.800536655884365,
        54.713833291173579,
        53.227848957999512,
        53.859531501927911,
        53.968713765328033,
        53.799297243447889,
        54.627412027253413,
        53.499597086757909,
        51.215714288096436,
        50.946204956633323,
        50.959612399718999,
        50.816373049200536,
        50.787877447709917,
        50.961595272539036,
        51.018330004305511,
        50.782924209856077,
        50.615534823147044,
        50.061570392841588,
        50.739973471970522,
        51.306893717082787,
        50.815029262756646,
        50.365424992394018,
        50.835340722453608,
        50.718206909375887,
        51.048469446589188,
        50.427575885395967,
        48.364881960808866,
        48.542899208197746,
        48.350184368061306,
        48.110870616372253,
        48.323425789853779,
        48.426578272172009,
        48.873913643213115,
        49.362832362067863,
        49.132254601420556,
        49.754825624945255,
        48.763076697732686,
        48.939373367872989,
        49.064808076363164,
        49.427420939330872,
        49.536894134919258,
        49.656829510896443,
        49.45016927052329,
        49.760851765919895,
        50.000264228999455,
        50.233727570976285,
        49.848373913347203,
        49.757374555941453,
        50.088228896582891,
        50.016387237340368,
        50.11841686209614,
        50.149005370735161,
        50.325418731705994,
        50.292448565539168,
        50.376172268867862,
        50.643152219765369,
        49.804271420840692,
        50.575400031595493,
        50.462033171802631,
        49.634865847621242,
        49.406365054730237,
        50.63341597774108,
        48.426422677927533,
        49.040893233268342,
        48.206549661170186,
        47.950308646097135,
        47.965448580731888,
        48.302885534722947,
        47.901876702777088,
        48.563774429583844,
        49.807779164575535,
        49.318437549466481,
        49.384973955580733,
        49.686197583203601,
        50.573024411929836,
        50.269521819447661,
        0.0,
        0.0,
        0.0,
        0.0,
        49.252980048583453,
        50.037073619743381,
        50.173046950827342,
        50.140975158641176,
        49.60179152669923,
        0.0,
        0.0,
        0.0,
        46.242004343621062,
        47.332182134000554,
        46.217436017621509,
        46.076664830598745,
        45.909352621534666,
        45.834622764918379,
        45.274725977778211,
        0.0,
        0.0,
        0.0,
        45.263491257461254,
        45.897695918393488,
        46.395303374095462,
        47.046179212069944,
        45.699808074135376,
        46.075516090504664,
        46.755866873863447,
        46.28557593362072,
        46.125728096566789,
        46.191428297111877,
        46.065294020391562,
        46.241984128063393,
        46.234192642263238,
        45.652284865010671,
        43.877871926318036,
        45.923289936447674,
        48.627353817746453,
        47.061528291905113,
        42.646857117036369,
        42.007444749596644,
        0.0,
        0.0,
        0.0,
        45.958080565706446,
        45.890106994238756,
        46.500514994097834,
        46.452172654904317,
        46.403831077493336,
        47.297033995023732,
        46.538742365666437,
        46.360884980886397,
        46.569736666664355,
        46.423322785014079,
        46.618817591942154,
        46.160487492797628,
        46.750744024073086,
        46.483283618878161,
        46.460175805079913,
        46.561269461636421,
        46.553428166144798,
        46.605441375301872,
        42.747427020870553,
        43.801737315208584,
        0.0,
        0.0,
        0.0,
        47.649704743156214,
        48.074238846787694,
        48.316770773070687,
        46.992255465726117,
        47.553908591492821,
        47.946038893006175,
        47.300408129590842,
        46.306115405247347,
        47.375529712523424,
        47.213375865279289,
        47.592894210282424,
        47.596351656965581,
        48.266847199475592,
        46.987768412827045,
        46.596648898851093,
        47.327325825281093,
        47.672620978147528,
        47.534126063248891,
        47.371808990414557,
        46.990563364812964,
        47.688591627151609,
        47.263839471321589,
        47.454787012462731,
        47.239848882323358,
        47.25132064954235,
        47.125225398069688,
        47.307983513624286,
        47.398833437766498,
        47.165908771090741,
        47.362246984855631,
        47.018485013904936,
        47.442308654460604,
        47.399383293335276,
        47.234399878089206,
        47.360408435179394,
        46.881202181507767,
        47.007871603898209,
        47.714957064073488,
        47.642721815009381,
        47.427647382845194,
        47.153295559328342,
        46.337315181520381,
        47.132111259196904,
        46.829040876423335,
        47.848554815956973,
        47.591333255773215,
        47.544804414201081,
        47.526296189481272,
        48.067744789936754,
        47.418897403127623,
        45.190155943432686,
        0.0,
        0.0,
        0.0,
        0.0,
        0.0,
        0.0,
        0.0,
        0.0,
        0.0,
        0.0,
        0.0,
        0.0,
        0.0,
        0.0,
        0.0,
        0.0,
        0.0,
        47.448551621970452,
        46.715507799331057,
        46.948919158848867,
        47.727210933417844,
        48.118425458778233,
        47.657261815243032,
        47.67985731111898,
        47.907158236681781,
        47.249014741523709,
        47.024693515025376,
        46.957750053248688,
        46.92335431145613,
        48.228445952443977,
        47.680464235417432,
        47.424971233389527,
        47.768728266611411,
        54.482083757014664,
        54.302337024550859,
        54.13604640196003,
        53.963458604880593,
        54.391423865268649,
        53.851745992652368,
        54.00986674106975,
        53.124203798615511,
        53.241050145649567,
        53.125639745659285,
        53.271576554808078,
        53.677078953432073,
        54.462869725211121,
        54.222765792484843,
        54.673782235150874,
        54.315232033779161,
        54.442587723626396,
        54.343331253055467,
        54.492466895635324,
        54.704781719861465,
        54.76581694765477,
        54.828080705342927,
        54.588138977292502,
        53.030152594309534,
        55.921211781436149,
        0.0,
        0.0,
        0.0,
        44.204764294660833,
        44.318687686737789,
        45.480960109139829,
        0.0,
        0.0,
        0.0,
        44.552261905503912,
        43.960646625451808,
        44.259349834654344,
        45.06676252556251,
        44.819409797593494,
        44.57205345022836,
        44.592201069179438,
        44.422336825830804,
        44.668724784552445,
        45.105670864275844,
        44.88788502153038,
        44.670097972412648,
        44.749385906289355,
        44.828669850804097,
        44.714796508079772,
        44.879691516991741,
        44.858312988369761,
        44.76150567069179,
        44.745538153778149,
        43.876973845789713,
        0.0,
        0.0,
        0.0,
        0.0,
        0.0,
        0.0,
        0.0,
        0.0,
        0.0,
        0.0,
        0.0,
        0.0,
        0.0,
        0.0,
        0.0,
        0.0,
        0.0,
        0.0,
        0.0,
        0.0,
        0.0,
        0.0,
        0.0,
        0.0,
        0.0,
        0.0,
        0.0,
        0.0,
        0.0,
        0.0,
        0.0,
        0.0,
        0.0,
        0.0,
        0.0,
        0.0,
        0.0,
        0.0,
        0.0,
        0.0,
        0.0,
        0.0,
        0.0,
        0.0,
        0.0,
        0.0,
        0.0,
        0.0,
        0.0,
        0.0,
        0.0,
        0.0,
        0.0,
        0.0,
        0.0,
        0.0,
        0.0,
        0.0,
        0.0,
        0.0,
        0.0,
        0.0,
        0.0,
        0.0,
        0.0,
        0.0,
        0.0,
        0.0,
        0.0,
        0.0,
        0.0,
        0.0
    ],
    "time": [
        0.02,
        0.040000000000000001,
        0.059999999999999998,
        0.080000000000000002,
        0.10000000000000001,
        0.12,
        0.14000000000000001,
        0.16,
        0.17999999999999999,
        0.20000000000000001,
        0.22,
        0.23999999999999999,
        0.26000000000000001,
        0.28000000000000003,
        0.29999999999999999,
        0.32000000000000001,
        0.34000000000000002,
        0.35999999999999999,
        0.38,
        0.40000000000000002,
        0.41999999999999998,
        0.44,
        0.46000000000000002,
        0.47999999999999998,
        0.5,
        0.52000000000000002,
        0.54000000000000004,
        0.56000000000000005,
        0.57999999999999996,
        0.59999999999999998,
        0.62,
        0.64000000000000001,
        0.66000000000000003,
        0.68000000000000005,
        0.69999999999999996,
        0.71999999999999997,
        0.73999999999999999,
        0.76000000000000001,
        0.78000000000000003,
        0.80000000000000004,
        0.81999999999999995,
        0.83999999999999997,
        0.85999999999999999,
        0.88,
        0.90000000000000002,
        0.92000000000000004,
        0.93999999999999995,
        0.95999999999999996,
        0.97999999999999998,
        1.0,
        1.02,
        1.04,
        1.0600000000000001,
        1.0800000000000001,
        1.1000000000000001,
        1.1200000000000001,
        1.1399999999999999,
        1.1599999999999999,
        1.1799999999999999,
        1.2,
        1.22,
        1.24,
        1.26,
        1.28,
        1.3,
        1.3200000000000001,
        1.3400000000000001,
        1.3600000000000001,
        1.3799999999999999,
        1.3999999999999999,
        1.4199999999999999,
        1.4399999999999999,
        1.46,
        1.48,
        1.5,
        1.52,
        1.54,
        1.5600000000000001,
        1.5800000000000001,
        1.6000000000000001,
        1.6200000000000001,
        1.6399999999999999,
        1.6599999999999999,
        1.6799999999999999,
        1.7,
        1.72,
        1.74,
        1.76,
        1.78,
        1.8,
        1.8200000000000001,
        1.8400000000000001,
        1.8600000000000001,
        1.8799999999999999,
        1.8999999999999999,
        1.9199999999999999,
        1.9399999999999999,
        1.96,
        1.98,
        2.0,
        2.02,
        2.04,
        2.0600000000000001,
        2.0800000000000001,
        2.1000000000000001,
        2.1200000000000001,
        2.1400000000000001,
        2.1600000000000001,
        2.1800000000000002,
        2.2000000000000002,
        2.2200000000000002,
        2.2400000000000002,
        2.2599999999999998,
        2.2799999999999998,
        2.2999999999999998,
        2.3199999999999998,
        2.3399999999999999,
        2.3599999999999999,
        2.3799999999999999,
        2.3999999999999999,
        2.4199999999999999,
        2.4399999999999999,
        2.46,
        2.48,
        2.5,
        2.52,
        2.54,
        2.5600000000000001,
        2.5800000000000001,
        2.6000000000000001,
        2.6200000000000001,
        2.6400000000000001,
        2.6600000000000001,
        2.6800000000000002,
        2.7000000000000002,
        2.7200000000000002,
        2.7400000000000002,
        2.7599999999999998,
        2.7799999999999998,
        2.7999999999999998,
        2.8199999999999998,
        2.8399999999999999,
        2.8599999999999999,
        2.8799999999999999,
        2.8999999999999999,
        2.9199999999999999,
        2.9399999999999999,
        2.96,
        2.98,
        3.0,
        3.02,
        3.04,
        3.0600000000000001,
        3.0800000000000001,
        3.1000000000000001,
        3.1200000000000001,
        3.1400000000000001,
        3.1600000000000001,
        3.1800000000000002,
        3.2000000000000002,
        3.2200000000000002,
        3.2400000000000002,
        3.2599999999999998,
        3.2799999999999998,
        3.2999999999999998,
        3.3199999999999998,
        3.3399999999999999,
        3.3599999999999999,
        3.3799999999999999,
        3.3999999999999999,
        3.4199999999999999,
        3.4399999999999999,
        3.46,
        3.48,
        3.5,
        3.52,
        3.54,
        3.5600000000000001,
        3.5800000000000001,
        3.6000000000000001,
        3.6200000000000001,
        3.6400000000000001,
        3.6600000000000001,
        3.6800000000000002,
        3.7000000000000002,
        3.7200000000000002,
        3.7400000000000002,
        3.7599999999999998,
        3.7799999999999998,
        3.7999999999999998,
        3.8199999999999998,
        3.8399999999999999,
        3.8599999999999999,
        3.8799999999999999,
        3.8999999999999999,
        3.9199999999999999,
        3.9399999999999999,
        3.96,
        3.98,
        4.0,
        4.0199999999999996,
        4.04,
        4.0599999999999996,
        4.0800000000000001,
        4.0999999999999996,
        4.1200000000000001,
        4.1399999999999997,
        4.1600000000000001,
        4.1799999999999997,
        4.2000000000000002,
        4.2199999999999998,
        4.2400000000000002,
        4.2599999999999998,
        4.2800000000000002,
        4.2999999999999998,
        4.3200000000000003,
        4.3399999999999999,
        4.3600000000000003,
        4.3799999999999999,
        4.4000000000000004,
        4.4199999999999999,
        4.4400000000000004,
        4.46,
        4.4800000000000004,
        4.5,
        4.5199999999999996,
        4.54,
        4.5599999999999996,
        4.5800000000000001,
        4.5999999999999996,
        4.6200000000000001,
        4.6399999999999997,
        4.6600000000000001,
        4.6799999999999997,
        4.7000000000000002,
        4.7199999999999998,
        4.7400000000000002,
        4.7599999999999998,
        4.7800000000000002,
        4.7999999999999998,
        4.8200000000000003,
        4.8399999999999999,
        4.8600000000000003,
        4.8799999999999999,
        4.9000000000000004,
        4.9199999999999999,
        4.9400000000000004,
        4.96,
        4.9800000000000004,
        5.0,
        5.0199999999999996,
        5.04,
        5.0599999999999996,
        5.0800000000000001,
        5.0999999999999996,
        5.1200000000000001,
        5.1399999999999997,
        5.1600000000000001,
        5.1799999999999997,
        5.2000000000000002,
        5.2199999999999998,
        5.2400000000000002,
        5.2599999999999998,
        5.2800000000000002,
        5.2999999999999998,
        5.3200000000000003,
        5.3399999999999999,
        5.3600000000000003,
        5.3799999999999999,
        5.4000000000000004,
        5.4199999999999999,
        5.4400000000000004,
        5.46,
        5.4800000000000004,
        5.5,
        5.5199999999999996,
        5.54,
        5.5599999999999996,
        5.5800000000000001,
        5.5999999999999996,
        5.6200000000000001,
        5.6399999999999997,
        5.6600000000000001,
        5.6799999999999997,
        5.7000000000000002,
        5.7199999999999998,
        5.7400000000000002,
        5.7599999999999998,
        5.7800000000000002,
        5.7999999999999998,
        5.8200000000000003,
        5.8399999999999999,
        5.8600000000000003,
        5.8799999999999999,
        5.9000000000000004,
        5.9199999999999999,
        5.9400000000000004,
        5.96,
        5.9800000000000004,
        6.0,
        6.0199999999999996,
        6.04,
        6.0599999999999996,
        6.0800000000000001,
        6.0999999999999996,
        6.1200000000000001,
        6.1399999999999997,
        6.1600000000000001,
        6.1799999999999997,
        6.2000000000000002,
        6.2199999999999998,
        6.2400000000000002,
        6.2599999999999998,
        6.2800000000000002,
        6.2999999999999998,
        6.3200000000000003,
        6.3399999999999999,
        6.3600000000000003,
        6.3799999999999999,
        6.4000000000000004,
        6.4199999999999999,
        6.4400000000000004,
        6.46,
        6.4800000000000004,
        6.5,
        6.5199999999999996,
        6.54,
        6.5599999999999996,
        6.5800000000000001,
        6.5999999999999996,
        6.6200000000000001,
        6.6399999999999997,
        6.6600000000000001,
        6.6799999999999997,
        6.7000000000000002,
        6.7199999999999998,
        6.7400000000000002,
        6.7599999999999998,
        6.7800000000000002,
        6.7999999999999998,
        6.8200000000000003,
        6.8399999999999999,
        6.8600000000000003,
        6.8799999999999999,
        6.9000000000000004,
        6.9199999999999999,
        6.9400000000000004,
        6.96,
        6.9800000000000004,
        7.0,
        7.0199999999999996,
        7.04,
        7.0599999999999996,
        7.0800000000000001,
        7.0999999999999996,
        7.1200000000000001,
        7.1399999999999997,
        7.1600000000000001,
        7.1799999999999997,
        7.2000000000000002,
        7.2199999999999998,
        7.2400000000000002,
        7.2599999999999998,
        7.2800000000000002,
        7.2999999999999998,
        7.3200000000000003,
        7.3399999999999999,
        7.3600000000000003,
        7.3799999999999999,
        7.4000000000000004,
        7.4199999999999999,
        7.4400000000000004,
        7.46,
        7.4800000000000004,
        7.5,
        7.5199999999999996,
        7.54,
        7.5599999999999996,
        7.5800000000000001,
        7.5999999999999996,
        7.6200000000000001,
        7.6399999999999997,
        7.6600000000000001,
        7.6799999999999997,
        7.7000000000000002,
        7.7199999999999998,
        7.7400000000000002,
        7.7599999999999998,
        7.7800000000000002,
        7.7999999999999998,
        7.8200000000000003,
        7.8399999999999999,
        7.8600000000000003,
        7.8799999999999999,
        7.9000000000000004,
        7.9199999999999999,
        7.9400000000000004,
        7.96,
        7.9800000000000004,
        8.0,
        8.0199999999999996,
        8.0399999999999991,
        8.0600000000000005,
        8.0800000000000001,
        8.0999999999999996,
        8.1199999999999992,
        8.1400000000000006,
        8.1600000000000001,
        8.1799999999999997,
        8.1999999999999993,
        8.2200000000000006,
        8.2400000000000002,
        8.2599999999999998,
        8.2799999999999994,
        8.3000000000000007,
        8.3200000000000003,
        8.3399999999999999,
        8.3599999999999994,
        8.3800000000000008,
        8.4000000000000004,
        8.4199999999999999,
        8.4399999999999995,
        8.4600000000000009,
        8.4800000000000004,
        8.5,
        8.5199999999999996,
        8.5399999999999991,
        8.5600000000000005,
        8.5800000000000001,
        8.5999999999999996,
        8.6199999999999992,
        8.6400000000000006,
        8.6600000000000001,
        8.6799999999999997,
        8.6999999999999993,
        8.7200000000000006,
        8.7400000000000002,
        8.7599999999999998,
        8.7799999999999994,
        8.8000000000000007,
        8.8200000000000003,
        8.8399999999999999,
        8.8599999999999994,
        8.8800000000000008,
        8.9000000000000004,
        8.9199999999999999,
        8.9399999999999995,
        8.9600000000000009,
        8.9800000000000004,
        9.0,
        9.0199999999999996,
        9.0399999999999991,
        9.0600000000000005,
        9.0800000000000001,
        9.0999999999999996,
        9.1199999999999992,
        9.1400000000000006,
        9.1600000000000001,
        9.1799999999999997,
        9.1999999999999993,
        9.2200000000000006,
        9.2400000000000002,
        9.2599999999999998,
        9.2799999999999994,
        9.3000000000000007,
        9.3200000000000003,
        9.3399999999999999,
        9.3599999999999994,
        9.3800000000000008,
        9.4000000000000004,
        9.4199999999999999,
        9.4399999999999995,
        9.4600000000000009,
        9.4800000000000004,
        9.5,
        9.5199999999999996,
        9.5399999999999991,
        9.5600000000000005,
        9.5800000000000001,
        9.5999999999999996,
        9.6199999999999992,
        9.6400000000000006,
        9.6600000000000001,
        9.6799999999999997,
        9.6999999999999993,
        9.7200000000000006,
        9.7400000000000002,
        9.7599999999999998,
        9.7799999999999994,
        9.8000000000000007,
        9.8200000000000003,
        9.8399999999999999,
        9.8599999999999994,
        9.8800000000000008,
        9.9000000000000004,
        9.9199999999999999,
        9.9399999999999995,
        9.9600000000000009,
        9.9800000000000004,
        10.0,
        10.02,
        10.039999999999999,
        10.06,
        10.08,
        10.1,
        10.119999999999999,
        10.140000000000001,
        10.16,
        10.18,
        10.199999999999999,
        10.220000000000001,
        10.24,
        10.26,
        10.279999999999999,
        10.300000000000001,
        10.32,
        10.34,
        10.359999999999999,
        10.380000000000001,
        10.4,
        10.42,
        10.44,
        10.460000000000001,
        10.48,
        10.5,
        10.52,
        10.539999999999999,
        10.56,
        10.58,
        10.6,
        10.619999999999999,
        10.640000000000001,
        10.66,
        10.68,
        10.699999999999999,
        10.720000000000001,
        10.74,
        10.76,
        10.779999999999999,
        10.800000000000001
    ]
}