{
    "f0": [
        76.412228180679975,
        43.379604628597143,
        76.367485348201981,
        46.548012330842703,
        48.624833492105807,
        43.561620731926553,
        45.75744613855754,
        46.414283562719106,
        45.834297760787962,
        46.159819426033167,
        43.385750827763552,
        43.27934905990751,
        40.215197070209022,
        38.89251231831966,
        76.691285341220947,
        43.652973311996973,
        44.305537574672542,
        40.447855409988904,
        45.720370984828065,
        43.851919317644366,
        44.704181791223867,
        44.594561392237495,
        39.219500708966045,
        0.0,
        43.86169110855046,
        43.160845404849177,
        46.36030331411861,
        43.335147599679594,
        46.015139492263714,
        43.042905918937592,
        43.319274193799011,
        47.015533185462445,
        49.549892702686421,
        52.965118363781961,
        49.184387097077206,
        52.67757173333613,
        53.045211926110042,
        55.206151473073646,
        55.456201914559969,
        56.019136177644832,
        55.523740793288766,
        43.717921911519994,
        43.481453958318546,
        41.809965099685471,
        43.562539254160285,
        48.967494903251549,
        49.859388779643695,
        49.591808814334556,
        46.685480548788732,
        43.530944280942727,
        43.70371327176457,
        43.39780447715416,
        43.355987591711155,
        43.361909663874208,
        43.543175674065481,
        46.388136803317465,
        50.059306037511966,
        43.734260964307921,
        44.033352504528281,
        44.153369401559921,
        44.359178680824314,
        44.562572434902776,
        41.385592414080477,
        41.655049162463115,
        53.87731555210717,
        54.084792826174898,
        54.319156341846522,
        54.535920105246966,
        54.56728602943339,
        54.690029239696202,
        54.766573747132227,
        54.708570753219689,
        54.720438097484838,
        54.720603806994234,
        54.678201406188521,
        54.575800655467944,
        54.472786511182555,
        54.369155636067859,
        54.437165423106784,
        54.497183743605945,
        54.556993261685491,
        55.12833561769331,
        56.834075220828083,
        57.34201588034621,
        57.463024321553164,
        57.595136208689595,
        57.546328556125793,
        57.536059186069437,
        57.332450343592235,
        57.396776699552916,
        57.419451128051463,
        58.471554964533453,
        58.810921259155229,
        58.939526435412283,
        59.511684189101572,
        59.677713695064952,
        59.685575198406397,
        59.59787199687878,
        59.298429386838208,
        59.273826540066253,
        59.452333954938375,
        59.488564214718863,
        59.245183366728938,
        59.38070212923499,
        57.559385662067641,
        56.730254642306107,
        56.540535982227411,
        56.269333972181556,
        56.271292813873664,
        56.351925275855969,
        56.565336962890157,
        56.650252925805482,
        56.734755691825043,
        56.991107357500603,
        56.985057410181156,
        57.08443834395662,
        57.183247289645358,
        57.171125476317101,
        57.230140176510737,
        57.338782786651578,
        57.24801449815525,
        57.156765464293841,
        57.237300192470769,
        57.317460781521817,
        57.0474953306245,
        57.18582166832293,
        57.18413117815691,
        56.794006760231596,
        56.594721136246662,
        56.635142609147991,
        56.523309140739592,
        56.578350386820894,
        56.639520049280307,
        56.630448774043195,
        56.748675556153465,
        56.786022767193032,
        56.863290406572311,
        56.906222294900203,
        57.138273596524598,
        57.118759106506289,
        56.711395392149512,
        56.836774889947776,
        56.534764295776206,
        56.79818992671639,
        56.731219348486803,
        57.371710388753819,
        57.524115645131374,
        57.557592884517774,
        57.439480942370793,
        57.404178957568234,
        57.326961551542084,
        57.249395788216894,
        57.343740474723788,
        57.310450639920681,
        57.474429407335293,
        57.212191490707447,
        57.146688596953091,
        56.630707628847247,
        56.098874577005851,
        55.604904670384499,
        55.411105594044464,
        55.215112406908645,
        55.131318831426654,
        55.332543132092965,
        55.375830535568426,
        55.322808000090433,
        55.269625182314542,
        55.216278485489724,
        55.162761558862648,
        55.281344958543613,
        55.052323971945832,
        55.15442263772286,
        55.334359629285686,
        56.019282332813269,
        56.08627404871622,
        55.923004652315683,
        55.999407984564712,
        56.643072681262133,
        55.937537572045699,
        53.066069110881259,
        52.307446187315037,
        51.839716850426186,
        52.528749452285723,
        49.061232017040858,
        51.003942609486209,
        50.930676586869495,
        0.0,
        0.0,
        38.376334133878849,
        55.851076315616424,
        44.744129407628627,
        56.114700162854895,
        55.9407074882307,
        55.887809583111299,
        55.773239418054217,
        56.200620166865804,
        55.979574565922292,
        55.984779234044652,
        56.226724907023133,
        55.999229895492874,
        55.889481736325166,
        57.131499148526323,
        57.273747401867006,
        57.022074971423727,
        56.780963549527755,
        56.701470011265421,
        56.561629116354737,
        56.27691505484048,
        56.190810126076371,
        56.138780653874889,
        56.122903813371622,
        56.08505503103121,
        56.058132059951923,
        56.025656412469452,
        55.468559628667819,
        55.508896658085078,
        56.165302615783403,
        0.0,
        0.0,
        0.0,
        0.0,
        0.0,
        57.940426721381456,
        43.239689336233383,
        55.124823449465396,
        54.950832054477274,
        54.982226268821364,
        55.013565068064892,
        54.695093077354059,
        54.872143970131539,
        54.861897807258472,
        54.813402874288258,
        54.736801480456911,
        54.65985964383038,
        54.474278656420928,
        54.226285402663812,
        54.005356499082062,
        53.938307005487275,
        53.265181783768782,
        53.225709238536908,
        53.369835539819725,
        52.588592857127786,
        52.843674270768197,
        53.561626804985551,
        52.466842067876087,
        52.458802247318047,
        51.705876498535417,
        51.484733556117263,
        51.319177897451439,
        50.948543648568346,
        51.016923644505553,
        52.841964407013144,
        53.042667754316099,
        52.967481451050929,
        52.778565672378683,
        52.7877173721917,
        52.854350845852288,
        52.920728836924525,
        52.868495290658082,
        52.705948364372972,
        52.769816958233321,
        52.952644028959895,
        52.72493244966013,
        52.806980805143965,
        52.99856621434229,
        53.133778137340016,
        57.734762601715914,
        57.861731321184209,
        57.813781660566463,
        58.147363701930331,
        57.962276835829599,
        57.973740407584948,
        57.985196393622878,
        57.996642500980172,
        58.382613643000695,
        58.583606205799072,
        58.782292042996758,
        59.150988232706595,
        59.253857208192287,
        59.394765361628679,
        59.53453582417724,
        59.522911925564088,
        59.442255418648614,
        59.336249263972427,
        59.414418286859487,
        59.49223703558657,
        59.219953336732203,
        58.667894833943606,
        58.583355287074511,
        58.767791655784549,
        58.533503285334433,
        58.791292902286116,
        58.879543313740648,
        58.876009668711205,
        59.023962835683172,
        59.448127319072078,
        59.014417416484228,
        58.798762100198033,
        55.915835824519803,
        56.116896442111226,
        56.02075630742133,
        51.468805073454632,
        49.252754642971645,
        51.672799223454838,
        51.941358415151115,
        51.31780745794417,
        51.439349386204668,
        51.028111549678272,
        51.75103646015306,
        51.954968513473645,
        39.254599126598286,
        45.92665357755822,
        40.304608460187481,
        46.253785704256948,
        40.467015273655981,
        43.656260561410711,
        43.965994737077295,
        48.658906404725755,
        48.987940924123215,
        50.152843427050477,
        44.444294836971395,
        43.680218293947689,
        52.708837928191826,
        39.747977609640984,
        37.794860112526237,
        0.0,
        0.0,
        0.0,
        0.0,
        0.0,
        0.0,
        0.0,
        0.0,
        0.0,
        0.0,
        0.0,
        0.0,
        0.0,
        0.0,
        0.0,
        0.0,
        0.0,
        0.0,
        0.0,
        0.0,
        0.0,
        0.0,
        0.0,
        0.0,
        0.0,
        0.0,
        0.0,
        0.0,
        0.0,
        0.0,
        0.0
    ],
    "time": [
        0.02,
        0.040000000000000001,
        0.059999999999999998,
        0.080000000000000002,
        0.10000000000000001,
        0.12,
        0.14000000000000001,
        0.16,
        0.17999999999999999,
        0.20000000000000001,
        0.22,
        0.23999999999999999,
        0.26000000000000001,
        0.28000000000000003,
        0.29999999999999999,
        0.32000000000000001,
        0.34000000000000002,
        0.35999999999999999,
        0.38,
        0.40000000000000002,
        0.41999999999999998,
        0.44,
        0.46000000000000002,
        0.47999999999999998,
        0.5,
        0.52000000000000002,
        0.54000000000000004,
        0.56000000000000005,
        0.57999999999999996,
        0.59999999999999998,
        0.62,
        0.64000000000000001,
        0.66000000000000003,
        0.68000000000000005,
        0.69999999999999996,
        0.71999999999999997,
        0.73999999999999999,
        0.76000000000000001,
        0.78000000000000003,
        0.80000000000000004,
        0.81999999999999995,
        0.83999999999999997,
        0.85999999999999999,
        0.88,
        0.90000000000000002,
        0.92000000000000004,
        0.93999999999999995,
        0.95999999999999996,
        0.97999999999999998,
        1.0,
        1.02,
        1.04,
        1.0600000000000001,
        1.0800000000000001,
        1.1000000000000001,
        1.1200000000000001,
        1.1399999999999999,
        1.1599999999999999,
        1.1799999999999999,
        1.2,
        1.22,
        1.24,
        1.26,
        1.28,
        1.3,
        1.3200000000000001,
        1.3400000000000001,
        1.3600000000000001,
        1.3799999999999999,
        1.3999999999999999,
        1.4199999999999999,
        1.4399999999999999,
        1.46,
        1.48,
        1.5,
        1.52,
        1.54,
        1.5600000000000001,
        1.5800000000000001,
        1.6000000000000001,
        1.6200000000000001,
        1.6399999999999999,
        1.6599999999999999,
        1.6799999999999999,
        1.7,
        1.72,
        1.74,
        1.76,
        1.78,
        1.8,
        1.8200000000000001,
        1.8400000000000001,
        1.8600000000000001,
        1.8799999999999999,
        1.8999999999999999,
        1.9199999999999999,
        1.9399999999999999,
        1.96,
        1.98,
        2.0,
        2.02,
        2.04,
        2.0600000000000001,
        2.0800000000000001,
        2.1000000000000001,
        2.1200000000000001,
        2.1400000000000001,
        2.1600000000000001,
        2.1800000000000002,
        2.2000000000000002,
        2.2200000000000002,
        2.2400000000000002,
        2.2599999999999998,
        2.2799999999999998,
        2.2999999999999998,
        2.3199999999999998,
        2.3399999999999999,
        2.3599999999999999,
        2.3799999999999999,
        2.3999999999999999,
        2.4199999999999999,
        2.4399999999999999,
        2.46,
        2.48,
        2.5,
        2.52,
        2.54,
        2.5600000000000001,
        2.5800000000000001,
        2.6000000000000001,
        2.6200000000000001,
        2.6400000000000001,
        2.6600000000000001,
        2.6800000000000002,
        2.7000000000000002,
        2.7200000000000002,
        2.7400000000000002,
        2.7599999999999998,
        2.7799999999999998,
        2.7999999999999998,
        2.8199999999999998,
        2.8399999999999999,
        2.8599999999999999,
        2.8799999999999999,
        2.8999999999999999,
        2.9199999999999999,
        2.9399999999999999,
        2.96,
        2.98,
        3.0,
        3.02,
        3.04,
        3.0600000000000001,
        3.0800000000000001,
        3.1000000000000001,
        3.1200000000000001,
        3.1400000000000001,
        3.1600000000000001,
        3.1800000000000002,
        3.2000000000000002,
        3.2200000000000002,
        3.2400000000000002,
        3.2599999999999998,
        3.2799999999999998,
        3.2999999999999998,
        3.3199999999999998,
        3.3399999999999999,
        3.3599999999999999,
        3.3799999999999999,
        3.3999999999999999,
        3.4199999999999999,
        3.4399999999999999,
        3.46,
        3.48,
        3.5,
        3.52,
        3.54,
        3.5600000000000001,
        3.5800000000000001,
        3.6000000000000001,
        3.6200000000000001,
        3.6400000000000001,
        3.6600000000000001,
        3.6800000000000002,
        3.7000000000000002,
        3.7200000000000002,
        3.7400000000000002,
        3.7599999999999998,
        3.7799999999999998,
        3.7999999999999998,
        3.8199999999999998,
        3.8399999999999999,
        3.8599999999999999,
        3.8799999999999999,
        3.8999999999999999,
        3.9199999999999999,
        3.9399999999999999,
        3.96,
        3.98,
        4.0,
        4.0199999999999996,
        4.04,
        4.0599999999999996,
        4.0800000000000001,
        4.0999999999999996,
        4.1200000000000001,
        4.1399999999999997,
        4.1600000000000001,
        4.1799999999999997,
        4.2000000000000002,
        4.2199999999999998,
        4.2400000000000002,
        4.2599999999999998,
        4.2800000000000002,
        4.2999999999999998,
        4.3200000000000003,
        4.3399999999999999,
        4.3600000000000003,
        4.3799999999999999,
        4.4000000000000004,
        4.4199999999999999,
        4.4400000000000004,
        4.46,
        4.4800000000000004,
        4.5,
        4.5199999999999996,
        4.54,
        4.5599999999999996,
        4.5800000000000001,
        4.5999999999999996,
        4.6200000000000001,
        4.6399999999999997,
        4.6600000000000001,
        4.6799999999999997,
        4.7000000000000002,
        4.7199999999999998,
        4.7400000000000002,
        4.7599999999999998,
        4.7800000000000002,
        4.7999999999999998,
        4.8200000000000003,
        4.8399999999999999,
        4.8600000000000003,
        4.8799999999999999,
        4.9000000000000004,
        4.9199999999999999,
        4.9400000000000004,
        4.96,
        4.9800000000000004,
        5.0,
        5.0199999999999996,
        5.04,
        5.0599999999999996,
        5.0800000000000001,
        5.0999999999999996,
        5.1200000000000001,
        5.1399999999999997,
        5.1600000000000001,
        5.1799999999999997,
        5.2000000000000002,
        5.2199999999999998,
        5.2400000000000002,
        5.2599999999999998,
        5.2800000000000002,
        5.2999999999999998,
        5.3200000000000003,
        5.3399999999999999,
        5.3600000000000003,
        5.3799999999999999,
        5.4000000000000004,
        5.4199999999999999,
        5.4400000000000004,
        5.46,
        5.4800000000000004,
        5.5,
        5.5199999999999996,
        5.54,
        5.5599999999999996,
        5.5800000000000001,
        5.5999999999999996,
        5.6200000000000001,
        5.6399999999999997,
        5.6600000000000001,
        5.6799999999999997,
        5.7000000000000002,
        5.7199999999999998,
        5.7400000000000002,
        5.7599999999999998,
        5.7800000000000002,
        5.7999999999999998,
        5.8200000000000003,
        5.8399999999999999,
        5.8600000000000003,
        5.8799999999999999,
        5.9000000000000004,
        5.9199999999999999,
        5.9400000000000004,
        5.96,
        5.9800000000000004,
        6.0,
        6.0199999999999996,
        6.04,
        6.0599999999999996,
        6.0800000000000001,
        6.0999999999999996,
        6.1200000000000001,
        6.1399999999999997,
        6.1600000000000001,
        6.1799999999999997,
        6.2000000000000002,
        6.2199999999999998,
        6.2400000000000002,
        6.2599999999999998,
        6.2800000000000002,
        6.2999999999999998,
        6.3200000000000003,
        6.3399999999999999,
        6.3600000000000003,
        6.3799999999999999,
        6.4000000000000004,
        6.4199999999999999,
        6.4400000000000004,
        6.46,
        6.4800000000000004,
        6.5,
        6.5199999999999996,
        6.54,
        6.5599999999999996,
        6.5800000000000001,
        6.5999999999999996,
        6.6200000000000001,
        6.6399999999999997,
        6.6600000000000001,
        6.6799999999999997,
        6.7000000000000002,
        6.7199999999999998,
        6.7400000000000002,
        6.7599999999999998,
        6.7800000000000002,
        6.7999999999999998,
        6.8200000000000003,
        6.8399999999999999,
        6.8600000000000003,
        6.8799999999999999,
        6.9000000000000004,
        6.9199999999999999,
        6.9400000000000004,
        6.96,
        6.9800000000000004,
        7.0,
        7.0199999999999996,
        7.04,
        7.0599999999999996,
        7.0800000000000001,
        7.0999999999999996,
        7.1200000000000001
    ]
}