{
    "DU": 89,
    "DV": 175,
    "F-measure": 0.7914893617021277,
    "F-measure Chroma": 0.8510638297872342,
    "FN": 11,
    "FNC": 3,
    "FNCch": 8,
    "FNI": 8,
    "FNIch": 3,
    "FP": 47,
    "GU": 125,
    "GV": 139,
    "Overall Accuracy": 0.7045454545454546,
    "Overall Chroma Accuracy": 0.7575757575757576,
    "Precision": 0.7351778656126482,
    "Precision Chroma": 0.7905138339920948,
    "Raw Chroma Accuracy": 0.935251798561151,
    "Raw Pitch Accuracy": 0.7985611510791367,
    "Recall": 0.8571428571428571,
    "Recall Chroma": 0.9216589861751152,
    "TN": 78,
    "TO": 264,
    "TP": 128,
    "TPC": 108,
    "TPCch": 122,
    "TPI": 20,
    "TPIch": 6,
    "Voiced Chroma Accuracy": 0.8776978417266187,
    "Voiced Pitch Accuracy": 0.7769784172661871,
    "Voicing Accuracy": 0.7803030303030303,
    "Voicing Detection": 0.920863309352518,
    "Voicing False Alarm": 0.376
}