{
    "DU": 5,
    "DV": 312,
    "F-measure": 0.8442211055276382,
    "F-measure Chroma": 0.8944723618090452,
    "FN": 0,
    "FNC": 0,
    "FNCch": 0,
    "FNI": 0,
    "FNIch": 0,
    "FP": 37,
    "GU": 42,
    "GV": 275,
    "Overall Accuracy": 0.7949526813880127,
    "Overall Chroma Accuracy": 0.8422712933753943,
    "Precision": 0.7949526813880127,
    "Precision Chroma": 0.8422712933753943,
    "Raw Chroma Accuracy": 0.9527272727272728,
    "Raw Pitch Accuracy": 0.8981818181818182,
    "Recall": 0.9,
    "Recall Chroma": 0.9535714285714286,
    "TN": 5,
    "TO": 317,
    "TP": 275,
    "TPC": 247,
    "TPCch": 262,
    "TPI": 28,
    "TPIch": 13,
    "Voiced Chroma Accuracy": 0.9527272727272728,
    "Voiced Pitch Accuracy": 0.8981818181818182,
    "Voicing Accuracy": 0.8832807570977917,
    "Voicing Detection": 1.0,
    "Voicing False Alarm": 0.8809523809523809
}