{
    "DU": 29,
    "DV": 330,
    "F-measure": 0.8333333333333334,
    "F-measure Chroma": 0.8522012578616353,
    "FN": 0,
    "FNC": 0,
    "FNCch": 0,
    "FNI": 0,
    "FNIch": 0,
    "FP": 82,
    "GU": 111,
    "GV": 248,
    "Overall Accuracy": 0.7381615598885793,
    "Overall Chroma Accuracy": 0.754874651810585,
    "Precision": 0.7381615598885793,
    "Precision Chroma": 0.754874651810585,
    "Raw Chroma Accuracy": 0.9758064516129032,
    "Raw Pitch Accuracy": 0.9516129032258065,
    "Recall": 0.9566787003610109,
    "Recall Chroma": 0.9783393501805054,
    "TN": 29,
    "TO": 359,
    "TP": 248,
    "TPC": 236,
    "TPCch": 242,
    "TPI": 12,
    "TPIch": 6,
    "Voiced Chroma Accuracy": 0.9758064516129032,
    "Voiced Pitch Accuracy": 0.9516129032258065,
    "Voicing Accuracy": 0.7715877437325905,
    "Voicing Detection": 1.0,
    "Voicing False Alarm": 0.7387387387387387
}