{
	"f0": [NaN,44.23934141,48.22117668,39.74573063,44.13919573,74.72287748,54.35569152,49.75732869,49.7932125,49.87911186,50.64214864,51.2326314,51.53833104,52.56028313,52.51258156,52.47392171,52.50025244,52.36942887,52.40475362,52.58415357,52.94074417,53.25716444,53.32280097,53.45982041,55.19887324,55.36723365,55.35851083,55.39842353,55.47879554,55.52046808,55.52167733,55.50304467,55.49238521,55.49000069,55.45550934,55.58378815,55.65360346,55.74619464,55.87525628,55.88656638,55.88546134,55.84232421,55.76611376,55.77753728,55.98843166,56.19685808,56.27317092,56.31782513,56.34916061,56.39496201,56.39514072,56.2945954,56.22332449,56.18997968,56.18383881,56.3999956,57.20318876,57.80083369,57.97242445,57.95787503,57.93937294,57.70260553,57.45282476,57.44184621,57.72693589,57.91138279,57.96013619,57.94536584,57.7753046,57.66207848,57.52101497,57.26459516,57.23554102,56.89235163,56.63381848,56.43990638,55.71310221,55.59307285,54.0979178,44.35223798,49.83359132,50.45166179,50.70060339,51.00457017,51.3680539,76.19354484,76.20360055,76.93035138,75.19721359,56.12562117,56.66655291,57.09005681,57.28820196,57.54453662,57.63459699,57.64593562,57.39162461,57.30906729,57.08559647,56.77061715,56.97170496,58.60434075,59.60006791,59.49222214,59.29053568,59.20955303,59.1071623,58.98297393,58.9714914,58.9984532,59.10218324,59.27847736,59.34759329,59.30634139,59.38018361,59.54904946,59.51730596,59.49159981,59.61598675,59.58249583,59.4694056,59.48573577,58.69366773,59.02419222,58.67691644,58.94713056,59.04016405,59.12422081,59.05161529,58.95254685,58.89814802,58.90161823,59.02748043,59.27964575,59.8142307,60.59942676,60.9792919,61.17125886,61.20304597,61.03314047,60.85051971,60.72873346,60.55969268,60.59658461,60.60797317,60.49412524,60.31117387,59.88725482,59.7492243,59.79626809,59.77684767,60.10413946,60.09040348,59.59619441,56.47025677,55.93777727,54.90088524,54.30040362,47.49789678,51.61484797,51.81480208,53.91001136,54.29681004,54.55341915,54.8067135,55.45311878,55.88336361,56.08566654,56.67566074,56.84518441,56.9714755,57.24526218,57.39640781,57.49844442,57.4567642,57.38764925,57.22896823,57.38590761,57.68091925,57.94493966,63.21767218,63.24818619,63.39604787,63.47071143,63.32784339,63.26630747,63.26587832,63.29203696,63.62098436,64.10848714,64.63842809,64.95327503,65.08897734,65.24525105,65.51568343,65.46206924,65.26049251,64.91535846,64.47846005,63.76313639,63.29076208,63.24114262,63.40322844,63.76183516,63.82512433,64.00570921,63.8092506,63.76753818,63.72386346,63.53621453,63.29505553,63.0285432,62.86489143,63.05443038,63.74125082,63.61346202,63.55223603,63.5520579,62.89595986,61.63205567,61.42717864,61.51915255,61.63992547,61.68911569,61.77491828,61.84509363,61.88171477,62.01363485,62.20438538,62.36717057,62.43371562,62.53544431,62.66675619,62.75367104,62.81712568,62.94835222,63.07230803,63.15056074,63.24248344,63.30212532,63.32975357,63.35257616,63.34246767,63.29284337,63.25227388,63.25544944,63.26661406,63.23803774,63.17879278,63.15573461,63.16743996,63.1903122,63.19918776,63.21943787,63.25293938,63.22737023,63.20003236,63.20475507,63.21058175,63.20293514,63.16478682,63.09617496,63.06242405,63.07109746,63.10432678,63.15372283,63.20945624,63.24362105,63.23276456,63.21414369,63.20966502,63.24056379,63.286091,63.28461024,63.23362884,63.19578985,63.2043636,63.23170018,63.24996941,63.28664241,63.39555686,63.58550164,63.69049707,63.63011992,63.47932486,63.24775538,63.05718932,63.01754557,63.04955649,63.18685701,63.3560918,63.4768564,63.60360589,63.31450715,63.04553617,63.36742757,63.26301376,63.31300925,63.38441671,63.42800344,64.45377648,45.14666524,59.70433364,60.62035546,61.37833415,62.15444483,61.94003982,61.46168286,60.25179937,58.4485484,57.91080137,57.32408586,55.07322353,53.36648057,52.87971192,53.51926604,53.73612252,53.79481856,53.8421997,53.91649529,54.10506274,54.30570101,54.31634754,54.44634898,55.24482023,55.66104371,56.01672617,55.80681581,55.47115864,55.90065497,55.94985851,55.74380363,55.34995772,59.35108994,59.55590239,59.48375244,59.38451961,59.46631928,59.7964472,71.96611309,71.92974392,72.29160579,62.44425104,63.19276284,63.30027683,63.29669255,63.15778908,62.91451052,62.64905299,62.28367105,62.79136831,63.14399075,62.44751646,61.49264526,61.31002876,61.19776931,60.99874374,60.81795521,60.77040312,72.66298224,72.58915763,60.7709311,60.8453174,60.94413666,61.0787274,61.07682827,61.11203065,61.23892627,61.27442941,61.2617808,61.22421174,61.17683622,61.12086565,61.09112668,61.20309308,60.96683334,59.95634383,59.83400997,60.17313477,60.35944792,67.65922783,59.34997028,42.58540137,38.46450684,69.22086229,70.02996304,48.54194474,48.51543287,62.15444483,62.24925151,48.85559325,48.80718366,60.79353172,61.06836,61.19017644,61.24200726,61.20207415,61.29148872,61.30808404,61.32326035,61.28881538,61.20805049,61.02604952,60.8153137,60.33458321,59.94285569,60.07493676,67.88390935,42.24794292,42.38351458,42.46687706,49.4517707,52.30476417,52.18198865,42.2417508,56.46727057,65.3108577,76.93035138,76.93035138,NaN,NaN],
	"ap0": [NaN,0.6282660599,0.7705328094,0.7266467698,0.7177152352,0.7283322819,0.5073031059,0.1138811796,0.04415477076,0.02961813701,0.1747896247,0.07877696267,0.09197736429,0.03855711608,0.02322470106,0.01730803859,0.01276773129,0.006251996431,0.004253402955,0.008850657866,0.01574679649,0.02265846739,0.01255013508,0.01164399768,0.1463884646,0.06196834687,0.02212476176,0.009309237215,0.005754277875,0.002834072359,0.002290701288,0.004197309236,0.007914893921,0.01293973557,0.01932359564,0.01910916623,0.01566499509,0.01419717261,0.004569622876,0.002341388137,0.001977661056,0.002016813233,0.001155699213,0.001121623234,0.02438888533,0.0650581736,0.04484067189,0.01914075964,0.008152116982,0.01045344717,0.01057421501,0.01642105971,0.01034885295,0.004954024727,0.005431968108,0.09286281548,0.1411600908,0.1474311409,0.02922101776,0.01094604538,0.02380287009,0.06953188508,0.02548730474,0.01687856898,0.05792098597,0.02513368036,0.01808544893,0.07034415726,0.1139943518,0.1286430515,0.09480934342,0.2260792688,0.2010283011,0.3197305143,0.3690407876,0.3018074593,0.266311086,0.4032198891,0.6294103045,0.4789702228,0.4119848708,0.2620604426,0.1591598006,0.1122252369,0.2693852479,0.606223547,0.4253595673,0.4170577961,0.4696502741,0.1818208884,0.1735451211,0.1519917926,0.1141450361,0.02156566043,0.02612136484,0.05365120578,0.05337131025,0.02428449835,0.07659125383,0.1061493285,0.08867112365,0.1463051721,0.07251385519,0.08684767026,0.04493407376,0.01120124753,0.01218668874,0.004949447527,0.004198233706,0.005584878308,0.008825729747,0.009308215938,0.007541897653,0.02013668922,0.04291647357,0.01881732459,0.01998663819,0.03427589207,0.08054316196,0.07439487393,0.1060918442,0.3387026376,0.4628120663,0.6543510747,0.1846824443,0.04273963173,0.01032513013,0.003376865405,0.00262744386,0.001331758709,0.001741102384,0.002545739101,0.007201463962,0.01914607057,0.06030563863,0.05889398464,0.01536396129,0.006714714417,0.003253968707,0.004685257465,0.004928482421,0.0069325494,0.009067996313,0.009433137131,0.005385437748,0.006773794677,0.03556727278,0.06449703903,0.04204425042,0.056552793,0.09288262448,0.10202972,0.0889080702,0.3549615079,0.3100359166,0.2757389102,0.3210317912,0.6069627538,0.8768758631,0.3389967926,0.09423350056,0.300123376,0.122770347,0.07303836133,0.1028916157,0.1820154268,0.08956135882,0.109143993,0.09280461849,0.07368522684,0.0705741691,0.07761790396,0.07042693854,0.05520823591,0.09623010882,0.1171328777,0.1600706047,0.07752174076,0.06400318454,0.2021419594,0.05954407765,0.01889452321,0.01300225551,0.01172503578,0.02335467006,0.01083002489,0.003052079579,0.009458811216,0.05503950742,0.09859699747,0.05890640909,0.02521423392,0.02004017475,0.03614029001,0.01487717178,0.007449792192,0.01637524317,0.05318873046,0.1172455153,0.1021366891,0.05201075387,0.02280673127,0.04138803295,0.03727540636,0.02091756574,0.02938344281,0.01298839166,0.00559724168,0.003228071438,0.005984983736,0.01278465146,0.02504717938,0.04233890281,0.0793868696,0.1222769592,0.1501679441,0.2668371585,0.4853982172,0.6272297799,0.1039419431,0.03172703056,0.007970008806,0.001989140563,0.001730135515,0.002039356293,0.001461325502,0.001980284135,0.009586743212,0.02727189979,0.01405623827,0.004064413067,0.00224272989,0.001260676175,0.0006506209257,0.0007982637161,0.001433222738,0.0005001861395,0.0003518374661,0.0004058360957,0.0002022178172,0.000160508402,0.0001395353576,0.0002149845483,0.0003516398883,0.0002441133317,0.0001963233497,0.0002189796003,0.0003264668002,0.0003903888857,0.0002585733627,0.0001513023729,0.0001837752302,0.0002154039896,0.0002724367116,0.0001658964649,0.0002323880581,0.0001838153533,0.0001846268466,0.0001754204191,0.000135299666,0.0001965356812,0.0003347790808,0.0002475812249,0.000122916673,0.00015539579,0.0002584501891,0.0003160433441,0.0001442674074,0.0001859173905,0.0001836000953,0.0001006305562,0.0001996476201,0.0002262125923,0.0002278032541,0.0002318867052,0.0001290318335,0.0001475268823,0.0001520558574,0.0001652685835,0.0003489278955,0.001170689141,0.001588278663,0.0006628502446,0.0007241322975,0.001943478973,0.005235634672,0.008130301348,0.0123291437,0.0289038485,0.06728755835,0.02036613231,0.02444310282,0.03044513894,0.037511134,0.04996521103,0.05439342727,0.05886505064,0.1053401793,0.1879468492,0.2970378066,0.7340576625,0.7716296371,0.5963670511,0.6197320104,0.3126879937,0.282600711,0.2361016101,0.2794072108,0.449351111,0.3649209964,0.466163135,0.5666588516,0.5744172029,0.23227964,0.1135721127,0.1207985429,0.06980826413,0.04697138347,0.02896572739,0.04003930357,0.106108972,0.05048235033,0.02442253555,0.07386287848,0.1055337282,0.08888077182,0.07058767963,0.08111322549,0.09154132356,0.1009637684,0.1056563425,0.1996214179,0.7750123198,0.1008679883,0.03918213925,0.07187885675,0.03105265619,0.02001810431,0.06630439764,0.06283040086,0.09649834358,0.3218022124,0.2873307658,0.1534984255,0.1208439981,0.07321166792,0.03570174338,0.04637150918,0.130233384,0.1631115599,0.3550226575,0.3835258917,0.6731129309,0.1024669902,0.04159395804,0.01183044649,0.01343696042,0.005861120073,0.00309361109,0.04446156809,0.07260187583,0.01100262338,0.00518627551,0.008171053932,0.01339690583,0.02353253471,0.01469591891,0.003670198686,0.001052626359,0.0007230565038,0.001801005108,0.006613492131,0.01541335964,0.02315292327,0.1008253622,0.3407332185,0.4224958373,0.5410275865,0.6440132525,0.5329769413,0.5659748947,0.8153275612,0.6689355178,0.7151707943,0.6297027894,0.594252075,0.517824188,0.5951940107,0.6697751095,0.6533802047,0.3787824484,0.2207537366,0.1803406425,0.1491718629,0.06134991032,0.05355312693,0.05445660538,0.04199224166,0.03046612925,0.02837746002,0.02898273833,0.04816573396,0.08770517795,0.1327355186,0.4069913605,0.7779742252,0.798934116,0.6717228604,0.6070058841,0.6239739907,0.7463613345,0.7660331789,0.6770730838,0.6110071279,0.7798156846,0.6014426496,1,1,1,NaN,NaN],
	"ap": [NaN,0.2356265421,0.4525528425,0.4260148144,0.3658624148,0.4347711962,0.4011982176,0.493881781,0.1621593953,0.01030233954,0.09342330975,0.1103852832,0.06991993842,0.09408952576,0.01479880044,0.01184065319,0.01038196731,0.005904330662,0.002338246231,0.002245344373,0.007330975673,0.02155745761,0.01431461899,0.007342517891,0.115166721,0.1444981484,0.04168549491,0.009847986115,0.006617419543,0.002795387406,0.001353653446,0.0009968997263,0.001809308692,0.005132526826,0.007499765238,0.009061057226,0.01573280904,0.00238971555,0.01021943127,0.002722102005,0.0008846323937,0.0006575680895,0.001080843105,0.0008370016292,0.003581277762,0.008592948189,0.03019034533,0.0318124708,0.007624875881,0.007721453092,0.003199142969,0.01812250258,0.00705767804,0.009314452778,0.0007082275276,0.02260616032,0.1980862092,0.1976200425,0.01583714498,0.05451755522,0.002379824347,0.01517040836,0.1521593377,0.00195208566,0.03288856576,0.03537004664,0.01301329151,0.002574920478,0.05366984051,0.03253077945,0.1651487582,0.06359243935,0.1093360219,0.06959579906,0.1993261885,0.1694904027,0.2364419308,0.1199244056,0.1963056656,0.4554352527,0.808033802,0.4349368642,0.08204387428,0.1577200301,0.1909740399,0.2580989639,0.07689566767,0.1839610325,0.1492595715,0.3608146337,0.3070805592,0.1194009701,0.04657934874,0.07410520842,0.0156546459,0.01543065159,0.0824600474,0.03922705807,0.005505315457,0.02038558203,0.03673734831,0.2712077686,0.1565454994,0.08784756135,0.04934100493,0.02388102305,0.008685903034,0.006718011177,0.0006172804181,0.001690907956,0.004223962543,0.006523452652,0.004720379482,0.001779106095,0.007077983341,0.03415644963,0.01577195764,0.003681838667,0.01785681586,0.0479410285,0.05439394051,0.04718470457,0.1898182322,0.3160835873,0.4122866317,0.2449274117,0.05901773407,0.009392270112,0.0006187923119,0.00352023736,0.0007488296747,0.0003582487103,0.003214243475,0.01099886997,0.02148869969,0.1104497446,0.0738819546,0.009751087942,0.00197223649,0.00395762241,0.005234894398,0.002742413281,0.006427834038,0.004444776236,0.005916691206,0.006865211578,0.00724366939,0.03066617225,0.03326971666,0.01112600936,0.008943702491,0.05098306658,0.2444682661,0.05742731447,0.8186738848,0.0980598272,0.07739771461,0.5781478243,0.4371343112,0.6341559887,0.2578810649,0.4628760787,0.2940474149,0.2159627074,0.06745134573,0.1630514379,0.3080988684,0.07151912176,0.1845658488,0.05714297532,0.02192008151,0.04904315563,0.02975751909,0.03127269177,0.04750024725,0.01311328436,0.1128420955,0.03057924379,0.06727520424,0.02552476931,0.597935603,0.6714620588,0.005832549728,0.007021179135,0.01104846306,0.01163315504,0.01070633457,0.000589323848,0.02244695223,0.1113653262,0.1677364241,0.07946342541,0.0317839221,0.007913128341,0.02065698494,0.01636158587,0.009511284609,0.04481493773,0.08840752561,0.2054305746,0.08415137504,0.01708858808,0.02155743729,0.03381146673,0.03419817217,0.01655177673,0.01560970609,0.003551554469,0.002399111586,0.005376243457,0.007362103336,0.002566687162,0.03996905089,0.02162407968,0.07576504804,0.1052857374,0.0395570078,0.4946203603,0.314459044,0.4039993015,0.2851428876,0.01721738341,0.006746457722,0.001932204921,0.001262351666,0.001785596651,0.001260002744,0.002290531079,0.01014088851,0.01736313708,0.01596455055,0.003746414537,0.002989769343,0.0005754059105,0.0006822407099,0.001394206032,0.001683240126,0.0006374014681,0.0005799435449,0.0002724778046,0.0001047847166,5.807482759e-05,7.710129436e-05,0.0002268173403,0.0001870265147,0.0001916149127,8.501230194e-05,0.0001498492148,0.0002688674347,0.0003597829422,0.0002143199716,0.000135303337,4.753734768e-05,8.298779472e-05,0.0001424545228,0.0002122791995,0.0001387403085,0.0001991870287,3.402998571e-05,0.0001719836992,0.0002182729123,0.0002874267199,0.0003940210152,0.0003190383993,3.178079234e-05,0.0003145514,0.0002034452463,0.0002847144204,3.123400867e-05,7.024374319e-05,8.211902081e-05,6.710760984e-05,0.0002486643124,4.041951309e-05,0.0004292227903,0.0001729372773,3.828764138e-05,0.0001912635038,4.995238308e-05,0.0002013697485,0.0009515449978,0.001793401673,0.0008464482199,0.000926559296,0.001813523134,0.002941358154,0.002170432645,0.003958175353,0.008871693324,0.01115309931,0.04625291336,0.005771974852,0.03965319673,0.00559118251,0.01821394136,0.02591307051,0.009165113224,0.01015089426,0.1109116327,0.08012976938,0.4797964257,0.4630523905,0.4687855916,0.1414566446,0.3631442095,0.5791324947,0.151446456,0.191219376,0.6857341778,0.3707465429,0.0626907506,0.1573215683,0.311521504,0.6863651433,0.1665674411,0.1304016189,0.05485360016,0.05295026041,0.05225314176,0.03258423276,0.01083454637,0.1947875906,0.01076236584,0.01268808741,0.0901036627,0.1190357431,0.04264858433,0.05095285674,0.0249892059,0.04437121392,0.06523522542,0.05246485803,0.06706547863,0.299452218,0.4357430121,0.03780856926,0.02970736275,0.03046157614,0.0176493053,0.2640596316,0.007444301324,0.05452697004,0.5402747773,0.1194730584,0.04063531593,0.03013625921,0.04552359522,0.006066534923,0.03470492447,0.084672409,0.1537345551,0.2548211076,0.03942282626,0.6430300276,0.4461728228,0.04778271039,0.01579959546,0.01407849621,0.002644037306,0.06781792515,0.02415355152,0.01290736186,0.00178987218,0.007760463357,0.002530377117,0.006203145974,0.02218716923,0.01108968213,0.0005186576335,0.0007609920582,0.000529678466,0.0003153093073,0.002577229422,0.009228683787,0.02337988874,0.04660026614,0.1153454063,0.1786157381,0.1972720956,0.4023276214,0.7437101091,0.4641272414,0.2088143246,0.2587361343,0.4042235633,0.3276474365,0.4088615066,0.2514574642,0.4230485574,0.2424104926,0.3120216996,0.1547271417,0.1303374472,0.01720083471,0.1175977907,0.01689188985,0.04438576378,0.01066161144,0.01540137702,0.01342210758,0.01386390018,0.01477768449,0.03160360189,0.0797273656,0.0927529668,0.2165004461,0.266120729,0.6692466341,0.373822094,0.3057588013,0.3180240848,0.546422846,0.1977441998,0.4938563399,0.4828752671,0.5000007609,0.5000030654,1,1,NaN,NaN],
	"pwr": [NaN,2.939178151e-08,9.46363211e-08,2.438914459e-07,8.589842805e-07,1.607428982e-06,5.771331376e-06,3.027780296e-06,6.615729334e-05,0.0009109924776,0.0005870608663,0.0003892812615,0.0008451429433,0.001959026948,0.001059419346,0.001329956731,0.001859618605,0.0007455619513,0.0008670925393,0.0008585786564,0.0007703576033,0.0005426892299,0.0001677874729,0.0002041801002,0.0003628725419,0.0004882473873,0.004170814993,0.008052146676,0.01133196673,0.01429446123,0.02222958656,0.02905215958,0.01856352376,0.009234348309,0.003999617315,0.00187739154,0.001646857971,0.003188121603,0.002110500573,0.002310252362,0.002698644085,0.002782437036,0.002831772733,0.003055127916,0.00316060475,0.003393669818,0.004222243003,0.01441099414,0.03441187416,0.02989886485,0.01598126002,0.01076396765,0.009793031118,0.0111504182,0.02484888131,0.02274660911,0.01446422726,0.006792777651,0.006965198099,0.0153003798,0.06470550494,0.05640586002,0.009538580953,0.02395506835,0.01575898243,0.007828545963,0.01711608667,0.0246390726,0.004829978113,0.002835856553,0.00018915348,0.0004624209396,0.0002303364363,0.0003844049011,9.941280634e-05,0.0001063132518,0.0003153805727,0.0003514493546,8.453481268e-05,2.670936273e-05,2.240909629e-05,8.847611014e-06,0.0001247337958,0.001034030696,0.005313689707,0.01985194519,0.01472183295,0.006598204309,0.002297969797,0.002459523749,0.01116163779,0.006560848705,0.007185299155,0.01026342418,0.0137317393,0.009587418307,0.00320820254,0.001180144305,0.001473677715,0.001065728843,0.0008073930257,0.0002930497808,0.0002585374059,0.00278516389,0.05447123702,0.06289218605,0.1472430556,0.1511002427,0.1059468658,0.09601056961,0.06285169832,0.04005517449,0.0268275446,0.0331236238,0.04606075899,0.01577032809,0.01502347767,0.04471236392,0.0155714074,0.002196265309,0.0006725651586,0.0010298099,0.0002273216308,0.0001046023669,9.637684467e-05,0.0001004091386,0.002088063544,0.009509352746,0.01622258776,0.01650828034,0.01749171157,0.01660028079,0.0123927038,0.008009656329,0.005627919443,0.002684350958,0.003780889763,0.01054066617,0.02431612773,0.0176223463,0.0182740173,0.01675525966,0.007729046715,0.003458020914,0.002636232263,0.007710624696,0.01831304338,0.02723020339,0.004478407843,0.008943405906,0.001372694288,0.0005436950152,0.0001563754046,0.0003042693449,0.0001311861937,7.952862951e-05,0.0002350848303,4.420025644e-05,6.522736014e-05,1.577358359e-05,2.632696468e-05,0.0001902543995,0.0008678227977,0.008598686635,0.01853925042,0.01439393949,0.004239097663,0.02490128977,0.05738504793,0.02115295722,0.02020577643,0.01021839574,0.01194289287,0.005643671401,0.00503172167,0.001776097749,0.0007789329895,0.0008511345822,0.0001386546178,0.0001910998773,0.0001308817098,0.0001480612589,0.03098712934,0.1066806386,0.07369399485,0.01998165477,0.02530454163,0.0528906629,0.03909165041,0.009547316334,0.03416110939,0.02996544353,0.02802576504,0.1009596846,0.03176908805,0.01846110694,0.03970536746,0.04191448824,0.06879698342,0.0745718931,0.09705468728,0.07377315052,0.1124476354,0.1325995285,0.03534343883,0.07521805891,0.01198443143,0.01275956969,0.02965622944,0.03358209533,0.05367491099,0.07235248739,0.01987019169,0.008523218858,0.001193651957,0.0003134328196,0.0006535324078,0.0001693442893,0.0001167595185,9.329675747e-05,5.236712185e-05,0.006870536283,0.01967033177,0.02307991186,0.02226817108,0.0182251513,0.01332563797,0.01090408375,0.00918024503,0.004187370188,0.003374709212,0.01375232583,0.02820055295,0.03812993487,0.03887546711,0.04529343585,0.06373179006,0.08237618439,0.09302545628,0.09440945209,0.0842002171,0.07739361829,0.07692437382,0.07226636999,0.0777643584,0.07837839147,0.07892257991,0.08229603336,0.08024007262,0.0754376727,0.07433070936,0.07762931493,0.07820459483,0.07832583886,0.07427715077,0.079208273,0.07459080142,0.07548549225,0.07217624316,0.06827018545,0.06902201014,0.06806909094,0.06939328113,0.07204762761,0.07878902056,0.07708841557,0.07432551827,0.07287368488,0.06949572377,0.06770095966,0.06537467424,0.06426390376,0.06268368194,0.06008745212,0.0565488571,0.05506248206,0.05811133113,0.05993441097,0.05809930684,0.05322798075,0.04965426798,0.04625305738,0.03679467886,0.02523821491,0.02497655144,0.02948195357,0.03037641888,0.01629757702,0.00574295472,0.001209764638,0.0001098826231,0.0002229932859,7.185226501e-05,2.304798968e-05,1.817103714e-05,7.121704611e-06,2.30016412e-06,1.36987591e-06,5.982524739e-07,6.062967034e-07,5.733201014e-08,1.412788902e-07,1.450445536e-06,5.478755624e-06,1.775597224e-05,2.542986422e-05,0.0001831919702,0.0001295079596,0.0002175274347,0.0001111344137,0.0005681284718,0.0001920760635,4.515997802e-05,8.636245822e-06,0.000732567467,0.001552043509,0.003099621559,0.02278744499,0.04953540213,0.06634928658,0.07652458545,0.009504165696,0.01850046799,0.01841587422,0.007714848251,0.003630439525,0.011094839,0.0037602056,0.002526928926,0.001306468721,0.0004588641957,0.0002591569166,0.0002733283131,6.30151578e-05,3.13739659e-05,0.01660852503,0.08094233452,0.06444735461,0.2229341916,0.03172288869,0.05689228585,0.2603935417,0.05416925944,0.02597749977,0.04574823385,0.03463732222,0.03472252028,0.02522851609,0.01106845838,0.003116874962,0.000485204758,0.0001327373834,0.0003953100828,6.3410345e-05,0.000127841814,0.02188619111,0.06921173514,0.1061284623,0.07746469669,0.1115927591,0.3670437138,0.17801417,0.05579085346,0.05531727748,0.02982800438,0.0152223737,0.006826021622,0.01488142471,0.01259490004,0.01230848296,0.01223438917,0.01136379234,0.008296754006,0.00264039938,0.0007824861664,0.0001237169779,0.0001056390909,0.0004218125493,0.0008759165712,5.066312994e-05,0.0001188827233,0.0004903286686,0.0001468255413,6.987171983e-05,0.0001355497694,5.838268484e-05,9.776815007e-06,4.409564289e-06,1.084951994e-06,6.14511044e-07,3.663056448e-07,3.030278924e-07,4.350798832e-07,2.391486223e-07,2.86370143e-07,1.658068335e-07,1.461329545e-07,7.412959754e-08,4.917242692e-08,4.461913084e-08,2.871740956e-08,2.360476126e-08,1.144493889e-08,5.682931165e-09,3.879155029e-09,8.285129167e-10,5.568865143e-10,2.037825648e-10,3.075889271e-10,4.266166674e-10,3.697303564e-10,2.854545093e-10,2.639527599e-10,5.760173571e-11,5.5963352e-11,3.725290298e-11,1.810905006e-11,0,0,NaN,NaN],
	"sr": 16000,
	"range": [1,134698],
	"minf0": 63.1883,
	"maxf0": 706.3069,
	"thresh": 0.1,
	"relflag": 1,
	"hop": 320,
	"bufsize": 10000,
	"wsize": 640,
	"lpf": 4000,
	"shift": 0,
	"plotthreshold": 0.2
}
