{
    "DU": 20,
    "DV": 371,
    "F-measure": 0.7635829662261381,
    "F-measure Chroma": 0.8193832599118942,
    "FN": 0,
    "FNC": 0,
    "FNCch": 0,
    "FNI": 0,
    "FNIch": 0,
    "FP": 101,
    "GU": 121,
    "GV": 270,
    "Overall Accuracy": 0.6649616368286445,
    "Overall Chroma Accuracy": 0.7135549872122762,
    "Precision": 0.6649616368286445,
    "Precision Chroma": 0.7135549872122762,
    "Raw Chroma Accuracy": 0.9592592592592593,
    "Raw Pitch Accuracy": 0.8888888888888888,
    "Recall": 0.896551724137931,
    "Recall Chroma": 0.9620689655172414,
    "TN": 20,
    "TO": 391,
    "TP": 270,
    "TPC": 240,
    "TPCch": 259,
    "TPI": 30,
    "TPIch": 11,
    "Voiced Chroma Accuracy": 0.9592592592592593,
    "Voiced Pitch Accuracy": 0.8888888888888888,
    "Voicing Accuracy": 0.7416879795396419,
    "Voicing Detection": 1.0,
    "Voicing False Alarm": 0.8347107438016529
}