{
    "DU": 166,
    "DV": 289,
    "F-measure": 0.23006535947712417,
    "F-measure Chroma": 0.269281045751634,
    "FN": 80,
    "FNC": 0,
    "FNCch": 1,
    "FNI": 80,
    "FNIch": 79,
    "FP": 65,
    "GU": 151,
    "GV": 304,
    "Overall Accuracy": 0.1934065934065934,
    "Overall Chroma Accuracy": 0.22637362637362637,
    "Precision": 0.23466666666666666,
    "Precision Chroma": 0.27466666666666667,
    "Raw Chroma Accuracy": 0.05921052631578947,
    "Raw Pitch Accuracy": 0.006578947368421052,
    "Recall": 0.22564102564102564,
    "Recall Chroma": 0.2641025641025641,
    "TN": 86,
    "TO": 455,
    "TP": 224,
    "TPC": 2,
    "TPCch": 17,
    "TPI": 222,
    "TPIch": 207,
    "Voiced Chroma Accuracy": 0.05592105263157895,
    "Voiced Pitch Accuracy": 0.006578947368421052,
    "Voicing Accuracy": 0.6813186813186813,
    "Voicing Detection": 0.7368421052631579,
    "Voicing False Alarm": 0.4304635761589404
}