{
    "DU": 133,
    "DV": 224,
    "F-measure": 0.9152046783625731,
    "F-measure Chroma": 0.9502923976608187,
    "FN": 20,
    "FNC": 2,
    "FNCch": 6,
    "FNI": 18,
    "FNIch": 14,
    "FP": 10,
    "GU": 123,
    "GV": 234,
    "Overall Accuracy": 0.876750700280112,
    "Overall Chroma Accuracy": 0.9103641456582633,
    "Precision": 0.9287833827893175,
    "Precision Chroma": 0.9643916913946587,
    "Raw Chroma Accuracy": 0.9316239316239316,
    "Raw Pitch Accuracy": 0.8632478632478633,
    "Recall": 0.9020172910662824,
    "Recall Chroma": 0.9365994236311239,
    "TN": 113,
    "TO": 357,
    "TP": 214,
    "TPC": 200,
    "TPCch": 212,
    "TPI": 14,
    "TPIch": 2,
    "Voiced Chroma Accuracy": 0.905982905982906,
    "Voiced Pitch Accuracy": 0.8547008547008547,
    "Voicing Accuracy": 0.9159663865546218,
    "Voicing Detection": 0.9145299145299145,
    "Voicing False Alarm": 0.08130081300813008
}