{
    "DU": 40,
    "DV": 509,
    "F-measure": 0.8765792031098154,
    "F-measure Chroma": 0.8960155490767736,
    "FN": 6,
    "FNC": 0,
    "FNCch": 0,
    "FNI": 6,
    "FNIch": 6,
    "FP": 63,
    "GU": 97,
    "GV": 452,
    "Overall Accuracy": 0.8214936247723132,
    "Overall Chroma Accuracy": 0.8397085610200364,
    "Precision": 0.8305709023941068,
    "Precision Chroma": 0.848987108655617,
    "Raw Chroma Accuracy": 0.9446902654867256,
    "Raw Pitch Accuracy": 0.922566371681416,
    "Recall": 0.9279835390946503,
    "Recall Chroma": 0.948559670781893,
    "TN": 34,
    "TO": 549,
    "TP": 446,
    "TPC": 417,
    "TPCch": 427,
    "TPI": 29,
    "TPIch": 19,
    "Voiced Chroma Accuracy": 0.9446902654867256,
    "Voiced Pitch Accuracy": 0.922566371681416,
    "Voicing Accuracy": 0.8743169398907104,
    "Voicing Detection": 0.9867256637168141,
    "Voicing False Alarm": 0.6494845360824743
}