{
    "DU": 156,
    "DV": 156,
    "F-measure": 0.7338129496402879,
    "F-measure Chroma": 0.8525179856115107,
    "FN": 44,
    "FNC": 11,
    "FNCch": 33,
    "FNI": 33,
    "FNIch": 11,
    "FP": 24,
    "GU": 136,
    "GV": 176,
    "Overall Accuracy": 0.6538461538461539,
    "Overall Chroma Accuracy": 0.7596153846153846,
    "Precision": 0.7611940298507462,
    "Precision Chroma": 0.8843283582089553,
    "Raw Chroma Accuracy": 0.8977272727272727,
    "Raw Pitch Accuracy": 0.5852272727272727,
    "Recall": 0.7083333333333334,
    "Recall Chroma": 0.8229166666666666,
    "TN": 112,
    "TO": 312,
    "TP": 132,
    "TPC": 92,
    "TPCch": 125,
    "TPI": 40,
    "TPIch": 7,
    "Voiced Chroma Accuracy": 0.7102272727272727,
    "Voiced Pitch Accuracy": 0.5227272727272727,
    "Voicing Accuracy": 0.782051282051282,
    "Voicing Detection": 0.75,
    "Voicing False Alarm": 0.17647058823529413
}