{
    "DU": 194,
    "DV": 312,
    "F-measure": 0.7182940516273849,
    "F-measure Chroma": 0.8395061728395062,
    "FN": 90,
    "FNC": 14,
    "FNCch": 39,
    "FNI": 76,
    "FNIch": 51,
    "FP": 31,
    "GU": 135,
    "GV": 371,
    "Overall Accuracy": 0.6324110671936759,
    "Overall Chroma Accuracy": 0.7391304347826086,
    "Precision": 0.7692307692307693,
    "Precision Chroma": 0.8990384615384616,
    "Raw Chroma Accuracy": 0.8328840970350404,
    "Raw Pitch Accuracy": 0.6199460916442049,
    "Recall": 0.6736842105263158,
    "Recall Chroma": 0.7873684210526316,
    "TN": 104,
    "TO": 506,
    "TP": 281,
    "TPC": 216,
    "TPCch": 270,
    "TPI": 65,
    "TPIch": 11,
    "Voiced Chroma Accuracy": 0.7277628032345014,
    "Voiced Pitch Accuracy": 0.5822102425876011,
    "Voicing Accuracy": 0.7608695652173914,
    "Voicing Detection": 0.7574123989218329,
    "Voicing False Alarm": 0.22962962962962963
}