{
    "DU": 117,
    "DV": 293,
    "F-measure": 0.7384196185286104,
    "F-measure Chroma": 0.8501362397820162,
    "FN": 0,
    "FNC": 0,
    "FNCch": 0,
    "FNI": 0,
    "FNIch": 0,
    "FP": 86,
    "GU": 203,
    "GV": 207,
    "Overall Accuracy": 0.6609756097560976,
    "Overall Chroma Accuracy": 0.7609756097560976,
    "Precision": 0.6609756097560976,
    "Precision Chroma": 0.7609756097560976,
    "Raw Chroma Accuracy": 0.9420289855072463,
    "Raw Pitch Accuracy": 0.7439613526570048,
    "Recall": 0.8364197530864198,
    "Recall Chroma": 0.9629629629629629,
    "TN": 117,
    "TO": 410,
    "TP": 207,
    "TPC": 154,
    "TPCch": 195,
    "TPI": 53,
    "TPIch": 12,
    "Voiced Chroma Accuracy": 0.9420289855072463,
    "Voiced Pitch Accuracy": 0.7439613526570048,
    "Voicing Accuracy": 0.7902439024390244,
    "Voicing Detection": 1.0,
    "Voicing False Alarm": 0.4236453201970443
}