{
    "DU": 22,
    "DV": 458,
    "F-measure": 0.3972286374133949,
    "F-measure Chroma": 0.7113163972286375,
    "FN": 7,
    "FNC": 0,
    "FNCch": 1,
    "FNI": 7,
    "FNIch": 6,
    "FP": 87,
    "GU": 102,
    "GV": 378,
    "Overall Accuracy": 0.35833333333333334,
    "Overall Chroma Accuracy": 0.6416666666666667,
    "Precision": 0.36363636363636365,
    "Precision Chroma": 0.6511627906976745,
    "Raw Chroma Accuracy": 0.7777777777777778,
    "Raw Pitch Accuracy": 0.41534391534391535,
    "Recall": 0.43765903307888043,
    "Recall Chroma": 0.7837150127226463,
    "TN": 15,
    "TO": 480,
    "TP": 371,
    "TPC": 157,
    "TPCch": 293,
    "TPI": 214,
    "TPIch": 78,
    "Voiced Chroma Accuracy": 0.7751322751322751,
    "Voiced Pitch Accuracy": 0.41534391534391535,
    "Voicing Accuracy": 0.8041666666666667,
    "Voicing Detection": 0.9814814814814815,
    "Voicing False Alarm": 0.8529411764705882
}