{
    "DU": 2,
    "DV": 221,
    "F-measure": 0.3645320197044335,
    "F-measure Chroma": 0.7192118226600984,
    "FN": 0,
    "FNC": 0,
    "FNCch": 0,
    "FNI": 0,
    "FNIch": 0,
    "FP": 40,
    "GU": 42,
    "GV": 181,
    "Overall Accuracy": 0.33183856502242154,
    "Overall Chroma Accuracy": 0.6547085201793722,
    "Precision": 0.33183856502242154,
    "Precision Chroma": 0.6547085201793722,
    "Raw Chroma Accuracy": 0.7955801104972375,
    "Raw Pitch Accuracy": 0.39779005524861877,
    "Recall": 0.40437158469945356,
    "Recall Chroma": 0.7978142076502732,
    "TN": 2,
    "TO": 223,
    "TP": 181,
    "TPC": 72,
    "TPCch": 144,
    "TPI": 109,
    "TPIch": 37,
    "Voiced Chroma Accuracy": 0.7955801104972375,
    "Voiced Pitch Accuracy": 0.39779005524861877,
    "Voicing Accuracy": 0.820627802690583,
    "Voicing Detection": 1.0,
    "Voicing False Alarm": 0.9523809523809523
}