{
    "DU": 4,
    "DV": 305,
    "F-measure": 0.48932038834951447,
    "F-measure Chroma": 0.69126213592233,
    "FN": 0,
    "FNC": 0,
    "FNCch": 0,
    "FNI": 0,
    "FNIch": 0,
    "FP": 103,
    "GU": 107,
    "GV": 202,
    "Overall Accuracy": 0.4077669902912621,
    "Overall Chroma Accuracy": 0.5760517799352751,
    "Precision": 0.4077669902912621,
    "Precision Chroma": 0.5760517799352751,
    "Raw Chroma Accuracy": 0.8613861386138614,
    "Raw Pitch Accuracy": 0.6039603960396039,
    "Recall": 0.6116504854368932,
    "Recall Chroma": 0.8640776699029126,
    "TN": 4,
    "TO": 309,
    "TP": 202,
    "TPC": 122,
    "TPCch": 174,
    "TPI": 80,
    "TPIch": 28,
    "Voiced Chroma Accuracy": 0.8613861386138614,
    "Voiced Pitch Accuracy": 0.6039603960396039,
    "Voicing Accuracy": 0.6666666666666666,
    "Voicing Detection": 1.0,
    "Voicing False Alarm": 0.9626168224299065
}