{
    "f0": [
        44.124292011463311,
        40.721692032420179,
        54.657896648231073,
        53.769889239411995,
        51.7768352815905,
        51.490369891506873,
        50.73891839366506,
        52.360611067405202,
        52.137941863316669,
        52.64335207668276,
        52.941151985023396,
        55.195707967858297,
        55.038780615178609,
        54.996373438391693,
        54.953862128629041,
        54.911244841474499,
        54.86852372067446,
        54.825694240765529,
        54.782755768197333,
        54.739709188764834,
        55.20828490506922,
        55.718764982144457,
        56.014288873327899,
        56.053886687540533,
        56.898049577458963,
        56.973811025000572,
        57.049242372912303,
        57.124347657207849,
        57.371387206152257,
        57.180483523253706,
        57.221209686809594,
        57.080231747050036,
        57.03289216262587,
        56.763963482408393,
        56.627275156800181,
        56.489499024057331,
        56.734799560929901,
        57.14097745084679,
        56.751021908153831,
        56.864103697055228,
        56.739952727990477,
        56.744733888767371,
        56.749514927081975,
        56.741790747728899,
        56.69667440309221,
        56.626708292059504,
        56.568880161878397,
        56.798641816368772,
        57.021255864347282,
        57.069096104321993,
        56.873306112339385,
        56.976646433720632,
        56.973545270287261,
        56.97044347241534,
        56.967344824233194,
        56.873242061696956,
        56.824429812078087,
        56.752529875615096,
        56.517865160308972,
        56.705353103327916,
        56.796587518197825,
        56.887344764499204,
        56.887249320770266,
        56.908110387770662,
        57.08609921049046,
        57.010677397757625,
        56.652912766008342,
        54.956467426621806,
        53.83008585863201,
        55.707141072714421,
        56.953711628052034,
        56.976167882717007,
        57.227662315753172,
        58.883525345729588,
        58.701781659293573,
        58.518113169028517,
        58.350976736924324,
        58.345130593638743,
        58.257989070051011,
        58.526658710306094,
        58.577592563305586,
        58.561212439791873,
        58.728035276969223,
        59.144760070722953,
        58.7225955773526,
        58.677956877862883,
        58.612008749449679,
        59.401122629231587,
        59.463161763066736,
        58.636909829739075,
        58.591115136292444,
        58.637043063583519,
        59.08852387922169,
        58.982214841016891,
        57.85689582638156,
        58.397317153776896,
        57.888832929387206,
        58.033463881689428,
        57.926439574263441,
        57.947364913970794,
        58.139237068927962,
        58.096140395006181,
        58.05293505935915,
        58.181883560086085,
        58.136214713009345,
        58.125010239075245,
        58.1510582127829,
        58.138794094229226,
        58.077302247156709,
        58.040311763796858,
        58.333689207096398,
        58.169295570979273,
        58.180296485458989,
        58.049169849360425,
        58.467484762788516,
        58.256771871980824,
        58.258461348836555,
        57.971173812831161,
        57.25560142933702,
        56.024784947429808,
        56.116560310188362,
        55.732553091188088,
        55.751761608236087,
        55.506532915074473,
        55.474296535786479,
        51.646705736771153,
        51.96883289456494,
        52.300277132236431,
        52.790300890855555,
        52.838875518779112,
        53.274283853733252,
        52.804572744359746,
        53.299876958664214,
        53.65676496457565,
        53.717869366995387,
        53.749146435113943,
        53.548071310314747,
        53.485581083667597,
        53.002523711925321,
        53.234899275322164,
        53.241403697797125,
        53.359618907055975,
        53.421639044698239,
        53.511057822954214,
        53.473909079848951,
        53.43668045168851,
        53.399376050883987,
        53.704819234921949,
        51.02582436432489,
        52.758055575660805,
        58.445328925150328,
        46.202544072790111,
        45.232519232112139,
        46.363107006607436,
        44.602297496022459,
        45.16116401029921,
        45.194338330742355,
        44.955617428496311,
        44.38252222924136,
        44.134140964715485,
        43.186079597226779,
        42.595956215580777,
        41.664990891955313,
        43.375416346385471,
        43.384236123352387,
        43.834049653726339,
        44.43954782663566,
        43.947235663371103,
        44.062817497758076,
        43.792576602868778,
        43.746423205412128,
        43.758295548489997,
        43.770163810736491,
        43.907946658639531,
        44.000518665420984,
        43.764805219552812,
        43.878748299182448,
        45.062368702690904,
        44.62390087212551,
        44.364112356568363,
        44.100363342329914,
        44.004798814104973,
        43.909932654334114,
        55.989539372019003,
        56.569643427274379,
        56.377968621997084,
        56.289281300513743,
        56.311850871774098,
        55.988303261973186,
        55.790336257615309,
        55.866397912178904,
        56.223158631559166,
        56.43557846991299,
        56.539305299898466,
        56.29666229065522,
        56.211135855107102,
        56.216953610584277,
        56.411424385175138,
        56.226124695068229,
        56.105185283839013,
        56.122273499926578,
        56.139348504600953,
        56.107367607731575,
        55.947444894961151,
        56.193116320118563,
        56.093991340530451,
        56.252297686200265,
        56.359435417526242,
        56.445739243209815,
        56.285197295716792,
        56.342248113408374,
        56.182303822897211,
        56.087298043513051,
        56.470126597780506,
        56.102886407725713,
        56.229927633153366,
        56.090486191611902,
        55.962157518291754,
        55.998971679759968,
        56.358292730314659,
        56.379015394592003,
        56.39195693023521,
        56.581026213960499,
        56.388940723271773,
        56.406075568017826,
        56.103867735336195,
        56.106654531735842,
        56.196194449678039,
        55.892417263395338,
        56.048317160900382,
        56.196718958238058,
        56.11100710236947,
        56.29027581336949,
        56.380856004529029,
        56.128350921021024,
        55.903261283602134,
        56.284189942883316,
        56.296138260690448,
        56.308077191293322,
        56.284382593496687,
        56.195219578258502,
        56.31077505416242,
        55.918504871327208,
        56.068528185273934,
        56.096878469016396,
        56.185381400832384,
        56.243514178098891,
        56.142374439552547,
        56.18566712224581,
        56.076852429129389,
        55.967349549180938,
        56.0294147480612,
        55.889993889042024,
        56.127389932437993,
        56.02705875637497,
        56.188546508554268,
        56.121883164294871,
        56.28581670290486,
        56.263573948141925,
        56.227877545278758,
        56.198836943997932,
        55.992384083688286,
        56.045687095783549,
        56.075845579859255,
        55.943428829255701,
        56.186200692710173,
        55.730798561250069,
        56.914688108463388,
        58.022774403169393,
        56.046131205061144,
        56.031124045939137,
        55.842109952396079,
        56.082017815365887,
        56.167339979592924,
        46.272713948844235,
        46.690878536250985,
        58.203821025166626,
        58.351688633750967,
        38.723209906026405,
        46.167900435144453,
        46.001304325884178,
        46.005353063329324,
        45.879068464984456,
        46.296565730309993,
        43.710398639674452,
        44.826682223496633,
        44.962068688210223,
        46.249137789546715,
        49.974862594257665,
        0.0,
        0.0,
        0.0,
        0.0,
        0.0,
        0.0,
        0.0,
        0.0,
        0.0,
        0.0,
        0.0,
        0.0,
        0.0,
        0.0,
        0.0,
        0.0,
        0.0,
        0.0,
        0.0,
        0.0,
        0.0,
        0.0,
        0.0,
        0.0,
        0.0,
        0.0,
        0.0,
        0.0,
        0.0,
        0.0,
        0.0,
        0.0,
        0.0,
        0.0,
        0.0,
        0.0,
        0.0,
        0.0,
        0.0,
        0.0,
        0.0,
        0.0,
        0.0,
        0.0,
        0.0,
        0.0,
        0.0,
        0.0,
        0.0,
        0.0,
        0.0,
        0.0,
        0.0,
        0.0,
        0.0,
        0.0,
        0.0,
        0.0
    ],
    "time": [
        0.02,
        0.040000000000000001,
        0.059999999999999998,
        0.080000000000000002,
        0.10000000000000001,
        0.12,
        0.14000000000000001,
        0.16,
        0.17999999999999999,
        0.20000000000000001,
        0.22,
        0.23999999999999999,
        0.26000000000000001,
        0.28000000000000003,
        0.29999999999999999,
        0.32000000000000001,
        0.34000000000000002,
        0.35999999999999999,
        0.38,
        0.40000000000000002,
        0.41999999999999998,
        0.44,
        0.46000000000000002,
        0.47999999999999998,
        0.5,
        0.52000000000000002,
        0.54000000000000004,
        0.56000000000000005,
        0.57999999999999996,
        0.59999999999999998,
        0.62,
        0.64000000000000001,
        0.66000000000000003,
        0.68000000000000005,
        0.69999999999999996,
        0.71999999999999997,
        0.73999999999999999,
        0.76000000000000001,
        0.78000000000000003,
        0.80000000000000004,
        0.81999999999999995,
        0.83999999999999997,
        0.85999999999999999,
        0.88,
        0.90000000000000002,
        0.92000000000000004,
        0.93999999999999995,
        0.95999999999999996,
        0.97999999999999998,
        1.0,
        1.02,
        1.04,
        1.0600000000000001,
        1.0800000000000001,
        1.1000000000000001,
        1.1200000000000001,
        1.1399999999999999,
        1.1599999999999999,
        1.1799999999999999,
        1.2,
        1.22,
        1.24,
        1.26,
        1.28,
        1.3,
        1.3200000000000001,
        1.3400000000000001,
        1.3600000000000001,
        1.3799999999999999,
        1.3999999999999999,
        1.4199999999999999,
        1.4399999999999999,
        1.46,
        1.48,
        1.5,
        1.52,
        1.54,
        1.5600000000000001,
        1.5800000000000001,
        1.6000000000000001,
        1.6200000000000001,
        1.6399999999999999,
        1.6599999999999999,
        1.6799999999999999,
        1.7,
        1.72,
        1.74,
        1.76,
        1.78,
        1.8,
        1.8200000000000001,
        1.8400000000000001,
        1.8600000000000001,
        1.8799999999999999,
        1.8999999999999999,
        1.9199999999999999,
        1.9399999999999999,
        1.96,
        1.98,
        2.0,
        2.02,
        2.04,
        2.0600000000000001,
        2.0800000000000001,
        2.1000000000000001,
        2.1200000000000001,
        2.1400000000000001,
        2.1600000000000001,
        2.1800000000000002,
        2.2000000000000002,
        2.2200000000000002,
        2.2400000000000002,
        2.2599999999999998,
        2.2799999999999998,
        2.2999999999999998,
        2.3199999999999998,
        2.3399999999999999,
        2.3599999999999999,
        2.3799999999999999,
        2.3999999999999999,
        2.4199999999999999,
        2.4399999999999999,
        2.46,
        2.48,
        2.5,
        2.52,
        2.54,
        2.5600000000000001,
        2.5800000000000001,
        2.6000000000000001,
        2.6200000000000001,
        2.6400000000000001,
        2.6600000000000001,
        2.6800000000000002,
        2.7000000000000002,
        2.7200000000000002,
        2.7400000000000002,
        2.7599999999999998,
        2.7799999999999998,
        2.7999999999999998,
        2.8199999999999998,
        2.8399999999999999,
        2.8599999999999999,
        2.8799999999999999,
        2.8999999999999999,
        2.9199999999999999,
        2.9399999999999999,
        2.96,
        2.98,
        3.0,
        3.02,
        3.04,
        3.0600000000000001,
        3.0800000000000001,
        3.1000000000000001,
        3.1200000000000001,
        3.1400000000000001,
        3.1600000000000001,
        3.1800000000000002,
        3.2000000000000002,
        3.2200000000000002,
        3.2400000000000002,
        3.2599999999999998,
        3.2799999999999998,
        3.2999999999999998,
        3.3199999999999998,
        3.3399999999999999,
        3.3599999999999999,
        3.3799999999999999,
        3.3999999999999999,
        3.4199999999999999,
        3.4399999999999999,
        3.46,
        3.48,
        3.5,
        3.52,
        3.54,
        3.5600000000000001,
        3.5800000000000001,
        3.6000000000000001,
        3.6200000000000001,
        3.6400000000000001,
        3.6600000000000001,
        3.6800000000000002,
        3.7000000000000002,
        3.7200000000000002,
        3.7400000000000002,
        3.7599999999999998,
        3.7799999999999998,
        3.7999999999999998,
        3.8199999999999998,
        3.8399999999999999,
        3.8599999999999999,
        3.8799999999999999,
        3.8999999999999999,
        3.9199999999999999,
        3.9399999999999999,
        3.96,
        3.98,
        4.0,
        4.0199999999999996,
        4.04,
        4.0599999999999996,
        4.0800000000000001,
        4.0999999999999996,
        4.1200000000000001,
        4.1399999999999997,
        4.1600000000000001,
        4.1799999999999997,
        4.2000000000000002,
        4.2199999999999998,
        4.2400000000000002,
        4.2599999999999998,
        4.2800000000000002,
        4.2999999999999998,
        4.3200000000000003,
        4.3399999999999999,
        4.3600000000000003,
        4.3799999999999999,
        4.4000000000000004,
        4.4199999999999999,
        4.4400000000000004,
        4.46,
        4.4800000000000004,
        4.5,
        4.5199999999999996,
        4.54,
        4.5599999999999996,
        4.5800000000000001,
        4.5999999999999996,
        4.6200000000000001,
        4.6399999999999997,
        4.6600000000000001,
        4.6799999999999997,
        4.7000000000000002,
        4.7199999999999998,
        4.7400000000000002,
        4.7599999999999998,
        4.7800000000000002,
        4.7999999999999998,
        4.8200000000000003,
        4.8399999999999999,
        4.8600000000000003,
        4.8799999999999999,
        4.9000000000000004,
        4.9199999999999999,
        4.9400000000000004,
        4.96,
        4.9800000000000004,
        5.0,
        5.0199999999999996,
        5.04,
        5.0599999999999996,
        5.0800000000000001,
        5.0999999999999996,
        5.1200000000000001,
        5.1399999999999997,
        5.1600000000000001,
        5.1799999999999997,
        5.2000000000000002,
        5.2199999999999998,
        5.2400000000000002,
        5.2599999999999998,
        5.2800000000000002,
        5.2999999999999998,
        5.3200000000000003,
        5.3399999999999999,
        5.3600000000000003,
        5.3799999999999999,
        5.4000000000000004,
        5.4199999999999999,
        5.4400000000000004,
        5.46,
        5.4800000000000004,
        5.5,
        5.5199999999999996,
        5.54,
        5.5599999999999996,
        5.5800000000000001,
        5.5999999999999996,
        5.6200000000000001,
        5.6399999999999997,
        5.6600000000000001,
        5.6799999999999997,
        5.7000000000000002,
        5.7199999999999998,
        5.7400000000000002,
        5.7599999999999998,
        5.7800000000000002,
        5.7999999999999998,
        5.8200000000000003,
        5.8399999999999999,
        5.8600000000000003,
        5.8799999999999999,
        5.9000000000000004,
        5.9199999999999999,
        5.9400000000000004,
        5.96,
        5.9800000000000004,
        6.0,
        6.0199999999999996,
        6.04,
        6.0599999999999996,
        6.0800000000000001,
        6.0999999999999996,
        6.1200000000000001,
        6.1399999999999997,
        6.1600000000000001,
        6.1799999999999997,
        6.2000000000000002,
        6.2199999999999998,
        6.2400000000000002,
        6.2599999999999998,
        6.2800000000000002,
        6.2999999999999998,
        6.3200000000000003,
        6.3399999999999999,
        6.3600000000000003,
        6.3799999999999999,
        6.4000000000000004,
        6.4199999999999999,
        6.4400000000000004,
        6.46,
        6.4800000000000004,
        6.5,
        6.5199999999999996,
        6.54,
        6.5599999999999996,
        6.5800000000000001,
        6.5999999999999996,
        6.6200000000000001,
        6.6399999999999997,
        6.6600000000000001,
        6.6799999999999997,
        6.7000000000000002,
        6.7199999999999998,
        6.7400000000000002,
        6.7599999999999998,
        6.7800000000000002,
        6.7999999999999998,
        6.8200000000000003,
        6.8399999999999999,
        6.8600000000000003,
        6.8799999999999999,
        6.9000000000000004,
        6.9199999999999999,
        6.9400000000000004
    ]
}