{
    "DU": 118,
    "DV": 317,
    "F-measure": 0.7315175097276265,
    "F-measure Chroma": 0.8430609597924773,
    "FN": 47,
    "FNC": 21,
    "FNCch": 39,
    "FNI": 26,
    "FNIch": 8,
    "FP": 52,
    "GU": 123,
    "GV": 312,
    "Overall Accuracy": 0.6482758620689655,
    "Overall Chroma Accuracy": 0.7471264367816092,
    "Precision": 0.7268041237113402,
    "Precision Chroma": 0.8376288659793815,
    "Raw Chroma Accuracy": 0.9391025641025641,
    "Raw Pitch Accuracy": 0.7435897435897436,
    "Recall": 0.7362924281984334,
    "Recall Chroma": 0.8485639686684073,
    "TN": 71,
    "TO": 435,
    "TP": 265,
    "TPC": 211,
    "TPCch": 254,
    "TPI": 54,
    "TPIch": 11,
    "Voiced Chroma Accuracy": 0.8141025641025641,
    "Voiced Pitch Accuracy": 0.6762820512820513,
    "Voicing Accuracy": 0.7724137931034483,
    "Voicing Detection": 0.8493589743589743,
    "Voicing False Alarm": 0.42276422764227645
}