{
    "DU": 105,
    "DV": 228,
    "F-measure": 0.7164685908319186,
    "F-measure Chroma": 0.8455008488964346,
    "FN": 48,
    "FNC": 13,
    "FNCch": 37,
    "FNI": 35,
    "FNIch": 11,
    "FP": 29,
    "GU": 86,
    "GV": 247,
    "Overall Accuracy": 0.6336336336336337,
    "Overall Chroma Accuracy": 0.7477477477477478,
    "Precision": 0.7403508771929824,
    "Precision Chroma": 0.8736842105263158,
    "Raw Chroma Accuracy": 0.9271255060728745,
    "Raw Pitch Accuracy": 0.6761133603238867,
    "Recall": 0.694078947368421,
    "Recall Chroma": 0.819078947368421,
    "TN": 57,
    "TO": 333,
    "TP": 199,
    "TPC": 154,
    "TPCch": 192,
    "TPI": 45,
    "TPIch": 7,
    "Voiced Chroma Accuracy": 0.7773279352226721,
    "Voiced Pitch Accuracy": 0.6234817813765182,
    "Voicing Accuracy": 0.7687687687687688,
    "Voicing Detection": 0.805668016194332,
    "Voicing False Alarm": 0.3372093023255814
}