{
    "f0": [
        0.0,
        0.0,
        0.0,
        0.0,
        0.0,
        0.0,
        0.0,
        0.0,
        0.0,
        0.0,
        0.0,
        0.0,
        0.0,
        0.0,
        0.0,
        0.0,
        0.0,
        0.0,
        0.0,
        0.0,
        0.0,
        0.0,
        0.0,
        0.0,
        0.0,
        0.0,
        0.0,
        0.0,
        0.0,
        0.0,
        0.0,
        0.0,
        0.0,
        0.0,
        0.0,
        0.0,
        0.0,
        0.0,
        0.0,
        0.0,
        0.0,
        0.0,
        0.0,
        0.0,
        0.0,
        0.0,
        0.0,
        0.0,
        0.0,
        0.0,
        0.0,
        49.239132407686,
        42.290419582245022,
        41.187849667978007,
        54.319869806952639,
        53.613147995790754,
        0.0,
        0.0,
        35.906930709347762,
        53.913024007220088,
        53.088017976997605,
        52.381293030180771,
        51.88080823817684,
        51.923103305302831,
        52.17018426563186,
        52.65590302622212,
        52.304266832397985,
        52.542904571090745,
        52.507978506690591,
        52.800473247353921,
        52.808250524532809,
        52.956458868324738,
        51.908011518091698,
        52.842104884340614,
        53.637669447163205,
        54.613997897371206,
        52.696648593141006,
        54.838942728391721,
        55.648541639265375,
        56.066950557072019,
        56.268881761397928,
        56.221154166790313,
        55.595477800545844,
        55.730126625979004,
        56.011226468589911,
        55.327408428175673,
        55.306004276674528,
        55.62132469407436,
        55.718210283748107,
        55.570934265790754,
        56.309345549588372,
        56.425378214234087,
        56.309970399117461,
        56.687316456341165,
        57.781212087518647,
        57.945141185827097,
        58.014045515362412,
        57.779545498920442,
        57.877760450191211,
        57.665320110520383,
        57.589551425311257,
        57.615892094667501,
        57.642195098291651,
        57.840720447937017,
        57.952050229341026,
        57.577599458057961,
        57.419871881392936,
        57.490349416152135,
        57.321492261027288,
        56.513802599889587,
        55.116057896903769,
        55.374027547524889,
        56.327473070561666,
        56.196081269807507,
        56.16588099285255,
        55.910519625985096,
        55.765956743397034,
        55.863323433903268,
        55.923155389724002,
        55.859147940841652,
        56.051890455871614,
        56.634650827319575,
        56.659993430344088,
        56.956215674808533,
        57.114786292443,
        56.988027997858659,
        57.359467058620432,
        57.347625775839532,
        57.244103205760545,
        57.012136574533969,
        57.014189437065518,
        56.947036792786349,
        56.879623765617723,
        56.984216149835035,
        57.114005019581271,
        57.056023978637008,
        57.05195051675112,
        56.98885820645333,
        57.127435050455894,
        57.063310218037053,
        56.886298102190231,
        56.764461336653767,
        57.551550445997051,
        57.291837775262863,
        57.040343826581179,
        57.224375867637136,
        56.66238360741842,
        57.118311900738902,
        57.014933320456819,
        54.700459919489745,
        55.08359523451383,
        55.226052416457989,
        55.308992695381463,
        55.452114907040901,
        55.390053803747186,
        55.210446085340337,
        55.260596804039317,
        55.706124022610538,
        55.598984350335293,
        55.003239174697825,
        55.152527011339828,
        54.893619046408432,
        55.211792225093433,
        55.778095394639912,
        55.315935507957704,
        52.068246333717113,
        50.208006838519452,
        46.421609669748875,
        39.615993058979988,
        53.159309884157409,
        53.009513672110657,
        52.858410117070228,
        52.806535654468263,
        52.530150173451986,
        52.755301622613288,
        52.703509163262027,
        52.886817956869088,
        52.964816646596844,
        52.920012987561442,
        52.923522029723088,
        52.934869333903428,
        52.942287456720848,
        52.94970528593371,
        53.129382019120918,
        55.318845468264406,
        55.864658155598121,
        55.326598955887562,
        53.993778384396464,
        53.655625952126059,
        53.434488264771126,
        53.034063595181316,
        52.886976233537304,
        52.949417022236915,
        52.78218161164159,
        53.016958820796134,
        53.09880828303293,
        53.933981553045989,
        53.668176057659508,
        53.05296002074757,
        53.439711678461983,
        54.960713755991684,
        55.313819205013644,
        55.291897277521642,
        55.372088557515077,
        55.156589238911714,
        55.434332252193556,
        55.360843148317954,
        55.287044843639791,
        55.212930520235254,
        55.310761432400504,
        55.272209916161728,
        55.438296000597958,
        55.284984697459379,
        55.327303898386155,
        55.263436392502953,
        55.28908224625583,
        55.292873993094091,
        55.342592517628887,
        55.36928247259786,
        55.395931430065644,
        55.422539343521649,
        55.225811614090986,
        55.323113606283336,
        55.323917866645232,
        55.324723389965762,
        55.325528962491894,
        55.325724693704863,
        55.326224673754531,
        55.329841731052916,
        55.331897846310788,
        55.333952504416658,
        55.336004146493408,
        55.338055632085243,
        55.340106787997037,
        55.342157787518587,
        55.329107772130506,
        55.285080099317867,
        55.256468573506538,
        55.281587683755404,
        55.30666901210882,
        55.331714056339479,
        55.356724305723304,
        55.34530249330696,
        55.280036113038129,
        55.339204191538677,
        55.323305376833169,
        55.141114022513435,
        55.213469714100945,
        55.397120873413066,
        55.290248565015169,
        55.234218620525077,
        55.324448326864271,
        55.113160508142244,
        55.213094286879198,
        55.312447923943097,
        55.061483155514949,
        55.354842741341429,
        55.254584088452127,
        55.38337539360397,
        55.162270223882771,
        55.256540286417973,
        55.092530021291921,
        54.9269525345128,
        74.523978440253572,
        44.145741701299798,
        35.913846736375731,
        48.295261806660243,
        42.367917061228795,
        44.098228134470162,
        55.214802271044306,
        55.14408829032736,
        55.584811875828876,
        55.342749779856497,
        55.09725510716757,
        0.0,
        0.0,
        0.0,
        0.0,
        55.418924532663866,
        54.530918848601807,
        0.0,
        0.0,
        0.0,
        0.0,
        0.0,
        0.0,
        0.0,
        0.0,
        0.0,
        0.0,
        0.0,
        0.0,
        0.0,
        0.0,
        0.0,
        0.0,
        0.0,
        0.0,
        0.0,
        0.0,
        0.0,
        0.0,
        0.0,
        0.0,
        0.0,
        0.0,
        0.0,
        0.0,
        0.0,
        0.0,
        0.0,
        0.0,
        0.0,
        0.0,
        0.0,
        0.0,
        0.0,
        0.0,
        0.0,
        0.0,
        0.0,
        0.0,
        0.0,
        0.0,
        0.0,
        0.0,
        0.0,
        0.0,
        0.0,
        0.0,
        0.0,
        0.0,
        0.0,
        0.0,
        0.0,
        0.0,
        0.0,
        0.0,
        0.0,
        0.0,
        0.0,
        0.0,
        0.0,
        0.0,
        0.0,
        0.0,
        0.0,
        0.0,
        0.0,
        0.0,
        0.0,
        0.0,
        0.0,
        0.0,
        0.0,
        0.0,
        0.0,
        0.0,
        0.0,
        0.0,
        0.0,
        0.0
    ],
    "time": [
        0.02,
        0.040000000000000001,
        0.059999999999999998,
        0.080000000000000002,
        0.10000000000000001,
        0.12,
        0.14000000000000001,
        0.16,
        0.17999999999999999,
        0.20000000000000001,
        0.22,
        0.23999999999999999,
        0.26000000000000001,
        0.28000000000000003,
        0.29999999999999999,
        0.32000000000000001,
        0.34000000000000002,
        0.35999999999999999,
        0.38,
        0.40000000000000002,
        0.41999999999999998,
        0.44,
        0.46000000000000002,
        0.47999999999999998,
        0.5,
        0.52000000000000002,
        0.54000000000000004,
        0.56000000000000005,
        0.57999999999999996,
        0.59999999999999998,
        0.62,
        0.64000000000000001,
        0.66000000000000003,
        0.68000000000000005,
        0.69999999999999996,
        0.71999999999999997,
        0.73999999999999999,
        0.76000000000000001,
        0.78000000000000003,
        0.80000000000000004,
        0.81999999999999995,
        0.83999999999999997,
        0.85999999999999999,
        0.88,
        0.90000000000000002,
        0.92000000000000004,
        0.93999999999999995,
        0.95999999999999996,
        0.97999999999999998,
        1.0,
        1.02,
        1.04,
        1.0600000000000001,
        1.0800000000000001,
        1.1000000000000001,
        1.1200000000000001,
        1.1399999999999999,
        1.1599999999999999,
        1.1799999999999999,
        1.2,
        1.22,
        1.24,
        1.26,
        1.28,
        1.3,
        1.3200000000000001,
        1.3400000000000001,
        1.3600000000000001,
        1.3799999999999999,
        1.3999999999999999,
        1.4199999999999999,
        1.4399999999999999,
        1.46,
        1.48,
        1.5,
        1.52,
        1.54,
        1.5600000000000001,
        1.5800000000000001,
        1.6000000000000001,
        1.6200000000000001,
        1.6399999999999999,
        1.6599999999999999,
        1.6799999999999999,
        1.7,
        1.72,
        1.74,
        1.76,
        1.78,
        1.8,
        1.8200000000000001,
        1.8400000000000001,
        1.8600000000000001,
        1.8799999999999999,
        1.8999999999999999,
        1.9199999999999999,
        1.9399999999999999,
        1.96,
        1.98,
        2.0,
        2.02,
        2.04,
        2.0600000000000001,
        2.0800000000000001,
        2.1000000000000001,
        2.1200000000000001,
        2.1400000000000001,
        2.1600000000000001,
        2.1800000000000002,
        2.2000000000000002,
        2.2200000000000002,
        2.2400000000000002,
        2.2599999999999998,
        2.2799999999999998,
        2.2999999999999998,
        2.3199999999999998,
        2.3399999999999999,
        2.3599999999999999,
        2.3799999999999999,
        2.3999999999999999,
        2.4199999999999999,
        2.4399999999999999,
        2.46,
        2.48,
        2.5,
        2.52,
        2.54,
        2.5600000000000001,
        2.5800000000000001,
        2.6000000000000001,
        2.6200000000000001,
        2.6400000000000001,
        2.6600000000000001,
        2.6800000000000002,
        2.7000000000000002,
        2.7200000000000002,
        2.7400000000000002,
        2.7599999999999998,
        2.7799999999999998,
        2.7999999999999998,
        2.8199999999999998,
        2.8399999999999999,
        2.8599999999999999,
        2.8799999999999999,
        2.8999999999999999,
        2.9199999999999999,
        2.9399999999999999,
        2.96,
        2.98,
        3.0,
        3.02,
        3.04,
        3.0600000000000001,
        3.0800000000000001,
        3.1000000000000001,
        3.1200000000000001,
        3.1400000000000001,
        3.1600000000000001,
        3.1800000000000002,
        3.2000000000000002,
        3.2200000000000002,
        3.2400000000000002,
        3.2599999999999998,
        3.2799999999999998,
        3.2999999999999998,
        3.3199999999999998,
        3.3399999999999999,
        3.3599999999999999,
        3.3799999999999999,
        3.3999999999999999,
        3.4199999999999999,
        3.4399999999999999,
        3.46,
        3.48,
        3.5,
        3.52,
        3.54,
        3.5600000000000001,
        3.5800000000000001,
        3.6000000000000001,
        3.6200000000000001,
        3.6400000000000001,
        3.6600000000000001,
        3.6800000000000002,
        3.7000000000000002,
        3.7200000000000002,
        3.7400000000000002,
        3.7599999999999998,
        3.7799999999999998,
        3.7999999999999998,
        3.8199999999999998,
        3.8399999999999999,
        3.8599999999999999,
        3.8799999999999999,
        3.8999999999999999,
        3.9199999999999999,
        3.9399999999999999,
        3.96,
        3.98,
        4.0,
        4.0199999999999996,
        4.04,
        4.0599999999999996,
        4.0800000000000001,
        4.0999999999999996,
        4.1200000000000001,
        4.1399999999999997,
        4.1600000000000001,
        4.1799999999999997,
        4.2000000000000002,
        4.2199999999999998,
        4.2400000000000002,
        4.2599999999999998,
        4.2800000000000002,
        4.2999999999999998,
        4.3200000000000003,
        4.3399999999999999,
        4.3600000000000003,
        4.3799999999999999,
        4.4000000000000004,
        4.4199999999999999,
        4.4400000000000004,
        4.46,
        4.4800000000000004,
        4.5,
        4.5199999999999996,
        4.54,
        4.5599999999999996,
        4.5800000000000001,
        4.5999999999999996,
        4.6200000000000001,
        4.6399999999999997,
        4.6600000000000001,
        4.6799999999999997,
        4.7000000000000002,
        4.7199999999999998,
        4.7400000000000002,
        4.7599999999999998,
        4.7800000000000002,
        4.7999999999999998,
        4.8200000000000003,
        4.8399999999999999,
        4.8600000000000003,
        4.8799999999999999,
        4.9000000000000004,
        4.9199999999999999,
        4.9400000000000004,
        4.96,
        4.9800000000000004,
        5.0,
        5.0199999999999996,
        5.04,
        5.0599999999999996,
        5.0800000000000001,
        5.0999999999999996,
        5.1200000000000001,
        5.1399999999999997,
        5.1600000000000001,
        5.1799999999999997,
        5.2000000000000002,
        5.2199999999999998,
        5.2400000000000002,
        5.2599999999999998,
        5.2800000000000002,
        5.2999999999999998,
        5.3200000000000003,
        5.3399999999999999,
        5.3600000000000003,
        5.3799999999999999,
        5.4000000000000004,
        5.4199999999999999,
        5.4400000000000004,
        5.46,
        5.4800000000000004,
        5.5,
        5.5199999999999996,
        5.54,
        5.5599999999999996,
        5.5800000000000001,
        5.5999999999999996,
        5.6200000000000001,
        5.6399999999999997,
        5.6600000000000001,
        5.6799999999999997,
        5.7000000000000002,
        5.7199999999999998,
        5.7400000000000002,
        5.7599999999999998,
        5.7800000000000002,
        5.7999999999999998,
        5.8200000000000003,
        5.8399999999999999,
        5.8600000000000003,
        5.8799999999999999,
        5.9000000000000004,
        5.9199999999999999,
        5.9400000000000004,
        5.96,
        5.9800000000000004,
        6.0,
        6.0199999999999996,
        6.04,
        6.0599999999999996,
        6.0800000000000001,
        6.0999999999999996,
        6.1200000000000001,
        6.1399999999999997,
        6.1600000000000001,
        6.1799999999999997,
        6.2000000000000002,
        6.2199999999999998,
        6.2400000000000002,
        6.2599999999999998,
        6.2800000000000002,
        6.2999999999999998,
        6.3200000000000003,
        6.3399999999999999,
        6.3600000000000003,
        6.3799999999999999,
        6.4000000000000004,
        6.4199999999999999,
        6.4400000000000004,
        6.46,
        6.4800000000000004,
        6.5,
        6.5199999999999996,
        6.54,
        6.5599999999999996,
        6.5800000000000001,
        6.5999999999999996,
        6.6200000000000001,
        6.6399999999999997,
        6.6600000000000001,
        6.6799999999999997,
        6.7000000000000002,
        6.7199999999999998,
        6.7400000000000002,
        6.7599999999999998,
        6.7800000000000002,
        6.7999999999999998,
        6.8200000000000003,
        6.8399999999999999,
        6.8600000000000003,
        6.8799999999999999,
        6.9000000000000004,
        6.9199999999999999,
        6.9400000000000004,
        6.96,
        6.9800000000000004,
        7.0,
        7.0199999999999996,
        7.04,
        7.0599999999999996,
        7.0800000000000001,
        7.0999999999999996,
        7.1200000000000001,
        7.1399999999999997,
        7.1600000000000001,
        7.1799999999999997,
        7.2000000000000002,
        7.2199999999999998,
        7.2400000000000002
    ]
}