{
	"f0": [NaN,47.21309485,56.00679625,57.97026473,46.91209807,51.81874342,62.4780494,62.16356019,62.25032069,62.4780494,61.57377211,61.29585445,60.69901265,60.54768657,60.20158404,59.26713491,59.10019599,58.91885809,58.60286078,58.5398246,58.80123639,59.22666508,59.77753844,59.42075221,59.17006435,59.4135331,59.92812263,60.27820939,62.50601765,60.77071766,60.91732291,60.60452395,60.26546868,60.26960453,60.33409948,60.40591459,60.55696519,60.70285452,60.83207634,60.91732291,60.33040771,55.56772588,53.69991543,47.34887861,47.44683058,40.47471704,62.48041248,62.1587612,61.58041648,61.59355306,61.60377944,61.51677544,62.15444483,61.42404159,61.21841468,62.15444483,61.95980269,61.5679447,61.39975072,61.92026968,62.2534211,61.8267934,61.66722191,62.4780494,62.19796501,60.8079592,59.48564517,60.33040771,60.91732291,60.91732291,60.0442468,60.33040771,61.83677829,61.79205685,56.93198701,57.17399484,60.91732291,59.76273913,58.96203419,57.35621978,56.93520015,56.92192908,57.09671521,57.57736052,58.22905945,58.40980872,58.9446811,58.59504165,58.48144325,58.71945999,58.89247382,59.14371085,59.27034587,59.09051037,58.86737921,58.83227647,59.19481384,59.31014726,59.09056262,58.89138295,59.10559092,59.21538685,60.10944453,59.56437497,59.29277674,59.20183559,59.0781953,58.9311756,58.86882708,58.86747512,59.16223364,59.52507324,59.32170162,59.14536906,58.84094706,58.84692758,58.89715957,59.55482412,60.07845062,59.98727569,59.69366492,59.55790081,59.37366954,59.20266452,59.00261261,59.06737846,59.16077196,59.1479469,59.14103156,58.3694174,58.04137035,59.94310311,60.91732291,60.24880586,59.70265142,59.0508336,58.09942381,58.68036542,60.62137826,60.75107728,60.63538364,60.56253092,60.61860072,60.83001945,61.22914645,61.5502746,61.8821083,61.70749773,60.99397626,61.10693202,61.46998791,61.30452041,61.31908769,62.15033965,63.00125483,62.45783908,62.1710557,62.0078369,62.11574658,62.31754858,62.55151208,62.10527155,62.10751477,62.33599878,62.37197685,62.4018577,62.4353924,62.4780494,62.43828905,62.22969891,61.87351344,61.94208331,62.17301441,62.11755669,62.47765224,53.83482081,54.15803465,54.58140903,55.16067481,55.9344652,55.98953975,55.95993741,55.84402867,55.79322186,55.92661969,55.9414936,56.03391849,56.27459196,56.77371784,57.23175013,57.23212991,57.28116155,57.70019587,57.9219835,58.21288638,57.64717977,57.606326,57.87884879,58.02312257,57.91827775,58.05495743,58.25709758,58.14140159,58.0045765,58.09057337,58.0998517,58.13978232,58.35879251,58.08296788,57.44202313,57.49430946,57.48885194,57.3942885,57.10276509,56.57814349,56.49278902,56.26326518,55.82247489,55.80728502,55.9103735,56.03904017,56.28369458,55.47254796,55.37553831,55.22089393,54.91340592,54.79554148,54.4803055,53.77279733,53.90987024,53.8536097,53.42138292,53.38003436,53.62135244,53.70813862,53.72004284,53.65044431,53.57400589,53.6923211,53.67077685,53.50126213,53.60361449,54.00282524,54.31133692,54.42732223,55.13489482,55.92899943,56.01038786,55.92384095,55.88490123,56.07085388,56.44723415,56.57778612,56.22679403,56.21382547,68.29330523,56.20454674,56.20750571,56.36711494,56.52821394,56.29657698,55.87351058,55.56772588,55.71496838,55.97687927,56.26489709,55.78826823,51.31455706,50.59982589,49.99488296,48.62137826,47.62368344,46.92563179,47.34887861,50.31549102,50.01026094,50.41606821,47.90292079,48.8831457,48.7995533,46.68036542,46.66768296,51.14399075,38.15444483,37.67045369,50.66534746,60.62137826,57.20377983,48.91021165,48.76871822,46.71115034,58.42002457,60.0442468,60.8845373,59.96598303,59.73555165,59.83730754,52.6639592,75.67620513,59.22101705,59.26478577,39.23788313,50.64214864,49.03833471,52.91615053,53.06607149,53.50429368,53.3108577,52.5449703,52.67705362,53.02268788,53.30040289,53.68862849,53.91288971,53.74739914,53.87031682,54.35335148,54.39934446,54.06991898,54.30040362,55.800538,56.46727057,58.16354076,54.0023321,53.90676822,54.9224708,57.87827956,57.79228753,57.48896496,57.30496185,57.29614281,57.21734852,57.17358204,57.25022769,57.45775954,57.58199971,57.92034405,57.4486123,57.33997758,57.52316768,57.74572918,57.40412123,57.08794721,57.37965594,57.38050113,57.25718644,57.20847028,57.25366037,57.38641562,57.51561858,57.31988126,57.09533086,57.03385866,56.79741436,56.54033948,56.53920076,56.74162795,57.23056155,56.46727057,56.45748512,56.84906173,57.13674097,57.41612942,53.91053511,53.46115179,53.31986464,53.25627301,53.45764818,53.78450626,53.77642808,53.99807648,54.06373126,54.36987268,54.58186883,54.73459303,54.84848414,53.69991543,53.65077593,55.30758909,58.68036542,35.34887861,56.93520015,56.75304376,56.93520015,56.58163851,56.42173743,56.36591608,56.69965447,57.1100686,56.77504065,57.03471816,57.22590515,57.439537,57.41171803,57.50582417,57.17399484,56.36958781,56.7174765,58.44001118,58.32082697,57.83655183,57.13722006,57.91080137,61.83677829,62.15444483,57.09824153,56.90248098,58.16354076,58.18167491,57.86351914,57.71892793,57.5571705,59.97287109,60.62137826,54.50528578,52.13645413,58.42002457,58.22950503,58.14781417,58.11527741,57.90523858,57.44264115,57.54498854,56.3768759,55.34995772,55.78826823,56.62683387,56.9935872,57.99344797,58.19303286,56.87968298,55.53176452,55.78826823,55.61143004,55.9659563,56.60162379,56.93936356,56.71392674,56.8885315,57.15851455,57.29748278,57.16275816,56.50541076,55.48341938,55.13489482,57.91080137,57.53442069,56.84647876,55.56772588,48.04989566,46.31269415,45.23765903,41.3701241,57.91080137,57.41612942,57.91080137,58.08672366,57.83093572,45.88515979,46.03826618,45.87978304,58.68036542,48.76871822,48.18673601,55.45849939,76.93035138,76.93035138,76.93035138,76.93035138,76.93035138,76.93035138,76.93035138,76.93035138,76.93035138,NaN,NaN],
	"ap0": [NaN,0.6751433689,0.5838468613,0.7262998839,0.6892601829,0.6996855183,0.61137465,0.2856517501,0.3089803335,0.4535309472,0.1422066068,0.07340674994,0.05877073045,0.06510938814,0.1652742202,0.07447064534,0.0701985458,0.177507094,0.2087836537,0.06267181498,0.07692266282,0.1416403631,0.1344059214,0.06555263211,0.03473942664,0.06129610224,0.1072516106,0.2735260234,0.3673153676,0.2141286741,0.172520772,0.1357325987,0.04077513134,0.02551842096,0.01873218849,0.0202031769,0.02561254133,0.07033263617,0.1382025735,0.1377936197,0.3302460364,0.4077208402,0.6566924963,0.5234150909,0.2421965366,0.6199025225,0.310312988,0.2505893172,0.184822591,0.1487813928,0.1959922384,0.2510194581,0.4538344916,0.3217816891,0.3022387882,0.363518927,0.2293049865,0.2314561407,0.2146376245,0.2013943755,0.1712887798,0.1063378985,0.08627832248,0.3130289527,0.1142125942,0.2186471822,0.3296270741,0.2555340341,0.3474979916,0.5009251556,0.2445168537,0.371002449,0.3172461088,0.4299913655,0.220346671,0.2591553994,0.6800260614,0.5192047678,0.2795738066,0.2211382489,0.1590680105,0.04135672357,0.01857176486,0.05177989838,0.05678901297,0.1232805035,0.156717672,0.09782902352,0.06238983684,0.1142650449,0.0459076509,0.0316374197,0.02058327694,0.02007644135,0.01965664132,0.02068176694,0.03730768325,0.0251288595,0.04820762631,0.1232361802,0.3727590282,0.2596992392,0.3169207269,0.2848565631,0.1245071967,0.06731097365,0.06025672723,0.07807533531,0.06798342696,0.08232313527,0.1449230548,0.1722694383,0.0695202103,0.05169217658,0.06100530957,0.06047810405,0.1922886197,0.2531399692,0.1949698136,0.1000524899,0.02906907561,0.01761965976,0.01506888471,0.02219138322,0.03179367508,0.02149288391,0.01595715382,0.03225944989,0.05200636224,0.1834358314,0.2762587873,0.2343992253,0.377241862,0.4285140856,0.1851816203,0.2306324805,0.3178564929,0.2528854552,0.4310900378,0.1119628447,0.04404563285,0.0384099403,0.02645226003,0.03060167827,0.07020269893,0.1495873373,0.1553702572,0.2642838136,0.2026725992,0.156496268,0.1161963201,0.05697857689,0.06341208041,0.2456977568,0.1587904935,0.1246258372,0.1042341358,0.1420084669,0.07540238315,0.06903484595,0.2928021205,0.1575850089,0.09358950662,0.1121795566,0.1152980411,0.05223211693,0.1290127912,0.2712693381,0.09691350851,0.0930115429,0.1102786711,0.0876988844,0.1449398924,0.09511830824,0.4164210334,0.2161377718,0.08625817083,0.06561752982,0.1083320523,0.04098869357,0.01190737798,0.00595660359,0.005401050197,0.007505389687,0.01179478948,0.007622906544,0.01306213009,0.04148759581,0.1209417111,0.1294502726,0.0654195322,0.08156880224,0.1317856076,0.05012169924,0.06069865202,0.03183112654,0.02153078274,0.03474220105,0.02652108251,0.01370008086,0.01656381457,0.03343261133,0.04491438081,0.03036558214,0.0180026034,0.02711851108,0.08937604254,0.1847201165,0.1964926227,0.1407549296,0.06082573591,0.01837566631,0.01439037888,0.0371078736,0.01996163858,0.02858953607,0.0432663829,0.0551573309,0.03008463211,0.01857749434,0.03911534161,0.1277430273,0.06831509824,0.06024171062,0.06224405449,0.02952571853,0.02616446793,0.0471813289,0.06320516857,0.05035367021,0.04913098061,0.06644001321,0.1429599091,0.06154264476,0.0285267396,0.02516880398,0.05548880539,0.1741627383,0.1879750791,0.1604934449,0.2210449702,0.2103274151,0.1606015919,0.04201421004,0.0335243429,0.1129184835,0.05062601103,0.02223903392,0.0125492325,0.01293914958,0.03199567137,0.09562279859,0.2174209377,0.2436563998,0.1649510096,0.14592412,0.06156754829,0.08119405443,0.184632219,0.07590947998,0.04316227135,0.05154142931,0.1752747389,0.0609480821,0.05508572362,0.1431864742,0.6837345211,0.3951601943,0.2792132515,0.2536733474,0.3790380066,0.4708308634,0.6639917154,0.5048462744,0.2905896352,0.3320436958,0.3982968473,0.5149341156,0.4525104068,0.4842951914,0.4428990723,0.5401934107,0.494211932,0.2668161589,0.3955502484,0.821401496,0.7380344998,0.5537040056,0.4466070686,0.552812849,0.5821335263,0.5675672626,0.537112136,0.4140797899,0.3478930382,0.382208127,0.466551116,0.7305387304,0.7303105888,0.6308528102,0.7531476794,0.8055596958,0.5202267755,0.5544381947,0.2965965767,0.1250945378,0.1563284716,0.2350523462,0.1613356073,0.071818235,0.02821439236,0.04101451036,0.1122167645,0.09306196035,0.08621556501,0.1427491723,0.1112592615,0.1024577909,0.1967018071,0.3092830185,0.2223962323,0.3055042814,0.4996047383,0.4174595488,0.3659777588,0.5858728414,0.0910314196,0.05350027106,0.04164555076,0.03242844547,0.01979505361,0.01200828396,0.01768826422,0.04121045494,0.1046670249,0.4127127669,0.1856651924,0.04584204795,0.02498901726,0.05867708399,0.08956356124,0.100384039,0.1337346874,0.03042809928,0.01467212579,0.01156475998,0.01280310459,0.03653120628,0.08975190312,0.1436090722,0.1523940983,0.07126741097,0.0459447212,0.03644899239,0.01754046903,0.03797506378,0.1847031671,0.3201444172,0.2238512389,0.2004736632,0.225898178,0.2777178631,0.2950327,0.2377035406,0.08847185961,0.01681014703,0.01683617583,0.0314827116,0.02562762525,0.04970838044,0.0998971247,0.1203546151,0.08276307531,0.08755377334,0.1909126299,0.4059606974,0.1818560919,0.2888926003,0.2070622453,0.4935247633,0.5298157556,0.1620917428,0.1432345768,0.1502247029,0.1209353082,0.07179177588,0.06567036198,0.08790469588,0.06223069823,0.0898113617,0.07457842105,0.09731297715,0.2294629071,0.1331184126,0.1207847699,0.2014391027,0.2198921263,0.2691647395,0.2053807847,0.1053129244,0.1185168798,0.2297048067,0.663967413,0.4951944831,0.4813754643,0.5950140529,0.3217550864,0.2429640075,0.07816907268,0.05077819348,0.08768999362,0.2293853976,0.2068117405,0.4226089928,0.6292473145,0.702240263,0.5770212463,0.2041810397,0.1228785057,0.0812849154,0.1022712067,0.08533817128,0.2021288672,0.3527330487,0.2589166299,0.3514368214,0.2566199544,0.1712462685,0.09959538142,0.1278470646,0.4492617576,0.3884063936,0.1962071258,0.1470040138,0.1859732907,0.09707804335,0.1485289578,0.2514358214,0.1994269246,0.1371919325,0.1024842988,0.1267186415,0.2085118645,0.2715980598,0.3853231533,0.1990169484,0.05157980759,0.105528662,0.1285174686,0.900964006,0.5273053661,0.5538488569,0.5291030243,0.4388885669,0.2093165946,0.1955340509,0.1606360585,0.6042421815,0.2417999875,0.1233848477,0.34235963,0.5461479448,0.8985314988,0.721047964,1.012907667,1,1,1,1,1,1,1,1,1,NaN,NaN],
	"ap": [NaN,0.5683621017,0.7876515184,0.1867035098,0.5851298057,0.5542150792,0.5275884776,0.8594141934,0.5243154731,0.1229236141,0.04579667003,0.297729207,0.01561234988,0.02089676113,0.01517484375,0.1007875067,0.1075196502,0.01581369705,0.09051686778,0.1345245393,0.09690955168,0.01883341451,0.01290345074,0.04412441445,0.09389446301,0.03038294828,0.05610255919,0.04492339484,0.2658594247,0.6147046447,0.2166708964,0.2251184053,0.03840577541,0.02943508424,0.02423488829,0.01603531301,0.01439294069,0.02420153238,0.009810517532,0.09603784316,0.1890284433,0.5019249906,0.05586611615,0.4503082825,0.1537954719,0.1655310077,0.2431147405,0.5695390089,0.1533062667,0.2725031473,0.0105620022,0.2822518696,0.1271971795,0.3298804153,0.2046878544,0.08690310381,0.3196591084,0.4601475528,0.09788725455,0.08103062041,0.4717350899,0.09345039617,0.1970636473,0.1062651355,0.2570691104,0.2998988847,0.3204632242,0.2331228329,0.2134874946,0.127416261,0.157247803,0.1399948291,0.6012915048,0.07330204851,0.7119228565,0.4796231383,0.244615734,0.2931215651,0.3334836125,0.2807031013,0.3132858045,0.1047558271,0.03507506138,0.008773352571,0.0158947259,0.0172118991,0.06052010405,0.03814027889,0.02405318426,0.01802534533,0.04906076319,0.05941642455,0.03513985115,0.01395356879,0.008723553878,0.004443364509,0.02546371378,0.03101180774,0.02119313573,0.005279392519,0.185453647,0.06024556387,0.1484351536,0.132745444,0.07378245072,0.1126946776,0.01524016791,0.01486593239,0.04899868897,0.1477491598,0.02869086563,0.06078755013,0.07620423277,0.184729598,0.05206686779,0.06109017108,0.06996023297,0.07412164879,0.1015322139,0.04772320579,0.03909568789,0.01588744336,0.01773868247,0.01150619032,0.00487305202,0.02616069313,0.01676167947,0.002153516787,0.007489965991,0.05517804025,0.19449252,0.3910980609,0.07115555953,0.2707063,0.7065030571,0.2794004157,0.1161622684,0.1203194859,0.2504455754,0.1683866285,0.2346823074,0.007184267746,0.02434100173,0.0130370779,0.02741762845,0.003291971849,0.0260420572,0.09744126442,0.06343330871,0.1091257809,0.09816242437,0.04302285396,0.01302959693,0.03882341286,0.341385688,0.3313744361,0.1105289378,0.09245745767,0.08115628634,0.06146421121,0.02513166472,0.1877477944,0.0809535362,0.08574536641,0.06977624281,0.3192615232,0.01629678075,0.02530144871,0.1976422797,0.1462781096,0.04972297965,0.07174138706,0.0481745121,0.09477119413,0.09447262694,0.8552932354,0.2381425327,0.04136774656,0.07800389678,0.07962204465,0.02832930642,0.007336783185,0.002177173824,0.003220390602,0.004609357829,0.004463424982,0.005169911719,0.01071249214,0.0343898594,0.07244060735,0.07471703825,0.06934859095,0.01301314181,0.1500411514,0.02726689669,0.01447605517,0.1634523268,0.005878135103,0.02700142592,0.01592686998,0.001476009286,0.00483368548,0.002168304637,0.03159653936,0.004141732752,0.008479323392,0.007069628958,0.03838198379,0.1287094435,0.04988441485,0.08771072308,0.08048820325,0.02618927767,0.005017892019,0.004637534378,0.007627948844,0.01548339735,0.01813215042,0.02953118237,0.02667429843,0.002307048879,0.02772577005,0.1844267371,0.1705229819,0.0159365219,0.04136764654,0.007311582575,0.005887251416,0.07511862955,0.02927177953,0.03668859767,0.01533501922,0.0434689193,0.1074619496,0.07009836073,0.009391448995,0.01382483543,0.04314815831,0.09289853148,0.1527033088,0.05787684724,0.1767595891,0.04482071869,0.1202579112,0.07940981572,0.01659721718,0.1105366908,0.06170313046,0.002972549554,0.004636851772,0.007969958827,0.03601694928,0.1007060307,0.1069726488,0.1652416371,0.1379723172,0.007334760958,0.01292502944,0.0425798986,0.05542992569,0.1729501208,0.03402264132,0.0630139719,0.5091170631,0.04590380115,0.01138515349,0.1379135124,0.5044952064,0.4493646185,0.2486989523,0.09010826327,0.2352103493,0.2867853133,0.1693192726,0.3089593498,0.05595974184,0.09464837365,0.6753248253,0.1400357143,0.2454080079,0.2647251323,0.2248495945,0.6009020764,0.2096420865,0.09019099102,0.1775239654,0.7761346087,0.6771927705,0.4824186166,0.3446471349,0.1307482438,0.1195536038,0.7272789522,0.4542521283,0.5621876278,0.2448423661,0.320332456,0.5090748606,0.2720239106,0.7802477834,0.2833718884,0.5799811868,0.520628524,0.5525889864,0.1509179393,0.3208132344,0.03769306232,0.03446772459,0.1443253311,0.04767793692,0.04756850684,0.02323717293,0.01857813925,0.0364331853,0.05605327103,0.0102978283,0.09440755252,0.05743625552,0.04328635426,0.03755315185,0.1559451979,0.04001250502,0.1452104834,0.1322251865,0.2731851275,0.2993628268,0.6307818667,0.4709289888,0.01032784337,0.05709513616,0.008981257063,0.004526537302,0.008883588512,0.006450666939,0.02429336708,0.08443876562,0.1856970969,0.3395810546,0.0636460325,0.006053853637,0.04904364311,0.06775422546,0.03537060373,0.02848808968,0.08773311322,0.006292233134,0.01377253343,0.007143596731,0.01487514733,0.007608615241,0.09252401211,0.025488441,0.05311867111,0.02934657611,0.0476140058,0.01177701504,0.01334132377,0.3649796298,0.1138401815,0.1374589004,0.1066160554,0.1193033476,0.1796277113,0.4186592357,0.6083591628,0.02034634637,0.01648271426,0.007288662043,0.04522398415,0.01835494029,0.04837310675,0.03656611998,0.06473916532,0.05200694145,0.04799304486,0.01055022168,0.2042997675,0.1035672655,0.494005732,0.3300291078,0.4588640911,0.6300251287,0.2345340734,0.02516684714,0.04829267581,0.1575189175,0.02157125234,0.01502983662,0.08453254358,0.1485773698,0.01990410701,0.09683381564,0.02347041639,0.2447032311,0.04158109275,0.02293609888,0.1084555158,0.1644140026,0.4174780988,0.0906460813,0.0821580903,0.04283945727,0.2480172899,0.9131074943,0.3057365129,0.6966719576,0.6973370895,0.5568613288,0.3035817161,0.106535861,0.03232626465,0.06808817137,0.4785569552,0.0346352167,0.7510808603,0.3966568378,0.7433970004,0.1476508231,0.2056375429,0.04199090573,0.04371167944,0.02466293071,0.03295657163,0.1028027884,0.4258587499,0.2421232056,0.1694326428,0.1573311429,0.07647717253,0.07363535086,0.1227351892,0.4666687573,0.3071403819,0.06767802102,0.1786604621,0.04516616041,0.1266399091,0.01081986901,0.1737630189,0.06190207109,0.527875804,0.04441933697,0.004057192666,0.1756737383,0.04036714886,0.4351494223,0.6677432282,0.06486972518,0.1272954094,0.520222361,0.294277266,0.4183959885,0.5199817172,0.2127491628,0.7129201811,0.1757888133,0.2153166997,0.1705595065,0.1274865738,0.1890922514,0.02426017243,0.09391029297,0.4650284682,0.185201878,0.4761340307,0.5000043869,1,1,1,1,1,1,1,1,NaN,NaN],
	"pwr": [NaN,8.319042945e-05,5.323527462e-05,8.473404683e-06,1.215948914e-05,1.026908004e-05,0.0002055706155,0.0001109426945,0.0003701944133,0.01161170907,0.002275056221,0.004425750705,0.02152419113,0.008457186227,0.00530141313,0.004751096814,0.002678386021,0.02256121617,0.007063170485,0.002584103225,0.002682042207,0.009786189004,0.007001749273,0.01010798997,0.01266243378,0.01410032016,0.01093342605,0.004462896162,0.0003152597548,0.0002935593299,0.0007582846296,0.003092246727,0.008637705913,0.005306747705,0.008666681617,0.02077980338,0.02231412835,0.006856919065,0.01033408175,0.005414201624,0.00408604413,0.001415128227,0.0008512385598,0.0001191041188,0.0006708139295,0.0008676397553,0.0001915902784,0.0005963453702,0.004947061563,0.001615907423,0.006154853664,0.001437568577,0.0006388377191,2.255348501e-05,0.0002806265124,0.001507816689,0.0001879296729,2.06946739e-05,0.0001830463607,4.799264022e-05,9.821866515e-05,0.0001030813872,2.603543478e-05,0.0001330628809,1.136996139e-05,2.323390896e-06,4.275415707e-05,3.230057676e-05,2.034299842e-05,0.0002505835025,5.979342081e-05,0.0002388644265,4.556427858e-05,4.138182483e-05,5.050282145e-06,2.491824691e-06,2.020917399e-05,4.102229028e-06,3.549502377e-06,6.120833905e-06,0.0004263332892,0.01438096052,0.07417580039,0.1693321338,0.02960954822,0.0113454223,0.00456875006,0.02455619241,0.0239320255,0.04151673582,0.003277036271,0.01170405682,0.03382595889,0.03415986392,0.1065994145,0.1104010597,0.07264423896,0.03381044136,0.0474277242,0.1182530146,0.01166290601,0.001403721064,0.0006267061674,0.001805479051,0.01135138122,0.02444887202,0.09482557319,0.06299135575,0.02793277977,0.01626041292,0.007670308858,0.007733787567,0.01800821827,0.007676306447,0.08240768473,0.04302420307,0.01295346898,0.00203840257,0.001416355766,0.01103904531,0.003696257561,0.01259917879,0.04602486039,0.0864229381,0.06209873786,0.02342334269,0.05978311257,0.05860695724,0.0174454403,0.01109612742,0.01187311426,0.01172810331,0.006751962277,0.003238543142,0.0009779702804,0.000196647673,0.000501652382,0.0003723582133,0.001547805528,0.006563766987,0.01007941567,0.1270916331,0.2057606238,0.2138217371,0.2588354653,0.08608643027,0.01026522021,0.003688568364,0.0006536962453,0.0009378458947,0.003123790468,0.004016649298,0.01446989555,0.01900985215,0.003464025187,0.001524521386,0.008069442155,0.006866470132,0.005065491424,0.006248820097,0.01223207168,0.002525632092,0.001757142903,0.007094854592,0.002741949768,0.0007830875208,0.002850283748,0.00124395775,0.001027241561,0.000324832146,0.002353737716,0.001196098488,0.0008099025709,0.0003088305307,0.0003956415865,0.0006378144778,0.00154100578,0.02710768098,0.0384083374,0.03640217184,0.02154007448,0.1126140648,0.2894758992,0.3168884344,0.296626817,0.1259636484,0.2023334447,0.2308953385,0.09498641084,0.008516116895,0.004044034863,0.01582256157,0.03597794304,0.004011716762,0.0222080899,0.01138271029,0.003626020148,0.1043895432,0.07280655775,0.05168536352,0.06087374926,0.05156843806,0.02841069028,0.04984669101,0.04408467233,0.03808461869,0.02959069859,0.03411232175,0.01132094734,0.002029191571,0.001403278475,0.006565643517,0.1067857695,0.1944589239,0.05655938743,0.03183929138,0.08675616659,0.07716333494,0.03286355461,0.04624427829,0.1057617026,0.09219666755,0.008231330446,0.00290022615,0.03494893007,0.03638204891,0.03587344439,0.0747326273,0.0647619647,0.01445014013,0.02998342009,0.0639850022,0.01101860543,0.003623153825,0.007857032119,0.07181584293,0.06443561429,0.01375273932,0.0007734977225,0.0005946670617,0.0008602165576,0.000115347802,0.0007735935902,0.002366603557,0.01026050802,0.04092029848,0.02611437591,0.0058675237,0.0733066662,0.1208584774,0.2082694372,0.100559209,0.01171576982,0.00318460441,0.001783850561,0.002596138657,0.004893136634,0.004199470397,0.00508773803,0.002719644396,0.0007763941979,0.01066809848,0.009706714798,0.0001466925652,0.001425296899,0.005131449742,0.002585635459,0.0003061431908,0.0008403413886,0.01064862447,0.02400604078,0.01326350586,0.006628548054,0.003041046148,0.002959492565,0.004876092344,0.002729853554,0.0003285361719,0.0002736683587,0.000387390193,0.000652251124,0.001073219361,0.0005032339004,0.000120701548,0.0001377570708,0.0001694696162,1.219962526e-05,7.969119861e-06,1.778795274e-05,1.579107325e-05,9.281609902e-05,4.193607506e-05,1.80471908e-05,3.071281264e-05,4.409799643e-06,1.4863101e-05,1.450202679e-05,1.135574117e-05,4.394301632e-06,1.028465114e-05,1.122307856e-05,1.155850039e-05,1.842837969e-05,5.224394662e-05,0.003675908852,0.008859168625,0.04973149867,0.0609707185,0.01324983642,0.1064965944,0.08443880142,0.1084267062,0.2019087446,0.04130300958,0.05351988185,0.04778980878,0.03083778371,0.02667860387,0.1313786744,0.02488532996,0.006341430093,0.003249265117,0.002289466342,0.002032294519,0.0003753768041,0.001193075928,0.005463993445,0.01052426988,0.3627108977,0.0770621811,0.0699818375,0.1837102364,0.1465373007,0.1695328588,0.05291648434,0.007456618141,0.001130891431,0.001069454477,0.01918292841,0.1061851065,0.07684949631,0.02178197349,0.01399164741,0.01468226797,0.02494458716,0.2725208477,0.202474307,0.09459049229,0.02900602064,0.01416524471,0.01933925666,0.0080463806,0.008589840338,0.02173263216,0.07056442985,0.07565044769,0.1656719494,0.001321569375,0.0006226529786,0.0007606098107,0.002902452849,0.003031948017,0.000929197749,0.00262743735,0.001798700245,0.02461404951,0.04329730969,0.07202940549,0.04579491319,0.03920101373,0.008536246003,0.001500929346,0.005536654515,0.009249694466,0.03114421036,0.167626373,0.01461618657,0.002647134025,0.001731416821,0.0008678209605,0.001718833838,0.00148132579,0.02877160156,0.3735312644,0.0617358533,0.008740151444,0.02790194321,0.01738623312,0.02640023122,0.007007603258,0.00420391179,0.001543960451,0.01278896023,0.002675275462,0.002192088644,0.00318624214,0.0005582811776,0.0003086006208,0.001520646341,0.002175945989,0.0008772699311,0.002574971787,0.0002222826723,7.751508912e-06,4.132791138e-05,0.0001346728213,1.515962734e-05,3.413536315e-05,4.372746436e-05,7.235608074e-05,0.0001797149326,0.0001556486768,1.664590816e-05,1.555148579e-05,2.594824002e-05,1.69519476e-05,6.346537648e-07,1.288743204e-06,3.946312716e-06,1.079581591e-05,9.993412783e-06,3.348952367e-06,1.945162539e-06,1.369919619e-06,2.515800588e-07,6.97766574e-07,3.174343804e-07,2.384245971e-07,1.451714268e-07,4.198333223e-07,7.319768217e-07,2.542718881e-07,4.585644302e-08,2.222443125e-07,3.260922513e-07,2.119700919e-07,1.049131469e-07,1.605685985e-07,2.424713689e-08,1.10941475e-07,1.851129568e-08,2.540090604e-07,2.524456969e-07,1.054308944e-07,3.898619778e-08,1.885000265e-08,2.004933168e-08,9.936802759e-08,1.439888066e-07,1.402607072e-08,2.311038404e-10,3.059046443e-10,3.738576477e-10,8.326226278e-10,1.403542472e-09,3.701669798e-09,7.968815805e-09,1.866235895e-09,6.486023851e-10,5.659822961e-10,1.445832961e-09,1.148278402e-09,2.547207042e-10,4.858655994e-10,1.508273981e-10,1.265383933e-11,0,0,0,0,0,0,0,0,NaN,NaN],
	"sr": 16000,
	"range": [1,152320],
	"minf0": 63.1883,
	"maxf0": 706.3069,
	"thresh": 0.1,
	"relflag": 1,
	"hop": 320,
	"bufsize": 10000,
	"wsize": 640,
	"lpf": 4000,
	"shift": 0,
	"plotthreshold": 0.2
}
