{
    "f0": [
        47.899270873670929,
        56.070865836863184,
        55.896871326775624,
        53.27287814112087,
        53.255585879984594,
        53.581106230515026,
        53.217685626845849,
        52.846475320984169,
        56.148076555690992,
        55.953208975027529,
        55.651749258108879,
        55.57040745865833,
        39.520959938668135,
        44.732113192298286,
        41.960197120365017,
        46.079423299907354,
        46.157689064330484,
        46.190809614186932,
        46.617431912381278,
        46.196201593834623,
        49.061866332323362,
        49.133175767120164,
        49.204198238550262,
        49.100930234108816,
        49.820636045444374,
        49.248941014727258,
        49.378606782720325,
        49.313313144826822,
        49.656493725133657,
        49.643121344680736,
        49.374876644231946,
        49.265223005362657,
        49.415965859923546,
        49.701361746640472,
        49.917547339857549,
        49.988994866707849,
        50.473863673564658,
        50.852494580726969,
        50.918855739050628,
        51.503791441709311,
        51.646479956417636,
        51.258551159779074,
        51.099527088210365,
        50.939028734010577,
        51.119853504424441,
        50.969190818635525,
        51.00551456737093,
        50.679271557627139,
        50.346762262382505,
        50.852410624860283,
        50.300293889723399,
        50.824439199309701,
        50.849594837030622,
        50.807412126965794,
        50.651191928530778,
        50.893969690290632,
        50.967729396305025,
        50.744487473267881,
        50.682575264916665,
        50.710484804142517,
        50.884594119741095,
        50.984725464133462,
        51.258285175319315,
        51.26814952085715,
        50.82940462669751,
        54.915754179273371,
        55.233471271715345,
        55.171297973438456,
        54.939791136954113,
        54.441305767839907,
        54.576168073618561,
        54.709987923922213,
        54.872877183137774,
        54.84535177641358,
        54.985399284345796,
        55.252570564709231,
        55.278648854748276,
        55.073674820833162,
        55.189094116689013,
        54.831762490220889,
        54.962079365388355,
        55.334486556021957,
        55.406487840189449,
        54.40010633158623,
        54.814866039333076,
        55.215208281822356,
        55.081483919899412,
        55.846333127967299,
        55.904389551107812,
        55.594903519549845,
        55.654851245608967,
        55.362448216721162,
        55.520398110999345,
        55.453020843220855,
        55.38537644013249,
        55.317470595956706,
        55.421555433853726,
        55.525019604381889,
        55.471783832192898,
        55.298739640998882,
        55.12394700620024,
        55.290198272559977,
        55.415323368210053,
        55.385199782335903,
        55.538074387943574,
        57.158773958564765,
        58.64065201486401,
        57.067537624330036,
        56.874600312607583,
        56.940429187072411,
        57.131245331423202,
        57.258154450764039,
        57.240861318710735,
        56.32524222584334,
        45.485810763424588,
        45.733418369584854,
        45.450216029217749,
        45.546297141954511,
        45.573966331352011,
        45.461516152495136,
        45.348328321429733,
        44.884641008301941,
        43.882109472077744,
        43.472211365641662,
        43.725949965567111,
        45.736127544464665,
        46.938216706948474,
        46.848761373898014,
        58.036268971035859,
        38.802747799661837,
        57.996973534923072,
        58.334751952052557,
        58.116967610692683,
        57.896410979537009,
        57.673005844793281,
        57.949506563684835,
        57.851030166713215,
        57.827507573765509,
        57.416427133024435,
        56.667644044406828,
        55.707450313972771,
        55.975960848367635,
        55.918592992028522,
        55.861038353826501,
        0.0,
        0.0,
        41.432353337359402,
        54.69681041773967,
        55.208541922066331,
        55.034549426192498,
        55.120593153002901,
        55.288113222040074,
        55.143156669101664,
        55.390152687329604,
        55.63367686702162,
        55.550974392498894,
        55.668900322104292,
        55.78602984584321,
        55.375049773778009,
        55.413421857459085,
        55.857454866001554,
        55.466929031213191,
        55.416116802775235,
        55.533986966420635,
        55.478580312136842,
        55.736353666550841,
        56.277697454623109,
        57.961845240026705,
        58.087749501656567,
        58.219699998747281,
        58.225573028894736,
        58.231442894723074,
        58.063315767416483,
        58.334883160503054,
        58.376803684633245,
        58.418624034051263,
        58.358002134346641,
        58.554113155227846,
        58.627102550119204,
        59.718781319049221,
        59.532724727215388,
        59.665702810640759,
        59.639474555945299,
        59.487288147229009,
        59.569648603848869,
        59.565990067534308,
        59.715780370969014,
        58.388216622491143,
        58.513162687012169,
        60.027233556418508,
        59.903992743547001,
        60.017296691703876,
        59.812375768767374,
        59.727551415235908,
        59.580840856904764,
        59.717798144790336,
        59.505762180660057,
        59.764386992793646,
        59.323421535226458,
        59.33738126678027,
        59.805266098261683,
        60.121285273259197,
        59.972994432282761,
        59.79360083038106,
        59.627402013080868,
        59.624246823492591,
        58.832220123317711,
        58.420501280692299,
        58.12853958439338,
        57.937938223254349,
        57.691522775678308,
        57.641069260209214,
        57.662966245933603,
        57.490983240998105,
        57.760045742623504,
        57.815633986633117,
        57.801708345781108,
        57.61264837715251,
        57.510254248452753,
        57.407252132755602,
        57.451964915004616,
        56.507548932129232,
        57.911330403384824,
        57.534464280354214,
        58.027653228067962,
        57.672058760123548,
        57.309009280666459,
        51.281986694736865,
        50.621909136349473,
        50.448324020068284,
        51.072356585873138,
        51.484961455770986,
        51.595096197417845,
        51.323346784175456,
        51.105231261909438,
        51.197832280926058,
        51.513907686828937,
        51.540692419803783,
        51.881876562865202,
        51.965915116375442,
        51.824919732230384,
        51.71041133275736,
        51.753496406091728,
        51.762055755379066,
        51.787825200200672,
        51.455204168970283,
        51.47376095685452,
        51.905873062286233,
        52.299147697721594,
        51.99081381338344,
        52.250789332555335,
        52.083374661756359,
        51.914323644260477,
        52.255344724662649,
        52.274292851354417,
        51.563502792284453,
        51.899744858545787,
        52.229582281489911,
        52.375759067787669,
        52.434946259628418,
        52.465504930458053,
        52.49601138924573,
        52.869287996994046,
        52.717941901561574,
        51.635380283573227,
        51.662803274621446,
        52.307191092640977,
        52.292407034465469,
        52.453227417774436,
        52.704160195112969,
        53.249249308940307,
        52.594119604989601,
        52.998251495116889,
        53.297039847724896,
        52.454459295619834,
        51.741023753278824,
        52.332802325546567,
        52.020348876043151,
        52.03180773664598,
        45.855862731194634,
        46.442402620202301,
        46.488952247315922,
        46.269701498254946,
        46.21357098735821,
        46.246485462250007,
        48.524927906999537,
        47.223570635487263,
        46.99384458815161,
        44.504321769609447,
        46.794135927502751,
        46.546695817960838,
        44.616508309727053,
        44.094551790052108,
        43.629813394465586,
        43.644673738769022,
        43.948708091601205,
        50.777489567288498,
        49.74903472745109,
        46.35627694010941,
        42.13246307666985,
        44.997828896371423,
        44.683567404848247,
        47.129620607166835,
        47.14488104074011,
        48.081660975095446,
        48.364747451830638,
        45.329266112657024,
        48.795762179624063,
        49.211597836867426,
        51.713282886958666,
        56.421100234445618,
        45.705621531864985,
        46.219528824308568,
        42.266586782224437,
        44.891410020396023,
        44.397942955728873,
        43.614915732453447,
        42.794789229264239,
        43.116424730351397,
        43.432197550174052,
        41.61969869858784,
        0.0,
        0.0,
        50.695422714038799,
        0.0,
        0.0,
        0.0,
        0.0,
        0.0,
        0.0,
        0.0,
        0.0,
        0.0,
        0.0,
        0.0,
        0.0,
        0.0,
        0.0,
        0.0,
        0.0,
        0.0,
        0.0,
        0.0,
        0.0,
        0.0,
        0.0,
        0.0,
        0.0,
        0.0,
        0.0,
        0.0,
        0.0,
        0.0,
        0.0,
        0.0,
        0.0,
        0.0,
        0.0,
        0.0,
        0.0,
        0.0,
        0.0,
        0.0,
        0.0,
        0.0,
        0.0,
        0.0,
        0.0,
        0.0,
        0.0,
        0.0,
        0.0,
        0.0,
        0.0,
        0.0,
        0.0,
        0.0,
        0.0,
        0.0,
        0.0,
        0.0
    ],
    "time": [
        0.02,
        0.040000000000000001,
        0.059999999999999998,
        0.080000000000000002,
        0.10000000000000001,
        0.12,
        0.14000000000000001,
        0.16,
        0.17999999999999999,
        0.20000000000000001,
        0.22,
        0.23999999999999999,
        0.26000000000000001,
        0.28000000000000003,
        0.29999999999999999,
        0.32000000000000001,
        0.34000000000000002,
        0.35999999999999999,
        0.38,
        0.40000000000000002,
        0.41999999999999998,
        0.44,
        0.46000000000000002,
        0.47999999999999998,
        0.5,
        0.52000000000000002,
        0.54000000000000004,
        0.56000000000000005,
        0.57999999999999996,
        0.59999999999999998,
        0.62,
        0.64000000000000001,
        0.66000000000000003,
        0.68000000000000005,
        0.69999999999999996,
        0.71999999999999997,
        0.73999999999999999,
        0.76000000000000001,
        0.78000000000000003,
        0.80000000000000004,
        0.81999999999999995,
        0.83999999999999997,
        0.85999999999999999,
        0.88,
        0.90000000000000002,
        0.92000000000000004,
        0.93999999999999995,
        0.95999999999999996,
        0.97999999999999998,
        1.0,
        1.02,
        1.04,
        1.0600000000000001,
        1.0800000000000001,
        1.1000000000000001,
        1.1200000000000001,
        1.1399999999999999,
        1.1599999999999999,
        1.1799999999999999,
        1.2,
        1.22,
        1.24,
        1.26,
        1.28,
        1.3,
        1.3200000000000001,
        1.3400000000000001,
        1.3600000000000001,
        1.3799999999999999,
        1.3999999999999999,
        1.4199999999999999,
        1.4399999999999999,
        1.46,
        1.48,
        1.5,
        1.52,
        1.54,
        1.5600000000000001,
        1.5800000000000001,
        1.6000000000000001,
        1.6200000000000001,
        1.6399999999999999,
        1.6599999999999999,
        1.6799999999999999,
        1.7,
        1.72,
        1.74,
        1.76,
        1.78,
        1.8,
        1.8200000000000001,
        1.8400000000000001,
        1.8600000000000001,
        1.8799999999999999,
        1.8999999999999999,
        1.9199999999999999,
        1.9399999999999999,
        1.96,
        1.98,
        2.0,
        2.02,
        2.04,
        2.0600000000000001,
        2.0800000000000001,
        2.1000000000000001,
        2.1200000000000001,
        2.1400000000000001,
        2.1600000000000001,
        2.1800000000000002,
        2.2000000000000002,
        2.2200000000000002,
        2.2400000000000002,
        2.2599999999999998,
        2.2799999999999998,
        2.2999999999999998,
        2.3199999999999998,
        2.3399999999999999,
        2.3599999999999999,
        2.3799999999999999,
        2.3999999999999999,
        2.4199999999999999,
        2.4399999999999999,
        2.46,
        2.48,
        2.5,
        2.52,
        2.54,
        2.5600000000000001,
        2.5800000000000001,
        2.6000000000000001,
        2.6200000000000001,
        2.6400000000000001,
        2.6600000000000001,
        2.6800000000000002,
        2.7000000000000002,
        2.7200000000000002,
        2.7400000000000002,
        2.7599999999999998,
        2.7799999999999998,
        2.7999999999999998,
        2.8199999999999998,
        2.8399999999999999,
        2.8599999999999999,
        2.8799999999999999,
        2.8999999999999999,
        2.9199999999999999,
        2.9399999999999999,
        2.96,
        2.98,
        3.0,
        3.02,
        3.04,
        3.0600000000000001,
        3.0800000000000001,
        3.1000000000000001,
        3.1200000000000001,
        3.1400000000000001,
        3.1600000000000001,
        3.1800000000000002,
        3.2000000000000002,
        3.2200000000000002,
        3.2400000000000002,
        3.2599999999999998,
        3.2799999999999998,
        3.2999999999999998,
        3.3199999999999998,
        3.3399999999999999,
        3.3599999999999999,
        3.3799999999999999,
        3.3999999999999999,
        3.4199999999999999,
        3.4399999999999999,
        3.46,
        3.48,
        3.5,
        3.52,
        3.54,
        3.5600000000000001,
        3.5800000000000001,
        3.6000000000000001,
        3.6200000000000001,
        3.6400000000000001,
        3.6600000000000001,
        3.6800000000000002,
        3.7000000000000002,
        3.7200000000000002,
        3.7400000000000002,
        3.7599999999999998,
        3.7799999999999998,
        3.7999999999999998,
        3.8199999999999998,
        3.8399999999999999,
        3.8599999999999999,
        3.8799999999999999,
        3.8999999999999999,
        3.9199999999999999,
        3.9399999999999999,
        3.96,
        3.98,
        4.0,
        4.0199999999999996,
        4.04,
        4.0599999999999996,
        4.0800000000000001,
        4.0999999999999996,
        4.1200000000000001,
        4.1399999999999997,
        4.1600000000000001,
        4.1799999999999997,
        4.2000000000000002,
        4.2199999999999998,
        4.2400000000000002,
        4.2599999999999998,
        4.2800000000000002,
        4.2999999999999998,
        4.3200000000000003,
        4.3399999999999999,
        4.3600000000000003,
        4.3799999999999999,
        4.4000000000000004,
        4.4199999999999999,
        4.4400000000000004,
        4.46,
        4.4800000000000004,
        4.5,
        4.5199999999999996,
        4.54,
        4.5599999999999996,
        4.5800000000000001,
        4.5999999999999996,
        4.6200000000000001,
        4.6399999999999997,
        4.6600000000000001,
        4.6799999999999997,
        4.7000000000000002,
        4.7199999999999998,
        4.7400000000000002,
        4.7599999999999998,
        4.7800000000000002,
        4.7999999999999998,
        4.8200000000000003,
        4.8399999999999999,
        4.8600000000000003,
        4.8799999999999999,
        4.9000000000000004,
        4.9199999999999999,
        4.9400000000000004,
        4.96,
        4.9800000000000004,
        5.0,
        5.0199999999999996,
        5.04,
        5.0599999999999996,
        5.0800000000000001,
        5.0999999999999996,
        5.1200000000000001,
        5.1399999999999997,
        5.1600000000000001,
        5.1799999999999997,
        5.2000000000000002,
        5.2199999999999998,
        5.2400000000000002,
        5.2599999999999998,
        5.2800000000000002,
        5.2999999999999998,
        5.3200000000000003,
        5.3399999999999999,
        5.3600000000000003,
        5.3799999999999999,
        5.4000000000000004,
        5.4199999999999999,
        5.4400000000000004,
        5.46,
        5.4800000000000004,
        5.5,
        5.5199999999999996,
        5.54,
        5.5599999999999996,
        5.5800000000000001,
        5.5999999999999996,
        5.6200000000000001,
        5.6399999999999997,
        5.6600000000000001,
        5.6799999999999997,
        5.7000000000000002,
        5.7199999999999998,
        5.7400000000000002,
        5.7599999999999998,
        5.7800000000000002,
        5.7999999999999998,
        5.8200000000000003,
        5.8399999999999999,
        5.8600000000000003,
        5.8799999999999999,
        5.9000000000000004,
        5.9199999999999999,
        5.9400000000000004,
        5.96,
        5.9800000000000004,
        6.0,
        6.0199999999999996,
        6.04,
        6.0599999999999996,
        6.0800000000000001,
        6.0999999999999996,
        6.1200000000000001,
        6.1399999999999997,
        6.1600000000000001,
        6.1799999999999997,
        6.2000000000000002,
        6.2199999999999998,
        6.2400000000000002,
        6.2599999999999998,
        6.2800000000000002,
        6.2999999999999998,
        6.3200000000000003,
        6.3399999999999999,
        6.3600000000000003,
        6.3799999999999999,
        6.4000000000000004,
        6.4199999999999999,
        6.4400000000000004,
        6.46,
        6.4800000000000004,
        6.5,
        6.5199999999999996,
        6.54,
        6.5599999999999996,
        6.5800000000000001,
        6.5999999999999996,
        6.6200000000000001,
        6.6399999999999997,
        6.6600000000000001,
        6.6799999999999997,
        6.7000000000000002,
        6.7199999999999998,
        6.7400000000000002,
        6.7599999999999998,
        6.7800000000000002,
        6.7999999999999998,
        6.8200000000000003,
        6.8399999999999999,
        6.8600000000000003,
        6.8799999999999999,
        6.9000000000000004,
        6.9199999999999999,
        6.9400000000000004,
        6.96,
        6.9800000000000004,
        7.0,
        7.0199999999999996,
        7.04,
        7.0599999999999996,
        7.0800000000000001,
        7.0999999999999996,
        7.1200000000000001,
        7.1399999999999997,
        7.1600000000000001,
        7.1799999999999997,
        7.2000000000000002,
        7.2199999999999998,
        7.2400000000000002,
        7.2599999999999998,
        7.2800000000000002,
        7.2999999999999998,
        7.3200000000000003,
        7.3399999999999999,
        7.3600000000000003,
        7.3799999999999999,
        7.4000000000000004,
        7.4199999999999999,
        7.4400000000000004,
        7.46,
        7.4800000000000004,
        7.5,
        7.5199999999999996,
        7.54,
        7.5599999999999996,
        7.5800000000000001,
        7.5999999999999996,
        7.6200000000000001
    ]
}