{
    "DU": 112,
    "DV": 314,
    "F-measure": 0.6649746192893401,
    "F-measure Chroma": 0.7487309644670052,
    "FN": 42,
    "FNC": 1,
    "FNCch": 5,
    "FNI": 41,
    "FNIch": 37,
    "FP": 22,
    "GU": 92,
    "GV": 334,
    "Overall Accuracy": 0.6150234741784038,
    "Overall Chroma Accuracy": 0.6924882629107981,
    "Precision": 0.6822916666666666,
    "Precision Chroma": 0.7682291666666666,
    "Raw Chroma Accuracy": 0.688622754491018,
    "Raw Pitch Accuracy": 0.5778443113772455,
    "Recall": 0.6485148514851485,
    "Recall Chroma": 0.7301980198019802,
    "TN": 70,
    "TO": 426,
    "TP": 292,
    "TPC": 192,
    "TPCch": 225,
    "TPI": 100,
    "TPIch": 67,
    "Voiced Chroma Accuracy": 0.6736526946107785,
    "Voiced Pitch Accuracy": 0.5748502994011976,
    "Voicing Accuracy": 0.8497652582159625,
    "Voicing Detection": 0.874251497005988,
    "Voicing False Alarm": 0.2391304347826087
}