{
    "DU": 141,
    "DV": 178,
    "F-measure": 0.8233276157804459,
    "F-measure Chroma": 0.8850771869639794,
    "FN": 35,
    "FNC": 18,
    "FNCch": 29,
    "FNI": 17,
    "FNIch": 6,
    "FP": 20,
    "GU": 126,
    "GV": 193,
    "Overall Accuracy": 0.7523510971786834,
    "Overall Chroma Accuracy": 0.8087774294670846,
    "Precision": 0.8450704225352113,
    "Precision Chroma": 0.9084507042253521,
    "Raw Chroma Accuracy": 0.9378238341968912,
    "Raw Pitch Accuracy": 0.7875647668393783,
    "Recall": 0.802675585284281,
    "Recall Chroma": 0.862876254180602,
    "TN": 106,
    "TO": 319,
    "TP": 158,
    "TPC": 134,
    "TPCch": 152,
    "TPI": 24,
    "TPIch": 6,
    "Voiced Chroma Accuracy": 0.7875647668393783,
    "Voiced Pitch Accuracy": 0.694300518134715,
    "Voicing Accuracy": 0.8275862068965517,
    "Voicing Detection": 0.8186528497409327,
    "Voicing False Alarm": 0.15873015873015872
}