{
    "f0": [
        48.881131358959919,
        36.924051127685196,
        45.7050358616873,
        45.531038673308849,
        45.1054022766983,
        45.309351331248443,
        45.994457934269064,
        46.072672235233746,
        46.268079012308768,
        46.393471023069708,
        46.377670840576329,
        46.692448891631678,
        46.963947209829257,
        46.900051095247477,
        47.029554404407804,
        46.971105510083945,
        47.028612347979617,
        47.085929912367973,
        46.969068469538144,
        46.851411553909202,
        47.075776452312944,
        46.802710705799498,
        46.725641079514396,
        46.89071478214106,
        46.987192558216371,
        46.885315239371465,
        47.039799072005572,
        46.803797020718967,
        47.071593342261146,
        47.243397737698224,
        47.285090591127556,
        47.117159462558597,
        47.03157468363122,
        46.945564848092303,
        46.894959031111512,
        46.826242525825364,
        46.592275031056687,
        46.860721588673258,
        46.942501942429274,
        47.114994958021192,
        47.066752903550793,
        46.870092451477774,
        47.258063857928356,
        47.427854075676777,
        47.526144803409892,
        47.6238815817172,
        47.485203787714013,
        47.627045086678102,
        47.583663699968525,
        47.910067395745862,
        48.406898000272008,
        48.804283032800967,
        48.947416513426518,
        48.861723134841441,
        49.042551371176465,
        49.221510478748513,
        48.871315696602132,
        48.513892708976023,
        48.651920305868913,
        48.50290138039523,
        48.66088344410575,
        48.742537172289779,
        48.829662390981099,
        48.911985781300828,
        48.910765361485602,
        48.886836172728778,
        48.828320716524985,
        48.786951578941036,
        48.699612640458668,
        48.807164785495644,
        48.768094244683937,
        48.759325534484205,
        48.735350473340652,
        48.794070627105242,
        48.852594176154113,
        48.701455025107521,
        48.694846772166784,
        48.787694534466816,
        48.732811062597463,
        48.705647066736603,
        48.624317255550338,
        48.912642914114201,
        48.785375016550283,
        48.780354759027297,
        48.539832144957394,
        47.888420861158863,
        47.596872652739989,
        46.578082495648182,
        46.395473980951238,
        46.137998081768671,
        46.085953114693503,
        46.440822741315287,
        46.496672958742678,
        46.698434689959747,
        46.998086069048853,
        47.120224487330063,
        47.081770606902097,
        47.325709229751929,
        47.017245399709509,
        46.955647057913367,
        46.939873128209186,
        46.901052772903071,
        47.045951969754654,
        47.313607006673934,
        48.360922968379199,
        48.455440238959113,
        48.649547469614731,
        48.618079073993741,
        48.467749172246499,
        48.548387934709019,
        48.371206201729926,
        48.45348691190587,
        48.283415728966418,
        48.186923101970741,
        48.318917978901737,
        48.611590936953085,
        48.646084885380169,
        48.457625481545733,
        48.560564485122534,
        48.864088095131777,
        48.714041821692689,
        48.770599498242191,
        48.60778738043183,
        48.6886415884765,
        48.689087996477888,
        48.901867508451303,
        49.007503669985951,
        48.905963455083921,
        49.056179070067863,
        49.205104227308695,
        49.178764304237163,
        49.152384245121496,
        49.125963927458628,
        48.283397761981917,
        47.397713804951024,
        45.04894418835022,
        42.177936091227487,
        43.548540654760728,
        44.81855066793603,
        44.939726790715881,
        44.888797424387661,
        45.87508599398214,
        48.344224666842784,
        48.955587924621689,
        49.250026891635471,
        50.028581796882492,
        50.883956420287831,
        50.758504865230229,
        50.753207270523987,
        50.859720442943953,
        50.797479153975871,
        51.481921248228019,
        50.743155263843974,
        51.49594675124132,
        51.94826610203296,
        51.632749529614529,
        51.859571062247589,
        51.64459866061469,
        51.705834082346875,
        51.027075664599124,
        51.761711238975565,
        51.527622331747764,
        51.792972852312843,
        51.704383108330191,
        51.850508537965112,
        51.961780869350235,
        51.201050278175842,
        51.395140746102015,
        51.370121124905268,
        50.97735090884008,
        50.319296363904613,
        50.613621388636041,
        50.462337964214399,
        50.637451572307299,
        50.810811635727205,
        51.661458162519608,
        52.47225817153776,
        53.246778248271923,
        53.638372282887815,
        54.021304280266477,
        54.39594916947182,
        54.480819922698075,
        54.356328704921864,
        54.405642085752888,
        54.239473810669267,
        54.496793821370048,
        54.392578333188354,
        53.940264379870925,
        54.156936728424007,
        54.506341662375362,
        54.547585388125285,
        54.38989519066741,
        54.472276564485895,
        53.942942251939101,
        54.063513585798646,
        53.899722443474332,
        54.473697912426942,
        54.427254683065513,
        54.284749922316863,
        54.361756766734985,
        54.372324225393243,
        54.28935657040202,
        54.327401473406617,
        54.456362050028375,
        54.539263149771763,
        54.56510798847507,
        54.441735894520328,
        54.334100718646738,
        54.371798670994153,
        54.348216300796487,
        54.411763119013912,
        54.552998145970065,
        54.654487047192298,
        54.563677458452609,
        54.413780627062991,
        54.292157844663791,
        54.327051144155391,
        54.514930637298932,
        53.627962809723257,
        53.758523282757551,
        54.122654238148321,
        54.707631747486843,
        55.335623483504385,
        55.729113550636384,
        55.94123335305337,
        55.880451969368032,
        55.83885132677338,
        55.959690321405745,
        56.578744111213574,
        56.763168609004929,
        56.945646795801139,
        56.794336045271201,
        56.123824572813035,
        55.87006791759238,
        55.833198036629696,
        55.56076869100751,
        54.934226053498861,
        55.685552526570859,
        54.719010739723956,
        54.724961774699352,
        54.667265403084365,
        54.172796508697957,
        54.232802657796668,
        54.51870595556764,
        54.515105320134211,
        54.511503935681738,
        54.561685679020243,
        54.58067295110979,
        54.44116099108998,
        54.519297724396594,
        54.498105045491513,
        54.397065654307795,
        54.417292315742294,
        54.261522585644329,
        54.521329074017203,
        54.63578979414271,
        54.749501501887366,
        54.699458818840199,
        54.695427767135158,
        54.459535497710107,
        54.510576441069269,
        54.561467255098734,
        54.784475346243752,
        55.004647352875068,
        54.515329870830953,
        54.916337856340689,
        54.995996012470712,
        54.70409625250231,
        54.328487403124399,
        54.496563483049925,
        54.851841305143182,
        55.619439114430051,
        55.980705549855784,
        36.943565599053869,
        37.432186505385161,
        49.997687842214354,
        43.594399631813239,
        38.675290718732214,
        51.053721514812992,
        35.931234743765067,
        50.507166733794392,
        50.157504357693938,
        50.550980554454675,
        50.763485852297904,
        50.53138460522662,
        53.663839348539369,
        54.908558228032838,
        54.635389269464319,
        54.433377846678354,
        54.869804332512047,
        55.012335472766338,
        54.767390673828494,
        54.871895524894477,
        54.882933659984673,
        54.689575022355243,
        54.547610321803397,
        54.720307934515262,
        54.13211723153816,
        53.907774962329711,
        53.829574014042919,
        53.84855845739002,
        53.686663666364169,
        53.778272887344997,
        53.771987309955392,
        53.74832208140743,
        53.73332865063378,
        53.713966092047414,
        53.69676611539704,
        53.720861938128408,
        53.927357950217221,
        54.21967264492153,
        54.806623631671762,
        55.230057509630193,
        55.78194128710183,
        56.249738532740842,
        56.210586662227385,
        55.920947206713407,
        56.935208820569336,
        56.813218164481384,
        56.665101516250076,
        56.528450350836657,
        56.556555637792826,
        56.231027325406338,
        56.418588293908996,
        56.404174189761697,
        56.356746270969069,
        56.281999775423103,
        56.220587675973086,
        56.324369510742628,
        56.280577900599525,
        56.200947088990716,
        55.964903559700133,
        55.977144244657971,
        56.170590281161978,
        56.272521275788364,
        56.244347082036384,
        55.880968250839487,
        55.954805945946333,
        56.192435707388448,
        56.346092969958207,
        56.364476043773195,
        56.622123965931877,
        56.765829424783533,
        56.256345510277164,
        55.813616801284539,
        55.930777139235914,
        55.966550407471317,
        55.904186169932643,
        55.930893406174619,
        55.933595785633813,
        56.262975012392033,
        56.07690181553015,
        55.562884948612279,
        55.880929803091391,
        55.845479591335405,
        55.717287102834213,
        55.807143503042397,
        56.303496339435071,
        56.41532594600497,
        56.301063630950338,
        55.986394905837045,
        55.940140697488573,
        55.5828234160604,
        55.549714439845744,
        55.850565617214841,
        56.192285977241994,
        56.155089310743044,
        56.117815036913314,
        56.423287764573125,
        56.763499677733549,
        56.605168560531681,
        56.445375959082114,
        56.284098578667177,
        56.382297068702577,
        56.263377206520374,
        56.355190933854693,
        56.365527305822937,
        56.416377868869333,
        56.446889741611365,
        56.313432623146973,
        56.556719527340896,
        56.451072166559882,
        56.267738171131356,
        56.293683205939587,
        56.159294824138584,
        56.232251162005355,
        56.228873123349345,
        56.4144254446988,
        56.476611652612462,
        56.249406285068758,
        56.297974017105815,
        56.346405960889882,
        56.220705799316519,
        56.21692594651271,
        56.212714234653077,
        56.440467991746786,
        56.47769457037554,
        56.434686501466729,
        56.099576617095863,
        54.789208804171899,
        53.376523372353176,
        53.487749171146177,
        53.682037824271823,
        53.658802533144446,
        53.440662978098743,
        53.830430513550979,
        54.341766120759672,
        54.06859473507302,
        53.730476056836196,
        53.928278506018778,
        54.083799532791545,
        54.009218858342571,
        53.657663654746955,
        54.119598448328141,
        53.775009601809458,
        51.639920534519788,
        50.252769513459903,
        49.980857613473418,
        49.599355816246906,
        50.005408780500559,
        49.877179967407528,
        46.984697949238715,
        42.01042902413915,
        41.618244795515622,
        41.949299165859131,
        43.561237130576501,
        51.076595519931303,
        50.833069051618224,
        50.437056750540606,
        50.031778649346464,
        51.08093643169876,
        50.404709794377744,
        50.043817013863617,
        46.125607755199638,
        43.68276843541458,
        46.702932023887904,
        46.787958865801535,
        47.265938087024438,
        47.540720758100193,
        47.555414942888945,
        47.870623504629179,
        48.376069889085862,
        48.867178815045783,
        48.994983565420881,
        48.946577257264934,
        49.109612811802698,
        49.538187577109149,
        49.476828578275359,
        49.386025313354409,
        49.135447295322678,
        48.962196690576889,
        49.258064252034785,
        49.305211558384912,
        49.314018763513516,
        49.38677097391593,
        49.077653492303568,
        49.414101130634762,
        49.37087341111188,
        49.365613214184101,
        49.349883011581468,
        49.352299971693562,
        49.527833576648057,
        49.401882978290814,
        49.424936436842877,
        49.457605625571077,
        49.46308836591443,
        49.468571315742416,
        49.474057999034883,
        49.42907780741173,
        49.458515116212681,
        49.48790257722456,
        49.517242056540354,
        49.387071110328868,
        49.282472515493055,
        49.163882974706105,
        49.223461793581009,
        49.223352659930569,
        49.031571133822652,
        47.900452909428424,
        47.878060252516121,
        47.443400396704845,
        46.860512394449756,
        47.007398870551306,
        47.041405238039069,
        47.075342844190843,
        47.109213076826137,
        46.969022397036028,
        47.043086083274083,
        47.206182941721323,
        46.973801344438314,
        47.332498081847845,
        47.359897165854065,
        47.20000842739752,
        47.287872569592587,
        47.455496660431763,
        47.172575236837716,
        47.292441342571649,
        47.648577583158755,
        48.136530956831734,
        48.611111481887988,
        48.545701560219584,
        50.188027441770394,
        49.240339261233103,
        49.17093358103196,
        49.318063371338653,
        49.185667597942938,
        49.151862823706587,
        49.117990050720131,
        49.079105055819525,
        49.214877595146497,
        49.350142656646746,
        49.31009505100937,
        49.21563239079854,
        49.120645895400088,
        49.025137238290242,
        49.101362286943122,
        49.763332396034407,
        49.797954640793172,
        52.468377240537279,
        52.9705944562821,
        54.534824970378018,
        55.994088117621502,
        49.464912439004053,
        49.406703896851376,
        49.174304154481014,
        49.19941666198747,
        49.080368748374411,
        52.43020960020975,
        64.98213352554481,
        42.337281236373066,
        49.173475702058909,
        49.479839653876013,
        42.18897362435311,
        47.822224804271421,
        42.22492802511681,
        56.835550549776762,
        56.42305808933785,
        0.0,
        0.0,
        48.378569328046183,
        48.7214001115575,
        0.0,
        0.0,
        0.0,
        0.0,
        0.0,
        0.0,
        0.0,
        0.0,
        0.0,
        0.0,
        0.0,
        0.0,
        0.0,
        0.0,
        0.0,
        0.0,
        0.0,
        0.0,
        0.0,
        0.0,
        0.0,
        0.0,
        0.0,
        0.0,
        0.0,
        0.0,
        0.0,
        0.0,
        0.0,
        0.0,
        0.0,
        0.0,
        0.0,
        0.0,
        0.0,
        0.0,
        0.0,
        0.0,
        0.0,
        0.0,
        0.0,
        0.0,
        0.0,
        0.0,
        0.0,
        0.0,
        0.0,
        0.0,
        0.0,
        0.0,
        0.0,
        0.0,
        0.0,
        0.0
    ],
    "time": [
        0.02,
        0.040000000000000001,
        0.059999999999999998,
        0.080000000000000002,
        0.10000000000000001,
        0.12,
        0.14000000000000001,
        0.16,
        0.17999999999999999,
        0.20000000000000001,
        0.22,
        0.23999999999999999,
        0.26000000000000001,
        0.28000000000000003,
        0.29999999999999999,
        0.32000000000000001,
        0.34000000000000002,
        0.35999999999999999,
        0.38,
        0.40000000000000002,
        0.41999999999999998,
        0.44,
        0.46000000000000002,
        0.47999999999999998,
        0.5,
        0.52000000000000002,
        0.54000000000000004,
        0.56000000000000005,
        0.57999999999999996,
        0.59999999999999998,
        0.62,
        0.64000000000000001,
        0.66000000000000003,
        0.68000000000000005,
        0.69999999999999996,
        0.71999999999999997,
        0.73999999999999999,
        0.76000000000000001,
        0.78000000000000003,
        0.80000000000000004,
        0.81999999999999995,
        0.83999999999999997,
        0.85999999999999999,
        0.88,
        0.90000000000000002,
        0.92000000000000004,
        0.93999999999999995,
        0.95999999999999996,
        0.97999999999999998,
        1.0,
        1.02,
        1.04,
        1.0600000000000001,
        1.0800000000000001,
        1.1000000000000001,
        1.1200000000000001,
        1.1399999999999999,
        1.1599999999999999,
        1.1799999999999999,
        1.2,
        1.22,
        1.24,
        1.26,
        1.28,
        1.3,
        1.3200000000000001,
        1.3400000000000001,
        1.3600000000000001,
        1.3799999999999999,
        1.3999999999999999,
        1.4199999999999999,
        1.4399999999999999,
        1.46,
        1.48,
        1.5,
        1.52,
        1.54,
        1.5600000000000001,
        1.5800000000000001,
        1.6000000000000001,
        1.6200000000000001,
        1.6399999999999999,
        1.6599999999999999,
        1.6799999999999999,
        1.7,
        1.72,
        1.74,
        1.76,
        1.78,
        1.8,
        1.8200000000000001,
        1.8400000000000001,
        1.8600000000000001,
        1.8799999999999999,
        1.8999999999999999,
        1.9199999999999999,
        1.9399999999999999,
        1.96,
        1.98,
        2.0,
        2.02,
        2.04,
        2.0600000000000001,
        2.0800000000000001,
        2.1000000000000001,
        2.1200000000000001,
        2.1400000000000001,
        2.1600000000000001,
        2.1800000000000002,
        2.2000000000000002,
        2.2200000000000002,
        2.2400000000000002,
        2.2599999999999998,
        2.2799999999999998,
        2.2999999999999998,
        2.3199999999999998,
        2.3399999999999999,
        2.3599999999999999,
        2.3799999999999999,
        2.3999999999999999,
        2.4199999999999999,
        2.4399999999999999,
        2.46,
        2.48,
        2.5,
        2.52,
        2.54,
        2.5600000000000001,
        2.5800000000000001,
        2.6000000000000001,
        2.6200000000000001,
        2.6400000000000001,
        2.6600000000000001,
        2.6800000000000002,
        2.7000000000000002,
        2.7200000000000002,
        2.7400000000000002,
        2.7599999999999998,
        2.7799999999999998,
        2.7999999999999998,
        2.8199999999999998,
        2.8399999999999999,
        2.8599999999999999,
        2.8799999999999999,
        2.8999999999999999,
        2.9199999999999999,
        2.9399999999999999,
        2.96,
        2.98,
        3.0,
        3.02,
        3.04,
        3.0600000000000001,
        3.0800000000000001,
        3.1000000000000001,
        3.1200000000000001,
        3.1400000000000001,
        3.1600000000000001,
        3.1800000000000002,
        3.2000000000000002,
        3.2200000000000002,
        3.2400000000000002,
        3.2599999999999998,
        3.2799999999999998,
        3.2999999999999998,
        3.3199999999999998,
        3.3399999999999999,
        3.3599999999999999,
        3.3799999999999999,
        3.3999999999999999,
        3.4199999999999999,
        3.4399999999999999,
        3.46,
        3.48,
        3.5,
        3.52,
        3.54,
        3.5600000000000001,
        3.5800000000000001,
        3.6000000000000001,
        3.6200000000000001,
        3.6400000000000001,
        3.6600000000000001,
        3.6800000000000002,
        3.7000000000000002,
        3.7200000000000002,
        3.7400000000000002,
        3.7599999999999998,
        3.7799999999999998,
        3.7999999999999998,
        3.8199999999999998,
        3.8399999999999999,
        3.8599999999999999,
        3.8799999999999999,
        3.8999999999999999,
        3.9199999999999999,
        3.9399999999999999,
        3.96,
        3.98,
        4.0,
        4.0199999999999996,
        4.04,
        4.0599999999999996,
        4.0800000000000001,
        4.0999999999999996,
        4.1200000000000001,
        4.1399999999999997,
        4.1600000000000001,
        4.1799999999999997,
        4.2000000000000002,
        4.2199999999999998,
        4.2400000000000002,
        4.2599999999999998,
        4.2800000000000002,
        4.2999999999999998,
        4.3200000000000003,
        4.3399999999999999,
        4.3600000000000003,
        4.3799999999999999,
        4.4000000000000004,
        4.4199999999999999,
        4.4400000000000004,
        4.46,
        4.4800000000000004,
        4.5,
        4.5199999999999996,
        4.54,
        4.5599999999999996,
        4.5800000000000001,
        4.5999999999999996,
        4.6200000000000001,
        4.6399999999999997,
        4.6600000000000001,
        4.6799999999999997,
        4.7000000000000002,
        4.7199999999999998,
        4.7400000000000002,
        4.7599999999999998,
        4.7800000000000002,
        4.7999999999999998,
        4.8200000000000003,
        4.8399999999999999,
        4.8600000000000003,
        4.8799999999999999,
        4.9000000000000004,
        4.9199999999999999,
        4.9400000000000004,
        4.96,
        4.9800000000000004,
        5.0,
        5.0199999999999996,
        5.04,
        5.0599999999999996,
        5.0800000000000001,
        5.0999999999999996,
        5.1200000000000001,
        5.1399999999999997,
        5.1600000000000001,
        5.1799999999999997,
        5.2000000000000002,
        5.2199999999999998,
        5.2400000000000002,
        5.2599999999999998,
        5.2800000000000002,
        5.2999999999999998,
        5.3200000000000003,
        5.3399999999999999,
        5.3600000000000003,
        5.3799999999999999,
        5.4000000000000004,
        5.4199999999999999,
        5.4400000000000004,
        5.46,
        5.4800000000000004,
        5.5,
        5.5199999999999996,
        5.54,
        5.5599999999999996,
        5.5800000000000001,
        5.5999999999999996,
        5.6200000000000001,
        5.6399999999999997,
        5.6600000000000001,
        5.6799999999999997,
        5.7000000000000002,
        5.7199999999999998,
        5.7400000000000002,
        5.7599999999999998,
        5.7800000000000002,
        5.7999999999999998,
        5.8200000000000003,
        5.8399999999999999,
        5.8600000000000003,
        5.8799999999999999,
        5.9000000000000004,
        5.9199999999999999,
        5.9400000000000004,
        5.96,
        5.9800000000000004,
        6.0,
        6.0199999999999996,
        6.04,
        6.0599999999999996,
        6.0800000000000001,
        6.0999999999999996,
        6.1200000000000001,
        6.1399999999999997,
        6.1600000000000001,
        6.1799999999999997,
        6.2000000000000002,
        6.2199999999999998,
        6.2400000000000002,
        6.2599999999999998,
        6.2800000000000002,
        6.2999999999999998,
        6.3200000000000003,
        6.3399999999999999,
        6.3600000000000003,
        6.3799999999999999,
        6.4000000000000004,
        6.4199999999999999,
        6.4400000000000004,
        6.46,
        6.4800000000000004,
        6.5,
        6.5199999999999996,
        6.54,
        6.5599999999999996,
        6.5800000000000001,
        6.5999999999999996,
        6.6200000000000001,
        6.6399999999999997,
        6.6600000000000001,
        6.6799999999999997,
        6.7000000000000002,
        6.7199999999999998,
        6.7400000000000002,
        6.7599999999999998,
        6.7800000000000002,
        6.7999999999999998,
        6.8200000000000003,
        6.8399999999999999,
        6.8600000000000003,
        6.8799999999999999,
        6.9000000000000004,
        6.9199999999999999,
        6.9400000000000004,
        6.96,
        6.9800000000000004,
        7.0,
        7.0199999999999996,
        7.04,
        7.0599999999999996,
        7.0800000000000001,
        7.0999999999999996,
        7.1200000000000001,
        7.1399999999999997,
        7.1600000000000001,
        7.1799999999999997,
        7.2000000000000002,
        7.2199999999999998,
        7.2400000000000002,
        7.2599999999999998,
        7.2800000000000002,
        7.2999999999999998,
        7.3200000000000003,
        7.3399999999999999,
        7.3600000000000003,
        7.3799999999999999,
        7.4000000000000004,
        7.4199999999999999,
        7.4400000000000004,
        7.46,
        7.4800000000000004,
        7.5,
        7.5199999999999996,
        7.54,
        7.5599999999999996,
        7.5800000000000001,
        7.5999999999999996,
        7.6200000000000001,
        7.6399999999999997,
        7.6600000000000001,
        7.6799999999999997,
        7.7000000000000002,
        7.7199999999999998,
        7.7400000000000002,
        7.7599999999999998,
        7.7800000000000002,
        7.7999999999999998,
        7.8200000000000003,
        7.8399999999999999,
        7.8600000000000003,
        7.8799999999999999,
        7.9000000000000004,
        7.9199999999999999,
        7.9400000000000004,
        7.96,
        7.9800000000000004,
        8.0,
        8.0199999999999996,
        8.0399999999999991,
        8.0600000000000005,
        8.0800000000000001,
        8.0999999999999996,
        8.1199999999999992,
        8.1400000000000006,
        8.1600000000000001,
        8.1799999999999997,
        8.1999999999999993,
        8.2200000000000006,
        8.2400000000000002,
        8.2599999999999998,
        8.2799999999999994,
        8.3000000000000007,
        8.3200000000000003,
        8.3399999999999999,
        8.3599999999999994,
        8.3800000000000008,
        8.4000000000000004,
        8.4199999999999999,
        8.4399999999999995,
        8.4600000000000009,
        8.4800000000000004,
        8.5,
        8.5199999999999996,
        8.5399999999999991,
        8.5600000000000005,
        8.5800000000000001,
        8.5999999999999996,
        8.6199999999999992,
        8.6400000000000006,
        8.6600000000000001,
        8.6799999999999997,
        8.6999999999999993,
        8.7200000000000006,
        8.7400000000000002,
        8.7599999999999998,
        8.7799999999999994,
        8.8000000000000007,
        8.8200000000000003,
        8.8399999999999999,
        8.8599999999999994,
        8.8800000000000008,
        8.9000000000000004,
        8.9199999999999999,
        8.9399999999999995,
        8.9600000000000009,
        8.9800000000000004,
        9.0,
        9.0199999999999996,
        9.0399999999999991,
        9.0600000000000005,
        9.0800000000000001,
        9.0999999999999996,
        9.1199999999999992,
        9.1400000000000006,
        9.1600000000000001,
        9.1799999999999997,
        9.1999999999999993,
        9.2200000000000006,
        9.2400000000000002,
        9.2599999999999998,
        9.2799999999999994,
        9.3000000000000007,
        9.3200000000000003,
        9.3399999999999999,
        9.3599999999999994,
        9.3800000000000008,
        9.4000000000000004,
        9.4199999999999999,
        9.4399999999999995,
        9.4600000000000009,
        9.4800000000000004,
        9.5,
        9.5199999999999996,
        9.5399999999999991,
        9.5600000000000005,
        9.5800000000000001,
        9.5999999999999996,
        9.6199999999999992,
        9.6400000000000006,
        9.6600000000000001,
        9.6799999999999997,
        9.6999999999999993,
        9.7200000000000006,
        9.7400000000000002,
        9.7599999999999998,
        9.7799999999999994,
        9.8000000000000007,
        9.8200000000000003,
        9.8399999999999999,
        9.8599999999999994,
        9.8800000000000008,
        9.9000000000000004,
        9.9199999999999999,
        9.9399999999999995,
        9.9600000000000009,
        9.9800000000000004,
        10.0,
        10.02,
        10.039999999999999,
        10.06,
        10.08,
        10.1,
        10.119999999999999,
        10.140000000000001,
        10.16,
        10.18,
        10.199999999999999,
        10.220000000000001,
        10.24,
        10.26,
        10.279999999999999,
        10.300000000000001,
        10.32,
        10.34,
        10.359999999999999,
        10.380000000000001,
        10.4,
        10.42,
        10.44,
        10.460000000000001,
        10.48,
        10.5,
        10.52,
        10.539999999999999,
        10.56,
        10.58,
        10.6,
        10.619999999999999,
        10.640000000000001,
        10.66,
        10.68,
        10.699999999999999,
        10.720000000000001,
        10.74,
        10.76,
        10.779999999999999,
        10.800000000000001,
        10.82,
        10.84,
        10.859999999999999,
        10.880000000000001,
        10.9,
        10.92,
        10.94,
        10.960000000000001,
        10.98,
        11.0,
        11.02,
        11.039999999999999,
        11.06,
        11.08,
        11.1,
        11.119999999999999,
        11.140000000000001,
        11.16,
        11.18,
        11.199999999999999,
        11.220000000000001,
        11.24,
        11.26,
        11.279999999999999,
        11.300000000000001,
        11.32,
        11.34,
        11.359999999999999,
        11.380000000000001,
        11.4,
        11.42,
        11.44,
        11.460000000000001,
        11.48,
        11.5,
        11.52,
        11.539999999999999,
        11.56,
        11.58,
        11.6,
        11.619999999999999,
        11.640000000000001,
        11.66,
        11.68,
        11.699999999999999,
        11.720000000000001,
        11.74,
        11.76,
        11.779999999999999,
        11.800000000000001,
        11.82,
        11.84,
        11.859999999999999,
        11.880000000000001,
        11.9
    ]
}