{
    "DU": 322,
    "DV": 248,
    "F-measure": 0.8513513513513514,
    "F-measure Chroma": 0.8957528957528957,
    "FN": 48,
    "FNC": 23,
    "FNCch": 43,
    "FNI": 25,
    "FNIch": 5,
    "FP": 56,
    "GU": 330,
    "GV": 240,
    "Overall Accuracy": 0.7736842105263158,
    "Overall Chroma Accuracy": 0.8140350877192982,
    "Precision": 0.8448275862068966,
    "Precision Chroma": 0.8888888888888888,
    "Raw Chroma Accuracy": 0.9708333333333333,
    "Raw Pitch Accuracy": 0.7916666666666666,
    "Recall": 0.857976653696498,
    "Recall Chroma": 0.9027237354085603,
    "TN": 274,
    "TO": 570,
    "TP": 192,
    "TPC": 167,
    "TPCch": 190,
    "TPI": 25,
    "TPIch": 2,
    "Voiced Chroma Accuracy": 0.7916666666666666,
    "Voiced Pitch Accuracy": 0.6958333333333333,
    "Voicing Accuracy": 0.8175438596491228,
    "Voicing Detection": 0.8,
    "Voicing False Alarm": 0.1696969696969697
}