{
    "DU": 75,
    "DV": 288,
    "F-measure": 0.6747352496217852,
    "F-measure Chroma": 0.838124054462935,
    "FN": 45,
    "FNC": 1,
    "FNCch": 5,
    "FNI": 44,
    "FNIch": 40,
    "FP": 20,
    "GU": 50,
    "GV": 313,
    "Overall Accuracy": 0.6143250688705234,
    "Overall Chroma Accuracy": 0.7630853994490359,
    "Precision": 0.7012578616352201,
    "Precision Chroma": 0.8710691823899371,
    "Raw Chroma Accuracy": 0.805111821086262,
    "Raw Pitch Accuracy": 0.6198083067092651,
    "Recall": 0.6501457725947521,
    "Recall Chroma": 0.8075801749271136,
    "TN": 30,
    "TO": 363,
    "TP": 268,
    "TPC": 193,
    "TPCch": 247,
    "TPI": 75,
    "TPIch": 21,
    "Voiced Chroma Accuracy": 0.7891373801916933,
    "Voiced Pitch Accuracy": 0.6166134185303515,
    "Voicing Accuracy": 0.8209366391184573,
    "Voicing Detection": 0.8562300319488818,
    "Voicing False Alarm": 0.4
}