{
    "DU": 45,
    "DV": 379,
    "F-measure": 0.7593984962406015,
    "F-measure Chroma": 0.9147869674185463,
    "FN": 15,
    "FNC": 7,
    "FNCch": 11,
    "FNI": 8,
    "FNIch": 4,
    "FP": 35,
    "GU": 65,
    "GV": 359,
    "Overall Accuracy": 0.714622641509434,
    "Overall Chroma Accuracy": 0.8608490566037735,
    "Precision": 0.7408312958435208,
    "Precision Chroma": 0.8924205378973105,
    "Raw Chroma Accuracy": 0.9637883008356546,
    "Raw Pitch Accuracy": 0.7799442896935933,
    "Recall": 0.7789203084832905,
    "Recall Chroma": 0.9383033419023136,
    "TN": 30,
    "TO": 424,
    "TP": 344,
    "TPC": 273,
    "TPCch": 335,
    "TPI": 71,
    "TPIch": 9,
    "Voiced Chroma Accuracy": 0.9331476323119777,
    "Voiced Pitch Accuracy": 0.7604456824512534,
    "Voicing Accuracy": 0.8820754716981132,
    "Voicing Detection": 0.958217270194986,
    "Voicing False Alarm": 0.5384615384615384
}