{
    "DU": 220,
    "DV": 225,
    "F-measure": 0.7049808429118773,
    "F-measure Chroma": 0.7739463601532567,
    "FN": 91,
    "FNC": 49,
    "FNCch": 56,
    "FNI": 42,
    "FNIch": 35,
    "FP": 16,
    "GU": 145,
    "GV": 300,
    "Overall Accuracy": 0.6202247191011236,
    "Overall Chroma Accuracy": 0.6808988764044944,
    "Precision": 0.7796610169491526,
    "Precision Chroma": 0.8559322033898306,
    "Raw Chroma Accuracy": 0.7666666666666667,
    "Raw Pitch Accuracy": 0.6533333333333333,
    "Recall": 0.6433566433566433,
    "Recall Chroma": 0.7062937062937062,
    "TN": 129,
    "TO": 445,
    "TP": 209,
    "TPC": 147,
    "TPCch": 174,
    "TPI": 62,
    "TPIch": 35,
    "Voiced Chroma Accuracy": 0.58,
    "Voiced Pitch Accuracy": 0.49,
    "Voicing Accuracy": 0.7595505617977528,
    "Voicing Detection": 0.6966666666666667,
    "Voicing False Alarm": 0.1103448275862069
}