{
    "DU": 205,
    "DV": 139,
    "F-measure": 0.8012618296529969,
    "F-measure Chroma": 0.886435331230284,
    "FN": 33,
    "FNC": 0,
    "FNCch": 0,
    "FNI": 33,
    "FNIch": 33,
    "FP": 21,
    "GU": 193,
    "GV": 151,
    "Overall Accuracy": 0.7383720930232558,
    "Overall Chroma Accuracy": 0.8168604651162791,
    "Precision": 0.8167202572347267,
    "Precision Chroma": 0.9035369774919614,
    "Raw Chroma Accuracy": 0.7218543046357616,
    "Raw Pitch Accuracy": 0.543046357615894,
    "Recall": 0.7863777089783281,
    "Recall Chroma": 0.8699690402476781,
    "TN": 172,
    "TO": 344,
    "TP": 118,
    "TPC": 82,
    "TPCch": 109,
    "TPI": 36,
    "TPIch": 9,
    "Voiced Chroma Accuracy": 0.7218543046357616,
    "Voiced Pitch Accuracy": 0.543046357615894,
    "Voicing Accuracy": 0.8430232558139535,
    "Voicing Detection": 0.7814569536423841,
    "Voicing False Alarm": 0.10880829015544041
}