{
    "DU": 67,
    "DV": 336,
    "F-measure": 0.8175765645805593,
    "F-measure Chroma": 0.9214380825565912,
    "FN": 20,
    "FNC": 9,
    "FNCch": 14,
    "FNI": 11,
    "FNIch": 6,
    "FP": 35,
    "GU": 82,
    "GV": 321,
    "Overall Accuracy": 0.7617866004962779,
    "Overall Chroma Accuracy": 0.858560794044665,
    "Precision": 0.8015665796344648,
    "Precision Chroma": 0.9033942558746736,
    "Raw Chroma Accuracy": 0.9750778816199377,
    "Raw Pitch Accuracy": 0.838006230529595,
    "Recall": 0.8342391304347826,
    "Recall Chroma": 0.9402173913043478,
    "TN": 47,
    "TO": 403,
    "TP": 301,
    "TPC": 260,
    "TPCch": 299,
    "TPI": 41,
    "TPIch": 2,
    "Voiced Chroma Accuracy": 0.9314641744548287,
    "Voiced Pitch Accuracy": 0.8099688473520249,
    "Voicing Accuracy": 0.8635235732009926,
    "Voicing Detection": 0.9376947040498442,
    "Voicing False Alarm": 0.4268292682926829
}