{
    "DU": 166,
    "DV": 370,
    "F-measure": 0.750996015936255,
    "F-measure Chroma": 0.8824701195219123,
    "FN": 33,
    "FNC": 0,
    "FNCch": 5,
    "FNI": 33,
    "FNIch": 28,
    "FP": 35,
    "GU": 168,
    "GV": 368,
    "Overall Accuracy": 0.7033582089552238,
    "Overall Chroma Accuracy": 0.8264925373134329,
    "Precision": 0.7495029821073559,
    "Precision Chroma": 0.8807157057654076,
    "Raw Chroma Accuracy": 0.8559782608695652,
    "Raw Pitch Accuracy": 0.6630434782608695,
    "Recall": 0.7524950099800399,
    "Recall Chroma": 0.8842315369261478,
    "TN": 133,
    "TO": 536,
    "TP": 335,
    "TPC": 244,
    "TPCch": 310,
    "TPI": 91,
    "TPIch": 25,
    "Voiced Chroma Accuracy": 0.842391304347826,
    "Voiced Pitch Accuracy": 0.6630434782608695,
    "Voicing Accuracy": 0.8731343283582089,
    "Voicing Detection": 0.9103260869565217,
    "Voicing False Alarm": 0.20833333333333334
}