{
    "DU": 57,
    "DV": 299,
    "F-measure": 0.11690363349131123,
    "F-measure Chroma": 0.12638230647709323,
    "FN": 20,
    "FNC": 0,
    "FNCch": 6,
    "FNI": 20,
    "FNIch": 14,
    "FP": 59,
    "GU": 96,
    "GV": 260,
    "Overall Accuracy": 0.10393258426966293,
    "Overall Chroma Accuracy": 0.11235955056179775,
    "Precision": 0.11011904761904762,
    "Precision Chroma": 0.11904761904761904,
    "Raw Chroma Accuracy": 0.03461538461538462,
    "Raw Pitch Accuracy": 0.0,
    "Recall": 0.12457912457912458,
    "Recall Chroma": 0.13468013468013468,
    "TN": 37,
    "TO": 356,
    "TP": 240,
    "TPC": 0,
    "TPCch": 3,
    "TPI": 240,
    "TPIch": 237,
    "Voiced Chroma Accuracy": 0.011538461538461539,
    "Voiced Pitch Accuracy": 0.0,
    "Voicing Accuracy": 0.7780898876404494,
    "Voicing Detection": 0.9230769230769231,
    "Voicing False Alarm": 0.6145833333333334
}