{
    "DU": 73,
    "DV": 294,
    "F-measure": 0.8945147679324894,
    "F-measure Chroma": 0.9423347398030942,
    "FN": 19,
    "FNC": 1,
    "FNCch": 8,
    "FNI": 18,
    "FNIch": 11,
    "FP": 4,
    "GU": 58,
    "GV": 309,
    "Overall Accuracy": 0.8664850136239782,
    "Overall Chroma Accuracy": 0.9128065395095368,
    "Precision": 0.9137931034482759,
    "Precision Chroma": 0.9626436781609196,
    "Raw Chroma Accuracy": 0.9352750809061489,
    "Raw Pitch Accuracy": 0.8576051779935275,
    "Recall": 0.8760330578512396,
    "Recall Chroma": 0.9228650137741047,
    "TN": 54,
    "TO": 367,
    "TP": 290,
    "TPC": 264,
    "TPCch": 281,
    "TPI": 26,
    "TPIch": 9,
    "Voiced Chroma Accuracy": 0.9093851132686084,
    "Voiced Pitch Accuracy": 0.8543689320388349,
    "Voicing Accuracy": 0.9373297002724795,
    "Voicing Detection": 0.9385113268608414,
    "Voicing False Alarm": 0.06896551724137931
}