{
    "DU": 4,
    "DV": 443,
    "F-measure": 0.7766990291262137,
    "F-measure Chroma": 0.8373786407766991,
    "FN": 0,
    "FNC": 0,
    "FNCch": 0,
    "FNI": 0,
    "FNIch": 0,
    "FP": 70,
    "GU": 74,
    "GV": 373,
    "Overall Accuracy": 0.7158836689038032,
    "Overall Chroma Accuracy": 0.7718120805369127,
    "Precision": 0.7158836689038032,
    "Precision Chroma": 0.7718120805369127,
    "Raw Chroma Accuracy": 0.9142091152815014,
    "Raw Pitch Accuracy": 0.8471849865951743,
    "Recall": 0.8488063660477454,
    "Recall Chroma": 0.9151193633952255,
    "TN": 4,
    "TO": 447,
    "TP": 373,
    "TPC": 316,
    "TPCch": 341,
    "TPI": 57,
    "TPIch": 32,
    "Voiced Chroma Accuracy": 0.9142091152815014,
    "Voiced Pitch Accuracy": 0.8471849865951743,
    "Voicing Accuracy": 0.843400447427293,
    "Voicing Detection": 1.0,
    "Voicing False Alarm": 0.9459459459459459
}