{
    "f0": [
        53.135312353791733,
        70.533034057028914,
        70.533036253752826,
        70.360377733055685,
        70.464179355659624,
        70.567363352599742,
        70.669933856565791,
        71.114726029969063,
        71.20805595233287,
        71.121219946612186,
        70.971376608160966,
        70.851809724735404,
        70.887779930791126,
        70.902130749100706,
        70.916471865184249,
        70.930798929251168,
        36.600960091805632,
        35.021242942108479,
        35.193114582395069,
        35.363296692814011,
        34.40911621448803,
        35.221390878161131,
        34.581927336613596,
        36.109588448126587,
        35.426793637332416,
        35.912681842453807,
        35.962200819158561,
        35.843145193152473,
        34.484467300234961,
        36.119747191025255,
        36.045366316803424,
        35.970666348551553,
        35.828760538959628,
        35.80368542539042,
        34.878484404394683,
        62.510148897906149,
        62.516553427392793,
        62.522953815307382,
        62.423577126066071,
        62.323628375492348,
        62.395360779994228,
        62.32653992437384,
        62.328111091818528,
        62.520106579329088,
        62.616083495472473,
        62.230977851805292,
        62.434075996411643,
        62.600655727670372,
        64.471543775099761,
        64.363937155551611,
        64.35992198711763,
        64.129849560517115,
        64.011607226149039,
        64.177608878371643,
        64.113626570484811,
        64.023720101665859,
        64.118636904046113,
        64.001026127778616,
        63.882610845823635,
        63.999259811515344,
        36.214324309075479,
        52.117887160048809,
        39.90494954452096,
        35.176432289085028,
        35.49347962388623,
        35.473628975563535,
        34.621390559313326,
        39.864632850364536,
        40.449004867127236,
        42.136190967427567,
        45.646975170556289,
        45.22238561349063,
        41.893338539168475,
        41.773950684012519,
        42.539926057316165,
        39.306226338426363,
        69.972845973910751,
        35.156873732645828,
        69.996940624964807,
        36.443662017230039,
        35.996527113006465,
        34.414733757736883,
        35.141261029553391,
        35.838522981664887,
        35.093458297773218,
        35.854156005920707,
        34.209361371617952,
        34.883561835689591,
        35.753191857404531,
        35.061043328864514,
        36.1041554723624,
        70.833447149240214,
        70.703538165168681,
        70.398654075373969,
        70.349354061733152,
        70.169511043131934,
        70.053791526234122,
        70.583103215661382,
        70.644663177688457,
        70.577243962972972,
        70.599256839915455,
        70.432302196561054,
        70.69830410359674,
        70.761404563729371,
        70.573880516170433,
        39.634036364887663,
        39.11929028456386,
        40.747721540461811,
        39.600645985746212,
        42.351991650379091,
        35.069823652708571,
        43.846444832416786,
        62.470306295454236,
        62.467980935157343,
        62.121913342607641,
        62.076688816294748,
        62.049944334834954,
        62.186108916726099,
        62.112540812140544,
        62.275599844771378,
        62.552744127922352,
        62.418960993652469,
        62.242428017128049,
        62.427995391552926,
        62.636431879893792,
        62.302802639429053,
        62.267011666971904,
        62.591036333568745,
        62.580279078111225,
        62.490139372990463,
        62.439466848189625,
        62.388650874699096,
        62.680508311207156,
        62.953637032360994,
        62.879610262866038,
        62.950185377619071,
        62.930079858697553,
        62.847376401075024,
        62.621744318865915,
        62.465492451396848,
        62.307817484794313,
        62.320956556351383,
        62.431905443053445,
        62.427605735429651,
        62.396971461762647,
        62.379477972136236,
        62.464595729144676,
        62.525903580487096,
        62.505989160160659,
        62.544395259935925,
        62.870158401887863,
        63.049410892690332,
        63.226826456686609,
        63.052688769792333,
        62.93013785078444,
        63.157651714892822,
        63.058162941953952,
        63.04982575193285,
        62.995662469840148,
        63.136591368895836,
        35.646065181160203,
        37.154407746395165,
        37.19563078899413,
        39.142773467880758,
        36.104185465869143,
        40.420658884877156,
        39.090525584711813,
        36.493487160975576,
        36.288298021655855,
        34.665321049943351,
        37.51518462034543,
        36.877753158732169,
        35.028765208167968,
        53.003254298102121,
        44.326498118705551,
        44.268870597576978,
        45.975820855553863,
        46.450151930351552,
        51.146341710070232,
        69.994157538502648,
        70.126508930966395,
        46.115769821589197,
        36.548397807488449,
        35.133073163360685,
        35.192297863633016,
        36.074194701066276,
        36.913338312752636,
        34.915723817358234,
        34.467532117231507,
        36.695450030654399,
        70.823234042258392,
        70.800826901088286,
        70.778387454583694,
        70.755923222613291,
        69.845419796663549,
        36.264074937960785,
        39.703619962592583,
        36.238840002700989,
        40.180703675819878,
        64.390881193821087,
        64.282075024644172,
        64.23766914053428,
        64.332816442274193,
        64.289095582184402,
        64.286824021802801,
        64.263781135113675,
        64.077112693644068,
        64.143555534428941,
        64.159847359442736,
        63.494342722817684,
        63.003740555428308,
        62.907118897376215,
        62.809954957622082,
        62.712242614764293,
        62.705904877167434,
        62.699568328906381,
        62.693227704733161,
        62.859150379126568,
        62.761678176026955,
        62.770513202762942,
        62.794508297196458,
        62.983165152026551,
        62.9145251014073,
        63.916216126227333,
        63.83185938856014,
        63.845924519499668,
        63.889632340837935,
        63.568694576176298,
        63.574776792078907,
        63.668025813265004,
        63.629661550225457,
        63.591212082872552,
        63.552677031898213,
        63.561635405075961,
        63.567825267565041,
        63.596774566839386,
        63.6256754848906,
        63.480530672085266,
        63.559067445668866,
        63.555581494494234,
        63.360156628124173,
        63.259839306579664,
        63.282314121316006,
        62.592249952824474,
        70.206410464421111,
        70.125806848920405,
        70.01754668820513,
        69.922339322703706,
        69.991963592331729,
        69.978794184957806,
        69.965614752057334,
        69.952425278354326,
        70.151823290579756,
        70.348951954257643,
        70.297840183770148,
        70.441819377853179,
        70.543137443465383,
        70.490502397832088,
        69.96441210160377,
        70.010459864917365,
        70.142186923564083,
        42.672656000004054,
        35.040261129287643,
        34.940039577681787,
        35.091419564158628,
        35.893214736139704,
        70.546031370568059,
        70.443105301400536,
        39.389483218595196,
        35.155575064490506,
        70.210361112293086,
        70.237031264335229,
        70.209541525864481,
        70.182010272814608,
        70.154434026910977,
        70.12681717739305,
        34.963228926639403,
        37.289713072214987,
        36.320975798150471,
        34.936846789309129,
        35.300045293185356,
        34.091151166189064,
        34.901870515195391,
        34.260990243259975,
        37.122296288666881,
        34.520014833243629,
        35.007321925775841,
        34.407397194792125,
        68.33827015883405,
        67.911605269961285,
        67.816990726232149,
        67.951498320678908,
        67.899271977484929,
        67.890338266307012,
        67.881401159873846,
        67.972733710102688,
        68.019602537402193,
        68.066344780066856,
        68.112961161324947,
        68.159451118051976,
        68.08206212540702,
        68.034436796909759,
        67.986678840634184,
        68.089761057076657,
        68.04229274677941,
        68.039895336806239,
        68.014905345985966,
        67.989879188790184,
        68.137081911430116,
        68.000012314839651,
        68.054610791385215,
        68.027155274680325,
        67.853269044489707,
        67.923974457110447,
        67.933849956837747,
        67.943718530012916,
        67.95358273493261,
        67.9634400694177,
        67.973290500250641,
        67.809142486377695,
        67.966049452858115,
        67.979978348187032,
        67.890772241544099,
        67.766170754781683,
        67.830529990912453,
        67.894649555046229,
        67.784536973666007,
        67.831429221082644,
        68.008644218604914,
        67.945626452459109,
        0.0,
        0.0,
        0.0,
        0.0,
        0.0,
        0.0,
        0.0,
        0.0,
        0.0
    ],
    "time": [
        0.02,
        0.040000000000000001,
        0.059999999999999998,
        0.080000000000000002,
        0.10000000000000001,
        0.12,
        0.14000000000000001,
        0.16,
        0.17999999999999999,
        0.20000000000000001,
        0.22,
        0.23999999999999999,
        0.26000000000000001,
        0.28000000000000003,
        0.29999999999999999,
        0.32000000000000001,
        0.34000000000000002,
        0.35999999999999999,
        0.38,
        0.40000000000000002,
        0.41999999999999998,
        0.44,
        0.46000000000000002,
        0.47999999999999998,
        0.5,
        0.52000000000000002,
        0.54000000000000004,
        0.56000000000000005,
        0.57999999999999996,
        0.59999999999999998,
        0.62,
        0.64000000000000001,
        0.66000000000000003,
        0.68000000000000005,
        0.69999999999999996,
        0.71999999999999997,
        0.73999999999999999,
        0.76000000000000001,
        0.78000000000000003,
        0.80000000000000004,
        0.81999999999999995,
        0.83999999999999997,
        0.85999999999999999,
        0.88,
        0.90000000000000002,
        0.92000000000000004,
        0.93999999999999995,
        0.95999999999999996,
        0.97999999999999998,
        1.0,
        1.02,
        1.04,
        1.0600000000000001,
        1.0800000000000001,
        1.1000000000000001,
        1.1200000000000001,
        1.1399999999999999,
        1.1599999999999999,
        1.1799999999999999,
        1.2,
        1.22,
        1.24,
        1.26,
        1.28,
        1.3,
        1.3200000000000001,
        1.3400000000000001,
        1.3600000000000001,
        1.3799999999999999,
        1.3999999999999999,
        1.4199999999999999,
        1.4399999999999999,
        1.46,
        1.48,
        1.5,
        1.52,
        1.54,
        1.5600000000000001,
        1.5800000000000001,
        1.6000000000000001,
        1.6200000000000001,
        1.6399999999999999,
        1.6599999999999999,
        1.6799999999999999,
        1.7,
        1.72,
        1.74,
        1.76,
        1.78,
        1.8,
        1.8200000000000001,
        1.8400000000000001,
        1.8600000000000001,
        1.8799999999999999,
        1.8999999999999999,
        1.9199999999999999,
        1.9399999999999999,
        1.96,
        1.98,
        2.0,
        2.02,
        2.04,
        2.0600000000000001,
        2.0800000000000001,
        2.1000000000000001,
        2.1200000000000001,
        2.1400000000000001,
        2.1600000000000001,
        2.1800000000000002,
        2.2000000000000002,
        2.2200000000000002,
        2.2400000000000002,
        2.2599999999999998,
        2.2799999999999998,
        2.2999999999999998,
        2.3199999999999998,
        2.3399999999999999,
        2.3599999999999999,
        2.3799999999999999,
        2.3999999999999999,
        2.4199999999999999,
        2.4399999999999999,
        2.46,
        2.48,
        2.5,
        2.52,
        2.54,
        2.5600000000000001,
        2.5800000000000001,
        2.6000000000000001,
        2.6200000000000001,
        2.6400000000000001,
        2.6600000000000001,
        2.6800000000000002,
        2.7000000000000002,
        2.7200000000000002,
        2.7400000000000002,
        2.7599999999999998,
        2.7799999999999998,
        2.7999999999999998,
        2.8199999999999998,
        2.8399999999999999,
        2.8599999999999999,
        2.8799999999999999,
        2.8999999999999999,
        2.9199999999999999,
        2.9399999999999999,
        2.96,
        2.98,
        3.0,
        3.02,
        3.04,
        3.0600000000000001,
        3.0800000000000001,
        3.1000000000000001,
        3.1200000000000001,
        3.1400000000000001,
        3.1600000000000001,
        3.1800000000000002,
        3.2000000000000002,
        3.2200000000000002,
        3.2400000000000002,
        3.2599999999999998,
        3.2799999999999998,
        3.2999999999999998,
        3.3199999999999998,
        3.3399999999999999,
        3.3599999999999999,
        3.3799999999999999,
        3.3999999999999999,
        3.4199999999999999,
        3.4399999999999999,
        3.46,
        3.48,
        3.5,
        3.52,
        3.54,
        3.5600000000000001,
        3.5800000000000001,
        3.6000000000000001,
        3.6200000000000001,
        3.6400000000000001,
        3.6600000000000001,
        3.6800000000000002,
        3.7000000000000002,
        3.7200000000000002,
        3.7400000000000002,
        3.7599999999999998,
        3.7799999999999998,
        3.7999999999999998,
        3.8199999999999998,
        3.8399999999999999,
        3.8599999999999999,
        3.8799999999999999,
        3.8999999999999999,
        3.9199999999999999,
        3.9399999999999999,
        3.96,
        3.98,
        4.0,
        4.0199999999999996,
        4.04,
        4.0599999999999996,
        4.0800000000000001,
        4.0999999999999996,
        4.1200000000000001,
        4.1399999999999997,
        4.1600000000000001,
        4.1799999999999997,
        4.2000000000000002,
        4.2199999999999998,
        4.2400000000000002,
        4.2599999999999998,
        4.2800000000000002,
        4.2999999999999998,
        4.3200000000000003,
        4.3399999999999999,
        4.3600000000000003,
        4.3799999999999999,
        4.4000000000000004,
        4.4199999999999999,
        4.4400000000000004,
        4.46,
        4.4800000000000004,
        4.5,
        4.5199999999999996,
        4.54,
        4.5599999999999996,
        4.5800000000000001,
        4.5999999999999996,
        4.6200000000000001,
        4.6399999999999997,
        4.6600000000000001,
        4.6799999999999997,
        4.7000000000000002,
        4.7199999999999998,
        4.7400000000000002,
        4.7599999999999998,
        4.7800000000000002,
        4.7999999999999998,
        4.8200000000000003,
        4.8399999999999999,
        4.8600000000000003,
        4.8799999999999999,
        4.9000000000000004,
        4.9199999999999999,
        4.9400000000000004,
        4.96,
        4.9800000000000004,
        5.0,
        5.0199999999999996,
        5.04,
        5.0599999999999996,
        5.0800000000000001,
        5.0999999999999996,
        5.1200000000000001,
        5.1399999999999997,
        5.1600000000000001,
        5.1799999999999997,
        5.2000000000000002,
        5.2199999999999998,
        5.2400000000000002,
        5.2599999999999998,
        5.2800000000000002,
        5.2999999999999998,
        5.3200000000000003,
        5.3399999999999999,
        5.3600000000000003,
        5.3799999999999999,
        5.4000000000000004,
        5.4199999999999999,
        5.4400000000000004,
        5.46,
        5.4800000000000004,
        5.5,
        5.5199999999999996,
        5.54,
        5.5599999999999996,
        5.5800000000000001,
        5.5999999999999996,
        5.6200000000000001,
        5.6399999999999997,
        5.6600000000000001,
        5.6799999999999997,
        5.7000000000000002,
        5.7199999999999998,
        5.7400000000000002,
        5.7599999999999998,
        5.7800000000000002,
        5.7999999999999998,
        5.8200000000000003,
        5.8399999999999999,
        5.8600000000000003,
        5.8799999999999999,
        5.9000000000000004,
        5.9199999999999999,
        5.9400000000000004,
        5.96,
        5.9800000000000004,
        6.0,
        6.0199999999999996,
        6.04,
        6.0599999999999996,
        6.0800000000000001,
        6.0999999999999996,
        6.1200000000000001,
        6.1399999999999997,
        6.1600000000000001,
        6.1799999999999997,
        6.2000000000000002,
        6.2199999999999998,
        6.2400000000000002,
        6.2599999999999998,
        6.2800000000000002,
        6.2999999999999998,
        6.3200000000000003,
        6.3399999999999999,
        6.3600000000000003,
        6.3799999999999999,
        6.4000000000000004,
        6.4199999999999999,
        6.4400000000000004,
        6.46,
        6.4800000000000004,
        6.5,
        6.5199999999999996,
        6.54,
        6.5599999999999996,
        6.5800000000000001,
        6.5999999999999996,
        6.6200000000000001,
        6.6399999999999997,
        6.6600000000000001,
        6.6799999999999997,
        6.7000000000000002,
        6.7199999999999998,
        6.7400000000000002,
        6.7599999999999998,
        6.7800000000000002
    ]
}