{
	"f0": [153.8986713,212.0402579,215.2110844,209.819438,204.9146493,205.5220967,209.6887104,214.8893444,221.2552598,227.1113684,232.1102254,235.5003966,239.3730278,241.3189798,246.1227026,249.5550107,252.0177637,251.3605231,251.4246529,251.0691241,250.1824842,248.9408049,250.8936421,252.8160219,254.6255771,258.9184094,273.4758211,284.141553,295.9535952,308.3492855,316.0896466,316.9222949,311.6978438,311.8745787,317.3944233,323.7183714,332.8105227,335.5340557,339.8586155,338.5519186,338.8213641,337.6445316,338.358355,337.0575584,337.1048897,336.3409992,338.0426597,338.5709209,340.778506,349.09731,362.435369,374.4889464,376.0644434,371.3908293,367.1783847,361.1078966,363.8851388,366.3422595,367.1511856,368.5487596,370.9947876,372.0704108,371.5670992,373.1633164,370.5628473,369.9466564,369.6622076,369.3169858,368.8872826,367.0339592,370.1218878,378.9385771,402.674008,398.4208348,389.7820946,388.4006921,383.9813549,379.7707107,396.7120473,399.8113218,402.4525106,401.9956325,397.0070661,396.407037,393.0615208,389.9149626,394.4912287,396.7122419,395.6161549,399.9843343,401.5110111,402.6078218,393.7366358,386.2450033,385.284887,382.6880468,381.3436645,377.6100906,370.2816829,366.5522812,362.601103,368.5442342,372.3991932,372.6778216,372.9761073,374.5794982,373.1318476,371.34049,371.3646265,370.7599713,372.3608679,373.76633,375.888873,376.4694596,375.8242869,374.0706509,372.7557232,363.0959584,363.0465969,357.8248017,348.5830714,341.5794004,338.4911505,337.1379918,336.1529791,335.1159851,335.9551831,339.7598085,340.8537988,338.910974,337.6633759,335.5465092,335.4770861,335.2869551,335.2810108,334.8358705,333.8629661,332.6841642,333.3166169,337.9953607,344.5214522,349.780799,349.9631673,349.2159592,349.0992869,352.9502743,363.6592762,373.4355348,384.9556196,392.1271407,391.0760309,391.0455518,392.0498257,391.5051946,395.5548634,397.3329279,398.4924083,399.2460826,397.2728514,397.6902084,398.3211504,391.777245,389.1235912,389.6717528,384.8365762,382.8032154,382.9402625,382.6915392,380.7271949,378.4384822,378.0229283,379.5611734,378.8949638,379.3079019,377.1961411,378.7296028,377.6167815,377.1783781,377.619567,376.1904059,373.9854851,367.3860449,178.7154113,175.0618508,175.7185057,149.9522316,125.4005415,127.0385019,125.3449703,339.7768178,324.8586464,316.495623,312.9273908,312.3428233,313.7413427,319.2702356,319.6786523,321.2752903,324.6297473,325.8211025,327.8518515,328.4668796,326.318182,326.8167176,325.4783185,322.9121342,322.70999,323.0585136,324.8486103,327.1904994,326.1574286,327.291514,326.7104581,327.4776122,330.7607824,332.0077385,332.7186612,325.4950786,163.619439,0,0,0,0,379.6498217,373.8064961,370.2922195,366.1394212,360.7732992,359.0041767,358.7514966,351.9311752,341.4216703,324.1913231,299.7871859,274.9009484,249.4857807,241.2224959,247.0579003,252.5690231,255.2596836,255.421558,253.6337889,252.043597,250.1079442,251.0409985,252.0620687,257.7581671,251.6468289,256.8505016,250.0216649,249.7302912,251.6972421,253.1765078,253.8526099,252.8948673,248.6348385,250.4925232,246.951216,253.5277139,254.9794683,253.3077314,253.8577001,248.5000338,229.9878462,228.1002456,232.7781899,239.082518,222.5059223,223.3105145,234.8990689,236.4543615,222.0395883,223.9631376,0,0,0,222.8963872,235.1569708,239.8896065,245.2859183,246.7825903,248.2092526,247.8740694,248.2613104,251.2338737,252.8284133,253.4443149,254.8292955,254.4402608,255.1703461,255.3999854,255.9073389,256.251181,256.8884411,255.2968249,246.0183039,249.9554337,246.9396864,246.778366,0,0,0,259.8904792,258.8607559,254.8878262,256.0556044,258.826451,264.3240953,269.4227436,270.5385166,276.9388497,276.3428473,279.3290588,277.4199349,274.7646472,270.0879617,269.9700488,268.5279697,266.3031635,265.5855013,259.4006585,259.9239889,263.2670888,259.1557639,130.1816416,241.1588931,234.2834626,228.6165575,224.5461108,224.1136894,225.1752219,225.6425216,227.0263007,230.2953064,230.8900602,228.2753443,226.2965085,224.3093898,223.4898888,222.5528213,229.0008015,230.9116315,226.7005251,0,0,0,296.1325832,294.4327899,292.1122452,285.7838848,284.8167837,287.5911879,292.6555467,297.9508747,306.4881444,313.9616421,316.0235289,317.3358513,315.5423994,317.2144033,315.5574137,315.1747791,318.0282649,311.7496541,301.4723609,301.8080932,0,0,0,310.3115008,302.0120951,296.4573977,292.1766851,290.7070141,291.0021421,292.2171456,293.5907461,294.5810436,295.3570217,295.5062274,294.4901605,293.6032923,293.5973879,294.0661199,293.5201872,291.1084103,290.7070276,295.8978023,296.9773236,296.863772,290.1488256,278.1441976,228.5917495,208.1114119,100.5230205,203.6282455,205.8325847,208.2984001,211.0268772,215.3412712,216.6934209,216.3350694,218.3752535,218.167334,217.7229715,218.6900275,217.9202112,219.6902587,0,0,0,0,0,0,0,249.1363258,251.9306375,252.6907858,253.2152313,255.0538517,255.4021288,259.1651032,260.8528819,262.3266725,261.1728061,261.1841468,261.3835235,261.4061744,261.8783886,262.1028515,261.9371452,260.085373,255.7995037,256.1848275,254.1911075,251.5545331,243.1656348,240.7261622,238.3361184,236.5109179,236.7301646,240.1020014,241.1297652,242.7003891,241.9967086,242.8264069,240.4699587,240.2503514,236.5378331,236.7288228,234.1588552,236.2023787,239.5980422,240.1872151,238.7396205,236.9995877,233.9812382,229.7429443,224.7079937,221.1815121,216.2302697,215.7058382,215.6108275,217.6553446,219.0599212,217.8068952,216.799265,213.8573094,214.6823224,216.4770939,216.1585207,217.9263201,218.2710745,218.1775032,217.476648,217.0255517,215.7063437,211.3997649,209.6001607,205.4151586,215.0749644,198.2213753,197.7947754,193.5779938,189.0602379,184.9540019,183.0072797,182.8053954,184.6003811,185.105074,185.6580865,186.3092464,188.1938095,189.4125099,189.5296036,189.6510236,189.7757965,189.3410415,186.2601139,182.0874438,188.4446238,188.710957,190.0929311,181.5852563,166.3771543,147.871384,242.5782605,244.9655777,241.5080983,236.8260503,235.7081703,239.8044654,245.3144475,247.1319364,245.3743995,246.4552443,247.8058466,240.9882539,239.4979283,239.8257475,245.9539776,249.629723,244.790617,233.7633761,243.5859569,244.7432365,245.4197952,241.0721166,235.4145184,232.2564327,222.3346705,0,0,223.4370616,234.504271,224.2608645,214.6010361,217.6037909,0,0,0,0,0,0,0,223.046573,223.4237728,224.2677036,229.3742091,240.2168778,242.8968202,239.6987482,231.5481038,225.9934097,214.8022515,224.5679564,229.0234513,227.0810337,220.6623562,229.3219407,237.9572228,229.2446671,0,0,0,0,219.0056608,226.5316508,230.0238214,226.0150324,230.1137058,229.924302,228.8245694,224.802067,214.807655,214.3785968,214.9217849,215.7182204,212.9880811,214.0290004,216.270464,210.1977553,210.9228949,215.4937031,213.209594,209.2902343,210.1935421,210.6804336,201.8757984,209.1995839,209.7535322,211.0022303,212.1634209,215.2487307,215.9593466,212.4179551,211.6915617,211.9294466,210.8932626,208.9958024,208.072367,210.0567905,211.9084113,210.8903269,212.1657427,212.9690292,213.0931889,212.7900704,211.3690621,212.1822232,211.3847155,211.397484,213.1427022,214.4499652,214.9246347,214.6165117,210.0015579,210.4239434,211.692332,212.1280677,212.3376168,205.4791285,208.2610421,209.0241441,201.1287609,201.8909541,207.4929768,210.887072,211.2902018,210.9067764,205.7616387,206.394487,205.7765324,207.0064146,205.0045893,204.135663,206.0835616,206.9725369,208.918126,209.7087116,208.3531591,209.4452725,210.86195,208.252747,208.5043784,209.7861647,207.9412731,206.4684832,209.0494941,211.4759874,211.0588422,208.1667893,205.9096642,201.6316583,196.4244618,194.4731623,200.690916,206.3853997,416.1852923,411.7787931,412.9158183,414.2282549,411.4340452,0,0,199.735275,198.3354067,199.5837147,394.6994099,393.4519045,393.8821452,394.9415957,397.1080812,395.9438625,395.9139007,394.5943514,389.1168057,0,0,0,0,0,0,0,0,0,0,0,0,0,0,0,0,0],
	"score": [0.5271470025,0.2172689621,0.6455513602,0.7455010709,0.7551712308,0.8546133184,0.7968154101,0.8228273632,0.8903035995,0.8739426141,0.8475414128,0.8901524943,0.8584621233,0.8829064822,0.922003984,0.9318470704,0.9448912218,0.9430250948,0.9550691444,0.9616015489,0.953739244,0.9454921791,0.9571222369,0.9587169187,0.951948321,0.9432070244,0.9343555879,0.944968528,0.9352364397,0.9282239017,0.8778224478,0.8250361031,0.8435244198,0.90939999,0.9350289086,0.9091287442,0.891313123,0.8965424602,0.9126235294,0.9446279309,0.9666105584,0.9707125936,0.9681572228,0.9733751069,0.9564920015,0.9672294414,0.9685258793,0.966910241,0.9561838635,0.9167111052,0.8972221468,0.9154976854,0.9193389682,0.9279139448,0.9241786672,0.9172033059,0.9215351721,0.9434676158,0.9532927417,0.967135211,0.9693973982,0.9717403954,0.9715838844,0.9631799757,0.9722516774,0.964763271,0.9689484959,0.9646471302,0.9519608141,0.9506101252,0.8554642226,0.8579646187,0.7604888999,0.8543700002,0.9004944036,0.9022367325,0.9140856965,0.9297634523,0.7809520545,0.7532466434,0.8616513253,0.9148777524,0.9304108139,0.9100121053,0.9307040986,0.9502596061,0.9465963618,0.9344622165,0.9456536721,0.9382729882,0.9477813582,0.9343435861,0.8997186625,0.9135129361,0.9185344563,0.9157068881,0.936248615,0.9113101262,0.8999801328,0.9309977979,0.9078844052,0.918847127,0.9396647312,0.956680384,0.959934183,0.9533225984,0.9480104027,0.9535164432,0.9658465047,0.9758586021,0.9747133081,0.9653150996,0.9623568343,0.9609192363,0.9605794805,0.9474187787,0.8769201518,0.8224791972,0.8882206998,0.9294952901,0.9512865432,0.9674543758,0.9753979667,0.973174674,0.9711896826,0.9701487137,0.9655811742,0.9592967492,0.965895516,0.9714875111,0.9767385877,0.9734149954,0.9747796329,0.9776108163,0.976262317,0.9764223904,0.9754903321,0.9701697775,0.9671419506,0.9539002037,0.9450180414,0.9383093569,0.9214801377,0.9121473024,0.9367079478,0.8913452025,0.8858609243,0.8969764175,0.8747361434,0.9160396926,0.9320725305,0.9355340374,0.9154119862,0.9093716494,0.9047343945,0.895701771,0.9002341312,0.9203185012,0.9352514832,0.9453160554,0.9532077662,0.9028329126,0.9336296846,0.9600217984,0.9523364995,0.946120848,0.9561819767,0.9566634673,0.9468796377,0.9603249242,0.9611985723,0.9608313079,0.9600382091,0.964877609,0.9635244056,0.9645808389,0.9652636542,0.9674138005,0.9718442619,0.9619040494,0.9509233537,0.9028020774,0.6197109323,0.3876265982,0.4438285328,0.4213655534,0.4260518769,0.5158182372,0.5628617625,0.7805029013,0.8862147372,0.9080596884,0.9368832023,0.9023740512,0.8914990826,0.9018731268,0.9294652417,0.9575213936,0.9634901476,0.9661464694,0.9693865708,0.9682721585,0.964491989,0.9555762335,0.9343693683,0.9544068397,0.9506071165,0.9550337433,0.9703780256,0.9714373025,0.9707084069,0.9681320993,0.9671380795,0.9641509779,0.9684037778,0.968848988,0.913581384,0.5238701924,0.3512501641,0.5514649631,0.3684814652,0.4950830807,0.2590627132,0.6704716133,0.8732063976,0.9305502802,0.9348239342,0.8653155053,0.8679435022,0.8932229721,0.9206725988,0.9371079261,0.9012953612,0.857056595,0.841483396,0.7901469753,0.8600309839,0.8660300834,0.8609308038,0.8960126746,0.8197509116,0.9043479664,0.9153506199,0.9369280739,0.9382554058,0.9256889962,0.8454934715,0.6020515827,0.6181609195,0.7012023196,0.8331482042,0.9158894374,0.9507709732,0.9662738531,0.9664981018,0.9454462459,0.8305434014,0.8736315122,0.862750106,0.8795399546,0.90141926,0.7910193001,0.7032444538,0.4916482592,0.3959880572,0.4252226512,0.5903237493,0.4261978571,0.357330075,0.4858694218,0.5024280323,0.4761393985,0.2865520149,0.1469693636,0.2225751201,0.1663017805,0.4594869403,0.7677388668,0.8892665849,0.9312739058,0.9414468163,0.9006837315,0.7529868483,0.809169564,0.8928979219,0.9107762527,0.9434229967,0.9584424119,0.9624529226,0.9663544998,0.9688886243,0.9664150098,0.9621552812,0.9634235313,0.9530030189,0.9031140526,0.7691071965,0.6482912059,0.5897448977,0.364668132,0.3094849497,0.3777035414,0.7549479877,0.8753560769,0.9050777942,0.9192855223,0.9345641487,0.9098826347,0.9145290049,0.9316442902,0.9368266542,0.9322337324,0.9443430497,0.9502569182,0.9516375475,0.9504038383,0.9585137485,0.9552804452,0.9472892318,0.9496557614,0.8978907795,0.6703496371,0.6415579348,0.6668730786,0.6818329506,0.7144258277,0.8534810953,0.8989753322,0.9328508956,0.9372268628,0.9362838013,0.9037504498,0.9312947403,0.9364756885,0.938906219,0.9310833272,0.9400495401,0.9465738319,0.9424415731,0.9468687075,0.8607068095,0.6213649316,0.4888741453,0.4080112544,0.3786939127,0.1508006779,0.5960221481,0.8491839945,0.9170042494,0.9129041701,0.8568629267,0.903692876,0.9165937517,0.9195747108,0.9315474053,0.9300741225,0.9327387239,0.9342068493,0.935374986,0.9374928283,0.933024775,0.9393336384,0.9406820275,0.942807913,0.8903035753,0.5353092289,0.4312618951,0.2650203842,0.3175902107,0.6321759729,0.869313543,0.9344127076,0.945779355,0.9532468981,0.9541164916,0.9612475318,0.969582943,0.9664829506,0.9607521945,0.9584844939,0.9683702633,0.9721139048,0.9723078524,0.9701918711,0.968555658,0.9493248116,0.8571419744,0.759502842,0.6608427578,0.7475180555,0.8107739428,0.6293183946,0.558066873,0.7215842872,0.6712607078,0.7084153398,0.7091020832,0.8144962967,0.8901744939,0.8738002232,0.9134242923,0.9406399265,0.949483198,0.9408729085,0.9384424778,0.9439802394,0.9343057204,0.7683976898,0.3267996528,0.3618593921,0.2941696947,0.1886455863,0.3651131075,0.4963732159,0.3106078526,0.7131305689,0.8807988835,0.936597498,0.9580652546,0.9633670546,0.9593466295,0.9582289724,0.9417816689,0.9406968293,0.958045213,0.9599996575,0.964801698,0.9583395577,0.9649315864,0.9719188095,0.960417419,0.9110200702,0.840756836,0.8844404064,0.8852697774,0.9067455293,0.8670165631,0.8093687263,0.866513514,0.8826485167,0.8795578539,0.8949899559,0.8979818722,0.9332674643,0.9432156152,0.9388764419,0.9376344295,0.9355219705,0.9249423866,0.9187632941,0.9015343702,0.9298465024,0.9539321081,0.962010025,0.9554977566,0.9426301921,0.928654922,0.86639104,0.8900331675,0.8870291282,0.8798507532,0.891042258,0.8911735718,0.9058256028,0.9161145279,0.9127283281,0.9129794865,0.9161917575,0.9369865112,0.9418629365,0.9264020025,0.90643853,0.9337173262,0.9432019973,0.9124435619,0.8918074272,0.8708987154,0.8597085205,0.8704802341,0.7043475254,0.6849696363,0.7401655529,0.8388753594,0.901528835,0.9157050408,0.9165726577,0.9147753011,0.9276538914,0.9392681693,0.9457566251,0.9384749702,0.9237508535,0.8940223963,0.8268104657,0.8689902918,0.9216059962,0.9406315069,0.9304343654,0.8791628421,0.7265486992,0.6464331461,0.7432537392,0.7918021938,0.7150252521,0.4909995054,0.397262895,0.5543693202,0.8245662814,0.8946226177,0.8965603658,0.9075656346,0.8912085201,0.8209869627,0.8917829784,0.9316661986,0.9259160191,0.8669137902,0.8510307586,0.9042990692,0.9298604679,0.9264826774,0.894465211,0.7067071821,0.6287549325,0.6968447883,0.8207171504,0.8452089363,0.7785440667,0.7589673808,0.6307998887,0.3962098621,0.2817562626,0.3716441451,0.4037899082,0.5486922711,0.5556079869,0.5396112668,0.3317203422,0.3732834659,0.2393251799,0.2753770465,0.2926278732,0.3506378517,0.2852082627,0.4688773973,0.4365749317,0.3667371403,0.5535810635,0.6167609249,0.6102387456,0.6611593608,0.7848354528,0.6532220808,0.5492677079,0.5375160965,0.6513216355,0.5560145817,0.3204229005,0.5105179422,0.5574461373,0.3076933336,0.445399419,0.2768197754,0.2836990063,0.3809294633,0.4315409884,0.3425219394,0.3114028985,0.4967908128,0.6004986926,0.5569314188,0.6194985755,0.6994695397,0.6436161061,0.7352979898,0.6016030681,0.5448574092,0.517275641,0.4800171146,0.4614571404,0.4559763232,0.5938710334,0.6492105077,0.5533003115,0.5923900867,0.5606171741,0.6036722896,0.4750684302,0.4026094471,0.4497143403,0.4663078444,0.4824632466,0.5608605811,0.5685011401,0.570498989,0.5020918986,0.4692923685,0.5429865294,0.6204877995,0.6082835761,0.6452039744,0.5874059135,0.533275496,0.541144928,0.6251527566,0.5492959284,0.5573424398,0.5096461588,0.6631224464,0.6157205036,0.5631426447,0.5893602497,0.6060849778,0.6689828088,0.5501134495,0.5248955463,0.4980335724,0.5420487395,0.3431672533,0.418759688,0.4590583674,0.5230405047,0.5531739937,0.5757824624,0.5463016292,0.5308786013,0.596834912,0.5793589274,0.5030071962,0.4802568056,0.5378979095,0.5787257198,0.5260536106,0.5047307425,0.4443790938,0.5146253077,0.5561493242,0.6061842762,0.6379178694,0.5737965102,0.4995605776,0.5671468252,0.6195317639,0.6393352976,0.6528387765,0.6474701797,0.6013337126,0.5511274442,0.5557531546,0.5650655973,0.5862464282,0.5777734517,0.5368242183,0.549747761,0.528403942,0.4815681029,0.4435992276,0.399682377,0.3007240977,0.3917825823,0.4618816761,0.4973488745,0.2486814146,0.4576380924,0.3901423954,0.3665595511,0.3299391398,0.46746059,0.3378581608,0.6046818026,0.6567351897,0.6796937512,0.7142364397,0.7096183107,0.7009396904,0.4720656264,0.3626691847,0.1564083504,0.03910208761,0.009775521902,0.002443880476,0.0006109701189,0.0001527425297,3.818563243e-05,9.546408107e-06,2.386602027e-06,5.966505067e-07,1.491626267e-07,3.729065667e-08,9.322664167e-09,2.330666042e-09,5.826665105e-10,1.456666276e-10,3.64166569e-11]
}
