{
    "f0": [
        68.91383855788051,
        60.664541180606932,
        67.647948312677528,
        72.953135916696908,
        71.467148187730459,
        71.5741083603383,
        71.794236424953837,
        71.781498318660852,
        71.196058367399885,
        47.284924391965248,
        46.396919498037427,
        45.869595297742123,
        45.48106404520842,
        45.176570028574723,
        44.819366062848573,
        45.157781632285548,
        45.234887325249126,
        45.611232036390867,
        45.833577990651769,
        45.883597694589405,
        45.668431624919549,
        44.375584863508209,
        44.750312822678033,
        45.093390729413869,
        53.145362117550171,
        52.921660482442974,
        45.453016492144691,
        57.149364923930207,
        53.861624586141097,
        53.436465054598671,
        53.610462453871804,
        53.497640594695497,
        52.915528868058558,
        52.31316419223036,
        51.879799504015473,
        51.772012458283918,
        51.667221978812321,
        52.071672161600318,
        52.373081581021673,
        52.365751349889123,
        52.452521650104622,
        52.804248361987703,
        52.992115211047363,
        53.086228195635456,
        53.225515079130787,
        52.99129329119426,
        52.862239679301922,
        52.542318912152894,
        52.656213209428259,
        52.510317719170928,
        52.214042981141546,
        50.341871570814369,
        48.258475495392467,
        46.05267514532639,
        42.542049222510343,
        41.084527125159653,
        40.561821598488677,
        52.363632697031399,
        52.018986456567795,
        51.635812392362674,
        51.345364856579636,
        51.049966347954822,
        51.041555654174985,
        50.813898093222335,
        50.694644918442179,
        50.690811043326939,
        51.140668067502929,
        50.913757087664166,
        51.129360489624816,
        51.244690296801878,
        51.172628252083051,
        51.120335807653348,
        51.375876347744224,
        51.4108817268623,
        51.027023107584725,
        49.263588027351823,
        49.458303562929444,
        50.566459651465635,
        51.182885964820784,
        50.543812946703802,
        49.116751931568636,
        48.677861728629296,
        47.792241839316198,
        47.362295180820425,
        47.50968792456311,
        47.723335220478852,
        48.073334034675426,
        48.310226292208078,
        48.06625626112843,
        47.79216817095633,
        47.69946899033399,
        47.855952205053434,
        47.78199115630467,
        47.808482344359589,
        47.465046762488335,
        47.489926603640981,
        47.578694233645678,
        47.667010114953584,
        47.405117165366448,
        47.536120667483026,
        47.708647265231804,
        47.879471628809121,
        47.874629022092769,
        47.72892181204584,
        47.479151874621891,
        47.620806239298865,
        47.953844339720149,
        48.012395749306506,
        48.204921307310542,
        48.070391816507367,
        48.16241553907485,
        48.147641160800113,
        48.128937904839269,
        47.917182836586086,
        47.702805590156167,
        47.828573013037982,
        47.817627497236785,
        47.749932627494573,
        47.536480492892615,
        47.737010099021902,
        47.790181551940805,
        47.84319006553703,
        46.480710992482521,
        47.637439388342841,
        47.011913906899636,
        46.158022626835759,
        46.212705550706161,
        47.28487694560458,
        47.294622649441145,
        47.648072592756407,
        47.826855646256419,
        47.559636047967146,
        47.339896792749762,
        46.91355427120169,
        46.581240286946759,
        46.700801125140785,
        46.901515445773427,
        46.885464853423535,
        47.514111293672926,
        47.47810412152144,
        47.13936061007432,
        47.121161571956222,
        46.942786396009261,
        46.826829282256682,
        47.522432370049998,
        47.987415475620239,
        49.384459492670807,
        50.924394517985746,
        52.903975662871716,
        55.579073723071573,
        55.217763907168901,
        55.011764379856587,
        53.50652587572101,
        49.402745240891278,
        46.949444819590028,
        46.399647444773429,
        46.104316588940087,
        46.292478639919068,
        46.247342329066043,
        46.560971047633082,
        46.559196708378337,
        46.63902784723912,
        46.718492555612841,
        46.797594323881285,
        46.555136056331804,
        46.677191774133611,
        47.019781121214919,
        47.073514059926865,
        46.741005449159303,
        46.835422567451388,
        46.705047542318454,
        46.405280395536622,
        45.479412627798609,
        45.344168935025522,
        45.796955781614663,
        46.57573557949538,
        48.177083525600423,
        46.669199018590703,
        45.965892944713715,
        45.589170751875216,
        45.20714147513408,
        45.326649270179871,
        45.713054316006826,
        45.07256755447888,
        46.021977563220339,
        45.821248312495953,
        45.133946691608514,
        42.521992850222922,
        42.05004511186938,
        38.114394184203825,
        37.198391575505909,
        46.158294359236656,
        46.049575573402478,
        46.174904034349368,
        45.958412337817279,
        46.123123167953025,
        45.562148868589986,
        45.851026720499725,
        45.928766913840661,
        46.187214321798912,
        46.352891389748393,
        46.225821415899262,
        46.252493473195734,
        46.487444925162848,
        46.719246145873193,
        46.598229833543485,
        46.476359614267004,
        46.525893519552966,
        46.358804828388713,
        46.61661495880746,
        46.787350208167652,
        46.823712858166473,
        46.84956645600424,
        47.223414364311303,
        47.419858969192838,
        48.040944609152945,
        48.796329195737712,
        49.268623978468398,
        49.125477673892703,
        48.82600272418432,
        48.426379292063146,
        48.065952501682332,
        47.782385845177593,
        47.451176043485049,
        46.783915887997267,
        46.262222581397992,
        46.147379462216747,
        49.5821595121716,
        46.929052449401539,
        48.736209797937221,
        47.122344899522375,
        46.016696366172226,
        45.486687449196324,
        45.37203125473917,
        45.212733597997193,
        45.379356102728337,
        46.006331836408535,
        46.215901493798725,
        45.449788958679918,
        45.090166994820741,
        45.065432360152371,
        45.305514102642626,
        45.163823913486461,
        45.020971580648329,
        44.87692958175812,
        44.777475532062581,
        45.16616447734264,
        44.690257816342339,
        44.68640555252486,
        44.784279395724361,
        44.377018861527603,
        43.959951714196052,
        42.302165883282328,
        40.275360740782986,
        40.284227395879419,
        43.160952344729495,
        46.134276092363613,
        47.565794381056463,
        46.252869865394366,
        47.904335887898711,
        48.000513931995151,
        48.285026692785493,
        49.316942382884612,
        49.643203912271673,
        48.176929602745332,
        45.227234534939157,
        42.370282185842122,
        35.528646652239388,
        40.363521198044666,
        46.700952342293164,
        56.474068167820903,
        52.600937316564917,
        52.675177931415078,
        52.042378007771106,
        0.0,
        0.0,
        0.0,
        0.0,
        0.0,
        0.0,
        0.0,
        0.0,
        0.0,
        0.0,
        0.0,
        0.0,
        0.0,
        0.0,
        0.0,
        0.0,
        0.0,
        0.0,
        0.0,
        0.0,
        0.0,
        0.0,
        0.0,
        0.0,
        0.0,
        0.0,
        0.0,
        0.0,
        0.0,
        0.0,
        0.0,
        0.0,
        0.0,
        0.0,
        0.0,
        0.0,
        0.0,
        0.0,
        0.0,
        0.0,
        0.0,
        0.0,
        0.0,
        0.0,
        0.0,
        0.0,
        0.0,
        0.0,
        0.0,
        0.0,
        0.0,
        0.0,
        0.0,
        0.0,
        0.0,
        0.0,
        0.0,
        0.0,
        0.0,
        0.0,
        0.0,
        0.0,
        0.0,
        0.0,
        0.0,
        0.0,
        0.0,
        0.0,
        0.0,
        0.0,
        0.0,
        0.0,
        0.0,
        0.0,
        0.0,
        0.0,
        0.0,
        0.0,
        0.0,
        0.0,
        0.0,
        0.0,
        0.0,
        0.0,
        0.0,
        0.0,
        0.0,
        0.0,
        0.0,
        0.0,
        0.0,
        0.0,
        0.0,
        0.0,
        0.0,
        0.0,
        0.0,
        0.0,
        0.0,
        0.0,
        0.0,
        0.0,
        0.0,
        0.0,
        0.0,
        0.0,
        0.0,
        0.0,
        0.0,
        0.0,
        0.0,
        0.0,
        0.0,
        0.0,
        0.0,
        0.0,
        0.0,
        0.0,
        0.0,
        0.0,
        0.0,
        0.0,
        0.0,
        0.0,
        0.0,
        0.0,
        0.0,
        0.0,
        0.0,
        0.0,
        0.0,
        0.0,
        0.0,
        0.0,
        0.0,
        0.0,
        0.0,
        0.0,
        0.0,
        0.0,
        0.0,
        0.0,
        0.0,
        0.0,
        0.0,
        0.0,
        0.0,
        0.0
    ],
    "time": [
        0.02,
        0.040000000000000001,
        0.059999999999999998,
        0.080000000000000002,
        0.10000000000000001,
        0.12,
        0.14000000000000001,
        0.16,
        0.17999999999999999,
        0.20000000000000001,
        0.22,
        0.23999999999999999,
        0.26000000000000001,
        0.28000000000000003,
        0.29999999999999999,
        0.32000000000000001,
        0.34000000000000002,
        0.35999999999999999,
        0.38,
        0.40000000000000002,
        0.41999999999999998,
        0.44,
        0.46000000000000002,
        0.47999999999999998,
        0.5,
        0.52000000000000002,
        0.54000000000000004,
        0.56000000000000005,
        0.57999999999999996,
        0.59999999999999998,
        0.62,
        0.64000000000000001,
        0.66000000000000003,
        0.68000000000000005,
        0.69999999999999996,
        0.71999999999999997,
        0.73999999999999999,
        0.76000000000000001,
        0.78000000000000003,
        0.80000000000000004,
        0.81999999999999995,
        0.83999999999999997,
        0.85999999999999999,
        0.88,
        0.90000000000000002,
        0.92000000000000004,
        0.93999999999999995,
        0.95999999999999996,
        0.97999999999999998,
        1.0,
        1.02,
        1.04,
        1.0600000000000001,
        1.0800000000000001,
        1.1000000000000001,
        1.1200000000000001,
        1.1399999999999999,
        1.1599999999999999,
        1.1799999999999999,
        1.2,
        1.22,
        1.24,
        1.26,
        1.28,
        1.3,
        1.3200000000000001,
        1.3400000000000001,
        1.3600000000000001,
        1.3799999999999999,
        1.3999999999999999,
        1.4199999999999999,
        1.4399999999999999,
        1.46,
        1.48,
        1.5,
        1.52,
        1.54,
        1.5600000000000001,
        1.5800000000000001,
        1.6000000000000001,
        1.6200000000000001,
        1.6399999999999999,
        1.6599999999999999,
        1.6799999999999999,
        1.7,
        1.72,
        1.74,
        1.76,
        1.78,
        1.8,
        1.8200000000000001,
        1.8400000000000001,
        1.8600000000000001,
        1.8799999999999999,
        1.8999999999999999,
        1.9199999999999999,
        1.9399999999999999,
        1.96,
        1.98,
        2.0,
        2.02,
        2.04,
        2.0600000000000001,
        2.0800000000000001,
        2.1000000000000001,
        2.1200000000000001,
        2.1400000000000001,
        2.1600000000000001,
        2.1800000000000002,
        2.2000000000000002,
        2.2200000000000002,
        2.2400000000000002,
        2.2599999999999998,
        2.2799999999999998,
        2.2999999999999998,
        2.3199999999999998,
        2.3399999999999999,
        2.3599999999999999,
        2.3799999999999999,
        2.3999999999999999,
        2.4199999999999999,
        2.4399999999999999,
        2.46,
        2.48,
        2.5,
        2.52,
        2.54,
        2.5600000000000001,
        2.5800000000000001,
        2.6000000000000001,
        2.6200000000000001,
        2.6400000000000001,
        2.6600000000000001,
        2.6800000000000002,
        2.7000000000000002,
        2.7200000000000002,
        2.7400000000000002,
        2.7599999999999998,
        2.7799999999999998,
        2.7999999999999998,
        2.8199999999999998,
        2.8399999999999999,
        2.8599999999999999,
        2.8799999999999999,
        2.8999999999999999,
        2.9199999999999999,
        2.9399999999999999,
        2.96,
        2.98,
        3.0,
        3.02,
        3.04,
        3.0600000000000001,
        3.0800000000000001,
        3.1000000000000001,
        3.1200000000000001,
        3.1400000000000001,
        3.1600000000000001,
        3.1800000000000002,
        3.2000000000000002,
        3.2200000000000002,
        3.2400000000000002,
        3.2599999999999998,
        3.2799999999999998,
        3.2999999999999998,
        3.3199999999999998,
        3.3399999999999999,
        3.3599999999999999,
        3.3799999999999999,
        3.3999999999999999,
        3.4199999999999999,
        3.4399999999999999,
        3.46,
        3.48,
        3.5,
        3.52,
        3.54,
        3.5600000000000001,
        3.5800000000000001,
        3.6000000000000001,
        3.6200000000000001,
        3.6400000000000001,
        3.6600000000000001,
        3.6800000000000002,
        3.7000000000000002,
        3.7200000000000002,
        3.7400000000000002,
        3.7599999999999998,
        3.7799999999999998,
        3.7999999999999998,
        3.8199999999999998,
        3.8399999999999999,
        3.8599999999999999,
        3.8799999999999999,
        3.8999999999999999,
        3.9199999999999999,
        3.9399999999999999,
        3.96,
        3.98,
        4.0,
        4.0199999999999996,
        4.04,
        4.0599999999999996,
        4.0800000000000001,
        4.0999999999999996,
        4.1200000000000001,
        4.1399999999999997,
        4.1600000000000001,
        4.1799999999999997,
        4.2000000000000002,
        4.2199999999999998,
        4.2400000000000002,
        4.2599999999999998,
        4.2800000000000002,
        4.2999999999999998,
        4.3200000000000003,
        4.3399999999999999,
        4.3600000000000003,
        4.3799999999999999,
        4.4000000000000004,
        4.4199999999999999,
        4.4400000000000004,
        4.46,
        4.4800000000000004,
        4.5,
        4.5199999999999996,
        4.54,
        4.5599999999999996,
        4.5800000000000001,
        4.5999999999999996,
        4.6200000000000001,
        4.6399999999999997,
        4.6600000000000001,
        4.6799999999999997,
        4.7000000000000002,
        4.7199999999999998,
        4.7400000000000002,
        4.7599999999999998,
        4.7800000000000002,
        4.7999999999999998,
        4.8200000000000003,
        4.8399999999999999,
        4.8600000000000003,
        4.8799999999999999,
        4.9000000000000004,
        4.9199999999999999,
        4.9400000000000004,
        4.96,
        4.9800000000000004,
        5.0,
        5.0199999999999996,
        5.04,
        5.0599999999999996,
        5.0800000000000001,
        5.0999999999999996,
        5.1200000000000001,
        5.1399999999999997,
        5.1600000000000001,
        5.1799999999999997,
        5.2000000000000002,
        5.2199999999999998,
        5.2400000000000002,
        5.2599999999999998,
        5.2800000000000002,
        5.2999999999999998,
        5.3200000000000003,
        5.3399999999999999,
        5.3600000000000003,
        5.3799999999999999,
        5.4000000000000004,
        5.4199999999999999,
        5.4400000000000004,
        5.46,
        5.4800000000000004,
        5.5,
        5.5199999999999996,
        5.54,
        5.5599999999999996,
        5.5800000000000001,
        5.5999999999999996,
        5.6200000000000001,
        5.6399999999999997,
        5.6600000000000001,
        5.6799999999999997,
        5.7000000000000002,
        5.7199999999999998,
        5.7400000000000002,
        5.7599999999999998,
        5.7800000000000002,
        5.7999999999999998,
        5.8200000000000003,
        5.8399999999999999,
        5.8600000000000003,
        5.8799999999999999,
        5.9000000000000004,
        5.9199999999999999,
        5.9400000000000004,
        5.96,
        5.9800000000000004,
        6.0,
        6.0199999999999996,
        6.04,
        6.0599999999999996,
        6.0800000000000001,
        6.0999999999999996,
        6.1200000000000001,
        6.1399999999999997,
        6.1600000000000001,
        6.1799999999999997,
        6.2000000000000002,
        6.2199999999999998,
        6.2400000000000002,
        6.2599999999999998,
        6.2800000000000002,
        6.2999999999999998,
        6.3200000000000003,
        6.3399999999999999,
        6.3600000000000003,
        6.3799999999999999,
        6.4000000000000004,
        6.4199999999999999,
        6.4400000000000004,
        6.46,
        6.4800000000000004,
        6.5,
        6.5199999999999996,
        6.54,
        6.5599999999999996,
        6.5800000000000001,
        6.5999999999999996,
        6.6200000000000001,
        6.6399999999999997,
        6.6600000000000001,
        6.6799999999999997,
        6.7000000000000002,
        6.7199999999999998,
        6.7400000000000002,
        6.7599999999999998,
        6.7800000000000002,
        6.7999999999999998,
        6.8200000000000003,
        6.8399999999999999,
        6.8600000000000003,
        6.8799999999999999,
        6.9000000000000004,
        6.9199999999999999,
        6.9400000000000004,
        6.96,
        6.9800000000000004,
        7.0,
        7.0199999999999996,
        7.04,
        7.0599999999999996,
        7.0800000000000001,
        7.0999999999999996,
        7.1200000000000001,
        7.1399999999999997,
        7.1600000000000001,
        7.1799999999999997,
        7.2000000000000002,
        7.2199999999999998,
        7.2400000000000002,
        7.2599999999999998,
        7.2800000000000002,
        7.2999999999999998,
        7.3200000000000003,
        7.3399999999999999,
        7.3600000000000003,
        7.3799999999999999,
        7.4000000000000004,
        7.4199999999999999,
        7.4400000000000004,
        7.46,
        7.4800000000000004,
        7.5,
        7.5199999999999996,
        7.54,
        7.5599999999999996,
        7.5800000000000001,
        7.5999999999999996,
        7.6200000000000001,
        7.6399999999999997,
        7.6600000000000001,
        7.6799999999999997,
        7.7000000000000002,
        7.7199999999999998,
        7.7400000000000002,
        7.7599999999999998,
        7.7800000000000002,
        7.7999999999999998,
        7.8200000000000003,
        7.8399999999999999,
        7.8600000000000003,
        7.8799999999999999,
        7.9000000000000004,
        7.9199999999999999,
        7.9400000000000004,
        7.96,
        7.9800000000000004,
        8.0,
        8.0199999999999996,
        8.0399999999999991,
        8.0600000000000005,
        8.0800000000000001,
        8.0999999999999996,
        8.1199999999999992,
        8.1400000000000006,
        8.1600000000000001,
        8.1799999999999997,
        8.1999999999999993,
        8.2200000000000006,
        8.2400000000000002,
        8.2599999999999998,
        8.2799999999999994,
        8.3000000000000007,
        8.3200000000000003,
        8.3399999999999999,
        8.3599999999999994,
        8.3800000000000008,
        8.4000000000000004,
        8.4199999999999999,
        8.4399999999999995
    ]
}