{
	"f0": [NaN,52.84087494,53.3108577,53.69991543,53.12944875,53.30303058,52.86308111,53.11955917,53.11955917,53.07658924,53.3108577,53.221611,54.24889428,51.2355828,43.33004079,52.55802863,42.30040362,52.55802863,53.22161418,53.50429368,53.47856289,52.01414075,51.66081541,42.42051678,52.29363535,52.37482755,54.58719919,51.68864363,35.34887861,51.83657672,50.89233955,51.00116461,51.29120888,42.49346223,55.96207337,56.46727057,56.69965447,56.37055529,50.64214864,73.23394179,73.73724962,63.83657672,63.27900639,63.47460141,58.27826137,58.26458446,66.47173569,71.49568103,71.02880476,63.51729401,72.59023999,53.32601564,58.00877884,57.86031928,63.60188451,63.7122858,63.48682058,56.59063307,58.15945656,58.25033954,58.37579288,58.65716292,59.48573577,39.91237655,58.57265214,59.63605,56.23796469,56.26541855,56.01165637,73.89154635,64.59372099,57.38307248,57.45514807,57.37530046,56.96588516,56.51977391,56.80292967,57.09569216,57.26620069,57.72285822,58.0683784,58.14138395,58.10436595,58.12241809,58.10515944,57.76029581,57.91080137,58.42002457,58.2046422,58.11179449,57.97535861,57.7627132,57.34275664,56.01165637,55.0556101,63.83657672,58.20301035,58.31816801,58.29116819,57.82981723,57.54127841,57.2664451,57.21682398,57.29536045,57.33705283,57.34496265,57.44507184,57.51910945,57.44333008,57.51781054,57.31095619,56.95411876,57.66169865,57.32693807,57.27491548,70.16354076,56.730767,55.48395004,75.34934881,74.58745868,75.48682058,76.19354484,57.69912621,57.45846003,57.54832285,57.76556221,57.93451537,57.86264217,57.36313066,57.23852591,57.66969772,57.9518696,57.95392138,57.84165806,57.89976977,58.1306149,58.21391016,58.13036434,57.89578038,58.13525051,58.34291834,57.4742725,55.13489482,55.34995772,63.08499372,69.81712841,58.77570041,58.95728551,59.04908592,59.05473935,71.01796866,58.94156646,58.84329026,58.65206773,58.78388911,58.8455353,58.78467702,58.67011984,58.60259472,58.72580305,56.01165637,56.54924535,71.63620576,63.40711034,74.02123508,75.48682058,74.90670194,69.66169865,56.96740869,56.93493948,57.82350046,57.87020697,57.81572629,57.57859034,57.08593081,56.83063169,57.04857483,57.98559684,58.33311843,58.25081111,58.26748983,58.15896125,58.03620428,58.01010341,57.40951032,57.41612942,57.78555154,58.14575863,58.40216278,58.37975934,58.25122514,57.96151376,57.41989728,57.41612942,58.9446811,61.52483579,60.91732291,59.21309485,59.19768456,59.1133219,59.76273913,58.87903404,56.70253442,57.17399484,57.17399484,51.83657672,42.73311322,42.72672811,42.25933164,42.07534336,52.55802863,55.56772588,55.34995772,53.3108577,52.31842663,52.19354484,52.12849467,52.19354484,52.30181909,53.49452118,53.8977729,52.10959708,52.48339785,42.50528578,52.19354484,42.50528578,52.7009937,54.71262168,52.86483297,51.48682058,35.34887861,43.1911353,55.47391743,51.31455706,63.87761694,63.55802361,76.19354484,55.31001699,55.69758368,52.48105716,54.70671373,56.9019044,57.35644792,70.00880353,63.70966175,58.44790796,63.89065447,64.44926467,64.01562245,63.94332682,64.4893251,64.26354945,63.52369068,57.86402297,63.91559873,64.09745466,55.9886102,57.29657425,57.72145177,57.79256525,57.7414635,57.72762848,57.5585692,57.28244417,57.40437039,57.61159356,58.29237083,58.29591557,58.27089724,59.28541184,60.241674,61.41321427,61.57504096,61.58299842,61.91218796,62.06717801,62.30056484,63.26394184,63.52987326,64.60013853,65.22974416,65.98282282,66.0372561,65.71242649,65.55206246,65.52043312,37.90814112,37.96385422,65.27984853,65.27402206,64.93853857,64.36840519,63.3506661,72.43043718,71.90541845,71.89813722,64.55236319,63.08192234,61.76463282,62.12859053,62.44224421,62.64398692,62.82270245,62.8383116,62.72584409,62.76013074,62.88347154,62.97188208,62.94442042,62.79587558,59.48573577,58.68036542,57.62609915,57.91080137,57.92128288,64.55802863,64.14908871,62.53627105,64.55802863,64.52299978,64.62574048,64.78864088,64.75841065,76.61823423,76.61986378,76.47168682,64.53306507,64.84368359,64.72193384,64.7747345,64.76476799,64.73450866,64.69809548,64.65009419,64.80305017,64.74936011,64.55296272,74.87669434,63.29887349,67.34210465,76.62309731,76.03535892,67.71878556,65.74383254,65.61324382,65.56952152,65.44012206,65.18975089,65.13741866,65.31209556,65.44227726,65.49985215,65.58369976,65.67053123,65.69466131,65.61062976,65.3108577,64.65830421,65.07548765,65.57341861,65.21335557,64.64753895,64.12883099,63.80844639,63.79823569,63.79653462,63.32956541,63.13605793,63.42778296,63.45907933,63.3069038,63.49056354,63.767509,64.2391789,64.64435866,64.91490429,65.03127992,64.94821633,64.8752597,64.92453705,64.92208167,64.86561437,64.92534935,65.07877781,65.09858084,64.99684635,64.94194032,64.87568613,64.81240122,64.15363838,63.46064107,63.27315199,63.21378965,63.04279242,63.09333149,63.6727256,63.59992774,63.25972496,63.09745166,62.96007953,62.71039115,62.42690581,62.43239171,62.6394843,62.9956081,63.29911605,63.30355619,63.26937776,63.31547109,62.88329286,62.36884189,62.40880546,62.67829836,62.91682382,63.36534901,63.41453126,63.27401179,62.99412553,62.52747961,62.80781824,62.49221585,62.25479679,62.5044125,63.0360279,63.3284715,63.2617569,63.15264577,63.17142158,62.47189009,62.72203574,62.79187256,62.79101725,63.14794175,63.12051605,63.00328051,62.96022415,62.89597487,62.45249798,61.40493391,55.70389838,42.16572019,63.43549338,63.32940771,63.33618811,63.2289232,63.13068488,75.9751025,76.74103609,43.03812048,60.62137826,62.37302603,51.44447736,51.85025093,40.09280294,42.12232784,52.19354484,53.50429368,53.50429368,53.3108577,51.83657672,51.48682058,42.28916167,52.2006822,42.52426378,42.98695531,43.6584374,55.69930643,49.34422108,67.34995772,61.08729817,70.16354076,70.42002457,60.78845863,51.31192828,54.0979178,54.9224708,54.9224708,48.68016385,57.41612942,76.93035138,76.93035138,76.93035138,76.93035138,76.93035138,76.93035138,76.93035138,76.93035138,76.93035138,76.93035138,76.93035138,76.93035138,76.93035138,76.93035138,76.93035138,76.93035138,76.93035138,76.93035138,76.93035138,76.93035138,76.93035138,76.93035138,76.93035138,76.93035138,76.93035138,76.93035138,76.93035138,76.93035138,76.93035138,76.93035138,76.93035138,76.93035138,76.93035138,76.93035138,76.93035138,76.93035138,76.93035138,76.93035138,76.93035138,76.93035138,76.93035138,76.93035138,76.93035138,76.93035138,76.93035138,76.93035138,76.93035138,76.93035138,76.93035138,76.93035138,76.93035138,76.93035138,76.93035138,76.93035138,76.93035138,76.93035138,76.93035138,76.93035138,76.93035138,76.93035138,76.93035138,76.93035138,76.93035138,76.93035138,76.93035138,76.93035138,76.93035138,76.93035138,76.93035138,76.93035138,76.93035138,76.93035138,76.93035138,76.93035138,76.93035138,76.93035138,76.93035138,76.93035138,76.93035138,76.93035138,76.93035138,76.93035138,76.93035138,76.93035138,76.93035138,76.93035138,76.93035138,76.93035138,76.93035138,76.93035138,76.93035138,76.93035138,76.93035138,76.93035138,76.93035138,76.93035138,76.93035138,76.93035138,76.93035138,76.93035138,76.93035138,76.93035138,76.93035138,76.93035138,76.93035138,76.93035138,76.93035138,76.93035138,76.93035138,76.93035138,76.93035138,76.93035138,76.93035138,76.93035138,76.93035138,76.93035138,76.93035138,76.93035138,76.93035138,76.93035138,76.93035138,76.93035138,76.93035138,76.93035138,76.93035138,76.93035138,76.93035138,76.93035138,76.93035138,76.93035138,76.93035138,76.93035138,76.93035138,NaN,NaN],
	"ap0": [NaN,0.558652188,0.5403735604,0.6197843513,0.5794694402,0.6944496959,0.5769653054,0.3403400665,0.2966190303,0.2832591896,0.3680413025,0.460012704,0.4056216379,0.637162248,0.610906166,0.4992081215,0.3676178622,0.3911204921,0.3017559791,0.224504833,0.2555243565,0.4336975843,0.5703676416,0.6423095901,0.4236100004,0.3681173346,0.4153077748,0.6649230247,0.450636204,0.5631215795,0.6040598115,0.6246337159,0.6174714822,0.6402842562,0.6216360636,0.5870529162,0.660886569,0.7372271551,0.7483205915,0.6264663047,0.5123295276,0.6788659865,0.5645531614,0.7667848516,0.6194223527,0.6563805603,0.7483002849,0.8300755163,0.6731299689,0.7057013351,0.8834491318,0.7190982644,0.4005402527,0.6197263988,0.568888729,0.6043389262,0.771004748,0.6295679098,0.2619365275,0.124029234,0.2003667339,0.4582974296,0.6123791735,0.4047812502,0.3633423486,0.277916363,0.3614670282,0.4513415098,0.6607216747,0.5533233188,0.8556466159,0.2105442344,0.1419031469,0.1470206505,0.2008588369,0.1689409581,0.2236836189,0.2550308493,0.2100927819,0.1243371904,0.0734549913,0.05606959528,0.1229479803,0.1711463105,0.08500535147,0.1267304607,0.152625658,0.130045967,0.0719555623,0.02274421317,0.02696751182,0.07238298997,0.304320541,0.3912671879,0.5347556587,0.6537071701,0.3088443694,0.08097000182,0.1225204392,0.2540325892,0.1812377445,0.2637245205,0.3240373018,0.2467027419,0.1738511571,0.1432718215,0.1498257168,0.1316147827,0.06442777582,0.08274644359,0.3517101371,0.541304952,0.394719532,0.2300223915,0.2403288296,0.3535278928,0.3247701241,0.3823227931,0.3587194325,0.290568501,0.3510448709,0.7931458586,0.1615571502,0.07376119812,0.05668818293,0.06083303279,0.06713431446,0.2008330763,0.3432690324,0.3243244284,0.1764094708,0.06952595705,0.07709651421,0.1028996559,0.0774549289,0.04870700717,0.08559637634,0.1048228326,0.1304277738,0.2812031134,0.405403115,0.7344745529,0.6118554923,0.6121087583,0.771391329,0.7997493291,0.1190279034,0.06559336332,0.04308359763,0.0291715532,0.1057624586,0.07000044763,0.2695622322,0.261387187,0.1818181257,0.1044448556,0.06600674611,0.08665670021,0.1376023839,0.4291788622,0.6019980667,0.7138459822,0.6063619787,0.557299623,0.4533443796,0.3336867276,0.5170397268,0.888314732,0.6871566843,0.5398719595,0.1285146298,0.07580975703,0.04599576177,0.05415518168,0.05912317035,0.06078690375,0.153505738,0.04567089355,0.03865350812,0.05208931791,0.04908970126,0.06922356637,0.1156847556,0.1855179031,0.08595363737,0.1216438878,0.06380845058,0.04058466423,0.03014846378,0.03906546863,0.05126900701,0.06532833582,0.169551756,0.3453913293,0.6077314573,0.4795643085,0.5750669179,0.5064465554,0.5356526382,0.4746650716,0.3750541611,0.3861774708,0.3110193724,0.4327909944,0.5655577228,0.5992263836,0.5391517748,0.4837390617,0.4892807177,0.5195503174,0.6747161129,0.7328530419,0.5025695654,0.3786296683,0.3606413478,0.4265000566,0.4689559876,0.4485206319,0.5689434924,0.6280271385,0.5863242265,0.3883093683,0.3415696475,0.384311485,0.5537318931,0.5062271236,0.404525702,0.3668039251,0.4707609895,0.6145666556,0.5655405839,0.626671809,0.5169240115,0.7776020805,0.5948624329,0.5478027711,0.7665747946,0.5939050444,0.7108323476,0.7515820605,0.7059799868,0.6850699863,0.6394954425,0.7971787755,0.7442286304,0.6186885804,0.5845658024,0.3576724717,0.4984792179,0.7485146318,0.6813204119,0.5825061646,0.5866470841,0.6133720204,0.6741606396,0.5902519151,0.5051788173,0.2764888199,0.1450013912,0.1261285949,0.1981829623,0.2207641916,0.2561275489,0.2179895244,0.2916077873,0.3841873416,0.1609735565,0.05470403869,0.0810195823,0.2738868608,0.3528751134,0.3833281853,0.3032139932,0.2656403878,0.3604709888,0.3961897785,0.5521797655,0.3936905226,0.3326366133,0.4092561574,0.3360324989,0.2722804011,0.1777124034,0.2630011412,0.3414659414,0.4067570978,0.2659263496,0.2306657792,0.2801471585,0.4189090715,0.5312967479,0.3819319348,0.5512265191,0.6034412182,0.484127216,0.6609425665,0.6989657697,0.3300790261,0.1205443824,0.04616204262,0.02325081058,0.02045439839,0.02306988854,0.01940858397,0.01611464226,0.0145704426,0.02017554259,0.02519186376,0.02998945137,0.1754279458,0.3296458512,0.2571669377,0.3574683468,0.3451341603,0.6632052891,0.3893664652,0.4805662863,0.267153206,0.6612269123,0.1378313249,0.06618480887,0.03286147591,0.0157986766,0.09591639026,0.1744294732,0.2449986456,0.1853560268,0.07606467999,0.07074547995,0.07619246327,0.0497321623,0.04349083589,0.1091244503,0.117729465,0.1359163538,0.205851595,0.2724176021,0.7553107464,0.6900199089,0.76967567,0.4988841475,0.5773954592,0.6010559314,0.1161066953,0.06929353723,0.06001546881,0.05866833111,0.05148903178,0.05802523192,0.07298787246,0.07567237362,0.06064775875,0.03817883316,0.04522328983,0.05313183326,0.04460698587,0.2745486213,0.2669979917,0.14365025,0.03440403547,0.05567181045,0.1054026774,0.1103519891,0.06131439614,0.06709794813,0.1763014927,0.2671690479,0.2293658494,0.179288648,0.1073491867,0.07744871086,0.04412362905,0.03854746552,0.04639359265,0.03842545808,0.02291908,0.01491154021,0.01869808321,0.02282577197,0.01640518574,0.008376324596,0.01048276364,0.01655585584,0.01438333617,0.009263189827,0.01596778683,0.03541129055,0.08888063106,0.171490742,0.204751042,0.1422954658,0.1165218378,0.08968269228,0.05746222093,0.08126157885,0.04902192399,0.03237949325,0.02733961681,0.05103316112,0.09391322731,0.06552673353,0.02747320373,0.02969220187,0.05896378033,0.07841207081,0.05448379731,0.04737586565,0.1409667407,0.2586234765,0.225478834,0.09636350471,0.05075821414,0.07885034692,0.1162112425,0.1073780869,0.06703271546,0.09255585584,0.3035054425,0.4745564146,0.2753095544,0.1624873224,0.08776007884,0.08537170556,0.08483977545,0.06454097879,0.08538511451,0.229468515,0.414708423,0.527834101,0.3307538214,0.1809274363,0.1929949988,0.08504853603,0.04354940036,0.04054371302,0.06191374462,0.09647717389,0.177225944,0.4231060102,0.788082985,0.6976215049,0.3115116645,0.1331933951,0.1574098915,0.2795564323,0.6434895882,0.4297511771,0.8919210073,0.5996353425,0.4807416598,0.4507241492,0.2664107136,0.5967340441,0.5752584909,0.6348408228,0.6001978153,0.5148529887,0.3749590655,0.431957107,0.4433094252,0.4266743429,0.5111369917,0.4311508007,0.5341193069,0.7105302359,0.7019120333,0.662313632,0.610765095,0.623398808,0.4265222235,1,0.9136290178,0.3993450078,0.5302057519,0.4152575192,0.4342783952,0.6484307129,0.6944230788,1,1,1,1,1,1,1,1,1,1,1,1,1,1,1,1,1,1,1,1,1,1,1,1,1,1,1,1,1,1,1,1,1,1,1,1,1,1,1,1,1,1,1,1,1,1,1,1,1,1,1,1,1,1,1,1,1,1,1,1,1,1,1,1,1,1,1,1,1,1,1,1,1,1,1,1,1,1,1,1,1,1,1,1,1,1,1,1,1,1,1,1,1,1,1,1,1,1,1,1,1,1,1,1,1,1,1,1,1,1,1,1,1,1,1,1,1,1,1,1,1,1,1,1,1,1,1,1,1,1,1,1,1,1,NaN,NaN],
	"ap": [NaN,0.3187683768,0.4959258045,0.3255756392,0.3743446368,0.2204365474,0.2752517469,0.3607829407,0.1716677857,0.2805251269,0.1172407023,0.2273233844,0.3012554808,0.2675990214,0.3505547736,0.2802023682,0.2147408859,0.1141941669,0.2565283614,0.1979932202,0.1745707983,0.2353354673,0.2255608117,0.2548761733,0.5203027191,0.1236810143,0.2499342109,0.1596071396,0.2471817052,0.4412747418,0.1339575724,0.2225309677,0.317710851,0.3280501228,0.4914354714,0.2594834022,0.3310865176,0.3070874357,0.2718758123,0.378481809,0.09116008377,0.3932667753,0.570263729,0.1786893983,0.3698685089,0.3289433063,0.7906226801,0.4116229196,0.6608793088,0.7021910087,0.30859713,0.3263678681,0.3370938905,0.226805934,0.3333296847,0.5978229013,0.2015997591,0.4915230493,0.378188013,0.1241136712,0.03820776394,0.07862821241,0.1355703587,0.3399730342,0.3772959728,0.05832142701,0.2396955727,0.05237492652,0.3640073163,0.828034706,0.2244999224,0.3565857775,0.2886645175,0.02954272282,0.0536190221,0.04231186293,0.04670453396,0.05473164501,0.06302087923,0.1459601241,0.158385961,0.05329797999,0.02775212889,0.02861199504,0.09125720961,0.06497720658,0.02678334938,0.06628989563,0.01941845922,0.03282034879,0.02066318749,0.007885614184,0.02427980188,0.3803683985,0.1934966894,0.3410515429,0.5544035402,0.2079963285,0.1273366588,0.06650784358,0.1423175568,0.03335282786,0.1997676354,0.1936549624,0.0283119537,0.0896145302,0.1095516575,0.08618547853,0.1679751107,0.03251185033,0.02972834694,0.2015664266,0.271029071,0.3512689708,0.1581294831,0.2210974798,0.1232297618,0.3902098613,0.683429623,0.5974460651,0.1319798594,0.5217351609,0.2301539813,0.2977668818,0.07463180316,0.03106181239,0.008363389332,0.01467320298,0.1011502968,0.1230913738,0.2418549877,0.06130185419,0.04366677223,0.03713223615,0.02844784101,0.04782649766,0.01056029446,0.02900510507,0.1122957577,0.07602545838,0.1663218275,0.3475395856,0.3841164605,0.3679821976,0.8168078789,0.3007756961,0.4454874132,0.6118800909,0.04905222963,0.02452785816,0.06850693597,0.03334460511,0.03536681142,0.1014711804,0.1244065367,0.06534227459,0.02955237633,0.02842012114,0.06030612999,0.05984178405,0.2243644389,0.0791545649,0.1718807631,0.5014144223,0.5176523548,0.2888293985,0.1153130105,0.6304455243,0.4703289132,0.4896919399,0.5724548612,0.1190303026,0.02035679271,0.03431524884,0.0260337368,0.03345350744,0.02308246061,0.1012283033,0.06903197701,0.01358886783,0.03801348223,0.04767882511,0.07910006621,0.1094505996,0.2214227995,0.02622845779,0.04945787554,0.06267723896,0.007817674323,0.03559834571,0.003574420288,0.02134420563,0.04990003462,0.08892553786,0.1300294272,0.4856825162,0.02852116586,0.174926209,0.2508177811,0.4155871495,0.5731814935,0.1956956346,0.1283313756,0.2098737291,0.06427187905,0.6610058901,0.2249536718,0.1367930894,0.0855291306,0.4333329869,0.4298234475,0.4383623542,0.504276499,0.3687797964,0.2587447418,0.2953839422,0.1831681977,0.4186625521,0.1063517245,0.1741859035,0.3476560835,0.2278501915,0.2398691506,0.1817929039,0.1693464438,0.2281116509,0.23144957,0.3597689499,0.2338475812,0.359413629,0.2474110784,0.3801438108,0.4958400882,0.4498899988,0.7292052276,0.4846367636,0.4110078768,0.2873135446,0.3312509559,0.6184047889,0.2279635189,0.283274784,0.4722648719,0.6036487263,0.75663708,0.4397800863,0.5005665383,0.5910856078,0.1105435481,0.2156322071,0.6916622339,0.5040583697,0.2055981602,0.1237768303,0.2872345593,0.3666163438,0.3243712221,0.5629547119,0.3521810663,0.0631236677,0.05522964522,0.1207457118,0.1320541325,0.1721760743,0.1043764821,0.1484093574,0.1283740826,0.1732208562,0.02599818861,0.1337015916,0.211039894,0.3436582298,0.09945675127,0.08484286363,0.1629267841,0.09239929629,0.267348039,0.4611820347,0.07104042415,0.2911465325,0.249865879,0.1539886904,0.1610417119,0.157475664,0.07750566796,0.08842681486,0.224479461,0.09096564675,0.1053650695,0.1799876879,0.0895947852,0.2142291139,0.5352031534,0.9150383868,0.261066874,0.156387341,0.2838527232,0.6064635434,0.5221735754,0.06372556674,0.01957773584,0.005804276121,0.001540731969,0.0124251957,0.01358182096,0.00757906332,0.005528983135,0.01278071313,0.02150359918,0.008819831223,0.3291510231,0.4306408646,0.3507498039,0.1699323386,0.2990761011,0.7359622343,0.1674469943,0.1971244396,0.2770093424,0.1212059926,0.250048343,0.04303246908,0.005233707784,0.0717951469,0.03295257559,0.07641095036,0.1806564961,0.08258967474,0.02726757294,0.01378155446,0.01179023352,0.008692928953,0.02527719121,0.02384550513,0.03544769625,0.02848243246,0.1577974259,0.7105557969,0.2890290908,0.707430286,0.9211753394,0.182437682,0.5871163087,0.4759352546,0.6729573121,0.03246749704,0.02410615618,0.01408108954,0.01552801626,0.009397303692,0.004973578943,0.02247265166,0.08043963818,0.02520609263,0.001977609857,0.01527563479,0.02228372278,0.1382128781,0.2795787308,0.004200817978,0.01161506275,0.02910277844,0.01368629919,0.03178005926,0.047339816,0.02181885598,0.04536504673,0.1932894661,0.1676006288,0.1189245683,0.01935393553,0.03462890496,0.04793469216,0.01721145499,0.03411987671,0.006476886854,0.03010109387,0.004660656169,0.005352417734,0.01827208685,0.01482920365,0.002745542908,0.001922261599,0.0111295608,0.01020152984,0.005897005227,0.0009786546243,0.04933135443,0.005675411432,0.2144309488,0.3338527298,0.1686527955,0.05778413085,0.06195246533,0.01164207406,0.02610785066,0.05383009478,0.04312305474,0.01080215647,0.009640486769,0.04658219727,0.04554081893,0.009379981391,0.01809576033,0.04563516186,0.05936958396,0.01032299596,0.02689360846,0.020751885,0.2031233986,0.2074582019,0.1544477185,0.03301113368,0.0240480501,0.08842193254,0.09828430631,0.08753644328,0.06829698873,0.09749034526,0.2405661052,0.2927061423,0.008602129513,0.0234488943,0.1027243176,0.037206704,0.0208267966,0.01242977112,0.05558059481,0.2536951042,0.203235753,0.3044334554,0.09463878299,0.08656111221,0.02817826263,0.03178903137,0.008628368677,0.01967569078,0.01570372253,0.2217676696,0.2427136823,0.3263144372,0.6281699003,0.6433027647,0.03960444078,0.1129058496,0.2549989234,0.3305933719,0.2723269138,0.3257128281,0.5996981858,0.1759682101,0.5299984788,0.1540732739,0.1913685267,0.2927679527,0.4118315869,0.2236154348,0.2978084535,0.2735933919,0.1746422589,0.4925200165,0.2722457618,0.2918270772,0.2899859438,0.2022077508,0.4124340322,0.5473928005,0.1823143165,0.1007479869,0.5195389741,1,1,1,0.4506135111,0.7918368044,0.2895922219,0.4585799532,0.4410746072,0.5000006574,1,1,1,1,1,1,1,1,1,1,1,1,1,1,1,1,1,1,1,1,1,1,1,1,1,1,1,1,1,1,1,1,1,1,1,1,1,1,1,1,1,1,1,1,1,1,1,1,1,1,1,1,1,1,1,1,1,1,1,1,1,1,1,1,1,1,1,1,1,1,1,1,1,1,1,1,1,1,1,1,1,1,1,1,1,1,1,1,1,1,1,1,1,1,1,1,1,1,1,1,1,1,1,1,1,1,1,1,1,1,1,1,1,1,1,1,1,1,1,1,1,1,1,1,1,1,1,1,1,1,1,1,1,NaN,NaN],
	"pwr": [NaN,2.634120459e-07,2.937255582e-07,7.722899847e-08,9.661894514e-08,4.993211824e-08,1.148491261e-07,1.182447055e-07,7.71923134e-08,1.678746374e-07,2.816707517e-07,1.212232035e-07,2.788541238e-07,5.945000117e-08,5.216281284e-08,7.32246182e-08,7.824890096e-08,1.779470117e-07,7.178140552e-08,1.11655374e-07,2.201720179e-07,1.527669062e-07,9.056406491e-08,8.551673389e-08,7.991106075e-08,6.542234731e-08,9.297634272e-08,1.542802471e-07,1.746717947e-07,1.392101546e-07,2.070608228e-07,2.552477332e-07,3.046888778e-07,2.911577932e-07,1.275025739e-07,2.557147915e-07,4.867120092e-07,4.181279996e-07,4.601687016e-07,1.438055598e-07,3.245159393e-07,4.941248335e-07,1.93100893e-06,5.947770053e-06,3.491163828e-06,2.332268217e-06,2.990500915e-06,7.423868049e-06,5.962039029e-06,1.957446319e-05,4.612427541e-06,1.02570592e-06,1.902113959e-06,7.05875471e-07,1.735564479e-06,1.317553052e-06,1.734411111e-05,6.307354546e-06,0.0003637704723,0.001861733809,0.009410007632,0.004656328691,0.005759983625,0.003161473301,0.00190879393,0.0005511862002,0.0001380279182,0.0001328435512,8.643285051e-05,6.505602312e-05,8.095954187e-05,3.833778881e-05,0.000266259781,0.008607370407,0.0147073892,0.005970851028,0.002374028766,0.00116969228,0.001356361854,0.002699324517,0.00119363742,0.001633557098,0.002658947442,0.003199297439,0.00141040883,0.0008264965925,0.0001611686286,0.0001971932309,0.0004831492948,0.0005461816614,0.0003085787103,0.0006269790747,0.0002307098792,1.776656937e-05,2.254180092e-05,1.995713802e-06,5.683492828e-06,5.355835758e-05,0.003995912148,0.01521207294,0.004937348263,0.004657907471,0.001636947892,0.00121115765,0.001587089242,0.0008767399219,0.001285659317,0.001799179752,0.001234513028,0.002428308313,0.00331194142,0.002624435383,0.00565007163,0.001502940901,0.00135059263,0.0008238416288,0.01260473158,0.001001713141,1.541732035e-05,6.292151257e-06,1.751453616e-05,1.35907782e-05,0.0001811658541,0.0001404024153,0.003169580297,0.006457937381,0.007164746167,0.002215099908,0.0006185571742,0.0003689597084,0.0006164155235,0.0003130485324,0.000612504471,0.001593449465,0.001505904001,0.001658651795,0.001361286866,0.0006423253681,0.0007475382339,0.0003109659169,6.542944524e-05,5.550443409e-05,2.506615473e-05,2.213594416e-05,3.449306851e-05,2.291954386e-06,0.0001678592914,0.0004980498071,0.01334813701,0.01910825546,0.01934700059,0.01185094173,0.008263166779,0.00185861802,0.001490560019,0.004159461569,0.005008833647,0.004728609785,0.00621422069,0.007864904005,0.0002999022329,2.368661546e-05,1.035068501e-06,4.880675191e-06,1.461234967e-06,7.239845581e-06,1.008752591e-05,1.349943258e-05,2.06310771e-05,1.231836325e-05,5.409076621e-06,0.0001487030723,0.003061824853,0.002496908373,0.0003946858607,0.0007057975055,0.001129100013,0.0003548505478,0.0001558929799,0.0004023316681,0.0004712590609,0.0007025192351,0.0007487390531,0.0006480228504,0.0001079814561,0.0001129923433,2.428987149e-05,2.832831356e-05,0.0001513964159,0.0003306545267,0.0005825168797,0.0005361648995,0.0002460061376,3.684717345e-05,1.39575774e-05,5.645425907e-07,7.99032719e-06,2.26153843e-05,1.032665734e-05,4.875371504e-06,1.223689328e-06,2.43074181e-06,2.043810447e-06,6.048592493e-07,8.282481253e-07,1.079938018e-06,2.770986227e-07,3.231877303e-07,1.416248753e-07,7.992206532e-08,6.640193726e-08,1.782185952e-07,3.037632268e-07,1.007859181e-07,7.587428145e-08,2.359350522e-07,1.388163752e-07,1.067601261e-07,1.896732552e-07,1.169165638e-07,9.281914039e-08,6.360132304e-08,9.79240506e-08,8.066369143e-08,1.020192334e-07,2.207975957e-07,1.601024439e-07,1.545273138e-07,5.655058298e-08,1.591729233e-07,1.578399266e-07,3.851799416e-07,1.663664227e-07,3.772801581e-07,2.06105389e-07,7.726759014e-07,1.006143672e-06,7.939132205e-07,6.236639842e-08,2.467537552e-07,4.347955768e-07,5.226992438e-07,1.450650639e-06,2.129624269e-06,1.536992438e-05,3.120326352e-05,1.485885403e-05,2.208059023e-05,5.850949285e-05,7.68957746e-05,9.518270895e-05,5.688353486e-05,1.585048201e-05,1.264321263e-05,1.156899044e-05,9.056635205e-06,9.880782159e-06,4.996667424e-05,0.001561669115,0.01233156136,0.008155591006,0.00647486478,0.003588165948,0.002137744841,0.001695342676,0.003391798596,0.00417891275,0.001673356836,0.007628798252,0.01239895342,0.003122250964,0.0153780659,0.1032871869,0.09323657568,0.03240893506,0.01522590916,0.004707870482,0.006618601502,0.01123092074,0.03142758699,0.05189737886,0.1170023829,0.06130447298,0.06342102631,0.01155284828,0.02507414967,0.008434153052,0.006061467892,0.006165026396,0.00783334161,0.01281211253,0.007179578006,0.002610289299,0.00117137968,0.0004573030781,0.0001647164191,0.0002752691402,8.047504035e-05,4.127504633e-05,0.0005400072671,0.007092082774,0.01747395894,0.01793337647,0.006156941233,0.00540201807,0.005464260435,0.003971324609,0.002113141454,0.00227198637,0.002530780882,0.003406835792,0.002075851167,0.007964942614,0.008055407157,9.6603508e-05,1.875602051e-05,7.970768575e-06,4.20191412e-05,0.0002321250702,0.0005531044052,0.006704181285,0.06077570119,0.041709719,0.02822487497,0.04094785529,0.05218338835,0.02450138846,0.0427426561,0.01605803486,0.01348914743,0.03394796581,0.08358818304,0.06668023175,0.03559614898,0.0110543608,0.02295780425,0.00713884673,0.004060903198,0.002096658925,0.0009938320852,0.0001355673766,6.169087694e-05,0.0001490747711,0.0003356362229,0.001474715619,0.07182157392,0.0792408087,0.02956002665,0.03908489131,0.02163851639,0.02237461003,0.01212732968,0.04560689204,0.06971258887,0.0650877035,0.01995179593,0.01512302916,0.005591560128,0.003612144404,0.003894361408,0.006556694927,0.009678690963,0.02041443026,0.02965553459,0.006755214127,0.006209340651,0.001874172271,0.001107827525,0.0008172700878,0.001190369795,0.0009996727205,0.00187436264,0.004639513378,0.004718485947,0.005765539513,0.0134958536,0.01219875695,0.00661345907,0.004066638194,0.004782897447,0.005390995917,0.00511257883,0.005268728108,0.005280644948,0.007109197616,0.009745968742,0.00961359868,0.008460555144,0.004686701471,0.005814959024,0.00290302656,0.01012153954,0.004992141007,0.006703547019,0.003672643231,0.002716437034,0.001268419686,0.006625781583,0.00376539551,0.005419593306,0.002930453148,0.002679859843,0.005814250436,0.003045893145,0.001609122608,0.001458560732,0.003928562736,0.008584892816,0.004948150084,0.006898848125,0.002636160485,0.001534575396,0.002059851228,0.001307017617,0.0008129844456,0.001269614899,0.003735490503,0.007674928168,0.004149044243,0.002285837406,0.0002859562437,0.001050484236,0.0005798490698,0.000833171565,0.001299993412,0.00324090096,0.005312952501,0.00212441353,0.001730132405,0.0001654972608,6.095123775e-05,0.0001684639893,0.0002612186136,0.0002878003217,0.0005740187946,0.0006985116427,0.0009175975363,0.0004734846963,7.390572771e-05,1.797292954e-05,5.217597144e-06,9.97397136e-06,9.994462712e-07,1.366681717e-05,4.017459576e-05,1.103912348e-05,2.062480719e-07,1.886552028e-07,1.561649871e-07,2.195356193e-07,3.719689414e-07,1.076956626e-06,1.237605764e-06,3.863963979e-07,8.500882004e-08,2.6264388e-08,1.072342079e-07,3.554133615e-08,6.329824424e-08,1.512567646e-07,1.68645056e-07,1.824185613e-07,4.947241302e-08,7.552347575e-08,9.406420099e-08,3.445126716e-08,7.581940369e-08,4.520533109e-08,1.118314685e-08,1.068953457e-09,0,0,0,2.304903885e-12,1.962816473e-10,1.103816009e-09,4.940552682e-10,2.850987473e-10,8.444209964e-11,0,0,0,0,0,0,0,0,0,0,0,0,0,0,0,0,0,0,0,0,0,0,0,0,0,0,0,0,0,0,0,0,0,0,0,0,0,0,0,0,0,0,0,0,0,0,0,0,0,0,0,0,0,0,0,0,0,0,0,0,0,0,0,0,0,0,0,0,0,0,0,0,0,0,0,0,0,0,0,0,0,0,0,0,0,0,0,0,0,0,0,0,0,0,0,0,0,0,0,0,0,0,0,0,0,0,0,0,0,0,0,0,0,0,0,0,0,0,0,0,0,0,0,0,0,0,0,0,0,0,0,0,0,NaN,NaN],
	"sr": 16000,
	"range": [1,196608],
	"minf0": 63.1883,
	"maxf0": 706.3069,
	"thresh": 0.1,
	"relflag": 1,
	"hop": 320,
	"bufsize": 10000,
	"wsize": 640,
	"lpf": 4000,
	"shift": 0,
	"plotthreshold": 0.2
}
