{
    "DU": 189,
    "DV": 145,
    "F-measure": 0.6622073578595318,
    "F-measure Chroma": 0.8127090301003344,
    "FN": 51,
    "FNC": 13,
    "FNCch": 29,
    "FNI": 38,
    "FNIch": 22,
    "FP": 19,
    "GU": 157,
    "GV": 177,
    "Overall Accuracy": 0.592814371257485,
    "Overall Chroma Accuracy": 0.7275449101796407,
    "Precision": 0.6996466431095406,
    "Precision Chroma": 0.8586572438162544,
    "Raw Chroma Accuracy": 0.7570621468926554,
    "Raw Pitch Accuracy": 0.4124293785310734,
    "Recall": 0.6285714285714286,
    "Recall Chroma": 0.7714285714285715,
    "TN": 138,
    "TO": 334,
    "TP": 126,
    "TPC": 60,
    "TPCch": 105,
    "TPI": 66,
    "TPIch": 21,
    "Voiced Chroma Accuracy": 0.5932203389830508,
    "Voiced Pitch Accuracy": 0.3389830508474576,
    "Voicing Accuracy": 0.7904191616766467,
    "Voicing Detection": 0.711864406779661,
    "Voicing False Alarm": 0.12101910828025478
}