{
    "DU": 174,
    "DV": 146,
    "F-measure": 0.8181818181818182,
    "F-measure Chroma": 0.9123376623376622,
    "FN": 18,
    "FNC": 0,
    "FNCch": 0,
    "FNI": 18,
    "FNIch": 18,
    "FP": 6,
    "GU": 162,
    "GV": 158,
    "Overall Accuracy": 0.7875,
    "Overall Chroma Accuracy": 0.878125,
    "Precision": 0.8344370860927153,
    "Precision Chroma": 0.9304635761589404,
    "Raw Chroma Accuracy": 0.7911392405063291,
    "Raw Pitch Accuracy": 0.6075949367088608,
    "Recall": 0.802547770700637,
    "Recall Chroma": 0.8949044585987261,
    "TN": 156,
    "TO": 320,
    "TP": 140,
    "TPC": 96,
    "TPCch": 125,
    "TPI": 44,
    "TPIch": 15,
    "Voiced Chroma Accuracy": 0.7911392405063291,
    "Voiced Pitch Accuracy": 0.6075949367088608,
    "Voicing Accuracy": 0.925,
    "Voicing Detection": 0.8860759493670886,
    "Voicing False Alarm": 0.037037037037037035
}