{
    "f0": [
        70.144951951269434,
        70.317216735563207,
        70.326340260405289,
        70.498603464729001,
        70.58858802796,
        70.718237099881335,
        41.83070163978546,
        41.203831079937359,
        0.0,
        0.0,
        0.0,
        64.891289713577066,
        68.585633765897541,
        68.757894508549427,
        68.930158096173869,
        68.778554419376661,
        68.625611416386818,
        68.471305211860411,
        68.487876418253933,
        68.524356989981783,
        69.395486918711612,
        69.304735436321295,
        69.444767943045008,
        69.038316794342052,
        69.583882366305033,
        69.552266945458655,
        69.920983387026922,
        69.882369926908694,
        69.905935543814891,
        69.929473676041667,
        69.778983012565163,
        70.038552282994814,
        70.294288302336639,
        70.166266136243522,
        70.113596878914379,
        70.194805282924037,
        69.812158225439191,
        69.8442248058779,
        69.233867404841419,
        68.073880976126787,
        68.347265063312648,
        67.831025874013505,
        68.06007693311426,
        67.904686319022204,
        67.929444952337434,
        67.787337032057252,
        68.208120721373163,
        68.342052263835654,
        68.438889148250695,
        68.725392648181085,
        68.739929561785488,
        69.040518744393978,
        69.195954180599045,
        69.350006479400122,
        68.614692585385086,
        67.748999649187937,
        66.361995916486975,
        64.680122404086688,
        63.425929178434522,
        63.738574937761435,
        64.779460514709413,
        64.534856414360689,
        64.286746741357348,
        64.568053273004892,
        64.646400353460393,
        64.724396031990594,
        64.680606265437817,
        64.625788657577573,
        64.505265332203422,
        64.589186140987863,
        65.254054909183552,
        65.616649264717779,
        65.93438717764154,
        65.376775022882924,
        58.665551199489819,
        46.670888952827795,
        64.199790685821853,
        64.741286970685138,
        65.068790664136245,
        65.390212251739825,
        66.048607028586375,
        65.630469112918789,
        64.79776425278682,
        65.153669704821766,
        64.304964478711909,
        63.823077095610955,
        62.997700598292866,
        62.130995166346985,
        65.779895579809192,
        65.151045447952555,
        64.67193586642972,
        64.243612567562565,
        64.26009635080662,
        64.276564402410244,
        64.293016855601948,
        64.581099089905905,
        64.731379292594582,
        66.830187736577031,
        41.447973539904048,
        43.414057471165584,
        52.795230907177043,
        61.908596993911289,
        0.0,
        0.0,
        38.395703625649539,
        65.605864406694224,
        65.431870744817999,
        65.154456928885622,
        65.109909052256882,
        64.946655403696923,
        64.841811721673565,
        64.953792316841472,
        64.891059840090904,
        66.076193818529575,
        65.736045895020965,
        44.478195697004018,
        0.0,
        53.196709868972071,
        52.846956055679755,
        52.932070406699616,
        64.995875943894873,
        64.821883937401523,
        64.445712333554582,
        64.061183616302188,
        64.010745441788103,
        63.960159942691128,
        63.988793089401568,
        63.901284402193951,
        64.117503485964562,
        64.186524011937777,
        64.670225932475404,
        65.140778351920005,
        65.42488395131636,
        53.313111087576495,
        56.885546294412705,
        45.310600434840602,
        35.934478355701231,
        41.395679773919156,
        40.420219272429286,
        39.512354751327791,
        40.005452234853806,
        41.673073488684658,
        41.517573841409039,
        41.630601853835422,
        41.700854841358066,
        0.0,
        0.0,
        0.0,
        41.239244726981042,
        41.433809591584883,
        60.441303682219257,
        60.333095390053252,
        59.983338803657283,
        59.5757350884913,
        59.630688581433489,
        60.063703210721059,
        60.22209533644174,
        60.160641023966164,
        60.428763158339805,
        60.965734060795924,
        61.481719487888149,
        36.8490778400121,
        38.123163750014939,
        40.220572053249143,
        38.700516768013841,
        37.678741682407164,
        37.187302289516275,
        39.312955144900783,
        67.394797161269139,
        67.548809570414932,
        67.57032528247943,
        67.657428426560415,
        67.711483977651426,
        67.607637646895711,
        67.996615335384789,
        68.170425254391063,
        68.271108676597578,
        68.37120993801453,
        68.432419746847899,
        68.557713609340951,
        68.99304384204568,
        69.438955287595675,
        69.335984891285065,
        69.090960107678811,
        68.026296621610868,
        67.504587733768489,
        68.056767797240269,
        53.41938582378571,
        53.483475973493015,
        35.970818006641593,
        40.805385027305832,
        53.624300389474158,
        46.634707349347337,
        46.416867093624703,
        49.338131496357349,
        46.649801055169263,
        47.946539249017448,
        67.128417244728283,
        66.849570959586757,
        66.908987734159581,
        66.69383925914758,
        66.631363932995512,
        66.675717285648659,
        66.719957297536553,
        66.679076007873888,
        66.638097952755246,
        66.800757925487048,
        66.887865471420668,
        67.015904200198264,
        66.77272692014752,
        66.173791750304218,
        65.030134432616563,
        64.08832039287465,
        63.622130829336079,
        65.365801156214545,
        65.320939118971907,
        65.014688563135181,
        64.97078533833087,
        64.793014063596317,
        64.719029076738877,
        64.764025460794812,
        64.808906701872075,
        64.88475139544127,
        64.94480086791863,
        65.202134078601759,
        65.455696757347255,
        65.355845995076706,
        66.018979471121071,
        64.946986178733155,
        64.690244215702336,
        64.994332394705367,
        64.539643798180578,
        65.903305468053972,
        65.574207184069877,
        65.543686871990658,
        65.187043020661648,
        65.162430480408105,
        65.480340538243766,
        65.469890050117868,
        65.631501855337717,
        65.791618946521339,
        65.950268719087319,
        65.942872068600835,
        66.242692890544461,
        66.214548166453056,
        66.314244890314612,
        66.262924841841311,
        66.436118364845555,
        66.347762840302366,
        66.174950909510102,
        65.86887762188158,
        65.624379240075868,
        65.85411790337298,
        65.08323986547704,
        64.305183380799804,
        63.908772043021244,
        64.134917216711386,
        64.461666260023478,
        64.977521521007887,
        65.128815966562485,
        65.287190793503072,
        65.612239718462774,
        64.335929311741765,
        64.48591399273333,
        62.384922807068726,
        64.637604623734262,
        63.59518146652902,
        64.411483197323889,
        65.756869592232661,
        65.68225595413648,
        65.466981939409195,
        65.441216026262637,
        65.41676161541227,
        65.318323695334158,
        65.256547399746268,
        65.194549826735766,
        65.200985681301475,
        65.215744846120401,
        65.118996950370459,
        65.021705351003305,
        65.141033452629159,
        65.259544693185902,
        65.20996762706163,
        65.37648636176047,
        65.29160054873816,
        65.118697952335438,
        65.12362551772415,
        65.084037846529313,
        65.133068091951202,
        65.167501446634105,
        65.16940414880807,
        65.187550336524566,
        65.205679091563255,
        65.174973249003386,
        65.127607089121653,
        65.295916978433752,
        65.387150191012225,
        65.341486144685476,
        65.227065064218181,
        65.111882715388319,
        65.12589054185031,
        65.159740063512743,
        65.193523579894872,
        65.275568891782243,
        65.357227214111077,
        65.43522738782795,
        65.445962699118084,
        65.316162468025581,
        65.357495461438333,
        65.451819400111603,
        65.51924621751715,
        65.508666406601293,
        65.476474629010127,
        65.418987112975913,
        65.349325116328544,
        65.279381678466606,
        65.32647603868746,
        65.319225282941247,
        65.135463948049235,
        65.039161710911557,
        65.128838502736102,
        65.276234427589401,
        65.40689625060746,
        65.43074338600789,
        65.321736583488274,
        64.852736680166942,
        65.068065850540563,
        65.076653180824735,
        65.079169762590155,
        65.08168454773579,
        65.179362271607815,
        65.401500323873023,
        65.731483984557173,
        65.368481968909634,
        65.314041084900083,
        65.444312798521423,
        65.032813398113476,
        65.241539504487505,
        65.412752917291485,
        65.249884585167663,
        65.296409272165306,
        65.449312167367935,
        65.374178403403619,
        65.1994961841894,
        65.416051225134851,
        65.164774351763683,
        64.723599735901388,
        64.366707019276433,
        64.798108668074192,
        65.492008208230175,
        65.321644517822719,
        65.560815406310681,
        53.98098468956313,
        35.532838937560513,
        34.644828053051619,
        54.072937849654942,
        46.309816250585847,
        46.698071143069143,
        46.371080470853997,
        46.451575377480154,
        46.50188682958877,
        46.326273530587414,
        46.588980264525844,
        49.410911111989314,
        50.241638495407017,
        51.287178367283801,
        51.804433999131547,
        53.380595218473303,
        53.451437663429864,
        53.331674314447277,
        53.725182867210208,
        53.698104499099387,
        55.578063473280011,
        54.99425145920884,
        55.993171858462645,
        56.252888117873269,
        53.32764581479821,
        55.570446602244459,
        54.080950086836253,
        53.617992325499763,
        53.287604447753807,
        53.406590368676895,
        53.524762647896296,
        53.98496113873324,
        46.284060882286369,
        46.515248673247925,
        46.569398868685099,
        47.389322955587595,
        46.551976952923177,
        46.638614945077904,
        46.51730463535354,
        46.214417160036845,
        46.341185021997717,
        46.467031382625798,
        46.454543036708834,
        46.596632394141785,
        46.687517537055996,
        46.628843728513154,
        47.481491973089717,
        46.557010642672907,
        46.686811678582878,
        46.18404791249111,
        46.274170921678724,
        47.216877256075719,
        50.828444227602255,
        52.016397301787094,
        0.0,
        0.0,
        0.0,
        0.0,
        0.0,
        0.0,
        0.0,
        0.0,
        0.0,
        0.0,
        0.0,
        0.0,
        0.0,
        0.0,
        0.0,
        0.0,
        0.0,
        0.0,
        0.0,
        0.0,
        0.0,
        0.0,
        0.0,
        0.0,
        0.0,
        0.0,
        0.0,
        0.0,
        0.0,
        0.0,
        0.0,
        0.0,
        0.0,
        0.0,
        0.0,
        0.0,
        0.0,
        0.0,
        0.0,
        0.0,
        0.0,
        0.0,
        0.0,
        0.0,
        0.0,
        0.0,
        0.0,
        0.0,
        0.0,
        0.0,
        0.0,
        0.0,
        0.0,
        0.0,
        0.0,
        0.0,
        0.0,
        0.0,
        0.0,
        0.0,
        0.0,
        0.0,
        0.0,
        0.0,
        0.0,
        0.0,
        0.0,
        0.0,
        0.0,
        0.0,
        0.0,
        0.0,
        0.0,
        0.0,
        0.0,
        0.0,
        0.0,
        0.0,
        0.0,
        0.0,
        0.0,
        0.0,
        0.0,
        0.0,
        0.0,
        0.0,
        0.0,
        0.0,
        0.0,
        0.0,
        0.0,
        0.0,
        0.0,
        0.0,
        0.0,
        0.0,
        0.0,
        0.0,
        0.0,
        0.0,
        0.0,
        0.0,
        0.0,
        0.0,
        0.0,
        0.0,
        0.0,
        0.0,
        0.0,
        0.0,
        0.0,
        0.0,
        0.0,
        0.0,
        0.0,
        0.0,
        0.0,
        0.0,
        0.0,
        0.0,
        0.0,
        0.0,
        0.0,
        0.0,
        0.0,
        0.0,
        0.0,
        0.0,
        0.0,
        0.0,
        0.0,
        0.0,
        0.0,
        0.0,
        0.0,
        0.0,
        0.0,
        0.0,
        0.0,
        0.0,
        0.0,
        0.0,
        0.0,
        0.0,
        0.0,
        0.0,
        0.0
    ],
    "time": [
        0.02,
        0.040000000000000001,
        0.059999999999999998,
        0.080000000000000002,
        0.10000000000000001,
        0.12,
        0.14000000000000001,
        0.16,
        0.17999999999999999,
        0.20000000000000001,
        0.22,
        0.23999999999999999,
        0.26000000000000001,
        0.28000000000000003,
        0.29999999999999999,
        0.32000000000000001,
        0.34000000000000002,
        0.35999999999999999,
        0.38,
        0.40000000000000002,
        0.41999999999999998,
        0.44,
        0.46000000000000002,
        0.47999999999999998,
        0.5,
        0.52000000000000002,
        0.54000000000000004,
        0.56000000000000005,
        0.57999999999999996,
        0.59999999999999998,
        0.62,
        0.64000000000000001,
        0.66000000000000003,
        0.68000000000000005,
        0.69999999999999996,
        0.71999999999999997,
        0.73999999999999999,
        0.76000000000000001,
        0.78000000000000003,
        0.80000000000000004,
        0.81999999999999995,
        0.83999999999999997,
        0.85999999999999999,
        0.88,
        0.90000000000000002,
        0.92000000000000004,
        0.93999999999999995,
        0.95999999999999996,
        0.97999999999999998,
        1.0,
        1.02,
        1.04,
        1.0600000000000001,
        1.0800000000000001,
        1.1000000000000001,
        1.1200000000000001,
        1.1399999999999999,
        1.1599999999999999,
        1.1799999999999999,
        1.2,
        1.22,
        1.24,
        1.26,
        1.28,
        1.3,
        1.3200000000000001,
        1.3400000000000001,
        1.3600000000000001,
        1.3799999999999999,
        1.3999999999999999,
        1.4199999999999999,
        1.4399999999999999,
        1.46,
        1.48,
        1.5,
        1.52,
        1.54,
        1.5600000000000001,
        1.5800000000000001,
        1.6000000000000001,
        1.6200000000000001,
        1.6399999999999999,
        1.6599999999999999,
        1.6799999999999999,
        1.7,
        1.72,
        1.74,
        1.76,
        1.78,
        1.8,
        1.8200000000000001,
        1.8400000000000001,
        1.8600000000000001,
        1.8799999999999999,
        1.8999999999999999,
        1.9199999999999999,
        1.9399999999999999,
        1.96,
        1.98,
        2.0,
        2.02,
        2.04,
        2.0600000000000001,
        2.0800000000000001,
        2.1000000000000001,
        2.1200000000000001,
        2.1400000000000001,
        2.1600000000000001,
        2.1800000000000002,
        2.2000000000000002,
        2.2200000000000002,
        2.2400000000000002,
        2.2599999999999998,
        2.2799999999999998,
        2.2999999999999998,
        2.3199999999999998,
        2.3399999999999999,
        2.3599999999999999,
        2.3799999999999999,
        2.3999999999999999,
        2.4199999999999999,
        2.4399999999999999,
        2.46,
        2.48,
        2.5,
        2.52,
        2.54,
        2.5600000000000001,
        2.5800000000000001,
        2.6000000000000001,
        2.6200000000000001,
        2.6400000000000001,
        2.6600000000000001,
        2.6800000000000002,
        2.7000000000000002,
        2.7200000000000002,
        2.7400000000000002,
        2.7599999999999998,
        2.7799999999999998,
        2.7999999999999998,
        2.8199999999999998,
        2.8399999999999999,
        2.8599999999999999,
        2.8799999999999999,
        2.8999999999999999,
        2.9199999999999999,
        2.9399999999999999,
        2.96,
        2.98,
        3.0,
        3.02,
        3.04,
        3.0600000000000001,
        3.0800000000000001,
        3.1000000000000001,
        3.1200000000000001,
        3.1400000000000001,
        3.1600000000000001,
        3.1800000000000002,
        3.2000000000000002,
        3.2200000000000002,
        3.2400000000000002,
        3.2599999999999998,
        3.2799999999999998,
        3.2999999999999998,
        3.3199999999999998,
        3.3399999999999999,
        3.3599999999999999,
        3.3799999999999999,
        3.3999999999999999,
        3.4199999999999999,
        3.4399999999999999,
        3.46,
        3.48,
        3.5,
        3.52,
        3.54,
        3.5600000000000001,
        3.5800000000000001,
        3.6000000000000001,
        3.6200000000000001,
        3.6400000000000001,
        3.6600000000000001,
        3.6800000000000002,
        3.7000000000000002,
        3.7200000000000002,
        3.7400000000000002,
        3.7599999999999998,
        3.7799999999999998,
        3.7999999999999998,
        3.8199999999999998,
        3.8399999999999999,
        3.8599999999999999,
        3.8799999999999999,
        3.8999999999999999,
        3.9199999999999999,
        3.9399999999999999,
        3.96,
        3.98,
        4.0,
        4.0199999999999996,
        4.04,
        4.0599999999999996,
        4.0800000000000001,
        4.0999999999999996,
        4.1200000000000001,
        4.1399999999999997,
        4.1600000000000001,
        4.1799999999999997,
        4.2000000000000002,
        4.2199999999999998,
        4.2400000000000002,
        4.2599999999999998,
        4.2800000000000002,
        4.2999999999999998,
        4.3200000000000003,
        4.3399999999999999,
        4.3600000000000003,
        4.3799999999999999,
        4.4000000000000004,
        4.4199999999999999,
        4.4400000000000004,
        4.46,
        4.4800000000000004,
        4.5,
        4.5199999999999996,
        4.54,
        4.5599999999999996,
        4.5800000000000001,
        4.5999999999999996,
        4.6200000000000001,
        4.6399999999999997,
        4.6600000000000001,
        4.6799999999999997,
        4.7000000000000002,
        4.7199999999999998,
        4.7400000000000002,
        4.7599999999999998,
        4.7800000000000002,
        4.7999999999999998,
        4.8200000000000003,
        4.8399999999999999,
        4.8600000000000003,
        4.8799999999999999,
        4.9000000000000004,
        4.9199999999999999,
        4.9400000000000004,
        4.96,
        4.9800000000000004,
        5.0,
        5.0199999999999996,
        5.04,
        5.0599999999999996,
        5.0800000000000001,
        5.0999999999999996,
        5.1200000000000001,
        5.1399999999999997,
        5.1600000000000001,
        5.1799999999999997,
        5.2000000000000002,
        5.2199999999999998,
        5.2400000000000002,
        5.2599999999999998,
        5.2800000000000002,
        5.2999999999999998,
        5.3200000000000003,
        5.3399999999999999,
        5.3600000000000003,
        5.3799999999999999,
        5.4000000000000004,
        5.4199999999999999,
        5.4400000000000004,
        5.46,
        5.4800000000000004,
        5.5,
        5.5199999999999996,
        5.54,
        5.5599999999999996,
        5.5800000000000001,
        5.5999999999999996,
        5.6200000000000001,
        5.6399999999999997,
        5.6600000000000001,
        5.6799999999999997,
        5.7000000000000002,
        5.7199999999999998,
        5.7400000000000002,
        5.7599999999999998,
        5.7800000000000002,
        5.7999999999999998,
        5.8200000000000003,
        5.8399999999999999,
        5.8600000000000003,
        5.8799999999999999,
        5.9000000000000004,
        5.9199999999999999,
        5.9400000000000004,
        5.96,
        5.9800000000000004,
        6.0,
        6.0199999999999996,
        6.04,
        6.0599999999999996,
        6.0800000000000001,
        6.0999999999999996,
        6.1200000000000001,
        6.1399999999999997,
        6.1600000000000001,
        6.1799999999999997,
        6.2000000000000002,
        6.2199999999999998,
        6.2400000000000002,
        6.2599999999999998,
        6.2800000000000002,
        6.2999999999999998,
        6.3200000000000003,
        6.3399999999999999,
        6.3600000000000003,
        6.3799999999999999,
        6.4000000000000004,
        6.4199999999999999,
        6.4400000000000004,
        6.46,
        6.4800000000000004,
        6.5,
        6.5199999999999996,
        6.54,
        6.5599999999999996,
        6.5800000000000001,
        6.5999999999999996,
        6.6200000000000001,
        6.6399999999999997,
        6.6600000000000001,
        6.6799999999999997,
        6.7000000000000002,
        6.7199999999999998,
        6.7400000000000002,
        6.7599999999999998,
        6.7800000000000002,
        6.7999999999999998,
        6.8200000000000003,
        6.8399999999999999,
        6.8600000000000003,
        6.8799999999999999,
        6.9000000000000004,
        6.9199999999999999,
        6.9400000000000004,
        6.96,
        6.9800000000000004,
        7.0,
        7.0199999999999996,
        7.04,
        7.0599999999999996,
        7.0800000000000001,
        7.0999999999999996,
        7.1200000000000001,
        7.1399999999999997,
        7.1600000000000001,
        7.1799999999999997,
        7.2000000000000002,
        7.2199999999999998,
        7.2400000000000002,
        7.2599999999999998,
        7.2800000000000002,
        7.2999999999999998,
        7.3200000000000003,
        7.3399999999999999,
        7.3600000000000003,
        7.3799999999999999,
        7.4000000000000004,
        7.4199999999999999,
        7.4400000000000004,
        7.46,
        7.4800000000000004,
        7.5,
        7.5199999999999996,
        7.54,
        7.5599999999999996,
        7.5800000000000001,
        7.5999999999999996,
        7.6200000000000001,
        7.6399999999999997,
        7.6600000000000001,
        7.6799999999999997,
        7.7000000000000002,
        7.7199999999999998,
        7.7400000000000002,
        7.7599999999999998,
        7.7800000000000002,
        7.7999999999999998,
        7.8200000000000003,
        7.8399999999999999,
        7.8600000000000003,
        7.8799999999999999,
        7.9000000000000004,
        7.9199999999999999,
        7.9400000000000004,
        7.96,
        7.9800000000000004,
        8.0,
        8.0199999999999996,
        8.0399999999999991,
        8.0600000000000005,
        8.0800000000000001,
        8.0999999999999996,
        8.1199999999999992,
        8.1400000000000006,
        8.1600000000000001,
        8.1799999999999997,
        8.1999999999999993,
        8.2200000000000006,
        8.2400000000000002,
        8.2599999999999998,
        8.2799999999999994,
        8.3000000000000007,
        8.3200000000000003,
        8.3399999999999999,
        8.3599999999999994,
        8.3800000000000008,
        8.4000000000000004,
        8.4199999999999999,
        8.4399999999999995,
        8.4600000000000009,
        8.4800000000000004,
        8.5,
        8.5199999999999996,
        8.5399999999999991,
        8.5600000000000005,
        8.5800000000000001,
        8.5999999999999996,
        8.6199999999999992,
        8.6400000000000006,
        8.6600000000000001,
        8.6799999999999997,
        8.6999999999999993,
        8.7200000000000006,
        8.7400000000000002,
        8.7599999999999998,
        8.7799999999999994,
        8.8000000000000007,
        8.8200000000000003,
        8.8399999999999999,
        8.8599999999999994,
        8.8800000000000008,
        8.9000000000000004,
        8.9199999999999999,
        8.9399999999999995,
        8.9600000000000009,
        8.9800000000000004,
        9.0,
        9.0199999999999996,
        9.0399999999999991,
        9.0600000000000005,
        9.0800000000000001,
        9.0999999999999996,
        9.1199999999999992,
        9.1400000000000006,
        9.1600000000000001,
        9.1799999999999997,
        9.1999999999999993,
        9.2200000000000006,
        9.2400000000000002,
        9.2599999999999998,
        9.2799999999999994,
        9.3000000000000007,
        9.3200000000000003,
        9.3399999999999999,
        9.3599999999999994,
        9.3800000000000008,
        9.4000000000000004,
        9.4199999999999999,
        9.4399999999999995,
        9.4600000000000009,
        9.4800000000000004,
        9.5,
        9.5199999999999996,
        9.5399999999999991,
        9.5600000000000005,
        9.5800000000000001,
        9.5999999999999996,
        9.6199999999999992,
        9.6400000000000006,
        9.6600000000000001,
        9.6799999999999997,
        9.6999999999999993,
        9.7200000000000006,
        9.7400000000000002,
        9.7599999999999998,
        9.7799999999999994,
        9.8000000000000007,
        9.8200000000000003,
        9.8399999999999999,
        9.8599999999999994,
        9.8800000000000008,
        9.9000000000000004,
        9.9199999999999999,
        9.9399999999999995,
        9.9600000000000009,
        9.9800000000000004,
        10.0,
        10.02,
        10.039999999999999,
        10.06,
        10.08,
        10.1,
        10.119999999999999,
        10.140000000000001,
        10.16,
        10.18,
        10.199999999999999,
        10.220000000000001,
        10.24,
        10.26,
        10.279999999999999,
        10.300000000000001,
        10.32,
        10.34,
        10.359999999999999,
        10.380000000000001,
        10.4,
        10.42,
        10.44,
        10.460000000000001,
        10.48,
        10.5,
        10.52,
        10.539999999999999,
        10.56,
        10.58,
        10.6,
        10.619999999999999,
        10.640000000000001,
        10.66,
        10.68,
        10.699999999999999,
        10.720000000000001,
        10.74,
        10.76,
        10.779999999999999,
        10.800000000000001,
        10.82,
        10.84,
        10.859999999999999,
        10.880000000000001,
        10.9,
        10.92,
        10.94,
        10.960000000000001,
        10.98,
        11.0,
        11.02,
        11.039999999999999,
        11.06
    ]
}