{
    "DU": 99,
    "DV": 149,
    "F-measure": 0.6293706293706293,
    "F-measure Chroma": 0.7599067599067598,
    "FN": 50,
    "FNC": 15,
    "FNCch": 34,
    "FNI": 35,
    "FNIch": 16,
    "FP": 17,
    "GU": 66,
    "GV": 182,
    "Overall Accuracy": 0.5443548387096774,
    "Overall Chroma Accuracy": 0.657258064516129,
    "Precision": 0.6818181818181818,
    "Precision Chroma": 0.8232323232323232,
    "Raw Chroma Accuracy": 0.8131868131868132,
    "Raw Pitch Accuracy": 0.554945054945055,
    "Recall": 0.5844155844155844,
    "Recall Chroma": 0.7056277056277056,
    "TN": 49,
    "TO": 248,
    "TP": 132,
    "TPC": 86,
    "TPCch": 114,
    "TPI": 46,
    "TPIch": 18,
    "Voiced Chroma Accuracy": 0.6263736263736264,
    "Voiced Pitch Accuracy": 0.4725274725274725,
    "Voicing Accuracy": 0.7298387096774194,
    "Voicing Detection": 0.7252747252747253,
    "Voicing False Alarm": 0.25757575757575757
}