{
    "f0": [
        0.0,
        0.0,
        0.0,
        43.181206674359267,
        60.043007482775131,
        60.411071242311962,
        60.583330056808158,
        60.601724621273434,
        60.608842226040025,
        60.575223337035013,
        60.541538972224558,
        60.550273853936332,
        60.559006252806171,
        60.568269657457293,
        60.595405981647815,
        60.622499837415049,
        60.649549381678611,
        60.654477470720501,
        60.659404093644469,
        60.715746989167663,
        60.572310523597217,
        60.641576725940766,
        60.643135386729476,
        62.79698777178605,
        62.614203065513806,
        62.774580614651633,
        62.620657780907912,
        62.665047841962554,
        62.856964025489283,
        62.799923809520209,
        62.814912504644305,
        62.834630983738066,
        63.1947899748711,
        63.03189356502503,
        63.194415495171796,
        63.134401015887946,
        63.038609513331345,
        63.13244291830916,
        62.930939160861165,
        63.167072391463066,
        63.173494054399157,
        63.371801458676373,
        63.395696749004173,
        63.505737710899524,
        63.044995968165487,
        62.762303133016836,
        63.057265951688095,
        62.680257498669405,
        62.697432565419291,
        62.714590553604403,
        63.740493339262329,
        63.532640457653962,
        64.344587331448651,
        64.435179196811092,
        64.332556981164316,
        64.22932287529332,
        64.269630337665362,
        64.187568909517054,
        64.227203217769016,
        64.228070103744471,
        63.933596941274487,
        64.028162853723984,
        64.054547757262242,
        64.080892457749016,
        64.095751462359303,
        64.070617054584019,
        64.099656246704981,
        64.013043910426475,
        63.884497174641453,
        63.948168067820575,
        63.948600499350569,
        63.980563345030326,
        63.996738306157312,
        64.020757108857396,
        60.621157524312494,
        60.411763432474274,
        60.476892669156328,
        60.312296972829486,
        60.217660777550805,
        60.25883560995598,
        60.262567413447726,
        60.540129755090362,
        60.598229061549489,
        60.656134105462272,
        60.713842181347175,
        60.672920943116388,
        60.819790546566651,
        60.820686142768608,
        60.821581629537022,
        60.822477133090466,
        60.798003213204517,
        60.722831461391579,
        60.672794662098276,
        60.622614804084222,
        60.744554950441866,
        60.512522290197928,
        60.709942827633732,
        60.661379038051898,
        60.803737439212142,
        60.73299684709437,
        61.07564960493896,
        60.891956127364338,
        60.899879542282562,
        60.423110254750164,
        60.358587038868386,
        60.359051890758309,
        60.204160894290418,
        60.246490634257228,
        60.28871719287018,
        60.842579596564548,
        61.13309816845522,
        60.652322799223455,
        60.680789857607977,
        60.63526681269849,
        0.0,
        0.0,
        67.050305588452346,
        53.410579822222886,
        45.010703743456851,
        43.377129566328421,
        65.095846181903539,
        65.191841942813681,
        65.248927239762054,
        65.213458741239791,
        65.074723672163174,
        64.949159132036755,
        64.815479884352683,
        64.510393957042794,
        64.459031692650925,
        64.538366697950863,
        64.532425734417302,
        64.684486160642223,
        64.767446580022323,
        64.709776357911736,
        64.832017986435531,
        64.948309414568328,
        64.892362964862087,
        64.836236684024186,
        64.87130456420492,
        64.906301504609232,
        64.941224856807523,
        64.887813798398682,
        64.909401160891662,
        64.768591944130293,
        65.525716595379507,
        69.64941109861438,
        69.720733763055222,
        69.845056174457383,
        70.113764639700747,
        70.306982825372302,
        70.359409789047717,
        70.306944953726031,
        70.665544695305513,
        71.145901500430682,
        71.550611556147601,
        71.626981056859407,
        72.034865359991954,
        72.43336056380933,
        72.473136022618888,
        72.643999268783091,
        72.574373555687004,
        72.565019524119677,
        72.525394155606762,
        72.485677850250127,
        72.553941381431855,
        72.524922000974911,
        72.495851934551482,
        72.466732972928213,
        72.437566886966934,
        72.63570091691227,
        72.351811014989451,
        72.463111766638676,
        72.481854377864835,
        72.546511587697992,
        72.414068487227752,
        72.124467426348076,
        69.906719521482358,
        70.361212469009232,
        70.778425373992263,
        71.024359192973492,
        70.819323517656599,
        70.868875578648726,
        71.073124132105008,
        71.024645490099971,
        71.04523505314161,
        71.047436017966248,
        70.963385526717929,
        70.976700168896201,
        70.819965622138426,
        70.768965778037199,
        70.664155173977377,
        70.757983398945427,
        70.70282753921893,
        70.880072214668957,
        70.790446183700055,
        70.79118678533149,
        70.874254474837869,
        70.828127957171915,
        70.83091414487933,
        70.867131494706456,
        70.903273236121791,
        70.939339684152543,
        70.925224866605575,
        70.911100716309207,
        70.901417476071828,
        70.539744288613065,
        70.693861154909541,
        70.71046987375972,
        70.78175258522046,
        70.852740804855813,
        69.70091396476046,
        69.472359074310106,
        69.747339223361166,
        69.823587621699417,
        69.899500552124834,
        70.147346836935057,
        70.318086917679437,
        70.27345476992987,
        70.421413840179184,
        70.518407925523945,
        70.568760664066517,
        70.618967341039649,
        70.649481198690211,
        70.59807333950215,
        70.603358589460328,
        70.615624033698239,
        70.796652612089105,
        70.718505666767655,
        70.750160159921492,
        70.766044890568196,
        70.789766188844197,
        70.764713336688402,
        70.742941420585325,
        70.806218293340294,
        70.869264694817019,
        70.905841917409774,
        70.902569669031479,
        70.872466721297542,
        70.834550966459773,
        70.808373082976004,
        70.791252846848749,
        70.77840261525607,
        70.782436125110834,
        70.839588510596215,
        70.882829586758973,
        70.903009670598223,
        70.935860092976966,
        70.939910765909573,
        70.90855755312046,
        70.896856318120399,
        70.888122298715615,
        70.836262701284937,
        70.754089607725732,
        70.696708202309168,
        70.798769653888286,
        70.900234004812646,
        71.012274215453829,
        71.040140650054099,
        71.083946804031356,
        71.085254030437412,
        70.997909554241105,
        70.956402097914506,
        70.970186111545317,
        70.987192488057474,
        70.999084264107125,
        71.030958610232503,
        71.052800232870041,
        71.046513217898948,
        71.010930428846478,
        70.965343997024647,
        70.964500409484884,
        70.937590864342098,
        70.910640484102274,
        70.917854138139603,
        70.95816834470034,
        70.990040985379466,
        70.998720525884792,
        71.025394271741476,
        71.095048860688138,
        71.141981490467259,
        71.151513110166562,
        71.091328033083741,
        71.084365162103751,
        71.04933701214857,
        71.014864181004612,
        71.03019509247342,
        71.06328388142822,
        71.073074077176884,
        71.082491454531279,
        71.127238859123679,
        71.082990783179724,
        71.029460376041271,
        71.146773416237224,
        71.079184281509626,
        70.989616027518224,
        70.977438215856083,
        70.875871765045062,
        70.884877963720712,
        71.004241015660881,
        71.067891980822452,
        71.071887342046551,
        71.044180845813514,
        71.023312290191711,
        71.002420651853214,
        70.869546010081564,
        70.969444559844163,
        70.942252901030287,
        70.990156587826121,
        71.072752381800086,
        70.610314061429563,
        35.674448516916726,
        34.834822087942591,
        35.704103970363356,
        34.550839609390707,
        35.720057855697988,
        35.399950805986691,
        35.501477043305627,
        35.602412173708601,
        34.577206642026795,
        41.4407868887128,
        41.452360404710532,
        45.971941227341787,
        45.953885661384192,
        45.935817954717798,
        46.08998993884591,
        47.020000164129371,
        45.958857718477439,
        46.347335714107054,
        45.199863335286743,
        46.005675911604939,
        0.0,
        35.348545240580876,
        0.0,
        0.0,
        46.877622488103029,
        46.86840998402684,
        46.859194554070655,
        37.682399482368609,
        45.941181861295149,
        45.35308689492377,
        46.089881762518708,
        45.827077106302653,
        47.117743822640271,
        46.903503486950555,
        45.591280512870867,
        45.619092381131296,
        0.0,
        0.0,
        46.698026483917545,
        46.564032027721261,
        45.50203289377319,
        0.0,
        0.0,
        45.906738825495083,
        46.418472505690403,
        0.0,
        0.0,
        0.0,
        46.029656025153081,
        46.372482664575422,
        46.022726929092833,
        0.0,
        0.0,
        0.0,
        46.109582347355349,
        0.0,
        0.0,
        46.274068276664202,
        46.785800504435237,
        46.611807497795439,
        0.0,
        42.121490178064249,
        53.213633547778521,
        46.239894034295503,
        47.420930232678415,
        46.532925228816083,
        47.397115797363334,
        45.734285019805213,
        45.959180243758347,
        0.0,
        0.0,
        0.0,
        0.0,
        46.999557154436545,
        45.584230593330631,
        0.0,
        37.342103115779487,
        0.0,
        0.0,
        0.0,
        0.0,
        0.0,
        0.0,
        0.0,
        0.0,
        0.0,
        0.0,
        0.0,
        0.0,
        0.0,
        0.0,
        0.0,
        0.0,
        0.0,
        0.0,
        0.0,
        0.0,
        0.0,
        0.0,
        0.0,
        0.0,
        0.0,
        0.0,
        0.0,
        0.0,
        0.0,
        0.0,
        0.0,
        0.0,
        0.0,
        0.0,
        0.0,
        0.0,
        0.0
    ],
    "time": [
        0.02,
        0.040000000000000001,
        0.059999999999999998,
        0.080000000000000002,
        0.10000000000000001,
        0.12,
        0.14000000000000001,
        0.16,
        0.17999999999999999,
        0.20000000000000001,
        0.22,
        0.23999999999999999,
        0.26000000000000001,
        0.28000000000000003,
        0.29999999999999999,
        0.32000000000000001,
        0.34000000000000002,
        0.35999999999999999,
        0.38,
        0.40000000000000002,
        0.41999999999999998,
        0.44,
        0.46000000000000002,
        0.47999999999999998,
        0.5,
        0.52000000000000002,
        0.54000000000000004,
        0.56000000000000005,
        0.57999999999999996,
        0.59999999999999998,
        0.62,
        0.64000000000000001,
        0.66000000000000003,
        0.68000000000000005,
        0.69999999999999996,
        0.71999999999999997,
        0.73999999999999999,
        0.76000000000000001,
        0.78000000000000003,
        0.80000000000000004,
        0.81999999999999995,
        0.83999999999999997,
        0.85999999999999999,
        0.88,
        0.90000000000000002,
        0.92000000000000004,
        0.93999999999999995,
        0.95999999999999996,
        0.97999999999999998,
        1.0,
        1.02,
        1.04,
        1.0600000000000001,
        1.0800000000000001,
        1.1000000000000001,
        1.1200000000000001,
        1.1399999999999999,
        1.1599999999999999,
        1.1799999999999999,
        1.2,
        1.22,
        1.24,
        1.26,
        1.28,
        1.3,
        1.3200000000000001,
        1.3400000000000001,
        1.3600000000000001,
        1.3799999999999999,
        1.3999999999999999,
        1.4199999999999999,
        1.4399999999999999,
        1.46,
        1.48,
        1.5,
        1.52,
        1.54,
        1.5600000000000001,
        1.5800000000000001,
        1.6000000000000001,
        1.6200000000000001,
        1.6399999999999999,
        1.6599999999999999,
        1.6799999999999999,
        1.7,
        1.72,
        1.74,
        1.76,
        1.78,
        1.8,
        1.8200000000000001,
        1.8400000000000001,
        1.8600000000000001,
        1.8799999999999999,
        1.8999999999999999,
        1.9199999999999999,
        1.9399999999999999,
        1.96,
        1.98,
        2.0,
        2.02,
        2.04,
        2.0600000000000001,
        2.0800000000000001,
        2.1000000000000001,
        2.1200000000000001,
        2.1400000000000001,
        2.1600000000000001,
        2.1800000000000002,
        2.2000000000000002,
        2.2200000000000002,
        2.2400000000000002,
        2.2599999999999998,
        2.2799999999999998,
        2.2999999999999998,
        2.3199999999999998,
        2.3399999999999999,
        2.3599999999999999,
        2.3799999999999999,
        2.3999999999999999,
        2.4199999999999999,
        2.4399999999999999,
        2.46,
        2.48,
        2.5,
        2.52,
        2.54,
        2.5600000000000001,
        2.5800000000000001,
        2.6000000000000001,
        2.6200000000000001,
        2.6400000000000001,
        2.6600000000000001,
        2.6800000000000002,
        2.7000000000000002,
        2.7200000000000002,
        2.7400000000000002,
        2.7599999999999998,
        2.7799999999999998,
        2.7999999999999998,
        2.8199999999999998,
        2.8399999999999999,
        2.8599999999999999,
        2.8799999999999999,
        2.8999999999999999,
        2.9199999999999999,
        2.9399999999999999,
        2.96,
        2.98,
        3.0,
        3.02,
        3.04,
        3.0600000000000001,
        3.0800000000000001,
        3.1000000000000001,
        3.1200000000000001,
        3.1400000000000001,
        3.1600000000000001,
        3.1800000000000002,
        3.2000000000000002,
        3.2200000000000002,
        3.2400000000000002,
        3.2599999999999998,
        3.2799999999999998,
        3.2999999999999998,
        3.3199999999999998,
        3.3399999999999999,
        3.3599999999999999,
        3.3799999999999999,
        3.3999999999999999,
        3.4199999999999999,
        3.4399999999999999,
        3.46,
        3.48,
        3.5,
        3.52,
        3.54,
        3.5600000000000001,
        3.5800000000000001,
        3.6000000000000001,
        3.6200000000000001,
        3.6400000000000001,
        3.6600000000000001,
        3.6800000000000002,
        3.7000000000000002,
        3.7200000000000002,
        3.7400000000000002,
        3.7599999999999998,
        3.7799999999999998,
        3.7999999999999998,
        3.8199999999999998,
        3.8399999999999999,
        3.8599999999999999,
        3.8799999999999999,
        3.8999999999999999,
        3.9199999999999999,
        3.9399999999999999,
        3.96,
        3.98,
        4.0,
        4.0199999999999996,
        4.04,
        4.0599999999999996,
        4.0800000000000001,
        4.0999999999999996,
        4.1200000000000001,
        4.1399999999999997,
        4.1600000000000001,
        4.1799999999999997,
        4.2000000000000002,
        4.2199999999999998,
        4.2400000000000002,
        4.2599999999999998,
        4.2800000000000002,
        4.2999999999999998,
        4.3200000000000003,
        4.3399999999999999,
        4.3600000000000003,
        4.3799999999999999,
        4.4000000000000004,
        4.4199999999999999,
        4.4400000000000004,
        4.46,
        4.4800000000000004,
        4.5,
        4.5199999999999996,
        4.54,
        4.5599999999999996,
        4.5800000000000001,
        4.5999999999999996,
        4.6200000000000001,
        4.6399999999999997,
        4.6600000000000001,
        4.6799999999999997,
        4.7000000000000002,
        4.7199999999999998,
        4.7400000000000002,
        4.7599999999999998,
        4.7800000000000002,
        4.7999999999999998,
        4.8200000000000003,
        4.8399999999999999,
        4.8600000000000003,
        4.8799999999999999,
        4.9000000000000004,
        4.9199999999999999,
        4.9400000000000004,
        4.96,
        4.9800000000000004,
        5.0,
        5.0199999999999996,
        5.04,
        5.0599999999999996,
        5.0800000000000001,
        5.0999999999999996,
        5.1200000000000001,
        5.1399999999999997,
        5.1600000000000001,
        5.1799999999999997,
        5.2000000000000002,
        5.2199999999999998,
        5.2400000000000002,
        5.2599999999999998,
        5.2800000000000002,
        5.2999999999999998,
        5.3200000000000003,
        5.3399999999999999,
        5.3600000000000003,
        5.3799999999999999,
        5.4000000000000004,
        5.4199999999999999,
        5.4400000000000004,
        5.46,
        5.4800000000000004,
        5.5,
        5.5199999999999996,
        5.54,
        5.5599999999999996,
        5.5800000000000001,
        5.5999999999999996,
        5.6200000000000001,
        5.6399999999999997,
        5.6600000000000001,
        5.6799999999999997,
        5.7000000000000002,
        5.7199999999999998,
        5.7400000000000002,
        5.7599999999999998,
        5.7800000000000002,
        5.7999999999999998,
        5.8200000000000003,
        5.8399999999999999,
        5.8600000000000003,
        5.8799999999999999,
        5.9000000000000004,
        5.9199999999999999,
        5.9400000000000004,
        5.96,
        5.9800000000000004,
        6.0,
        6.0199999999999996,
        6.04,
        6.0599999999999996,
        6.0800000000000001,
        6.0999999999999996,
        6.1200000000000001,
        6.1399999999999997,
        6.1600000000000001,
        6.1799999999999997,
        6.2000000000000002,
        6.2199999999999998,
        6.2400000000000002,
        6.2599999999999998,
        6.2800000000000002,
        6.2999999999999998,
        6.3200000000000003,
        6.3399999999999999,
        6.3600000000000003,
        6.3799999999999999,
        6.4000000000000004,
        6.4199999999999999,
        6.4400000000000004,
        6.46,
        6.4800000000000004,
        6.5,
        6.5199999999999996,
        6.54,
        6.5599999999999996,
        6.5800000000000001,
        6.5999999999999996,
        6.6200000000000001,
        6.6399999999999997,
        6.6600000000000001,
        6.6799999999999997,
        6.7000000000000002,
        6.7199999999999998,
        6.7400000000000002,
        6.7599999999999998,
        6.7800000000000002,
        6.7999999999999998,
        6.8200000000000003,
        6.8399999999999999,
        6.8600000000000003,
        6.8799999999999999,
        6.9000000000000004,
        6.9199999999999999,
        6.9400000000000004,
        6.96,
        6.9800000000000004,
        7.0,
        7.0199999999999996,
        7.04,
        7.0599999999999996,
        7.0800000000000001,
        7.0999999999999996,
        7.1200000000000001,
        7.1399999999999997,
        7.1600000000000001,
        7.1799999999999997,
        7.2000000000000002,
        7.2199999999999998,
        7.2400000000000002,
        7.2599999999999998,
        7.2800000000000002,
        7.2999999999999998,
        7.3200000000000003,
        7.3399999999999999,
        7.3600000000000003,
        7.3799999999999999,
        7.4000000000000004,
        7.4199999999999999,
        7.4400000000000004,
        7.46,
        7.4800000000000004,
        7.5,
        7.5199999999999996,
        7.54,
        7.5599999999999996,
        7.5800000000000001,
        7.5999999999999996,
        7.6200000000000001,
        7.6399999999999997,
        7.6600000000000001,
        7.6799999999999997,
        7.7000000000000002,
        7.7199999999999998,
        7.7400000000000002,
        7.7599999999999998,
        7.7800000000000002,
        7.7999999999999998,
        7.8200000000000003,
        7.8399999999999999,
        7.8600000000000003,
        7.8799999999999999,
        7.9000000000000004,
        7.9199999999999999,
        7.9400000000000004,
        7.96,
        7.9800000000000004,
        8.0,
        8.0199999999999996,
        8.0399999999999991,
        8.0600000000000005,
        8.0800000000000001,
        8.0999999999999996,
        8.1199999999999992,
        8.1400000000000006,
        8.1600000000000001,
        8.1799999999999997,
        8.1999999999999993,
        8.2200000000000006,
        8.2400000000000002,
        8.2599999999999998,
        8.2799999999999994,
        8.3000000000000007,
        8.3200000000000003,
        8.3399999999999999,
        8.3599999999999994,
        8.3800000000000008,
        8.4000000000000004,
        8.4199999999999999,
        8.4399999999999995,
        8.4600000000000009,
        8.4800000000000004
    ]
}