{
    "DU": 0,
    "DV": 437,
    "F-measure": 0.5670261941448382,
    "F-measure Chroma": 0.6101694915254237,
    "FN": 0,
    "FNC": 0,
    "FNCch": 0,
    "FNI": 0,
    "FNIch": 0,
    "FP": 225,
    "GU": 225,
    "GV": 212,
    "Overall Accuracy": 0.42105263157894735,
    "Overall Chroma Accuracy": 0.45308924485125857,
    "Precision": 0.42105263157894735,
    "Precision Chroma": 0.45308924485125857,
    "Raw Chroma Accuracy": 0.9339622641509434,
    "Raw Pitch Accuracy": 0.8679245283018868,
    "Recall": 0.8679245283018868,
    "Recall Chroma": 0.9339622641509434,
    "TN": 0,
    "TO": 437,
    "TP": 212,
    "TPC": 184,
    "TPCch": 198,
    "TPI": 28,
    "TPIch": 14,
    "Voiced Chroma Accuracy": 0.9339622641509434,
    "Voiced Pitch Accuracy": 0.8679245283018868,
    "Voicing Accuracy": 0.4851258581235698,
    "Voicing Detection": 1.0,
    "Voicing False Alarm": 1.0
}