{
    "DU": 171,
    "DV": 191,
    "F-measure": 0.8892128279883382,
    "F-measure Chroma": 0.9212827988338194,
    "FN": 28,
    "FNC": 1,
    "FNCch": 1,
    "FNI": 27,
    "FNIch": 27,
    "FP": 10,
    "GU": 153,
    "GV": 209,
    "Overall Accuracy": 0.8425414364640884,
    "Overall Chroma Accuracy": 0.8729281767955801,
    "Precision": 0.9131736526946108,
    "Precision Chroma": 0.9461077844311377,
    "Raw Chroma Accuracy": 0.8325358851674641,
    "Raw Pitch Accuracy": 0.7799043062200957,
    "Recall": 0.8664772727272727,
    "Recall Chroma": 0.8977272727272727,
    "TN": 143,
    "TO": 362,
    "TP": 181,
    "TPC": 162,
    "TPCch": 173,
    "TPI": 19,
    "TPIch": 8,
    "Voiced Chroma Accuracy": 0.8277511961722488,
    "Voiced Pitch Accuracy": 0.7751196172248804,
    "Voicing Accuracy": 0.8950276243093923,
    "Voicing Detection": 0.8660287081339713,
    "Voicing False Alarm": 0.06535947712418301
}