{
    "DU": 53,
    "DV": 275,
    "F-measure": 0.825040128410915,
    "F-measure Chroma": 0.882825040128411,
    "FN": 10,
    "FNC": 0,
    "FNCch": 5,
    "FNI": 10,
    "FNIch": 5,
    "FP": 23,
    "GU": 66,
    "GV": 262,
    "Overall Accuracy": 0.7835365853658537,
    "Overall Chroma Accuracy": 0.8384146341463414,
    "Precision": 0.8081761006289309,
    "Precision Chroma": 0.8647798742138365,
    "Raw Chroma Accuracy": 0.9045801526717557,
    "Raw Pitch Accuracy": 0.816793893129771,
    "Recall": 0.8426229508196721,
    "Recall Chroma": 0.9016393442622951,
    "TN": 43,
    "TO": 328,
    "TP": 252,
    "TPC": 214,
    "TPCch": 232,
    "TPI": 38,
    "TPIch": 20,
    "Voiced Chroma Accuracy": 0.8854961832061069,
    "Voiced Pitch Accuracy": 0.816793893129771,
    "Voicing Accuracy": 0.899390243902439,
    "Voicing Detection": 0.9618320610687023,
    "Voicing False Alarm": 0.3484848484848485
}