{
    "DU": 141,
    "DV": 290,
    "F-measure": 0.7298701298701299,
    "F-measure Chroma": 0.7999999999999999,
    "FN": 28,
    "FNC": 5,
    "FNCch": 16,
    "FNI": 23,
    "FNIch": 12,
    "FP": 64,
    "GU": 177,
    "GV": 254,
    "Overall Accuracy": 0.6519721577726219,
    "Overall Chroma Accuracy": 0.7146171693735499,
    "Precision": 0.6972704714640199,
    "Precision Chroma": 0.7642679900744417,
    "Raw Chroma Accuracy": 0.8307086614173228,
    "Raw Pitch Accuracy": 0.6811023622047244,
    "Recall": 0.7656675749318801,
    "Recall Chroma": 0.8392370572207084,
    "TN": 113,
    "TO": 431,
    "TP": 226,
    "TPC": 168,
    "TPCch": 195,
    "TPI": 58,
    "TPIch": 31,
    "Voiced Chroma Accuracy": 0.7677165354330708,
    "Voiced Pitch Accuracy": 0.6614173228346457,
    "Voicing Accuracy": 0.7865429234338747,
    "Voicing Detection": 0.889763779527559,
    "Voicing False Alarm": 0.3615819209039548
}