{
    "f0": [
        0.0,
        0.0,
        0.0,
        0.0,
        0.0,
        0.0,
        0.0,
        0.0,
        0.0,
        0.0,
        0.0,
        0.0,
        40.716937852759401,
        40.939746220815216,
        41.405326787088242,
        42.150657006811201,
        43.296077938515062,
        43.033146323046637,
        43.301256490484647,
        44.240650251272413,
        45.685066499302948,
        44.761279242152824,
        44.635902878451979,
        44.561951793900718,
        44.761133234864808,
        44.904664908340045,
        44.406821044163102,
        44.572314470200411,
        45.003049693611182,
        44.476260208854626,
        43.192490720080762,
        43.587438608631608,
        43.924313093013055,
        43.632554236640431,
        42.900231500060897,
        43.273435886302906,
        43.721240909911444,
        43.569566192031196,
        43.438801868760002,
        43.622938173360104,
        44.161374524598827,
        43.817081977139033,
        44.033314393714896,
        44.197543978128842,
        43.810643521597058,
        43.684435887241925,
        43.543954111910743,
        43.041106958301413,
        42.964775211455979,
        43.3421063466199,
        43.502561079541188,
        43.018559340455106,
        43.453548739147138,
        43.486971554329749,
        43.499345435321416,
        43.785902304020048,
        43.587779964121225,
        43.352360154912631,
        44.399837523351593,
        43.286853974172196,
        43.395404537004623,
        43.819881958132044,
        0.0,
        0.0,
        46.938481953256002,
        47.993018397527038,
        36.009810471709898,
        36.446499952814044,
        37.771555905815255,
        37.969071021904639,
        38.540554190487832,
        39.094873188023577,
        39.633964268592337,
        41.889141320720242,
        41.166305774816266,
        41.060737648211045,
        41.720954758150469,
        42.615823817443882,
        41.924746466599949,
        42.429331824594705,
        42.554354786982799,
        42.489938012281456,
        42.375563479136133,
        42.285950830281955,
        42.305749288971654,
        42.195658908577435,
        42.502327930672422,
        42.279362209174081,
        42.413157462480413,
        42.482789174173426,
        42.493706323827936,
        42.574842109079441,
        42.520869046739236,
        42.43694131626377,
        42.352354037696287,
        42.282228352055967,
        42.097059854276701,
        41.76751311049545,
        41.681624718714254,
        41.924994596565504,
        41.978278495746189,
        42.207777200364838,
        42.206711968426788,
        41.802684495570432,
        41.938877252256674,
        41.805928184436333,
        41.991885567470113,
        41.892646072927256,
        41.908373498364739,
        41.864441223165848,
        41.786166633535601,
        42.094787776393517,
        41.87098107887455,
        41.798121366859725,
        41.908904655893608,
        42.027803657998483,
        42.152982614262847,
        42.20463753703136,
        41.994229791325942,
        42.124342808525753,
        42.149327735926981,
        42.193029747953815,
        42.16326515987604,
        42.194433213446672,
        42.256200758279761,
        42.143168413725988,
        41.954807829780819,
        41.725468672334543,
        41.800549719795868,
        41.809490128283514,
        42.02813290732491,
        42.042034332568619,
        42.555152697477403,
        42.252221387242422,
        42.294189430456228,
        42.353287296830509,
        42.457991955109208,
        42.513649939364839,
        42.557681950322234,
        42.530963227893245,
        41.884855284569475,
        42.382855763417759,
        44.04956794791655,
        41.858376881323039,
        41.593918059382176,
        41.463693369694482,
        41.422927850043919,
        41.621990180008105,
        41.597946475158757,
        42.104141269907302,
        42.201925198144764,
        42.289824171133986,
        42.221305305861819,
        42.161881601287305,
        42.284588457082094,
        42.214976893287279,
        42.249416502496366,
        42.10721383263229,
        42.24227615397713,
        42.376862856742349,
        42.373709201884594,
        42.380409963252625,
        42.446417882432705,
        42.49218247041081,
        42.52211888310363,
        42.394366467484453,
        42.379923837844473,
        42.245094928449589,
        41.416476475545217,
        41.784170058707346,
        42.492833357959526,
        42.290433570018756,
        41.812567938665424,
        41.63513651732746,
        41.67569546315336,
        41.629122669587908,
        41.591565753000992,
        41.813581267372875,
        42.002174199332408,
        41.785517620375394,
        41.467772656899399,
        41.535436687340408,
        41.949057203158212,
        42.147007204843895,
        42.326522836074943,
        42.250977369483067,
        42.300255901821266,
        42.270166318912757,
        42.225503133898307,
        42.116919414311837,
        42.179632152094989,
        42.12478933737799,
        42.143804342508794,
        42.174617399788588,
        42.154696517787983,
        42.158841351841431,
        42.163903131888439,
        42.123280792888814,
        42.143128690604236,
        42.099883947628044,
        42.019997942614097,
        42.114391685734077,
        42.157945586412431,
        42.205536438500147,
        42.17618780390967,
        42.131343419824908,
        42.101817464737238,
        42.356749763931681,
        41.917007538219217,
        41.645021292704278,
        41.351228780715253,
        39.307235705874135,
        42.333083806291192,
        42.986037282972866,
        43.656849733841078,
        44.398821909673877,
        45.569643493048233,
        45.291892016482734,
        44.724552106865225,
        42.898040749798398,
        45.527246761850293,
        46.013712655407382,
        43.731797312871507,
        46.046416629468702,
        46.278077267275968,
        46.272296750078574,
        46.205918781143822,
        45.989482417374589,
        45.813875659269897,
        45.845561661211647,
        46.110339149104774,
        46.220858278645053,
        46.319612374651854,
        46.209297381552503,
        46.145110422486553,
        45.906033561634864,
        45.632464080400638,
        46.641521372262062,
        44.479451734444623,
        43.400127958332057,
        43.851024935312779,
        43.476293632204573,
        42.975557407203631,
        43.38829185406685,
        42.710566364267436,
        43.721708924769409,
        43.884163900406612,
        43.558490276055394,
        43.519818762530946,
        43.570355238583588,
        43.480536278500793,
        43.175269147035635,
        43.527691922907984,
        43.627312685169983,
        43.324121591645749,
        43.346169187279031,
        43.546159980733322,
        43.367762608249521,
        43.043637221944429,
        42.99461407923161,
        42.89848411079781,
        42.910043206635699,
        42.557773108896512,
        44.834819654003304,
        41.217846977523728,
        0.0,
        0.0,
        0.0,
        0.0,
        0.0,
        0.0,
        40.702416524499213,
        41.1753777174319,
        41.219984732051074,
        41.461863912316581,
        41.638550113481443,
        41.203714476437071,
        41.863337298677479,
        42.152490060540018,
        42.043518608495845,
        41.751462903860528,
        41.910687479973895,
        41.622746160769779,
        41.822797829592282,
        41.103667892061367,
        41.339913705044268,
        41.472107233512673,
        41.433499785206848,
        41.504965563113032,
        41.619049154402362,
        41.665849943645995,
        41.758217714700962,
        41.790536464167403,
        41.638137497839267,
        41.877634764274916,
        41.800632079010981,
        41.436127355292783,
        42.119716106638208,
        42.516119862816254,
        42.919057074074757,
        42.609406551406131,
        42.501456672185363,
        42.509285516281246,
        42.569445776258696,
        42.392269939792449,
        42.380180909252445,
        42.178484606154932,
        41.944787478728742,
        41.528264141215388,
        41.628687838806535,
        42.066885057156462,
        42.367587248255518,
        42.420162295526339,
        42.336624474108127,
        42.297837773465105,
        42.227059138756118,
        42.258239333619429,
        42.102327091307821,
        41.91283317271234,
        40.930123272063888,
        41.848751606560384,
        41.628181669783004,
        43.774600445086065,
        42.537154884256758,
        42.714603411547714,
        42.624423472398604,
        42.571446532347075,
        42.515740177020241,
        42.774969110026205,
        42.628191506564036,
        42.775126065865578,
        41.905226671961564,
        41.292188112787336,
        41.056948882774222,
        40.989941690783894,
        40.791884211975997,
        40.956425371856206,
        41.26293779231402,
        41.14783874960316,
        41.051889117702999,
        40.960298605122425,
        40.903429609772246,
        41.673127274809595,
        41.468087833666509,
        41.919485274279886,
        42.297572485420901,
        42.886290478269139,
        42.595012618799373,
        42.045482698037716,
        41.851277829501939,
        41.552847454495463,
        41.143464293169387,
        41.413786870299063,
        41.309162996299833,
        41.354984972008793,
        41.290840400204516,
        41.366060340114117,
        41.267890180436837,
        41.310396317671042,
        41.319143521466643,
        41.316110481936541,
        41.289842221942791,
        41.390679673557464,
        41.392802009235211,
        41.357448115407294,
        41.512501600624645,
        42.149380062590041,
        42.040102716296012,
        43.853814387698911,
        42.679321791834241,
        41.862696831750192,
        42.651761640588454,
        42.256355665240221,
        41.737463858404524,
        40.997202885521659,
        41.588189646336637,
        41.466118898109166,
        41.654004553386727,
        41.909843502349233,
        41.94910882465436,
        41.943649984538268,
        41.997887606874436,
        41.806097015279207,
        42.005604879664332,
        42.373618351115503,
        42.378996225086297,
        42.107538785130089,
        42.212242139182202,
        42.130643504644915,
        42.194710080450193,
        42.036678866057493,
        41.948255079187511,
        41.792152324908372,
        41.599590562695205,
        41.816866042502404,
        41.485164806022155,
        41.069317997692067,
        41.553632771593684,
        41.556160179153402,
        41.270577167591092,
        41.458565535426722,
        41.893203513250157,
        42.268071465725754,
        42.558395257879539,
        42.401913255461523,
        42.366925954315327,
        41.600071327751735,
        41.50691082877897,
        41.673780514938166,
        41.88533101892471,
        42.270288670553128,
        42.363729802306935,
        42.363353724065632,
        42.335929872261666,
        42.496416439574531,
        42.669110473303604,
        42.779608281530457,
        43.502083327197951,
        43.629511877037174,
        44.430435706773316,
        44.31509159552337,
        44.862704645610037,
        44.613887207588085,
        44.536623096848452,
        44.325847683938889,
        44.182131400315853,
        44.121170603150176,
        44.189546824852492,
        44.119623018351817,
        44.129290423652975,
        44.107295522601234,
        44.187810377385645,
        44.081345433914265,
        43.748170992461098,
        43.766744495053459,
        43.876247353894293,
        40.783376449734867,
        42.502845174202676,
        0.0,
        41.080821721290008,
        41.394770384525202,
        41.389901664192074,
        41.565264313858393,
        41.713765819872535,
        41.837582798749921,
        41.727506822376156,
        41.491656749632419,
        41.837539534319106,
        42.573778403545987,
        43.302908147727265,
        43.7558779313215,
        44.231724027023205,
        44.979146062613843,
        45.038307254343849,
        44.345340951382795,
        44.204309158194967,
        44.219155726462567,
        44.130152837718029,
        44.118493621350581,
        44.198828125089463,
        44.229082681125348,
        44.13386316098358,
        44.265251498427858,
        44.376125094479221,
        44.179767140274905,
        44.108922584918787,
        44.271048555578517,
        44.431798162882899,
        44.28411481758463,
        43.770727153986009,
        44.027085393649699,
        44.099209809052226,
        44.177570075740363,
        44.240095580452468,
        43.994868309180958,
        45.101660388642124,
        0.0,
        0.0,
        0.0,
        38.345340841325083,
        39.10629444660114,
        38.503252744089068,
        38.844798019350478,
        38.975604544365069,
        39.263457215208646,
        39.551306950172936,
        39.52335561613225,
        39.495400609849284,
        40.986170539741806,
        41.389166468465753,
        41.511165155059011,
        41.444094645629434,
        41.765506984227656,
        42.041243787012164,
        42.102966010472706,
        42.07295918973827,
        42.044571153726515,
        41.999121493656666,
        42.271476578951095,
        41.911333322711499,
        41.942032428474789,
        42.263224395423975,
        41.995009755817904,
        42.162625681046329,
        42.028405159274413,
        42.07003824255569,
        42.200251116159947,
        42.068254789120878,
        42.069256058567426,
        42.020773756054965,
        41.97214236495698,
        42.046010972281252,
        42.064961805626226,
        42.101878494193564,
        42.035688598336222,
        42.077279968125879,
        42.021100335074237,
        42.068195132438582,
        42.078142839227745,
        42.07190986016407,
        42.081038201854177,
        42.094485294120595,
        42.053624357684271,
        42.059855342593735,
        42.097860696702767,
        42.162460291549124,
        42.252856089622298,
        42.319642798517307,
        42.340402443882333,
        42.316353736104091,
        42.368139314983182,
        42.326583078519896,
        42.360022729115911,
        42.407748146005524,
        42.059311822702803,
        41.881190844055723,
        41.726944021082147,
        41.481472048734688,
        41.25530110162606,
        40.889371463484821,
        41.065472241750875,
        41.178125418512288,
        41.245310672216746,
        41.160888302211838,
        41.010575111079845,
        41.144585000236034,
        0.0,
        0.0,
        0.0,
        0.0,
        0.0,
        0.0,
        0.0,
        0.0,
        0.0,
        0.0,
        0.0,
        0.0,
        0.0,
        0.0,
        0.0
    ],
    "time": [
        0.02,
        0.040000000000000001,
        0.059999999999999998,
        0.080000000000000002,
        0.10000000000000001,
        0.12,
        0.14000000000000001,
        0.16,
        0.17999999999999999,
        0.20000000000000001,
        0.22,
        0.23999999999999999,
        0.26000000000000001,
        0.28000000000000003,
        0.29999999999999999,
        0.32000000000000001,
        0.34000000000000002,
        0.35999999999999999,
        0.38,
        0.40000000000000002,
        0.41999999999999998,
        0.44,
        0.46000000000000002,
        0.47999999999999998,
        0.5,
        0.52000000000000002,
        0.54000000000000004,
        0.56000000000000005,
        0.57999999999999996,
        0.59999999999999998,
        0.62,
        0.64000000000000001,
        0.66000000000000003,
        0.68000000000000005,
        0.69999999999999996,
        0.71999999999999997,
        0.73999999999999999,
        0.76000000000000001,
        0.78000000000000003,
        0.80000000000000004,
        0.81999999999999995,
        0.83999999999999997,
        0.85999999999999999,
        0.88,
        0.90000000000000002,
        0.92000000000000004,
        0.93999999999999995,
        0.95999999999999996,
        0.97999999999999998,
        1.0,
        1.02,
        1.04,
        1.0600000000000001,
        1.0800000000000001,
        1.1000000000000001,
        1.1200000000000001,
        1.1399999999999999,
        1.1599999999999999,
        1.1799999999999999,
        1.2,
        1.22,
        1.24,
        1.26,
        1.28,
        1.3,
        1.3200000000000001,
        1.3400000000000001,
        1.3600000000000001,
        1.3799999999999999,
        1.3999999999999999,
        1.4199999999999999,
        1.4399999999999999,
        1.46,
        1.48,
        1.5,
        1.52,
        1.54,
        1.5600000000000001,
        1.5800000000000001,
        1.6000000000000001,
        1.6200000000000001,
        1.6399999999999999,
        1.6599999999999999,
        1.6799999999999999,
        1.7,
        1.72,
        1.74,
        1.76,
        1.78,
        1.8,
        1.8200000000000001,
        1.8400000000000001,
        1.8600000000000001,
        1.8799999999999999,
        1.8999999999999999,
        1.9199999999999999,
        1.9399999999999999,
        1.96,
        1.98,
        2.0,
        2.02,
        2.04,
        2.0600000000000001,
        2.0800000000000001,
        2.1000000000000001,
        2.1200000000000001,
        2.1400000000000001,
        2.1600000000000001,
        2.1800000000000002,
        2.2000000000000002,
        2.2200000000000002,
        2.2400000000000002,
        2.2599999999999998,
        2.2799999999999998,
        2.2999999999999998,
        2.3199999999999998,
        2.3399999999999999,
        2.3599999999999999,
        2.3799999999999999,
        2.3999999999999999,
        2.4199999999999999,
        2.4399999999999999,
        2.46,
        2.48,
        2.5,
        2.52,
        2.54,
        2.5600000000000001,
        2.5800000000000001,
        2.6000000000000001,
        2.6200000000000001,
        2.6400000000000001,
        2.6600000000000001,
        2.6800000000000002,
        2.7000000000000002,
        2.7200000000000002,
        2.7400000000000002,
        2.7599999999999998,
        2.7799999999999998,
        2.7999999999999998,
        2.8199999999999998,
        2.8399999999999999,
        2.8599999999999999,
        2.8799999999999999,
        2.8999999999999999,
        2.9199999999999999,
        2.9399999999999999,
        2.96,
        2.98,
        3.0,
        3.02,
        3.04,
        3.0600000000000001,
        3.0800000000000001,
        3.1000000000000001,
        3.1200000000000001,
        3.1400000000000001,
        3.1600000000000001,
        3.1800000000000002,
        3.2000000000000002,
        3.2200000000000002,
        3.2400000000000002,
        3.2599999999999998,
        3.2799999999999998,
        3.2999999999999998,
        3.3199999999999998,
        3.3399999999999999,
        3.3599999999999999,
        3.3799999999999999,
        3.3999999999999999,
        3.4199999999999999,
        3.4399999999999999,
        3.46,
        3.48,
        3.5,
        3.52,
        3.54,
        3.5600000000000001,
        3.5800000000000001,
        3.6000000000000001,
        3.6200000000000001,
        3.6400000000000001,
        3.6600000000000001,
        3.6800000000000002,
        3.7000000000000002,
        3.7200000000000002,
        3.7400000000000002,
        3.7599999999999998,
        3.7799999999999998,
        3.7999999999999998,
        3.8199999999999998,
        3.8399999999999999,
        3.8599999999999999,
        3.8799999999999999,
        3.8999999999999999,
        3.9199999999999999,
        3.9399999999999999,
        3.96,
        3.98,
        4.0,
        4.0199999999999996,
        4.04,
        4.0599999999999996,
        4.0800000000000001,
        4.0999999999999996,
        4.1200000000000001,
        4.1399999999999997,
        4.1600000000000001,
        4.1799999999999997,
        4.2000000000000002,
        4.2199999999999998,
        4.2400000000000002,
        4.2599999999999998,
        4.2800000000000002,
        4.2999999999999998,
        4.3200000000000003,
        4.3399999999999999,
        4.3600000000000003,
        4.3799999999999999,
        4.4000000000000004,
        4.4199999999999999,
        4.4400000000000004,
        4.46,
        4.4800000000000004,
        4.5,
        4.5199999999999996,
        4.54,
        4.5599999999999996,
        4.5800000000000001,
        4.5999999999999996,
        4.6200000000000001,
        4.6399999999999997,
        4.6600000000000001,
        4.6799999999999997,
        4.7000000000000002,
        4.7199999999999998,
        4.7400000000000002,
        4.7599999999999998,
        4.7800000000000002,
        4.7999999999999998,
        4.8200000000000003,
        4.8399999999999999,
        4.8600000000000003,
        4.8799999999999999,
        4.9000000000000004,
        4.9199999999999999,
        4.9400000000000004,
        4.96,
        4.9800000000000004,
        5.0,
        5.0199999999999996,
        5.04,
        5.0599999999999996,
        5.0800000000000001,
        5.0999999999999996,
        5.1200000000000001,
        5.1399999999999997,
        5.1600000000000001,
        5.1799999999999997,
        5.2000000000000002,
        5.2199999999999998,
        5.2400000000000002,
        5.2599999999999998,
        5.2800000000000002,
        5.2999999999999998,
        5.3200000000000003,
        5.3399999999999999,
        5.3600000000000003,
        5.3799999999999999,
        5.4000000000000004,
        5.4199999999999999,
        5.4400000000000004,
        5.46,
        5.4800000000000004,
        5.5,
        5.5199999999999996,
        5.54,
        5.5599999999999996,
        5.5800000000000001,
        5.5999999999999996,
        5.6200000000000001,
        5.6399999999999997,
        5.6600000000000001,
        5.6799999999999997,
        5.7000000000000002,
        5.7199999999999998,
        5.7400000000000002,
        5.7599999999999998,
        5.7800000000000002,
        5.7999999999999998,
        5.8200000000000003,
        5.8399999999999999,
        5.8600000000000003,
        5.8799999999999999,
        5.9000000000000004,
        5.9199999999999999,
        5.9400000000000004,
        5.96,
        5.9800000000000004,
        6.0,
        6.0199999999999996,
        6.04,
        6.0599999999999996,
        6.0800000000000001,
        6.0999999999999996,
        6.1200000000000001,
        6.1399999999999997,
        6.1600000000000001,
        6.1799999999999997,
        6.2000000000000002,
        6.2199999999999998,
        6.2400000000000002,
        6.2599999999999998,
        6.2800000000000002,
        6.2999999999999998,
        6.3200000000000003,
        6.3399999999999999,
        6.3600000000000003,
        6.3799999999999999,
        6.4000000000000004,
        6.4199999999999999,
        6.4400000000000004,
        6.46,
        6.4800000000000004,
        6.5,
        6.5199999999999996,
        6.54,
        6.5599999999999996,
        6.5800000000000001,
        6.5999999999999996,
        6.6200000000000001,
        6.6399999999999997,
        6.6600000000000001,
        6.6799999999999997,
        6.7000000000000002,
        6.7199999999999998,
        6.7400000000000002,
        6.7599999999999998,
        6.7800000000000002,
        6.7999999999999998,
        6.8200000000000003,
        6.8399999999999999,
        6.8600000000000003,
        6.8799999999999999,
        6.9000000000000004,
        6.9199999999999999,
        6.9400000000000004,
        6.96,
        6.9800000000000004,
        7.0,
        7.0199999999999996,
        7.04,
        7.0599999999999996,
        7.0800000000000001,
        7.0999999999999996,
        7.1200000000000001,
        7.1399999999999997,
        7.1600000000000001,
        7.1799999999999997,
        7.2000000000000002,
        7.2199999999999998,
        7.2400000000000002,
        7.2599999999999998,
        7.2800000000000002,
        7.2999999999999998,
        7.3200000000000003,
        7.3399999999999999,
        7.3600000000000003,
        7.3799999999999999,
        7.4000000000000004,
        7.4199999999999999,
        7.4400000000000004,
        7.46,
        7.4800000000000004,
        7.5,
        7.5199999999999996,
        7.54,
        7.5599999999999996,
        7.5800000000000001,
        7.5999999999999996,
        7.6200000000000001,
        7.6399999999999997,
        7.6600000000000001,
        7.6799999999999997,
        7.7000000000000002,
        7.7199999999999998,
        7.7400000000000002,
        7.7599999999999998,
        7.7800000000000002,
        7.7999999999999998,
        7.8200000000000003,
        7.8399999999999999,
        7.8600000000000003,
        7.8799999999999999,
        7.9000000000000004,
        7.9199999999999999,
        7.9400000000000004,
        7.96,
        7.9800000000000004,
        8.0,
        8.0199999999999996,
        8.0399999999999991,
        8.0600000000000005,
        8.0800000000000001,
        8.0999999999999996,
        8.1199999999999992,
        8.1400000000000006,
        8.1600000000000001,
        8.1799999999999997,
        8.1999999999999993,
        8.2200000000000006,
        8.2400000000000002,
        8.2599999999999998,
        8.2799999999999994,
        8.3000000000000007,
        8.3200000000000003,
        8.3399999999999999,
        8.3599999999999994,
        8.3800000000000008,
        8.4000000000000004,
        8.4199999999999999,
        8.4399999999999995,
        8.4600000000000009,
        8.4800000000000004,
        8.5,
        8.5199999999999996,
        8.5399999999999991,
        8.5600000000000005,
        8.5800000000000001,
        8.5999999999999996,
        8.6199999999999992,
        8.6400000000000006,
        8.6600000000000001,
        8.6799999999999997,
        8.6999999999999993,
        8.7200000000000006,
        8.7400000000000002,
        8.7599999999999998,
        8.7799999999999994,
        8.8000000000000007,
        8.8200000000000003,
        8.8399999999999999,
        8.8599999999999994,
        8.8800000000000008,
        8.9000000000000004,
        8.9199999999999999,
        8.9399999999999995,
        8.9600000000000009,
        8.9800000000000004,
        9.0,
        9.0199999999999996,
        9.0399999999999991,
        9.0600000000000005,
        9.0800000000000001,
        9.0999999999999996,
        9.1199999999999992,
        9.1400000000000006,
        9.1600000000000001,
        9.1799999999999997,
        9.1999999999999993,
        9.2200000000000006,
        9.2400000000000002,
        9.2599999999999998,
        9.2799999999999994,
        9.3000000000000007,
        9.3200000000000003,
        9.3399999999999999,
        9.3599999999999994,
        9.3800000000000008,
        9.4000000000000004,
        9.4199999999999999,
        9.4399999999999995,
        9.4600000000000009,
        9.4800000000000004,
        9.5,
        9.5199999999999996,
        9.5399999999999991,
        9.5600000000000005,
        9.5800000000000001,
        9.5999999999999996,
        9.6199999999999992,
        9.6400000000000006,
        9.6600000000000001,
        9.6799999999999997,
        9.6999999999999993,
        9.7200000000000006,
        9.7400000000000002,
        9.7599999999999998,
        9.7799999999999994,
        9.8000000000000007,
        9.8200000000000003,
        9.8399999999999999,
        9.8599999999999994,
        9.8800000000000008,
        9.9000000000000004,
        9.9199999999999999,
        9.9399999999999995,
        9.9600000000000009,
        9.9800000000000004,
        10.0,
        10.02,
        10.039999999999999,
        10.06,
        10.08,
        10.1,
        10.119999999999999,
        10.140000000000001,
        10.16,
        10.18,
        10.199999999999999,
        10.220000000000001,
        10.24,
        10.26,
        10.279999999999999,
        10.300000000000001,
        10.32,
        10.34,
        10.359999999999999,
        10.380000000000001,
        10.4,
        10.42,
        10.44,
        10.460000000000001,
        10.48,
        10.5,
        10.52,
        10.539999999999999,
        10.56,
        10.58,
        10.6,
        10.619999999999999,
        10.640000000000001,
        10.66,
        10.68,
        10.699999999999999,
        10.720000000000001,
        10.74,
        10.76,
        10.779999999999999,
        10.800000000000001,
        10.82,
        10.84,
        10.859999999999999,
        10.880000000000001,
        10.9,
        10.92,
        10.94,
        10.960000000000001,
        10.98,
        11.0,
        11.02,
        11.039999999999999,
        11.06,
        11.08,
        11.1,
        11.119999999999999,
        11.140000000000001,
        11.16,
        11.18,
        11.199999999999999,
        11.220000000000001
    ]
}