{
    "f0": [
        0.0,
        0.0,
        0.0,
        0.0,
        0.0,
        52.30354546988346,
        51.984418810985936,
        52.01094888534098,
        52.068128207668579,
        52.047303564943618,
        52.0448369278798,
        52.165487278817295,
        52.438001748924236,
        52.270971624061289,
        52.795036474412697,
        53.018092302832684,
        53.489146412711349,
        53.516452097987063,
        53.261826283412006,
        53.110002201566573,
        53.300864230096792,
        53.342146186526655,
        53.358789099143863,
        53.232964972142014,
        53.198761924135738,
        53.41909927551302,
        53.112590675077485,
        53.118699478602309,
        52.939964902744883,
        53.10413552618224,
        52.931534297104768,
        52.966840346007601,
        52.965814071579658,
        52.975479460710758,
        52.449645172751659,
        52.397356553048176,
        51.847772832760739,
        51.513071923630832,
        52.20530513905787,
        51.757838445526644,
        51.67344930150189,
        51.535171175770849,
        51.593458583407639,
        51.68033565388221,
        51.666686032746824,
        51.536624964158108,
        51.613939598578852,
        51.603199509874059,
        51.468748857990697,
        51.530223021471912,
        51.499284652524906,
        51.460063055075537,
        51.427050862593447,
        51.426171046200231,
        51.446384131827173,
        51.443764307889531,
        51.465621517587294,
        51.437693825793801,
        51.595527699966922,
        51.741573609494168,
        51.736636859679805,
        51.784800495921246,
        51.617910325814044,
        51.685828773171849,
        51.727001691406727,
        51.529032175558541,
        51.55256525195189,
        51.625488823526794,
        51.554191864652196,
        51.321358271118726,
        51.642641775988693,
        51.126698874373773,
        51.988799501101042,
        52.635658005532257,
        53.64872889701283,
        52.483917504489789,
        52.287019494330877,
        52.443009757651346,
        52.987548231192235,
        52.925754088856237,
        52.886015374089155,
        53.078407730067077,
        53.429539209317028,
        53.035244242970585,
        53.053162055577872,
        52.966447664894559,
        53.47406806012448,
        53.22036700553906,
        53.340637676912202,
        53.264414420435031,
        53.562647538209859,
        53.526732138688949,
        53.32767704406649,
        53.281763323212019,
        53.468919753107187,
        53.301023345855953,
        53.342141715046559,
        53.489993512610795,
        53.361216163181844,
        53.307311291057978,
        53.569125175770019,
        54.006908094292157,
        53.42612390550957,
        53.660398669406462,
        55.745636982092627,
        55.889945225116811,
        55.226540636900751,
        55.361119104381331,
        55.32389801416592,
        55.11805525088576,
        55.095587752739917,
        55.013008843897524,
        55.033997931005814,
        55.280037416718343,
        55.001425311985081,
        55.060250181249771,
        55.195826570279507,
        55.170108918985072,
        55.045840636166375,
        54.985285950275085,
        55.025775695749445,
        55.10887109646616,
        55.20296410162365,
        55.047016762200364,
        55.151746795554331,
        55.31789666715315,
        55.262549625763064,
        55.340768916209086,
        55.325392694813821,
        55.228418849499917,
        55.022320728110031,
        54.907258811661585,
        54.970350747153745,
        54.871102558527738,
        54.920974443126553,
        54.808056020549564,
        54.875565246560328,
        54.372763030028679,
        55.151891091282067,
        54.934525031049937,
        55.164295676811783,
        54.78238868333213,
        54.871285875717469,
        54.985399284345796,
        55.057546273207542,
        55.675170148059522,
        55.577111857343823,
        55.815684428993116,
        55.984692617829467,
        56.28040768449673,
        56.131199476949291,
        55.941833318035691,
        56.137672604879533,
        56.09806631281252,
        56.028698453968005,
        56.031489802778871,
        56.099655034259115,
        56.12174797282907,
        56.309526782841914,
        56.147189820965536,
        56.207678235728551,
        56.420142909829849,
        56.33622905910552,
        56.572944580071422,
        56.687334725209645,
        57.04842698289454,
        56.510756956107301,
        56.495396978128021,
        56.443171389781455,
        56.391512883133672,
        56.609014391892941,
        56.465270200546087,
        56.504954439977567,
        56.527117719907501,
        56.592858814589327,
        56.809978268433042,
        57.012216941678105,
        56.686785769348887,
        56.689919255299202,
        56.658144217205404,
        56.606476842815027,
        56.585794881870981,
        56.581738397403086,
        56.569272891580354,
        56.547025497450974,
        56.522020525597924,
        56.461158178494557,
        56.525977393542263,
        56.547783507282091,
        56.611664640431314,
        56.388134638710156,
        56.046447088624802,
        56.554986175519417,
        56.708971639331899,
        56.606163607932515,
        57.095711017819063,
        56.350183797211734,
        56.338141674805456,
        56.412477766256188,
        56.495809931432049,
        56.463021083885963,
        56.539856527746466,
        56.307611003065048,
        56.423956840062573,
        56.380924512842114,
        56.297071160698273,
        56.147945371081875,
        56.55635113698392,
        56.509888605033453,
        56.504166048014611,
        56.183339807207766,
        56.134379551378402,
        56.088992844136229,
        56.223527843259383,
        56.339533895402006,
        56.306293699571555,
        56.310112809242341,
        56.231816902001214,
        56.127353269485113,
        56.105899746165996,
        56.16023264905828,
        56.277274342855975,
        56.382764919827864,
        56.461445554204786,
        56.093074051403498,
        56.129550509486783,
        56.203294615620749,
        56.189818623812741,
        56.055047067510969,
        55.957544210919366,
        55.859752017975012,
        55.649333560529428,
        56.061125283452995,
        56.368399379631626,
        56.40257961079115,
        56.290951360828721,
        56.461293180728809,
        56.087424628423555,
        56.332694023171243,
        56.545892702018058,
        56.614622582007904,
        56.382956558176069,
        56.399235869465798,
        56.371401704312191,
        56.307061094488333,
        56.542010600858902,
        0.0,
        0.0,
        0.0,
        0.0,
        0.0,
        33.316115510073082,
        31.981044162924022,
        0.0,
        0.0,
        0.0,
        0.0,
        0.0,
        42.566582597809656,
        42.150518221155721,
        42.876446259015253,
        0.0,
        0.0,
        0.0,
        0.0,
        0.0,
        0.0,
        0.0,
        0.0,
        0.0,
        0.0,
        0.0,
        0.0,
        0.0,
        48.98016270740942,
        48.910177218994633,
        46.279571647404012,
        45.984347863736794,
        46.058391612588061,
        45.799992108877689,
        46.409501403544397,
        46.476437943828131,
        46.456766385596296,
        46.689806953140682,
        46.750183987142165,
        47.00399293090598,
        47.288791109063219,
        47.498985841418744,
        47.957215329727447,
        47.654200633143475,
        47.834160360583169,
        48.331972195145582,
        47.348666993695787,
        47.587827099042258,
        48.069233322587394,
        47.763130089177416,
        47.633130962788556,
        47.569542980175832,
        47.876846163608455,
        47.864720196661693,
        47.729502283918265,
        48.176042063417334,
        48.368604775293427,
        48.338136114222067,
        49.947370093743778,
        48.510367546135186,
        49.433119627269278,
        55.351963925892605,
        55.422273588256942,
        55.228432186739617,
        55.386840773159449,
        55.355949258188382,
        55.400881179914066,
        54.988248039920919,
        55.005401907681943,
        55.574889080610617,
        55.586004124800198,
        55.127368338714049,
        56.087167724790959,
        55.857326672428599,
        55.981488765096287,
        55.976331529345458,
        56.043021119703397,
        56.155714629812088,
        56.009329553741843,
        55.986840538710808,
        55.930812881567292,
        55.904945944858881,
        55.990096873235188,
        56.025662739338387,
        56.050946743395542,
        56.08109980860695,
        56.329459047086132,
        56.204515388239052,
        55.951485612615016,
        56.07599374725568,
        56.075450377593263,
        56.078763538575814,
        56.075126140641828,
        56.031588834586991,
        56.179106135873475,
        56.008219521358484,
        56.672665509391038,
        55.943565336756095,
        55.368205861757033,
        55.06378620917927,
        54.994481985341572,
        55.162439808217492,
        55.28542877213021,
        55.519744188971728,
        55.70358384988775,
        55.678533618844213,
        55.461559767316224,
        55.509358698381448,
        55.684773977098217,
        55.658370451011507,
        55.624192893604892,
        55.57107382768092,
        55.575762641300173,
        55.604250008844026,
        55.670391514808053,
        55.694592598211194,
        55.81739574851688,
        55.615101655158867,
        55.659039905185139,
        55.64276346544446,
        55.644310100111063,
        55.660251710405753,
        55.672359661937804,
        55.636190961180588,
        55.684990310388038,
        55.648579245284317,
        55.698955491348329,
        55.778372379459967,
        55.89080554958548,
        55.913828721128702,
        56.090064782913011,
        56.164976258572658,
        56.886172393901461,
        56.524053387558595,
        56.27248500097069,
        56.320925677889882,
        56.515386967804936,
        56.945838302951529,
        56.428172055559777,
        56.540126599549929,
        56.497576437223969,
        56.483716537401854,
        56.527706293020444,
        56.638861663774115,
        56.509720628673932,
        56.435406031141625,
        56.323847628020957,
        56.374205574602982,
        56.363302584257532,
        56.434356483446322,
        56.489900933781058,
        56.479819250894323,
        56.505199064162355,
        56.535176311124964,
        56.539559379245681,
        56.572032558781146,
        56.535200965450365,
        56.55978914217048,
        56.549844198941429,
        56.478287259114239,
        56.466060284592459,
        56.564647425684811,
        56.631910931312056,
        56.669003842468982,
        56.679930087510513,
        56.760110511044878,
        56.75647463685587,
        56.668899807893467,
        56.739159147986911,
        56.804414791244923,
        56.94811830674265,
        56.999003331346458,
        57.027270392343723,
        57.098804773660831,
        57.276324932646709,
        57.750606144197576,
        57.708591961684661,
        57.878519450394826,
        58.239664968584655,
        58.436057975947122,
        58.327480240026581,
        58.354503691136898,
        58.481025168986335,
        58.289574371893586,
        58.473197087412537,
        58.486041034845911,
        58.451028735521689,
        58.755400292057885,
        58.534424203439144,
        58.715199987557696,
        58.742113005588251,
        58.831750214625764,
        60.722897339224303,
        59.719267773939471,
        59.722428220863762,
        60.272795877889585,
        60.168076211847122,
        0.0,
        0.0,
        0.0,
        0.0,
        0.0,
        0.0,
        0.0,
        0.0,
        0.0,
        0.0,
        0.0,
        0.0,
        0.0,
        0.0,
        0.0,
        0.0
    ],
    "time": [
        0.02,
        0.040000000000000001,
        0.059999999999999998,
        0.080000000000000002,
        0.10000000000000001,
        0.12,
        0.14000000000000001,
        0.16,
        0.17999999999999999,
        0.20000000000000001,
        0.22,
        0.23999999999999999,
        0.26000000000000001,
        0.28000000000000003,
        0.29999999999999999,
        0.32000000000000001,
        0.34000000000000002,
        0.35999999999999999,
        0.38,
        0.40000000000000002,
        0.41999999999999998,
        0.44,
        0.46000000000000002,
        0.47999999999999998,
        0.5,
        0.52000000000000002,
        0.54000000000000004,
        0.56000000000000005,
        0.57999999999999996,
        0.59999999999999998,
        0.62,
        0.64000000000000001,
        0.66000000000000003,
        0.68000000000000005,
        0.69999999999999996,
        0.71999999999999997,
        0.73999999999999999,
        0.76000000000000001,
        0.78000000000000003,
        0.80000000000000004,
        0.81999999999999995,
        0.83999999999999997,
        0.85999999999999999,
        0.88,
        0.90000000000000002,
        0.92000000000000004,
        0.93999999999999995,
        0.95999999999999996,
        0.97999999999999998,
        1.0,
        1.02,
        1.04,
        1.0600000000000001,
        1.0800000000000001,
        1.1000000000000001,
        1.1200000000000001,
        1.1399999999999999,
        1.1599999999999999,
        1.1799999999999999,
        1.2,
        1.22,
        1.24,
        1.26,
        1.28,
        1.3,
        1.3200000000000001,
        1.3400000000000001,
        1.3600000000000001,
        1.3799999999999999,
        1.3999999999999999,
        1.4199999999999999,
        1.4399999999999999,
        1.46,
        1.48,
        1.5,
        1.52,
        1.54,
        1.5600000000000001,
        1.5800000000000001,
        1.6000000000000001,
        1.6200000000000001,
        1.6399999999999999,
        1.6599999999999999,
        1.6799999999999999,
        1.7,
        1.72,
        1.74,
        1.76,
        1.78,
        1.8,
        1.8200000000000001,
        1.8400000000000001,
        1.8600000000000001,
        1.8799999999999999,
        1.8999999999999999,
        1.9199999999999999,
        1.9399999999999999,
        1.96,
        1.98,
        2.0,
        2.02,
        2.04,
        2.0600000000000001,
        2.0800000000000001,
        2.1000000000000001,
        2.1200000000000001,
        2.1400000000000001,
        2.1600000000000001,
        2.1800000000000002,
        2.2000000000000002,
        2.2200000000000002,
        2.2400000000000002,
        2.2599999999999998,
        2.2799999999999998,
        2.2999999999999998,
        2.3199999999999998,
        2.3399999999999999,
        2.3599999999999999,
        2.3799999999999999,
        2.3999999999999999,
        2.4199999999999999,
        2.4399999999999999,
        2.46,
        2.48,
        2.5,
        2.52,
        2.54,
        2.5600000000000001,
        2.5800000000000001,
        2.6000000000000001,
        2.6200000000000001,
        2.6400000000000001,
        2.6600000000000001,
        2.6800000000000002,
        2.7000000000000002,
        2.7200000000000002,
        2.7400000000000002,
        2.7599999999999998,
        2.7799999999999998,
        2.7999999999999998,
        2.8199999999999998,
        2.8399999999999999,
        2.8599999999999999,
        2.8799999999999999,
        2.8999999999999999,
        2.9199999999999999,
        2.9399999999999999,
        2.96,
        2.98,
        3.0,
        3.02,
        3.04,
        3.0600000000000001,
        3.0800000000000001,
        3.1000000000000001,
        3.1200000000000001,
        3.1400000000000001,
        3.1600000000000001,
        3.1800000000000002,
        3.2000000000000002,
        3.2200000000000002,
        3.2400000000000002,
        3.2599999999999998,
        3.2799999999999998,
        3.2999999999999998,
        3.3199999999999998,
        3.3399999999999999,
        3.3599999999999999,
        3.3799999999999999,
        3.3999999999999999,
        3.4199999999999999,
        3.4399999999999999,
        3.46,
        3.48,
        3.5,
        3.52,
        3.54,
        3.5600000000000001,
        3.5800000000000001,
        3.6000000000000001,
        3.6200000000000001,
        3.6400000000000001,
        3.6600000000000001,
        3.6800000000000002,
        3.7000000000000002,
        3.7200000000000002,
        3.7400000000000002,
        3.7599999999999998,
        3.7799999999999998,
        3.7999999999999998,
        3.8199999999999998,
        3.8399999999999999,
        3.8599999999999999,
        3.8799999999999999,
        3.8999999999999999,
        3.9199999999999999,
        3.9399999999999999,
        3.96,
        3.98,
        4.0,
        4.0199999999999996,
        4.04,
        4.0599999999999996,
        4.0800000000000001,
        4.0999999999999996,
        4.1200000000000001,
        4.1399999999999997,
        4.1600000000000001,
        4.1799999999999997,
        4.2000000000000002,
        4.2199999999999998,
        4.2400000000000002,
        4.2599999999999998,
        4.2800000000000002,
        4.2999999999999998,
        4.3200000000000003,
        4.3399999999999999,
        4.3600000000000003,
        4.3799999999999999,
        4.4000000000000004,
        4.4199999999999999,
        4.4400000000000004,
        4.46,
        4.4800000000000004,
        4.5,
        4.5199999999999996,
        4.54,
        4.5599999999999996,
        4.5800000000000001,
        4.5999999999999996,
        4.6200000000000001,
        4.6399999999999997,
        4.6600000000000001,
        4.6799999999999997,
        4.7000000000000002,
        4.7199999999999998,
        4.7400000000000002,
        4.7599999999999998,
        4.7800000000000002,
        4.7999999999999998,
        4.8200000000000003,
        4.8399999999999999,
        4.8600000000000003,
        4.8799999999999999,
        4.9000000000000004,
        4.9199999999999999,
        4.9400000000000004,
        4.96,
        4.9800000000000004,
        5.0,
        5.0199999999999996,
        5.04,
        5.0599999999999996,
        5.0800000000000001,
        5.0999999999999996,
        5.1200000000000001,
        5.1399999999999997,
        5.1600000000000001,
        5.1799999999999997,
        5.2000000000000002,
        5.2199999999999998,
        5.2400000000000002,
        5.2599999999999998,
        5.2800000000000002,
        5.2999999999999998,
        5.3200000000000003,
        5.3399999999999999,
        5.3600000000000003,
        5.3799999999999999,
        5.4000000000000004,
        5.4199999999999999,
        5.4400000000000004,
        5.46,
        5.4800000000000004,
        5.5,
        5.5199999999999996,
        5.54,
        5.5599999999999996,
        5.5800000000000001,
        5.5999999999999996,
        5.6200000000000001,
        5.6399999999999997,
        5.6600000000000001,
        5.6799999999999997,
        5.7000000000000002,
        5.7199999999999998,
        5.7400000000000002,
        5.7599999999999998,
        5.7800000000000002,
        5.7999999999999998,
        5.8200000000000003,
        5.8399999999999999,
        5.8600000000000003,
        5.8799999999999999,
        5.9000000000000004,
        5.9199999999999999,
        5.9400000000000004,
        5.96,
        5.9800000000000004,
        6.0,
        6.0199999999999996,
        6.04,
        6.0599999999999996,
        6.0800000000000001,
        6.0999999999999996,
        6.1200000000000001,
        6.1399999999999997,
        6.1600000000000001,
        6.1799999999999997,
        6.2000000000000002,
        6.2199999999999998,
        6.2400000000000002,
        6.2599999999999998,
        6.2800000000000002,
        6.2999999999999998,
        6.3200000000000003,
        6.3399999999999999,
        6.3600000000000003,
        6.3799999999999999,
        6.4000000000000004,
        6.4199999999999999,
        6.4400000000000004,
        6.46,
        6.4800000000000004,
        6.5,
        6.5199999999999996,
        6.54,
        6.5599999999999996,
        6.5800000000000001,
        6.5999999999999996,
        6.6200000000000001,
        6.6399999999999997,
        6.6600000000000001,
        6.6799999999999997,
        6.7000000000000002,
        6.7199999999999998,
        6.7400000000000002,
        6.7599999999999998,
        6.7800000000000002,
        6.7999999999999998,
        6.8200000000000003,
        6.8399999999999999,
        6.8600000000000003,
        6.8799999999999999,
        6.9000000000000004,
        6.9199999999999999,
        6.9400000000000004,
        6.96,
        6.9800000000000004,
        7.0,
        7.0199999999999996,
        7.04,
        7.0599999999999996,
        7.0800000000000001,
        7.0999999999999996,
        7.1200000000000001,
        7.1399999999999997,
        7.1600000000000001,
        7.1799999999999997,
        7.2000000000000002,
        7.2199999999999998,
        7.2400000000000002,
        7.2599999999999998,
        7.2800000000000002,
        7.2999999999999998,
        7.3200000000000003,
        7.3399999999999999,
        7.3600000000000003,
        7.3799999999999999,
        7.4000000000000004,
        7.4199999999999999,
        7.4400000000000004,
        7.46,
        7.4800000000000004,
        7.5,
        7.5199999999999996,
        7.54,
        7.5599999999999996,
        7.5800000000000001,
        7.5999999999999996,
        7.6200000000000001,
        7.6399999999999997,
        7.6600000000000001,
        7.6799999999999997,
        7.7000000000000002,
        7.7199999999999998,
        7.7400000000000002,
        7.7599999999999998,
        7.7800000000000002,
        7.7999999999999998,
        7.8200000000000003,
        7.8399999999999999,
        7.8600000000000003,
        7.8799999999999999,
        7.9000000000000004,
        7.9199999999999999,
        7.9400000000000004,
        7.96,
        7.9800000000000004,
        8.0,
        8.0199999999999996,
        8.0399999999999991,
        8.0600000000000005,
        8.0800000000000001,
        8.0999999999999996,
        8.1199999999999992,
        8.1400000000000006,
        8.1600000000000001,
        8.1799999999999997,
        8.1999999999999993,
        8.2200000000000006,
        8.2400000000000002,
        8.2599999999999998,
        8.2799999999999994,
        8.3000000000000007,
        8.3200000000000003,
        8.3399999999999999,
        8.3599999999999994,
        8.3800000000000008,
        8.4000000000000004,
        8.4199999999999999,
        8.4399999999999995,
        8.4600000000000009,
        8.4800000000000004,
        8.5,
        8.5199999999999996,
        8.5399999999999991,
        8.5600000000000005,
        8.5800000000000001,
        8.5999999999999996,
        8.6199999999999992,
        8.6400000000000006,
        8.6600000000000001,
        8.6799999999999997,
        8.6999999999999993,
        8.7200000000000006,
        8.7400000000000002,
        8.7599999999999998,
        8.7799999999999994,
        8.8000000000000007,
        8.8200000000000003,
        8.8399999999999999,
        8.8599999999999994,
        8.8800000000000008,
        8.9000000000000004,
        8.9199999999999999,
        8.9399999999999995,
        8.9600000000000009,
        8.9800000000000004,
        9.0,
        9.0199999999999996,
        9.0399999999999991,
        9.0600000000000005,
        9.0800000000000001,
        9.0999999999999996,
        9.1199999999999992,
        9.1400000000000006,
        9.1600000000000001,
        9.1799999999999997
    ]
}