{
	"f0": [0,0,0,0,0,0,185.3002631,186.0281533,186.4510677,185.2357537,183.396701,182.5499429,181.4581689,180.3351329,179.7303469,179.958819,180.3271134,180.325693,178.899307,179.0327365,183.6618661,187.2349306,192.4712528,392.342495,199.5399729,203.4567977,205.6000911,206.3234059,206.5992293,207.3550884,207.5154492,207.1919576,206.4030552,205.9649813,205.5604313,205.1709678,204.709386,205.2076346,205.5407439,205.2854164,205.1688992,204.9344794,206.7642545,208.0181589,208.4517466,207.5290434,207.364013,207.1344069,206.8313898,206.2836589,205.4955311,205.7346379,205.3839546,205.0860328,205.8848604,206.4149657,209.4858721,217.4512746,225.2082887,225.17639,226.2623696,224.5796819,223.5643547,224.5168478,217.856362,222.0153316,223.217703,224.5083508,228.0060483,224.9115838,220.3684079,216.2676269,0,0,0,0,0,0,0,202.8181579,217.8626425,225.4489509,226.9296728,227.3573994,225.4526134,224.7122623,224.7279267,225.0590056,225.0827656,224.729422,225.4534976,226.9545084,227.4891147,226.7183215,225.5227802,226.7133707,227.2625469,227.7403415,225.3053896,221.0113423,223.7906777,230.1270135,243.1516122,244.9209729,245.5729734,246.7431564,249.7260336,256.8754743,265.2131873,269.9343209,272.5080997,277.2500124,277.5250034,276.1666243,275.3682387,273.124798,268.0929533,267.1964,264.9522759,260.7045401,257.4139991,255.1943444,253.6515579,251.7569438,250.1438334,250.7878267,251.8179632,252.9243207,253.1765626,252.9510735,250.9264715,251.4884321,254.2786906,252.9659758,252.0374024,252.8416887,253.0360988,253.2692049,250.9570415,250.0585316,260.2630452,264.3158876,265.8792681,266.2472716,263.4504132,259.1091246,258.4457285,258.9006547,259.5206561,260.3774188,260.4226751,259.5910993,259.6749147,260.4965213,260.7242128,260.4980789,262.0752918,0,0,283.2048506,278.9270391,279.1422443,279.2104689,278.9657237,278.7697332,277.4809455,275.5743896,276.0574593,275.85178,273.9454851,271.0499368,266.257293,264.0192117,266.5792804,0,0,0,0,0,287.2353682,286.7921884,287.1681873,286.4038921,284.8284443,282.9514964,282.0781385,282.3722702,281.6834911,281.8964584,284.3106138,287.2122956,287.251406,288.654872,293.7525504,300.8697272,307.0240077,312.6988423,316.9396472,318.6839667,316.7297031,310.7793234,307.7514708,304.8904024,306.7469828,311.0825091,306.093495,309.4253836,305.8421227,296.2578278,288.1657312,0,0,0,0,0,213.5956055,216.4458061,215.1392764,215.2829715,216.0776492,214.0786332,217.8279998,219.2539553,217.1176621,207.9307985,207.2597202,208.0269745,207.9420864,209.1889588,209.2226235,211.4830645,213.9064886,213.7060645,214.7305147,214.2495856,215.5154998,210.5436982,212.8309339,212.8023781,211.1331891,429.3468855,215.824614,215.0771097,214.4446947,214.2054974,214.0472836,208.5442428,212.8385409,213.2207264,211.4957927,210.2970738,209.9613956,209.1888414,207.8515098,104.6594838,104.3815558,104.5643099,207.906757,204.6577465,207.7388716,206.7282874,208.0635478,206.086493,203.197158,202.8967943,205.4792425,101.3000722,100.922223,206.2303197,204.798184,201.6731741,196.2087727,0,0,0,0,0,0,0,0,0,0,0,0,0,0,0,0,0,0,0,0,0,0,0,0,0,0,0,0,0,0,0,0,0,0,0,0,0,0,0,0,0,180.5028603,187.3255939,185.4775778,185.6059815,181.5204241,185.1815409,180.8010161,181.2288282,181.9121392,184.1669459,183.9544596,184.8597545,0,121.6580072,122.8568065,122.9647667,122.6877026,121.6260845,0,0,0,0,0,0,0,0,0,0,0],
	"score": [0.4070433237,0.3562611464,0.1745057648,0.275359902,0.2298627629,0.2894110948,0.5779646915,0.7604734266,0.7635837034,0.7125793678,0.8489490136,0.9078332832,0.9261608196,0.9272700621,0.9244876248,0.9225919886,0.9184588501,0.9003538408,0.7969287532,0.7094853406,0.7667348867,0.7651415997,0.8226380516,0.9087154722,0.7998897042,0.7906045481,0.8594283134,0.9110292914,0.9184566391,0.922495116,0.9338494236,0.9443391871,0.9434695361,0.9258868882,0.8929643024,0.8870227208,0.9020350914,0.9167591813,0.9260113386,0.92578524,0.9326712664,0.9163594509,0.8982544254,0.9153765262,0.9222325562,0.9282431424,0.9379449042,0.9421065227,0.9444955955,0.943901585,0.9324003419,0.9295952299,0.924390953,0.9269599875,0.9198647932,0.9247843636,0.9151660332,0.8552497004,0.8651664588,0.8828943057,0.8877626922,0.8625377343,0.8881850998,0.8365531945,0.7465547166,0.8314490573,0.8188501534,0.817458542,0.76201657,0.6802429367,0.651991788,0.4666673909,0.2579180691,0.1888320367,0.3188891612,0.4035457062,0.3610777213,0.25242332,0.2591312597,0.6525014834,0.7800802279,0.8652922726,0.8838962842,0.8549378403,0.8045724208,0.8726227397,0.9147815176,0.9249610348,0.8836975414,0.8841963231,0.9089824313,0.9327864884,0.9388755688,0.9305879415,0.9143791657,0.8973739059,0.8961119218,0.8185734481,0.6080218929,0.511357957,0.5240180157,0.6230297413,0.788765053,0.8610369158,0.8944300817,0.9109081013,0.8581688767,0.8496698837,0.8817078366,0.8883692511,0.9033549842,0.9124127464,0.9188853595,0.905154787,0.8837060255,0.8868010488,0.8582485099,0.8642658807,0.9093384402,0.9223482642,0.9291047567,0.9338132352,0.9316634167,0.9428218764,0.945385026,0.9565330955,0.9569954884,0.9571267134,0.9584198093,0.9540824339,0.9386477777,0.9102376056,0.883325733,0.9216057354,0.9188379036,0.9086654968,0.9261562406,0.8779234776,0.8390529396,0.7544118202,0.8244341343,0.8902511321,0.9313206187,0.9357887347,0.9220603514,0.9433009702,0.957023104,0.9620014065,0.9630777883,0.9627291826,0.9450647076,0.9384660124,0.9402316782,0.9274077662,0.8505914005,0.8085218011,0.6069748267,0.2253859519,0.3668388593,0.6976876104,0.857076508,0.8948103739,0.9128356564,0.9111398022,0.9261610296,0.9203307032,0.9138064609,0.9196109185,0.8924910167,0.8571339661,0.8703685943,0.8767203375,0.757925265,0.5312630036,0.3894805759,0.3742556708,0.252138745,0.4079093691,0.3472456234,0.6869837616,0.8747142097,0.9221295687,0.9315865111,0.9337734229,0.9340918097,0.951200118,0.9620753107,0.9653767287,0.9601678917,0.9533110782,0.9444051652,0.9265114349,0.9199540963,0.9455461842,0.9584471769,0.9601922206,0.950028273,0.9605782166,0.9686010087,0.9709795401,0.9688424531,0.9602438298,0.9205107081,0.8210395997,0.779886041,0.8663666192,0.7052946251,0.6972313357,0.7265839151,0.5677872597,0.4477880925,0.3718241176,0.3802520698,0.3563893747,0.3276927417,0.5104802679,0.65144821,0.7218803802,0.6929849761,0.7582295508,0.8494454243,0.9003516288,0.9256243283,0.9105128102,0.8769320252,0.9175059099,0.9291147399,0.9206857586,0.9291359363,0.8618947516,0.8835736835,0.8830723506,0.8359812399,0.7986377011,0.8331985777,0.8373577524,0.8051393524,0.8648015066,0.9030560906,0.8642814509,0.8591203594,0.8564922019,0.8550093462,0.8921976366,0.8091754563,0.8180972673,0.7930780327,0.8297093605,0.8679960292,0.8393284308,0.7616125401,0.752988948,0.8159004644,0.8562222002,0.7298919932,0.7244659983,0.6565649839,0.7513317994,0.6460354678,0.7139094275,0.5847191425,0.5961918033,0.430266061,0.4388743483,0.5790669397,0.5532614042,0.4754766808,0.3899372012,0.5715349271,0.6046718841,0.6145471631,0.4797000027,0.3929349479,0.3170479044,0.238804136,0.1806890968,0.1839436717,0.2471503695,0.1858531655,0.1511670343,0.1730377925,0.2885495492,0.2485615892,0.2928062937,0.3517175181,0.2714049819,0.3748918491,0.4124664761,0.3429947818,0.2402005321,0.3130162602,0.2429787581,0.1967004865,0.1515999577,0.203429187,0.2287227039,0.1872510764,0.2047941201,0.2763959106,0.210382631,0.1879800717,0.2609672554,0.2237532685,0.3444719754,0.2231129695,0.2260025727,0.2432516529,0.3058827527,0.3677744346,0.3770310276,0.2884403828,0.31262102,0.2400891606,0.5352676792,0.7080754089,0.7756963042,0.7981404857,0.7429119444,0.7999654892,0.8583514372,0.8756425387,0.8487480514,0.7975035942,0.7826873796,0.557160251,0.2450495008,0.2406952479,0.4511267341,0.4804993093,0.4048369622,0.3532448501,0.1456369687,0.1562553609,0.03906384024,0.009765960059,0.002441490015,0.0006103725037,0.0001525931259,3.814828148e-05,9.53707037e-06,2.384267593e-06,0.5383878046]
}
