{
    "DU": 52,
    "DV": 385,
    "F-measure": 0.08695652173913043,
    "F-measure Chroma": 0.08967391304347826,
    "FN": 20,
    "FNC": 0,
    "FNCch": 0,
    "FNI": 20,
    "FNIch": 20,
    "FP": 118,
    "GU": 150,
    "GV": 287,
    "Overall Accuracy": 0.07322654462242563,
    "Overall Chroma Accuracy": 0.07551487414187644,
    "Precision": 0.07673860911270983,
    "Precision Chroma": 0.07913669064748201,
    "Raw Chroma Accuracy": 0.003484320557491289,
    "Raw Pitch Accuracy": 0.0,
    "Recall": 0.10031347962382445,
    "Recall Chroma": 0.10344827586206896,
    "TN": 32,
    "TO": 437,
    "TP": 267,
    "TPC": 0,
    "TPCch": 1,
    "TPI": 267,
    "TPIch": 266,
    "Voiced Chroma Accuracy": 0.003484320557491289,
    "Voiced Pitch Accuracy": 0.0,
    "Voicing Accuracy": 0.6842105263157895,
    "Voicing Detection": 0.9303135888501742,
    "Voicing False Alarm": 0.7866666666666666
}