{
    "DU": 16,
    "DV": 519,
    "F-measure": 0.04963805584281282,
    "F-measure Chroma": 0.11995863495346433,
    "FN": 4,
    "FNC": 0,
    "FNCch": 0,
    "FNI": 4,
    "FNIch": 4,
    "FP": 99,
    "GU": 111,
    "GV": 424,
    "Overall Accuracy": 0.044859813084112146,
    "Overall Chroma Accuracy": 0.10841121495327102,
    "Precision": 0.04519774011299435,
    "Precision Chroma": 0.10922787193973635,
    "Raw Chroma Accuracy": 0.10849056603773585,
    "Raw Pitch Accuracy": 0.02830188679245283,
    "Recall": 0.05504587155963303,
    "Recall Chroma": 0.13302752293577982,
    "TN": 12,
    "TO": 535,
    "TP": 420,
    "TPC": 12,
    "TPCch": 46,
    "TPI": 408,
    "TPIch": 374,
    "Voiced Chroma Accuracy": 0.10849056603773585,
    "Voiced Pitch Accuracy": 0.02830188679245283,
    "Voicing Accuracy": 0.8074766355140187,
    "Voicing Detection": 0.9905660377358491,
    "Voicing False Alarm": 0.8918918918918919
}