{
	"f0": [NaN,53.50429368,54.0979178,54.07527616,44.36955263,72.21150874,72.44706478,68.41166161,68.47658865,73.2743622,73.27896472,73.14427902,73.33838985,73.28756017,73.27075183,73.27705909,73.31687332,73.26100791,72.89211605,68.62056033,53.12460245,54.59458388,51.82494572,53.50015387,42.07501451,35.41040288,53.3200406,54.32529935,59.16393219,59.21029442,59.23558361,59.31586297,59.40472338,59.45672038,59.63740084,59.90480101,60.1569939,60.49157033,60.62564303,60.73247333,60.82693314,60.65755257,60.49439636,60.58268335,60.59877724,60.51620518,60.35734295,60.01041372,59.58421009,59.11238334,59.03396232,59.48573577,58.99038388,58.4220766,57.84979223,57.81059839,57.79749532,57.84185134,58.0274579,58.07833384,58.00671657,57.88995939,57.84090066,57.53896446,57.12826163,57.91080137,57.96631911,57.76058073,57.66987137,56.01932743,55.4091412,55.24854843,55.08739177,54.97822286,55.12057218,55.18084235,55.3318647,55.63210101,55.91832636,55.89652798,55.33175817,55.258064,55.42767127,55.67475634,55.830889,58.04016713,58.0841136,58.16121915,58.05110018,57.398078,57.32645695,57.34835688,57.33231769,57.18274959,57.10232595,57.19690461,57.22448061,57.29341228,57.32605951,57.17970354,57.07308935,57.10620522,57.13576174,57.29723304,57.24826538,57.21427231,57.33600732,57.29504056,57.42183074,57.44256524,57.41406004,57.51059043,57.60931056,57.6382637,57.65111328,57.65126216,57.64413168,57.73370298,57.88925947,58.15727156,58.57960498,58.72565229,59.15282596,60.04436518,60.60519614,60.57896057,60.52615707,60.37329926,60.20663597,60.11796552,60.07510043,60.289593,60.4588532,60.6292396,60.87562436,60.85328289,60.87360243,60.78163508,60.50426233,60.42909718,60.47025182,60.52217007,60.82465233,61.05840837,61.10035834,60.94076623,60.61925767,60.45186606,60.43296131,60.42033882,60.42476367,60.71367126,61.08699802,61.21056592,61.19608827,60.99222677,60.58857211,60.34731594,60.41283034,60.39378189,60.33004532,60.37153203,60.37666265,60.38563715,60.6487765,60.85131432,60.6866083,60.52119247,60.30084042,60.38809611,60.45354219,60.25898553,60.36556981,60.32948068,60.34172408,60.4254346,60.33524163,60.42130972,60.68622061,60.91114831,60.95906952,48.47219775,41.07419903,61.52046319,61.31405456,60.3261567,60.98283082,60.98824321,60.37100273,61.0317796,41.25054533,61.5002909,61.24571291,61.95000609,62.3221652,62.20339676,62.0934565,61.95020312,61.84151124,62.04490646,62.00507347,63.04163216,63.80839573,63.75143344,63.78181296,63.86122991,63.83250628,63.72714452,63.57735926,63.51745285,63.49308965,63.43878562,63.40122896,63.42769546,63.38500902,63.43569172,63.46805141,63.46173433,63.33719784,63.2635005,63.30813252,63.4525372,63.51673069,63.37199136,63.24407214,63.19965031,63.12795592,63.20109613,63.43231571,63.88092003,64.24826771,64.31754432,64.51626851,64.67187809,64.47299588,64.57876066,64.61777658,64.63927308,64.64677522,64.58675897,64.47256781,64.42696136,64.55500812,64.55770104,62.80781824,61.85738703,61.57202852,61.27991803,61.27977215,61.38619137,61.58763025,61.8048206,61.95922971,62.0965531,62.21843852,62.42015165,62.696784,62.73888016,62.71733036,62.74850051,62.79206003,62.77640848,62.74800429,62.72927719,62.46285728,62.21399014,62.1905546,61.87778583,61.27926117,61.03120828,61.00490256,61.13656144,73.20783183,73.13274654,73.0897225,73.05566497,73.00024107,72.89733284,72.98708189,73.06632327,73.14026861,73.26093471,73.32608758,73.11676069,72.91354721,72.7466505,72.73346878,60.61673413,60.66659182,60.7379876,72.98322216,73.41241164,61.44755155,61.36038417,61.01406499,60.80341939,60.74692841,60.78918685,60.84056595,60.69762002,60.95183191,73.09085653,73.29784811,73.27864619,73.19549707,73.07359803,72.79278661,60.66909588,60.73967217,60.74894209,60.7656551,60.84857202,60.95329834,60.83241474,60.8653478,60.92614113,60.96945925,60.94493091,60.97500948,72.97325547,72.90992298,60.88719058,60.88976682,60.920815,60.82341655,60.71895538,60.69837852,60.78076823,60.8877494,60.78732261,60.81985682,60.97765221,60.88305291,60.93800941,60.02273723,59.78430974,42.10387013,41.77896011,41.78235044,41.85495982,50.38255539,50.09811664,48.27005076,41.88175353,36.97202915,42.01230377,48.83266699,48.9190257,61.83677829,37.14863538,36.99479143,41.87852985,37.35606213,37.21310239,41.72384748,41.81054125,60.9287982,61.12039529,61.53772252,61.39466116,61.43753426,61.21841468,60.78999983,60.76721407,60.86354587,61.11451318,61.09886575,36.94770749,37.11136424,61.06320168,60.93967007,37.00499201,36.91394979,36.83666702,72.79416736,60.80518415,60.77151963,36.75085124,36.76458411,36.83189366,72.91173778,72.89182178,73.52483579,36.95922194,36.90908613,36.86941787,36.88514413,36.86750681,36.72096498,36.55339436,36.39255501,35.62210966,35.60292108,35.61821725,35.57922313,35.40862054,36.12722292,36.27039953,36.13316503,35.34887861,35.34887861,35.34887861,43.99633345,76.93035138,76.93035138,67.34995772,35.34887861,76.93035138,76.93035138,76.93035138,76.93035138,76.93035138,76.93035138,76.93035138,76.93035138,76.93035138,76.93035138,76.93035138,76.93035138,76.93035138,76.93035138,76.93035138,76.93035138,76.93035138,76.93035138,76.93035138,76.93035138,76.93035138,76.93035138,76.93035138,76.93035138,76.93035138,76.93035138,76.93035138,76.93035138,76.93035138,76.93035138,76.93035138,76.93035138,76.93035138,76.93035138,76.93035138,76.93035138,76.93035138,76.93035138,76.93035138,76.93035138,76.93035138,76.93035138,76.93035138,76.93035138,76.93035138,76.93035138,76.93035138,76.93035138,76.93035138,76.93035138,76.93035138,76.93035138,NaN,NaN,NaN],
	"ap0": [NaN,0.298038024,0.4910068144,0.7861306686,0.8511380358,0.7346915412,0.6974828845,0.633884255,0.6550189365,0.5607124107,0.4563701055,0.6271684053,0.57916991,0.4390668325,0.4157114031,0.4974958143,0.5880130962,0.5677298354,0.6854518013,0.8296688705,0.7575995065,0.8075011503,0.8086372831,0.6910181405,0.6128203327,0.7119766312,0.8218367791,0.611684765,0.3715295652,0.09291997859,0.02560228868,0.01916307935,0.02239395168,0.01794516513,0.03120400551,0.05933275308,0.06470059303,0.04986132721,0.04479794711,0.03394778131,0.02687695478,0.02401039822,0.01589184009,0.01221005054,0.004736104483,0.006013665499,0.02793563942,0.08074185873,0.2014578101,0.2663858496,0.2637783453,0.3370366357,0.2408555568,0.1414186802,0.09680142577,0.03938876378,0.03758730819,0.05874857255,0.06432581507,0.06257361386,0.08065779688,0.1588633966,0.08906617184,0.1007332417,0.2098062724,0.4531179721,0.2175970722,0.1884150429,0.2150858806,0.1547485806,0.03548356339,0.01036722192,0.0129513468,0.0155906226,0.01261801163,0.009226304273,0.01655708469,0.01531374712,0.02236380272,0.03569367791,0.03026186862,0.05251504224,0.1491987467,0.09692415097,0.09768445081,0.5800806299,0.05703714612,0.04705939763,0.07821503393,0.04447784517,0.01639690806,0.01175885523,0.01375764846,0.02506573026,0.02933475749,0.02647412783,0.02578387994,0.01679791334,0.006978178008,0.01414810084,0.03892920682,0.07691445697,0.07408621939,0.05489780651,0.05966843864,0.05252313074,0.1971713276,0.05768462113,0.02328305263,0.00951624219,0.004659660013,0.007945456376,0.007549042917,0.005026928381,0.004764856915,0.003313586884,0.002915177607,0.003391149278,0.004530010485,0.02398280546,0.05035460512,0.04049443374,0.07307090998,0.1274846139,0.1089396436,0.1532549181,0.1146370911,0.04178717885,0.0222653912,0.02325222634,0.03469402429,0.01964053975,0.01359161276,0.02914248144,0.06806442309,0.06715602311,0.06195617387,0.05355272491,0.03215108979,0.01515719755,0.008706030069,0.01339949659,0.03125422514,0.05861017066,0.08731804594,0.09804877548,0.0458843735,0.02968774955,0.01780155451,0.01491139556,0.02137853037,0.02457023106,0.03799794666,0.03657958523,0.04026017886,0.04613171257,0.04039048783,0.02879977959,0.02232999699,0.02762395607,0.02793476038,0.01433930709,0.01575081118,0.02594911861,0.03580542166,0.1008028162,0.2173401014,0.1054890345,0.1136396047,0.1019058826,0.08590860228,0.1879398158,0.3114716417,0.1495414873,0.1415393523,0.1453604149,0.2684706298,0.5671525586,0.742837887,0.6816466504,0.6578822346,0.5677976604,0.6547293753,0.6663698707,0.7546333211,0.74638363,0.8125972308,0.7853753083,0.7070604467,0.6852040706,0.6439087609,0.2495068368,0.04188185678,0.04345198405,0.009388129147,0.01391675915,0.04367032324,0.05031253907,0.03238652729,0.01943120104,0.02101368212,0.4203824812,0.06455903839,0.01739431389,0.01019215437,0.01049077651,0.008433409583,0.01039569929,0.02659298716,0.01027298432,0.00689875646,0.0180062299,0.02847127268,0.01083871869,0.0105345147,0.005215670234,0.004089861295,0.009318265734,0.02385102051,0.01241153323,0.01244617348,0.0127769287,0.007068495939,0.01161680076,0.01131090857,0.02509875237,0.03404751221,0.02520922893,0.04416415687,0.1069409256,0.09716459972,0.1133635484,0.1530780292,0.1436243819,0.1300379679,0.05641836555,0.04567728621,0.06161360093,0.07728841428,0.07577549428,0.1104813311,0.1242795628,0.1081122999,0.1700389507,0.3075549286,0.08201173162,0.07467175904,0.08517152127,0.07625315186,0.05739768597,0.05038218892,0.05165640632,0.03564030883,0.04048535016,0.03783787205,0.03947897815,0.02935917446,0.01820110341,0.03325677401,0.04078220016,0.01482083953,0.007913442126,0.01367239446,0.03154178933,0.05598375401,0.01623637033,0.04469576685,0.1161438152,0.07858760017,0.07568246211,0.08536333703,0.04892572907,0.0943883894,0.07543214228,0.05037433283,0.04793856676,0.05369825378,0.05526758581,0.03441523401,0.03153504537,0.02620370854,0.03182321682,0.0846402926,0.105976744,0.09601639314,0.05863702221,0.07452409845,0.02497209327,0.01068417248,0.002938920909,0.07815948766,0.1102655875,0.02631365383,0.01974637563,0.02281429324,0.01446485388,0.02812763685,0.06062470873,0.07466763813,0.06305626258,0.03229399941,0.05296981996,0.09004811021,0.09013764355,0.05080552747,0.04892089225,0.09250332732,0.06597994216,0.03851074393,0.008951743589,0.004350791123,0.009615567378,0.01470393287,0.009515208332,0.006612948658,0.008935094715,0.02019126924,0.01419975699,0.006932846768,0.01384479821,0.02758873344,0.01216753278,0.02018877942,0.03143546963,0.01955740923,0.01971060306,0.04459059291,0.1154982391,0.121849118,0.07213789311,0.08409565623,0.103916056,0.1559304421,0.3942104649,0.6088328346,0.6087634707,0.5354721845,0.6517220743,0.538847732,0.7144980706,0.6049809572,0.563147497,0.5299010472,0.4591614639,0.4217783113,0.583459382,0.4077124934,0.5134628242,0.5895161483,0.438149997,0.5076120268,0.5673493724,0.4195459022,0.4530264106,0.4680298532,0.573944056,0.277330177,0.2659364292,0.3708150858,0.4587589179,0.4887607945,0.4460818842,0.2280071053,0.1665762716,0.1473552115,0.2677446802,0.5066801037,0.3240969522,0.2646062207,0.2175111769,0.2845818328,0.2644477358,0.1636406763,0.19417952,0.6028970922,0.2991529013,0.1923123631,0.07519856007,0.1130637181,0.1844985407,0.1449156472,0.1102176834,0.3276912661,0.1149221659,0.114897904,0.1551891481,0.2462468272,0.279774462,0.2345192298,0.1742088374,0.1466676541,0.1082346629,0.1075898472,0.2051406115,0.4689540396,0.7102571492,1.074888514,0.4177342507,0.1657569277,0.1287487565,0.2206295347,0.4405023823,1.246404569,1,1,1.051212938,1.007566706,1,1,1,1,1,1,1,1,1,1,1,1,1,1,1,1,1,1,1,1,1,1,1,1,1,1,1,1,1,1,1,1,1,1,1,1,1,1,1,1,1,1,1,1,1,1,1,1,1,1,1,1,NaN,NaN,NaN],
	"ap": [NaN,0.1740713536,0.1501083787,0.1119417927,0.3607014195,0.264263885,0.6187302385,0.5013585761,0.4415716863,0.3026483467,0.4524280681,0.1279329085,0.3815346185,0.4114057514,0.4183730701,0.07760073018,0.1719456625,0.6862111677,0.4340957444,0.4114781357,0.4510678164,0.5039523164,0.5461030803,0.2581785633,0.3670267425,0.3606414805,0.374406417,0.3603982817,0.4597036256,0.6497582568,0.2173959832,0.01825892448,0.008770495747,0.006297540286,0.01844700196,0.02757361484,0.03453781911,0.08737649259,0.02001243656,0.03565397602,0.01379770156,0.01593536868,0.02720174769,0.007730230326,0.01479869008,0.004279960476,0.006428393067,0.02336421065,0.1917123924,0.07180932867,0.1262880576,0.156531706,0.1958778455,0.2456147019,0.1761352542,0.03286043389,0.02244118066,0.01192834794,0.08628627411,0.01942101319,0.02132148787,0.02788477694,0.05371263258,0.1606549379,0.04800152134,0.1145343151,0.2571028232,0.272421909,0.09472374561,0.2021142716,0.3039640554,0.01223063324,0.01155791104,0.001851609332,0.01055334356,0.00872780915,0.002578082647,0.01567201186,0.007269798118,0.008290201136,0.07957956512,0.008621854436,0.04339295907,0.1807367126,0.02704048343,0.2248082196,0.5360270447,0.1848567786,0.01127384868,0.1993714891,0.005263688919,0.0008769869095,0.02165728362,0.007570230345,0.02320716324,0.003031203201,0.02785723613,0.01153650444,0.004753264868,0.00463717892,0.008684683842,0.01555527638,0.05487401816,0.05937754502,0.02311513016,0.04336731208,0.01388230723,0.03916893484,0.3645547379,0.003573325444,0.004203410891,0.005279760576,0.00175296885,0.003863355296,0.002194192974,0.001706495117,0.002638626072,0.002202173094,0.004169939788,0.005809437729,0.0187082824,0.08768867893,0.01759224804,0.0701683699,0.03189213186,0.03064297551,0.01252025847,0.1318152215,0.02621402251,0.0245083711,0.006907797352,0.05829217301,0.008655611865,0.005612508909,0.02174318242,0.07156981468,0.04470544188,0.03029465529,0.06154903605,0.0199695974,0.02000399329,0.002550464707,0.009966747768,0.013388633,0.02097392174,0.0516022454,0.1554558721,0.02673638478,0.006597668274,0.02209488055,0.005595210576,0.05001485019,0.0243510167,0.01507657286,0.04288010405,0.00825976664,0.1456237796,0.01461966901,0.02020440656,0.004345985307,0.01848069547,0.008405123285,0.004204028641,0.003434843203,0.01744921585,0.01524770474,0.06514279662,0.1659319519,0.03677805148,0.03245185318,0.0910164251,0.04238158888,0.2500991476,0.606997643,0.02247605847,0.1406376107,0.03963587118,0.1845406023,0.3377913079,0.3944949924,0.2964739574,0.3236946302,0.3146194358,0.3425731244,0.3695524362,0.4791917186,0.2958557638,0.368910575,0.4909447981,0.5362916987,0.3425080462,0.3752343378,0.5554147874,0.2096161423,0.02565837975,0.00268031079,0.006874286704,0.01343570088,0.06439628633,0.01731910915,0.01259593964,0.02121653228,0.1957974846,0.273379717,0.007405028889,0.004027012794,0.004684764822,0.002801065335,0.008400457826,0.006667334821,0.01476788471,0.001953889723,0.008286368778,0.04112798762,0.004469295847,0.007046697531,0.00502133934,0.001422077614,0.003895447137,0.01663914464,0.005754534185,0.007249145709,0.007655794394,0.005829274102,0.01164175186,0.001872567494,0.009856520952,0.03088076408,0.02986642884,0.05132133083,0.06143464585,0.04383654273,0.2378591514,0.2288668635,0.1503675101,0.126512687,0.01256470249,0.01735764174,0.02678637583,0.01676755804,0.007718182328,0.01747973626,0.04905322182,0.02875654716,0.1821357213,0.3889620928,0.0851433187,0.0683992062,0.2561757263,0.0673276651,0.01740336181,0.04183011401,0.05489097687,0.0194388188,0.01515674764,0.02811926719,0.04578288422,0.008611592629,0.01397639399,0.008122448273,0.04905996035,0.002496623603,0.002279279482,0.0009545080466,0.02975255366,0.01872904945,0.03098430854,0.0165432145,0.2392995479,0.04174574989,0.01207710233,0.1389864423,0.04763936374,0.05870865003,0.02217040992,0.01330885101,0.04618090163,0.01394252792,0.04358271704,0.01561429973,0.01392140305,0.01486696576,0.001787361445,0.03638166374,0.05892662468,0.06523044954,0.03810270728,0.005169779358,0.02409035044,0.01221376831,0.03746756314,0.05997486374,0.02989958049,0.04306336681,0.007596770011,0.03707501316,0.003027056625,0.0390297377,0.02291273288,0.01428640825,0.02480218884,0.1314412159,0.01062924278,0.06166994642,0.05169724915,0.03435681165,0.01727314478,0.01473961056,0.008437762679,0.1568681375,0.002724533335,0.00168192706,0.003913359959,0.01958545345,0.00647267035,0.003423818688,0.007951332442,0.005418519739,0.007336108265,0.07375760952,0.006228099586,0.009189424995,0.004617114113,0.007233657912,0.02494602377,0.009845569565,0.01633309167,0.02058611301,0.01335827574,0.1745159479,0.04099984089,0.05756889507,0.01907150174,0.1206561415,0.1215662115,0.2053485622,0.2548973277,0.3840092781,0.2547359726,0.1306190016,0.3500313727,0.4618478797,0.2884909548,0.2942304168,0.1944317895,0.1847401032,0.2775016184,0.1547460021,0.3257164597,0.2271108631,0.207777042,0.1453942412,0.3033499252,0.2159938564,0.2378499898,0.2359730876,0.6209306176,0.05409227953,0.1459658546,0.1521202011,0.1998623903,0.1929704716,0.1999829202,0.2186184081,0.07397974456,0.04696971286,0.05011974852,0.219246355,0.1287023909,0.1924834747,0.1426240329,0.2517384551,0.1277231827,0.05921502135,0.05394146418,0.6337048673,0.06582252903,0.04218844377,0.0442774415,0.08830636163,0.05606492695,0.1757664765,0.02118646837,0.07011162868,0.053191212,0.06619689094,0.1121456703,0.1207342004,0.1464520712,0.1189064025,0.08411112928,0.06501673654,0.03536494322,0.05344339399,0.1469812609,0.4130244443,0.5000033083,0.349085289,0.1790778668,0.04064675861,0.07284931757,0.1919326047,0.6191272445,1,1,1,0.5000040372,1,1,1,1,1,1,1,1,1,1,1,1,1,1,1,1,1,1,1,1,1,1,1,1,1,1,1,1,1,1,1,1,1,1,1,1,1,1,1,1,1,1,1,1,1,1,1,1,1,1,1,1,NaN,NaN,NaN],
	"pwr": [NaN,1.448716738e-07,1.74977508e-06,2.435305018e-06,2.241842286e-06,5.837115241e-06,3.41968974e-06,1.096554091e-05,1.214450133e-05,2.3849706e-05,1.653431646e-05,2.852381785e-05,2.07626132e-05,1.499802757e-05,1.124284942e-05,4.610426266e-05,2.664995527e-05,8.836331409e-06,1.325223659e-05,1.080910133e-05,4.743445651e-06,3.737193395e-06,3.431839783e-06,3.266787445e-06,1.655142618e-06,2.192827726e-06,2.802242103e-06,3.118427869e-05,1.160798856e-05,6.823244825e-05,0.00446950871,0.02166542846,0.01618004156,0.01301112189,0.008956814477,0.01334365574,0.008724546376,0.01067333498,0.0254520622,0.01575667662,0.02197558105,0.02435909094,0.01703476501,0.01963991597,0.01507450503,0.0387503082,0.04657715988,0.034440001,0.005941269082,0.02420179714,0.01790194962,0.007538818668,0.009071051824,0.005064768052,0.0114096992,0.006696848311,0.005637773221,0.01433939947,0.01018035364,0.009012753954,0.007410348907,0.002352433196,0.0006828595574,0.0008532815118,0.002264691036,0.001614641719,0.0002611738338,0.0003128838322,0.000202669344,0.0005121448523,0.00066861889,0.005880768613,0.005323583435,0.006624682639,0.008557152887,0.00513915258,0.006188572716,0.00624479603,0.0058435743,0.00399794652,0.00149304108,0.002164703017,0.00148420525,0.0001343034586,0.0004729080211,0.0005096143036,0.0001130364479,0.000551643368,0.02608976027,0.01815101326,0.01517080033,0.03118125504,0.01924126756,0.02804797203,0.01018598907,0.007342107055,0.004267788423,0.007925547597,0.006801345841,0.006457547591,0.004989882753,0.00194442045,0.001369289256,0.0003465868918,0.0008624444591,0.0005838803672,0.001200131203,0.0004232948317,0.0005110036587,0.007178037902,0.008282153639,0.00995246262,0.008921667206,0.009069075938,0.007887386559,0.01021000614,0.01180359463,0.01052058228,0.01130757319,0.009840706134,0.007200146962,0.001311300897,0.00712490825,0.005753553625,0.009804847912,0.00645999111,0.007841631735,0.00150902076,0.007533343688,0.008503210875,0.01633446589,0.007408316915,0.00612268268,0.009682178076,0.01062313841,0.002298118963,0.002748852242,0.00326171209,0.0007077136746,0.002144179558,0.005142558557,0.009516730848,0.005762914535,0.002969441747,0.001803505894,0.001373229124,0.0006678997435,0.0008954308915,0.003306469599,0.003152219155,0.007399684436,0.002280404574,0.002450658707,0.001344568577,0.0009804894056,0.001460203412,0.0003731565977,0.002398901631,0.001394069885,0.004330988918,0.002209713423,0.001304514215,0.002873605571,0.002369453595,0.00133408421,0.001377713982,0.0003675449002,4.673173744e-05,0.0002733536987,0.0002053807399,0.0001060285532,0.0002987033182,0.0001031756734,6.152308274e-06,3.477268395e-05,3.299221417e-05,3.263405476e-05,1.731463468e-05,7.33317922e-06,1.171645792e-05,6.989695867e-06,2.51722625e-05,3.795147782e-05,4.329908154e-05,2.054648572e-05,2.894294912e-05,3.708785807e-05,2.685424229e-05,1.769623883e-05,1.754011558e-05,7.107281488e-06,4.102686555e-06,3.969485544e-06,0.0001334045033,0.00409160441,0.006338617655,0.01094106619,0.006608122927,0.003463843523,0.005080345683,0.0009044701668,0.00215232228,0.0011953724,8.615125587e-05,0.02013865128,0.02522940944,0.02237560394,0.04966309725,0.03374626498,0.02365847061,0.04330744803,0.1985748732,0.09641740742,0.01382499874,0.05661123401,0.01739293842,0.03453207351,0.09462521041,0.07424404815,0.01492331879,0.01896714513,0.03121725222,0.01880640961,0.03664509624,0.03779072764,0.0326790359,0.05773380376,0.02207532183,0.04376045296,0.03904684094,0.06497635081,0.06919009785,0.06303883511,0.02592362541,0.03009342637,0.02061208623,0.02699791358,0.06277351194,0.03003297737,0.01636222353,0.01369362203,0.007430376718,0.004503017521,0.002608870853,0.002525661724,0.002148928504,0.007544245666,0.05071378671,0.01684107592,0.03641617653,0.02425257368,0.01799716558,0.01592045554,0.01531524803,0.0305943755,0.02959671458,0.01859546674,0.02029260833,0.02073618601,0.02119748577,0.01482056671,0.02313618649,0.02344012963,0.03450840245,0.008588293924,0.003620501997,0.00850984382,0.09050637886,0.008667803633,0.02165517199,0.0267407937,0.02719448881,0.02184120664,0.03148025279,0.05016591438,0.04268055294,0.02103447124,0.04348378597,0.03071949877,0.04648654245,0.06596335456,0.08437601881,0.06791963309,0.03153910573,0.02404288467,0.0323569217,0.03658324802,0.07067180582,0.02520221262,0.02945429842,0.05522357956,0.08668368666,0.01771619103,0.0365717993,0.05535320979,0.02671104571,0.07212313645,0.04451183355,0.03505249378,0.03655718278,0.01206860059,0.008996560112,0.04967653375,0.007560540268,0.01042345595,0.01707319206,0.02239992788,0.009084019881,0.007783679005,0.002765149598,0.01545982341,0.02035285009,0.01134281268,0.005717830474,0.003606052661,0.01331903623,0.01128863895,0.001836850197,0.00173893685,0.002531096813,0.005366497393,0.002015078369,0.002789813751,0.002573629591,0.0005468905719,0.001155573669,0.0007640026688,0.0003496971057,0.0001271518002,3.397038845e-05,6.451739213e-05,2.996598735e-05,3.158670192e-05,7.147566014e-06,2.221942949e-05,2.52336757e-05,1.279392542e-05,1.213660069e-05,4.39471772e-06,5.91475362e-06,1.685989365e-05,7.451944796e-06,5.824398629e-06,8.056222481e-06,5.814621109e-06,3.657537549e-06,2.547512681e-06,1.769074795e-06,1.022138167e-06,4.83549936e-07,4.619960621e-07,2.289653407e-07,1.867681905e-07,2.378536267e-07,2.57658737e-07,1.478777662e-07,9.379343088e-08,9.864570125e-08,8.096053181e-08,6.104712523e-08,4.055072284e-08,5.015457997e-08,1.291948241e-08,2.35125057e-08,7.968680785e-08,4.975627784e-08,1.336476352e-08,1.415952251e-08,1.542906091e-08,1.198635764e-08,7.938327393e-09,5.09633249e-09,6.92912488e-09,1.39251566e-08,1.735586207e-08,2.052424457e-09,2.913212835e-09,5.299600362e-09,5.586744004e-09,4.471494073e-09,2.227530163e-09,8.117892459e-10,1.723362532e-09,2.55702633e-09,3.332282692e-09,3.048029777e-09,2.730178917e-09,9.863833817e-10,4.534183476e-10,4.930366117e-10,6.849391896e-10,9.37714253e-10,1.110201251e-09,7.199790902e-10,4.998327839e-10,2.138592579e-10,1.677914728e-11,6.767395871e-12,1.390749468e-10,4.679529275e-10,5.360146412e-10,4.363282928e-10,2.451381909e-10,0,0,0,0,0,0,0,0,0,0,0,0,0,0,0,0,0,0,0,0,0,0,0,0,0,0,0,0,0,0,0,0,0,0,0,0,0,0,0,0,0,0,0,0,0,0,0,0,0,0,0,0,0,0,0,0,NaN,NaN,NaN],
	"sr": 16000,
	"range": [1,147761],
	"minf0": 63.1883,
	"maxf0": 706.3069,
	"thresh": 0.1,
	"relflag": 1,
	"hop": 320,
	"bufsize": 10000,
	"wsize": 640,
	"lpf": 4000,
	"shift": 0,
	"plotthreshold": 0.2
}
