{
	"f0": [NaN,54.2569395,66.9224708,67.78826823,55.83629817,56.01414158,55.90554475,55.85836953,56.00711888,56.55136841,56.6370741,56.745303,57.75741605,58.12956397,58.29953475,58.17319424,57.96556124,57.69291865,57.79319661,57.91181908,57.95684107,57.98929457,58.02109708,57.92975597,57.69828584,57.53802858,69.40176576,57.49358112,57.24338155,60.93463656,61.25907389,61.34384852,61.27224484,61.15583484,61.08681208,61.32060017,61.28070806,61.1470896,61.09816632,61.03786059,61.10168204,61.27832999,61.02094166,57.30185445,56.85159208,56.74771588,56.72089837,56.67282165,56.51819926,56.40950698,56.52926121,56.81322422,57.15548786,57.46915922,57.53672736,57.5485653,57.63964865,57.72213037,57.80901458,57.92466345,58.01817983,57.86730464,57.67227126,57.80920272,57.84344803,57.8300899,57.96897272,58.60233979,56.90413078,57.36218494,57.69051352,57.85102392,57.96161243,58.00810252,58.07937453,58.10654858,58.08739949,58.06630242,57.98649103,57.8996648,57.76682581,57.55389156,55.78826823,55.90722236,55.9414736,55.73012077,56.01165637,56.51677275,56.22283336,56.17277041,56.0250297,55.94138954,55.92899201,55.91444076,55.90771413,55.92578702,56.02028461,56.19036936,56.21434794,56.08792752,55.98620856,55.96088732,55.99228528,55.98355984,55.96273037,55.91999449,56.00403656,56.18333069,68.03499113,68.18541896,73.14517032,72.90596111,72.84773938,72.88239846,72.92842388,73.07762278,73.34742876,73.3622279,72.86821339,73.04206573,73.22385947,73.15063222,73.33021925,72.98492064,73.06250126,72.92824313,72.96706375,72.78690956,56.23796469,56.01322962,55.57755825,55.14325663,55.00384631,55.07252683,55.1723655,55.31793411,55.4008528,55.47095205,55.49122742,55.49408526,55.59330602,55.81892436,56.98306477,56.99921501,56.98610635,57.03639494,57.15431872,57.30605375,57.48574778,57.6794345,57.75774789,57.55885676,57.34162715,57.3460615,57.2854661,57.14667114,57.58263654,58.46123179,58.43755382,58.33234928,58.21835811,58.08879999,58.26551502,58.53762044,58.72610831,59.09856485,59.48218087,59.68933848,59.52495516,59.40441221,59.31904551,59.24915651,59.34692097,59.67044504,59.50954331,59.28630397,59.42300719,59.50744475,59.52639065,59.45135198,59.47086123,59.80608748,59.72948377,59.51658462,59.30419356,59.34637104,59.27847446,59.37204866,59.43428714,59.42061625,59.31569014,59.17704268,59.39523069,59.67798607,43.53473593,43.51280889,43.5283742,62.53597792,62.5022466,62.57310917,62.61360836,62.23446597,62.4780494,62.40777404,62.29680171,62.43956097,62.49669118,61.46617334,61.47203771,61.46510138,61.17752888,60.90046176,60.79842185,60.92644274,60.93189531,60.89679466,60.9315856,60.89920203,60.84571067,60.85667187,60.85181819,60.91909178,60.94398666,60.90329544,60.81154725,60.72853457,60.73289203,60.84268279,60.87381472,60.88893138,60.83323366,60.76752345,60.953177,61.66357213,61.53115604,61.35053408,61.32374464,36.86949661,40.19696604,52.97795029,65.23300897,64.8091631,64.81205688,61.83339665,61.97431698,61.61508912,70.86354979,71.0472918,71.73477246,64.76738844,63.56171403,63.3204347,62.80781824,70.5633669,71.15387273,70.73667576,72.05421917,72.26434553,56.92758861,57.95372902,58.09407773,58.20484413,58.36065366,58.52860922,58.60305877,58.83379578,59.00313137,59.1473018,59.2043467,59.44026259,59.9641994,59.91145347,59.67684947,59.61679839,59.58451455,59.61613885,59.69946168,59.68377099,59.62029637,59.56744417,59.55222876,59.58975158,59.66322669,59.88835748,71.9129106,71.63581689,71.27198596,71.40054018,59.71584296,59.62887891,59.65297009,59.49194806,59.47675737,59.5899558,59.42676433,59.25970399,59.48669339,59.66335665,59.98110934,60.78371294,60.93690044,60.81273975,60.91732291,61.49242768,62.23806311,62.54233724,63.08784911,63.27823065,63.45346712,63.18213505,62.70004013,62.31841364,62.37116293,62.43910025,62.24188786,62.05408754,62.13460876,62.2207451,62.15403654,61.4032658,61.22720532,61.40857522,61.58990169,61.83677829,60.39604628,60.61029409,60.74917022,60.90432217,61.08892411,61.21572103,61.30426472,61.33055569,61.2631701,61.17877647,61.1400409,61.09381533,61.007217,61.01006563,61.05480988,61.13639986,61.14630962,61.12165078,61.07551809,60.97606408,60.84949181,60.8008869,60.87504898,60.95374943,60.99128727,60.94927256,60.89586624,60.88875917,61.02148803,60.94437275,60.87609696,60.9087804,60.8684837,60.95878541,61.09751138,61.05713113,60.99372485,60.98939349,60.97134076,60.97676349,60.91557887,60.97051792,61.05925028,61.04102955,60.99629651,61.00188682,61.01309003,61.01294109,61.05585795,61.09058987,61.09784355,61.03421523,61.00432999,60.99411265,61.0093321,61.15285607,61.19618763,61.14117288,61.13078306,61.13667356,61.15186699,61.19895276,61.26657827,61.15649063,61.11860063,61.14583985,61.11917537,61.09825289,61.13929037,61.12047907,61.1070551,61.1071837,61.12165707,61.20949713,61.27022303,61.21737529,61.11298135,61.06207448,61.04777637,61.04382065,61.08667116,61.09611714,61.07907531,61.06271638,61.03486588,60.99561303,60.89561137,36.41500996,36.22577439,36.11217085,40.4204464,75.60262262,75.83657672,76.93035138,76.93035138,76.93035138,76.93035138,NaN,NaN],
	"ap0": [NaN,0.5527620494,0.1840783696,0.2620072714,0.05710676679,0.01734579102,0.03196061055,0.02398156235,0.03222135316,0.09950854846,0.1268253696,0.1769134449,0.1435729228,0.05080859952,0.04929976996,0.05063026231,0.05402084136,0.09391479087,0.06002135125,0.03561054337,0.03551858628,0.03985626309,0.05164045595,0.1171454627,0.144832396,0.1356317963,0.7717403314,0.412853755,0.2591947093,0.2810620363,0.1718821843,0.1605772135,0.1843456543,0.1691998063,0.1431928197,0.1093057509,0.07842359644,0.1072748412,0.147148952,0.3861049736,0.3406809,0.1919943947,0.3949469996,0.3770239349,0.09143417998,0.03834934246,0.03912885044,0.04860828387,0.05397494471,0.05166188793,0.05889670728,0.05839543063,0.05967178156,0.06216425733,0.09569040195,0.1307551505,0.072671681,0.03940111801,0.02910839856,0.02579654636,0.02611535948,0.1083000218,0.1603406061,0.05784590689,0.08488144949,0.1220189225,0.2208604065,0.5167718577,0.2650483891,0.108418181,0.06724831914,0.04782833524,0.03925114033,0.03061846198,0.02185328375,0.02027014594,0.0208685846,0.01726485829,0.02764410582,0.09468276433,0.2473917462,0.3724751822,0.3872082702,0.3165658717,0.2979814039,0.2714493425,0.249461289,0.2736713591,0.3482653406,0.2297492878,0.2126588481,0.1346062591,0.08063706805,0.06703275725,0.06672268877,0.05269774774,0.05739898583,0.1076156755,0.09476996893,0.07310394013,0.1040842421,0.08985422091,0.09662115348,0.1184343274,0.1882332196,0.2056665496,0.2861353684,0.5617696652,0.4755232695,0.5065319783,0.7494801059,0.5392502123,0.4975005516,0.5645431511,0.4770429831,0.3981808215,0.4011249277,0.4664159411,0.375730313,0.4357634557,0.3896973847,0.3005465022,0.331446336,0.4684113112,0.5309676862,0.6474329367,0.7500421947,0.4179055832,0.2708059371,0.06570880287,0.06357889298,0.04453269116,0.02334713837,0.02933817932,0.02954234677,0.02158686112,0.01473431188,0.02544253702,0.03653850782,0.03288642205,0.03082429794,0.09058276975,0.06980777256,0.05381696865,0.06737646031,0.05589748203,0.04167135507,0.0331111912,0.03356940334,0.05516301486,0.05995244881,0.09674684535,0.1631564431,0.1991560186,0.3676289099,0.3941911545,0.2801307109,0.07702275157,0.02911160145,0.02123178269,0.03978091713,0.04262911126,0.037158085,0.07119244296,0.1317288372,0.1636525249,0.08140112199,0.03226815023,0.03284520637,0.01199346794,0.006708799542,0.01610511826,0.04533111417,0.03447168791,0.04553611971,0.08013973396,0.04531304912,0.01435396102,0.02210488504,0.05100644596,0.1256842753,0.04262461746,0.01584827278,0.02132965368,0.006043747485,0.0120368229,0.02556445284,0.01941650582,0.01655668117,0.03139889099,0.1228877217,0.04104251098,0.1644675341,0.2933851734,0.1214811997,0.1275526832,0.1257999191,0.145114818,0.1121428082,0.07434262804,0.06521386286,0.2158196611,0.2241482869,0.2167133953,0.246846869,0.1129468594,0.08358062118,0.1679137975,0.0427337328,0.0508474043,0.07453093933,0.05823668867,0.03716652143,0.02968060772,0.0350290905,0.03788231734,0.04151159772,0.05869915101,0.0784788001,0.06720589562,0.03902840393,0.02776039132,0.02950244302,0.04657104908,0.05961806942,0.06990061471,0.0726759614,0.06948501106,0.09027547409,0.1056568154,0.1035144486,0.1505952838,0.2933068633,0.4481874497,0.520830477,0.5095737953,0.5036515322,0.4483168201,0.55900171,0.5685124926,0.5708892021,0.5183648409,0.5593038816,0.7031955336,0.7025438325,0.7935413522,0.7724645619,0.7868668099,0.7781671883,0.7644548494,0.5418270253,0.6214338768,0.8299719945,0.7540709102,0.8664018173,0.6480341187,0.5636413915,0.8193303847,0.3192425238,0.1430878384,0.04959975152,0.03370043001,0.04537358703,0.05979347509,0.06015782908,0.100454711,0.103328736,0.04767551367,0.026235461,0.03922442763,0.03820131966,0.0390390503,0.03137076094,0.02133438952,0.01919690686,0.02041783804,0.01053873327,0.008038288592,0.01639407072,0.01894724016,0.01832300429,0.03933501629,0.05780627873,0.2321078436,0.1242333956,0.1185534503,0.1031681211,0.1141791499,0.06158810496,0.04245781641,0.03426983363,0.02772110241,0.02834258428,0.06098000873,0.07367557637,0.06966429796,0.06985214427,0.06446203376,0.1366513049,0.07357955298,0.09352040272,0.2299422028,0.2758269025,0.2623745215,0.05447265179,0.07604031451,0.04180003834,0.02444746999,0.02564201269,0.03555749723,0.04882626394,0.03691136975,0.0405136657,0.02743317405,0.03390280552,0.04605081886,0.05177249572,0.03797202195,0.05653241753,0.05755016299,0.0756544603,0.1210907889,0.1572584046,0.4753059301,0.1468642317,0.03607205553,0.01765780389,0.01906888475,0.02006800674,0.02342067325,0.02801211597,0.02683439421,0.02261294777,0.01418178549,0.01205194472,0.02554968627,0.04249169736,0.02808755123,0.02707644832,0.03538616226,0.02590574283,0.01970407934,0.03018131976,0.03946393794,0.04470707117,0.05311839193,0.04890144457,0.0622307907,0.1110576513,0.1113518171,0.08368557856,0.07037355073,0.1021401702,0.05923180095,0.07837211662,0.1158370138,0.09112187732,0.1308023659,0.09701753222,0.09498278674,0.1083052048,0.08618296974,0.06256966636,0.06487383372,0.04996568778,0.03923188976,0.04978374733,0.05953733624,0.02849303032,0.02367642267,0.06281379746,0.1364690243,0.09036416418,0.1206142348,0.1378865056,0.08972630449,0.06702241128,0.114802454,0.1645393647,0.1075215755,0.1106788185,0.2096092722,0.1116945693,0.0586934652,0.07265098174,0.250909221,0.5514418673,0.3044738167,0.1216976055,0.1267508387,0.141068585,0.1697487507,0.116199558,0.06918059477,0.05047215478,0.05623179055,0.09905318337,0.1490595009,0.09753172095,0.07464246574,0.05947845605,0.06156235788,0.0879760593,0.1348459907,0.1484653158,0.104818509,0.07479175695,0.08673895934,0.153721481,0.265694664,0.3652890297,0.3170750374,0.3264192538,0.6219427019,1.019086669,0.6724117943,0.8737818891,1.036649215,1,1,1,NaN,NaN],
	"ap": [NaN,0.2397343723,0.7529717948,0.5886077975,0.2766828162,0.009765235507,0.002571539045,0.006267082353,0.0271000178,0.03604851481,0.007673753626,0.01717139838,0.4530108518,0.1436252331,0.03218105696,0.00390819468,0.07751436809,0.03781937481,0.06476103372,0.06720977585,0.007858158098,0.0211352634,0.01662981289,0.02218586058,0.0712362937,0.09997141222,0.02780137091,0.1553856304,0.1735977518,0.5207488116,0.5761510551,0.09856830765,0.2311118768,0.0922739672,0.1146497559,0.1084987547,0.03923608287,0.03222949572,0.03301919199,0.06142692868,0.05686652538,0.2058656107,0.04174750174,0.4770577812,0.6589768449,0.06682845689,0.02579442352,0.02145628013,0.01417201232,0.0391107609,0.01959749504,0.0523090359,0.02787479765,0.0381775202,0.03437321288,0.03055802171,0.1107723224,0.04769987272,0.01239309285,0.03634586416,0.006127322042,0.01412043334,0.009040324143,0.3897630984,0.01729679898,0.01495529525,0.02063113928,0.1892884642,0.3523197154,0.2050467971,0.0521776755,0.04798370698,0.01368679198,0.02682415636,0.02783172497,0.01128142755,0.009787953774,0.01252678632,0.004448759334,0.01618643503,0.01524474663,0.07350619159,0.2933036203,0.09681093299,0.1851516307,0.147521938,0.1376641736,0.1365000974,0.1111931021,0.2205246428,0.1577582545,0.1578566259,0.1332875749,0.04286242188,0.02423104967,0.0167092927,0.04507698063,0.02448289921,0.03313501604,0.06322914645,0.02259660392,0.05700214311,0.0382433872,0.01843668742,0.06984204678,0.05670367214,0.1201732822,0.1915797944,0.1753026477,0.4238593157,0.2129775246,0.3205345055,0.3579981297,0.04634356283,0.1460562751,0.5153604121,0.3391568052,0.149320377,0.1243981439,0.2376050947,0.3770187027,0.6254843305,0.2813708382,0.2644514971,0.2756230628,0.2945700992,0.4718011996,0.3287622057,0.552868116,0.7227124077,0.04071155399,0.07991250581,0.03041688059,0.01092660376,0.0168191171,0.020223625,0.01131967154,0.01056442096,0.01438132063,0.03568938965,0.009899650592,0.01427685358,0.09466308823,0.0657074879,0.03100537135,0.08695872299,0.02893719471,0.01559983134,0.01737047699,0.01858278294,0.02574446866,0.01801088464,0.01885039158,0.07888189294,0.10021792,0.1328407858,0.2695369807,0.2535656402,0.07091475316,0.01545863624,0.01045246072,0.02161871782,0.02067419103,0.05105330401,0.0288777222,0.07204272646,0.1164078094,0.02822641125,0.01314047128,0.02263984217,0.0106041932,0.004126364696,0.009125883094,0.05005079653,0.01225945258,0.02356081479,0.04129122629,0.0288143088,0.004407700878,0.007889600914,0.03441182947,0.07814956165,0.07654843565,0.02347296568,0.01900382873,0.002750550896,0.004689305019,0.02341742535,0.02158779128,0.004798570212,0.04221128725,0.01447867741,0.01365932783,0.02281334983,0.1251925576,0.06361014381,0.07706369789,0.2427605369,0.04635175379,0.06485875388,0.0506899426,0.01855631012,0.2831147709,0.1586729421,0.06203540389,0.5414353617,0.04136542856,0.1483873041,0.0890169304,0.04826930435,0.02494428502,0.0675823954,0.035739452,0.03128732521,0.007547944705,0.01492799602,0.02820225928,0.03209300524,0.0273617105,0.03938736741,0.0373413953,0.0139756787,0.02073944005,0.00523993054,0.01119940561,0.02101194125,0.02969797451,0.03671854089,0.03776018081,0.03448073419,0.04114732197,0.07899866818,0.04303300023,0.1848743647,0.3251374539,0.2641668527,0.2206582349,0.1707266271,0.2875851006,0.3371415158,0.3962392739,0.2387754136,0.5290024606,0.445900515,0.3103905212,0.4870091879,0.3377430617,0.4212047888,0.6116149583,0.5521953634,0.6024792328,0.3022763131,0.4574964515,0.7179807814,0.3341511753,0.3350757009,0.5539328636,0.2061070651,0.6403197431,0.2952943661,0.09814012236,0.02217992595,0.03849123148,0.01298073287,0.03970941475,0.03667226873,0.02905291876,0.08079317667,0.01321430613,0.02295927259,0.04018479369,0.03034065678,0.02477730254,0.01097863343,0.01056844242,0.004909492722,0.03306323334,0.003764431586,0.005092971365,0.008674075855,0.01336479518,0.007152548567,0.03926025873,0.05153142255,0.1591716841,0.6953660135,0.04584505413,0.0504418616,0.03710355779,0.0106739878,0.02152604033,0.02443119809,0.005886801889,0.023603209,0.02880985778,0.05460779814,0.01492422653,0.0879979019,0.01757019019,0.2625925445,0.03187360245,0.06626925602,0.07528702845,0.1706698771,0.2946170224,0.07150523222,0.03671325328,0.1176808452,0.004062430441,0.01695667515,0.02343110502,0.08927550655,0.00452804182,0.1064152537,0.00458014323,0.06740081485,0.005969753256,0.02068118901,0.07526439294,0.02270273797,0.229747199,0.007093617001,0.05799523316,0.05378424517,0.3165786052,0.03930526932,0.008840184682,0.00757633187,0.009661306661,0.01862798245,0.01273761648,0.01241334349,0.02289750479,0.008953773836,0.003277132327,0.009598598908,0.009540885013,0.01433659116,0.01460216226,0.01288214992,0.02034568513,0.02417634689,0.009274356885,0.01962063498,0.02772362414,0.02109424536,0.03461734696,0.03255767362,0.05351559182,0.1036366585,0.0518447825,0.06159229804,0.01837379764,0.09857411715,0.02370615908,0.04638425029,0.1412304282,0.03300628021,0.04299863873,0.06301601651,0.02333061949,0.0561768681,0.05574188048,0.02534795204,0.03558021802,0.05076443736,0.02351150142,0.01511342125,0.05419130518,0.02816599895,0.009788058906,0.04328147678,0.09369803346,0.09478623317,0.04202056254,0.1049877247,0.04276495042,0.0349461453,0.01745280871,0.06661816208,0.03627919581,0.0418456053,0.03660171753,0.02287253336,0.02931267214,0.02113704213,0.02027337229,0.1825738176,0.1082803587,0.03270204527,0.06557453384,0.06712832125,0.1627740095,0.03661624997,0.07986155841,0.01737144712,0.02071287812,0.0598788148,0.0609815694,0.0641108914,0.02609767287,0.01443302218,0.06052084609,0.01972571851,0.1057997372,0.02065468408,0.02603334985,0.07344893427,0.01862597209,0.06299673967,0.09368820933,0.1675547898,0.1046521701,0.2651955504,0.5731152388,1,1,0.1477276976,1,1,1,NaN,NaN],
	"pwr": [NaN,2.301705074e-07,1.474595969e-06,3.222146263e-06,0.009449003954,0.03962088537,0.03564843392,0.02899507652,0.03537390883,0.02190896255,0.01017499807,0.03227479842,0.006935414597,0.0234408588,0.04372779474,0.03440803183,0.03589870585,0.02442141986,0.009996923424,0.01733317363,0.01704350513,0.01084742305,0.01134366578,0.01033614821,0.002532982646,0.00344586722,0.002681327913,0.0002126447139,0.001376556104,0.001053259403,0.00241659193,0.004406126576,0.002468089477,0.006219798252,0.002500586259,0.003707072499,0.003637786727,0.003389007256,0.001747558147,0.0005579688682,0.0006380584499,0.0007940605654,0.0009418630031,0.001158444523,0.001084840301,0.00328344417,0.006867271264,0.006159446657,0.004321420169,0.003787071933,0.003458735936,0.003101022628,0.005623147119,0.005418182243,0.006069932489,0.006200119763,0.003637098861,0.004569688479,0.008464371479,0.00790579457,0.01698007522,0.01209761312,0.007153838217,0.001977113043,0.002109968026,0.0008467735665,0.0008166187546,0.0006452213531,0.0006726066129,0.0005633929064,0.003895032756,0.005686643237,0.005986696947,0.005620534441,0.006775945757,0.01110719851,0.01398123566,0.01166469058,0.01218934632,0.0133592801,0.0146323094,0.0121672703,0.002941436146,0.003965124901,0.005729494101,0.009851134801,0.004029182871,0.002085958887,0.002727219304,0.002754919641,0.001166164123,0.0008185146392,0.001711029154,0.002835687059,0.001729759241,0.002301193553,0.001866428896,0.001614205955,0.001025021513,0.0004303424326,0.0007166584932,0.0004442250954,0.0004078130358,0.0002903182298,0.0001201534592,7.190024829e-05,8.527396763e-05,8.02162148e-05,2.076130572e-05,4.852967217e-05,7.8535693e-05,6.408614686e-05,2.703581429e-05,0.0001119052745,2.42606291e-05,7.936999484e-05,0.0003438315203,0.0004193341785,6.700433398e-05,0.0001530001789,0.0001159267396,0.000106102628,9.161135353e-05,7.649444127e-05,3.654542177e-05,2.308233121e-05,8.742385756e-06,1.072905712e-05,6.139128297e-06,9.748680641e-05,0.002158197876,0.004919709351,0.007022332101,0.01232474509,0.01457357292,0.01434606069,0.01241879927,0.01026500175,0.01120589251,0.007669604801,0.005415326744,0.005949878545,0.006164330274,0.001883351689,0.006456284237,0.00543116308,0.01064577104,0.01194758572,0.008064978422,0.004803006876,0.003378430798,0.003666524929,0.005644191244,0.001804536667,0.002303567526,0.001604608478,0.001560320805,0.003458921606,0.007487187229,0.02070627331,0.02599790685,0.02490155891,0.01092960682,0.01673793441,0.0258903171,0.0342058457,0.01927682938,0.01979413287,0.02936938957,0.03078278794,0.05380266279,0.08529395109,0.1064624848,0.03997543899,0.02178199015,0.0153891054,0.007696388637,0.01780172658,0.02080859534,0.01310377779,0.004872936689,0.002146505786,0.008147157672,0.0460503948,0.1259901502,0.08552430641,0.08332236667,0.03317982561,0.03123027405,0.1035047336,0.07019256183,0.009594866941,0.006310938832,0.005709138578,0.01519577834,0.01430999084,0.013780664,0.007233471474,0.02058274274,0.0399988431,0.03556013533,0.02118256553,0.001482049896,0.002288600252,0.006400682511,0.001379488417,0.005097564822,0.006813952679,0.0007946211151,0.008718926963,0.02114994239,0.01259452713,0.03743791315,0.02257137172,0.02426806999,0.01662896504,0.01489337103,0.01505014201,0.02134398501,0.01053043234,0.01285048647,0.007326288711,0.01030943343,0.01224088687,0.006630223134,0.002991814114,0.002627742488,0.002195896934,0.001663014797,0.0007176814491,0.0003611450592,0.0002789056198,0.000412745188,0.0002760823248,0.0001102493223,0.0003135840354,5.504682483e-05,0.0003038961828,0.0002868367414,0.0002740970825,0.0001695199626,0.0002940524737,0.0001527531393,0.0002802311461,0.0002642742492,0.0004715657053,0.0001597163537,0.0002531522779,0.0001656055722,0.0001767914679,6.565615908e-05,0.0001299377592,4.229520206e-05,3.204456723e-05,3.475476528e-05,1.115545024e-05,7.231255192e-06,0.0006535575684,0.01902021139,0.007943595618,0.01842043567,0.04184996676,0.045251483,0.05737091012,0.02000203084,0.03536436341,0.01981247045,0.01100135348,0.0128853221,0.01637295537,0.02772179948,0.02977242102,0.1128946262,0.02662938218,0.04997842557,0.07980947282,0.03799662805,0.04914680691,0.04998614361,0.04465896669,0.02124612276,0.0263739202,0.01221949091,0.006828330937,0.003602013406,0.006986637452,0.2829819923,0.1967469722,0.1807008061,0.09151901161,0.02307030007,0.0355625717,0.04890686087,0.0235328074,0.008049582218,0.0031189262,0.004579038675,0.002735350829,0.005470007384,0.001358202354,0.00960014353,0.007787228992,0.006096429376,0.003959042279,0.003841516926,0.005487480272,0.03419439644,0.004690252492,0.04555914232,0.01625295617,0.02038822182,0.003157889475,0.01782203031,0.00209274801,0.01702743161,0.004551372299,0.008443491508,0.005401963732,0.004267945098,0.00617642921,0.0005356648356,0.009702301784,0.001322438031,0.001605770271,0.001028699217,0.002221482341,0.01735248672,0.0390864574,0.04605102638,0.04712479383,0.04196669673,0.04225060795,0.03510339933,0.02248077253,0.05097680576,0.05872096749,0.02446326622,0.01128053854,0.01365789212,0.01614438951,0.009214917245,0.007074025642,0.01262117051,0.01018287638,0.007408659651,0.006431766417,0.004389549194,0.005148297255,0.002766071911,0.0006362717628,0.0008132590516,0.0003729995335,0.0006312874052,0.0001184782433,0.0002958414603,0.0003320325679,4.996447447e-05,8.341679843e-05,5.121992623e-05,3.804764629e-05,2.414765696e-05,1.08155318e-05,1.656095518e-05,8.015730912e-06,1.368244876e-05,9.104464886e-06,2.873762179e-05,1.323803008e-05,2.447887573e-06,4.160582531e-06,8.517465529e-06,2.385015493e-06,5.631483418e-07,7.780574213e-07,3.53662411e-07,1.826931319e-07,3.881992108e-07,2.314709208e-07,2.832806146e-07,3.127946227e-07,2.202685427e-07,1.316633522e-07,7.961541196e-08,9.264352828e-08,1.448810351e-07,1.739617108e-07,8.498529922e-08,5.632974549e-08,9.936780292e-08,1.162626867e-07,6.285412662e-08,3.540208217e-08,3.732410007e-08,3.299336674e-08,6.51185119e-08,9.454489836e-08,9.595914863e-08,4.75971061e-08,1.74394713e-08,4.125297816e-08,4.122125596e-08,6.077351246e-08,5.739413498e-08,3.430420241e-08,2.223169196e-08,1.555554986e-08,1.982495053e-08,1.940952756e-08,2.335382729e-08,9.745836947e-09,7.078703032e-09,4.762991526e-09,2.163635516e-09,6.396191413e-10,1.862952314e-10,0,0,1.113537861e-10,0,0,0,NaN,NaN],
	"sr": 16000,
	"range": [1,135402],
	"minf0": 63.1883,
	"maxf0": 706.3069,
	"thresh": 0.1,
	"relflag": 1,
	"hop": 320,
	"bufsize": 10000,
	"wsize": 640,
	"lpf": 4000,
	"shift": 0,
	"plotthreshold": 0.2
}
