{
    "f0": [
        0.0,
        0.0,
        0.0,
        0.0,
        0.0,
        0.0,
        62.217855573650965,
        62.901752151812879,
        63.244579747428936,
        63.538249730860628,
        63.791777352582869,
        63.810487493910344,
        63.810887749554865,
        63.811286349952809,
        63.778775354976098,
        63.784847505072221,
        63.823439759656509,
        63.976527313751191,
        63.876994211737333,
        63.989287046080463,
        64.000271220450301,
        63.887585234183668,
        63.951980931453264,
        63.899767468034561,
        63.836663927388081,
        63.769347191980223,
        63.71889746797148,
        63.561924726462557,
        62.929953705683474,
        63.366244384724268,
        63.974896564070498,
        63.76790637547397,
        62.619413160703829,
        62.578680116119315,
        62.53785455068045,
        62.669192058143928,
        62.602730471577949,
        62.775540567815256,
        62.946641050475428,
        63.288332444627187,
        63.365147084788909,
        63.326223300890064,
        63.498817765693566,
        63.475054628997476,
        63.351323027773006,
        63.27559513448778,
        63.343836713090923,
        63.121229480905534,
        63.119020328203455,
        63.177775492344374,
        63.143209549790136,
        63.146345130956604,
        63.154841299207547,
        63.163333299941776,
        63.209965926475526,
        63.237460856707713,
        63.245373383001898,
        63.26304914281738,
        63.361971055284066,
        63.419976755071161,
        63.472893473747604,
        63.354098350185907,
        63.409574935816252,
        63.411989444119776,
        63.440862558836798,
        63.28248787769779,
        63.195001530861937,
        63.253867931171449,
        63.244829264317389,
        62.344603676619911,
        47.377579164314824,
        44.34025363012082,
        44.661832656131011,
        44.977547079216535,
        63.950651675909157,
        63.865710218999283,
        63.780350001871831,
        63.777509075822643,
        63.774669226566047,
        63.771825718332607,
        63.725690906138269,
        63.701149659323526,
        63.837969624556777,
        63.906111590977169,
        63.97398639947793,
        64.015633514262674,
        64.003905964440222,
        63.96144351560568,
        63.977143577851464,
        63.992831096428347,
        64.022582025798187,
        64.090519243839978,
        64.139156627755511,
        64.112241206931017,
        64.088872130437551,
        64.065471414211956,
        64.044892927425593,
        64.061012687300661,
        63.883524187752066,
        63.98538136061255,
        63.803657562181208,
        64.225133950730907,
        65.036435446069859,
        65.094075304452147,
        65.151523843682838,
        65.190724241802457,
        65.338685450136481,
        65.431512164191375,
        65.523843853863369,
        65.441690916419958,
        65.975059819237757,
        65.853659949785893,
        66.080567722075614,
        65.981097672668866,
        65.798934642678773,
        65.565891074013948,
        66.033492465431337,
        66.166764353913706,
        66.109799333356037,
        65.358734327509069,
        65.619127981093243,
        65.875663085017734,
        66.12845227882535,
        65.85028412070001,
        65.941786044935824,
        65.796692455702129,
        65.856401592049863,
        65.690199498661599,
        66.283888864398662,
        65.629709071508785,
        66.018799709893074,
        65.633720375027565,
        65.399192742982166,
        65.592602351642043,
        65.547193377949569,
        38.307955319095754,
        54.480918495262486,
        54.150362549825253,
        54.325107537471695,
        37.653482065897791,
        50.182103747209794,
        62.137511126050072,
        62.421082193492751,
        62.526086812528057,
        62.717152313598021,
        62.689312220908199,
        62.674826927184014,
        62.825892083228275,
        63.082575844189449,
        63.315764981634558,
        63.133730377771435,
        63.033064730167183,
        63.030883290215314,
        63.029947557300133,
        63.028382871770155,
        63.020450223165447,
        63.015703854493324,
        63.01095618419513,
        63.056130255632581,
        63.03046797679675,
        63.010847579933618,
        63.072562883118877,
        63.249573460767728,
        63.367712372943274,
        63.163666395752514,
        62.957185059586578,
        63.091042581194237,
        62.184855815030623,
        63.205084938591718,
        63.213381293727515,
        62.998874078767514,
        62.95139790702229,
        63.090204695939342,
        63.193523886159682,
        63.139337296795524,
        61.247853099452051,
        61.26240721639526,
        61.037523381808811,
        61.340677234701246,
        61.052722775893827,
        60.961084846437487,
        60.868961226356944,
        61.200370070068729,
        61.372585947261818,
        61.543105613857364,
        61.362203290572666,
        61.245782362130576,
        61.012755582964203,
        61.007606493832391,
        61.566281766871469,
        61.060768588730618,
        60.670871563338373,
        61.22211823029027,
        61.274219510827507,
        61.568196481920623,
        61.892152448177271,
        62.210155847572381,
        62.865252542512813,
        62.815231787846017,
        62.765066088717148,
        62.714754602677274,
        62.760276707784449,
        62.852934725042147,
        62.945099462829859,
        63.036776145448542,
        63.127963176069919,
        63.086190509766112,
        63.083936291367898,
        63.081683496256026,
        63.079430407957553,
        63.027957331950198,
        63.001030733677098,
        63.067974557606661,
        62.990080138766267,
        63.016767603790257,
        63.043413992640197,
        63.004205743531841,
        63.019744642533993,
        63.035271328369468,
        63.079384767150785,
        62.935134441336011,
        63.045182279102221,
        63.022527836882063,
        63.14368618104406,
        0.0,
        0.0,
        0.0,
        0.0,
        43.755174751753486,
        52.658879625314881,
        45.966326821073494,
        64.924260488278605,
        45.704493993356316,
        64.82864314917434,
        64.941343241714165,
        65.225577858229386,
        65.246688715424867,
        65.740193515919472,
        65.664602282046573,
        66.048295199493026,
        38.239626537569606,
        35.220328238664528,
        36.519471036794151,
        37.08747805063399,
        64.916945665716611,
        65.22250591713383,
        65.52611429843067,
        65.824488484765652,
        65.76805287527867,
        65.006121922559345,
        65.933561545910379,
        65.953069611531845,
        65.519795269731048,
        65.601152617266777,
        65.68326526342986,
        65.057701237652381,
        65.061042193613048,
        35.135070825666837,
        46.448174107039399,
        47.172056307712715,
        47.160156652571523,
        46.246508894482218,
        46.696069215540753,
        46.70404415813919,
        53.602347885033694,
        52.620180750639882,
        64.205555459400813,
        45.231950568245281,
        64.141204366645752,
        64.079908123445051,
        64.190654083358083,
        64.109277408979338,
        64.124939562404904,
        64.139984952877541,
        64.099981361962975,
        64.039613348759175,
        63.994315835979521,
        64.017135503253911,
        64.116696308087384,
        64.182215318964069,
        64.161849830155077,
        64.119033280310703,
        64.076110574796616,
        64.033081185917737,
        63.101937928315344,
        62.936320715155716,
        62.360733453023649,
        62.489607669609178,
        62.929401258628161,
        62.857124935628889,
        62.784545604794687,
        63.054488336813158,
        63.099167472005313,
        63.067555033737683,
        63.055260227781311,
        63.077489792015371,
        63.19519800876585,
        63.369394683529123,
        63.347573621461549,
        63.48083455728095,
        63.315998449355156,
        63.025310639428355,
        63.025159730537794,
        63.025007097858648,
        63.197122119911931,
        63.042311247497437,
        63.083721657152537,
        63.208695889264582,
        63.291291550616045,
        63.220157978658477,
        63.215420771276641,
        63.349624018462116,
        63.181447592387023,
        63.181807210464903,
        63.232215709491086,
        63.282477859655096,
        63.158602405051099,
        63.185659847634746,
        63.213012272606043,
        63.240318148234628,
        63.267581078295962,
        63.29480108834094,
        63.147981726863776,
        63.054039696814286,
        63.275224096371637,
        62.996951626077475,
        62.748214743080879,
        63.157569225917285,
        63.056287661330366,
        63.167312887919465,
        63.277630636811701,
        63.387249867359962,
        63.362079168322417,
        63.516615861455158,
        63.495791616393838,
        63.634316271617188,
        63.869481539688607,
        63.978310359511845,
        64.086459331138386,
        64.019942259876373,
        63.953171844674813,
        63.941154204864617,
        63.935189727704881,
        63.993534996224895,
        64.051682721495965,
        63.985867424946669,
        64.021386278437845,
        63.978705123784138,
        64.165933407415494,
        64.232623600467804,
        64.008441890881073,
        64.123219271262471,
        64.121826695801971,
        63.914313932466051,
        64.151739885312963,
        64.071854126014614,
        64.048807627247612,
        64.169371634833169,
        47.692316832708151,
        44.748386760988275,
        45.908295322705925,
        46.99534913341104,
        65.971706129174763,
        65.926248068472717,
        66.052933841605011,
        66.114468381957394,
        66.122104044361819,
        66.077787429488097,
        66.025908811057562,
        65.977610736100246,
        66.09956880722909,
        66.085352634476152,
        66.05694645447511,
        66.035595909590995,
        66.020788010133288,
        66.034274865929902,
        66.085868426185016,
        66.118317816948377,
        66.128693233424485,
        66.139065266963655,
        66.05747736371778,
        65.975503092799229,
        66.065405626766363,
        66.036103193455304,
        65.986477475602328,
        66.031266208548502,
        66.075942162721361,
        65.593182758454716,
        65.521151733615213,
        42.591746523329206,
        53.017619268321276,
        54.073830849089028,
        66.355205418262301,
        66.587091285965897,
        66.641915313922311,
        66.527322114197119,
        66.579696664974719,
        66.631914644760215,
        66.683974247337645,
        66.730520553899936,
        66.712944009165852,
        66.810820963124257,
        67.43642728639756,
        67.787137419704464,
        68.255396652804222,
        68.123475992939319,
        67.984860717978648,
        67.845126623511817,
        67.876518994226672,
        67.899699355769428,
        67.922848721460028,
        67.949107451953125,
        67.973758096618653,
        67.825163105135672,
        67.907052609635883,
        67.965659421629596,
        67.963992062273206,
        67.947427040965323,
        67.930846112661655,
        67.914249330608726,
        67.897636622487482,
        68.053270313134604,
        67.965022062118749,
        67.971384329879513,
        67.820092776666598,
        67.963640207501953,
        67.98050560895814,
        68.008523431151659,
        68.055138360400193,
        68.074556096439863,
        67.93348472579008,
        67.88258213976944,
        67.626066156485606,
        67.642547923066061,
        67.659013971014161,
        67.71407600910662,
        67.768963477019497,
        67.473921522780017,
        67.107671031197242,
        66.733504575274154,
        66.822415605461046,
        65.675235626001481,
        65.638572043565148,
        65.69384214798724,
        65.843956980590661,
        67.483543212340905,
        67.963724339163903,
        68.045600825341026,
        68.145934699981566,
        66.350879316020951,
        66.712087507258602,
        66.700243239447929,
        67.608513436907501,
        44.19692907044201,
        45.917417029638187,
        46.374459122849117,
        48.826445604314401,
        48.746191326338391,
        0.0,
        0.0,
        42.611048219164104,
        53.731937863158045,
        0.0,
        46.867195041687907,
        40.259791509298481,
        66.061763495742241,
        65.94507249775198,
        66.019619884538145,
        66.026895480408243,
        66.034167973259386,
        66.041437459074984,
        66.00257116498706,
        65.996105222698816,
        65.94634591969988,
        65.896443185662307,
        65.910592755600575,
        65.881346080792852,
        65.894651738412776,
        65.788937835467848,
        65.83851683066527,
        65.894498033244815,
        65.886718157410158,
        65.929639233896552,
        65.928199664905833,
        65.955953034918366,
        65.949993780874962,
        65.961393647739527,
        65.999969646227484,
        65.988428006931599,
        65.976878668023474,
        65.886117317920451,
        65.834735806465531,
        65.935487990014153,
        65.998156076453,
        65.905294138181915,
        66.285084262872857,
        65.94177745337339,
        65.893733724036863,
        66.206416983758558,
        65.859815144897041,
        65.800650775444907,
        65.594147553100996,
        65.850155932594717,
        65.796100035824978,
        65.864078569475822,
        66.091508400481288,
        65.879613475074947,
        65.836386421824514,
        65.917079236953128,
        65.99740058859534,
        66.420183120529103,
        65.872274291893532,
        65.90175312373502,
        66.039189394741442,
        66.084765773514519,
        43.139333212053309,
        0.0,
        0.0,
        0.0,
        0.0,
        0.0,
        0.0,
        0.0,
        0.0,
        0.0,
        0.0,
        0.0,
        0.0,
        0.0,
        0.0,
        0.0,
        0.0,
        0.0,
        0.0,
        0.0,
        0.0,
        0.0,
        0.0,
        0.0,
        0.0,
        0.0,
        0.0,
        0.0,
        0.0,
        0.0,
        0.0,
        0.0,
        0.0,
        0.0,
        0.0,
        0.0,
        0.0,
        0.0,
        0.0,
        0.0,
        0.0,
        0.0,
        0.0,
        0.0,
        0.0,
        0.0,
        0.0,
        0.0,
        0.0,
        0.0,
        0.0,
        0.0,
        0.0
    ],
    "time": [
        0.02,
        0.040000000000000001,
        0.059999999999999998,
        0.080000000000000002,
        0.10000000000000001,
        0.12,
        0.14000000000000001,
        0.16,
        0.17999999999999999,
        0.20000000000000001,
        0.22,
        0.23999999999999999,
        0.26000000000000001,
        0.28000000000000003,
        0.29999999999999999,
        0.32000000000000001,
        0.34000000000000002,
        0.35999999999999999,
        0.38,
        0.40000000000000002,
        0.41999999999999998,
        0.44,
        0.46000000000000002,
        0.47999999999999998,
        0.5,
        0.52000000000000002,
        0.54000000000000004,
        0.56000000000000005,
        0.57999999999999996,
        0.59999999999999998,
        0.62,
        0.64000000000000001,
        0.66000000000000003,
        0.68000000000000005,
        0.69999999999999996,
        0.71999999999999997,
        0.73999999999999999,
        0.76000000000000001,
        0.78000000000000003,
        0.80000000000000004,
        0.81999999999999995,
        0.83999999999999997,
        0.85999999999999999,
        0.88,
        0.90000000000000002,
        0.92000000000000004,
        0.93999999999999995,
        0.95999999999999996,
        0.97999999999999998,
        1.0,
        1.02,
        1.04,
        1.0600000000000001,
        1.0800000000000001,
        1.1000000000000001,
        1.1200000000000001,
        1.1399999999999999,
        1.1599999999999999,
        1.1799999999999999,
        1.2,
        1.22,
        1.24,
        1.26,
        1.28,
        1.3,
        1.3200000000000001,
        1.3400000000000001,
        1.3600000000000001,
        1.3799999999999999,
        1.3999999999999999,
        1.4199999999999999,
        1.4399999999999999,
        1.46,
        1.48,
        1.5,
        1.52,
        1.54,
        1.5600000000000001,
        1.5800000000000001,
        1.6000000000000001,
        1.6200000000000001,
        1.6399999999999999,
        1.6599999999999999,
        1.6799999999999999,
        1.7,
        1.72,
        1.74,
        1.76,
        1.78,
        1.8,
        1.8200000000000001,
        1.8400000000000001,
        1.8600000000000001,
        1.8799999999999999,
        1.8999999999999999,
        1.9199999999999999,
        1.9399999999999999,
        1.96,
        1.98,
        2.0,
        2.02,
        2.04,
        2.0600000000000001,
        2.0800000000000001,
        2.1000000000000001,
        2.1200000000000001,
        2.1400000000000001,
        2.1600000000000001,
        2.1800000000000002,
        2.2000000000000002,
        2.2200000000000002,
        2.2400000000000002,
        2.2599999999999998,
        2.2799999999999998,
        2.2999999999999998,
        2.3199999999999998,
        2.3399999999999999,
        2.3599999999999999,
        2.3799999999999999,
        2.3999999999999999,
        2.4199999999999999,
        2.4399999999999999,
        2.46,
        2.48,
        2.5,
        2.52,
        2.54,
        2.5600000000000001,
        2.5800000000000001,
        2.6000000000000001,
        2.6200000000000001,
        2.6400000000000001,
        2.6600000000000001,
        2.6800000000000002,
        2.7000000000000002,
        2.7200000000000002,
        2.7400000000000002,
        2.7599999999999998,
        2.7799999999999998,
        2.7999999999999998,
        2.8199999999999998,
        2.8399999999999999,
        2.8599999999999999,
        2.8799999999999999,
        2.8999999999999999,
        2.9199999999999999,
        2.9399999999999999,
        2.96,
        2.98,
        3.0,
        3.02,
        3.04,
        3.0600000000000001,
        3.0800000000000001,
        3.1000000000000001,
        3.1200000000000001,
        3.1400000000000001,
        3.1600000000000001,
        3.1800000000000002,
        3.2000000000000002,
        3.2200000000000002,
        3.2400000000000002,
        3.2599999999999998,
        3.2799999999999998,
        3.2999999999999998,
        3.3199999999999998,
        3.3399999999999999,
        3.3599999999999999,
        3.3799999999999999,
        3.3999999999999999,
        3.4199999999999999,
        3.4399999999999999,
        3.46,
        3.48,
        3.5,
        3.52,
        3.54,
        3.5600000000000001,
        3.5800000000000001,
        3.6000000000000001,
        3.6200000000000001,
        3.6400000000000001,
        3.6600000000000001,
        3.6800000000000002,
        3.7000000000000002,
        3.7200000000000002,
        3.7400000000000002,
        3.7599999999999998,
        3.7799999999999998,
        3.7999999999999998,
        3.8199999999999998,
        3.8399999999999999,
        3.8599999999999999,
        3.8799999999999999,
        3.8999999999999999,
        3.9199999999999999,
        3.9399999999999999,
        3.96,
        3.98,
        4.0,
        4.0199999999999996,
        4.04,
        4.0599999999999996,
        4.0800000000000001,
        4.0999999999999996,
        4.1200000000000001,
        4.1399999999999997,
        4.1600000000000001,
        4.1799999999999997,
        4.2000000000000002,
        4.2199999999999998,
        4.2400000000000002,
        4.2599999999999998,
        4.2800000000000002,
        4.2999999999999998,
        4.3200000000000003,
        4.3399999999999999,
        4.3600000000000003,
        4.3799999999999999,
        4.4000000000000004,
        4.4199999999999999,
        4.4400000000000004,
        4.46,
        4.4800000000000004,
        4.5,
        4.5199999999999996,
        4.54,
        4.5599999999999996,
        4.5800000000000001,
        4.5999999999999996,
        4.6200000000000001,
        4.6399999999999997,
        4.6600000000000001,
        4.6799999999999997,
        4.7000000000000002,
        4.7199999999999998,
        4.7400000000000002,
        4.7599999999999998,
        4.7800000000000002,
        4.7999999999999998,
        4.8200000000000003,
        4.8399999999999999,
        4.8600000000000003,
        4.8799999999999999,
        4.9000000000000004,
        4.9199999999999999,
        4.9400000000000004,
        4.96,
        4.9800000000000004,
        5.0,
        5.0199999999999996,
        5.04,
        5.0599999999999996,
        5.0800000000000001,
        5.0999999999999996,
        5.1200000000000001,
        5.1399999999999997,
        5.1600000000000001,
        5.1799999999999997,
        5.2000000000000002,
        5.2199999999999998,
        5.2400000000000002,
        5.2599999999999998,
        5.2800000000000002,
        5.2999999999999998,
        5.3200000000000003,
        5.3399999999999999,
        5.3600000000000003,
        5.3799999999999999,
        5.4000000000000004,
        5.4199999999999999,
        5.4400000000000004,
        5.46,
        5.4800000000000004,
        5.5,
        5.5199999999999996,
        5.54,
        5.5599999999999996,
        5.5800000000000001,
        5.5999999999999996,
        5.6200000000000001,
        5.6399999999999997,
        5.6600000000000001,
        5.6799999999999997,
        5.7000000000000002,
        5.7199999999999998,
        5.7400000000000002,
        5.7599999999999998,
        5.7800000000000002,
        5.7999999999999998,
        5.8200000000000003,
        5.8399999999999999,
        5.8600000000000003,
        5.8799999999999999,
        5.9000000000000004,
        5.9199999999999999,
        5.9400000000000004,
        5.96,
        5.9800000000000004,
        6.0,
        6.0199999999999996,
        6.04,
        6.0599999999999996,
        6.0800000000000001,
        6.0999999999999996,
        6.1200000000000001,
        6.1399999999999997,
        6.1600000000000001,
        6.1799999999999997,
        6.2000000000000002,
        6.2199999999999998,
        6.2400000000000002,
        6.2599999999999998,
        6.2800000000000002,
        6.2999999999999998,
        6.3200000000000003,
        6.3399999999999999,
        6.3600000000000003,
        6.3799999999999999,
        6.4000000000000004,
        6.4199999999999999,
        6.4400000000000004,
        6.46,
        6.4800000000000004,
        6.5,
        6.5199999999999996,
        6.54,
        6.5599999999999996,
        6.5800000000000001,
        6.5999999999999996,
        6.6200000000000001,
        6.6399999999999997,
        6.6600000000000001,
        6.6799999999999997,
        6.7000000000000002,
        6.7199999999999998,
        6.7400000000000002,
        6.7599999999999998,
        6.7800000000000002,
        6.7999999999999998,
        6.8200000000000003,
        6.8399999999999999,
        6.8600000000000003,
        6.8799999999999999,
        6.9000000000000004,
        6.9199999999999999,
        6.9400000000000004,
        6.96,
        6.9800000000000004,
        7.0,
        7.0199999999999996,
        7.04,
        7.0599999999999996,
        7.0800000000000001,
        7.0999999999999996,
        7.1200000000000001,
        7.1399999999999997,
        7.1600000000000001,
        7.1799999999999997,
        7.2000000000000002,
        7.2199999999999998,
        7.2400000000000002,
        7.2599999999999998,
        7.2800000000000002,
        7.2999999999999998,
        7.3200000000000003,
        7.3399999999999999,
        7.3600000000000003,
        7.3799999999999999,
        7.4000000000000004,
        7.4199999999999999,
        7.4400000000000004,
        7.46,
        7.4800000000000004,
        7.5,
        7.5199999999999996,
        7.54,
        7.5599999999999996,
        7.5800000000000001,
        7.5999999999999996,
        7.6200000000000001,
        7.6399999999999997,
        7.6600000000000001,
        7.6799999999999997,
        7.7000000000000002,
        7.7199999999999998,
        7.7400000000000002,
        7.7599999999999998,
        7.7800000000000002,
        7.7999999999999998,
        7.8200000000000003,
        7.8399999999999999,
        7.8600000000000003,
        7.8799999999999999,
        7.9000000000000004,
        7.9199999999999999,
        7.9400000000000004,
        7.96,
        7.9800000000000004,
        8.0,
        8.0199999999999996,
        8.0399999999999991,
        8.0600000000000005,
        8.0800000000000001,
        8.0999999999999996,
        8.1199999999999992,
        8.1400000000000006,
        8.1600000000000001,
        8.1799999999999997,
        8.1999999999999993,
        8.2200000000000006,
        8.2400000000000002,
        8.2599999999999998,
        8.2799999999999994,
        8.3000000000000007,
        8.3200000000000003,
        8.3399999999999999,
        8.3599999999999994,
        8.3800000000000008,
        8.4000000000000004,
        8.4199999999999999,
        8.4399999999999995,
        8.4600000000000009,
        8.4800000000000004,
        8.5,
        8.5199999999999996,
        8.5399999999999991,
        8.5600000000000005,
        8.5800000000000001,
        8.5999999999999996,
        8.6199999999999992,
        8.6400000000000006,
        8.6600000000000001,
        8.6799999999999997,
        8.6999999999999993,
        8.7200000000000006,
        8.7400000000000002,
        8.7599999999999998,
        8.7799999999999994,
        8.8000000000000007,
        8.8200000000000003,
        8.8399999999999999,
        8.8599999999999994,
        8.8800000000000008,
        8.9000000000000004,
        8.9199999999999999,
        8.9399999999999995,
        8.9600000000000009,
        8.9800000000000004,
        9.0,
        9.0199999999999996,
        9.0399999999999991,
        9.0600000000000005,
        9.0800000000000001,
        9.0999999999999996,
        9.1199999999999992,
        9.1400000000000006,
        9.1600000000000001,
        9.1799999999999997,
        9.1999999999999993,
        9.2200000000000006,
        9.2400000000000002,
        9.2599999999999998,
        9.2799999999999994,
        9.3000000000000007,
        9.3200000000000003,
        9.3399999999999999,
        9.3599999999999994,
        9.3800000000000008,
        9.4000000000000004,
        9.4199999999999999,
        9.4399999999999995,
        9.4600000000000009,
        9.4800000000000004,
        9.5,
        9.5199999999999996,
        9.5399999999999991,
        9.5600000000000005,
        9.5800000000000001,
        9.5999999999999996,
        9.6199999999999992,
        9.6400000000000006,
        9.6600000000000001,
        9.6799999999999997,
        9.6999999999999993,
        9.7200000000000006,
        9.7400000000000002,
        9.7599999999999998,
        9.7799999999999994,
        9.8000000000000007,
        9.8200000000000003,
        9.8399999999999999,
        9.8599999999999994,
        9.8800000000000008,
        9.9000000000000004,
        9.9199999999999999,
        9.9399999999999995,
        9.9600000000000009,
        9.9800000000000004,
        10.0,
        10.02,
        10.039999999999999,
        10.06,
        10.08,
        10.1,
        10.119999999999999,
        10.140000000000001,
        10.16,
        10.18,
        10.199999999999999,
        10.220000000000001,
        10.24,
        10.26,
        10.279999999999999,
        10.300000000000001,
        10.32,
        10.34,
        10.359999999999999,
        10.380000000000001,
        10.4,
        10.42,
        10.44,
        10.460000000000001,
        10.48,
        10.5,
        10.52,
        10.539999999999999,
        10.56,
        10.58,
        10.6,
        10.619999999999999,
        10.640000000000001,
        10.66,
        10.68,
        10.699999999999999,
        10.720000000000001,
        10.74,
        10.76,
        10.779999999999999,
        10.800000000000001,
        10.82,
        10.84,
        10.859999999999999,
        10.880000000000001,
        10.9,
        10.92,
        10.94,
        10.960000000000001,
        10.98,
        11.0,
        11.02,
        11.039999999999999,
        11.06,
        11.08,
        11.1,
        11.119999999999999,
        11.140000000000001,
        11.16,
        11.18,
        11.199999999999999,
        11.220000000000001,
        11.24,
        11.26,
        11.279999999999999,
        11.300000000000001,
        11.32,
        11.34,
        11.359999999999999
    ]
}