{
    "DU": 261,
    "DV": 230,
    "F-measure": 0.40673886883273164,
    "F-measure Chroma": 0.4717208182912154,
    "FN": 95,
    "FNC": 0,
    "FNCch": 7,
    "FNI": 95,
    "FNIch": 88,
    "FP": 56,
    "GU": 222,
    "GV": 269,
    "Overall Accuracy": 0.34419551934826886,
    "Overall Chroma Accuracy": 0.39918533604887985,
    "Precision": 0.42676767676767674,
    "Precision Chroma": 0.494949494949495,
    "Raw Chroma Accuracy": 0.137546468401487,
    "Raw Pitch Accuracy": 0.011152416356877323,
    "Recall": 0.38850574712643676,
    "Recall Chroma": 0.45057471264367815,
    "TN": 166,
    "TO": 491,
    "TP": 174,
    "TPC": 3,
    "TPCch": 30,
    "TPI": 171,
    "TPIch": 144,
    "Voiced Chroma Accuracy": 0.11152416356877323,
    "Voiced Pitch Accuracy": 0.011152416356877323,
    "Voicing Accuracy": 0.6924643584521385,
    "Voicing Detection": 0.6468401486988847,
    "Voicing False Alarm": 0.25225225225225223
}