{
    "f0": [
        0.0,
        49.119476073814262,
        48.945479697406931,
        48.771487959652127,
        48.771487959652127,
        48.77148606100846,
        48.943752957948085,
        48.840604099348809,
        49.023212840736107,
        49.117020804131826,
        49.079598457729702,
        48.724193012582305,
        49.847070728652078,
        49.798446106775451,
        49.749684529712951,
        49.700785223794213,
        49.651749213293172,
        49.774837121026607,
        49.715773855387397,
        49.770002705467192,
        49.824062339509872,
        49.703960779386719,
        49.759883061777529,
        49.815627192294812,
        49.836950699765595,
        49.701365465306459,
        49.776424524782279,
        49.772146682750105,
        49.752228835473716,
        49.613755399687129,
        49.706266572521073,
        49.69238867879929,
        49.499013917594013,
        49.737275337443961,
        50.349821521807655,
        50.586052435554066,
        50.903920882805721,
        49.903640680047076,
        50.239791544820761,
        50.175068528179786,
        50.456453087377632,
        50.133489372955779,
        50.243432118612596,
        50.274827791103561,
        50.165949192316496,
        49.782811129575023,
        50.61515807021788,
        51.078848977178168,
        51.342459877483641,
        51.520971493483785,
        51.563870988741492,
        50.618883706428306,
        51.270593912505689,
        0.0,
        0.0,
        0.0,
        55.078068191230557,
        55.203538175587362,
        55.120429912467294,
        55.036920672954082,
        54.399768718299811,
        54.295451506678091,
        54.190500428080384,
        54.257175819175266,
        54.399590032980569,
        54.54083819402031,
        54.572180097054179,
        54.657834844939089,
        54.716032479563864,
        54.741179939991213,
        54.766288238947709,
        54.617364459866252,
        54.699317533074421,
        54.520923077422211,
        54.775795215103642,
        54.676719805071443,
        54.83225241409373,
        54.90553238086305,
        55.191080441798974,
        55.295192929032659,
        55.137030810425451,
        55.062907990484128,
        55.074314939656347,
        55.028749649338991,
        55.052677364102905,
        55.051994790305031,
        55.02428985043737,
        55.030676423043431,
        55.037059230246484,
        55.043439685068975,
        55.049816380036354,
        55.056196185794988,
        55.062569592895699,
        54.894949346213359,
        54.993797024806838,
        55.157159600829019,
        55.286794289022851,
        55.081697199244999,
        55.166073834037832,
        55.002423940312845,
        55.58716760275717,
        51.786343754546294,
        51.486929535552513,
        51.263325138036492,
        51.338597017884808,
        51.413544779911945,
        51.488171102636684,
        51.562477122421136,
        51.80872919049407,
        51.966803183307,
        51.991485689168897,
        51.732390523336619,
        51.749894916275778,
        51.76737683768981,
        51.784841017391557,
        51.802286003770348,
        51.819713535335993,
        52.293699257631189,
        51.827550517599377,
        51.90283183706002,
        51.998626685775832,
        51.556217829804403,
        50.337408257849191,
        50.121931197007513,
        49.903736597692074,
        50.07629651341302,
        50.210715771593634,
        50.188189442631781,
        50.165633764854292,
        50.143046907657357,
        50.120434056252314,
        50.270051387033028,
        50.35946122797354,
        50.303753775507602,
        50.247864745970887,
        50.171363581992225,
        50.094521225834342,
        50.017328974057591,
        49.939791113736341,
        50.110687124489289,
        50.203825478023923,
        50.160360101622729,
        50.238180360216695,
        50.204557941531739,
        50.170873716597825,
        50.309383287377258,
        50.446795323091969,
        50.409124125452969,
        50.231000945843746,
        50.122086675855542,
        50.055599619727374,
        50.236446555767358,
        50.415427423493725,
        50.41858172231548,
        50.421735331462493,
        50.424888481300911,
        50.428041056951024,
        50.081436478851828,
        50.46153561966581,
        50.338276384607788,
        50.298857986468732,
        50.259349748030075,
        50.392012290322263,
        50.496622972190217,
        0.0,
        45.000414232136769,
        44.650659632339099,
        44.300903612243815,
        43.95114876191559,
        43.810837721559267,
        43.903332965735821,
        43.995337824942084,
        44.265935576332687,
        44.318805060782381,
        44.304307685125451,
        44.368726984683981,
        44.688337239874521,
        44.527448400504433,
        44.651192632280122,
        44.625334070565593,
        44.718592551631062,
        44.670381900706069,
        44.717140176937519,
        44.875819516594966,
        45.033063464255228,
        45.188892203300433,
        45.169334817838916,
        45.477277553093302,
        46.198042605892184,
        46.516351013047739,
        47.185667565613414,
        47.694269587788398,
        47.72715339032078,
        47.456605324728457,
        47.259765928419569,
        47.060658534348903,
        47.031499945617583,
        46.916222449053173,
        46.843550631293127,
        47.091633378863968,
        47.137182882328744,
        47.282153527250884,
        47.202638089624344,
        47.379213969400247,
        47.469546097598467,
        47.559410287664619,
        47.474815467099504,
        46.971338090793672,
        47.181372313756654,
        47.886508134799143,
        47.264569555528567,
        42.047460750249932,
        42.001107657015247,
        42.027127761638937,
        41.833462746374103,
        41.874933856952495,
        42.181980725679416,
        42.353644155664817,
        42.62702782499008,
        42.692011793479544,
        42.704869501569959,
        42.952543168254941,
        42.918290670472402,
        42.864862031245544,
        42.81126656338914,
        42.680144195676057,
        42.610427959515945,
        42.643186739043003,
        42.740430188990388,
        42.775466102141891,
        42.942197021754566,
        43.117503689779063,
        43.188266180962387,
        43.073363460170235,
        43.042682645093095,
        42.969429992512268,
        42.895863229339113,
        42.876705492151771,
        42.836133230775594,
        42.658972945111202,
        42.590011854761549,
        42.556068200992868,
        42.633146791556342,
        42.635544879815065,
        42.675143304883605,
        42.939296092104705,
        43.199480314521352,
        43.380683209487458,
        43.42323633908449,
        43.242196144560424,
        42.988841475350618,
        42.813925995886208,
        42.850061760775105,
        42.856666376421238,
        42.915515856564824,
        42.985557084448814,
        42.966433617403091,
        42.815766572546764,
        42.877962459832673,
        43.084873396674958,
        43.113842078667197,
        43.17078553990369,
        43.064617391269401,
        43.053714778947899,
        43.042802300494913,
        42.979937984162767,
        42.802774253035466,
        42.715544643215907,
        42.649979436223049,
        42.861719821929661,
        43.070907208719973,
        43.113882268289117,
        43.238598101808691,
        43.208813596665763,
        43.178979160061346,
        43.073384921367364,
        43.061785312353216,
        43.002888834389793,
        42.986856029637238,
        43.034814412675786,
        43.037719477531581,
        43.02864338881799,
        42.989736981638877,
        42.985110643460928,
        43.023705832276733,
        43.165156781266809,
        43.288487025973865,
        43.22795203963706,
        43.067138942113147,
        42.955393172823491,
        42.926390859404314,
        43.100089469540492,
        43.202299388189005,
        43.305298553108869,
        43.387735620761134,
        43.307050312273176,
        43.225983192659307,
        43.144536081392609,
        42.944134781119118,
        42.929380514122897,
        42.924536457037775,
        43.069195789593451,
        43.14607435518267,
        43.101587615674731,
        43.117561241751133,
        42.968563167781966,
        42.998248518925351,
        42.935468035549178,
        43.036737779155771,
        43.137419983808705,
        43.085667442884244,
        43.10352763642932,
        43.108348736181156,
        43.051649398237537,
        43.005523057244567,
        42.973903944343249,
        43.083609914444381,
        43.052881576217203,
        43.063118858562135,
        43.080496611531125,
        43.030294277387831,
        43.055216767286311,
        43.055336336089354,
        43.067845114662937,
        43.080342224116833,
        43.092830318897406,
        43.105313450506983,
        43.117783551992694,
        43.130247307730713,
        42.988430120872479,
        42.920761925295245,
        42.867957387517635,
        42.814988618879347,
        42.854104538629855,
        42.693168418105444,
        42.702193082477152,
        42.619159776489496,
        42.72096960108157,
        42.897346631579524,
        42.873633409992593,
        42.630546066404328,
        42.719801187288198,
        42.613806325815631,
        42.706611925795173,
        42.736100867206744,
        42.645621843576734,
        43.079963986717516,
        43.050106762502736,
        43.135740367718896,
        42.92980143335852,
        43.053390907190888,
        43.056776555802969,
        43.649626905924201,
        43.161151345661679,
        42.658490615267269,
        0.0,
        0.0,
        0.0,
        43.247441340642126,
        43.247441340642126,
        43.425808928638602,
        35.432204311965251,
        41.122138357726044,
        43.817441920624184,
        43.53538782838914,
        42.597719399358596,
        41.516590190767488,
        41.239702944109823,
        41.333815857647423,
        41.847653856203294,
        41.957194229393608,
        41.806508675511239,
        41.654502903359997,
        40.498940796111086,
        39.260699059302851,
        35.814806967113846,
        38.639754168563208,
        38.511609166077911,
        36.436192574387213,
        35.374430525792846,
        0.0,
        0.0,
        0.0,
        0.0,
        0.0,
        0.0,
        0.0,
        0.0,
        0.0,
        0.0,
        0.0,
        0.0,
        0.0,
        0.0,
        0.0,
        0.0,
        0.0,
        0.0,
        0.0,
        0.0,
        0.0,
        0.0,
        0.0,
        0.0,
        0.0,
        0.0,
        0.0,
        0.0,
        0.0,
        0.0,
        0.0,
        0.0,
        0.0,
        0.0,
        0.0,
        0.0,
        0.0,
        0.0,
        0.0,
        0.0,
        0.0,
        0.0,
        0.0,
        0.0,
        0.0,
        0.0,
        0.0,
        0.0,
        0.0,
        0.0,
        0.0,
        0.0,
        0.0,
        0.0,
        0.0,
        0.0,
        0.0,
        0.0,
        0.0,
        0.0,
        0.0,
        0.0,
        0.0,
        0.0,
        0.0,
        0.0,
        0.0,
        0.0,
        0.0,
        0.0,
        0.0,
        0.0,
        0.0,
        0.0,
        0.0,
        0.0,
        0.0,
        0.0,
        0.0,
        0.0,
        0.0,
        0.0,
        0.0,
        0.0,
        0.0,
        0.0,
        0.0,
        0.0,
        0.0,
        0.0,
        0.0,
        0.0,
        0.0,
        0.0,
        0.0,
        0.0,
        0.0,
        0.0,
        0.0,
        0.0,
        0.0,
        0.0,
        0.0,
        0.0,
        0.0,
        0.0,
        0.0,
        0.0
    ],
    "time": [
        0.02,
        0.040000000000000001,
        0.059999999999999998,
        0.080000000000000002,
        0.10000000000000001,
        0.12,
        0.14000000000000001,
        0.16,
        0.17999999999999999,
        0.20000000000000001,
        0.22,
        0.23999999999999999,
        0.26000000000000001,
        0.28000000000000003,
        0.29999999999999999,
        0.32000000000000001,
        0.34000000000000002,
        0.35999999999999999,
        0.38,
        0.40000000000000002,
        0.41999999999999998,
        0.44,
        0.46000000000000002,
        0.47999999999999998,
        0.5,
        0.52000000000000002,
        0.54000000000000004,
        0.56000000000000005,
        0.57999999999999996,
        0.59999999999999998,
        0.62,
        0.64000000000000001,
        0.66000000000000003,
        0.68000000000000005,
        0.69999999999999996,
        0.71999999999999997,
        0.73999999999999999,
        0.76000000000000001,
        0.78000000000000003,
        0.80000000000000004,
        0.81999999999999995,
        0.83999999999999997,
        0.85999999999999999,
        0.88,
        0.90000000000000002,
        0.92000000000000004,
        0.93999999999999995,
        0.95999999999999996,
        0.97999999999999998,
        1.0,
        1.02,
        1.04,
        1.0600000000000001,
        1.0800000000000001,
        1.1000000000000001,
        1.1200000000000001,
        1.1399999999999999,
        1.1599999999999999,
        1.1799999999999999,
        1.2,
        1.22,
        1.24,
        1.26,
        1.28,
        1.3,
        1.3200000000000001,
        1.3400000000000001,
        1.3600000000000001,
        1.3799999999999999,
        1.3999999999999999,
        1.4199999999999999,
        1.4399999999999999,
        1.46,
        1.48,
        1.5,
        1.52,
        1.54,
        1.5600000000000001,
        1.5800000000000001,
        1.6000000000000001,
        1.6200000000000001,
        1.6399999999999999,
        1.6599999999999999,
        1.6799999999999999,
        1.7,
        1.72,
        1.74,
        1.76,
        1.78,
        1.8,
        1.8200000000000001,
        1.8400000000000001,
        1.8600000000000001,
        1.8799999999999999,
        1.8999999999999999,
        1.9199999999999999,
        1.9399999999999999,
        1.96,
        1.98,
        2.0,
        2.02,
        2.04,
        2.0600000000000001,
        2.0800000000000001,
        2.1000000000000001,
        2.1200000000000001,
        2.1400000000000001,
        2.1600000000000001,
        2.1800000000000002,
        2.2000000000000002,
        2.2200000000000002,
        2.2400000000000002,
        2.2599999999999998,
        2.2799999999999998,
        2.2999999999999998,
        2.3199999999999998,
        2.3399999999999999,
        2.3599999999999999,
        2.3799999999999999,
        2.3999999999999999,
        2.4199999999999999,
        2.4399999999999999,
        2.46,
        2.48,
        2.5,
        2.52,
        2.54,
        2.5600000000000001,
        2.5800000000000001,
        2.6000000000000001,
        2.6200000000000001,
        2.6400000000000001,
        2.6600000000000001,
        2.6800000000000002,
        2.7000000000000002,
        2.7200000000000002,
        2.7400000000000002,
        2.7599999999999998,
        2.7799999999999998,
        2.7999999999999998,
        2.8199999999999998,
        2.8399999999999999,
        2.8599999999999999,
        2.8799999999999999,
        2.8999999999999999,
        2.9199999999999999,
        2.9399999999999999,
        2.96,
        2.98,
        3.0,
        3.02,
        3.04,
        3.0600000000000001,
        3.0800000000000001,
        3.1000000000000001,
        3.1200000000000001,
        3.1400000000000001,
        3.1600000000000001,
        3.1800000000000002,
        3.2000000000000002,
        3.2200000000000002,
        3.2400000000000002,
        3.2599999999999998,
        3.2799999999999998,
        3.2999999999999998,
        3.3199999999999998,
        3.3399999999999999,
        3.3599999999999999,
        3.3799999999999999,
        3.3999999999999999,
        3.4199999999999999,
        3.4399999999999999,
        3.46,
        3.48,
        3.5,
        3.52,
        3.54,
        3.5600000000000001,
        3.5800000000000001,
        3.6000000000000001,
        3.6200000000000001,
        3.6400000000000001,
        3.6600000000000001,
        3.6800000000000002,
        3.7000000000000002,
        3.7200000000000002,
        3.7400000000000002,
        3.7599999999999998,
        3.7799999999999998,
        3.7999999999999998,
        3.8199999999999998,
        3.8399999999999999,
        3.8599999999999999,
        3.8799999999999999,
        3.8999999999999999,
        3.9199999999999999,
        3.9399999999999999,
        3.96,
        3.98,
        4.0,
        4.0199999999999996,
        4.04,
        4.0599999999999996,
        4.0800000000000001,
        4.0999999999999996,
        4.1200000000000001,
        4.1399999999999997,
        4.1600000000000001,
        4.1799999999999997,
        4.2000000000000002,
        4.2199999999999998,
        4.2400000000000002,
        4.2599999999999998,
        4.2800000000000002,
        4.2999999999999998,
        4.3200000000000003,
        4.3399999999999999,
        4.3600000000000003,
        4.3799999999999999,
        4.4000000000000004,
        4.4199999999999999,
        4.4400000000000004,
        4.46,
        4.4800000000000004,
        4.5,
        4.5199999999999996,
        4.54,
        4.5599999999999996,
        4.5800000000000001,
        4.5999999999999996,
        4.6200000000000001,
        4.6399999999999997,
        4.6600000000000001,
        4.6799999999999997,
        4.7000000000000002,
        4.7199999999999998,
        4.7400000000000002,
        4.7599999999999998,
        4.7800000000000002,
        4.7999999999999998,
        4.8200000000000003,
        4.8399999999999999,
        4.8600000000000003,
        4.8799999999999999,
        4.9000000000000004,
        4.9199999999999999,
        4.9400000000000004,
        4.96,
        4.9800000000000004,
        5.0,
        5.0199999999999996,
        5.04,
        5.0599999999999996,
        5.0800000000000001,
        5.0999999999999996,
        5.1200000000000001,
        5.1399999999999997,
        5.1600000000000001,
        5.1799999999999997,
        5.2000000000000002,
        5.2199999999999998,
        5.2400000000000002,
        5.2599999999999998,
        5.2800000000000002,
        5.2999999999999998,
        5.3200000000000003,
        5.3399999999999999,
        5.3600000000000003,
        5.3799999999999999,
        5.4000000000000004,
        5.4199999999999999,
        5.4400000000000004,
        5.46,
        5.4800000000000004,
        5.5,
        5.5199999999999996,
        5.54,
        5.5599999999999996,
        5.5800000000000001,
        5.5999999999999996,
        5.6200000000000001,
        5.6399999999999997,
        5.6600000000000001,
        5.6799999999999997,
        5.7000000000000002,
        5.7199999999999998,
        5.7400000000000002,
        5.7599999999999998,
        5.7800000000000002,
        5.7999999999999998,
        5.8200000000000003,
        5.8399999999999999,
        5.8600000000000003,
        5.8799999999999999,
        5.9000000000000004,
        5.9199999999999999,
        5.9400000000000004,
        5.96,
        5.9800000000000004,
        6.0,
        6.0199999999999996,
        6.04,
        6.0599999999999996,
        6.0800000000000001,
        6.0999999999999996,
        6.1200000000000001,
        6.1399999999999997,
        6.1600000000000001,
        6.1799999999999997,
        6.2000000000000002,
        6.2199999999999998,
        6.2400000000000002,
        6.2599999999999998,
        6.2800000000000002,
        6.2999999999999998,
        6.3200000000000003,
        6.3399999999999999,
        6.3600000000000003,
        6.3799999999999999,
        6.4000000000000004,
        6.4199999999999999,
        6.4400000000000004,
        6.46,
        6.4800000000000004,
        6.5,
        6.5199999999999996,
        6.54,
        6.5599999999999996,
        6.5800000000000001,
        6.5999999999999996,
        6.6200000000000001,
        6.6399999999999997,
        6.6600000000000001,
        6.6799999999999997,
        6.7000000000000002,
        6.7199999999999998,
        6.7400000000000002,
        6.7599999999999998,
        6.7800000000000002,
        6.7999999999999998,
        6.8200000000000003,
        6.8399999999999999,
        6.8600000000000003,
        6.8799999999999999,
        6.9000000000000004,
        6.9199999999999999,
        6.9400000000000004,
        6.96,
        6.9800000000000004,
        7.0,
        7.0199999999999996,
        7.04,
        7.0599999999999996,
        7.0800000000000001,
        7.0999999999999996,
        7.1200000000000001,
        7.1399999999999997,
        7.1600000000000001,
        7.1799999999999997,
        7.2000000000000002,
        7.2199999999999998,
        7.2400000000000002,
        7.2599999999999998,
        7.2800000000000002,
        7.2999999999999998,
        7.3200000000000003,
        7.3399999999999999,
        7.3600000000000003,
        7.3799999999999999,
        7.4000000000000004,
        7.4199999999999999,
        7.4400000000000004,
        7.46,
        7.4800000000000004,
        7.5,
        7.5199999999999996,
        7.54,
        7.5599999999999996,
        7.5800000000000001,
        7.5999999999999996,
        7.6200000000000001,
        7.6399999999999997,
        7.6600000000000001,
        7.6799999999999997,
        7.7000000000000002,
        7.7199999999999998,
        7.7400000000000002,
        7.7599999999999998,
        7.7800000000000002,
        7.7999999999999998,
        7.8200000000000003,
        7.8399999999999999,
        7.8600000000000003,
        7.8799999999999999,
        7.9000000000000004,
        7.9199999999999999,
        7.9400000000000004,
        7.96,
        7.9800000000000004,
        8.0,
        8.0199999999999996,
        8.0399999999999991,
        8.0600000000000005,
        8.0800000000000001,
        8.0999999999999996,
        8.1199999999999992,
        8.1400000000000006,
        8.1600000000000001,
        8.1799999999999997,
        8.1999999999999993,
        8.2200000000000006,
        8.2400000000000002,
        8.2599999999999998,
        8.2799999999999994,
        8.3000000000000007,
        8.3200000000000003,
        8.3399999999999999,
        8.3599999999999994,
        8.3800000000000008,
        8.4000000000000004,
        8.4199999999999999,
        8.4399999999999995,
        8.4600000000000009,
        8.4800000000000004,
        8.5,
        8.5199999999999996,
        8.5399999999999991,
        8.5600000000000005,
        8.5800000000000001,
        8.5999999999999996,
        8.6199999999999992,
        8.6400000000000006,
        8.6600000000000001,
        8.6799999999999997,
        8.6999999999999993,
        8.7200000000000006,
        8.7400000000000002,
        8.7599999999999998,
        8.7799999999999994,
        8.8000000000000007,
        8.8200000000000003,
        8.8399999999999999,
        8.8599999999999994,
        8.8800000000000008,
        8.9000000000000004,
        8.9199999999999999,
        8.9399999999999995,
        8.9600000000000009,
        8.9800000000000004,
        9.0,
        9.0199999999999996,
        9.0399999999999991,
        9.0600000000000005,
        9.0800000000000001,
        9.0999999999999996,
        9.1199999999999992,
        9.1400000000000006,
        9.1600000000000001,
        9.1799999999999997,
        9.1999999999999993,
        9.2200000000000006,
        9.2400000000000002,
        9.2599999999999998,
        9.2799999999999994,
        9.3000000000000007,
        9.3200000000000003,
        9.3399999999999999,
        9.3599999999999994,
        9.3800000000000008,
        9.4000000000000004,
        9.4199999999999999,
        9.4399999999999995,
        9.4600000000000009,
        9.4800000000000004,
        9.5,
        9.5199999999999996,
        9.5399999999999991,
        9.5600000000000005,
        9.5800000000000001,
        9.5999999999999996,
        9.6199999999999992,
        9.6400000000000006,
        9.6600000000000001,
        9.6799999999999997,
        9.6999999999999993,
        9.7200000000000006,
        9.7400000000000002,
        9.7599999999999998
    ]
}