{
	"f0": [NaN,44.55795157,57.17399484,35.34887861,42.99336795,52.29190533,52.70574845,48.5745703,48.29967256,44.94888238,39.41422835,52.77146217,52.74318912,44.12444074,43.87533778,43.08534315,38.56927182,45.26314813,45.73570528,46.11497664,46.33053134,46.69979662,46.98640326,47.39829291,47.50419339,47.40443481,47.34887861,47.26393792,47.43147764,47.76273913,49.81761632,49.69911275,49.72636724,49.93621428,50.15716344,50.10633131,50.03745479,49.98561491,49.99148465,49.9455592,49.84378894,49.75043815,49.68010446,48.4665237,48.3108695,48.48996489,48.74797408,49.19016754,49.90242403,50.80781824,51.29776138,51.52229474,51.89623731,52.33870697,52.21618697,51.9753991,52.04214985,52.42077069,53.67013757,53.62784438,53.27902019,53.15164851,53.03561316,53.02481758,52.91925656,52.99388522,53.02175671,52.76421498,52.70816087,52.80823526,52.76347397,52.73592638,52.88123836,52.96342182,52.95329944,53.27398108,53.22074085,52.99053177,52.67256219,52.63061747,52.60922543,52.64046059,52.6881864,52.64016243,52.60479269,52.65802831,52.67208172,52.61250939,52.67641708,52.74318912,49.83677829,49.83013755,50.06956226,50.52700699,50.42933239,50.82481736,52.01414075,52.68718885,52.37631916,52.51220458,52.48753039,52.47650434,52.45878653,52.32055342,52.55802863,52.24998874,51.83504061,51.34363592,51.15206711,51.07752606,51.02574382,50.90769991,50.85550604,50.86670057,50.90691799,50.91027684,50.89258418,50.8227124,50.66309729,50.65970706,47.97522293,47.80916195,47.73282906,47.85172471,48.19732729,48.38148777,48.44325015,48.60728066,48.65611734,48.50854591,48.57806643,48.51884192,48.56795633,48.35596274,48.26048029,45.17399484,45.7327264,46.29851649,47.27359564,47.62368344,46.68036542,46.54318056,40.16203175,40.34736236,52.17657965,52.37482755,53.3108577,40.30444056,52.32058956,52.87024437,52.90595598,52.64167012,52.30549128,52.21362262,52.26111121,52.33395335,52.28124264,52.45909504,53.11217671,53.76388197,53.91773979,53.74440136,53.50151067,53.22718258,52.74635959,52.85137282,52.9371871,52.89149574,52.71939071,52.57153391,52.68614524,52.8102174,52.90486317,52.87512837,52.81409661,52.75686742,52.70615422,52.76614552,52.77278674,52.75967062,52.75317338,52.7489013,52.71496969,52.63662273,52.63865485,52.70355464,52.76143511,52.76102022,52.73775539,52.70528317,52.53669476,52.32870344,52.09290522,51.81167485,51.94558576,51.98642711,51.51946871,51.093509,50.98376433,51.00303322,51.20695993,51.30487374,51.26130481,51.18023351,51.14792449,51.11372915,50.95243475,51.07904506,51.26464993,51.1795531,46.54404812,47.59636747,47.83323349,48.06606829,48.30518666,48.41901874,48.57059118,48.62760971,48.50480032,48.49054365,48.67480668,48.78102456,48.74487056,48.7095401,48.68673595,49.14332011,49.36614193,49.54085485,49.73264792,49.99663673,50.0595401,50.07297892,50.14369676,50.48713416,50.7143703,50.87753703,51.31455706,51.99918088,52.27433235,52.36866934,52.37101566,52.55745226,52.63334344,52.64955292,52.67518232,52.69566796,52.8155623,52.90109735,52.94054444,52.93210811,52.92180024,52.96087587,53.09561501,53.16679597,53.04287499,52.87946881,52.79508783,52.72475971,52.64175065,52.56724333,52.57798605,52.6259954,52.65332685,52.66280452,52.6759922,52.6729815,52.6723064,52.74168237,52.91119185,53.16537029,53.25788515,53.23800305,53.19081078,53.12706586,52.97835096,53.03327226,53.0734484,53.04491235,52.94479243,52.90523055,52.85383038,52.83047176,52.90647284,52.9243273,52.8956267,52.8450969,52.79222064,52.77509686,52.76694716,52.81027924,52.87616371,52.95730286,52.95005677,52.91260173,53.02806328,53.0296575,52.92368877,52.85431439,53.04211708,53.2361819,53.24078215,53.22038361,53.2352531,53.27195261,53.35818034,53.41830262,53.46765776,53.51293054,53.45854503,53.3973693,53.38713888,53.36708327,53.27189957,53.2077598,53.41373879,53.55322332,53.47966907,53.14837478,52.75934745,53.0453532,53.01609926,52.73911825,52.57680451,52.68952759,52.93035138,53.11955917,52.89143748,52.88239812,52.77169374,52.66589346,53.3108577,53.11955917,53.11955917,53.06844925,53.11955917,53.42513982,53.14537036,52.90837703,52.8979172,53.1084995,53.3108577,53.11955917,52.93035138,53.3108577,53.3108577,53.01203838,53.19985594,53.26145652,53.16081431,53.3108577,53.18309427,52.93035138,52.55802863,52.90703516,53.3108577,52.92460103,52.8446064,40.74318912,38.06013815,40.92274006,40.95388958,40.89861546,52.88159738,53.3108577,54.11680056,35.34887861,35.34887861,35.34887861,35.34887861,53.69991543,41.62884484,41.33025963,53.07950478,53.24053245,41.26283453,53.12998964,52.93308447,53.50429368,41.41038481,35.34887861,53.69991543,40.93035138,40.80252156,52.71898051,52.93035138,52.76487819,38.87372397,35.34887861,35.34887861,35.34887861,35.34887861,35.34887861,NaN,NaN],
	"ap0": [NaN,0.6063493913,0.5951830132,0.5523104176,0.786581032,0.5973431289,0.737822429,0.6698696169,0.6300146818,0.6520483823,0.8234227488,0.7063059669,0.41236738,0.6465352114,0.3759939467,0.6175683031,1.876570185,0.3306961626,0.2407674996,0.05761407467,0.05293509323,0.08808366417,0.1205568642,0.1635444864,0.1051548666,0.1096957511,0.1740801905,0.1792315541,0.2176193291,0.4719221919,0.5480684269,0.2138740192,0.1056113942,0.1946939426,0.1651959824,0.1125545509,0.08953440976,0.05709628184,0.06133156459,0.06914406089,0.05551714755,0.06038282088,0.2208073372,0.2555240777,0.06448781188,0.02541518834,0.04086339072,0.1005703271,0.1923270622,0.3176227211,0.1720078875,0.201595443,0.2785914111,0.1859947228,0.1805382261,0.237231839,0.244945151,0.2758469832,0.2715640448,0.1245762055,0.06814680595,0.07415661049,0.09761436756,0.08471982827,0.05615150512,0.04639726602,0.05393681656,0.0292711521,0.03774193802,0.02692084623,0.01507124857,0.01091411031,0.006631838927,0.009080374662,0.01534097816,0.05218097497,0.04157805236,0.03210969362,0.00805494937,0.009768514622,0.009704882475,0.005407064634,0.003578622188,0.007625090392,0.01575616837,0.02602146783,0.05153624971,0.07271482441,0.09064313662,0.5165838049,0.5060319596,0.2318145767,0.2047514291,0.2981112711,0.3995590359,0.2427658205,0.1938798096,0.1243789095,0.1048628684,0.08253295765,0.05067791919,0.03591346021,0.02910097996,0.03038232339,0.07900478869,0.1138108058,0.09667361045,0.05431709843,0.0786316767,0.04888485853,0.03663068321,0.0382426492,0.02411488044,0.0142186259,0.0169648271,0.02168316572,0.116069311,0.1803266272,0.09981082907,0.2182934148,0.2887062194,0.0827893151,0.02827910197,0.02967691443,0.03039245916,0.02343423388,0.02670371958,0.05855090764,0.07918081445,0.05171321249,0.05186815758,0.1400798488,0.2251758172,0.1440566702,0.1781641427,0.4094128624,0.2203107018,0.1880290731,0.1597995483,0.2990493892,0.4967643316,0.5332654052,0.5674225111,0.4934361098,0.3721794653,0.2302614603,0.4138203542,0.2137086731,0.1351851488,0.07615965751,0.02587733818,0.02153407817,0.01919265756,0.04007931918,0.06204000288,0.07217630524,0.08682912406,0.0730182076,0.07031120042,0.06284432898,0.03421111431,0.01834255724,0.01082245999,0.01935957858,0.034892241,0.02653829773,0.01248121205,0.007160272312,0.01339774133,0.006957960922,0.00547847478,0.007648553416,0.01465049069,0.01835405833,0.01171158865,0.01794225795,0.02535793434,0.01007409085,0.003557098257,0.002297371995,0.001606157711,0.001528858452,0.001346043588,0.002910446915,0.005501090697,0.004259055458,0.001840832161,0.002371974369,0.002844938994,0.002722180544,0.009589095749,0.01101615613,0.06280100469,0.1256245055,0.1566261587,0.1203015802,0.1044712573,0.07745846034,0.06026490033,0.05568265604,0.0344122033,0.02447019179,0.0254128535,0.03786700879,0.05952398618,0.08586657913,0.1422467761,0.2318977799,0.3017099848,0.161714832,0.6426412306,0.2530935446,0.05296247372,0.03552063016,0.02764972882,0.02904946036,0.03990142741,0.02567242269,0.01895396208,0.02461555774,0.05328173423,0.1004363327,0.1867523197,0.1445680706,0.1193866406,0.08196442913,0.07793243595,0.08221458532,0.0989204197,0.1049632874,0.094034036,0.09504352611,0.1128551477,0.08957376251,0.1053950069,0.3274442329,0.4939458799,0.2513712125,0.1709571522,0.1040393154,0.06395409651,0.04633844017,0.02666505343,0.02626648008,0.02206272135,0.01782821455,0.0103090078,0.009312222358,0.009853691764,0.008614352095,0.006170548494,0.01108378858,0.01585510628,0.007836693919,0.01022104077,0.009953612883,0.0121980717,0.01046858284,0.007167144151,0.003605075007,0.002920722664,0.002005599341,0.0009196379294,0.0005040260492,0.0006565122732,0.001347279865,0.001397268734,0.004166384993,0.01886395406,0.03231447472,0.05869377736,0.04893712841,0.01862286646,0.0284892971,0.02174415986,0.009880115398,0.004586809405,0.003938039767,0.004577707424,0.00312315271,0.003651413149,0.003297751478,0.002462078459,0.002290150788,0.002378187255,0.002287134819,0.00191223133,0.001763414635,0.001324716816,0.001616638133,0.002736884894,0.004599928786,0.00527868953,0.006161089339,0.009210267007,0.008253884343,0.00435636121,0.004165010585,0.007095889668,0.002994836883,0.003634185205,0.004698333564,0.004483399819,0.004673499135,0.004083380486,0.007892550897,0.0112709977,0.008029291889,0.005796951282,0.007247485448,0.009469179756,0.009246578536,0.0111348196,0.01140949594,0.01071589128,0.007262449707,0.01374240466,0.07357129274,0.07632771277,0.01518980425,0.01423460076,0.04944109866,0.1752708045,0.3774858019,0.2323434312,0.3238941486,0.2537923743,0.1587561015,0.1406264047,0.1655464161,0.3673677677,0.2288229141,0.1841233693,0.1901875613,0.1297271377,0.1699838679,0.1979797661,0.1513102871,0.131767745,0.2752025736,0.3769758269,0.3011221624,0.1684024173,0.1251423789,0.07405929528,0.05119231894,0.06719408577,0.09877448031,0.1273127355,0.1146430908,0.07455779767,0.2196399646,0.4709706229,0.2095380005,0.1826689875,0.1873458967,0.3509835188,0.4782499716,0.6432778983,0.3745172485,0.2238691259,0.212900734,0.1611942601,0.3015875778,0.9711182504,0.315290289,0.3750902757,0.3118780847,0.374950696,0.2551198077,0.1537293831,0.2527807611,0.1406764245,0.2862332614,0.2427165722,0.180363611,0.04169944571,0.3740187756,0.3037288753,0.3613986939,0.4358119529,0.3585590796,0.2531659877,0.1250342849,0.2911424114,0.9538729593,0.4739822005,0.4220869542,0.5662542337,0.6698524624,0.6047578455,0.5994386493,NaN,NaN],
	"ap": [NaN,0.5089382108,0.8410230188,0.2430944971,0.3768501489,0.1110175958,0.2577417851,0.2841561201,0.3998729611,0.2752314443,0.2753029003,0.5935582759,0.2436978645,0.3045552067,0.3276597195,0.09912823324,0.7217758297,0.3765494497,0.432561578,0.2124897299,0.0390894234,0.09286034598,0.04786569652,0.1264396665,0.09291901029,0.06592299973,0.07232619299,0.1000011786,0.0710871831,0.09455972711,0.4646727968,0.5239275394,0.08961349297,0.03270596043,0.1074376871,0.1093556812,0.06268619321,0.06585932456,0.02002234983,0.03758861518,0.07681980775,0.01902432033,0.03444525514,0.1826095798,0.1109993004,0.04274852807,0.02639990353,0.06615238796,0.1017530992,0.1035665535,0.226791225,0.149612969,0.03812370631,0.3214182402,0.04619416823,0.1621405466,0.1329914529,0.171413975,0.3876947403,0.1945656134,0.06337330859,0.02899644528,0.02726229829,0.07656695133,0.04832925899,0.01741916792,0.01030973218,0.01731523221,0.01874290067,0.01021236096,0.007848314589,0.007323982564,0.01471402477,0.001691930401,0.005908732137,0.01530060981,0.02763822727,0.04988033718,0.01708869059,0.004315607844,0.002522703212,0.002915000538,0.002468284886,0.001181487149,0.002755413772,0.007145357328,0.008228363516,0.02408361102,0.01236445467,0.02588958912,0.3359717306,0.1902531447,0.1908679219,0.1242133261,0.1402811347,0.1781939699,0.6452293833,0.06541660606,0.1008100319,0.04842564975,0.0604757326,0.02583681216,0.01345018564,0.02548930819,0.01333609338,0.02423363057,0.2351028335,0.02798413996,0.03440656854,0.04690158593,0.0312773443,0.01818308084,0.01850044193,0.006733417353,0.008341535431,0.008058380786,0.01198932439,0.01172346089,0.2453726638,0.02115911818,0.5819790808,0.2633450059,0.06159986113,0.02070590523,0.03073275305,0.03186608313,0.005144677053,0.01396719663,0.04659522709,0.03142877709,0.02838244062,0.02523761633,0.05208097235,0.07262391573,0.04388775134,0.6555548576,0.2718734882,0.1501865997,0.1378736243,0.0242353571,0.2887615907,0.1727996941,0.4301645336,0.1841820452,0.518420167,0.1216886981,0.212605281,0.1347701827,0.2073953178,0.1085056212,0.05280279695,0.01312324059,0.01525040524,0.006395469482,0.0373455671,0.04005745196,0.06075458872,0.04855280725,0.04335961441,0.04863027416,0.03753819495,0.01561671732,0.01650576803,0.00543965648,0.01556702598,0.0145430036,0.0129710753,0.01132624783,0.005506544619,0.006695936151,0.006305762353,0.004628225346,0.003170306799,0.01197214482,0.01064275345,0.005172759269,0.00893325571,0.01956803212,0.005730976373,0.002041531017,0.001006851208,0.0006389566974,0.001252295185,0.0006430661017,0.0004490753071,0.00398178042,0.00176576251,0.0007164044194,0.001460205235,0.0009181940384,0.005130411392,0.006069639692,0.014032064,0.01914215997,0.04706585274,0.4388505726,0.05046197532,0.0676206796,0.05134724352,0.01771133164,0.0399977789,0.02824032732,0.01078940226,0.01422521627,0.0148567107,0.01562815978,0.03277908613,0.04648192837,0.1357902007,0.482645554,0.6713021967,0.6043656069,0.1027859142,0.03092160264,0.02686956766,0.01489755184,0.01952445231,0.0138170891,0.01609288729,0.005823726844,0.03278052164,0.007002460212,0.07470492619,0.04779447549,0.03782903453,0.1495442561,0.04176305483,0.07533107941,0.03692919819,0.05712719164,0.04087314994,0.03885986745,0.04889348973,0.08330346768,0.07295792202,0.03345531309,0.1297875896,0.261203428,0.05061872564,0.1273112807,0.08054734366,0.01829814629,0.018037918,0.01472154118,0.005256006318,0.02429474934,0.005358694511,0.006517403445,0.004771830118,0.01036847813,0.006165624285,0.00170181782,0.009575446959,0.01148108147,0.0092097488,0.006676496141,0.004276315715,0.01038961252,0.007474411658,0.003352693168,0.002568553928,0.0006759199327,0.001806797624,0.0005991414589,0.0003181190382,0.0001611411242,0.001157618206,0.00209919218,0.004041834065,0.008855733567,0.01560500091,0.06338106783,0.008795048643,0.01675687647,0.005132641497,0.02286103465,0.003776252058,0.004560207914,0.001588369143,0.001953630432,0.000730447967,0.002492627768,0.002024150778,0.000877312065,0.002173509155,0.0018174795,0.001646636416,0.0006611119083,0.001149047212,0.001193328642,0.001060264472,0.0008625096762,0.003601796156,0.002714442957,0.004860449456,0.005494147912,0.007477945156,0.001973477362,0.00397535512,0.005171294399,0.0004867897082,0.001358746302,0.001602416741,0.002469664489,0.002647308381,0.002401805975,0.001325726898,0.01193711405,0.004800206138,0.003714589435,0.003500268845,0.01276702382,0.005760922824,0.003153870134,0.007700192908,0.005362657347,0.003198963057,0.008907056638,0.04198799444,0.1831676993,0.002512138279,0.004365886402,0.00874736977,0.301625558,0.3142143359,0.1658896487,0.2040036239,0.1876523803,0.2668500236,0.04525104283,0.1044448359,0.2353036723,0.1457331141,0.05306525514,0.1308529798,0.1033845575,0.0741016377,0.08018817446,0.02045403058,0.04570021856,0.1701262922,0.3348624711,0.2937050219,0.07553033882,0.07341530551,0.1082104965,0.01549362598,0.01659568152,0.02308278239,0.03963164941,0.06601499074,0.01027151752,0.1622745971,0.3389716461,0.1798454081,0.08050900619,0.2355812315,0.09013086581,0.2545617519,0.3722458772,0.1485346496,0.1388939701,0.3026234796,0.01791130473,0.1455700315,0.09636505163,0.1879980152,0.1333629257,0.1432594682,0.238539286,0.08834013461,0.04702180856,0.3827022386,0.03931537413,0.1555603658,0.2644153051,0.1461857842,0.01513862884,0.1162144867,0.1646124226,0.2328202545,0.1252399396,0.1319324999,0.2650434964,0.03729973325,0.154991862,0.1431569047,0.08771933993,0.1960000445,0.1983687886,0.234345439,0.09555117244,NaN,NaN],
	"pwr": [NaN,3.029424435e-05,2.925132867e-05,1.514237557e-05,1.963285439e-05,3.331464017e-05,1.340149192e-05,1.061532865e-05,1.383690006e-05,4.043629727e-05,1.581255865e-05,1.338560157e-05,5.752228135e-06,1.23393066e-05,7.040697398e-05,4.800358676e-05,5.537757226e-05,8.236230608e-05,0.0003655481003,0.03262427925,0.0292313595,0.06575807524,0.06981919601,0.07149907868,0.05014626254,0.05690660526,0.04851746191,0.02375641542,0.02157387682,0.01214699247,0.01014108617,0.01184173919,0.030621324,0.04594597746,0.0261910201,0.01109354954,0.02825379578,0.02627103532,0.03422540489,0.01641539762,0.01010707625,0.01238548651,0.005991216974,0.004211247256,0.003954914932,0.02880134175,0.07110229424,0.08056132263,0.05886447767,0.03669485715,0.06822571961,0.03911214235,0.1140111402,0.1288565657,0.06956417447,0.05878898251,0.05704006164,0.0194505243,0.01587696801,0.01154659737,0.07080542213,0.071797973,0.04009962214,0.01408616052,0.02952379798,0.03096718473,0.01797476651,0.01546432439,0.01078248651,0.008395187411,0.01088956905,0.01509965227,0.01664387697,0.01796348565,0.0174246129,0.009935555614,0.003916818737,0.01395328722,0.01946104998,0.02177681939,0.02803887429,0.04172876967,0.04130092025,0.03616653449,0.03616030526,0.02724522114,0.01619630714,0.01389549625,0.007796989155,0.003396605087,0.003451310955,0.007683270343,0.01045873714,0.01133328336,0.004417206609,0.005003667014,0.002284754144,0.01417888722,0.004531915902,0.01288672557,0.01101111807,0.007401910423,0.01055999844,0.007038557156,0.008229085593,0.005106044502,0.00167237173,0.01951856928,0.01011821774,0.00681638861,0.009800009904,0.01682183686,0.01049561919,0.006132538027,0.009017904209,0.008173933913,0.006640695825,0.00514982237,0.002114979075,0.003651959403,0.001655233547,0.002849152709,0.01461440287,0.03266735041,0.0313143856,0.02237505184,0.03578218284,0.04448093858,0.02905016057,0.009490065657,0.0143617727,0.007213952326,0.004463143281,0.002988873669,0.005025503852,0.004155082175,0.001834050543,0.01674574309,0.02493290132,0.02515793727,0.01216933422,0.0169214663,0.007735395197,0.007226148142,0.003214560786,0.005689707968,0.008738010233,0.004715173246,0.002512982995,0.005907595707,0.03077437407,0.05105374238,0.0565307889,0.04247143252,0.0264534098,0.02319880376,0.0106661826,0.00575433664,0.003759455213,0.006516459916,0.005170714807,0.01021375841,0.0212459257,0.03799381753,0.04650861667,0.01684245708,0.02946105871,0.06831562943,0.1155590176,0.1124072906,0.08386834601,0.1103804619,0.1231208267,0.08719037783,0.04939691905,0.04740414637,0.03274194664,0.01724392096,0.03423392752,0.05229576629,0.05044267342,0.05341526454,0.05828475649,0.06056286184,0.05709159229,0.06110204623,0.09433587246,0.1098257433,0.095318544,0.07624146548,0.0692312513,0.07062928352,0.09028014879,0.09480983776,0.06535451193,0.02334312435,0.04438726057,0.03644724599,0.01145878668,0.02535238921,0.02450689981,0.01691538929,0.04261640689,0.03956220577,0.03658565244,0.02082980015,0.0161945272,0.00929206,0.005686895853,0.002706648315,0.002285585557,0.002425923604,0.02290886643,0.05289289449,0.07567997872,0.07302246596,0.115926707,0.1452504818,0.1659958178,0.1941798525,0.2122136727,0.1945758301,0.1149552515,0.0843044959,0.06343677655,0.03360147683,0.03480778337,0.07052765693,0.04112346973,0.04170636402,0.02623786431,0.03682614132,0.05561806905,0.03780601838,0.02350991851,0.034188593,0.02049254138,0.0281618689,0.02019915972,0.01637715108,0.01738868888,0.04184897069,0.03386555909,0.05309062531,0.05236120309,0.04921127283,0.03743288267,0.02656080605,0.03286731425,0.02973592191,0.03323700836,0.03037111405,0.02269321625,0.01353021296,0.01125419015,0.01201439616,0.008479380657,0.007769217816,0.009942377044,0.01766239138,0.01818995326,0.02162310144,0.02861144776,0.03599455127,0.04120220539,0.04266105651,0.04135960414,0.03505114677,0.03292672015,0.02984459019,0.0290858368,0.01663743706,0.0201907499,0.01913774623,0.01193481906,0.008876171267,0.0143358373,0.01731019166,0.0176694744,0.0159946735,0.01408917288,0.01237765094,0.01299920105,0.01558021873,0.01501992014,0.01357970896,0.0120371546,0.01122895835,0.01155288503,0.01354324875,0.01443686616,0.01522844435,0.01597670065,0.01381073448,0.00862934141,0.006727852727,0.006111257293,0.006050601369,0.005748754019,0.006456549729,0.0110799935,0.01050290059,0.006404529966,0.006145220781,0.008197461846,0.008016814719,0.00903317116,0.00807659864,0.00636846271,0.004984644187,0.004426815304,0.003581731449,0.001815950003,0.001375142626,0.001082134011,0.001442135496,0.002150062991,0.002022652563,0.001130965519,0.0001586692796,0.001674629039,0.001968428096,0.0007234138902,0.0001257056142,4.661470809e-05,9.936646745e-05,2.361967025e-05,5.007079531e-05,7.438743644e-05,7.605541339e-05,4.936958689e-05,1.369911223e-05,8.413145974e-06,2.087105657e-05,1.110867815e-05,1.83249083e-05,5.33606984e-06,3.758105726e-06,5.720800519e-06,1.820358376e-06,6.681042982e-07,3.348501235e-07,3.032764653e-07,7.576845948e-07,6.118220174e-07,6.474235988e-07,7.44498074e-07,5.434832297e-07,2.528869215e-07,2.254725486e-07,1.945479288e-07,9.688159005e-08,2.38942448e-08,7.218855277e-09,2.861165235e-08,2.83380991e-08,1.702472652e-08,1.905455945e-08,5.793089472e-09,2.146385109e-09,4.613768867e-09,6.527260142e-09,1.184949489e-09,2.98799326e-09,5.16845492e-09,3.891663377e-09,2.737822539e-09,1.575960961e-09,2.331743897e-09,6.051612383e-09,1.962059687e-09,2.17523034e-09,3.41664298e-09,2.389377606e-09,5.290931261e-09,3.438600476e-09,6.096994178e-09,5.354450785e-09,4.341792437e-09,3.109526578e-09,2.123918173e-09,2.703492773e-09,1.711973234e-09,1.155261749e-09,3.066025269e-09,2.413027535e-09,1.02907991e-09,1.236339884e-09,7.979491154e-10,9.730304261e-10,5.160773716e-10,4.50078134e-10,NaN,NaN],
	"sr": 16000,
	"range": [1,126186],
	"minf0": 63.1883,
	"maxf0": 706.3069,
	"thresh": 0.1,
	"relflag": 1,
	"hop": 320,
	"bufsize": 10000,
	"wsize": 640,
	"lpf": 4000,
	"shift": 0,
	"plotthreshold": 0.2
}
