{
	"f0": [NaN,76.93035138,76.93035138,76.93035138,76.93035138,76.93035138,76.93035138,76.93035138,76.93035138,76.93035138,76.93035138,76.93035138,76.93035138,76.93035138,76.93035138,76.93035138,76.93035138,76.93035138,76.93035138,76.93035138,76.93035138,76.93035138,76.93035138,76.93035138,76.93035138,76.93035138,76.93035138,76.93035138,76.93035138,76.93035138,76.93035138,76.93035138,76.93035138,76.93035138,76.93035138,76.93035138,76.93035138,76.93035138,76.93035138,76.93035138,76.93035138,76.93035138,76.93035138,76.93035138,70.47037747,60.91732291,43.53245936,42.57180145,42.62867196,55.0651972,55.12192664,50.00274286,49.87105726,49.68294723,49.58556608,49.84164373,50.13575582,50.74364676,51.53692281,52.18852145,52.55560425,52.60776933,52.59201886,52.44037988,52.33250615,52.25269166,52.200303,52.27684556,52.39383328,52.44352093,52.51012944,52.72654692,52.84096964,52.64467852,52.42346573,52.4761738,52.59076441,52.52977336,52.45397849,53.26346882,53.29197448,52.88555842,52.20901937,52.19707951,52.73915257,52.99929219,52.76896306,52.39845677,52.18750457,52.10982274,52.1400588,52.22282932,52.33035599,52.51958995,52.88987615,52.85485284,52.27971395,52.36638512,52.50230571,52.89201676,53.48813254,53.40566233,53.18481683,52.94482719,52.9581693,53.06501777,53.00337651,52.97165362,52.9903969,53.05538117,53.18081108,53.0187804,52.92129834,52.98169343,52.94275308,52.96139241,52.81544201,52.66173856,52.81435914,53.35118401,53.72927192,54.31918196,54.72213601,55.12651435,54.97780663,54.9852554,55.21659336,55.34716642,55.16126687,55.07850012,55.1158251,55.0939594,55.0085307,54.87696915,54.57362169,54.19339156,53.94711198,53.80554061,53.93347125,54.19820188,54.03947081,53.96107943,54.08585487,52.71998171,52.67684573,52.65196706,52.53341306,52.55186038,52.62742809,52.61046343,52.76806932,53.01327777,53.12243779,52.68134345,52.7171932,52.93035138,52.74318912,52.46206276,52.40793271,52.16111918,51.70665121,51.85054137,52.12881491,52.41049674,52.47228619,52.47192041,52.4462171,52.39717255,52.31614222,52.22287114,52.27229101,52.19621501,52.11108597,52.17907875,52.40869381,52.44855156,52.58800948,52.86472612,53.64382594,53.43780279,53.47813535,53.81004566,53.72994215,53.45443246,53.18565109,52.85237215,52.70931807,52.73526356,52.75884331,52.65460575,52.53820539,52.55269062,52.56651969,52.49402108,52.48025987,52.58450646,52.4740811,52.51048897,52.36439046,51.24703034,51.19426306,51.11758637,50.72471638,50.67456406,50.61845967,50.64849459,50.75463852,50.79921543,50.73392564,50.87083227,50.89468321,50.90088078,50.72424279,50.69283459,50.99107117,50.83453233,50.41182927,49.84886543,49.28327144,48.82124658,48.95779494,49.18304324,49.28664152,49.24431433,49.1012736,49.03672695,49.07162997,49.17588067,49.38213106,49.34304994,47.62368344,47.07836779,46.61662076,46.41197814,46.52299839,46.78162009,46.93101585,47.07660449,47.26567622,47.34355098,47.32906372,47.30164321,47.32632938,47.32205751,47.24611708,47.1499693,47.10861275,47.15325473,47.14842009,47.08637184,47.19548566,47.11950298,46.97862858,46.9511841,46.98964138,47.2734178,47.66859443,47.71639322,47.40694267,47.06823627,47.09767464,47.27387462,46.98553863,47.08756202,47.7417292,48.0442468,47.96089548,47.62390832,47.56153306,47.58848578,47.80927238,47.83870869,47.67247679,47.52384401,47.46228403,47.61743726,47.69475048,47.44196913,47.44944432,47.64962191,47.48398481,47.49422971,47.48573577,47.48573577,48.0442468,47.62368344,47.32275481,47.59182056,35.82339724,35.39266101,35.38697741,51.62062938,50.24165543,49.62436804,49.48948595,49.61855052,49.94396269,50.26109751,50.3562789,50.70803336,51.17274912,51.5371966,51.88663546,52.22851665,52.68046899,52.86730432,53.02108998,53.03375466,52.89922508,52.89404705,52.98241302,52.93498946,52.79748122,52.50392544,52.5908995,52.74318912,52.74318912,52.74318912,52.51839191,52.33764901,52.29645097,52.50738571,52.52504909,52.5376873,52.74735405,52.90787663,52.96686203,52.97002374,52.93874596,53.07708194,53.15000119,53.02317834,52.8718306,52.73504976,52.75399865,52.87085549,52.86736538,52.71766636,52.65521587,52.6843768,52.66128632,52.66071499,52.67689393,52.68193688,52.65225579,52.67248659,52.79030224,52.73392389,52.66715957,52.701453,52.57623094,52.39913812,52.3104074,52.24062529,52.26122554,52.25805253,52.30783778,52.35225593,52.30788347,52.59959427,52.78482972,52.55565808,52.47465785,53.17174891,52.85471462,52.42458178,52.35501288,52.61242248,52.65949155,52.71861696,52.77529484,52.72971649,52.66888053,52.59354187,52.6902767,52.71646584,52.48000289,52.21892982,54.30040362,53.66360986,53.4089686,53.18924147,52.99780225,52.85592643,53.00399688,53.29837892,53.36850023,53.32041506,53.1389139,53.13324156,53.20960735,53.26228021,51.83657672,50.03629954,49.6984207,49.94834209,50.52885026,50.64214864,50.64214864,51.48682058,53.14037841,52.94766412,52.61998604,52.45896608,52.80800499,52.8330523,52.37482755,55.29190763,55.11013209,54.82505601,54.67273134,54.48286607,54.36857309,54.49955305,54.69703514,54.72128896,54.8415667,54.88306747,54.80980352,54.80807667,55.01585252,54.9626847,54.8875995,54.7713982,54.57743285,54.39639731,54.34007294,54.46609999,54.52314889,54.69522911,54.78730353,54.73736474,54.68344244,54.52994651,54.24874449,54.09179641,53.98415935,53.86081429,53.5921565,53.38890285,53.34839109,53.29595536,53.26085795,53.43319197,53.48232046,53.37721523,53.31737016,53.30026921,52.79475099,52.72998321,53.11955917,48.79246627,49.21689436,49.92879455,50.73498666,51.83657672,52.19354484,52.35871888,52.54793919,52.66643087,52.72053089,53.3108577,53.11955917,52.88011049,52.72036981,52.71161691,52.61711253,52.520412,52.47198595,52.5587067,52.71605863,52.83409863,52.85948182,52.74520223,52.6448745,52.60377674,52.60723313,52.72380941,52.99530929,53.36070703,53.57934824,53.82105882,54.11463594,54.22879851,54.32814188,54.33549837,54.32169624,54.31673659,54.32602892,54.3092355,54.24705496,54.266539,54.38468779,54.48274652,54.52436043,54.61676772,54.72932468,54.81288609,54.72172401,54.58639833,54.59273278,54.61241048,54.53552283,54.51106308,54.47565098,54.58089988,54.60663591,54.58010815,54.56526339,54.54736725,54.47791271,54.47683663,54.51618608,54.50528578,35.56292804,35.50247509,35.49902655,35.42870225,35.48911236,35.45153606,35.42747489,35.39272371,35.68540992,42.53225494,42.5927575,35.5692592,42.37216054,42.30040362,42.41051324,54.42985421,54.50528578,54.0979178,53.92219028,54.24465075,42.18880573,41.8977729,41.60699142,41.49229079,39.05933366,42.27598983,53.90914671,54.01305371,54.10092793,54.20732401,54.41037421,54.43225191,54.31577093,54.38096719,54.42466755,54.44811614,54.48888494,54.4633344,54.44618069,54.45417444,35.41301523,35.44898048,54.41608029,54.39576639,54.43263281,35.37776401,54.65213741,35.7070005,35.79832935,54.78762462,35.6529934,35.62990618,35.63622084,35.34887861,35.34887861,35.87245162,36.97562626,36.47091779,36.96101299,39.22622133,35.76273913,35.88992153,36.58689152,35.45570569,40.55802863,40.10361041,35.34887861,35.74054178,NaN,NaN,NaN],
	"ap0": [NaN,1,1,1,1,1,1,1,1,1,1,1,1,1,1,1,1,1,1,1,1,1,1,1,1,1,1,1,1,1,1,1,1,1,1,1,1,1,1,1,1,1,1,1,0.7409220873,1.329366841,0.6753429227,0.5029426487,0.5918730981,0.2801261813,0.4911029465,0.3666112973,0.09088976896,0.0542440586,0.05460715865,0.06238307148,0.07000857337,0.1187581943,0.1947598905,0.2353360821,0.1068166302,0.0560111561,0.0505633808,0.02648198368,0.01705736599,0.02231388235,0.02602478417,0.02321004446,0.01882371512,0.01365823807,0.01516842898,0.02586701056,0.0377243544,0.0587650456,0.05451656072,0.05674038131,0.06794227742,0.1462570607,0.2769866046,0.3284820703,0.08260342251,0.04005935292,0.04380242551,0.05136492111,0.1797165398,0.05126067376,0.03729922634,0.03610871508,0.02789063344,0.03916857071,0.04508443471,0.03760042462,0.02568708476,0.02448804625,0.0230643103,0.04926606039,0.08858748685,0.1092640479,0.2145663583,0.1962667787,0.08276052771,0.04908912155,0.04393911709,0.0351521399,0.03288824449,0.03592949395,0.02877050452,0.01733483859,0.03081727631,0.04557995126,0.0478958409,0.1071070363,0.08204789147,0.0401328301,0.01878500163,0.007753411776,0.01779332682,0.0117565403,0.01829803497,0.03424832476,0.1034535857,0.1109262293,0.1161929861,0.05292821988,0.02254110263,0.01128074032,0.0164124281,0.01251715099,0.01182303449,0.01065605023,0.01092232565,0.009426127694,0.006046518639,0.0138209392,0.01910633524,0.02308042857,0.03263167406,0.05986849782,0.1112831828,0.084554129,0.08408701736,0.1546745989,0.2563326251,0.1833353849,0.06057554893,0.01737757674,0.01930230216,0.01675728679,0.009082114394,0.006000216084,0.007905484592,0.01341903867,0.02596574,0.07740046783,0.4146580483,0.3865164487,0.2062731553,0.05543423392,0.03360359268,0.0423386741,0.05279266108,0.05094504283,0.06130856565,0.03860912433,0.01554563645,0.008352746334,0.004313407523,0.007452526616,0.01351238877,0.01459258149,0.04254706965,0.04541467548,0.01709946404,0.03543629547,0.02189271308,0.01197400217,0.02305203595,0.0846711984,0.1341416774,0.1016743725,0.09734784922,0.08265108502,0.03674721644,0.01815866515,0.02160596769,0.02550926543,0.02081335842,0.008862116013,0.004021547069,0.004835782454,0.003667998244,0.002327615246,0.001501297716,0.00435050838,0.01104231147,0.01239156211,0.005702520988,0.01961930269,0.1530763007,0.1964215507,0.1281966509,0.09226771087,0.09365535328,0.05665660032,0.03833476142,0.02568901095,0.01609214997,0.03866684923,0.08621512846,0.1287228296,0.1996150285,0.1269091907,0.1174900712,0.1841212645,0.09383494978,0.03343907734,0.05525144896,0.06956282698,0.09648460589,0.07531301732,0.07428798818,0.03654938152,0.02605976604,0.05768492339,0.08205867716,0.05612302931,0.03944401332,0.05829156506,0.1008351789,0.2848071725,0.3702403875,0.2494940282,0.1585037496,0.1158365858,0.07995616023,0.04699122499,0.0353436386,0.04014776397,0.03639886201,0.02105800401,0.01474845593,0.01284846537,0.00977962587,0.009237086446,0.008124457763,0.006795592283,0.00621328222,0.009911469818,0.01962146365,0.02648769797,0.01974725963,0.0138598606,0.01880763004,0.01895766331,0.01725696141,0.07498473066,0.05169016086,0.03068771758,0.06425748781,0.1107189443,0.2016090018,0.2436249967,0.1273178963,0.1230654308,0.1067590004,0.05656638277,0.05922053609,0.09531078022,0.08772074034,0.1474613912,0.08154201734,0.09581218011,0.1646670217,0.1836705609,0.2521346444,0.1899282918,0.1934596732,0.2565041171,0.2677054784,0.2613563396,0.2641874971,0.3471472051,0.2724981814,0.2334801538,0.2568675451,0.2497343271,0.255122763,0.4012592341,0.3719316856,0.4898881352,0.6005483027,0.290170415,0.2698091319,0.05292916463,0.03994411025,0.07689537591,0.0665238234,0.06298554038,0.06685939829,0.05095337466,0.04368720233,0.04869507447,0.08073741017,0.08958175864,0.06363910038,0.03326370679,0.02270073391,0.0209506668,0.02612141362,0.04872207881,0.04429550196,0.01436137961,0.0219829427,0.05045584078,0.1584036377,0.2088892797,0.270308374,0.193640443,0.0878973371,0.04104756203,0.04680752639,0.0186942005,0.005051486615,0.005410210369,0.005150927596,0.003247298606,0.008977415767,0.01715929802,0.01397905947,0.0127273844,0.01042144126,0.00733536357,0.01234623867,0.02597906935,0.02858811617,0.01361657407,0.005082570853,0.008595586968,0.00611540077,0.003002840387,0.003207414555,0.003016332175,0.002063773043,0.002185666052,0.002422468707,0.005751639678,0.00720184425,0.004874229205,0.007974312617,0.01719884496,0.01983174204,0.01540890908,0.02324795535,0.03343133445,0.02520252734,0.02029270234,0.04006709099,0.03058614568,0.01237041233,0.01986501398,0.04224488014,0.1478793515,0.8304157169,0.1571561929,0.08500089348,0.04721044212,0.04304213118,0.03084766576,0.01650207521,0.01112684753,0.00747359357,0.005980761142,0.007775257126,0.01026603794,0.01422755246,0.01484748717,0.04090114594,0.1081956851,0.6410343131,0.1264134487,0.0229890623,0.0131446994,0.01924084881,0.02894179498,0.02732833009,0.01419326004,0.01581113132,0.0442535976,0.107796697,0.08310990481,0.08251452803,0.2476350363,0.5547656746,0.4293656668,0.2108273312,0.1534105143,0.08460526829,0.1202054456,0.1787431733,0.372206505,0.1401177435,0.06361281675,0.05994121524,0.05339042533,0.04420613125,0.05898175997,0.1519216856,0.1822996059,0.06372714175,0.02116356312,0.02336184038,0.03397898348,0.04746904364,0.06441968824,0.03811495443,0.03302176534,0.03057439762,0.02466887684,0.02877121151,0.08384350781,0.09599650426,0.02717812344,0.006786270116,0.008774347511,0.0122100641,0.01774955854,0.0228952204,0.01592896834,0.01871456107,0.01748809661,0.006531599172,0.004223498205,0.005360068309,0.0384817982,0.1893788541,0.05698872278,0.036230673,0.02977641569,0.0223683465,0.01323930696,0.0153424911,0.02903319027,0.03158878637,0.01384422802,0.00871220349,0.02052189545,0.03765777987,0.1037175872,0.09683890971,0.2330346116,0.4983742335,0.3187149558,0.2413289351,0.324182892,0.3949238977,0.3074812627,0.285703762,0.162833895,0.05259709076,0.04546336457,0.06487733892,0.171849345,0.2062117579,0.1058775333,0.09516822007,0.05188999924,0.01695915774,0.008226361712,0.00568713405,0.007322030035,0.00627467193,0.00511698512,0.005612320399,0.006396708191,0.007732344947,0.005797151563,0.004266412104,0.009630658847,0.03639769014,0.07721372515,0.094397329,0.07441051909,0.04029100612,0.03101073935,0.01874968778,0.009241269953,0.01075760515,0.007995492005,0.008669445783,0.01165964085,0.006990594433,0.005356448921,0.007024563885,0.005750214453,0.007212581593,0.008943695029,0.01294663467,0.01461663472,0.009448559415,0.01643311165,0.05402732804,0.06129765288,0.02039658136,0.03385233047,0.04724129161,0.06359715399,0.09703837778,0.1101608184,0.1468119608,0.1893918076,0.1944893044,0.2350482527,0.4060624379,0.7865002966,0.2318691405,0.2674641089,0.3529246329,0.4074009106,0.4756693693,0.3779793209,0.3284366093,0.3731397042,0.4189169247,0.4524760976,0.344262573,0.3471097185,0.4507530182,0.4620604625,0.4280214259,0.3638323833,0.333116367,0.3502494065,0.3542971505,0.4592742142,0.3421455537,0.4572468435,0.6516161048,0.4815348427,0.5760878108,0.6015515551,0.2595152697,0.1936579367,0.1618936804,0.0891185773,0.1128494157,0.1457207416,0.1062731374,0.1256134643,0.1796281928,0.1699284411,0.189088458,0.2557328263,0.2328890313,0.1882943014,0.1217865153,0.1259020029,0.06715016707,0.2380198235,0.6762470298,0.3502835465,0.2656375097,0.2054559655,0.164932681,0.148024091,0.1261968682,0.2575041987,0.4114841015,0.3965679422,0.3477418602,0.2778658257,0.1359452076,0.05329489048,0.1988320713,0.614839499,0.4405585561,0.1876283894,0.2267610653,0.5382901773,0.8326220878,0.8357267548,0.3487246596,0.4637433876,NaN,NaN,NaN],
	"ap": [NaN,1,1,1,1,1,1,1,1,1,1,1,1,1,1,1,1,1,1,1,1,1,1,1,1,1,1,1,1,1,1,1,1,1,1,1,1,1,1,1,1,1,1,1,1,1,0.4204960888,0.2064598254,0.1380134131,0.5085942913,0.5187088991,0.5294596822,0.2067580397,0.01942817592,0.01998714759,0.1001726218,0.03613018779,0.1065536905,0.1567892069,0.1976400116,0.08521699605,0.05469991116,0.01475398974,0.0395548707,0.01316349786,0.008705272833,0.006811482073,0.01807412456,0.005501530539,0.01733009229,0.01019937398,0.01048816655,0.01042208341,0.03246909131,0.02492780877,0.04574564708,0.03226015482,0.02405657603,0.09245115841,0.2070911018,0.1448167315,0.1022209131,0.02806476469,0.03175725297,0.03837417549,0.1278423017,0.05937329058,0.04227504907,0.01260245541,0.0122154166,0.03752317103,0.03369541243,0.02784298041,0.009854646346,0.01532204798,0.008732280047,0.03294237845,0.05301833582,0.04745890397,0.1418293914,0.2031040327,0.06921070473,0.05687733482,0.009329171007,0.02346758361,0.008856204977,0.02881996515,0.006934018933,0.006395634522,0.01423732704,0.03349278778,0.0111803369,0.07443321244,0.06491844896,0.0225417043,0.005424289135,0.006010212469,0.01630285019,0.02438869062,0.0415079038,0.0255714987,0.09744515687,0.03717667828,0.08958055843,0.03205039992,0.01147778194,0.01609485769,0.006012085456,0.01183055229,0.007742421942,0.004619125057,0.004376453866,0.005763391192,0.00463165566,0.01279568189,0.02040113347,0.01214363332,0.00931015037,0.0346633633,0.03843656459,0.05064655276,0.0551235925,0.2924407714,0.2617287837,0.4143903474,0.01112746042,0.005298050316,0.002926656992,0.004514548658,0.00994377527,0.005765099674,0.009081408388,0.005125795115,0.01575633094,0.03464518059,0.03244003841,0.1947961155,0.256798672,0.008921182897,0.02913002257,0.04732696494,0.03412882426,0.05579182403,0.04914206425,0.02964167159,0.009401115716,0.001520022355,0.001799483036,0.001402618614,0.01213644036,0.003926241202,0.006645729802,0.04469615235,0.002867336979,0.01478562611,0.00881143706,0.004577294847,0.01150025415,0.05825199943,0.1020438766,0.04169240772,0.07172399405,0.03298853878,0.03565005328,0.009489214865,0.01497806845,0.006437116777,0.02218839372,0.004743495371,0.002342571945,0.00273897296,0.002038789697,0.001664896063,0.001423284432,0.0005926888662,0.009643057967,0.003970111546,0.004276335441,0.009024534145,0.1100344933,0.2681145504,0.03508221606,0.08380142794,0.02121398154,0.03094710165,0.01764709755,0.01030174601,0.01002436625,0.0165525443,0.1239345426,0.04413064599,0.1257645878,0.06553422982,0.0282126082,0.09322188356,0.05572846239,0.02587790358,0.05718624282,0.0649977122,0.03936022106,0.08096724422,0.05110181305,0.01512388706,0.01205523112,0.02022540442,0.04662065214,0.0296503474,0.01143762685,0.04470746876,0.02752967388,0.2296936873,0.3078466223,0.1260063346,0.07082989205,0.04613909181,0.02652549041,0.01352980787,0.02710421781,0.02545235046,0.01650527032,0.008816268472,0.00794795146,0.004531055121,0.003740721675,0.005898843201,0.003882134814,0.002069617735,0.003371643807,0.003784214908,0.01094945956,0.01237372034,0.01519715129,0.006463830893,0.00601465031,0.009886330287,0.04629330217,0.05985365867,0.02076718063,0.02990398627,0.04176053782,0.05773218959,0.04811388472,0.3952488057,0.06244443047,0.05147800552,0.09621759594,0.01430704761,0.05079360244,0.0419690293,0.0323590294,0.1672901803,0.02370521629,0.06467344873,0.08075232554,0.08164479623,0.118136218,0.08596682337,0.1116612742,0.1539152422,0.1246106968,0.0790654864,0.1147587173,0.3036096008,0.124647847,0.07767413503,0.1314743389,0.1443354002,0.06393361725,0.0981073303,0.1736136347,0.1844617472,0.2033188101,0.3728493564,0.2786858742,0.04100505633,0.01703245391,0.06428806786,0.03796038004,0.01708664236,0.04663973796,0.05188229801,0.03541033183,0.04863610242,0.08401804505,0.05928658569,0.04202515678,0.01943262629,0.01099850896,0.01820607644,0.01484726208,0.03137602659,0.04852341179,0.01151476443,0.01027530281,0.05021188133,0.05018684273,0.1364998031,0.1200558383,0.1421490214,0.04188238213,0.0201753714,0.07391480352,0.003039598804,0.001865421854,0.004252439992,0.001874263851,0.0004147611768,0.006169173139,0.01169488155,0.007338130009,0.00410530484,0.005500594859,0.003455723546,0.0009378958722,0.04084973527,0.02195727043,0.005353149385,0.00736627535,0.002333333616,0.005153520732,0.001494953461,0.002047014954,0.00221925068,0.0007364276401,0.001042593862,0.001103660861,0.004167253696,0.003813869259,0.001805389579,0.002051852525,0.007266334137,0.004321457782,0.006660014115,0.01079299801,0.02305262843,0.008086801984,0.009795511399,0.01490900025,0.004770802934,0.008732036081,0.00866309363,0.02160714074,0.04345052787,0.3143073786,0.4420057841,0.04336423385,0.01667893261,0.02353688405,0.02347421813,0.0125676151,0.004350510654,0.004486741808,0.003778186267,0.005202392393,0.008184155441,0.001084730412,0.01204740557,0.007668932502,0.20364661,0.07466681295,0.3230909597,0.01438042052,0.0123366764,0.0129685999,0.01585715624,0.02729598426,0.005072650036,0.01031346099,0.01409082273,0.0285662159,0.0687849155,0.02979089406,0.05188170553,0.3849008484,0.1480590511,0.08149474835,0.1018765447,0.02876563312,0.04796071832,0.05114999315,0.484648271,0.1051902819,0.06866654796,0.02335885372,0.04042828756,0.0104143417,0.03209627734,0.1769553816,0.4689545789,0.02938385749,0.006010275569,0.01887476957,0.01110079477,0.01216666162,0.05253852337,0.03533097408,0.008708274682,0.001364536029,0.006918895662,0.006111177149,0.05724671713,0.1191852176,0.009427532212,0.004890364752,0.005656955005,0.006484737773,0.005135471266,0.003766439418,0.003906773707,0.0184797109,0.01338763288,0.003209581363,0.002641449325,0.005742184944,0.01398149593,0.1412177387,0.1711212995,0.01236583364,0.007818573026,0.02127448577,0.003936234644,0.004587359404,0.01458304267,0.01494871786,0.004695497287,0.004228623946,0.005309776516,0.02979677943,0.07898514577,0.03162966243,0.05018341864,0.2548646041,0.1346270129,0.1276132504,0.2468026291,0.1486355452,0.335719399,0.1442556746,0.2072384906,0.02545956517,0.04427227588,0.05332674137,0.08066469767,0.0705270605,0.02237730002,0.02234432142,0.03182889965,0.008308520842,0.003004935366,0.00616834288,0.009958358987,0.005879005777,0.001544351017,0.003068263405,0.005975074466,0.004293410512,0.003488210057,0.003771939651,0.01248255594,0.02258289409,0.05042605,0.09971803672,0.06295494683,0.01267355059,0.02088363952,0.005824592237,0.002989732276,0.006625599847,0.004356045815,0.001997961042,0.006577834602,0.006309377594,0.002063333163,0.00485359423,0.002189716632,0.004573508541,0.006299936573,0.007145239987,0.008867847575,0.007823430445,0.001941094346,0.07429155139,0.0206073594,0.004377715458,0.015601522,0.07574277413,0.02410835823,0.02523754831,0.08082972358,0.06611839002,0.1124836618,0.08554801926,0.06767579023,0.1489873885,0.1298542443,0.1047737057,0.1765446592,0.1257587363,0.1993401175,0.1665770017,0.1640177094,0.1847274833,0.2195161454,0.3232667562,0.09984067107,0.2109555474,0.1692465064,0.3043267304,0.2543527029,0.05795985622,0.1874125425,0.207189936,0.1987774902,0.1368466243,0.3133006977,0.05938166548,0.4909193462,0.208215574,0.1896561404,0.350175063,0.345614977,0.06978004976,0.06371972822,0.1221663284,0.06989525412,0.02364121003,0.1360766104,0.03666055599,0.1030272716,0.06569914219,0.07152641258,0.08399749011,0.06335732551,0.0654201984,0.05662412844,0.07165767202,0.1306391745,0.01949070492,0.04086594451,0.1299201065,0.3693452183,0.05207096101,0.09729958778,0.2489679452,0.04024118222,0.0788098241,0.1485972625,0.1411272558,0.1422994356,0.06151105909,0.0787308008,0.02782544277,0.0264258947,0.05611652304,0.1352575275,0.07948780607,0.05288879764,0.08030475008,0.2656166213,0.07803759973,0.08318707468,0.05171390808,NaN,NaN,NaN],
	"pwr": [NaN,0,0,0,0,0,0,0,0,0,0,0,0,0,0,0,0,0,0,0,0,0,0,0,0,0,0,0,0,0,0,0,0,0,0,0,0,0,0,0,0,0,0,0,0,0,1.753342359e-05,3.84248682e-05,1.664238937e-05,4.144032729e-05,2.608066341e-05,0.001587462689,0.01663521083,0.01306926395,0.02311494375,0.01354883075,0.01266094612,0.01062085908,0.01367827656,0.03426664406,0.03959500024,0.03423232247,0.06721836207,0.09028505537,0.1063295815,0.1232620413,0.09322563039,0.0720136161,0.09565868848,0.05789460561,0.04386349935,0.05509988943,0.05005306863,0.03309797435,0.0145336239,0.008754753786,0.004919746461,0.008255642235,0.003832439919,0.001219942127,0.001131838613,0.01051673048,0.02760419505,0.006344016119,0.004439183086,0.002296573497,0.005041635127,0.05023455703,0.05962921545,0.0618187405,0.03358817039,0.02374418136,0.02253789516,0.03440084946,0.05029078105,0.03925550873,0.01835228903,0.003560494612,0.004074855466,0.001704293917,0.005566935259,0.006895837252,0.03401426682,0.04963413926,0.02426120565,0.01514656896,0.01804438455,0.0122937639,0.0116747266,0.008097760393,0.004452974412,0.004627721242,0.002951537642,0.002020904987,0.009412412214,0.0203751724,0.02004009659,0.01851153723,0.01601965817,0.01752759518,0.01983728281,0.02534846672,0.01509418371,0.0663304089,0.02830199111,0.05354187497,0.07300035451,0.0916267047,0.06438834525,0.06182406413,0.0416866823,0.04654865913,0.03030659604,0.02573107579,0.02267313836,0.03310656856,0.03568951176,0.03993469722,0.01726270077,0.006405809063,0.002700492757,0.007397689908,0.001189412655,0.002685329434,0.0004186381492,0.01549762167,0.01975934179,0.01667778946,0.02145448204,0.02250026982,0.02724963555,0.01938602524,0.01691078113,0.006739520097,0.00128646898,0.00133758039,0.003005625847,0.004491836868,0.02399113029,0.03845245326,0.03891965491,0.02971569602,0.02460240405,0.03069022719,0.01891616363,0.02815193039,0.05233179243,0.06043786339,0.05249602793,0.04990005159,0.04751651413,0.04137855084,0.02772747209,0.03664228903,0.02639490147,0.02231006079,0.0282803484,0.02205028035,0.01607634379,0.003544147916,0.01314678305,0.02393526888,0.01313065974,0.01327806326,0.01961430777,0.01562471031,0.008059291016,0.00538785994,0.01352009365,0.02232592175,0.0331159754,0.03122853895,0.03089684868,0.0427280903,0.03832386278,0.03088599703,0.01298204817,0.01042059949,0.006918460629,0.001687868568,0.001017203743,0.02312334796,0.01512224977,0.01317285777,0.01463294713,0.01838958217,0.02101399635,0.02923823467,0.02597155857,0.006056858617,0.004719241356,0.001840554722,0.001814771986,0.00232057406,0.002326678855,0.005725404373,0.006496396579,0.005655123799,0.01255522723,0.01190486722,0.008373788104,0.01291765558,0.02431750046,0.01584454663,0.009271574598,0.007607303792,0.004791553531,0.008773176951,0.004958129642,0.002909838075,0.001217308745,0.001331113934,0.008127428501,0.01044665038,0.007695942896,0.007014134742,0.00940649825,0.009576784536,0.009951016574,0.009713561676,0.01317916828,0.01333233132,0.01438060718,0.01737339717,0.02029305702,0.02259324933,0.0187199575,0.01817224423,0.01655039738,0.01042794088,0.005778867489,0.006965708107,0.00893477863,0.00836712865,0.00908738248,0.007978271757,0.005905091797,0.007527915935,0.01434259984,0.01323032677,0.01183255977,0.01306962383,0.001565867811,0.009731124912,0.01046193197,0.006357958716,0.0116518771,0.01304165575,0.004072449836,0.002518070483,0.0004322022055,0.002171298532,0.002377011734,0.0004349817003,0.0003303140701,0.0003023010668,0.000252083239,0.0003296923015,0.0001712658006,0.0001128751239,0.0001221535038,0.0001010898945,3.727356624e-05,4.314215778e-05,9.368920888e-05,7.493839646e-05,1.61709179e-05,3.774626769e-05,2.18638718e-05,2.065129526e-05,2.122715864e-05,9.873859447e-05,0.0001156105055,0.007013473754,0.004499260865,0.009057103962,0.002601137162,0.003363935699,0.002704481451,0.005384051436,0.01335943184,0.02151953629,0.0174581136,0.01533467905,0.02208003923,0.02700053402,0.03963744921,0.0688609768,0.04281024436,0.02857135545,0.01546662284,0.00826085597,0.01565291598,0.01898802501,0.005794436753,0.0008851202087,0.003101158669,0.002618401094,0.000497250029,0.006826467299,0.007981073708,0.004458981085,0.01256065484,0.01956111118,0.02628468508,0.03481014207,0.04341611914,0.03524410435,0.0151656158,0.009224836183,0.009027160923,0.01261987139,0.01943674017,0.02545464099,0.0185229621,0.008088682236,0.04767999398,0.0515089177,0.04395360269,0.03860254148,0.0419558928,0.05099672951,0.04516988575,0.05391614341,0.06189063882,0.0779240135,0.0739077902,0.04362863265,0.02492903335,0.01971218017,0.03527063357,0.04210205521,0.05486965944,0.05076164473,0.03780099997,0.03156050791,0.03059399508,0.01387271024,0.0125777666,0.01476630304,0.01357258082,0.007927599238,0.001792926706,0.0006474823711,0.0007500233402,0.02245331181,0.01746466762,0.01360359947,0.01066498203,0.01727917246,0.0266550084,0.02904359795,0.0256233064,0.02721813424,0.02188869905,0.01156482152,0.009868101073,0.007227197912,0.0011441697,0.002915123642,0.007011062011,0.04933629754,0.04228260378,0.03266476535,0.01976791955,0.02520076302,0.04043930936,0.04386504314,0.02320464513,0.005954125062,0.003824508747,0.005544899838,0.002794834567,0.002072328468,0.0125419659,0.01583755184,0.01016390169,0.01428412076,0.0109292594,0.01453616676,0.006171635077,0.005908243835,0.02719641675,0.03672518658,0.01680961156,0.009580185466,0.0142519148,0.00467993193,0.005222862622,0.04157980509,0.06588024104,0.05392579096,0.03751478549,0.01775655835,0.007460506275,0.007552559159,0.007100558792,0.01034967971,0.009823879887,0.01071094377,0.003909628696,0.0008374251684,0.04321890793,0.0755654878,0.08536521642,0.04881319681,0.03703287629,0.01279149608,0.01022520323,0.009216694275,0.006641792039,0.008889454966,0.008388793922,0.007682002204,0.005676439422,0.0008242540396,0.002668174029,0.03493268868,0.0383266418,0.02008654356,0.03211198388,0.03196625836,0.02677198867,0.01335514215,0.02479204871,0.03324591034,0.02719372768,0.02295416979,0.003937142811,0.00646395356,0.007852892238,0.03514827967,0.01026417813,0.009673880647,0.01060448219,0.01491384205,0.009808104137,0.01747864122,0.008312481129,0.02525693132,0.01934038176,0.02409713142,0.004599802815,0.004671683061,0.003981391537,0.003499981499,0.01192348316,0.01540723712,0.0258920672,0.03517080178,0.04610260779,0.05686588831,0.07052701565,0.05885447821,0.04233776368,0.0391314523,0.04984135302,0.063107757,0.07673080457,0.08197699133,0.06217605224,0.04327455281,0.0827550771,0.1002187828,0.07756007643,0.06352373615,0.08165694597,0.0676362358,0.05704511116,0.07278346293,0.06287156522,0.0617650921,0.06736724993,0.07411652496,0.07536267768,0.07239248933,0.04954241254,0.03779774718,0.02324781948,0.0235132121,0.02286304177,0.008467173481,0.003415256938,0.004963223039,0.004548018699,0.002582731143,0.0008098029431,0.0006323762019,0.0005113196854,0.0004872639664,0.0004328537603,0.0002196407865,0.000242298726,0.0002415462992,6.76900015e-05,6.635554715e-05,9.07386404e-05,0.0001032711785,8.019482221e-05,2.577584267e-05,3.544076818e-05,1.122048247e-05,1.151920076e-05,1.860486626e-05,1.286755941e-05,4.111788226e-06,1.703115354e-06,2.641576301e-06,3.395818871e-06,3.491224295e-06,8.646567862e-07,7.429720596e-07,1.529008439e-07,7.271409853e-07,4.554176728e-07,5.697459518e-07,2.933394045e-07,2.143605887e-07,1.958824081e-07,1.672369567e-07,6.016118517e-08,1.057811274e-07,9.419482697e-08,4.406030753e-08,2.960779537e-07,2.681384316e-07,2.258133197e-07,1.17360285e-07,6.692613812e-08,2.60051823e-08,3.603374857e-08,3.788983036e-08,3.387260986e-08,1.940887834e-08,2.696807586e-08,4.343886391e-08,3.967475235e-08,3.395049567e-08,1.700166247e-08,7.712712978e-09,7.459792902e-09,7.111073856e-09,6.100425186e-09,1.475051198e-08,1.018002989e-08,1.046199206e-08,4.723852474e-09,4.166431036e-09,1.871353382e-09,1.651985853e-09,1.021949501e-09,2.067792556e-09,2.966192654e-09,2.82519784e-09,1.094210142e-09,2.258690598e-09,1.879991611e-09,1.685543405e-09,1.832922088e-09,1.597242343e-09,8.898438871e-10,1.20344845e-09,NaN,NaN,NaN],
	"sr": 16000,
	"range": [1,187113],
	"minf0": 63.1883,
	"maxf0": 706.3069,
	"thresh": 0.1,
	"relflag": 1,
	"hop": 320,
	"bufsize": 10000,
	"wsize": 640,
	"lpf": 4000,
	"shift": 0,
	"plotthreshold": 0.2
}
