{
    "f0": [
        0.0,
        0.0,
        0.0,
        0.0,
        0.0,
        61.007269301753645,
        63.70131108695832,
        63.367612629735639,
        62.947693703263411,
        61.930503579276106,
        61.776373524682384,
        61.884157970726278,
        61.959267192627465,
        62.349959022095547,
        62.301103625918181,
        61.274885536891134,
        62.497549485272579,
        62.85455990152893,
        62.996457357903608,
        62.741505813788635,
        63.044789342163355,
        63.163695003218976,
        63.326786545041294,
        64.132049554479522,
        64.238443812437382,
        64.758322511563946,
        64.751609457769661,
        64.725143033124084,
        64.747845933940127,
        64.837759264802514,
        64.976812583012943,
        64.953816622878378,
        65.180199252449171,
        64.998994407730393,
        65.02011879643743,
        64.998587433391066,
        64.982310733111959,
        64.958340878091391,
        64.824298806159817,
        64.734656356190925,
        66.863547044999365,
        66.959976108598838,
        66.842318916627576,
        66.760825656421048,
        66.67833593548194,
        66.689181225790023,
        66.857128476921233,
        67.753874056406403,
        66.844802331417924,
        0.0,
        0.0,
        0.0,
        68.169034517331951,
        67.909533688298595,
        67.776439473436383,
        67.647902877495341,
        67.52912739120643,
        67.574380636717351,
        67.621437774602228,
        67.680496891614681,
        67.665437783431599,
        67.645876125859104,
        67.63167961939979,
        67.701025194476813,
        67.881752129758695,
        68.110669613472737,
        68.192808089552059,
        68.241392895278906,
        67.84362091957243,
        67.854669993715987,
        67.80784718836108,
        66.831072443759325,
        66.827472187676804,
        66.67848013712559,
        66.824502937375286,
        67.035833946929557,
        67.001895664536733,
        66.903846458061778,
        66.892653450803024,
        66.860281002905737,
        66.896527639361096,
        66.876124569671049,
        66.751526540636107,
        66.217432128481448,
        64.893688835918539,
        64.695498459283584,
        64.200898171302995,
        64.148754254966562,
        64.001468479563925,
        63.913690571654733,
        64.082884950449056,
        64.117955599726002,
        64.162415098677997,
        64.141218692566966,
        64.105768237879019,
        64.148588979023302,
        64.190367184910244,
        64.321284547257136,
        64.426333373771655,
        64.538848326244164,
        64.330423234904018,
        64.159289917137272,
        63.983069595454012,
        64.893373750595742,
        64.053688107825849,
        62.062136846591926,
        62.03239274088498,
        62.356511204610683,
        62.559533556032278,
        62.56072324577233,
        62.905512298992832,
        62.974188022116678,
        63.558998376802919,
        62.580781894510423,
        62.800672798294841,
        62.843303766636069,
        62.520921888297941,
        62.438838921606759,
        62.457662053527997,
        62.348206447183998,
        62.649616878114983,
        62.860516492585482,
        62.37843068548986,
        0.0,
        0.0,
        33.125087916168674,
        35.119100615084307,
        35.520171682088858,
        34.651109894102795,
        0.0,
        63.094027186762801,
        62.950539619758814,
        62.722731847328127,
        62.875112472976987,
        63.108356807755015,
        62.979897871365125,
        62.971072156927427,
        62.924943659914533,
        62.913188800430149,
        63.344465987441907,
        65.305640622347497,
        68.790431484204206,
        68.915348107537184,
        68.894795355170615,
        68.904797682925903,
        68.947122277628637,
        69.37758916398883,
        69.586842491165513,
        70.309254060543822,
        69.88946257313151,
        70.07600239534473,
        70.181019955801617,
        69.995911321443074,
        70.191938352306735,
        70.728081995282352,
        70.107559618656936,
        70.187300730421441,
        70.305888272203859,
        70.024222040368969,
        69.948980264486352,
        67.005834360049619,
        66.770357427370442,
        66.74723136316176,
        66.693914689490484,
        66.745241363696223,
        66.815983105990085,
        66.785437425106238,
        66.600238102649996,
        66.37923655590194,
        64.904967477365517,
        0.0,
        0.0,
        0.0,
        64.679502888304995,
        64.871417335195616,
        64.800987455081071,
        64.829055690164822,
        64.680959179783272,
        64.743533440445674,
        64.795560023296233,
        64.603338311122599,
        64.929046236654074,
        65.006105271864826,
        64.995031541157559,
        65.275826502695082,
        65.074883300485112,
        65.191683340251188,
        65.203883502263508,
        65.717020264837615,
        62.735652993943894,
        62.745419845935167,
        62.618288306993264,
        62.818861427578184,
        62.875989863786316,
        63.044299823500943,
        63.043535935831805,
        63.025807418202746,
        63.177980537222027,
        63.102181046104924,
        63.148791553718453,
        62.971873302389703,
        63.226149338745209,
        62.976687810333161,
        62.869583523721374,
        62.972114798059522,
        62.864203389386333,
        63.903765027075423,
        62.985789392150146,
        62.3736898222392,
        58.81618625681989,
        0.0,
        0.0,
        0.0,
        0.0,
        0.0,
        0.0,
        0.0,
        35.495884142820984,
        34.288442010661029,
        0.0,
        0.0,
        0.0,
        0.0,
        0.0,
        0.0,
        59.860083262948365,
        59.881328099777008,
        59.780160794682153,
        59.467806253146591,
        59.167995962483019,
        59.153920114949415,
        59.28503486976048,
        59.996876635000184,
        59.058752389939045,
        59.519888190906947,
        59.950501029656962,
        59.465254033012158,
        59.094376472343122,
        59.595698493598036,
        59.302057609564969,
        59.642569214363732,
        58.863355947404223,
        59.723382421619277,
        61.968126479189131,
        61.86681096714112,
        61.744572958585003,
        61.626630266245691,
        61.756617425341005,
        61.848099867317984,
        62.055753815004991,
        62.082347870297767,
        61.778553077627798,
        61.935437771474291,
        61.760187737805275,
        62.733802798221269,
        63.214396033775486,
        62.826034453447093,
        62.756712187419936,
        62.718829987716965,
        62.811010778623093,
        62.678287204374399,
        62.741023176615002,
        62.398058071615303,
        62.66923363198508,
        62.897217402403982,
        62.837462967608978,
        62.786620793544586,
        62.880051399272922,
        62.933491228458649,
        62.958854973153549,
        62.879382826405944,
        62.890010592984446,
        62.988911128887672,
        62.988958679219742,
        62.960281283563873,
        62.982663694721431,
        62.622651989881192,
        58.477445646592187,
        58.629028379995916,
        58.743152040307763,
        58.90480611599569,
        59.406748276561771,
        59.740501490622705,
        59.495613879342699,
        58.935022597159566,
        59.016499417338366,
        59.180131611702834,
        59.668568375836635,
        59.361181627537107,
        0.0,
        0.0,
        34.020683788521083,
        35.055567655192547,
        33.658538383654061,
        0.0,
        0.0,
        0.0,
        0.0,
        0.0,
        0.0,
        60.137065949979885,
        60.447127790632479,
        60.391953740827006,
        60.202887578919629,
        59.977360642295096,
        60.084207427772739,
        60.166558272669967,
        60.289249390976465,
        60.10654393728926,
        59.937470060202344,
        60.056148520004939,
        60.054874297659097,
        60.190137163568792,
        66.12414996879491,
        66.36328380413525,
        66.398172327310419,
        66.56201602750896,
        66.622158944969897,
        67.010782488525564,
        67.360299354937581,
        67.526944155701202,
        67.612552012815996,
        67.891032118075699,
        68.069342936531243,
        67.913744346641892,
        67.654568322541806,
        68.526506845900968,
        67.30901920260942,
        67.815312862405307,
        67.942812315522104,
        65.948427033067631,
        66.284889016873265,
        68.963571712158213,
        0.0,
        66.905613688604561,
        66.945070439365594,
        66.530648804060235,
        66.302976881109231,
        66.329375627562612,
        66.387411264067822,
        66.785198643149144,
        66.948870726542779,
        66.826325928886163,
        66.546341605353362,
        66.441536796913468,
        66.162788426848365,
        64.248489028331079,
        66.684443678957251,
        66.811205215897218,
        0.0,
        0.0,
        0.0,
        0.0,
        66.916666964843003,
        66.543653079034172,
        62.820858743213513,
        62.243591741724259,
        62.036924611266514,
        61.960179661081213,
        61.86607482668245,
        61.778328918617881,
        61.79799472203657,
        61.825865151053577,
        61.8285654142813,
        61.955420256582883,
        61.998772742339185,
        62.040137803818624,
        62.130389886933095,
        62.105951052005338,
        62.005944779817128,
        62.618297010313896,
        61.962035058305943,
        61.921252692429235,
        62.028556665572253,
        64.126716930123379,
        64.435941957079606,
        64.33015904880483,
        64.278078655898355,
        64.203987303403792,
        64.26103257181947,
        64.308449193034662,
        64.406575691542926,
        64.474620917971706,
        64.519052292740739,
        64.452562224594573,
        64.666568034777498,
        64.623978307812578,
        64.569118848930074,
        64.412594403688161,
        64.456317127829095,
        65.922075930723864,
        65.755755939507466,
        65.654496984344874,
        65.499886592197399,
        65.535977968983573,
        65.612432507682826,
        65.787337638062738,
        66.261892494400072,
        65.951454436891311,
        66.157623016051502,
        66.027032317415518,
        66.257464223826659,
        66.42717392769508,
        66.644025918639628,
        66.113482460979256,
        66.418566368165585,
        66.467176271203499,
        62.572110598926088,
        0.0,
        0.0,
        63.47076177775341,
        64.20525764888913,
        64.273690124875941,
        64.452248371018598,
        66.581110669240161,
        67.009345190848236,
        66.974968867893139,
        0.0,
        0.0,
        0.0,
        0.0,
        64.866304645019085,
        64.790000727901486,
        64.704566434651738,
        64.711556235092274,
        64.704218640539338,
        64.630572589559776,
        64.549057729562932,
        64.554460537637809,
        64.558582948473401,
        64.583808125170691,
        64.651694169711391,
        64.805247410144901,
        64.85196461511282,
        64.861379538340174,
        64.884169601899544,
        64.791539622660849,
        64.769116293331606,
        64.731363936349084,
        64.648696250859473,
        64.701702333371756,
        64.748151405923565,
        64.801273637611132,
        64.771811389533454,
        64.788786324455799,
        64.893230645996468,
        64.875338492027041,
        64.842541467390902,
        64.837666140308599,
        64.919467390268935,
        64.823040980928226,
        64.936875241987821,
        64.833183462560143,
        64.745375854371304,
        64.831078450646686,
        64.93447756905779,
        64.905487712367403,
        64.861222476673689,
        65.047574785234147,
        65.064653896083385,
        65.091566855341682,
        65.039326217849137,
        64.980188936681699,
        65.030033281040673,
        65.038603236282214,
        65.083908346694912,
        65.163956119884958,
        65.138940020864112,
        65.231376725649952,
        65.220900314346281,
        65.257701055292173,
        65.315743556954985,
        65.281889888306438,
        65.285689385418323,
        65.323175459504512,
        65.297674785842503,
        65.206739005394965,
        65.291566329610106,
        65.383007396410619,
        65.275871145105626,
        65.18593099309291,
        65.06191805905253,
        65.262726277140544,
        65.277093521790519,
        65.323886703071366,
        65.31033993194761,
        65.331720272047818,
        65.357744426590983,
        65.474500859163115,
        65.993377004288888,
        65.850635547581717,
        0.0,
        34.923343607905167,
        34.395738817539694,
        34.182766046467869,
        34.24772659464999,
        0.0,
        33.792918744299527,
        35.454692226640404,
        33.460017354040325,
        32.882049258120432,
        35.272945162004689,
        35.425769798539768,
        0.0,
        0.0,
        0.0,
        0.0,
        0.0,
        0.0,
        0.0,
        0.0,
        0.0,
        0.0,
        0.0,
        0.0,
        0.0,
        0.0,
        0.0,
        0.0,
        0.0,
        0.0,
        0.0,
        0.0,
        0.0,
        0.0,
        0.0,
        0.0,
        0.0,
        0.0,
        0.0,
        0.0,
        0.0,
        0.0,
        0.0,
        0.0,
        0.0,
        0.0,
        0.0,
        0.0,
        0.0,
        0.0,
        0.0,
        0.0,
        0.0,
        0.0,
        0.0,
        0.0,
        0.0,
        0.0,
        0.0,
        0.0,
        0.0,
        0.0,
        0.0,
        0.0,
        0.0,
        0.0,
        0.0,
        0.0,
        0.0,
        0.0,
        0.0,
        0.0,
        0.0,
        0.0,
        0.0,
        0.0
    ],
    "time": [
        0.02,
        0.040000000000000001,
        0.059999999999999998,
        0.080000000000000002,
        0.10000000000000001,
        0.12,
        0.14000000000000001,
        0.16,
        0.17999999999999999,
        0.20000000000000001,
        0.22,
        0.23999999999999999,
        0.26000000000000001,
        0.28000000000000003,
        0.29999999999999999,
        0.32000000000000001,
        0.34000000000000002,
        0.35999999999999999,
        0.38,
        0.40000000000000002,
        0.41999999999999998,
        0.44,
        0.46000000000000002,
        0.47999999999999998,
        0.5,
        0.52000000000000002,
        0.54000000000000004,
        0.56000000000000005,
        0.57999999999999996,
        0.59999999999999998,
        0.62,
        0.64000000000000001,
        0.66000000000000003,
        0.68000000000000005,
        0.69999999999999996,
        0.71999999999999997,
        0.73999999999999999,
        0.76000000000000001,
        0.78000000000000003,
        0.80000000000000004,
        0.81999999999999995,
        0.83999999999999997,
        0.85999999999999999,
        0.88,
        0.90000000000000002,
        0.92000000000000004,
        0.93999999999999995,
        0.95999999999999996,
        0.97999999999999998,
        1.0,
        1.02,
        1.04,
        1.0600000000000001,
        1.0800000000000001,
        1.1000000000000001,
        1.1200000000000001,
        1.1399999999999999,
        1.1599999999999999,
        1.1799999999999999,
        1.2,
        1.22,
        1.24,
        1.26,
        1.28,
        1.3,
        1.3200000000000001,
        1.3400000000000001,
        1.3600000000000001,
        1.3799999999999999,
        1.3999999999999999,
        1.4199999999999999,
        1.4399999999999999,
        1.46,
        1.48,
        1.5,
        1.52,
        1.54,
        1.5600000000000001,
        1.5800000000000001,
        1.6000000000000001,
        1.6200000000000001,
        1.6399999999999999,
        1.6599999999999999,
        1.6799999999999999,
        1.7,
        1.72,
        1.74,
        1.76,
        1.78,
        1.8,
        1.8200000000000001,
        1.8400000000000001,
        1.8600000000000001,
        1.8799999999999999,
        1.8999999999999999,
        1.9199999999999999,
        1.9399999999999999,
        1.96,
        1.98,
        2.0,
        2.02,
        2.04,
        2.0600000000000001,
        2.0800000000000001,
        2.1000000000000001,
        2.1200000000000001,
        2.1400000000000001,
        2.1600000000000001,
        2.1800000000000002,
        2.2000000000000002,
        2.2200000000000002,
        2.2400000000000002,
        2.2599999999999998,
        2.2799999999999998,
        2.2999999999999998,
        2.3199999999999998,
        2.3399999999999999,
        2.3599999999999999,
        2.3799999999999999,
        2.3999999999999999,
        2.4199999999999999,
        2.4399999999999999,
        2.46,
        2.48,
        2.5,
        2.52,
        2.54,
        2.5600000000000001,
        2.5800000000000001,
        2.6000000000000001,
        2.6200000000000001,
        2.6400000000000001,
        2.6600000000000001,
        2.6800000000000002,
        2.7000000000000002,
        2.7200000000000002,
        2.7400000000000002,
        2.7599999999999998,
        2.7799999999999998,
        2.7999999999999998,
        2.8199999999999998,
        2.8399999999999999,
        2.8599999999999999,
        2.8799999999999999,
        2.8999999999999999,
        2.9199999999999999,
        2.9399999999999999,
        2.96,
        2.98,
        3.0,
        3.02,
        3.04,
        3.0600000000000001,
        3.0800000000000001,
        3.1000000000000001,
        3.1200000000000001,
        3.1400000000000001,
        3.1600000000000001,
        3.1800000000000002,
        3.2000000000000002,
        3.2200000000000002,
        3.2400000000000002,
        3.2599999999999998,
        3.2799999999999998,
        3.2999999999999998,
        3.3199999999999998,
        3.3399999999999999,
        3.3599999999999999,
        3.3799999999999999,
        3.3999999999999999,
        3.4199999999999999,
        3.4399999999999999,
        3.46,
        3.48,
        3.5,
        3.52,
        3.54,
        3.5600000000000001,
        3.5800000000000001,
        3.6000000000000001,
        3.6200000000000001,
        3.6400000000000001,
        3.6600000000000001,
        3.6800000000000002,
        3.7000000000000002,
        3.7200000000000002,
        3.7400000000000002,
        3.7599999999999998,
        3.7799999999999998,
        3.7999999999999998,
        3.8199999999999998,
        3.8399999999999999,
        3.8599999999999999,
        3.8799999999999999,
        3.8999999999999999,
        3.9199999999999999,
        3.9399999999999999,
        3.96,
        3.98,
        4.0,
        4.0199999999999996,
        4.04,
        4.0599999999999996,
        4.0800000000000001,
        4.0999999999999996,
        4.1200000000000001,
        4.1399999999999997,
        4.1600000000000001,
        4.1799999999999997,
        4.2000000000000002,
        4.2199999999999998,
        4.2400000000000002,
        4.2599999999999998,
        4.2800000000000002,
        4.2999999999999998,
        4.3200000000000003,
        4.3399999999999999,
        4.3600000000000003,
        4.3799999999999999,
        4.4000000000000004,
        4.4199999999999999,
        4.4400000000000004,
        4.46,
        4.4800000000000004,
        4.5,
        4.5199999999999996,
        4.54,
        4.5599999999999996,
        4.5800000000000001,
        4.5999999999999996,
        4.6200000000000001,
        4.6399999999999997,
        4.6600000000000001,
        4.6799999999999997,
        4.7000000000000002,
        4.7199999999999998,
        4.7400000000000002,
        4.7599999999999998,
        4.7800000000000002,
        4.7999999999999998,
        4.8200000000000003,
        4.8399999999999999,
        4.8600000000000003,
        4.8799999999999999,
        4.9000000000000004,
        4.9199999999999999,
        4.9400000000000004,
        4.96,
        4.9800000000000004,
        5.0,
        5.0199999999999996,
        5.04,
        5.0599999999999996,
        5.0800000000000001,
        5.0999999999999996,
        5.1200000000000001,
        5.1399999999999997,
        5.1600000000000001,
        5.1799999999999997,
        5.2000000000000002,
        5.2199999999999998,
        5.2400000000000002,
        5.2599999999999998,
        5.2800000000000002,
        5.2999999999999998,
        5.3200000000000003,
        5.3399999999999999,
        5.3600000000000003,
        5.3799999999999999,
        5.4000000000000004,
        5.4199999999999999,
        5.4400000000000004,
        5.46,
        5.4800000000000004,
        5.5,
        5.5199999999999996,
        5.54,
        5.5599999999999996,
        5.5800000000000001,
        5.5999999999999996,
        5.6200000000000001,
        5.6399999999999997,
        5.6600000000000001,
        5.6799999999999997,
        5.7000000000000002,
        5.7199999999999998,
        5.7400000000000002,
        5.7599999999999998,
        5.7800000000000002,
        5.7999999999999998,
        5.8200000000000003,
        5.8399999999999999,
        5.8600000000000003,
        5.8799999999999999,
        5.9000000000000004,
        5.9199999999999999,
        5.9400000000000004,
        5.96,
        5.9800000000000004,
        6.0,
        6.0199999999999996,
        6.04,
        6.0599999999999996,
        6.0800000000000001,
        6.0999999999999996,
        6.1200000000000001,
        6.1399999999999997,
        6.1600000000000001,
        6.1799999999999997,
        6.2000000000000002,
        6.2199999999999998,
        6.2400000000000002,
        6.2599999999999998,
        6.2800000000000002,
        6.2999999999999998,
        6.3200000000000003,
        6.3399999999999999,
        6.3600000000000003,
        6.3799999999999999,
        6.4000000000000004,
        6.4199999999999999,
        6.4400000000000004,
        6.46,
        6.4800000000000004,
        6.5,
        6.5199999999999996,
        6.54,
        6.5599999999999996,
        6.5800000000000001,
        6.5999999999999996,
        6.6200000000000001,
        6.6399999999999997,
        6.6600000000000001,
        6.6799999999999997,
        6.7000000000000002,
        6.7199999999999998,
        6.7400000000000002,
        6.7599999999999998,
        6.7800000000000002,
        6.7999999999999998,
        6.8200000000000003,
        6.8399999999999999,
        6.8600000000000003,
        6.8799999999999999,
        6.9000000000000004,
        6.9199999999999999,
        6.9400000000000004,
        6.96,
        6.9800000000000004,
        7.0,
        7.0199999999999996,
        7.04,
        7.0599999999999996,
        7.0800000000000001,
        7.0999999999999996,
        7.1200000000000001,
        7.1399999999999997,
        7.1600000000000001,
        7.1799999999999997,
        7.2000000000000002,
        7.2199999999999998,
        7.2400000000000002,
        7.2599999999999998,
        7.2800000000000002,
        7.2999999999999998,
        7.3200000000000003,
        7.3399999999999999,
        7.3600000000000003,
        7.3799999999999999,
        7.4000000000000004,
        7.4199999999999999,
        7.4400000000000004,
        7.46,
        7.4800000000000004,
        7.5,
        7.5199999999999996,
        7.54,
        7.5599999999999996,
        7.5800000000000001,
        7.5999999999999996,
        7.6200000000000001,
        7.6399999999999997,
        7.6600000000000001,
        7.6799999999999997,
        7.7000000000000002,
        7.7199999999999998,
        7.7400000000000002,
        7.7599999999999998,
        7.7800000000000002,
        7.7999999999999998,
        7.8200000000000003,
        7.8399999999999999,
        7.8600000000000003,
        7.8799999999999999,
        7.9000000000000004,
        7.9199999999999999,
        7.9400000000000004,
        7.96,
        7.9800000000000004,
        8.0,
        8.0199999999999996,
        8.0399999999999991,
        8.0600000000000005,
        8.0800000000000001,
        8.0999999999999996,
        8.1199999999999992,
        8.1400000000000006,
        8.1600000000000001,
        8.1799999999999997,
        8.1999999999999993,
        8.2200000000000006,
        8.2400000000000002,
        8.2599999999999998,
        8.2799999999999994,
        8.3000000000000007,
        8.3200000000000003,
        8.3399999999999999,
        8.3599999999999994,
        8.3800000000000008,
        8.4000000000000004,
        8.4199999999999999,
        8.4399999999999995,
        8.4600000000000009,
        8.4800000000000004,
        8.5,
        8.5199999999999996,
        8.5399999999999991,
        8.5600000000000005,
        8.5800000000000001,
        8.5999999999999996,
        8.6199999999999992,
        8.6400000000000006,
        8.6600000000000001,
        8.6799999999999997,
        8.6999999999999993,
        8.7200000000000006,
        8.7400000000000002,
        8.7599999999999998,
        8.7799999999999994,
        8.8000000000000007,
        8.8200000000000003,
        8.8399999999999999,
        8.8599999999999994,
        8.8800000000000008,
        8.9000000000000004,
        8.9199999999999999,
        8.9399999999999995,
        8.9600000000000009,
        8.9800000000000004,
        9.0,
        9.0199999999999996,
        9.0399999999999991,
        9.0600000000000005,
        9.0800000000000001,
        9.0999999999999996,
        9.1199999999999992,
        9.1400000000000006,
        9.1600000000000001,
        9.1799999999999997,
        9.1999999999999993,
        9.2200000000000006,
        9.2400000000000002,
        9.2599999999999998,
        9.2799999999999994,
        9.3000000000000007,
        9.3200000000000003,
        9.3399999999999999,
        9.3599999999999994,
        9.3800000000000008,
        9.4000000000000004,
        9.4199999999999999,
        9.4399999999999995,
        9.4600000000000009,
        9.4800000000000004,
        9.5,
        9.5199999999999996,
        9.5399999999999991,
        9.5600000000000005,
        9.5800000000000001,
        9.5999999999999996,
        9.6199999999999992,
        9.6400000000000006,
        9.6600000000000001,
        9.6799999999999997,
        9.6999999999999993,
        9.7200000000000006,
        9.7400000000000002,
        9.7599999999999998,
        9.7799999999999994,
        9.8000000000000007,
        9.8200000000000003,
        9.8399999999999999,
        9.8599999999999994,
        9.8800000000000008,
        9.9000000000000004,
        9.9199999999999999,
        9.9399999999999995,
        9.9600000000000009,
        9.9800000000000004,
        10.0,
        10.02,
        10.039999999999999,
        10.06,
        10.08,
        10.1,
        10.119999999999999,
        10.140000000000001,
        10.16,
        10.18,
        10.199999999999999,
        10.220000000000001,
        10.24,
        10.26,
        10.279999999999999,
        10.300000000000001,
        10.32,
        10.34,
        10.359999999999999,
        10.380000000000001,
        10.4,
        10.42,
        10.44,
        10.460000000000001,
        10.48,
        10.5,
        10.52,
        10.539999999999999,
        10.56,
        10.58,
        10.6,
        10.619999999999999,
        10.640000000000001,
        10.66,
        10.68,
        10.699999999999999,
        10.720000000000001,
        10.74,
        10.76,
        10.779999999999999,
        10.800000000000001,
        10.82,
        10.84,
        10.859999999999999,
        10.880000000000001,
        10.9,
        10.92,
        10.94,
        10.960000000000001,
        10.98,
        11.0,
        11.02,
        11.039999999999999,
        11.06,
        11.08,
        11.1,
        11.119999999999999,
        11.140000000000001,
        11.16,
        11.18,
        11.199999999999999,
        11.220000000000001,
        11.24,
        11.26,
        11.279999999999999,
        11.300000000000001,
        11.32,
        11.34
    ]
}