{
    "DU": 60,
    "DV": 414,
    "F-measure": 0.7864644107351225,
    "F-measure Chroma": 0.8448074679113187,
    "FN": 26,
    "FNC": 10,
    "FNCch": 19,
    "FNI": 16,
    "FNIch": 7,
    "FP": 65,
    "GU": 99,
    "GV": 375,
    "Overall Accuracy": 0.7109704641350211,
    "Overall Chroma Accuracy": 0.7637130801687764,
    "Precision": 0.7522321428571429,
    "Precision Chroma": 0.8080357142857143,
    "Raw Chroma Accuracy": 0.9253333333333333,
    "Raw Pitch Accuracy": 0.8346666666666667,
    "Recall": 0.823960880195599,
    "Recall Chroma": 0.8850855745721271,
    "TN": 34,
    "TO": 474,
    "TP": 349,
    "TPC": 303,
    "TPCch": 328,
    "TPI": 46,
    "TPIch": 21,
    "Voiced Chroma Accuracy": 0.8746666666666667,
    "Voiced Pitch Accuracy": 0.808,
    "Voicing Accuracy": 0.8080168776371308,
    "Voicing Detection": 0.9306666666666666,
    "Voicing False Alarm": 0.6565656565656566
}