{
    "DU": 76,
    "DV": 295,
    "F-measure": 0.9375866851595006,
    "F-measure Chroma": 0.9680998613037447,
    "FN": 11,
    "FNC": 2,
    "FNCch": 3,
    "FNI": 9,
    "FNIch": 8,
    "FP": 10,
    "GU": 75,
    "GV": 296,
    "Overall Accuracy": 0.9110512129380054,
    "Overall Chroma Accuracy": 0.9407008086253369,
    "Precision": 0.9388888888888889,
    "Precision Chroma": 0.9694444444444444,
    "Raw Chroma Accuracy": 0.9695945945945946,
    "Raw Pitch Accuracy": 0.9290540540540541,
    "Recall": 0.9362880886426593,
    "Recall Chroma": 0.9667590027700831,
    "TN": 65,
    "TO": 371,
    "TP": 285,
    "TPC": 273,
    "TPCch": 284,
    "TPI": 12,
    "TPIch": 1,
    "Voiced Chroma Accuracy": 0.9594594594594594,
    "Voiced Pitch Accuracy": 0.9222972972972973,
    "Voicing Accuracy": 0.9433962264150944,
    "Voicing Detection": 0.9628378378378378,
    "Voicing False Alarm": 0.13333333333333333
}