{
    "DU": 68,
    "DV": 185,
    "F-measure": 0.8135593220338982,
    "F-measure Chroma": 0.9152542372881356,
    "FN": 12,
    "FNC": 2,
    "FNCch": 6,
    "FNI": 10,
    "FNIch": 6,
    "FP": 22,
    "GU": 78,
    "GV": 175,
    "Overall Accuracy": 0.758893280632411,
    "Overall Chroma Accuracy": 0.8537549407114624,
    "Precision": 0.7966804979253111,
    "Precision Chroma": 0.8962655601659751,
    "Raw Chroma Accuracy": 0.9485714285714286,
    "Raw Pitch Accuracy": 0.7885714285714286,
    "Recall": 0.8311688311688312,
    "Recall Chroma": 0.935064935064935,
    "TN": 56,
    "TO": 253,
    "TP": 163,
    "TPC": 136,
    "TPCch": 160,
    "TPI": 27,
    "TPIch": 3,
    "Voiced Chroma Accuracy": 0.9142857142857143,
    "Voiced Pitch Accuracy": 0.7771428571428571,
    "Voicing Accuracy": 0.8656126482213439,
    "Voicing Detection": 0.9314285714285714,
    "Voicing False Alarm": 0.28205128205128205
}