{
    "DU": 185,
    "DV": 159,
    "F-measure": 0.8787878787878789,
    "F-measure Chroma": 0.9303030303030302,
    "FN": 10,
    "FNC": 0,
    "FNCch": 0,
    "FNI": 10,
    "FNIch": 10,
    "FP": 18,
    "GU": 193,
    "GV": 151,
    "Overall Accuracy": 0.8430232558139535,
    "Overall Chroma Accuracy": 0.8924418604651163,
    "Precision": 0.8682634730538922,
    "Precision Chroma": 0.9191616766467066,
    "Raw Chroma Accuracy": 0.8741721854304636,
    "Raw Pitch Accuracy": 0.7615894039735099,
    "Recall": 0.8895705521472392,
    "Recall Chroma": 0.941717791411043,
    "TN": 175,
    "TO": 344,
    "TP": 141,
    "TPC": 115,
    "TPCch": 132,
    "TPI": 26,
    "TPIch": 9,
    "Voiced Chroma Accuracy": 0.8741721854304636,
    "Voiced Pitch Accuracy": 0.7615894039735099,
    "Voicing Accuracy": 0.9186046511627907,
    "Voicing Detection": 0.9337748344370861,
    "Voicing False Alarm": 0.09326424870466321
}