{
	"f0": [0,0,0,190.569479,176.3636169,170.7013716,165.9751065,162.5478733,156.06209,157.7915134,162.9803858,0,0,0,213.5644711,209.2966124,208.797889,209.4697833,211.3138901,211.2850792,210.2999444,210.662117,211.55183,211.0408301,209.0162278,206.6059397,205.0379001,204.8477389,204.735075,204.1619745,203.3411596,205.3640954,101.309279,121.031318,117.8953756,111.6764308,207.5072484,204.1026102,204.0008135,206.5050496,209.1355225,211.4211834,209.5911494,211.7531817,210.0533139,208.6066517,216.991471,234.9910769,237.5393959,239.3306934,239.5976895,238.6797774,237.8015284,236.3982144,235.2521137,235.7820281,118.8806915,245.8522459,263.4634199,261.2236648,261.9811377,263.5964208,263.3006127,262.8601316,261.9470079,260.6177269,259.8991732,259.445971,258.202813,255.9853642,253.6685566,253.3088153,255.4084381,254.1624654,247.1106036,245.5374267,121.3542937,123.1588315,0,0,0,0,246.2969553,235.951137,232.8193466,233.3865015,236.6232381,239.7270022,241.7894428,244.7349256,248.6650466,254.1978937,259.8372172,262.0236845,262.48921,264.2373659,265.7158289,265.3053712,262.3476607,258.2765335,250.7618866,237.4800032,226.5412309,217.6999934,206.4064695,205.1036155,205.1516657,205.4636058,205.4436122,205.4287349,205.4185847,205.6466571,206.6518346,207.4274612,208.0646519,209.5280391,210.6570683,210.6672251,210.9258065,211.4482247,212.5772814,214.0477836,212.3762551,214.03002,211.9013014,107.1601668,0,237.539042,235.1773087,234.0490215,117.8380873,238.4536769,241.3941831,244.2652377,251.3898514,256.0486258,257.991306,259.415146,260.471759,259.8436325,258.8437009,257.7081556,254.2726254,248.2199536,239.1311601,229.5688661,219.8898655,204.2378763,199.05443,197.2157736,198.4035815,200.2080849,200.7404573,200.9370401,202.5211285,204.6963425,206.7488077,208.5409163,208.9570324,208.7736523,209.9160846,212.0659184,212.7112075,212.5280797,212.2301872,210.8883867,211.5746442,209.2309779,205.7193019,209.3372125,212.0393751,0,0,0,0,0,0,0,0,0,0,198.7024251,199.0582666,200.9403215,204.3773182,203.5158568,203.5553262,204.053481,203.8482614,204.5071821,204.2292864,204.231528,204.68458,206.9079877,208.1945855,209.8187114,210.6885554,210.5830618,210.1567114,209.3122164,210.1132269,212.5488538,211.5068888,104.9519572,217.9852304,209.2350699,202.7010415,201.5228554,200.8426252,201.0487264,201.1761419,202.1734134,204.7594339,208.5199281,211.2905553,212.3338033,212.7299239,214.3235102,215.6596201,215.736046,215.9424242,214.1051434,211.6363141,106.3394125,107.7821243,0,0,236.2860264,235.8305135,237.4686289,236.732579,236.1085128,236.475774,234.0964341,230.5507064,228.6323626,225.5342189,222.823869,234.2990888,239.2719816,239.1526245,237.1257067,236.0703262,235.5001679,234.337496,232.3107872,232.3635006,232.7869668,233.8140638,235.5376425,237.1455806,238.3090394,239.4384232,238.6731021,235.8285406,234.2170431,237.1447965,240.4712526,236.1428641,300.2855768,304.8583313,306.7050836,307.1274036,308.4198375,309.7226863,311.6966634,313.1746897,313.7543127,312.7942913,313.0634417,313.9965627,314.5524669,314.6049191,315.1026254,315.518639,312.8083491,306.300797,292.8003934,271.8367565,236.4572592,221.6965673,212.6921335,211.8910833,211.5648015,209.8398448,208.672196,208.1474201,208.5362164,208.8113436,209.9480578,212.716112,212.9866833,105.5439873,108.1537972,105.9008834,200.2732429,196.046367,196.3335652,197.4053367,195.9383949,197.3554587,200.3538166,199.0574064,199.4131466,199.6644419,198.4678775,189.7142435,235.6701763,228.5043342,217.3746352,210.2724858,207.6594176,206.7223756,206.9307916,207.7141107,209.5283258,210.9715856,210.5560593,209.5662794,208.9668635,208.752011,208.3599652,208.6781311,207.3007499,208.0662646,212.313222,214.6507253,211.0461677,209.0907955,282.9417254,282.3732028,280.123822,278.8386317,277.8047377,281.3066345,286.8733547,291.1261042,297.5971407,304.8808169,308.52156,311.5736735,312.3793053,311.5840542,311.9351854,311.0755844,310.1500715,309.1207957,311.9111265,153.7279963,101.780213,0,0,337.224322,325.0100567,320.9675675,319.9269568,320.0755061,320.7778675,320.2407191,318.3336775,316.038539,313.946275,311.5050424,310.9672927,310.1944382,311.8581238,312.6964516,156.4693714,157.356627,0,0,0,0,0,0,208.99867,206.8339108,196.7455501,194.0495519,191.9231329,190.572155,191.6282863,193.2596786,194.8393455,194.7769732,194.1523912,194.9079555,196.606141,198.3805384,199.1728337,199.7582194,200.0293183,200.2834132,200.1870782,200.0009885,199.5312308,199.0261102,198.2776554,197.4738602,198.3809036,199.0577327,198.6099961,197.9158515,198.864607,198.8005906,198.0581207,197.2773691,196.9526169,196.4292272,195.9309546,197.0693524,198.489919,198.6008841,197.3320223,195.7009516,195.6940483,198.9151503,200.910211,200.4421003,197.8369115,193.2333499,190.7308306,192.8301469,0,0,0,0,0,0,144.135565,144.5675776,145.1634859,0,0,0,0,0,0,0,0,0,0,0,0,0,0,0,0,0,0,0,0,0,0,0,0,0,0,0,0,0,0,0,0,0,0,0,0,0,0,0,0,0,0,0],
	"score": [0.3637504816,0.3607977154,0.3331561153,0.6406237343,0.7504724755,0.8428314487,0.8715372949,0.8719394258,0.8461924435,0.8194703621,0.6643207714,0.4060779316,0.3435205884,0.4488606114,0.7737414799,0.8813465208,0.9139959516,0.9175491147,0.9290568159,0.9460096624,0.9534379164,0.9542461763,0.9526502772,0.9504543051,0.9403750577,0.9302594503,0.9384488041,0.9491279318,0.9517231181,0.9489097835,0.9050673434,0.6623605894,0.3562071242,0.4638708198,0.5052055826,0.337538496,0.6679007948,0.8093008493,0.8819695108,0.8976549114,0.8693952368,0.8101488777,0.8086297387,0.6951317087,0.7583940442,0.8620799676,0.7482984645,0.7586704827,0.8933736219,0.9401329476,0.9561935646,0.9626231878,0.9605504353,0.9582248968,0.9474434811,0.8709292977,0.7035962033,0.5472110304,0.6237118547,0.7544925645,0.8734620247,0.9159011927,0.9356869832,0.9374011618,0.9448766006,0.9594961889,0.9648283284,0.9677617214,0.965878705,0.9619274611,0.9609142346,0.9469526109,0.9459941764,0.9314168204,0.8397738955,0.5870110475,0.4917305332,0.5347400296,0.2521590537,0.135888428,0.1476521062,0.3352904243,0.6740161666,0.8436702395,0.9242265811,0.9510756244,0.9525306171,0.9547297491,0.9530688288,0.9457287564,0.9339815142,0.9279060923,0.9437333986,0.9573725559,0.9633838856,0.9622441839,0.9639540847,0.9550282715,0.9579477415,0.9613701883,0.9070792776,0.8739295591,0.8853253897,0.8690181906,0.8940777908,0.9360694422,0.944427493,0.9525538784,0.9530879467,0.9586071398,0.9581709509,0.9575527306,0.9602632012,0.9595130366,0.9641926226,0.9597656768,0.9591296894,0.9523667059,0.9119822877,0.8770905146,0.8901022348,0.923573616,0.9245145708,0.7923333037,0.6734979745,0.5123896066,0.2156614807,0.6169407661,0.7889562014,0.7873471142,0.8385257392,0.895079551,0.9252577011,0.9137902761,0.8939177347,0.9324383096,0.9545433985,0.959133187,0.9628648827,0.9630214388,0.965517433,0.9587344358,0.9327400107,0.9424047261,0.9317561093,0.9251412012,0.8813143441,0.8528184065,0.901469323,0.9206692378,0.9285743196,0.9310267479,0.9482805147,0.950011622,0.9551983444,0.9543514252,0.950927524,0.9540225738,0.961098558,0.9634896629,0.9521951859,0.9337505004,0.8953863259,0.8970899811,0.9042043165,0.9263844363,0.9380983125,0.9022275222,0.809691362,0.807130368,0.6553770516,0.3299788906,0.2831736303,0.2375849568,0.3364447188,0.3401150798,0.2077661386,0.1873885144,0.2397362513,0.212569346,0.1806665857,0.6758495278,0.8624011318,0.9171839424,0.9341255202,0.9458452046,0.9501732343,0.9477164633,0.9401002285,0.9476984724,0.955564182,0.9560244602,0.9419306229,0.9296028469,0.9351646508,0.9482232935,0.9458801986,0.9253385,0.9227562815,0.9269150589,0.9301819762,0.9275912332,0.8361056989,0.5626335331,0.5490953722,0.7034598882,0.824313864,0.8928037917,0.9217881832,0.9427999917,0.9522447,0.9573663899,0.9492591397,0.9432311193,0.9420701703,0.9483155854,0.9570718937,0.9572178502,0.9523918392,0.9404049991,0.9158358039,0.8714596629,0.7752457931,0.7460643387,0.6402430176,0.313021827,0.1426060003,0.6416308181,0.8601136007,0.9356650955,0.9607706646,0.9640614461,0.9563915461,0.9509781369,0.9463943592,0.9224619478,0.8720138329,0.8066927862,0.826414184,0.8936364157,0.932316609,0.9539035132,0.9640298277,0.9636965825,0.9645272012,0.9611225239,0.963863321,0.9660854614,0.9697036234,0.9695766974,0.9677560021,0.9648747488,0.96247903,0.9261045814,0.854973409,0.9077454909,0.8764552707,0.8282668227,0.7306025148,0.3951454339,0.7860272204,0.913027601,0.9581932083,0.9718539339,0.9745619486,0.9750808168,0.9664137011,0.9694202343,0.9753329671,0.97939034,0.9782738989,0.9789804865,0.9773178094,0.9764205431,0.9772558864,0.9719946778,0.9565594173,0.8791682482,0.7248455909,0.7729629978,0.8300109651,0.8534247569,0.9274529808,0.939422326,0.9448093469,0.9414460687,0.9449005936,0.9413274097,0.9234004833,0.9236168925,0.9046583639,0.8237022092,0.6905848679,0.5164386194,0.3110879142,0.5834546695,0.8197922322,0.8936042105,0.9054799341,0.8752333052,0.87271309,0.8703916919,0.8990409726,0.9118318052,0.8760944439,0.7632024545,0.4588581959,0.536496223,0.7868404609,0.8381288228,0.9027926402,0.937073532,0.9454446665,0.9571161688,0.9582660025,0.9562867351,0.9581154018,0.9583994645,0.9543917966,0.9527675961,0.9527309458,0.9527266716,0.9432698396,0.9270835084,0.9139503575,0.9041227441,0.9202731357,0.9034224846,0.7253949707,0.5703423284,0.8400656276,0.9332741338,0.9562406925,0.9676226271,0.960690566,0.9535166512,0.9434637828,0.9188436349,0.9291188983,0.9349252245,0.958271148,0.9687920386,0.973159902,0.9757427624,0.9719607589,0.9726484667,0.9486540791,0.8407967993,0.7724117375,0.564286798,0.4453050277,0.2824659426,0.6902268823,0.8516433883,0.932457755,0.9634947169,0.9738124417,0.9771478627,0.9817038851,0.9807961242,0.98081263,0.9812824705,0.9737094141,0.9553545999,0.9036594572,0.9256008769,0.8899418853,0.6835276879,0.5025494806,0.3207366839,0.3679359427,0.2538995123,0.3200882095,0.36597104,0.2860019143,0.5074615175,0.6732354555,0.7428859462,0.8449511894,0.9001475425,0.9314043838,0.9335610645,0.9357170528,0.9456299543,0.9429451828,0.9417318752,0.9434635942,0.9444411664,0.940688056,0.949368146,0.9562460027,0.9558729499,0.9570238583,0.9607983121,0.9591571867,0.9598169068,0.9568700199,0.950752886,0.9415652031,0.935349652,0.932476068,0.9332913768,0.9401431667,0.9480923266,0.9549589551,0.9541656943,0.9513722155,0.9504483771,0.9472467294,0.9263850137,0.9290091641,0.9212470458,0.9328196183,0.9418861615,0.940248255,0.9015939438,0.8072828033,0.8125658243,0.8408980383,0.8040450971,0.7673986705,0.7231953318,0.6229848465,0.3280309236,0.3181208157,0.3603335674,0.2439514889,0.2238382709,0.3335301688,0.5174948105,0.7020229415,0.6765614367,0.3780819564,0.4138527174,0.3263539699,0.3765391801,0.3887142577,0.229213561,0.2692150373,0.4087035555,0.4114879246,0.1834765801,0.3406947558,0.3715026248,0.4017557955,0.3188108459,0.4815531161,0.3930050912,0.2034312866,0.2890055029,0.2181729082,0.2774342621,0.3420651434,0.4086270858,0.335784286,0.3813314615,0.1680149015,0.4066477162,0.4252979008,0.3631997685,0.4195276285,0.2828725608,0.1574522328,0.1527825349,0.1294879189,0.2057864911,0.2312672601,0.1017165472,0.1478537105,0.1975310004,0.3412053524,0.3148858765,0.322686205,0.3058678347,0.3839642361]
}
