{
    "f0": [
        0.0,
        0.0,
        0.0,
        0.0,
        0.0,
        0.0,
        0.0,
        0.0,
        0.0,
        0.0,
        0.0,
        0.0,
        0.0,
        0.0,
        0.0,
        0.0,
        0.0,
        0.0,
        0.0,
        0.0,
        0.0,
        0.0,
        0.0,
        0.0,
        0.0,
        0.0,
        0.0,
        0.0,
        0.0,
        0.0,
        0.0,
        0.0,
        0.0,
        0.0,
        0.0,
        0.0,
        0.0,
        0.0,
        0.0,
        49.028066148243639,
        47.795658635209158,
        47.566965345727247,
        47.312109900633686,
        47.064601225053877,
        46.79473881305271,
        46.829719295025001,
        46.349569524603972,
        46.605235672125886,
        46.509633797896555,
        47.39137502474258,
        47.011339835741474,
        46.787919831730711,
        46.74075566276337,
        46.447434102177631,
        46.288379481008974,
        46.120995071324387,
        44.252199908903243,
        46.411057596139074,
        46.491453185372634,
        46.453494204498902,
        46.239395609216743,
        46.441608354475292,
        46.221214092771675,
        46.164784345958196,
        46.31843851500016,
        0.0,
        49.001152255248144,
        47.869349821467281,
        47.698521752760335,
        47.638266187143579,
        47.274045566456969,
        47.092315531938482,
        47.02261151921136,
        47.047081859010788,
        46.884833783868601,
        46.989783051652452,
        47.052086745136563,
        46.942441871762988,
        46.981767162956608,
        47.107771485074935,
        47.187932271426178,
        47.213732074550563,
        47.227678026883829,
        47.284775983729951,
        47.414449636350575,
        47.248396786150991,
        47.051615357407456,
        47.247084922733613,
        47.295703757821904,
        47.385336428968159,
        47.360803377993243,
        47.417217203060162,
        47.47025404919669,
        47.49250741992627,
        47.753198032657352,
        47.701683901897518,
        47.698244331887423,
        47.65284300957282,
        47.705521253104592,
        47.675267347062999,
        47.616580539899104,
        47.629335264724901,
        47.586094086369911,
        47.569159012004512,
        47.594408553948057,
        47.511260477764431,
        47.512233671106848,
        47.588200488645583,
        47.624570807664767,
        47.692623177645338,
        47.679894385070341,
        47.842770317228599,
        48.142598670016561,
        48.615348827298753,
        48.525829065713012,
        48.806977837307599,
        48.972512741044483,
        49.029894859843132,
        48.782589945119319,
        48.585934538967884,
        48.083596516117346,
        48.149891578418604,
        47.990157574488421,
        48.231610462562955,
        48.390702056259784,
        48.695166902260134,
        49.10075971991936,
        49.028214682150264,
        49.08428420450069,
        49.193346514831639,
        49.120386631050224,
        49.104719860392066,
        48.950387288642425,
        48.661489797951631,
        48.283097788703671,
        48.238198691377036,
        48.256485864312651,
        48.075795076258501,
        48.374563991330959,
        48.464092843160827,
        48.347086990795489,
        48.999825679606971,
        48.973957883853394,
        48.060326715007903,
        0.0,
        0.0,
        0.0,
        0.0,
        0.0,
        0.0,
        0.0,
        0.0,
        0.0,
        0.0,
        0.0,
        0.0,
        47.961010656224524,
        47.911888132105005,
        46.706705744322186,
        47.13189891787831,
        47.316239434636437,
        47.281898736611353,
        47.027838087594503,
        0.0,
        0.0,
        0.0,
        0.0,
        0.0,
        0.0,
        0.0,
        0.0,
        0.0,
        48.429545270753266,
        47.527221887191246,
        47.521331042636305,
        47.555605586872431,
        48.301871511927928,
        49.011130791222854,
        49.002202451328657,
        48.929318881784859,
        49.019220783246851,
        49.190805456939003,
        49.222951880735828,
        49.291581789058625,
        49.351918935763528,
        49.407979162517407,
        49.36422473985786,
        49.29626111046683,
        49.159962832328048,
        49.160531287578806,
        49.057501334758356,
        48.87869186539907,
        49.019129320820056,
        49.072295966779038,
        49.199362081150781,
        49.034422908049251,
        49.140832648027747,
        49.191561426354099,
        49.40190714419704,
        49.13183460003723,
        49.38255409969706,
        49.307005584401566,
        47.34427042142287,
        0.0,
        0.0,
        0.0,
        0.0,
        48.807615726533378,
        48.848814476645302,
        48.808457956936721,
        48.752580819300874,
        48.962939674642087,
        49.244801400102013,
        49.412991954393725,
        49.566947713031389,
        50.032999749786995,
        50.138337518145846,
        50.113745511909208,
        50.165624889359414,
        50.293727463312067,
        50.17820985637772,
        50.100712803087397,
        49.900141516130461,
        49.995384451859714,
        50.135769081603044,
        50.219951846159034,
        50.036204728720236,
        50.043357633158948,
        49.703523356426516,
        49.567060263078623,
        50.164904908073424,
        50.057059248648571,
        47.932530188832146,
        50.194922275778239,
        49.154662663789253,
        48.792809123420845,
        48.367679588381009,
        48.554363783015518,
        48.494223010108506,
        48.306917368656705,
        48.434047862286349,
        48.58627613586858,
        48.536363326798721,
        48.47825007629082,
        48.463005625237756,
        48.754661220485978,
        48.80177481516241,
        48.790075444685286,
        48.703444493919548,
        48.60448615639605,
        48.38874723405938,
        48.221299875654758,
        48.150199903916011,
        48.119115385107037,
        47.823473480813547,
        47.682774047019301,
        47.534937282595358,
        47.180735010706009,
        46.886497578553325,
        46.857919731110648,
        46.830657086023045,
        46.844694797689201,
        46.889156946779757,
        46.894653335489039,
        46.829945145455014,
        46.690142409894101,
        46.650688552622441,
        46.657382734817375,
        46.734767111507509,
        46.741502733966605,
        46.685487116879798,
        46.67754390318278,
        46.689900596190512,
        46.605690826571561,
        46.638451155917053,
        46.668455252338127,
        46.766060133113768,
        46.694985823653766,
        46.869419851434721,
        47.100161218804907,
        47.151559776753324,
        47.000424659019849,
        46.739322203453305,
        46.814712544827977,
        46.717392323331993,
        47.482299253451359,
        47.135966624018238,
        47.724603286176887,
        47.266726072376358,
        0.0,
        46.352229396665244,
        45.531286696223468,
        44.700399720350418,
        44.616219795511299,
        44.301366212203767,
        44.089602888617733,
        44.188208053746045,
        44.113083748599642,
        44.176706224436622,
        43.860361200895071,
        43.967780303587972,
        43.692120663951478,
        43.21138875191285,
        43.275019780742156,
        43.422860175288761,
        43.182712501169696,
        42.935259685271404,
        43.009492090855623,
        42.839154915659932,
        42.874054263201863,
        42.796005861539669,
        43.169869961225118,
        43.005178149628179,
        43.302770313113427,
        43.197077872384803,
        0.0,
        0.0,
        0.0,
        0.0,
        0.0,
        0.0,
        0.0,
        0.0,
        0.0,
        0.0,
        0.0,
        0.0,
        0.0,
        0.0,
        0.0,
        0.0,
        0.0,
        0.0,
        0.0,
        0.0,
        0.0,
        0.0,
        0.0,
        0.0,
        0.0,
        0.0
    ],
    "time": [
        0.02,
        0.040000000000000001,
        0.059999999999999998,
        0.080000000000000002,
        0.10000000000000001,
        0.12,
        0.14000000000000001,
        0.16,
        0.17999999999999999,
        0.20000000000000001,
        0.22,
        0.23999999999999999,
        0.26000000000000001,
        0.28000000000000003,
        0.29999999999999999,
        0.32000000000000001,
        0.34000000000000002,
        0.35999999999999999,
        0.38,
        0.40000000000000002,
        0.41999999999999998,
        0.44,
        0.46000000000000002,
        0.47999999999999998,
        0.5,
        0.52000000000000002,
        0.54000000000000004,
        0.56000000000000005,
        0.57999999999999996,
        0.59999999999999998,
        0.62,
        0.64000000000000001,
        0.66000000000000003,
        0.68000000000000005,
        0.69999999999999996,
        0.71999999999999997,
        0.73999999999999999,
        0.76000000000000001,
        0.78000000000000003,
        0.80000000000000004,
        0.81999999999999995,
        0.83999999999999997,
        0.85999999999999999,
        0.88,
        0.90000000000000002,
        0.92000000000000004,
        0.93999999999999995,
        0.95999999999999996,
        0.97999999999999998,
        1.0,
        1.02,
        1.04,
        1.0600000000000001,
        1.0800000000000001,
        1.1000000000000001,
        1.1200000000000001,
        1.1399999999999999,
        1.1599999999999999,
        1.1799999999999999,
        1.2,
        1.22,
        1.24,
        1.26,
        1.28,
        1.3,
        1.3200000000000001,
        1.3400000000000001,
        1.3600000000000001,
        1.3799999999999999,
        1.3999999999999999,
        1.4199999999999999,
        1.4399999999999999,
        1.46,
        1.48,
        1.5,
        1.52,
        1.54,
        1.5600000000000001,
        1.5800000000000001,
        1.6000000000000001,
        1.6200000000000001,
        1.6399999999999999,
        1.6599999999999999,
        1.6799999999999999,
        1.7,
        1.72,
        1.74,
        1.76,
        1.78,
        1.8,
        1.8200000000000001,
        1.8400000000000001,
        1.8600000000000001,
        1.8799999999999999,
        1.8999999999999999,
        1.9199999999999999,
        1.9399999999999999,
        1.96,
        1.98,
        2.0,
        2.02,
        2.04,
        2.0600000000000001,
        2.0800000000000001,
        2.1000000000000001,
        2.1200000000000001,
        2.1400000000000001,
        2.1600000000000001,
        2.1800000000000002,
        2.2000000000000002,
        2.2200000000000002,
        2.2400000000000002,
        2.2599999999999998,
        2.2799999999999998,
        2.2999999999999998,
        2.3199999999999998,
        2.3399999999999999,
        2.3599999999999999,
        2.3799999999999999,
        2.3999999999999999,
        2.4199999999999999,
        2.4399999999999999,
        2.46,
        2.48,
        2.5,
        2.52,
        2.54,
        2.5600000000000001,
        2.5800000000000001,
        2.6000000000000001,
        2.6200000000000001,
        2.6400000000000001,
        2.6600000000000001,
        2.6800000000000002,
        2.7000000000000002,
        2.7200000000000002,
        2.7400000000000002,
        2.7599999999999998,
        2.7799999999999998,
        2.7999999999999998,
        2.8199999999999998,
        2.8399999999999999,
        2.8599999999999999,
        2.8799999999999999,
        2.8999999999999999,
        2.9199999999999999,
        2.9399999999999999,
        2.96,
        2.98,
        3.0,
        3.02,
        3.04,
        3.0600000000000001,
        3.0800000000000001,
        3.1000000000000001,
        3.1200000000000001,
        3.1400000000000001,
        3.1600000000000001,
        3.1800000000000002,
        3.2000000000000002,
        3.2200000000000002,
        3.2400000000000002,
        3.2599999999999998,
        3.2799999999999998,
        3.2999999999999998,
        3.3199999999999998,
        3.3399999999999999,
        3.3599999999999999,
        3.3799999999999999,
        3.3999999999999999,
        3.4199999999999999,
        3.4399999999999999,
        3.46,
        3.48,
        3.5,
        3.52,
        3.54,
        3.5600000000000001,
        3.5800000000000001,
        3.6000000000000001,
        3.6200000000000001,
        3.6400000000000001,
        3.6600000000000001,
        3.6800000000000002,
        3.7000000000000002,
        3.7200000000000002,
        3.7400000000000002,
        3.7599999999999998,
        3.7799999999999998,
        3.7999999999999998,
        3.8199999999999998,
        3.8399999999999999,
        3.8599999999999999,
        3.8799999999999999,
        3.8999999999999999,
        3.9199999999999999,
        3.9399999999999999,
        3.96,
        3.98,
        4.0,
        4.0199999999999996,
        4.04,
        4.0599999999999996,
        4.0800000000000001,
        4.0999999999999996,
        4.1200000000000001,
        4.1399999999999997,
        4.1600000000000001,
        4.1799999999999997,
        4.2000000000000002,
        4.2199999999999998,
        4.2400000000000002,
        4.2599999999999998,
        4.2800000000000002,
        4.2999999999999998,
        4.3200000000000003,
        4.3399999999999999,
        4.3600000000000003,
        4.3799999999999999,
        4.4000000000000004,
        4.4199999999999999,
        4.4400000000000004,
        4.46,
        4.4800000000000004,
        4.5,
        4.5199999999999996,
        4.54,
        4.5599999999999996,
        4.5800000000000001,
        4.5999999999999996,
        4.6200000000000001,
        4.6399999999999997,
        4.6600000000000001,
        4.6799999999999997,
        4.7000000000000002,
        4.7199999999999998,
        4.7400000000000002,
        4.7599999999999998,
        4.7800000000000002,
        4.7999999999999998,
        4.8200000000000003,
        4.8399999999999999,
        4.8600000000000003,
        4.8799999999999999,
        4.9000000000000004,
        4.9199999999999999,
        4.9400000000000004,
        4.96,
        4.9800000000000004,
        5.0,
        5.0199999999999996,
        5.04,
        5.0599999999999996,
        5.0800000000000001,
        5.0999999999999996,
        5.1200000000000001,
        5.1399999999999997,
        5.1600000000000001,
        5.1799999999999997,
        5.2000000000000002,
        5.2199999999999998,
        5.2400000000000002,
        5.2599999999999998,
        5.2800000000000002,
        5.2999999999999998,
        5.3200000000000003,
        5.3399999999999999,
        5.3600000000000003,
        5.3799999999999999,
        5.4000000000000004,
        5.4199999999999999,
        5.4400000000000004,
        5.46,
        5.4800000000000004,
        5.5,
        5.5199999999999996,
        5.54,
        5.5599999999999996,
        5.5800000000000001,
        5.5999999999999996,
        5.6200000000000001,
        5.6399999999999997,
        5.6600000000000001,
        5.6799999999999997,
        5.7000000000000002,
        5.7199999999999998,
        5.7400000000000002,
        5.7599999999999998,
        5.7800000000000002,
        5.7999999999999998,
        5.8200000000000003,
        5.8399999999999999,
        5.8600000000000003,
        5.8799999999999999,
        5.9000000000000004,
        5.9199999999999999,
        5.9400000000000004,
        5.96,
        5.9800000000000004,
        6.0,
        6.0199999999999996,
        6.04,
        6.0599999999999996,
        6.0800000000000001,
        6.0999999999999996,
        6.1200000000000001,
        6.1399999999999997,
        6.1600000000000001,
        6.1799999999999997,
        6.2000000000000002,
        6.2199999999999998,
        6.2400000000000002,
        6.2599999999999998,
        6.2800000000000002,
        6.2999999999999998,
        6.3200000000000003,
        6.3399999999999999,
        6.3600000000000003,
        6.3799999999999999,
        6.4000000000000004,
        6.4199999999999999,
        6.4400000000000004,
        6.46,
        6.4800000000000004,
        6.5,
        6.5199999999999996,
        6.54,
        6.5599999999999996,
        6.5800000000000001,
        6.5999999999999996,
        6.6200000000000001,
        6.6399999999999997,
        6.6600000000000001,
        6.6799999999999997,
        6.7000000000000002,
        6.7199999999999998,
        6.7400000000000002,
        6.7599999999999998,
        6.7800000000000002,
        6.7999999999999998,
        6.8200000000000003
    ]
}