{
    "f0": [
        46.098214089299987,
        49.849508232216408,
        50.361237374719742,
        46.362806320977484,
        50.360213696237906,
        50.40727906506433,
        52.63452391296034,
        54.513310263263513,
        55.362832269231035,
        53.292386010242538,
        51.112522808658753,
        50.116394045565102,
        46.503916963956165,
        41.497021811671459,
        45.854208931577617,
        43.454392822902591,
        41.403173440092687,
        38.473342139544712,
        53.705565801097052,
        50.462772355877085,
        41.461815258003902,
        46.594747883434131,
        50.548734085064325,
        61.867354839045063,
        48.803303643084831,
        42.090164712002903,
        46.624697648101275,
        50.040670846939683,
        38.257350418663172,
        49.417283245092904,
        45.209034898244099,
        45.59711775016136,
        49.312315391157256,
        49.986859643033931,
        50.808371893064049,
        50.622549623350565,
        54.798805435602802,
        52.470871567471434,
        51.803049593637212,
        51.320921628435514,
        51.058806068788499,
        50.674328535863957,
        50.341744641558485,
        50.314590568851649,
        50.304146171256178,
        50.111321736272956,
        49.659029756725388,
        49.406746724461577,
        49.350929035482373,
        49.367067005544925,
        49.20014397843191,
        49.127428558237696,
        49.290350372405051,
        49.557378646522402,
        49.612933123163984,
        49.771997108776894,
        49.878315962624988,
        49.835505008449459,
        49.122621883187435,
        49.243763970743785,
        49.039546891900542,
        44.819140389808865,
        41.119446151609054,
        51.206269684384395,
        51.364024760653876,
        50.993034660346439,
        51.169001283988052,
        50.468590362608225,
        50.500376034792041,
        50.520279403781728,
        50.196311568180896,
        50.385403193869251,
        50.541865399972039,
        50.538096976589799,
        50.493563305162446,
        50.4693625448296,
        50.364445547763864,
        50.642351281415152,
        50.679752461721229,
        51.007546474970994,
        50.833619412530084,
        50.705856543004202,
        50.20326183522846,
        50.045875256695403,
        49.706204332372423,
        49.983915653695711,
        50.09203388867563,
        50.10777302405176,
        50.341635282819418,
        50.291104067602419,
        50.395417018671438,
        50.576475500230309,
        50.876143815927087,
        51.111593136687901,
        51.335589392277186,
        51.597422613990169,
        52.007584831241985,
        51.566696296623583,
        51.359546290451419,
        51.269876704670921,
        51.179738492224416,
        51.089126959891146,
        50.998045355040652,
        50.938388010731323,
        51.073117485256148,
        50.836275011977222,
        50.764248377388483,
        50.992713573794234,
        50.987927297688586,
        50.922564328963595,
        51.059647194051131,
        50.997099386202336,
        50.934328242575845,
        51.055075744754134,
        51.060269915396162,
        51.090973280206356,
        51.281154660664157,
        51.113594058801652,
        50.983275601017198,
        51.004655565536481,
        51.026010937255066,
        51.219603012383516,
        51.326084930594305,
        51.176151790421386,
        51.084840372794979,
        50.962946467406923,
        51.027616559231333,
        51.092049296208302,
        51.328501173494253,
        50.949683019926162,
        51.222835423110226,
        51.345524672469395,
        51.190351489866593,
        51.29130495592203,
        51.103401506667275,
        51.35830047864431,
        51.11501790403058,
        51.012950088516511,
        51.180491382734047,
        51.110725891721202,
        50.92844979933119,
        50.973301940228254,
        51.282512895407493,
        51.28287047500072,
        51.283229579957677,
        51.455854231032731,
        50.834979059328958,
        51.500657343652733,
        51.116055283788199,
        50.752328771368042,
        51.972342627442444,
        51.183516051365586,
        51.469765257383401,
        51.537446429011339,
        50.473972200226598,
        51.441917047065367,
        50.479635980553283,
        50.59831130607234,
        50.293424904477099,
        50.441233082097284,
        50.270421563961136,
        50.500991252774391,
        50.414166233737809,
        50.397323148259161,
        50.380465390410279,
        50.363587622341896,
        50.346702282829483,
        50.239356754884739,
        50.176906407410833,
        50.603107438117583,
        50.53948517386857,
        54.163212782460484,
        53.107365256788952,
        53.722344906685407,
        53.725671756541423,
        53.320009394807776,
        53.389540759115441,
        54.149360300943322,
        53.835551709959375,
        53.624424427190277,
        53.528130661389838,
        54.217018942108908,
        54.347198749688133,
        53.691491758323075,
        53.009965822152289,
        52.979516488080307,
        53.123963510952464,
        52.872554343377118,
        51.729430911812855,
        50.331463171782488,
        48.017809072699755,
        46.047695001620738,
        45.341232913036002,
        45.008585578565331,
        46.76402369542609,
        44.940613566329134,
        46.37251697647811,
        46.248766880624885,
        46.583641322640133,
        45.713700730670126,
        46.65084020812256,
        46.603847900781879,
        47.034902717410183,
        45.903522935630342,
        46.459647227733456,
        50.290769694914005,
        51.55935190736048,
        53.63802234975509,
        55.775595406144724,
        56.664266627507715,
        57.111663256839208,
        41.699925159534182,
        42.982948114865728,
        41.724860736550575,
        41.794389275904166,
        0.0,
        0.0,
        0.0,
        0.0,
        0.0,
        52.05654323178095,
        39.130646411108351,
        50.542594213060745,
        50.015274520283612,
        49.471387264532972,
        49.252692720544765,
        49.031200180382783,
        48.979097916329366,
        49.519661586421996,
        49.72454290102332,
        49.927026003301691,
        50.469999864710232,
        50.451735267879315,
        49.801359903318925,
        49.799923999296752,
        48.576571136378206,
        51.358430198115741,
        51.624370101228088,
        51.73744728916293,
        51.654606730453203,
        51.521340595592953,
        51.417175417582051,
        51.376693823898215,
        51.18381346803281,
        51.065939586222825,
        50.558688726223117,
        50.42511144092817,
        49.936943717818224,
        49.78975082482053,
        49.463108797959414,
        49.44916634960876,
        49.422914567496193,
        49.334400222530718,
        49.276729546632396,
        49.183625128780051,
        49.107745204100311,
        49.031529238302895,
        49.201817060710866,
        48.59533968082193,
        48.910146580793864,
        49.749469088035369,
        50.298909324583406,
        50.603873757719832,
        51.015768342854791,
        50.970900374563669,
        50.701168167020427,
        50.508188858649731,
        50.245259151399956,
        50.012723694643455,
        50.154091660995441,
        50.311530403810814,
        50.459021695079059,
        50.441180440219348,
        50.407753534526066,
        50.374263808966788,
        50.333789245076687,
        50.088107132410741,
        49.943233537141325,
        50.087430492776733,
        50.080567933838182,
        50.213808015151514,
        49.962042266327252,
        49.723687413324569,
        49.816159983524827,
        49.799176003442327,
        49.634935690277302,
        49.577908901124005,
        49.520693766160953,
        49.806123689665199,
        49.478512196190451,
        49.573439723616247,
        49.267274567449377,
        49.279406263071664,
        49.004460631758505,
        48.992296874128165,
        49.691613937718202,
        49.79074697800916,
        49.649258076641537,
        50.047346523368688,
        50.194603878137457,
        49.57296031838532,
        49.376624352924381,
        49.464398521995989,
        49.813632326834018,
        50.539799005776096,
        49.464528401184907,
        49.190948647666005,
        52.608027895646558,
        51.394586302654659,
        50.442478165264234,
        50.771659220009944,
        50.824748020417715,
        50.485444769780656,
        50.499797451070009,
        50.765907788472184,
        50.856700271010936,
        50.682672063192655,
        50.760001207567825,
        50.786337092992241,
        50.488180563020016,
        50.65973717339304,
        50.784722683003054,
        50.77650046775333,
        50.846862462055824,
        50.812705088233201,
        50.812116373818313,
        50.95758679510724,
        51.016014285917962,
        50.943077239620578,
        51.020185668535511,
        50.935582710479892,
        50.850567758381281,
        50.778611057082273,
        50.699587352550978,
        50.741399007821521,
        50.740045773943947,
        50.631370941628923,
        50.611839650433105,
        50.606952130499323,
        50.594728999415395,
        50.685561933857592,
        50.666907215043572,
        51.071475514366554,
        51.514412085399229,
        51.749102973944083,
        51.90423089025515,
        51.746138117241713,
        51.966864224395117,
        51.882104159012492,
        52.039216774394532,
        51.796502153924166,
        51.756021094105762,
        51.262912020443004,
        50.989818515911139,
        50.593612965385205,
        50.928001345454106,
        50.673039342453436,
        51.30972782172762,
        51.178545210441378,
        50.986470908833795,
        49.93454204670779,
        50.122004487662551,
        51.339499520155513,
        53.353010513423115,
        53.68314460119165,
        55.754592805937619,
        55.952998475514718,
        55.923274220122394,
        55.707797027312566,
        53.589654795738497,
        51.586468620683789,
        48.9139302395767,
        46.340321571624592,
        43.317192729099872,
        41.425139301592424,
        55.868811822612294,
        50.31112752129782,
        46.820306146040643,
        45.596952928133447,
        43.391299004770275,
        41.293077756183941,
        41.191687752706891,
        41.365817464529357,
        41.462615140718292,
        43.418807362611055,
        43.298674700884419,
        43.532084055120379,
        43.428350631592295,
        43.324776269544309,
        46.99913243010289,
        43.581364975955161,
        45.959082563605826,
        45.43668511806564,
        45.742999645828817,
        45.010400175656216,
        43.029676689604258,
        41.494854788848755,
        41.272955534405206,
        43.532094505130182,
        43.229276857655911,
        43.490547372368511,
        43.251117290840938,
        43.450875277542636,
        46.270641016737343,
        45.477491286758017,
        44.082035489609368,
        43.423529748066926,
        45.772476492424644,
        45.59969737533919,
        41.682493048698262,
        39.439352641181266,
        45.611333977904238,
        45.978105348542968,
        46.337273078446373,
        46.515143121791624,
        45.889536801260206,
        46.213675018793666,
        46.887573144905822,
        46.128050255676193,
        44.983912038455522,
        47.055389454292623,
        46.688615386752772,
        46.480906188580562,
        46.529186049211539,
        46.577332792966821,
        47.63411273909314,
        0.0,
        53.30794293063515,
        53.819677110006822,
        50.631346613453012,
        50.281588966777292,
        46.101889788194015,
        43.473358966551814,
        50.436960178702051,
        50.391825904730084,
        50.394900030837114,
        50.397970154393192,
        50.227045191671294,
        53.493063986651364,
        53.19501658102611,
        53.621209392450154,
        0.0,
        0.0,
        0.0,
        0.0,
        0.0,
        0.0,
        0.0,
        0.0,
        0.0,
        0.0,
        0.0,
        0.0,
        0.0,
        0.0,
        0.0,
        0.0,
        0.0,
        0.0,
        0.0,
        0.0,
        0.0,
        0.0,
        0.0,
        0.0,
        0.0,
        0.0,
        0.0,
        0.0,
        0.0
    ],
    "time": [
        0.02,
        0.040000000000000001,
        0.059999999999999998,
        0.080000000000000002,
        0.10000000000000001,
        0.12,
        0.14000000000000001,
        0.16,
        0.17999999999999999,
        0.20000000000000001,
        0.22,
        0.23999999999999999,
        0.26000000000000001,
        0.28000000000000003,
        0.29999999999999999,
        0.32000000000000001,
        0.34000000000000002,
        0.35999999999999999,
        0.38,
        0.40000000000000002,
        0.41999999999999998,
        0.44,
        0.46000000000000002,
        0.47999999999999998,
        0.5,
        0.52000000000000002,
        0.54000000000000004,
        0.56000000000000005,
        0.57999999999999996,
        0.59999999999999998,
        0.62,
        0.64000000000000001,
        0.66000000000000003,
        0.68000000000000005,
        0.69999999999999996,
        0.71999999999999997,
        0.73999999999999999,
        0.76000000000000001,
        0.78000000000000003,
        0.80000000000000004,
        0.81999999999999995,
        0.83999999999999997,
        0.85999999999999999,
        0.88,
        0.90000000000000002,
        0.92000000000000004,
        0.93999999999999995,
        0.95999999999999996,
        0.97999999999999998,
        1.0,
        1.02,
        1.04,
        1.0600000000000001,
        1.0800000000000001,
        1.1000000000000001,
        1.1200000000000001,
        1.1399999999999999,
        1.1599999999999999,
        1.1799999999999999,
        1.2,
        1.22,
        1.24,
        1.26,
        1.28,
        1.3,
        1.3200000000000001,
        1.3400000000000001,
        1.3600000000000001,
        1.3799999999999999,
        1.3999999999999999,
        1.4199999999999999,
        1.4399999999999999,
        1.46,
        1.48,
        1.5,
        1.52,
        1.54,
        1.5600000000000001,
        1.5800000000000001,
        1.6000000000000001,
        1.6200000000000001,
        1.6399999999999999,
        1.6599999999999999,
        1.6799999999999999,
        1.7,
        1.72,
        1.74,
        1.76,
        1.78,
        1.8,
        1.8200000000000001,
        1.8400000000000001,
        1.8600000000000001,
        1.8799999999999999,
        1.8999999999999999,
        1.9199999999999999,
        1.9399999999999999,
        1.96,
        1.98,
        2.0,
        2.02,
        2.04,
        2.0600000000000001,
        2.0800000000000001,
        2.1000000000000001,
        2.1200000000000001,
        2.1400000000000001,
        2.1600000000000001,
        2.1800000000000002,
        2.2000000000000002,
        2.2200000000000002,
        2.2400000000000002,
        2.2599999999999998,
        2.2799999999999998,
        2.2999999999999998,
        2.3199999999999998,
        2.3399999999999999,
        2.3599999999999999,
        2.3799999999999999,
        2.3999999999999999,
        2.4199999999999999,
        2.4399999999999999,
        2.46,
        2.48,
        2.5,
        2.52,
        2.54,
        2.5600000000000001,
        2.5800000000000001,
        2.6000000000000001,
        2.6200000000000001,
        2.6400000000000001,
        2.6600000000000001,
        2.6800000000000002,
        2.7000000000000002,
        2.7200000000000002,
        2.7400000000000002,
        2.7599999999999998,
        2.7799999999999998,
        2.7999999999999998,
        2.8199999999999998,
        2.8399999999999999,
        2.8599999999999999,
        2.8799999999999999,
        2.8999999999999999,
        2.9199999999999999,
        2.9399999999999999,
        2.96,
        2.98,
        3.0,
        3.02,
        3.04,
        3.0600000000000001,
        3.0800000000000001,
        3.1000000000000001,
        3.1200000000000001,
        3.1400000000000001,
        3.1600000000000001,
        3.1800000000000002,
        3.2000000000000002,
        3.2200000000000002,
        3.2400000000000002,
        3.2599999999999998,
        3.2799999999999998,
        3.2999999999999998,
        3.3199999999999998,
        3.3399999999999999,
        3.3599999999999999,
        3.3799999999999999,
        3.3999999999999999,
        3.4199999999999999,
        3.4399999999999999,
        3.46,
        3.48,
        3.5,
        3.52,
        3.54,
        3.5600000000000001,
        3.5800000000000001,
        3.6000000000000001,
        3.6200000000000001,
        3.6400000000000001,
        3.6600000000000001,
        3.6800000000000002,
        3.7000000000000002,
        3.7200000000000002,
        3.7400000000000002,
        3.7599999999999998,
        3.7799999999999998,
        3.7999999999999998,
        3.8199999999999998,
        3.8399999999999999,
        3.8599999999999999,
        3.8799999999999999,
        3.8999999999999999,
        3.9199999999999999,
        3.9399999999999999,
        3.96,
        3.98,
        4.0,
        4.0199999999999996,
        4.04,
        4.0599999999999996,
        4.0800000000000001,
        4.0999999999999996,
        4.1200000000000001,
        4.1399999999999997,
        4.1600000000000001,
        4.1799999999999997,
        4.2000000000000002,
        4.2199999999999998,
        4.2400000000000002,
        4.2599999999999998,
        4.2800000000000002,
        4.2999999999999998,
        4.3200000000000003,
        4.3399999999999999,
        4.3600000000000003,
        4.3799999999999999,
        4.4000000000000004,
        4.4199999999999999,
        4.4400000000000004,
        4.46,
        4.4800000000000004,
        4.5,
        4.5199999999999996,
        4.54,
        4.5599999999999996,
        4.5800000000000001,
        4.5999999999999996,
        4.6200000000000001,
        4.6399999999999997,
        4.6600000000000001,
        4.6799999999999997,
        4.7000000000000002,
        4.7199999999999998,
        4.7400000000000002,
        4.7599999999999998,
        4.7800000000000002,
        4.7999999999999998,
        4.8200000000000003,
        4.8399999999999999,
        4.8600000000000003,
        4.8799999999999999,
        4.9000000000000004,
        4.9199999999999999,
        4.9400000000000004,
        4.96,
        4.9800000000000004,
        5.0,
        5.0199999999999996,
        5.04,
        5.0599999999999996,
        5.0800000000000001,
        5.0999999999999996,
        5.1200000000000001,
        5.1399999999999997,
        5.1600000000000001,
        5.1799999999999997,
        5.2000000000000002,
        5.2199999999999998,
        5.2400000000000002,
        5.2599999999999998,
        5.2800000000000002,
        5.2999999999999998,
        5.3200000000000003,
        5.3399999999999999,
        5.3600000000000003,
        5.3799999999999999,
        5.4000000000000004,
        5.4199999999999999,
        5.4400000000000004,
        5.46,
        5.4800000000000004,
        5.5,
        5.5199999999999996,
        5.54,
        5.5599999999999996,
        5.5800000000000001,
        5.5999999999999996,
        5.6200000000000001,
        5.6399999999999997,
        5.6600000000000001,
        5.6799999999999997,
        5.7000000000000002,
        5.7199999999999998,
        5.7400000000000002,
        5.7599999999999998,
        5.7800000000000002,
        5.7999999999999998,
        5.8200000000000003,
        5.8399999999999999,
        5.8600000000000003,
        5.8799999999999999,
        5.9000000000000004,
        5.9199999999999999,
        5.9400000000000004,
        5.96,
        5.9800000000000004,
        6.0,
        6.0199999999999996,
        6.04,
        6.0599999999999996,
        6.0800000000000001,
        6.0999999999999996,
        6.1200000000000001,
        6.1399999999999997,
        6.1600000000000001,
        6.1799999999999997,
        6.2000000000000002,
        6.2199999999999998,
        6.2400000000000002,
        6.2599999999999998,
        6.2800000000000002,
        6.2999999999999998,
        6.3200000000000003,
        6.3399999999999999,
        6.3600000000000003,
        6.3799999999999999,
        6.4000000000000004,
        6.4199999999999999,
        6.4400000000000004,
        6.46,
        6.4800000000000004,
        6.5,
        6.5199999999999996,
        6.54,
        6.5599999999999996,
        6.5800000000000001,
        6.5999999999999996,
        6.6200000000000001,
        6.6399999999999997,
        6.6600000000000001,
        6.6799999999999997,
        6.7000000000000002,
        6.7199999999999998,
        6.7400000000000002,
        6.7599999999999998,
        6.7800000000000002,
        6.7999999999999998,
        6.8200000000000003,
        6.8399999999999999,
        6.8600000000000003,
        6.8799999999999999,
        6.9000000000000004,
        6.9199999999999999,
        6.9400000000000004,
        6.96,
        6.9800000000000004,
        7.0,
        7.0199999999999996,
        7.04,
        7.0599999999999996,
        7.0800000000000001,
        7.0999999999999996,
        7.1200000000000001,
        7.1399999999999997,
        7.1600000000000001,
        7.1799999999999997,
        7.2000000000000002,
        7.2199999999999998,
        7.2400000000000002,
        7.2599999999999998,
        7.2800000000000002,
        7.2999999999999998,
        7.3200000000000003,
        7.3399999999999999,
        7.3600000000000003,
        7.3799999999999999,
        7.4000000000000004,
        7.4199999999999999,
        7.4400000000000004,
        7.46,
        7.4800000000000004,
        7.5,
        7.5199999999999996,
        7.54,
        7.5599999999999996,
        7.5800000000000001,
        7.5999999999999996,
        7.6200000000000001,
        7.6399999999999997,
        7.6600000000000001,
        7.6799999999999997,
        7.7000000000000002,
        7.7199999999999998,
        7.7400000000000002,
        7.7599999999999998,
        7.7800000000000002,
        7.7999999999999998,
        7.8200000000000003,
        7.8399999999999999,
        7.8600000000000003,
        7.8799999999999999,
        7.9000000000000004,
        7.9199999999999999,
        7.9400000000000004,
        7.96,
        7.9800000000000004,
        8.0,
        8.0199999999999996,
        8.0399999999999991,
        8.0600000000000005,
        8.0800000000000001,
        8.0999999999999996,
        8.1199999999999992,
        8.1400000000000006,
        8.1600000000000001,
        8.1799999999999997,
        8.1999999999999993,
        8.2200000000000006,
        8.2400000000000002,
        8.2599999999999998,
        8.2799999999999994,
        8.3000000000000007,
        8.3200000000000003,
        8.3399999999999999,
        8.3599999999999994,
        8.3800000000000008,
        8.4000000000000004,
        8.4199999999999999,
        8.4399999999999995,
        8.4600000000000009,
        8.4800000000000004,
        8.5,
        8.5199999999999996,
        8.5399999999999991,
        8.5600000000000005,
        8.5800000000000001,
        8.5999999999999996,
        8.6199999999999992,
        8.6400000000000006,
        8.6600000000000001,
        8.6799999999999997,
        8.6999999999999993,
        8.7200000000000006,
        8.7400000000000002,
        8.7599999999999998,
        8.7799999999999994,
        8.8000000000000007,
        8.8200000000000003,
        8.8399999999999999,
        8.8599999999999994,
        8.8800000000000008,
        8.9000000000000004,
        8.9199999999999999,
        8.9399999999999995,
        8.9600000000000009,
        8.9800000000000004,
        9.0,
        9.0199999999999996,
        9.0399999999999991,
        9.0600000000000005,
        9.0800000000000001,
        9.0999999999999996,
        9.1199999999999992,
        9.1400000000000006,
        9.1600000000000001,
        9.1799999999999997,
        9.1999999999999993,
        9.2200000000000006,
        9.2400000000000002,
        9.2599999999999998,
        9.2799999999999994,
        9.3000000000000007,
        9.3200000000000003,
        9.3399999999999999,
        9.3599999999999994,
        9.3800000000000008,
        9.4000000000000004
    ]
}