{
    "f0": [
        45.523260550903863,
        45.695530457314526,
        50.141091171912386,
        46.435770650429326,
        50.590139196502648,
        49.302377777097689,
        49.418113037758111,
        44.520060158222883,
        56.311869623063878,
        56.505585791670896,
        56.869419362967705,
        57.141603902940751,
        57.381552629624956,
        57.632048462296588,
        58.044423697670091,
        58.538835749408932,
        58.447699230795138,
        58.52754591456894,
        58.679284229759375,
        59.472929416319047,
        59.752948201649147,
        59.909531461233094,
        59.94977800412849,
        59.989931267790588,
        60.202254875735164,
        60.327127789165743,
        60.83612897662595,
        61.487400333348361,
        61.689870373429734,
        61.927466873128694,
        62.010639943022298,
        61.876241382250463,
        61.740791234896484,
        61.742197346103637,
        61.734590010076516,
        61.627084334006653,
        61.518906898625126,
        61.582310614524175,
        61.402776850268239,
        61.141891317131801,
        0.0,
        0.0,
        61.394446942795035,
        62.403210589061892,
        62.403210589061892,
        62.193844235362064,
        62.019850385347404,
        61.785060902565213,
        61.671898406838466,
        61.32126870343356,
        61.256886756547793,
        61.331575014323747,
        61.460378717168119,
        61.733497526934791,
        61.757015186093248,
        61.864745821107114,
        61.868263075944704,
        61.869896344883472,
        61.812204711058428,
        61.770564263214304,
        61.754925958232363,
        61.739414154892856,
        61.650409125940442,
        61.602457918010757,
        61.618278668992126,
        61.573037722624157,
        61.491608384214786,
        61.459725384865628,
        61.476059017405525,
        61.386366447274085,
        61.371712889208304,
        61.447390769342476,
        61.485839950662985,
        61.496339565267753,
        61.584343362524365,
        61.687754718592224,
        61.74327288604298,
        61.822192036037656,
        61.787527144934991,
        61.830215172693542,
        61.846342907980144,
        61.792136269546909,
        61.819838012168745,
        61.738015119508589,
        61.780349708145572,
        61.779520618273544,
        61.752787262399572,
        61.738986783600758,
        61.705444900591012,
        61.671837905515616,
        61.662502788439028,
        61.556151173611894,
        61.610388520688801,
        61.60980154382154,
        61.770241548956378,
        61.757869028527949,
        61.71730819876128,
        61.564584537088123,
        61.809956615218248,
        61.002124263377759,
        62.261394895549849,
        61.756040886206037,
        61.338677349472668,
        61.369921827038958,
        61.820187025947774,
        61.706253740755358,
        61.676303800855443,
        61.254150300946584,
        61.366421271612971,
        61.252553671266213,
        61.459532336325438,
        61.712551075821708,
        45.145937322184693,
        44.916921454596874,
        43.447070725950745,
        43.28421842247927,
        46.167362858205053,
        49.482879968592769,
        43.808538031650173,
        43.329054819114376,
        43.388116521584074,
        43.32454221116862,
        41.760932526442375,
        41.018030301976552,
        43.319428893124702,
        43.496290045729779,
        45.125679319315651,
        0.0,
        48.682376036134578,
        43.132412904143607,
        43.318645670213719,
        41.430833325969921,
        39.872154081380422,
        38.159130194062655,
        0.0,
        45.820126028269186,
        46.162959954503812,
        50.448806097484159,
        49.742082278819943,
        44.518778744985482,
        45.261958473718948,
        0.0,
        0.0,
        44.194628330662042,
        43.385015175171972,
        45.801237265384451,
        45.934090953877089,
        50.39088311099205,
        50.882402405652101,
        49.840404587186875,
        49.074480594614116,
        48.273100003051212,
        49.110366625223556,
        49.909003901280514,
        51.681183068337418,
        50.275493548730196,
        47.330171321635675,
        45.670103114615031,
        46.019755534626938,
        46.36248773689082,
        46.870827464239497,
        46.753855263336135,
        47.015617658482959,
        46.187276042287579,
        46.952243715373349,
        46.871089365916532,
        46.767662621820151,
        46.663620707501082,
        58.540201312102411,
        58.37137221618125,
        58.425981423975102,
        58.511576055931968,
        58.75351883439258,
        58.99212269326803,
        58.877730300590137,
        58.525275578117579,
        58.798773944950284,
        58.391258410196571,
        58.380558188736032,
        58.167605240678633,
        61.553985903670032,
        61.255525167932177,
        61.159282901669584,
        61.229660626970116,
        61.21634965058189,
        61.203252572242945,
        61.190032466008169,
        61.176802318700851,
        61.163558217140292,
        61.150303975961428,
        61.234770475548892,
        61.318824964316235,
        61.22847558878177,
        60.369508213216122,
        59.874588430280397,
        62.42937668780462,
        62.250001666168728,
        61.820532399101722,
        61.526506037619932,
        61.15309465807244,
        60.981733135965769,
        61.045608528216313,
        61.231082615034808,
        61.277673113358773,
        61.381187512401539,
        61.4557546840215,
        61.673282669811115,
        61.742571683468135,
        61.755236162595715,
        61.833040115615859,
        61.794674344493245,
        61.812932180509492,
        61.844438724408818,
        61.851420896357816,
        61.8505843213376,
        61.840215737262895,
        61.84313708761681,
        61.858035663759232,
        61.867956731757843,
        61.876480545799474,
        61.837766094499948,
        61.816949070716156,
        61.812115615254534,
        61.823258984857468,
        61.839941562062215,
        61.838354437873726,
        61.834342511746492,
        61.84244902051374,
        61.855033361153268,
        61.857351814417214,
        61.859669897805006,
        61.873736972833491,
        61.887792626994155,
        61.908629589523358,
        61.933362805305748,
        61.893137269497345,
        61.831570464663713,
        61.796267207831988,
        61.780032669249209,
        61.756066416241126,
        61.660389317392372,
        61.684825399131995,
        61.672270602480168,
        61.698313911309938,
        61.72431804159676,
        61.728476210718618,
        61.744556505609935,
        61.795555442356722,
        61.828997843607468,
        61.862377610526103,
        61.886333076236298,
        61.854850140055575,
        61.81108069962918,
        61.772263282650762,
        61.752535380477539,
        61.75456647775755,
        61.759266520251536,
        61.748087314637246,
        61.753385796169269,
        61.826980938565391,
        61.88296799189483,
        61.905444293355878,
        61.878181907906871,
        61.850876523646413,
        61.813246829735149,
        61.800408133746458,
        61.80637837007361,
        61.785481706415112,
        61.761995419771061,
        61.793090343480308,
        61.867008557096739,
        61.940616113154604,
        61.985060892945647,
        62.043790081741882,
        62.095142066215359,
        61.975925547901838,
        62.032121592381493,
        61.506912396706987,
        61.279586273533965,
        61.569694160460628,
        61.46426675686061,
        62.119871321714029,
        62.272438883308013,
        61.600801091640541,
        62.303393115769566,
        46.163808751601593,
        49.525239473406899,
        49.663313637320982,
        50.124567826295944,
        45.392398768559914,
        49.413058916795961,
        44.60430122863449,
        45.88408837349899,
        45.432428558353735,
        45.499065265030531,
        45.421648564369605,
        45.274145685994569,
        43.144417127071122,
        42.538611102646144,
        38.135017440339027,
        37.517103236697643,
        38.055816691496098,
        45.748125780883669,
        45.171165993861294,
        44.019836378780184,
        42.786448545233867,
        44.15867599543062,
        45.080323782923045,
        43.298318394103376,
        43.400127958332057,
        43.190191271479812,
        43.461908774064185,
        50.021214347827637,
        49.851983446393206,
        49.926769539416256,
        0.0,
        36.179274190725579,
        37.428148123598419,
        46.962773380268409,
        48.143808440008875,
        46.936792046639496,
        45.639277944660833,
        46.405756509292267,
        43.124570623727486,
        42.331528855855538,
        41.500414201121842,
        41.758091879827845,
        42.488494251848543,
        41.737904516505026,
        43.222054419251961,
        49.986153782607772,
        50.510154164067849,
        43.243415009709466,
        45.342604548450645,
        45.476321996611333,
        46.493314755440331,
        46.153198298741444,
        45.707073986979253,
        45.642978372095683,
        43.484461978218334,
        43.212248913278152,
        43.242447345455972,
        43.309816179210898,
        43.376921278536535,
        43.443763140428146,
        43.336766920033021,
        43.335039131337339,
        43.333812317472486,
        44.012861418078757,
        0.0,
        50.461607486640176,
        49.573600086355569,
        50.789299044657156,
        44.048893057912224,
        49.541136302754509,
        38.738399586532296,
        43.984254690292246,
        42.536316042509917,
        43.748483308330776,
        43.466199485577611,
        43.448167318528434,
        43.430113765115891,
        43.238050280725517,
        44.509305578410384,
        43.46418548771414,
        43.119581229855854,
        0.0,
        0.0,
        0.0,
        0.0,
        0.0,
        0.0,
        0.0,
        0.0,
        0.0,
        0.0,
        0.0,
        0.0,
        0.0,
        0.0,
        0.0,
        0.0,
        0.0,
        0.0,
        0.0,
        0.0,
        0.0,
        0.0,
        0.0,
        0.0,
        0.0,
        0.0,
        0.0,
        0.0,
        0.0,
        0.0,
        0.0
    ],
    "time": [
        0.02,
        0.040000000000000001,
        0.059999999999999998,
        0.080000000000000002,
        0.10000000000000001,
        0.12,
        0.14000000000000001,
        0.16,
        0.17999999999999999,
        0.20000000000000001,
        0.22,
        0.23999999999999999,
        0.26000000000000001,
        0.28000000000000003,
        0.29999999999999999,
        0.32000000000000001,
        0.34000000000000002,
        0.35999999999999999,
        0.38,
        0.40000000000000002,
        0.41999999999999998,
        0.44,
        0.46000000000000002,
        0.47999999999999998,
        0.5,
        0.52000000000000002,
        0.54000000000000004,
        0.56000000000000005,
        0.57999999999999996,
        0.59999999999999998,
        0.62,
        0.64000000000000001,
        0.66000000000000003,
        0.68000000000000005,
        0.69999999999999996,
        0.71999999999999997,
        0.73999999999999999,
        0.76000000000000001,
        0.78000000000000003,
        0.80000000000000004,
        0.81999999999999995,
        0.83999999999999997,
        0.85999999999999999,
        0.88,
        0.90000000000000002,
        0.92000000000000004,
        0.93999999999999995,
        0.95999999999999996,
        0.97999999999999998,
        1.0,
        1.02,
        1.04,
        1.0600000000000001,
        1.0800000000000001,
        1.1000000000000001,
        1.1200000000000001,
        1.1399999999999999,
        1.1599999999999999,
        1.1799999999999999,
        1.2,
        1.22,
        1.24,
        1.26,
        1.28,
        1.3,
        1.3200000000000001,
        1.3400000000000001,
        1.3600000000000001,
        1.3799999999999999,
        1.3999999999999999,
        1.4199999999999999,
        1.4399999999999999,
        1.46,
        1.48,
        1.5,
        1.52,
        1.54,
        1.5600000000000001,
        1.5800000000000001,
        1.6000000000000001,
        1.6200000000000001,
        1.6399999999999999,
        1.6599999999999999,
        1.6799999999999999,
        1.7,
        1.72,
        1.74,
        1.76,
        1.78,
        1.8,
        1.8200000000000001,
        1.8400000000000001,
        1.8600000000000001,
        1.8799999999999999,
        1.8999999999999999,
        1.9199999999999999,
        1.9399999999999999,
        1.96,
        1.98,
        2.0,
        2.02,
        2.04,
        2.0600000000000001,
        2.0800000000000001,
        2.1000000000000001,
        2.1200000000000001,
        2.1400000000000001,
        2.1600000000000001,
        2.1800000000000002,
        2.2000000000000002,
        2.2200000000000002,
        2.2400000000000002,
        2.2599999999999998,
        2.2799999999999998,
        2.2999999999999998,
        2.3199999999999998,
        2.3399999999999999,
        2.3599999999999999,
        2.3799999999999999,
        2.3999999999999999,
        2.4199999999999999,
        2.4399999999999999,
        2.46,
        2.48,
        2.5,
        2.52,
        2.54,
        2.5600000000000001,
        2.5800000000000001,
        2.6000000000000001,
        2.6200000000000001,
        2.6400000000000001,
        2.6600000000000001,
        2.6800000000000002,
        2.7000000000000002,
        2.7200000000000002,
        2.7400000000000002,
        2.7599999999999998,
        2.7799999999999998,
        2.7999999999999998,
        2.8199999999999998,
        2.8399999999999999,
        2.8599999999999999,
        2.8799999999999999,
        2.8999999999999999,
        2.9199999999999999,
        2.9399999999999999,
        2.96,
        2.98,
        3.0,
        3.02,
        3.04,
        3.0600000000000001,
        3.0800000000000001,
        3.1000000000000001,
        3.1200000000000001,
        3.1400000000000001,
        3.1600000000000001,
        3.1800000000000002,
        3.2000000000000002,
        3.2200000000000002,
        3.2400000000000002,
        3.2599999999999998,
        3.2799999999999998,
        3.2999999999999998,
        3.3199999999999998,
        3.3399999999999999,
        3.3599999999999999,
        3.3799999999999999,
        3.3999999999999999,
        3.4199999999999999,
        3.4399999999999999,
        3.46,
        3.48,
        3.5,
        3.52,
        3.54,
        3.5600000000000001,
        3.5800000000000001,
        3.6000000000000001,
        3.6200000000000001,
        3.6400000000000001,
        3.6600000000000001,
        3.6800000000000002,
        3.7000000000000002,
        3.7200000000000002,
        3.7400000000000002,
        3.7599999999999998,
        3.7799999999999998,
        3.7999999999999998,
        3.8199999999999998,
        3.8399999999999999,
        3.8599999999999999,
        3.8799999999999999,
        3.8999999999999999,
        3.9199999999999999,
        3.9399999999999999,
        3.96,
        3.98,
        4.0,
        4.0199999999999996,
        4.04,
        4.0599999999999996,
        4.0800000000000001,
        4.0999999999999996,
        4.1200000000000001,
        4.1399999999999997,
        4.1600000000000001,
        4.1799999999999997,
        4.2000000000000002,
        4.2199999999999998,
        4.2400000000000002,
        4.2599999999999998,
        4.2800000000000002,
        4.2999999999999998,
        4.3200000000000003,
        4.3399999999999999,
        4.3600000000000003,
        4.3799999999999999,
        4.4000000000000004,
        4.4199999999999999,
        4.4400000000000004,
        4.46,
        4.4800000000000004,
        4.5,
        4.5199999999999996,
        4.54,
        4.5599999999999996,
        4.5800000000000001,
        4.5999999999999996,
        4.6200000000000001,
        4.6399999999999997,
        4.6600000000000001,
        4.6799999999999997,
        4.7000000000000002,
        4.7199999999999998,
        4.7400000000000002,
        4.7599999999999998,
        4.7800000000000002,
        4.7999999999999998,
        4.8200000000000003,
        4.8399999999999999,
        4.8600000000000003,
        4.8799999999999999,
        4.9000000000000004,
        4.9199999999999999,
        4.9400000000000004,
        4.96,
        4.9800000000000004,
        5.0,
        5.0199999999999996,
        5.04,
        5.0599999999999996,
        5.0800000000000001,
        5.0999999999999996,
        5.1200000000000001,
        5.1399999999999997,
        5.1600000000000001,
        5.1799999999999997,
        5.2000000000000002,
        5.2199999999999998,
        5.2400000000000002,
        5.2599999999999998,
        5.2800000000000002,
        5.2999999999999998,
        5.3200000000000003,
        5.3399999999999999,
        5.3600000000000003,
        5.3799999999999999,
        5.4000000000000004,
        5.4199999999999999,
        5.4400000000000004,
        5.46,
        5.4800000000000004,
        5.5,
        5.5199999999999996,
        5.54,
        5.5599999999999996,
        5.5800000000000001,
        5.5999999999999996,
        5.6200000000000001,
        5.6399999999999997,
        5.6600000000000001,
        5.6799999999999997,
        5.7000000000000002,
        5.7199999999999998,
        5.7400000000000002,
        5.7599999999999998,
        5.7800000000000002,
        5.7999999999999998,
        5.8200000000000003,
        5.8399999999999999,
        5.8600000000000003,
        5.8799999999999999,
        5.9000000000000004,
        5.9199999999999999,
        5.9400000000000004,
        5.96,
        5.9800000000000004,
        6.0,
        6.0199999999999996,
        6.04,
        6.0599999999999996,
        6.0800000000000001,
        6.0999999999999996,
        6.1200000000000001,
        6.1399999999999997,
        6.1600000000000001,
        6.1799999999999997,
        6.2000000000000002,
        6.2199999999999998,
        6.2400000000000002,
        6.2599999999999998,
        6.2800000000000002,
        6.2999999999999998,
        6.3200000000000003,
        6.3399999999999999,
        6.3600000000000003,
        6.3799999999999999,
        6.4000000000000004,
        6.4199999999999999,
        6.4400000000000004,
        6.46,
        6.4800000000000004,
        6.5,
        6.5199999999999996,
        6.54,
        6.5599999999999996,
        6.5800000000000001,
        6.5999999999999996,
        6.6200000000000001,
        6.6399999999999997,
        6.6600000000000001,
        6.6799999999999997,
        6.7000000000000002,
        6.7199999999999998,
        6.7400000000000002,
        6.7599999999999998,
        6.7800000000000002,
        6.7999999999999998,
        6.8200000000000003,
        6.8399999999999999,
        6.8600000000000003,
        6.8799999999999999,
        6.9000000000000004,
        6.9199999999999999,
        6.9400000000000004,
        6.96,
        6.9800000000000004,
        7.0,
        7.0199999999999996,
        7.04,
        7.0599999999999996,
        7.0800000000000001,
        7.0999999999999996,
        7.1200000000000001,
        7.1399999999999997,
        7.1600000000000001,
        7.1799999999999997,
        7.2000000000000002,
        7.2199999999999998,
        7.2400000000000002,
        7.2599999999999998,
        7.2800000000000002,
        7.2999999999999998,
        7.3200000000000003,
        7.3399999999999999,
        7.3600000000000003,
        7.3799999999999999,
        7.4000000000000004,
        7.4199999999999999,
        7.4400000000000004,
        7.46,
        7.4800000000000004,
        7.5,
        7.5199999999999996,
        7.54,
        7.5599999999999996,
        7.5800000000000001,
        7.5999999999999996,
        7.6200000000000001,
        7.6399999999999997,
        7.6600000000000001,
        7.6799999999999997,
        7.7000000000000002,
        7.7199999999999998,
        7.7400000000000002,
        7.7599999999999998,
        7.7800000000000002,
        7.7999999999999998,
        7.8200000000000003,
        7.8399999999999999,
        7.8600000000000003,
        7.8799999999999999,
        7.9000000000000004,
        7.9199999999999999,
        7.9400000000000004
    ]
}