{
    "DU": 64,
    "DV": 319,
    "F-measure": 0.8794520547945205,
    "F-measure Chroma": 0.9424657534246574,
    "FN": 6,
    "FNC": 3,
    "FNCch": 4,
    "FNI": 3,
    "FNIch": 2,
    "FP": 30,
    "GU": 88,
    "GV": 295,
    "Overall Accuracy": 0.8381201044386423,
    "Overall Chroma Accuracy": 0.8981723237597912,
    "Precision": 0.8514588859416445,
    "Precision Chroma": 0.9124668435013262,
    "Raw Chroma Accuracy": 0.9830508474576272,
    "Raw Pitch Accuracy": 0.9016949152542373,
    "Recall": 0.9093484419263456,
    "Recall Chroma": 0.9745042492917847,
    "TN": 58,
    "TO": 383,
    "TP": 289,
    "TPC": 263,
    "TPCch": 286,
    "TPI": 26,
    "TPIch": 3,
    "Voiced Chroma Accuracy": 0.9694915254237289,
    "Voiced Pitch Accuracy": 0.8915254237288136,
    "Voicing Accuracy": 0.9060052219321149,
    "Voicing Detection": 0.9796610169491525,
    "Voicing False Alarm": 0.3409090909090909
}