{
	"f0": [NaN,52.9777092,69.61219605,69.17640277,73.10600962,48.67187262,48.4592199,48.20792179,48.27652534,48.39559001,48.39153948,48.42769481,48.44132249,48.55701979,48.62137826,47.21309485,46.35593634,46.18874742,46.00235729,45.85133817,45.72326129,45.85844663,46.11046989,46.50027019,47.1714521,48.42275033,48.64308074,48.7233986,48.75763115,48.77317275,48.74884634,48.72958425,48.68865247,48.62261469,48.62184441,48.51944755,47.76273913,46.38662984,46.12565866,46.03929731,45.91845196,45.81197059,45.78412328,45.64940134,45.48178463,46.11963436,45.18402325,46.26328645,51.68764894,50.31654732,50.11853079,49.8981395,49.65368138,49.40493922,49.31712492,49.32551397,49.37089267,49.43634648,49.43780018,49.33919643,49.18471724,49.1655294,49.10411292,49.46733535,46.81201884,46.12603126,45.61865922,45.49957842,45.3977917,45.34923142,45.50562486,45.7262899,45.69451981,45.49238706,45.53847862,44.57594378,46.26433679,45.81539238,45.80913834,58.37451101,41.8725178,41.7218129,41.70321059,41.94503392,42.10535405,42.00666678,41.60574152,41.60941096,41.90757164,41.89624692,48.83806875,48.68778891,48.69714694,49.04607478,49.59110553,49.7062014,50.15444483,50.2622745,50.4070771,51.64478022,52.37482755,51.85540709,53.62145992,53.78928577,53.49821478,53.15274548,53.0574134,52.93376384,52.72337196,52.65192324,52.70803487,52.86262923,52.95299271,53.00304622,53.26628524,53.19703446,53.07139149,53.10859053,53.07833996,53.01018221,52.5824286,52.36120817,52.81298173,52.98862567,53.1353512,53.14085834,52.91358892,52.57193608,52.63928668,52.55802863,52.74318912,52.74752823,48.75365802,46.90978161,47.96566473,48.9062095,48.82345464,48.71977448,48.63397264,48.49182063,48.51909718,48.5940672,48.66981968,48.70685771,48.74450952,48.76167021,48.7352154,48.64834084,48.58607231,48.62896772,48.57613384,48.62137826,48.42693727,44.82811722,44.91555609,45.18819658,45.29791108,45.38479847,45.51215074,45.61538779,45.57972901,45.55630285,45.49138183,45.36616535,45.22616894,45.22605471,45.86966214,46.25330348,45.93104733,45.81041132,45.8212895,45.73761582,45.71628081,45.7596802,45.70369089,45.6152109,45.5341317,45.33152089,45.13679486,45.00065436,44.8748451,44.68967784,44.60268152,44.46069248,44.26914413,44.17534553,44.18287048,44.28291084,44.78769717,45.17725371,45.64412949,46.1636183,46.26799027,46.21450345,45.99885239,45.91163065,45.89894549,45.86182392,45.8372748,45.89011877,45.91762625,45.90586244,45.9138048,45.98368706,46.04302754,46.10256789,46.16321219,46.21203446,46.32022929,46.57783794,46.86944641,46.8207523,46.66212214,46.60581962,46.55178172,46.47373662,46.32439292,46.05908658,45.6732514,45.29592742,44.65615495,44.04657246,43.78223154,43.79501284,43.99504447,44.04663635,43.93762932,43.91951518,43.97029351,43.96278076,43.95843278,44.00516456,44.09147544,44.2195623,44.34729738,44.39937469,44.39372277,44.28001951,44.15450051,44.14992757,44.23625369,44.31131567,44.39992283,44.37973454,44.25454051,44.23000488,44.25977956,44.32701075,44.40153203,44.45476403,44.47494799,44.44155254,44.45481366,44.49951629,44.50931371,44.509124,44.48965467,44.42661842,44.35408941,44.30903972,44.29748942,44.31422457,44.35857394,44.39560867,44.41944688,44.42094088,44.38013981,44.40302346,44.4085067,44.37430799,44.39357526,44.39148898,44.35322363,44.32061297,44.30947511,44.33565449,44.34220335,44.29415441,44.26134307,44.19545806,44.12959008,44.21771535,44.4003795,44.44713517,44.50855411,44.3683727,44.24175093,44.27322981,44.32363524,44.42221892,44.45823651,44.48233115,44.51913502,44.50493615,44.5139092,44.67824327,44.88067856,44.99692873,44.99595214,44.83627103,44.46727057,35.34887861,45.78580198,44.64393057,43.08350646,43.18035765,36.39251321,50.3352412,50.40487793,55.05080929,74.40013646,74.45331794,74.58756582,55.08195568,54.91034673,53.45561069,53.50480554,53.50429368,52.93035138,42.083807,42.0979178,41.59553087,41.60651195,41.68644326,53.472039,53.6708985,41.69991543,41.68326475,42.08031245,41.95757379,41.50105197,41.52051133,35.34887861,35.34887861,41.74916821,67.34995772,50.89125136,35.34887861,76.93035138,76.93035138,76.93035138,76.93035138,76.93035138,76.93035138,76.93035138,76.93035138,76.93035138,76.93035138,76.93035138,76.93035138,76.93035138,76.93035138,NaN,NaN],
	"ap0": [NaN,0.9913709965,0.5742911212,0.6052846285,1.081651411,0.1402780807,0.07062314805,0.05516228178,0.03609943684,0.02755979326,0.02647580898,0.01298394146,0.01783824656,0.05964639463,0.111815138,0.2307846104,0.09969197899,0.03798076613,0.01545287372,0.03073158302,0.03621096379,0.02318365542,0.03032479809,0.03623941644,0.1008616204,0.09257734561,0.05749308212,0.02659489868,0.006672707544,0.001024952429,0.0009206746645,0.0006261583171,0.001133575271,0.01038013572,0.02768932804,0.06780935483,0.1318080924,0.1084804251,0.03161429477,0.01608174941,0.01292881307,0.01366984791,0.02406307798,0.06138116801,0.1523977636,0.3555020532,0.5345854765,0.5967328129,0.7123732749,0.1373926098,0.0412359405,0.01498223343,0.0109030519,0.004966514249,0.003103426091,0.002568042099,0.0012150405,0.001124162695,0.003325842219,0.006569206088,0.005101419028,0.003774418037,0.06922524436,0.3349041948,0.5838476566,0.314552056,0.1552435938,0.1174799829,0.08843272411,0.07185608007,0.03555981888,0.02246974599,0.03903771392,0.04074510494,0.08779731526,0.179058699,0.2678944152,0.4420253258,0.5976803129,0.676453084,0.4112692988,0.1514566539,0.05640563612,0.04495435602,0.05221545488,0.1449772142,0.1723607124,0.1354704625,0.2806082247,0.4083211616,0.5770936478,0.1546636549,0.04691472576,0.1029792862,0.06509383163,0.0802291,0.1840980917,0.1334471843,0.1598968251,0.2080902372,0.1160808246,0.1146934395,0.1470136251,0.04603809028,0.04112503733,0.01748497681,0.007933280175,0.01970516099,0.03925269373,0.04133247661,0.0336303729,0.02532490104,0.01737688831,0.02221845529,0.01971146074,0.02120211865,0.01880563352,0.01729455767,0.02000436647,0.04409108391,0.1301474505,0.04431437764,0.02499700094,0.03231496793,0.01833916575,0.02290045722,0.02612008562,0.02767738532,0.06901200594,0.1190525634,0.07988684203,0.0768093907,0.6420373795,0.1337696213,0.1730596375,0.0927561573,0.05393802341,0.03867738766,0.0358799277,0.02168989038,0.00463776826,0.006175611998,0.004384315943,0.002439621271,0.001523656618,0.001351943605,0.002355677981,0.005941316453,0.02269293365,0.06137447799,0.1017041192,0.2091437971,0.4645346418,0.3370210296,0.2688104038,0.1055611484,0.03521642561,0.03873658216,0.0511859114,0.05203759778,0.02236042454,0.01175291966,0.01414088295,0.02560105813,0.03516571305,0.03169522963,0.1237296036,0.09462970134,0.06917423138,0.01901183883,0.009330119059,0.005534240958,0.004704526161,0.003025306959,0.005218267145,0.007217266071,0.03005426917,0.03612049776,0.0132472773,0.01264889739,0.02202319952,0.03757207551,0.02970997213,0.0215333448,0.03145572964,0.02198455833,0.00717866076,0.02568164519,0.03703737831,0.02779074423,0.03249647582,0.01656986349,0.01273154249,0.01321833488,0.006235025628,0.002806496007,0.002270733964,0.002316638004,0.002346477669,0.002941471299,0.002409230707,0.00250970447,0.002541607075,0.003355365529,0.003773576995,0.004656706628,0.003394375093,0.006183092849,0.01098205264,0.0145537964,0.01254142598,0.0131959705,0.0126182868,0.01430263933,0.01788585843,0.01470395254,0.01395551188,0.01824022791,0.03301331267,0.06130211109,0.09467627479,0.04107807503,0.03619348785,0.03707515638,0.03618309081,0.01746204793,0.01069380818,0.008680283108,0.004297380181,0.002885574535,0.002838028248,0.002732362389,0.003195578078,0.007531465981,0.009439375042,0.005664496132,0.0057926772,0.01155537737,0.01132579729,0.00943057539,0.01433480916,0.01424220709,0.008080672102,0.004312062875,0.006522646756,0.007947659628,0.00858587887,0.01045049994,0.006073267033,0.003338113092,0.003147641374,0.003584138737,0.002551529239,0.001786422183,0.002520951443,0.002403523952,0.003132662901,0.004369080098,0.00299139788,0.002737669874,0.002510896959,0.002549115788,0.002920522036,0.002382902515,0.002475268917,0.002735496307,0.002588110105,0.002607125963,0.00414438559,0.004459746678,0.00359201185,0.002977497175,0.003310277275,0.003948858708,0.004192014566,0.003592496035,0.004125855755,0.006956674825,0.01209341665,0.01111706739,0.01077603927,0.0163460165,0.01290095644,0.0139685536,0.01170155031,0.0113715928,0.01115091857,0.009981007374,0.006855410204,0.005961899594,0.005466826154,0.006359955853,0.007993597729,0.007850856362,0.006033554676,0.007012105366,0.007447328437,0.01885835454,0.03591105477,0.06475144794,0.2834914859,0.8118581933,0.5803337908,0.6134250857,0.6445333167,0.6039999115,0.7138780701,0.6258964082,0.73428216,0.7978336768,0.7536876476,0.5787169444,0.7703892914,0.6953300502,0.6830050746,0.5401137501,0.3840400307,0.4176877069,0.4504370131,0.4122500704,0.3244647627,0.2386120082,0.2076952121,0.2502103346,0.2534909905,0.4307000117,0.4828109695,0.5335006494,0.5233300018,0.5172050704,0.6137697845,0.7216336814,0.6078196685,0.8845622214,1.925034478,1.019607843,0.7553788587,1.002973241,1,1,1,1,1,1,1,1,1,1,1,1,1,1,NaN,NaN],
	"ap": [NaN,0.4477365019,0.8876344556,0.4413243153,0.3396898238,0.2401410238,0.2382432795,0.03873648598,0.01667896658,0.01705285416,0.006213360618,0.02229185831,0.001228961719,0.007074280983,0.03150062186,0.1288828766,0.08758078304,0.1229007214,0.01784211008,0.008464149963,0.01233673638,0.01989823738,0.01533672385,0.02245869581,0.05421032829,0.1663552408,0.06590193647,0.03815953516,0.0291717246,0.002635901067,0.0003008957038,0.0002716018045,0.0004490849628,0.00136369638,0.002410013892,0.01689869834,0.04102796777,0.1468404639,0.02363419209,0.03404870525,0.009181936442,0.004857476984,0.01182490217,0.01565266661,0.04084425738,0.06325860854,0.2584319264,0.2358636146,0.4486537121,0.5655313761,0.2444651428,0.02738404316,0.01236298564,0.006749825959,0.001263039506,0.001805838363,0.0008337818764,0.001349107315,0.0003816952328,0.001333141958,0.005670877416,0.002878376873,0.002097962438,0.003020199669,0.3588933271,0.3511059339,0.2018586006,0.08389445655,0.03656915002,0.02394682488,0.09279179267,0.008555675954,0.01732159324,0.003684562259,0.008351795441,0.1084977498,0.1045740123,0.1815747659,0.1990975358,0.2583143879,0.6244690349,0.4664531471,0.05531636677,0.06546946952,0.009460266868,0.02253485701,0.1549552192,0.06773671017,0.07692000781,0.1698063988,0.6415113015,0.5519151042,0.1323549979,0.04639829888,0.05717168498,0.0147192303,0.0322333587,0.5238916011,0.01176704159,0.4507140697,0.05221894443,0.09810856282,0.1906418448,0.07335052144,0.02287469761,0.02639434276,0.01044772007,0.006385892105,0.01135793748,0.01739598495,0.0323093701,0.02726769599,0.01243557041,0.003392392429,0.0254941889,0.006051472973,0.02332774231,0.007156731728,0.004041893626,0.02078078377,0.0476086366,0.02707936411,0.01188105951,0.01199463538,0.02714178084,0.01090323659,0.01228830603,0.02260524509,0.01770026909,0.02355506538,0.1808224276,0.02078330412,0.3477020009,0.8195811304,0.09330229539,0.2876263308,0.07345659071,0.02198744466,0.01758759066,0.02991118053,0.004687957014,0.00318653972,0.005349158589,0.003925811126,0.0006871483314,0.0005374351066,0.0008614588413,0.001069052558,0.002098337344,0.009009943491,0.0461490486,0.04070479228,0.1157970982,0.2775455233,0.2722642386,0.181474802,0.02045893748,0.02221697988,0.04419136755,0.0345094126,0.01163951594,0.006014812123,0.006534920616,0.01401062826,0.02077800559,0.006442272036,0.04638838329,0.0919054798,0.09177308272,0.03448947802,0.01050578428,0.004168299617,0.00263920308,0.002725827215,0.002013541289,0.002190460316,0.004175915911,0.02331899062,0.008172948993,0.006926768278,0.009287735553,0.01406101847,0.05642321425,0.004464618243,0.02274028118,0.01711102724,0.005884440309,0.002452887051,0.02468410645,0.04092980744,0.0146577604,0.03180704165,0.009021728436,0.009812232065,0.01053845606,0.003569824931,0.001485911886,0.001104408242,0.0005544429015,0.00297214179,0.000805897442,0.0004282319939,0.0009964878186,0.00213530925,0.003817577325,0.002570107812,0.001482630963,0.0009117688495,0.002101330413,0.009129743532,0.008496442078,0.006065723042,0.01114453645,0.006610198173,0.01100927366,0.009929959722,0.009927130589,0.007724746757,0.01534949021,0.03493375535,0.03828442807,0.0375926305,0.01498981631,0.01215358262,0.01469114748,0.02301690224,0.003079741245,0.009887926118,0.0047131178,0.0009877088148,0.002220068975,0.001531369085,0.00117073836,0.002208393648,0.005278689042,0.004187386887,0.002546349452,0.00458517712,0.004717558177,0.005727185238,0.001936636719,0.01202068445,0.002234536744,0.002893504534,0.003069583579,0.01015500459,0.001467323011,0.001415650912,0.008321770149,0.00450796859,0.0006871451612,0.001812683383,0.00259024796,0.0007842875402,0.001045848535,0.002507470272,0.0009776870876,0.0009244955986,0.001430378774,0.001004518679,0.001562905446,0.000691732786,0.0004620858126,0.002172085484,0.0008452264807,0.0007044222091,0.001157863145,0.001954084602,0.001317618039,0.00129427248,0.002504840889,0.001630127741,0.001502092514,0.002763977249,0.002427324236,0.001977821519,0.002204056402,0.002139273669,0.003933743915,0.007503139834,0.003296144207,0.002593120066,0.01594768672,0.006295887427,0.01417462748,0.001640045864,0.005979570581,0.003006054181,0.004717057126,0.00119122321,0.001581117907,0.003987254748,0.002366947609,0.006007866211,0.001689820076,0.002813206252,0.004715190804,0.00544488584,0.006809403123,0.01850910872,0.04314561067,0.4211170074,0.4173916167,0.1139691156,0.1788026323,0.2670860427,0.3308424936,0.3045010958,0.3120323869,0.3555441125,0.3370666022,0.1130128476,0.1420666918,0.3149354185,0.4173282325,0.4211419183,0.3377941843,0.1593086253,0.2372427232,0.2856135527,0.119089678,0.2143713454,0.1001016993,0.1255733357,0.1959336184,0.08841370416,0.1954494227,0.3498431648,0.3045203346,0.278377692,0.2040470428,0.4059248929,0.5000007714,0.3083338918,0.5000004598,1,1,0.500060551,1,1,1,1,1,1,1,1,1,1,1,1,1,1,NaN,NaN],
	"pwr": [NaN,3.863637873e-08,7.142814464e-08,3.211441879e-08,0.0002477671637,0.0001220992334,0.0006456167391,0.00584888068,0.003494323726,0.003357650563,0.003185458908,0.003230127173,0.003956281673,0.003868841832,0.001958567891,0.0009853806282,0.001672717523,0.0004979800862,0.003061971849,0.003903028076,0.004037227494,0.002092489406,0.001929962855,0.000880441713,0.0006215208539,0.0003832082705,0.000452403508,0.001798689639,0.003993856634,0.01026629806,0.01347988162,0.0145242441,0.01439388491,0.01284104497,0.01128661392,0.006343114403,0.003219732219,0.002380426709,0.00230804561,0.001784238404,0.00459389736,0.00455314336,0.003180572325,0.003236857121,0.00101925144,0.0003278593391,0.0002262309486,0.0002571697152,0.0002033311514,0.0001398452995,0.001462701988,0.01025989936,0.02107049415,0.02421604557,0.01865523973,0.02001413564,0.02685879677,0.03100309648,0.03195773746,0.03270567797,0.02432971822,0.01809531125,0.01310789607,0.008168397833,0.005001920074,0.005037702741,0.007618972637,0.003752001286,0.004447017129,0.004317570232,0.003107401425,0.002978689004,0.003039804071,0.003028288064,0.001543998532,0.0008804472896,0.0001953420441,9.828679765e-05,9.601241147e-05,5.035015288e-05,1.63185806e-05,4.23001667e-05,0.0005889758906,0.001121182608,0.001720410594,0.001821354882,0.0005491843578,0.0001875393312,0.0002174986631,0.0001467366731,0.0002305624779,0.0001676990564,0.01349230609,0.03352148908,0.02832169206,0.04245560838,0.041616941,0.001964917267,0.01429687458,0.003606927027,0.006818567389,0.001136619959,0.001305114867,0.0008019689324,0.01609026744,0.03710868048,0.03007525146,0.04060791188,0.03373713159,0.01954953727,0.01114698231,0.007901101927,0.01000114769,0.01169626616,0.009091802572,0.005955432521,0.005012215064,0.01488122878,0.006850329199,0.003640330375,0.001499137482,0.0002685001983,0.000265196583,0.0003661833162,0.0001317661696,8.999059544e-05,5.474444638e-05,2.860872562e-05,2.333389382e-05,4.121520992e-06,7.036254711e-07,2.27868682e-06,3.332452559e-06,1.640601465e-06,0.0001126772846,0.0008644057049,0.006481212376,0.05805117847,0.1541675137,0.1740116787,0.05679922652,0.06243342037,0.04744703293,0.03931088911,0.03456732505,0.0367297921,0.03979534053,0.04118619936,0.04222176928,0.0390210021,0.02269400011,0.0128981781,0.007178156574,0.003078583612,0.008417394033,0.03326676108,0.03043364114,0.03817478433,0.02472324911,0.01747134772,0.01191461121,0.01331832233,0.01308339325,0.01133763765,0.008611850018,0.003696652955,0.002020830268,0.001497882566,0.00303046895,0.01055970701,0.01405690368,0.01551518037,0.01455747514,0.01190740241,0.01117697969,0.009930054882,0.008204518545,0.00651869493,0.00355356717,0.003435207633,0.002877535651,0.002606703579,0.002176494104,0.004885955859,0.005099194259,0.003696615153,0.00324931963,0.002804977468,0.002269782701,0.003124215728,0.005672547785,0.005366913376,0.003405208009,0.002671797392,0.002118271721,0.003034208387,0.003545072675,0.00345455209,0.003115594138,0.003251775924,0.003097966455,0.003110466145,0.003331323984,0.003111237473,0.003071667521,0.003059254978,0.002689980492,0.002440236733,0.002148228289,0.001673533562,0.001311901412,0.001385835892,0.001637570568,0.001950347712,0.002726381836,0.003276483533,0.003061530736,0.002472371037,0.002315668462,0.00299964147,0.002998971446,0.001246798294,0.001459812125,0.001085204868,0.0008812367631,0.001363125627,0.002030893749,0.002442764742,0.002029227629,0.002148912626,0.002293317349,0.002053186395,0.002109546991,0.002229840365,0.002070075242,0.002156205421,0.002612568653,0.002741807098,0.002176325751,0.001885436093,0.001471946524,0.001196338752,0.001626272828,0.00203080006,0.002206605864,0.00189089934,0.001647249825,0.001411850946,0.001291632404,0.001481157453,0.001729625171,0.001864782443,0.002011423597,0.001921808993,0.002032859658,0.0020081386,0.002253456132,0.002258718176,0.001999027865,0.001666487508,0.001465165945,0.001311341312,0.001313637534,0.00131133213,0.001339792084,0.001418352503,0.001325408871,0.001279997785,0.001257195755,0.001285072545,0.001123720624,0.001157637963,0.001088538671,0.001166812908,0.0009641598638,0.0008905771374,0.0008414319871,0.0008775111811,0.0007370209141,0.0006391317167,0.0005333584968,0.00037398948,0.0002745724551,0.0003137146138,0.0004332435806,0.0004729231914,0.0004987785707,0.0003143315778,0.0002291088008,0.0002210709152,0.0002159449975,0.0001961329093,0.0001679159067,0.0001421732313,0.0001165167504,8.993142705e-05,0.0001017096898,9.211300978e-05,7.345398454e-05,3.300598931e-05,1.252803641e-05,3.063835169e-06,2.493042492e-07,1.167432561e-06,5.154150947e-07,8.284002595e-07,1.369036675e-06,1.301793272e-06,1.921198366e-06,1.500443757e-06,2.764307865e-06,2.096830699e-06,3.273425851e-06,6.613661576e-07,2.589184278e-07,3.399012907e-07,2.807036154e-07,3.462015086e-07,1.906300895e-07,2.125613365e-07,1.489016265e-07,3.934736294e-08,5.096118012e-08,1.520750511e-08,1.341676329e-08,5.653161611e-09,1.368541482e-09,9.505821293e-10,1.130514988e-09,3.719382254e-10,2.663101296e-10,1.553113502e-10,1.787479351e-11,5.408270857e-11,1.207270004e-10,0,0,0,0,0,0,0,0,0,0,0,0,0,0,0,0,0,NaN,NaN],
	"sr": 16000,
	"range": [1,113235],
	"minf0": 63.1883,
	"maxf0": 706.3069,
	"thresh": 0.1,
	"relflag": 1,
	"hop": 320,
	"bufsize": 10000,
	"wsize": 640,
	"lpf": 4000,
	"shift": 0,
	"plotthreshold": 0.2
}
