{
    "DU": 147,
    "DV": 391,
    "F-measure": 0.8644400785854617,
    "F-measure Chroma": 0.8840864440078585,
    "FN": 16,
    "FNC": 4,
    "FNCch": 10,
    "FNI": 12,
    "FNIch": 6,
    "FP": 42,
    "GU": 173,
    "GV": 365,
    "Overall Accuracy": 0.8178438661710037,
    "Overall Chroma Accuracy": 0.8364312267657993,
    "Precision": 0.842911877394636,
    "Precision Chroma": 0.8620689655172413,
    "Raw Chroma Accuracy": 0.9013698630136986,
    "Raw Pitch Accuracy": 0.8575342465753425,
    "Recall": 0.8870967741935484,
    "Recall Chroma": 0.907258064516129,
    "TN": 131,
    "TO": 538,
    "TP": 349,
    "TPC": 309,
    "TPCch": 319,
    "TPI": 40,
    "TPIch": 30,
    "Voiced Chroma Accuracy": 0.873972602739726,
    "Voiced Pitch Accuracy": 0.8465753424657534,
    "Voicing Accuracy": 0.8921933085501859,
    "Voicing Detection": 0.9561643835616438,
    "Voicing False Alarm": 0.24277456647398843
}