{
    "f0": [
        44.77937779738928,
        45.122202797889933,
        43.880209941387434,
        45.067714619161393,
        45.415631083191798,
        45.756695596437439,
        45.74141208135039,
        48.696055302185243,
        49.774583767951682,
        50.043502999185677,
        49.317337190052555,
        48.385380286848388,
        49.320370612989947,
        49.216473878832396,
        49.681992617947984,
        44.334386151462994,
        42.860611089725381,
        49.976008491553358,
        61.901751859686023,
        58.552690488486512,
        44.515914275959332,
        54.168804961290704,
        54.611177851165046,
        47.881999024265738,
        47.659214343920063,
        47.49162361271474,
        47.463421135002285,
        47.364686685565637,
        47.397196236341614,
        47.531003730836218,
        47.554448383609781,
        47.492435599497909,
        47.348638685485874,
        47.417067871426411,
        47.525763952093044,
        47.63378278303572,
        47.567136186773794,
        47.400779845230673,
        47.510358976120997,
        47.494638729278499,
        47.297269542902193,
        47.374985273243922,
        47.407400321934816,
        47.586702137945323,
        47.691595405340543,
        49.352462395960472,
        54.008980537649471,
        36.735445223104271,
        37.863920822652567,
        57.900480882972793,
        58.647903721174508,
        59.536651635032271,
        60.126187614472769,
        60.792421387566094,
        61.213721588583681,
        61.70539548989963,
        61.734637541615513,
        61.462017534903758,
        61.185032055712931,
        61.131804351610384,
        61.078416346198146,
        61.076987483234923,
        61.12987478946588,
        61.182599168609642,
        61.235163464142282,
        61.242196439066895,
        61.168289275212246,
        60.860808503727242,
        60.262195449009468,
        61.30447925319514,
        60.958780806979163,
        59.569664138682839,
        59.477054054356053,
        59.530425879869071,
        59.526220496611046,
        59.522015111934451,
        59.16804997893307,
        59.158409817642926,
        58.266979765903301,
        57.435911178293111,
        56.678080597706199,
        56.834144342439004,
        57.313527436444964,
        57.794978794186335,
        58.256108608273408,
        58.398324028369352,
        58.342536261617795,
        58.286568141485148,
        58.275548601593322,
        58.414216046960654,
        58.160452684491801,
        57.509810012656551,
        57.718250323793114,
        58.469320285254298,
        58.580087266411041,
        58.69015325859975,
        58.730225916853044,
        58.630811977546273,
        58.530826028485961,
        58.430257089429418,
        58.480405696170848,
        58.480532482207131,
        58.413919438629762,
        58.277128064989753,
        58.346784751532269,
        58.34611043917063,
        58.497910790832208,
        58.407193477904755,
        58.36765454906822,
        58.328026278289485,
        58.460572010521688,
        58.393027826075048,
        58.325219158037513,
        58.257142609440876,
        58.361065965759153,
        58.464366892608282,
        58.288727262809033,
        58.111289643461944,
        58.153429762924986,
        58.195467557773391,
        58.180967217176729,
        58.239186535988992,
        58.380884142374235,
        58.414710624611985,
        58.448472300370305,
        58.431112733369758,
        58.483955932082402,
        58.502768738583434,
        58.462068439637683,
        58.480854319513853,
        58.507680358286926,
        58.507070638620789,
        58.506464143526905,
        58.432130829356488,
        58.357474793650084,
        58.282504338754308,
        57.679882311563006,
        56.624150013670068,
        55.499832445492295,
        55.306161871613149,
        55.649150472369342,
        55.844864753076529,
        57.167683164705515,
        57.514095411698726,
        57.942239463890196,
        58.142901859234783,
        58.142672537902577,
        58.082851512124464,
        57.878754541471118,
        58.133771079393426,
        58.214598582174133,
        58.254912576323449,
        58.238001642321557,
        58.286865770839469,
        58.338051021827454,
        58.347122480274997,
        58.377172950699673,
        58.432115398618173,
        58.474457556792871,
        59.201900122598431,
        59.224570585364333,
        59.026900347649843,
        58.852019024143694,
        58.883974442148691,
        58.743427834421212,
        58.990545127042694,
        58.98941904780402,
        59.088589862068901,
        58.679735441947756,
        58.546478332545078,
        58.61175279307605,
        57.905918479322459,
        57.974538355027157,
        58.022276438134469,
        58.30069850108702,
        58.287507840894087,
        58.212345086072858,
        58.118911637454012,
        58.074276971946503,
        57.979092653634709,
        57.94561186873014,
        58.125151969435443,
        58.168585108040205,
        58.199313135175039,
        58.236279980783216,
        58.273166962967203,
        58.238020617083151,
        58.154939504900206,
        58.116803311541759,
        58.164736082552622,
        58.232844058598261,
        58.300681857801848,
        58.315176914137581,
        58.333543563625454,
        58.341458409841628,
        58.354582501207929,
        58.367700068634235,
        58.553071417240737,
        58.477472092038639,
        58.469714112846347,
        58.600146896307223,
        58.729606538364465,
        58.858104217288556,
        58.27893147560367,
        58.240036072559946,
        58.094783377884255,
        57.113962022752823,
        57.366888903933976,
        57.513958978595213,
        55.909391757926571,
        55.494859835138122,
        53.682815873339408,
        52.794868124775448,
        54.437690274359966,
        53.557711564612731,
        54.116313730097694,
        54.727598963882912,
        44.377221820817752,
        47.801865321230252,
        57.62534522339439,
        57.844544977067663,
        58.061006298632257,
        58.274792335053803,
        58.136214713009345,
        58.222934906731574,
        58.189287275034758,
        58.155573015491974,
        58.173488098769482,
        58.221229712638944,
        58.220272988098785,
        58.243555524292454,
        58.402137005124516,
        58.492356417659735,
        58.441433784899012,
        58.500222169772577,
        58.535195642602545,
        58.382430703659978,
        58.113971838815246,
        57.899453822070747,
        57.478826296924794,
        57.727183771599115,
        57.972028642735729,
        59.364153575304329,
        59.597582596001075,
        59.456525024747506,
        59.121618260492795,
        58.704642701272327,
        58.488353926750783,
        58.335082120448313,
        58.358626075218936,
        58.397894239233722,
        58.550086423524291,
        58.700949061180296,
        58.850509536898812,
        58.998787903568598,
        59.145802818414914,
        59.04184284419172,
        58.961004406199095,
        58.879787858303118,
        58.970451851672813,
        58.766468869937071,
        58.861874443783883,
        58.338686753345684,
        58.275826390576029,
        56.950371493750765,
        57.056780420245943,
        57.157826859771433,
        57.432891208511116,
        57.497731661779234,
        57.627729707462194,
        57.636112639460052,
        57.743073298411289,
        57.729856954755164,
        57.752379046303943,
        57.898044763915671,
        57.993012375791224,
        58.047302714816816,
        58.07482772690679,
        58.080850424144202,
        57.999689319485952,
        57.872625721924422,
        57.862622417452869,
        57.878230724565071,
        57.931112285294304,
        58.308082818254498,
        58.861904619245976,
        58.781860889897082,
        58.665330913558087,
        58.548011251420874,
        58.255895272440192,
        58.219750382674839,
        58.372211947093874,
        58.352091769375193,
        58.337599775219417,
        58.492536033330083,
        58.576338503225536,
        58.694485060209551,
        58.811830798356354,
        58.77475728080671,
        58.711640262442799,
        58.616042968015989,
        58.362140342629608,
        58.356971884247251,
        58.351801882402896,
        58.346630336174428,
        57.991698302615738,
        58.320530303985528,
        41.700002095361135,
        42.337289679772667,
        54.566657226132619,
        55.352675798758547,
        55.5289417422943,
        55.816745197396514,
        56.387028738537992,
        56.939124262758234,
        57.256376338426108,
        57.501209350962455,
        57.80967067012233,
        57.952487804353275,
        57.999795832550504,
        57.949487270054767,
        57.899032013188808,
        57.848429279107961,
        57.787750891852447,
        57.460383177044463,
        57.263050099997464,
        56.106606473036187,
        55.899565017651639,
        56.019982444761908,
        56.182296315538281,
        56.317652321522516,
        56.129372430139433,
        56.001056722238125,
        56.01282959369081,
        56.096515334672077,
        55.97005142242746,
        55.750543335297706,
        55.400936502907037,
        55.620942413361867,
        55.726535415953194,
        56.059328962787546,
        52.098156595739489,
        51.80594310979069,
        52.860681070240119,
        53.491211224407024,
        53.748750879365105,
        53.826506409644878,
        53.903915686183886,
        53.806987987102659,
        53.470138851545371,
        53.421374692284516,
        53.750724105613507,
        54.073921795836426,
        54.16792398372332,
        54.532487755370227,
        54.515512815726126,
        54.328878288093222,
        54.339882985217827,
        54.389469355546069,
        54.419685597056414,
        54.109688674915716,
        54.034750854854714,
        54.181857748342949,
        54.116181826443807,
        52.877503631468485,
        52.698249683109303,
        51.943214273211275,
        50.568449730128087,
        49.396488743348542,
        47.079290846054633,
        43.065333170313075,
        36.415225777126302,
        54.042601266312495,
        0.0,
        0.0,
        0.0,
        0.0,
        0.0,
        0.0,
        0.0,
        0.0,
        0.0,
        0.0,
        0.0,
        0.0,
        0.0,
        0.0,
        0.0,
        0.0,
        0.0,
        0.0,
        0.0,
        0.0,
        0.0,
        0.0,
        0.0,
        0.0,
        0.0,
        0.0,
        0.0,
        0.0
    ],
    "time": [
        0.02,
        0.040000000000000001,
        0.059999999999999998,
        0.080000000000000002,
        0.10000000000000001,
        0.12,
        0.14000000000000001,
        0.16,
        0.17999999999999999,
        0.20000000000000001,
        0.22,
        0.23999999999999999,
        0.26000000000000001,
        0.28000000000000003,
        0.29999999999999999,
        0.32000000000000001,
        0.34000000000000002,
        0.35999999999999999,
        0.38,
        0.40000000000000002,
        0.41999999999999998,
        0.44,
        0.46000000000000002,
        0.47999999999999998,
        0.5,
        0.52000000000000002,
        0.54000000000000004,
        0.56000000000000005,
        0.57999999999999996,
        0.59999999999999998,
        0.62,
        0.64000000000000001,
        0.66000000000000003,
        0.68000000000000005,
        0.69999999999999996,
        0.71999999999999997,
        0.73999999999999999,
        0.76000000000000001,
        0.78000000000000003,
        0.80000000000000004,
        0.81999999999999995,
        0.83999999999999997,
        0.85999999999999999,
        0.88,
        0.90000000000000002,
        0.92000000000000004,
        0.93999999999999995,
        0.95999999999999996,
        0.97999999999999998,
        1.0,
        1.02,
        1.04,
        1.0600000000000001,
        1.0800000000000001,
        1.1000000000000001,
        1.1200000000000001,
        1.1399999999999999,
        1.1599999999999999,
        1.1799999999999999,
        1.2,
        1.22,
        1.24,
        1.26,
        1.28,
        1.3,
        1.3200000000000001,
        1.3400000000000001,
        1.3600000000000001,
        1.3799999999999999,
        1.3999999999999999,
        1.4199999999999999,
        1.4399999999999999,
        1.46,
        1.48,
        1.5,
        1.52,
        1.54,
        1.5600000000000001,
        1.5800000000000001,
        1.6000000000000001,
        1.6200000000000001,
        1.6399999999999999,
        1.6599999999999999,
        1.6799999999999999,
        1.7,
        1.72,
        1.74,
        1.76,
        1.78,
        1.8,
        1.8200000000000001,
        1.8400000000000001,
        1.8600000000000001,
        1.8799999999999999,
        1.8999999999999999,
        1.9199999999999999,
        1.9399999999999999,
        1.96,
        1.98,
        2.0,
        2.02,
        2.04,
        2.0600000000000001,
        2.0800000000000001,
        2.1000000000000001,
        2.1200000000000001,
        2.1400000000000001,
        2.1600000000000001,
        2.1800000000000002,
        2.2000000000000002,
        2.2200000000000002,
        2.2400000000000002,
        2.2599999999999998,
        2.2799999999999998,
        2.2999999999999998,
        2.3199999999999998,
        2.3399999999999999,
        2.3599999999999999,
        2.3799999999999999,
        2.3999999999999999,
        2.4199999999999999,
        2.4399999999999999,
        2.46,
        2.48,
        2.5,
        2.52,
        2.54,
        2.5600000000000001,
        2.5800000000000001,
        2.6000000000000001,
        2.6200000000000001,
        2.6400000000000001,
        2.6600000000000001,
        2.6800000000000002,
        2.7000000000000002,
        2.7200000000000002,
        2.7400000000000002,
        2.7599999999999998,
        2.7799999999999998,
        2.7999999999999998,
        2.8199999999999998,
        2.8399999999999999,
        2.8599999999999999,
        2.8799999999999999,
        2.8999999999999999,
        2.9199999999999999,
        2.9399999999999999,
        2.96,
        2.98,
        3.0,
        3.02,
        3.04,
        3.0600000000000001,
        3.0800000000000001,
        3.1000000000000001,
        3.1200000000000001,
        3.1400000000000001,
        3.1600000000000001,
        3.1800000000000002,
        3.2000000000000002,
        3.2200000000000002,
        3.2400000000000002,
        3.2599999999999998,
        3.2799999999999998,
        3.2999999999999998,
        3.3199999999999998,
        3.3399999999999999,
        3.3599999999999999,
        3.3799999999999999,
        3.3999999999999999,
        3.4199999999999999,
        3.4399999999999999,
        3.46,
        3.48,
        3.5,
        3.52,
        3.54,
        3.5600000000000001,
        3.5800000000000001,
        3.6000000000000001,
        3.6200000000000001,
        3.6400000000000001,
        3.6600000000000001,
        3.6800000000000002,
        3.7000000000000002,
        3.7200000000000002,
        3.7400000000000002,
        3.7599999999999998,
        3.7799999999999998,
        3.7999999999999998,
        3.8199999999999998,
        3.8399999999999999,
        3.8599999999999999,
        3.8799999999999999,
        3.8999999999999999,
        3.9199999999999999,
        3.9399999999999999,
        3.96,
        3.98,
        4.0,
        4.0199999999999996,
        4.04,
        4.0599999999999996,
        4.0800000000000001,
        4.0999999999999996,
        4.1200000000000001,
        4.1399999999999997,
        4.1600000000000001,
        4.1799999999999997,
        4.2000000000000002,
        4.2199999999999998,
        4.2400000000000002,
        4.2599999999999998,
        4.2800000000000002,
        4.2999999999999998,
        4.3200000000000003,
        4.3399999999999999,
        4.3600000000000003,
        4.3799999999999999,
        4.4000000000000004,
        4.4199999999999999,
        4.4400000000000004,
        4.46,
        4.4800000000000004,
        4.5,
        4.5199999999999996,
        4.54,
        4.5599999999999996,
        4.5800000000000001,
        4.5999999999999996,
        4.6200000000000001,
        4.6399999999999997,
        4.6600000000000001,
        4.6799999999999997,
        4.7000000000000002,
        4.7199999999999998,
        4.7400000000000002,
        4.7599999999999998,
        4.7800000000000002,
        4.7999999999999998,
        4.8200000000000003,
        4.8399999999999999,
        4.8600000000000003,
        4.8799999999999999,
        4.9000000000000004,
        4.9199999999999999,
        4.9400000000000004,
        4.96,
        4.9800000000000004,
        5.0,
        5.0199999999999996,
        5.04,
        5.0599999999999996,
        5.0800000000000001,
        5.0999999999999996,
        5.1200000000000001,
        5.1399999999999997,
        5.1600000000000001,
        5.1799999999999997,
        5.2000000000000002,
        5.2199999999999998,
        5.2400000000000002,
        5.2599999999999998,
        5.2800000000000002,
        5.2999999999999998,
        5.3200000000000003,
        5.3399999999999999,
        5.3600000000000003,
        5.3799999999999999,
        5.4000000000000004,
        5.4199999999999999,
        5.4400000000000004,
        5.46,
        5.4800000000000004,
        5.5,
        5.5199999999999996,
        5.54,
        5.5599999999999996,
        5.5800000000000001,
        5.5999999999999996,
        5.6200000000000001,
        5.6399999999999997,
        5.6600000000000001,
        5.6799999999999997,
        5.7000000000000002,
        5.7199999999999998,
        5.7400000000000002,
        5.7599999999999998,
        5.7800000000000002,
        5.7999999999999998,
        5.8200000000000003,
        5.8399999999999999,
        5.8600000000000003,
        5.8799999999999999,
        5.9000000000000004,
        5.9199999999999999,
        5.9400000000000004,
        5.96,
        5.9800000000000004,
        6.0,
        6.0199999999999996,
        6.04,
        6.0599999999999996,
        6.0800000000000001,
        6.0999999999999996,
        6.1200000000000001,
        6.1399999999999997,
        6.1600000000000001,
        6.1799999999999997,
        6.2000000000000002,
        6.2199999999999998,
        6.2400000000000002,
        6.2599999999999998,
        6.2800000000000002,
        6.2999999999999998,
        6.3200000000000003,
        6.3399999999999999,
        6.3600000000000003,
        6.3799999999999999,
        6.4000000000000004,
        6.4199999999999999,
        6.4400000000000004,
        6.46,
        6.4800000000000004,
        6.5,
        6.5199999999999996,
        6.54,
        6.5599999999999996,
        6.5800000000000001,
        6.5999999999999996,
        6.6200000000000001,
        6.6399999999999997,
        6.6600000000000001,
        6.6799999999999997,
        6.7000000000000002,
        6.7199999999999998,
        6.7400000000000002,
        6.7599999999999998,
        6.7800000000000002,
        6.7999999999999998,
        6.8200000000000003,
        6.8399999999999999,
        6.8600000000000003,
        6.8799999999999999,
        6.9000000000000004,
        6.9199999999999999,
        6.9400000000000004,
        6.96,
        6.9800000000000004,
        7.0,
        7.0199999999999996,
        7.04,
        7.0599999999999996,
        7.0800000000000001,
        7.0999999999999996,
        7.1200000000000001,
        7.1399999999999997,
        7.1600000000000001,
        7.1799999999999997,
        7.2000000000000002,
        7.2199999999999998,
        7.2400000000000002,
        7.2599999999999998,
        7.2800000000000002,
        7.2999999999999998,
        7.3200000000000003,
        7.3399999999999999,
        7.3600000000000003,
        7.3799999999999999,
        7.4000000000000004,
        7.4199999999999999,
        7.4400000000000004,
        7.46,
        7.4800000000000004,
        7.5,
        7.5199999999999996,
        7.54,
        7.5599999999999996,
        7.5800000000000001,
        7.5999999999999996,
        7.6200000000000001,
        7.6399999999999997,
        7.6600000000000001,
        7.6799999999999997,
        7.7000000000000002,
        7.7199999999999998,
        7.7400000000000002,
        7.7599999999999998,
        7.7800000000000002,
        7.7999999999999998,
        7.8200000000000003,
        7.8399999999999999,
        7.8600000000000003,
        7.8799999999999999,
        7.9000000000000004,
        7.9199999999999999,
        7.9400000000000004,
        7.96,
        7.9800000000000004,
        8.0,
        8.0199999999999996
    ]
}