{
    "f0": [
        0.0,
        0.0,
        0.0,
        0.0,
        0.0,
        0.0,
        0.0,
        0.0,
        0.0,
        0.0,
        0.0,
        0.0,
        0.0,
        0.0,
        0.0,
        0.0,
        0.0,
        0.0,
        0.0,
        0.0,
        0.0,
        0.0,
        58.975271124791199,
        59.050365251046316,
        59.14860942270645,
        59.206277019652255,
        59.269998582352862,
        59.215563071201238,
        59.115418869013808,
        59.12018633451882,
        58.998342897509104,
        58.929634605463676,
        59.153001896438958,
        59.28512010682855,
        59.290011432164007,
        59.422150718964247,
        59.376695781286458,
        59.28619546466566,
        59.41783853749024,
        59.305012445902648,
        59.259422336937895,
        59.641868274420389,
        59.462504579092823,
        59.366767896319118,
        59.104037432841231,
        59.273464319264562,
        59.2696489127581,
        59.358449105465226,
        59.438899455276484,
        59.551397012804394,
        59.501654729350008,
        59.447381979996436,
        59.362409422571403,
        59.408305146567301,
        59.383012645442484,
        59.397331145509554,
        59.381818748079446,
        59.40346281866946,
        59.025537429839076,
        59.32999922662502,
        59.360144425440247,
        59.488621465836061,
        59.674022432123124,
        59.548027976812321,
        59.307083968140326,
        59.291110683483446,
        59.061402546526722,
        59.032582705560102,
        59.026031998705193,
        59.101575635340637,
        59.202234255791161,
        59.219747400255301,
        59.186497289338057,
        59.269799521412317,
        59.139953818146097,
        59.441382642348429,
        59.461570226399942,
        59.349125140520478,
        59.32495123952225,
        58.898716868752892,
        59.113289250334432,
        59.62471531712167,
        59.458129519805553,
        59.195395159119002,
        59.169202613704002,
        58.994523101373524,
        59.055778698591695,
        59.076827620744766,
        59.162272040908604,
        59.292372961195994,
        59.415319664751593,
        59.41148528403194,
        59.247035368258047,
        59.353830681188818,
        59.51176416558009,
        59.563184089175046,
        59.346833185681795,
        59.344489589298547,
        59.260138933281155,
        59.297921521063586,
        60.208179823323213,
        60.137933432262201,
        59.834500816573311,
        59.581583590843238,
        59.272753519135186,
        59.239350911391604,
        59.11007189967598,
        59.262057837194774,
        59.310002138159547,
        59.356381591586555,
        59.369966103258619,
        59.525907112365445,
        59.590330349540906,
        59.649651195938191,
        59.765430977847728,
        59.667322979069183,
        59.331193607771326,
        59.380129733000508,
        59.478758599568621,
        59.767103275291632,
        59.708088705620014,
        60.524702577893237,
        59.987269922737156,
        59.712756229506084,
        59.438886946854431,
        59.365223005656546,
        59.275545967636084,
        59.263449629373248,
        59.499856808424873,
        59.945129347073589,
        59.764833263191157,
        59.780815211563919,
        59.852099069636481,
        59.660787747673552,
        59.761705103443177,
        59.631779864837917,
        59.539768871791928,
        59.759280795079121,
        59.642814563660032,
        59.689944496666982,
        59.664601317144189,
        59.741245601013325,
        60.144543356643084,
        60.024624326861606,
        59.722465136521095,
        59.6342076290195,
        59.381682689299808,
        59.363179367595322,
        59.253300569278139,
        59.27545012636034,
        59.240159121620238,
        59.137365459766933,
        59.134351190140016,
        59.296199076716746,
        59.385987155874389,
        59.7687692415155,
        59.715570965876708,
        59.757028211547222,
        59.892700718349587,
        59.891113625408607,
        59.829299046511835,
        59.838092833916988,
        59.716266842922593,
        59.535248396270447,
        59.39201298238212,
        59.208492483347463,
        59.153945546977255,
        59.214921693926726,
        58.655944643758744,
        59.047160794681304,
        58.937924720239792,
        58.072831332472603,
        57.841101327218347,
        57.959694916740112,
        58.110705212587042,
        58.214525808136337,
        58.708318085434762,
        58.496133368761846,
        58.474595371025949,
        58.535264848636636,
        58.972775990982697,
        58.96432994480439,
        58.874607914691055,
        58.701485657526881,
        58.553011059116884,
        58.526985239039959,
        58.452597770152096,
        58.300676237039646,
        58.455017797616705,
        58.520610979483934,
        58.572844386291095,
        58.655543015289361,
        58.627568161297148,
        58.516166165150182,
        58.466572423431252,
        58.630500507604488,
        58.621221017806661,
        58.276338387853819,
        58.338590098603419,
        58.773198706934494,
        58.60409192363025,
        58.80288386839716,
        57.985051208306146,
        62.069651780294976,
        62.015998925352555,
        61.746568438932655,
        61.517795142538077,
        61.008610539404629,
        60.641827766205765,
        60.415421009274056,
        59.984068509396458,
        60.403694325115531,
        60.482692978357235,
        60.757065996666881,
        61.146753028714755,
        61.469372697534773,
        61.689934472871599,
        61.965788613276395,
        62.303520442375152,
        62.567490376690529,
        62.598578969664743,
        62.604427923435708,
        62.690845654406445,
        62.73501153604888,
        62.768761355397686,
        62.952159063577767,
        62.868344729256513,
        62.764770020420208,
        62.467802308772441,
        61.531826545997738,
        60.916353287859998,
        58.410092445341576,
        55.694753144198245,
        54.188493386893171,
        52.384751474993344,
        51.311040531447979,
        50.973198170942467,
        50.498010947507922,
        50.5294880339938,
        50.299940226600199,
        50.503537571402433,
        50.813350592323062,
        51.271230784809845,
        52.173696264301114,
        53.165944597245804,
        53.51651378277284,
        53.865661551272936,
        54.307152196687653,
        54.176302299251994,
        54.273839439650665,
        54.265636211999109,
        54.38158338261826,
        54.442378920819237,
        54.512770983102286,
        54.558057908387553,
        54.609567816112396,
        54.664030833472104,
        54.703831636331685,
        54.70560839566906,
        54.70105224831071,
        54.694308423352936,
        54.697404309624559,
        54.670857940477909,
        54.611092393522938,
        54.498483754362901,
        54.344526728341975,
        53.911352041068341,
        53.573886691876069,
        53.855881796254351,
        54.170467909004202,
        54.303351514515739,
        54.691467171310315,
        54.802322984170146,
        55.004953152426012,
        55.613798278733654,
        55.442342962577484,
        55.282484077665529,
        54.865201555847477,
        54.7127055274401,
        55.537100961812698,
        55.007650542040736,
        55.878716227303634,
        55.269557523958127,
        55.622652214612685,
        55.707430896463748,
        55.39411861923854,
        55.752686927525716,
        56.231058668943582,
        55.786176631728864,
        55.522660632920136,
        55.221464912966375,
        55.27582766933056,
        55.150000529275374,
        55.108342065035437,
        55.289202816698378,
        55.338662316573192,
        55.41804569482666,
        55.611280930373873,
        55.664518201789683,
        55.771211742930639,
        55.834093256202436,
        55.887296107026756,
        55.922581659390445,
        56.005379911120144,
        55.981700170383654,
        56.045836851935697,
        56.085661398113892,
        56.090617812340795,
        56.010389938596269,
        55.946314328561002,
        55.871714907855598,
        55.867649141612759,
        55.842371864504116,
        55.908245880028716,
        55.92791458342613,
        55.965784309432507,
        56.036975893849444,
        56.141980753095481,
        56.31051268143834,
        56.369743059577587,
        56.487382907465275,
        56.431939574382845,
        56.240459497821881,
        56.055872550479137,
        55.895107788923781,
        55.783869780125798,
        55.727534413539331,
        55.694974528902215,
        55.830723925833439,
        56.041326969177462,
        56.015520547237315,
        56.018334259324618,
        56.194832202896364,
        56.856107140658182,
        56.906957540291671,
        56.471053901541929,
        56.730296124978686,
        56.69909499363051,
        53.937978860903939,
        0.0,
        0.0,
        0.0,
        0.0,
        0.0,
        0.0,
        0.0,
        0.0,
        0.0,
        0.0,
        0.0,
        0.0,
        0.0,
        0.0,
        0.0,
        0.0,
        0.0,
        0.0,
        0.0,
        0.0,
        0.0,
        0.0,
        0.0,
        0.0,
        0.0,
        0.0,
        0.0,
        0.0,
        0.0,
        0.0
    ],
    "time": [
        0.02,
        0.040000000000000001,
        0.059999999999999998,
        0.080000000000000002,
        0.10000000000000001,
        0.12,
        0.14000000000000001,
        0.16,
        0.17999999999999999,
        0.20000000000000001,
        0.22,
        0.23999999999999999,
        0.26000000000000001,
        0.28000000000000003,
        0.29999999999999999,
        0.32000000000000001,
        0.34000000000000002,
        0.35999999999999999,
        0.38,
        0.40000000000000002,
        0.41999999999999998,
        0.44,
        0.46000000000000002,
        0.47999999999999998,
        0.5,
        0.52000000000000002,
        0.54000000000000004,
        0.56000000000000005,
        0.57999999999999996,
        0.59999999999999998,
        0.62,
        0.64000000000000001,
        0.66000000000000003,
        0.68000000000000005,
        0.69999999999999996,
        0.71999999999999997,
        0.73999999999999999,
        0.76000000000000001,
        0.78000000000000003,
        0.80000000000000004,
        0.81999999999999995,
        0.83999999999999997,
        0.85999999999999999,
        0.88,
        0.90000000000000002,
        0.92000000000000004,
        0.93999999999999995,
        0.95999999999999996,
        0.97999999999999998,
        1.0,
        1.02,
        1.04,
        1.0600000000000001,
        1.0800000000000001,
        1.1000000000000001,
        1.1200000000000001,
        1.1399999999999999,
        1.1599999999999999,
        1.1799999999999999,
        1.2,
        1.22,
        1.24,
        1.26,
        1.28,
        1.3,
        1.3200000000000001,
        1.3400000000000001,
        1.3600000000000001,
        1.3799999999999999,
        1.3999999999999999,
        1.4199999999999999,
        1.4399999999999999,
        1.46,
        1.48,
        1.5,
        1.52,
        1.54,
        1.5600000000000001,
        1.5800000000000001,
        1.6000000000000001,
        1.6200000000000001,
        1.6399999999999999,
        1.6599999999999999,
        1.6799999999999999,
        1.7,
        1.72,
        1.74,
        1.76,
        1.78,
        1.8,
        1.8200000000000001,
        1.8400000000000001,
        1.8600000000000001,
        1.8799999999999999,
        1.8999999999999999,
        1.9199999999999999,
        1.9399999999999999,
        1.96,
        1.98,
        2.0,
        2.02,
        2.04,
        2.0600000000000001,
        2.0800000000000001,
        2.1000000000000001,
        2.1200000000000001,
        2.1400000000000001,
        2.1600000000000001,
        2.1800000000000002,
        2.2000000000000002,
        2.2200000000000002,
        2.2400000000000002,
        2.2599999999999998,
        2.2799999999999998,
        2.2999999999999998,
        2.3199999999999998,
        2.3399999999999999,
        2.3599999999999999,
        2.3799999999999999,
        2.3999999999999999,
        2.4199999999999999,
        2.4399999999999999,
        2.46,
        2.48,
        2.5,
        2.52,
        2.54,
        2.5600000000000001,
        2.5800000000000001,
        2.6000000000000001,
        2.6200000000000001,
        2.6400000000000001,
        2.6600000000000001,
        2.6800000000000002,
        2.7000000000000002,
        2.7200000000000002,
        2.7400000000000002,
        2.7599999999999998,
        2.7799999999999998,
        2.7999999999999998,
        2.8199999999999998,
        2.8399999999999999,
        2.8599999999999999,
        2.8799999999999999,
        2.8999999999999999,
        2.9199999999999999,
        2.9399999999999999,
        2.96,
        2.98,
        3.0,
        3.02,
        3.04,
        3.0600000000000001,
        3.0800000000000001,
        3.1000000000000001,
        3.1200000000000001,
        3.1400000000000001,
        3.1600000000000001,
        3.1800000000000002,
        3.2000000000000002,
        3.2200000000000002,
        3.2400000000000002,
        3.2599999999999998,
        3.2799999999999998,
        3.2999999999999998,
        3.3199999999999998,
        3.3399999999999999,
        3.3599999999999999,
        3.3799999999999999,
        3.3999999999999999,
        3.4199999999999999,
        3.4399999999999999,
        3.46,
        3.48,
        3.5,
        3.52,
        3.54,
        3.5600000000000001,
        3.5800000000000001,
        3.6000000000000001,
        3.6200000000000001,
        3.6400000000000001,
        3.6600000000000001,
        3.6800000000000002,
        3.7000000000000002,
        3.7200000000000002,
        3.7400000000000002,
        3.7599999999999998,
        3.7799999999999998,
        3.7999999999999998,
        3.8199999999999998,
        3.8399999999999999,
        3.8599999999999999,
        3.8799999999999999,
        3.8999999999999999,
        3.9199999999999999,
        3.9399999999999999,
        3.96,
        3.98,
        4.0,
        4.0199999999999996,
        4.04,
        4.0599999999999996,
        4.0800000000000001,
        4.0999999999999996,
        4.1200000000000001,
        4.1399999999999997,
        4.1600000000000001,
        4.1799999999999997,
        4.2000000000000002,
        4.2199999999999998,
        4.2400000000000002,
        4.2599999999999998,
        4.2800000000000002,
        4.2999999999999998,
        4.3200000000000003,
        4.3399999999999999,
        4.3600000000000003,
        4.3799999999999999,
        4.4000000000000004,
        4.4199999999999999,
        4.4400000000000004,
        4.46,
        4.4800000000000004,
        4.5,
        4.5199999999999996,
        4.54,
        4.5599999999999996,
        4.5800000000000001,
        4.5999999999999996,
        4.6200000000000001,
        4.6399999999999997,
        4.6600000000000001,
        4.6799999999999997,
        4.7000000000000002,
        4.7199999999999998,
        4.7400000000000002,
        4.7599999999999998,
        4.7800000000000002,
        4.7999999999999998,
        4.8200000000000003,
        4.8399999999999999,
        4.8600000000000003,
        4.8799999999999999,
        4.9000000000000004,
        4.9199999999999999,
        4.9400000000000004,
        4.96,
        4.9800000000000004,
        5.0,
        5.0199999999999996,
        5.04,
        5.0599999999999996,
        5.0800000000000001,
        5.0999999999999996,
        5.1200000000000001,
        5.1399999999999997,
        5.1600000000000001,
        5.1799999999999997,
        5.2000000000000002,
        5.2199999999999998,
        5.2400000000000002,
        5.2599999999999998,
        5.2800000000000002,
        5.2999999999999998,
        5.3200000000000003,
        5.3399999999999999,
        5.3600000000000003,
        5.3799999999999999,
        5.4000000000000004,
        5.4199999999999999,
        5.4400000000000004,
        5.46,
        5.4800000000000004,
        5.5,
        5.5199999999999996,
        5.54,
        5.5599999999999996,
        5.5800000000000001,
        5.5999999999999996,
        5.6200000000000001,
        5.6399999999999997,
        5.6600000000000001,
        5.6799999999999997,
        5.7000000000000002,
        5.7199999999999998,
        5.7400000000000002,
        5.7599999999999998,
        5.7800000000000002,
        5.7999999999999998,
        5.8200000000000003,
        5.8399999999999999,
        5.8600000000000003,
        5.8799999999999999,
        5.9000000000000004,
        5.9199999999999999,
        5.9400000000000004,
        5.96,
        5.9800000000000004,
        6.0,
        6.0199999999999996,
        6.04,
        6.0599999999999996,
        6.0800000000000001,
        6.0999999999999996,
        6.1200000000000001,
        6.1399999999999997,
        6.1600000000000001,
        6.1799999999999997,
        6.2000000000000002,
        6.2199999999999998,
        6.2400000000000002,
        6.2599999999999998,
        6.2800000000000002,
        6.2999999999999998,
        6.3200000000000003,
        6.3399999999999999,
        6.3600000000000003,
        6.3799999999999999,
        6.4000000000000004,
        6.4199999999999999,
        6.4400000000000004,
        6.46,
        6.4800000000000004,
        6.5,
        6.5199999999999996,
        6.54,
        6.5599999999999996,
        6.5800000000000001,
        6.5999999999999996,
        6.6200000000000001,
        6.6399999999999997,
        6.6600000000000001,
        6.6799999999999997,
        6.7000000000000002,
        6.7199999999999998,
        6.7400000000000002,
        6.7599999999999998,
        6.7800000000000002,
        6.7999999999999998,
        6.8200000000000003,
        6.8399999999999999,
        6.8600000000000003,
        6.8799999999999999,
        6.9000000000000004,
        6.9199999999999999,
        6.9400000000000004,
        6.96,
        6.9800000000000004,
        7.0,
        7.0199999999999996,
        7.04,
        7.0599999999999996,
        7.0800000000000001,
        7.0999999999999996,
        7.1200000000000001,
        7.1399999999999997,
        7.1600000000000001,
        7.1799999999999997,
        7.2000000000000002,
        7.2199999999999998,
        7.2400000000000002,
        7.2599999999999998,
        7.2800000000000002,
        7.2999999999999998,
        7.3200000000000003,
        7.3399999999999999,
        7.3600000000000003,
        7.3799999999999999
    ]
}