{
    "f0": [
        0.0,
        0.0,
        0.0,
        0.0,
        0.0,
        0.0,
        0.0,
        0.0,
        0.0,
        0.0,
        0.0,
        0.0,
        0.0,
        0.0,
        0.0,
        0.0,
        0.0,
        0.0,
        0.0,
        0.0,
        49.320662460707183,
        45.451120279892535,
        49.296785814162035,
        46.61666312559035,
        49.315051991560615,
        49.014422159271028,
        48.766525586575291,
        0.0,
        68.713307251966981,
        60.794838305520869,
        0.0,
        69.214435521131946,
        59.432605073404588,
        0.0,
        0.0,
        62.475043491663413,
        68.880079636127206,
        57.03169119714201,
        44.619833680310784,
        57.344144249087876,
        51.630134794284999,
        0.0,
        49.627804987016233,
        0.0,
        0.0,
        0.0,
        55.687268947403581,
        46.364550864947176,
        54.04691814768313,
        45.161679184069655,
        36.53484012694156,
        55.117964275657641,
        55.035976479487047,
        55.125860496220483,
        55.115966911179036,
        55.110934928148495,
        55.094908186404481,
        55.084370528784639,
        55.073826453207509,
        55.063275951850621,
        55.052719016877184,
        54.868158449924955,
        54.873296720058917,
        55.098048497864056,
        55.319923852308058,
        55.650146203564901,
        55.745736393555589,
        55.697602672587678,
        55.664685487087311,
        55.666485741798596,
        55.598233128495998,
        55.380049048010548,
        54.194851195785567,
        54.127054694592466,
        52.898533205484441,
        52.891065976076476,
        52.917331800431811,
        53.415546108736436,
        53.497949351735201,
        53.334250572479078,
        53.195191573877679,
        53.055005069752809,
        53.085937658083246,
        53.109524184142629,
        52.92103889300374,
        52.853279784954069,
        53.468221873730762,
        53.633679513399713,
        53.483752491690481,
        53.574792571748375,
        53.362768901722596,
        53.148116257390882,
        53.103028656683136,
        53.314510519111451,
        53.373667648969004,
        53.432623324152267,
        53.464456294373939,
        53.612761091360987,
        53.703536585146225,
        53.680925161927298,
        53.493302192814511,
        53.559491276734171,
        53.402228990124534,
        56.955639045563359,
        56.776582831604806,
        56.733094896754025,
        56.769857521758155,
        56.692635328176792,
        56.552574905858592,
        56.477901218944737,
        56.421680055301081,
        56.376620604108169,
        56.33144479581641,
        56.401958094916452,
        56.472186655486553,
        56.457139370736868,
        56.442077695715689,
        56.426999245353585,
        56.411911314251455,
        56.559393775641389,
        55.454444103321492,
        56.08060597501872,
        56.384540551374144,
        56.509753981218132,
        56.546407934003895,
        56.452781191325471,
        56.49800659318278,
        56.498997855401356,
        56.464571715119362,
        56.484937476953029,
        56.724621587191464,
        56.853201048208803,
        57.206698879392995,
        57.383911047282858,
        57.668395737376045,
        57.650860167673372,
        57.44769224988238,
        57.162281110273057,
        56.060681641733311,
        55.665982488310782,
        55.874107501946256,
        55.991913153241654,
        56.169297763273818,
        56.141030609647459,
        55.94617006501737,
        56.057485423797317,
        56.125434935617896,
        56.106539522073589,
        56.087623379796931,
        56.0686840551421,
        56.221984360907072,
        55.961836249439983,
        56.072270833473432,
        56.182004268499284,
        55.941290824107583,
        56.897764529909239,
        56.744035646871836,
        56.534084695571671,
        56.349339791875096,
        56.186217106195386,
        56.021538961910615,
        56.129041588273566,
        56.222361169967215,
        56.235732745396398,
        56.288832152238498,
        56.494239813807944,
        56.448065023530653,
        56.265371780526905,
        56.322057085766673,
        55.993252010138846,
        55.467447217789477,
        55.702790589683772,
        56.063361347125031,
        56.179806167707284,
        53.373806788353527,
        54.724511255087712,
        54.083319162893346,
        48.235425885413861,
        48.584204701364612,
        48.951346868399746,
        49.298502010960505,
        49.099510804417889,
        48.665510940590273,
        48.682942834029632,
        48.891814213162021,
        48.93342363811572,
        49.057320805513442,
        44.280499068193222,
        43.946254365251463,
        44.800978938959929,
        45.376850152856797,
        46.222391189948745,
        46.891597493291926,
        47.407919639811041,
        47.53807970197083,
        47.862458947007056,
        47.968784961901981,
        48.180185401680987,
        48.38903761811271,
        48.558550711479441,
        48.601121922796139,
        48.678213224429498,
        48.616738397617532,
        48.43776577079295,
        48.316276975518797,
        48.33633396120608,
        48.503270201549803,
        48.668614011275082,
        49.164847745305345,
        49.486386631969978,
        49.531471670177318,
        49.47275416515302,
        49.320484654910466,
        49.16686397567144,
        48.837872157569095,
        48.591429081348451,
        48.468643522574837,
        49.289793657343495,
        49.010275517285777,
        48.407355610526494,
        47.598916793346959,
        51.597315960697451,
        51.629994002846324,
        51.810566929833982,
        51.566457945909761,
        51.659056987958628,
        51.613929824216584,
        51.568684722389932,
        51.581863428855357,
        51.759800140032937,
        51.147850365725063,
        51.635928677990556,
        51.700774592085864,
        51.675374879327464,
        52.465504930458053,
        0.0,
        42.004168807076809,
        43.976374941913761,
        51.984592074919675,
        51.634835197494823,
        51.807098808816576,
        51.809192679444486,
        51.81128470395965,
        51.786092243934476,
        51.800583715678002,
        51.912645111934047,
        51.975572266161379,
        52.4052338910939,
        52.989198339983332,
        53.124836149719407,
        53.12396803914082,
        53.368188704719188,
        53.404530258131899,
        53.225851137935308,
        52.947191094974158,
        53.056745212160379,
        53.247221214017095,
        54.74690860825639,
        54.645877614263171,
        48.56984857020629,
        48.869155247062793,
        49.31668027697436,
        49.673005778009646,
        49.67195524304249,
        49.56645337875679,
        49.399236363322743,
        49.230388584567478,
        49.059877671149721,
        48.887672672079276,
        48.539740166997767,
        48.341090538399804,
        48.74018839050612,
        49.072857854066271,
        49.399253086737026,
        49.719604905317595,
        49.206953956300936,
        48.357744414388783,
        47.634411870387069,
        48.742591437504501,
        49.14545837391519,
        49.504479921988676,
        49.345888932553251,
        48.806578797225903,
        48.104504735634798,
        48.293425387313135,
        48.757315367847305,
        49.074715920412402,
        49.386401934588591,
        49.342816992019479,
        49.101979983305469,
        48.784002837657368,
        49.009414458060277,
        49.481758424932231,
        50.126307486719838,
        48.814822620653317,
        49.759773671195134,
        49.298854266414708,
        49.883909832763102,
        49.498939883400162,
        49.206192980614034,
        49.536125483433871,
        48.899273753618203,
        48.834666480884799,
        50.93584688558866,
        0.0,
        0.0,
        0.0,
        0.0,
        0.0,
        0.0,
        0.0,
        0.0,
        0.0,
        0.0,
        0.0,
        44.701559199188324,
        49.645828176960158,
        45.453390895530312,
        35.520118617137975,
        46.899070937822891,
        47.076336664627846,
        46.902051149386168,
        46.603876305734765,
        46.53498787880914,
        58.483889843146926,
        58.556504721441925,
        58.7761671426112,
        59.028456476791511,
        59.259694240950765,
        59.487883048209802,
        59.583287162208862,
        59.915106976074185,
        59.950833166645786,
        59.957723389244805,
        60.151256893882696,
        60.383486220688312,
        60.660642361597489,
        61.082081853853097,
        61.593343138555227,
        61.691749504907229,
        61.638959175129187,
        61.641154229907102,
        61.64334906658619,
        61.64554356486974,
        61.647739650116918,
        61.475940344611608,
        61.750828921485748,
        39.543309157905846,
        37.075387675877487,
        40.629367107777597,
        39.309312421118953,
        38.198904841088854,
        0.0,
        0.0,
        0.0,
        0.0,
        0.0,
        0.0,
        0.0,
        0.0,
        0.0,
        0.0,
        0.0,
        0.0,
        0.0,
        0.0,
        0.0,
        0.0,
        0.0,
        0.0,
        0.0,
        0.0,
        0.0,
        0.0,
        0.0,
        0.0,
        0.0
    ],
    "time": [
        0.02,
        0.040000000000000001,
        0.059999999999999998,
        0.080000000000000002,
        0.10000000000000001,
        0.12,
        0.14000000000000001,
        0.16,
        0.17999999999999999,
        0.20000000000000001,
        0.22,
        0.23999999999999999,
        0.26000000000000001,
        0.28000000000000003,
        0.29999999999999999,
        0.32000000000000001,
        0.34000000000000002,
        0.35999999999999999,
        0.38,
        0.40000000000000002,
        0.41999999999999998,
        0.44,
        0.46000000000000002,
        0.47999999999999998,
        0.5,
        0.52000000000000002,
        0.54000000000000004,
        0.56000000000000005,
        0.57999999999999996,
        0.59999999999999998,
        0.62,
        0.64000000000000001,
        0.66000000000000003,
        0.68000000000000005,
        0.69999999999999996,
        0.71999999999999997,
        0.73999999999999999,
        0.76000000000000001,
        0.78000000000000003,
        0.80000000000000004,
        0.81999999999999995,
        0.83999999999999997,
        0.85999999999999999,
        0.88,
        0.90000000000000002,
        0.92000000000000004,
        0.93999999999999995,
        0.95999999999999996,
        0.97999999999999998,
        1.0,
        1.02,
        1.04,
        1.0600000000000001,
        1.0800000000000001,
        1.1000000000000001,
        1.1200000000000001,
        1.1399999999999999,
        1.1599999999999999,
        1.1799999999999999,
        1.2,
        1.22,
        1.24,
        1.26,
        1.28,
        1.3,
        1.3200000000000001,
        1.3400000000000001,
        1.3600000000000001,
        1.3799999999999999,
        1.3999999999999999,
        1.4199999999999999,
        1.4399999999999999,
        1.46,
        1.48,
        1.5,
        1.52,
        1.54,
        1.5600000000000001,
        1.5800000000000001,
        1.6000000000000001,
        1.6200000000000001,
        1.6399999999999999,
        1.6599999999999999,
        1.6799999999999999,
        1.7,
        1.72,
        1.74,
        1.76,
        1.78,
        1.8,
        1.8200000000000001,
        1.8400000000000001,
        1.8600000000000001,
        1.8799999999999999,
        1.8999999999999999,
        1.9199999999999999,
        1.9399999999999999,
        1.96,
        1.98,
        2.0,
        2.02,
        2.04,
        2.0600000000000001,
        2.0800000000000001,
        2.1000000000000001,
        2.1200000000000001,
        2.1400000000000001,
        2.1600000000000001,
        2.1800000000000002,
        2.2000000000000002,
        2.2200000000000002,
        2.2400000000000002,
        2.2599999999999998,
        2.2799999999999998,
        2.2999999999999998,
        2.3199999999999998,
        2.3399999999999999,
        2.3599999999999999,
        2.3799999999999999,
        2.3999999999999999,
        2.4199999999999999,
        2.4399999999999999,
        2.46,
        2.48,
        2.5,
        2.52,
        2.54,
        2.5600000000000001,
        2.5800000000000001,
        2.6000000000000001,
        2.6200000000000001,
        2.6400000000000001,
        2.6600000000000001,
        2.6800000000000002,
        2.7000000000000002,
        2.7200000000000002,
        2.7400000000000002,
        2.7599999999999998,
        2.7799999999999998,
        2.7999999999999998,
        2.8199999999999998,
        2.8399999999999999,
        2.8599999999999999,
        2.8799999999999999,
        2.8999999999999999,
        2.9199999999999999,
        2.9399999999999999,
        2.96,
        2.98,
        3.0,
        3.02,
        3.04,
        3.0600000000000001,
        3.0800000000000001,
        3.1000000000000001,
        3.1200000000000001,
        3.1400000000000001,
        3.1600000000000001,
        3.1800000000000002,
        3.2000000000000002,
        3.2200000000000002,
        3.2400000000000002,
        3.2599999999999998,
        3.2799999999999998,
        3.2999999999999998,
        3.3199999999999998,
        3.3399999999999999,
        3.3599999999999999,
        3.3799999999999999,
        3.3999999999999999,
        3.4199999999999999,
        3.4399999999999999,
        3.46,
        3.48,
        3.5,
        3.52,
        3.54,
        3.5600000000000001,
        3.5800000000000001,
        3.6000000000000001,
        3.6200000000000001,
        3.6400000000000001,
        3.6600000000000001,
        3.6800000000000002,
        3.7000000000000002,
        3.7200000000000002,
        3.7400000000000002,
        3.7599999999999998,
        3.7799999999999998,
        3.7999999999999998,
        3.8199999999999998,
        3.8399999999999999,
        3.8599999999999999,
        3.8799999999999999,
        3.8999999999999999,
        3.9199999999999999,
        3.9399999999999999,
        3.96,
        3.98,
        4.0,
        4.0199999999999996,
        4.04,
        4.0599999999999996,
        4.0800000000000001,
        4.0999999999999996,
        4.1200000000000001,
        4.1399999999999997,
        4.1600000000000001,
        4.1799999999999997,
        4.2000000000000002,
        4.2199999999999998,
        4.2400000000000002,
        4.2599999999999998,
        4.2800000000000002,
        4.2999999999999998,
        4.3200000000000003,
        4.3399999999999999,
        4.3600000000000003,
        4.3799999999999999,
        4.4000000000000004,
        4.4199999999999999,
        4.4400000000000004,
        4.46,
        4.4800000000000004,
        4.5,
        4.5199999999999996,
        4.54,
        4.5599999999999996,
        4.5800000000000001,
        4.5999999999999996,
        4.6200000000000001,
        4.6399999999999997,
        4.6600000000000001,
        4.6799999999999997,
        4.7000000000000002,
        4.7199999999999998,
        4.7400000000000002,
        4.7599999999999998,
        4.7800000000000002,
        4.7999999999999998,
        4.8200000000000003,
        4.8399999999999999,
        4.8600000000000003,
        4.8799999999999999,
        4.9000000000000004,
        4.9199999999999999,
        4.9400000000000004,
        4.96,
        4.9800000000000004,
        5.0,
        5.0199999999999996,
        5.04,
        5.0599999999999996,
        5.0800000000000001,
        5.0999999999999996,
        5.1200000000000001,
        5.1399999999999997,
        5.1600000000000001,
        5.1799999999999997,
        5.2000000000000002,
        5.2199999999999998,
        5.2400000000000002,
        5.2599999999999998,
        5.2800000000000002,
        5.2999999999999998,
        5.3200000000000003,
        5.3399999999999999,
        5.3600000000000003,
        5.3799999999999999,
        5.4000000000000004,
        5.4199999999999999,
        5.4400000000000004,
        5.46,
        5.4800000000000004,
        5.5,
        5.5199999999999996,
        5.54,
        5.5599999999999996,
        5.5800000000000001,
        5.5999999999999996,
        5.6200000000000001,
        5.6399999999999997,
        5.6600000000000001,
        5.6799999999999997,
        5.7000000000000002,
        5.7199999999999998,
        5.7400000000000002,
        5.7599999999999998,
        5.7800000000000002,
        5.7999999999999998,
        5.8200000000000003,
        5.8399999999999999,
        5.8600000000000003,
        5.8799999999999999,
        5.9000000000000004,
        5.9199999999999999,
        5.9400000000000004,
        5.96,
        5.9800000000000004,
        6.0,
        6.0199999999999996,
        6.04,
        6.0599999999999996,
        6.0800000000000001,
        6.0999999999999996,
        6.1200000000000001,
        6.1399999999999997,
        6.1600000000000001,
        6.1799999999999997,
        6.2000000000000002,
        6.2199999999999998,
        6.2400000000000002,
        6.2599999999999998,
        6.2800000000000002,
        6.2999999999999998,
        6.3200000000000003,
        6.3399999999999999,
        6.3600000000000003,
        6.3799999999999999,
        6.4000000000000004,
        6.4199999999999999,
        6.4400000000000004,
        6.46,
        6.4800000000000004,
        6.5,
        6.5199999999999996,
        6.54,
        6.5599999999999996,
        6.5800000000000001,
        6.5999999999999996,
        6.6200000000000001,
        6.6399999999999997,
        6.6600000000000001,
        6.6799999999999997,
        6.7000000000000002,
        6.7199999999999998,
        6.7400000000000002,
        6.7599999999999998,
        6.7800000000000002,
        6.7999999999999998,
        6.8200000000000003,
        6.8399999999999999,
        6.8600000000000003,
        6.8799999999999999,
        6.9000000000000004,
        6.9199999999999999,
        6.9400000000000004,
        6.96,
        6.9800000000000004,
        7.0,
        7.0199999999999996,
        7.04,
        7.0599999999999996,
        7.0800000000000001,
        7.0999999999999996,
        7.1200000000000001,
        7.1399999999999997,
        7.1600000000000001,
        7.1799999999999997,
        7.2000000000000002,
        7.2199999999999998,
        7.2400000000000002,
        7.2599999999999998,
        7.2800000000000002,
        7.2999999999999998,
        7.3200000000000003,
        7.3399999999999999,
        7.3600000000000003,
        7.3799999999999999,
        7.4000000000000004,
        7.4199999999999999,
        7.4400000000000004,
        7.46,
        7.4800000000000004,
        7.5,
        7.5199999999999996,
        7.54
    ]
}