{
	"f0": [NaN,47.85102456,45.92533233,45.99153772,46.16586833,46.41002473,46.71067973,47.54334443,48.0442468,48.58186425,48.94683521,49.35042933,49.16984128,49.11370198,49.12535256,49.09700497,49.01227194,49.02772967,49.16575697,49.14637357,49.11487172,49.07715562,49.01075384,49.19668158,49.32161704,49.55209875,49.71001793,49.67847425,49.91979879,52.04100648,49.10712853,49.27002959,49.72003643,49.60940411,49.35367213,48.91732291,49.99488296,50.4780494,50.64214864,55.13489482,45.95504052,45.67300818,45.45523627,45.47867501,45.62249113,46.29443587,67.78826823,68.69965447,50.17133299,50.55875887,50.8244524,51.04117589,51.14792411,50.99659958,50.80917514,51.02845551,49.87309251,50.15444483,49.82270907,49.47217393,68.06107561,51.54469544,51.3516616,51.21209679,51.24798056,51.35595142,51.42563624,51.41838275,51.74233588,52.03427521,52.24267747,52.51505668,52.54492886,52.44144633,52.12389376,52.09270444,52.43377202,52.21892065,52.03078118,50.31277405,50.28784761,50.37393431,50.60556117,51.01113805,51.42893943,51.64019127,51.76282108,51.80672046,51.85867824,51.77911317,51.8413728,52.20864773,53.0071228,53.27119676,53.3882099,53.4230019,53.28015885,53.20392764,53.51076783,53.95011554,54.08215234,54.01193348,53.81289258,53.68741629,53.74601878,53.8181157,53.60248622,53.16946978,52.98187751,54.66401066,53.11955917,53.3108577,54.30040362,53.8977729,55.09027072,72.90744019,64.13435652,68.33647101,69.96239929,48.73118053,48.60438159,48.70067468,48.95030175,49.7266181,50.64214864,51.66081541,51.93631801,53.02661078,53.3180682,53.49344492,53.56040871,53.35507191,53.24667289,53.32507964,52.90916661,52.23938083,51.66081541,51.85530104,52.1186498,52.64519207,53.11992715,53.09712994,53.03706219,53.01882633,53.02783029,53.05010525,53.04562701,52.83024211,52.78663909,53.01955154,53.045801,52.99127589,52.94070523,52.78676741,52.80827385,53.11543715,53.1131465,52.68146639,55.34995772,49.70785709,49.83333383,50.01630508,50.16554238,50.25041921,50.31101269,50.16094627,49.84469714,49.83677829,49.82598444,49.99890393,50.14646705,50.40141372,50.66825142,50.31756966,50.0801267,50.02264345,50.0386634,49.50639393,49.21841468,49.23078675,49.31733405,49.61681746,49.57633516,49.72135748,50.45682908,49.93819646,50.15444483,49.52509318,49.65521128,49.54833764,49.55460082,49.86009169,51.83657672,52.19354484,56.86471405,45.61680417,45.47902808,45.21896594,45.32818619,45.6589582,46.01280023,46.99233587,47.71975446,48.17368312,48.49135117,48.57080826,48.56790488,48.55734059,48.60102115,48.61582915,48.72302986,48.97574769,49.21820211,49.43783843,49.81543212,50.49713136,51.05768722,51.34582425,51.49089962,51.64344763,51.64197488,51.66056074,51.82101016,51.95282678,52.00598053,51.99353192,51.85720249,51.57968641,50.90754604,51.14399075,51.31455706,51.48682058,51.50045174,51.68651132,51.77601589,49.92425672,49.95647466,50.12456163,50.42001785,50.72009703,50.92142352,51.11998781,51.24378457,51.34170098,51.52706497,51.67151211,51.72740884,51.78601532,51.86119693,51.96959572,52.13774138,52.55643464,53.14967616,53.18439104,53.09382799,53.02956889,53.129664,53.1826829,52.68972071,52.50998368,52.33895126,52.34472698,52.57919795,52.75007229,52.73376863,52.50002654,52.41795564,52.5109678,52.53925341,52.55233668,52.4282816,52.35435922,52.49116629,52.55001207,52.57806836,52.56328618,52.51920472,52.56689076,52.54246409,52.4490406,52.52025367,52.69706974,52.78000442,52.81298626,52.83826658,52.91877371,52.95413233,52.92292481,52.89804812,52.87696269,52.92473356,52.94105926,52.99323358,53.00949655,52.95665932,52.9207501,52.87196933,52.83328385,52.79696291,64.88660594,52.67248083,52.69530511,52.67003689,52.62549954,52.62038866,52.39894208,52.31515256,52.38538577,52.40622268,52.22083153,52.01720599,52.41891387,52.60678297,52.55800247,52.55802863,52.20402239,52.56710329,52.62316603,52.34063736,52.1341843,52.43988222,52.75160876,52.98743589,52.19354484,52.74318912,52.51344096,52.93035138,52.55350539,52.55802863,40.3900059,40.38476129,40.36029297,36.4646151,36.43721527,36.4822541,36.45743899,40.29495901,40.19414657,40.20546863,40.21199038,36.23952907,36.15390593,35.41717196,35.34887861,35.34887861,40.93035138,52.55802863,52.93035138,39.80715898,35.34887861,35.34887861,76.93035138,NaN,NaN],
	"ap0": [NaN,0.7697736941,0.4582718154,0.09733117427,0.04117031444,0.02952853734,0.08207799109,0.1478964583,0.2737688857,0.1879130546,0.1198344153,0.02706929991,0.03064002571,0.02817916565,0.01169678796,0.005913269095,0.006964484993,0.01184697216,0.008320016395,0.006787360972,0.0105617941,0.01132543015,0.0156389984,0.03268651447,0.05202652994,0.07957498046,0.1576848281,0.3260884714,0.5202101378,0.4120152357,0.2854623125,0.2820722417,0.3030838912,0.309370862,0.2022167852,0.1666841233,0.2978641354,0.3516367833,0.2548780523,0.6460033576,0.1982708585,0.09100566462,0.03239040659,0.02118815473,0.07393189511,0.4121599975,0.3425574418,0.2722747665,0.1506087214,0.07698804045,0.04021908322,0.03803540085,0.04615684914,0.1086793827,0.2361324279,0.3205645015,0.5752990194,0.4223382115,0.4868622705,0.7300763974,0.5289312833,0.4116036829,0.06313976733,0.02238775644,0.0110654209,0.01520753648,0.05017259479,0.1267417905,0.0804470288,0.05854583744,0.0735186833,0.09897496573,0.1177378726,0.1086191205,0.1287339044,0.1299618795,0.1520458579,0.1312784324,0.3480299392,0.1256758105,0.03574076476,0.01752968845,0.03196663488,0.0673569927,0.04003129108,0.05025959384,0.06423310595,0.04748820368,0.03574180366,0.035211768,0.06742877907,0.1895408908,0.09305414036,0.02089387645,0.01541124147,0.01685191276,0.009636720766,0.004966862311,0.02000783779,0.02124201636,0.01812907032,0.03028098077,0.04989887461,0.03672154882,0.0258225228,0.01929780902,0.04053960483,0.1096933263,0.3268758179,0.498383133,0.3466734265,0.3602582155,0.4970501342,0.4539571235,0.6543595136,0.557408959,0.7686125767,0.7356794799,0.6839552629,0.305797275,0.08140838481,0.02402610999,0.1021927529,0.1439845478,0.2520981979,0.356519037,0.3029814429,0.174063937,0.05638725653,0.02507244131,0.01451962891,0.0107097672,0.01290742872,0.04756561051,0.06798245349,0.07762117266,0.08119166522,0.02505046586,0.01443085295,0.03380056054,0.02991430281,0.02010487373,0.007756900841,0.009937493049,0.02356124344,0.03493103784,0.03658821185,0.03774258965,0.03121714591,0.0237091483,0.01399252953,0.0186244758,0.1023674969,0.1664944363,0.07239050002,0.06819330949,0.1412197506,0.4903588859,0.6961157201,0.2375791947,0.07934621455,0.03426622681,0.02047093981,0.04227720627,0.08478428615,0.1315111884,0.1223356558,0.1449207261,0.1041967718,0.0932102751,0.1309678528,0.2315523079,0.2867430461,0.1715902819,0.0884890719,0.04786441073,0.05293438478,0.0939581256,0.08462754151,0.03385191553,0.03722469416,0.0554096275,0.126350831,0.2670533932,0.3877353301,0.3700803596,0.3702674923,0.5089042772,0.3758036016,0.3626317645,0.5424990228,0.4436495347,0.4384794319,0.4706673969,0.3744199471,0.1340158244,0.05109136877,0.04846792573,0.05266036435,0.1000465373,0.1484658639,0.3012359103,0.2074749974,0.1884881462,0.05892637599,0.02284006009,0.006156014312,0.008455942295,0.01558182922,0.02095360125,0.02009629879,0.01282059531,0.006254239153,0.008025552269,0.02297048707,0.05807428765,0.0600475735,0.03045066418,0.02427007688,0.01958074966,0.01146379785,0.009876961017,0.008108541288,0.009797738863,0.008744190968,0.008637129985,0.01915418742,0.05113296011,0.0930657273,0.2170103901,0.3160589017,0.1432428519,0.0964660375,0.1654377306,0.2506045629,0.2880482981,0.06318095248,0.02271730554,0.02968476179,0.01914829902,0.01353396166,0.01215830254,0.006444230565,0.01137621412,0.01592940167,0.009956808896,0.007141171214,0.00961134922,0.01222578726,0.009916702866,0.01268572371,0.05763996533,0.0494678426,0.01508386569,0.007742879191,0.01118132507,0.03023766125,0.04791271695,0.02935101434,0.01905253588,0.02933227783,0.03076065562,0.02740641161,0.01906958923,0.01397493218,0.04441554852,0.08126356183,0.0308364231,0.01551236741,0.01387367859,0.02218026261,0.02315043452,0.02130919241,0.01522099266,0.01126240178,0.01904381583,0.02393682058,0.02061663376,0.01787888375,0.01404236742,0.01716836749,0.02265443173,0.01883155804,0.01380613739,0.01312070441,0.01479416322,0.01413963783,0.01190927874,0.01134540716,0.01103658588,0.009007098861,0.006918637239,0.005988321689,0.004910949157,0.005923285987,0.008994921534,0.01380566929,0.02056431222,0.03998343534,0.2466239039,0.09750471895,0.02824894312,0.0185488672,0.02093562004,0.02345399387,0.03069493024,0.03573007172,0.04580454896,0.0586052138,0.07202080401,0.08573203759,0.07764090924,0.0759309397,0.1511111592,0.3684602735,0.2310205216,0.08164340166,0.05597008517,0.06329053306,0.08339419371,0.07967681029,0.08303631233,0.1219616773,0.3151433158,0.2488379476,0.2843161731,0.5503559641,0.9132861568,0.7301288857,0.4501065343,0.4358216554,0.4474828434,0.4155316212,0.2550280547,0.228477629,0.3025928858,0.5113250647,0.5587096295,0.4739586169,0.4184677081,0.4254623576,0.3340685379,0.345067943,0.3718529754,0.5551348445,0.4438529293,0.3713669158,0.6077828597,0.6721627834,0.5168765154,2.533159566,1,NaN,NaN],
	"ap": [NaN,0.7473100554,0.4632199586,0.5330950441,0.103450308,0.02459796327,0.01293823714,0.07094491493,0.06983810882,0.3193372985,0.105920752,0.04722088927,0.02174172445,0.01965486444,0.03239765332,0.009856783277,0.001535936047,0.00298130468,0.001487934056,0.007553392535,0.00171610806,0.005736378065,0.003152259848,0.01336174969,0.01272782594,0.002933530146,0.04493322734,0.2446597916,0.1164603793,0.1882448676,0.355545236,0.1679649595,0.07268987156,0.1206316149,0.2218171212,0.09832608831,0.08291844963,0.08495666895,0.1485076976,0.7953872773,0.3704706062,0.2314532506,0.03515476846,0.01431537974,0.02113872199,0.1628279058,0.8694009485,0.1145337912,0.1863791032,0.04629665802,0.02412997273,0.01630048534,0.01977371683,0.03062709214,0.02456186076,0.1137127126,0.2335519787,0.3170469542,0.2116766415,0.2328915105,0.7268347857,0.3682552742,0.1444887221,0.03340050801,0.004441901108,0.007101918302,0.004520830926,0.01923606106,0.0882136994,0.0458449719,0.0151835146,0.04800312404,0.06932481999,0.1203915506,0.09656926789,0.100708109,0.09494334063,0.1017361966,0.1427286638,0.2471971185,0.2403951616,0.01647154511,0.01173596405,0.06584532295,0.07823548357,0.01734971077,0.02124479046,0.06318180316,0.01457432028,0.03360426035,0.02359896066,0.06430163789,0.2838694614,0.09014562674,0.01396033087,0.01382094821,0.0132488812,0.008606341035,0.00812763291,0.02983186418,0.01045848887,0.005917158879,0.01438559679,0.0156658936,0.02684785078,0.02589341985,0.006782717708,0.03276093761,0.05229330381,0.2340367627,0.2243776504,0.181958019,0.1257176648,0.2290538331,0.2349771607,0.7065808953,0.5551836856,0.4796215664,0.5592541541,0.2187744253,0.4331783131,0.03855361711,0.02031900334,0.1270568289,0.07308940979,0.1543506896,0.08973709502,0.546867988,0.1254645879,0.02950622392,0.01290022426,0.01306660681,0.002274607592,0.002113775928,0.03020885794,0.0720895812,0.02191651742,0.1124471422,0.00471764919,0.02829933694,0.03150942679,0.01115267834,0.02338775287,0.002671170467,0.003271958723,0.007651258704,0.02394135824,0.03253853843,0.009053645509,0.01641959602,0.01589097147,0.008627911269,0.002662787381,0.03642200569,0.1680756585,0.04553459105,0.02037809712,0.02195856311,0.2486324612,0.5214568924,0.4843628386,0.02587569568,0.01587905589,0.009475366971,0.03038785811,0.01425266629,0.04821535716,0.05288805549,0.09595590583,0.06705898526,0.06471998085,0.0702843185,0.1794468772,0.1633243331,0.18380001,0.08993544096,0.01919045667,0.04743862178,0.102832339,0.0272349998,0.01185465628,0.01324581891,0.05118024661,0.06056883919,0.09255315075,0.1723955149,0.1029881638,0.2146871642,0.3951721506,0.4070258546,0.1030448602,0.1587417981,0.07496962764,0.5664828447,0.3751563957,0.4973452665,0.04660078163,0.04218393583,0.03835211823,0.1044708163,0.05499945196,0.1894565639,0.14357327,0.2596734141,0.1417979399,0.02047351575,0.01140773134,0.001894349805,0.005593354013,0.01038349126,0.01197673269,0.01177839666,0.004517039407,0.004483147922,0.01777828628,0.04989543034,0.05035037433,0.04253156188,0.01823633867,0.01649483465,0.009245405786,0.002971790774,0.01227500528,0.008457872756,0.007059387755,0.005681977135,0.007130200012,0.0142861094,0.02995928906,0.0281025044,0.3477602648,0.1295260867,0.2630543955,0.02532142817,0.1577158638,0.1337051349,0.477669141,0.03321864562,0.03546739442,0.02589368439,0.01291466318,0.01790698911,0.004638946137,0.005301024111,0.008784466222,0.008124549033,0.006825947899,0.00415533499,0.002138742524,0.01277248893,0.004884498281,0.01252268543,0.05932428423,0.05971378355,0.01130304815,0.001488819977,0.005443639755,0.0254066993,0.07028019928,0.02145204012,0.009571139291,0.01688274553,0.0221558829,0.01199650104,0.01653287367,0.006031742807,0.00679516918,0.03808622479,0.01642984031,0.01058873269,0.006442602173,0.01539999696,0.01117955806,0.01518641946,0.01063072502,0.006633546302,0.004067319491,0.02677797807,0.004190064489,0.02038106942,0.01274748301,0.006638747072,0.008976558899,0.0125360991,0.008134695788,0.005168200343,0.006152777323,0.01106076651,0.00532178593,0.005522008365,0.003077147655,0.00442949098,0.001861995312,0.004798527338,0.004142062202,0.002420557805,0.006821297919,0.00651432382,0.008796723772,0.03448123876,0.03109274727,0.02748205543,0.01470797319,0.01170044926,0.0161501012,0.01873781666,0.007968523737,0.03280376598,0.01435668658,0.06070856831,0.05179511597,0.06092701609,0.06375387334,0.03319657809,0.1493588709,0.1689230375,0.1237602583,0.02364589434,0.01783637921,0.03506936783,0.03908598817,0.0325149959,0.07651426085,0.05234485187,0.1759528352,0.1376259864,0.2192269086,0.1986525115,0.3195637569,0.2785370265,0.1452904809,0.3241468044,0.2578737899,0.1127970802,0.09378514137,0.1271711688,0.2266267407,0.3658352607,0.2881421774,0.1544180755,0.2559293632,0.1991342516,0.223626659,0.1539552366,0.1811192917,0.2921601161,0.1734694767,0.1441068831,0.1239015474,0.2581866243,0.5000005266,1,NaN,NaN],
	"pwr": [NaN,5.65368126e-06,2.949911564e-05,0.0001026818084,0.003155112136,0.02587137127,0.0383080667,0.02037451885,0.008416451691,0.006111641555,0.01115575827,0.01290288319,0.007291387298,0.009308912698,0.006804922899,0.007349296576,0.009535029017,0.009992995467,0.0107118902,0.0133649044,0.01644955285,0.01292871729,0.006561211502,0.007446024941,0.002763669812,0.000705048075,0.0004152151642,0.0001483665415,8.827602368e-05,7.545815505e-05,5.651484756e-05,0.0004918099125,0.0004048636545,0.0001542001167,9.504345826e-05,0.0001520959822,0.0002225317684,5.926511894e-05,1.717611338e-05,1.249603861e-05,1.244971472e-05,0.006831436051,0.0234234467,0.04002517917,0.05162763557,0.05262762703,0.05527155482,0.0155849764,0.07879377999,0.08561231562,0.1170495756,0.07552707922,0.0731288998,0.04232039251,0.04135381053,0.009662318538,0.01200794396,0.001923946972,0.005067420721,0.002725838492,0.001095186877,0.002673147217,0.09586008305,0.08286841539,0.1535151951,0.2036575035,0.1801467578,0.06034143399,0.01245776843,0.01222584182,0.008799166244,0.00787650656,0.003580127432,0.002523277538,0.002550805525,0.002779701254,0.006882387556,0.0005250938019,0.0007329541545,0.001699286069,0.001947056335,0.03889208906,0.06753456477,0.07853337805,0.06319355315,0.06699981711,0.04446223355,0.01358963532,0.01975588483,0.009347411998,0.008976213332,0.004943711825,0.003060239547,0.003378612023,0.01010309877,0.01186054381,0.009735779513,0.01403067155,0.01997497419,0.01691813427,0.02557947888,0.03054329939,0.02338264648,0.006071092314,0.002743238111,0.001748721264,0.002276384552,0.001244827422,0.0004760882996,8.465498616e-05,4.059976289e-05,3.227728367e-05,2.150781083e-05,4.210409671e-06,5.004226487e-06,1.88303749e-06,6.538704025e-06,0.0001020591071,0.0001354999434,0.0002093934851,7.706975933e-05,0.01755316895,0.03346880577,0.05684575226,0.04096311718,0.02145176632,0.01587394252,0.002675235948,0.01482080194,0.01752155627,0.01883143619,0.02183764738,0.0335070612,0.02726168599,0.007595950025,0.004060141391,0.01181360648,0.001914801917,0.007882709748,0.006269879593,0.005611539615,0.00611488493,0.006193972629,0.01797963308,0.01532769329,0.007321339843,0.004196475939,0.00221885243,0.00170890089,0.001940766303,0.002111132435,0.005023310888,0.01088720571,0.009177136378,0.001606314655,0.00417899156,0.004259496601,0.002488890549,0.000802657014,0.002994538842,0.002084976655,0.01783359576,0.03832741984,0.02621003484,0.01430898865,0.002402916543,0.001803433252,0.001616403277,0.001310413723,0.002756562285,0.003714886231,0.004079780013,0.001629922812,0.002026286323,0.001644577533,0.00512596381,0.006259099108,0.005207950585,0.00231678271,0.001246997427,0.00200234759,0.001305223119,0.0004781605835,0.0004516823136,0.0004603890517,0.0001838530251,0.0001536883587,9.646778884e-05,6.963704347e-05,7.755735334e-05,0.0001640081618,1.708583205e-05,1.665629858e-05,3.040664524e-06,6.287328944e-06,3.025642414e-06,0.002367092639,0.01374841785,0.03790558796,0.05502480456,0.1187475412,0.09150387752,0.03307377633,0.03893475677,0.0704181031,0.05169810415,0.1256034026,0.1375232892,0.1378285602,0.09370985682,0.04289878237,0.02527123342,0.02613603375,0.02801069788,0.03745601017,0.04133094989,0.04331893359,0.03355302812,0.04261031936,0.05737104903,0.03624953386,0.02991824677,0.04043772107,0.02914674982,0.02285101967,0.01496658889,0.02030639424,0.01728485672,0.01407277119,0.009305590113,0.0006028277463,0.001846957998,0.0004551672185,0.003471617357,0.0003559618973,0.0007796975962,0.0001564738293,0.01171729931,0.04356613724,0.07127160213,0.05543515088,0.04817191953,0.067195527,0.06024239696,0.06319069474,0.03279161527,0.01757243863,0.01557575452,0.01645278789,0.01223385159,0.01143285799,0.009112748043,0.007627504564,0.003151443006,0.01702633061,0.03936353718,0.03164606048,0.01296545386,0.004282838848,0.008970024549,0.01233186355,0.00533634963,0.003792155519,0.002962094656,0.003435844777,0.006089974034,0.003785137103,0.001250994612,0.002936547923,0.004751092426,0.00506790532,0.002841129394,0.001640467405,0.002219907154,0.003910522019,0.003903808344,0.002915868513,0.002635981636,0.002857006041,0.002969475052,0.003143509023,0.002460282539,0.002123427612,0.003415774145,0.004489111841,0.005172970079,0.005078898258,0.004779573091,0.005866925477,0.005720730094,0.005590320716,0.006428980527,0.01103826105,0.01275413,0.01689323711,0.01648798025,0.01191580749,0.006867169315,0.004184202895,0.002326589746,0.0006054356458,0.0004494386182,0.001679659234,0.003269569991,0.003224610215,0.00231825348,0.00116248888,0.0009657911148,0.001089152532,0.0008664730436,0.0003938801448,0.0002648183492,0.0003007667709,0.0004294176075,0.0003418667258,7.345778705e-05,1.878842326e-05,0.0001177944846,0.0001210815048,6.874416934e-05,2.777434834e-05,2.70769169e-05,1.712784007e-05,1.976084604e-06,1.460211151e-07,4.190340102e-07,4.905855546e-07,3.314126337e-07,1.482097085e-07,6.33942933e-08,7.027048009e-08,7.469453286e-08,5.255945489e-08,3.106665483e-08,2.501384949e-08,2.231731732e-08,1.60108491e-08,1.54491816e-08,1.215745205e-08,7.517903145e-09,5.308096785e-09,2.600899222e-09,1.450129987e-09,2.839113036e-09,1.245277281e-09,1.103414789e-09,6.50191957e-10,9.642225569e-10,3.344222827e-10,2.584970138e-10,1.054154489e-10,0,NaN,NaN],
	"sr": 16000,
	"range": [1,113235],
	"minf0": 63.1883,
	"maxf0": 706.3069,
	"thresh": 0.1,
	"relflag": 1,
	"hop": 320,
	"bufsize": 10000,
	"wsize": 640,
	"lpf": 4000,
	"shift": 0,
	"plotthreshold": 0.2
}
