{
    "f0": [
        0.0,
        47.823234689587501,
        45.282071973375508,
        46.126747425183723,
        43.33533663792975,
        44.307367256646558,
        45.227705031121843,
        0.0,
        0.0,
        37.257587232941233,
        36.617940771260237,
        42.725953145794726,
        45.334916648860293,
        45.507184250026391,
        45.635921715119586,
        48.095347104415538,
        48.376731753686421,
        46.01091741829724,
        47.892089070560786,
        47.326369563074834,
        47.962291805625057,
        47.225373119453664,
        44.451109368743111,
        44.31750620799788,
        42.282523520880332,
        41.245579095249944,
        39.391093564257766,
        54.372981008576488,
        54.309578952173069,
        49.193804554920106,
        48.437929134484463,
        49.411007847002324,
        48.884827428514342,
        49.424454608058255,
        49.260255589600753,
        45.834166227617409,
        44.226444882016992,
        41.101642087232165,
        36.566757075370305,
        48.130930163777577,
        44.630172872363616,
        45.421581749090123,
        45.88354295782932,
        45.336797538776807,
        42.795072927096435,
        42.790399811770719,
        42.513243671794207,
        42.972220597270628,
        43.13746800549778,
        42.981713601919111,
        43.733050433913206,
        44.453126939469335,
        44.794689691224754,
        44.9523005456943,
        44.134586533399506,
        44.105141115807932,
        43.837758501849009,
        46.292505369426209,
        46.423004297864573,
        46.663558517605786,
        46.846147569238006,
        46.975552934282575,
        46.779706099396769,
        47.20141477953112,
        47.519773963126326,
        47.709799321633177,
        47.716106682689528,
        47.414190624878387,
        47.437163910793785,
        47.460107844099618,
        47.309025911360493,
        47.394450548119899,
        47.214629074529384,
        47.123063990130404,
        47.158025027633578,
        47.507384994765538,
        46.808383893288962,
        49.097977605160466,
        47.962216867826598,
        47.272773601364698,
        46.454804800733712,
        46.160566087192713,
        46.421143995508686,
        47.362302595572331,
        47.583514712649595,
        46.765188337425428,
        47.365763427616109,
        47.254056383438574,
        47.771670970377826,
        47.32215628948142,
        47.437998278943724,
        47.504306590915419,
        47.263310565668426,
        47.397583078200448,
        47.51728961159769,
        47.468898435718188,
        47.420370660417419,
        47.509936117285818,
        47.470796455901095,
        47.467447044721084,
        47.618429291920513,
        47.528998201371621,
        47.537462600119298,
        47.559260141179109,
        47.558340363716951,
        47.378362084695254,
        47.287199182044787,
        47.195555911909381,
        47.103421737526133,
        47.472031033007447,
        47.451526300574621,
        48.541523323437829,
        46.374548963108282,
        49.602038251918678,
        49.617044476910259,
        49.515974693123411,
        49.572174654841419,
        49.607048486394191,
        49.637612619163548,
        49.646362609262454,
        49.655104450566611,
        49.734527931534998,
        49.862602526020183,
        49.955405835022042,
        50.237062385589645,
        50.246708340928123,
        50.25635240997449,
        50.273689201516177,
        50.172612349152686,
        49.678464817845651,
        48.484990539453115,
        47.029115437686528,
        50.107747948849386,
        48.916889570156208,
        49.766306842644788,
        49.9632953529443,
        49.756973156492165,
        45.850920486886409,
        45.942465791843176,
        46.445309018015053,
        46.637321627110225,
        47.080681498593108,
        46.9288881469176,
        46.887839168264932,
        46.846696871580356,
        46.919774731413916,
        46.685415153311332,
        46.277082306657221,
        46.742884922832033,
        46.759363206375951,
        46.468235984184467,
        46.410264067100343,
        46.912046969126408,
        46.946076686204165,
        46.858132208123095,
        46.858010348705008,
        46.986066190718567,
        47.113186098766114,
        46.889619937671455,
        47.416750451878372,
        46.994960772124003,
        46.917283349745674,
        46.205851695643318,
        47.148984899687491,
        46.973355625423387,
        47.143059448716826,
        47.266372056410006,
        47.411040286168991,
        47.543491993146638,
        47.321030585498335,
        46.699272901832735,
        47.361961101759086,
        47.701385930718018,
        49.613091311945524,
        49.03095092014442,
        45.175878160733184,
        43.887050230588954,
        47.034056110393301,
        42.080458273847746,
        44.058729316916974,
        47.102821979757266,
        50.564382267831839,
        41.940005105983346,
        49.269378402337701,
        37.856481048766938,
        41.950588137466937,
        53.358387533579631,
        42.00792442322831,
        41.601081082441453,
        46.1676344440435,
        45.995728856057063,
        43.608074843873936,
        50.746312416826335,
        0.0,
        43.84915664052955,
        45.200752287565479,
        44.494030929385936,
        0.0,
        40.33858108136571,
        50.430280469105277,
        49.21088790783238,
        49.383147060428755,
        50.364174239651291,
        51.29258054640772,
        52.685459835230475,
        52.501176940767799,
        0.0,
        0.0,
        57.311372886107549,
        45.290230811700752,
        49.721733086505388,
        0.0,
        58.188584391398976,
        48.732782011785744,
        48.383024095604718,
        45.240022851681488,
        0.0,
        0.0,
        42.664860898300994,
        48.15903234370959,
        59.274523564335446,
        49.015391425775462,
        43.308918509634097,
        44.622122679068511,
        45.534241940171235,
        46.198331627739165,
        46.310564349806342,
        49.367923544225732,
        49.870710248815961,
        49.47129816001646,
        49.904196022800946,
        49.937613603209499,
        49.33880817526579,
        49.862684053451297,
        49.023171049733946,
        53.59447648400284,
        53.717203139459073,
        53.839065909848259,
        53.072069253054764,
        52.971899106028907,
        53.200463764259197,
        52.91964822866592,
        52.634199467811392,
        53.531473021106592,
        50.349796794749281,
        51.009632422510251,
        53.178651100461266,
        53.373863064774426,
        53.392413056608461,
        53.148557232985482,
        53.461950891213412,
        53.173589387097628,
        52.903382351491373,
        53.128918018782478,
        53.075032413923743,
        54.220973981464887,
        53.558307734312571,
        53.090560030397242,
        52.839237480251853,
        52.979908773618135,
        52.793689230134902,
        52.336080188618766,
        52.177217012127002,
        51.860553443985538,
        51.090480083853947,
        51.032151164837757,
        50.774850753074766,
        50.875139823805902,
        50.974851272100608,
        52.506028173368421,
        52.560533573925042,
        52.595315212344069,
        52.465793594007572,
        52.533170166085739,
        52.357678531117287,
        52.268923354147475,
        52.478105934803651,
        52.379449120671033,
        52.273436134957549,
        52.170185825846303,
        52.236858065318302,
        52.906885595150349,
        52.914046590888333,
        52.53623016362895,
        52.411987190329192,
        52.327650703164359,
        52.565239392088571,
        52.814851464408449,
        0.0,
        0.0,
        0.0,
        0.0,
        42.085126767065482,
        41.824870686279638,
        54.960701538852042,
        54.786707877545552,
        54.436952357426179,
        54.341274688289978,
        54.2864480697937,
        54.415584662571405,
        54.503474935972591,
        54.558316516402506,
        54.629240774513825,
        54.672800203958502,
        54.575919417743251,
        54.621030745809797,
        54.623070866895475,
        54.452849891016847,
        54.204815378957584,
        54.334667898099667,
        54.503694092785693,
        54.477226692504061,
        54.61480959170639,
        54.366312278793806,
        54.114194598123021,
        54.70302958651714,
        57.862119749562439,
        57.634949386785941,
        57.40475613715482,
        57.268809838790489,
        56.555474008601891,
        56.457514750106206,
        56.420233558900527,
        56.603632887280376,
        56.78030199365719,
        56.955184055833286,
        56.975460866971815,
        57.072222047265285,
        57.050853893115217,
        57.029455797093028,
        56.917948240076157,
        56.670782199607004,
        56.488617205158391,
        56.541079736709499,
        56.593382479372522,
        56.649797146182891,
        56.622713017594904,
        56.595587659380932,
        56.568416103303022,
        56.367206270267232,
        56.424138097793787,
        56.622795212997545,
        56.749188461098392,
        56.559700431683083,
        56.672014478231304,
        56.683596737531786,
        56.71730615278608,
        56.390149779745471,
        56.403005861663274,
        56.316571870848236,
        56.53688699550257,
        56.603145201611042,
        56.217349300769854,
        55.902508980570012,
        56.385930268826186,
        56.329974544054451,
        56.273837376534395,
        56.043524924927283,
        55.010492902262413,
        55.35125072542516,
        55.287567139317609,
        48.742103805196081,
        44.674286805792633,
        48.973467216910421,
        46.994921079959695,
        50.013081506769453,
        49.079503583403991,
        49.798886624984135,
        0.0,
        0.0,
        48.142666793194238,
        50.808675824781858,
        50.980943379138068,
        45.292756293734563,
        0.0,
        0.0,
        44.374915221292063,
        44.025154584500498,
        44.136969543811929,
        44.136969543811929,
        56.823446038904798,
        49.469682529280902,
        57.372074693652209,
        35.938775132607262,
        50.225178877063854,
        45.077753957457354,
        58.514906493852337,
        53.264141797610193,
        42.521221015016806,
        49.677324761842428,
        0.0,
        43.853184290256209,
        45.26310574908139,
        44.025341398071774,
        53.963560261410684,
        54.306394719709083,
        54.46857444751442,
        54.541670014265982,
        54.484122207617922,
        54.146994492561511,
        54.289060321639425,
        55.322393927603883,
        54.993455948179673,
        54.358348558140563,
        44.543303950277583,
        46.046232325129964,
        53.389801041937588,
        52.733645473355836,
        52.64281929926392,
        52.768616461338702,
        52.013742160800135,
        52.432307725045817,
        52.58237613964257,
        52.859839193079381,
        52.672575658833509,
        52.702040999104028,
        52.674985277438509,
        52.508390905852195,
        52.583016203418197,
        52.588340247167011,
        52.80044416161553,
        52.734149386773566,
        53.555166908399571,
        52.737023476820923,
        52.985702685119129,
        53.596765463076878,
        53.483821620549755,
        53.712967276949698,
        56.662116720009685,
        56.498940991194544,
        56.439592368922831,
        56.153254701817467,
        55.977788796361679,
        55.854743096401378,
        55.730815327543382,
        55.886698193227758,
        56.170347157131687,
        56.212004249325538,
        56.458204832539415,
        56.943188195768826,
        56.921165544371178,
        57.11610071190028,
        56.831988730587639,
        56.237657728823592,
        54.915469700577248,
        56.531803753535392,
        56.144673121795606,
        56.710677480070046,
        56.831648003346174,
        56.637856279920385,
        58.111879737003939,
        57.471239711881189,
        57.248872668696563,
        56.972947543712806,
        56.692553383590962,
        56.579809533060548,
        56.656729625626554,
        56.640863659754885,
        56.574542013922148,
        56.655383553362256,
        56.735851746880186,
        56.737541518942635,
        56.428718130657295,
        56.440167913242192,
        56.526500659008235,
        56.40118992585564,
        56.450555307870175,
        56.458597563960119,
        56.137473186576237,
        56.154433643408389,
        55.713863937979802,
        55.447089060447837,
        56.091050652533397,
        48.622332333250142,
        60.599522401193973,
        60.546627028034642,
        60.536457311449119,
        60.499742939144454,
        60.476258055915558,
        60.606720905859277,
        60.559270217822451,
        60.576295721981332,
        60.230574299705353,
        60.159110368413479,
        59.94668514474391,
        60.194281121707874,
        60.109784987667652,
        60.086480130132571,
        60.006591065023358,
        59.745529155245087,
        59.744766828489503,
        59.624768941522028,
        59.564071511783965,
        59.984741623581257,
        60.264701475828375,
        60.312566676023316,
        60.12442534662258,
        60.223151930939309,
        60.158820232758195,
        60.094246549450048,
        60.029431109310821,
        59.964372161621718,
        57.485487255314261,
        57.239082593452437,
        58.375395226747528,
        58.453933685663337,
        34.915509650706817,
        48.399290332363492,
        48.745738782493611,
        48.37866410849616,
        48.321762665200552,
        49.114585909636908,
        49.412046524966243,
        43.921108179850052,
        56.047803351813471,
        43.960876250889726,
        55.360665028886615,
        55.26119420207214,
        55.16114994548721,
        54.88652653632866,
        54.868370279417249,
        55.39910453601405,
        55.515515085399969,
        55.830234516970393,
        56.156861925803966,
        56.47744209567928,
        56.728808121712177,
        56.83385339420812,
        56.874918398223059,
        56.855674919947617,
        57.027173281284206,
        57.102493536393041,
        57.177485180342607,
        57.252153306928818,
        57.154319975420798,
        57.169063787332604,
        57.16376911362542,
        57.170583311284702,
        57.186581957479497,
        57.099060240471076,
        57.06939025824564,
        57.182762502171002,
        57.123711048250755,
        57.297455674768678,
        57.211086002520148,
        57.553739258776098,
        57.222501834464865,
        56.791818189439013,
        57.091835609162843,
        57.386742340480922,
        57.502716359455647,
        56.642554132413892,
        57.300628051047241,
        57.510211078463492,
        0.0,
        0.0,
        0.0,
        0.0,
        0.0,
        0.0,
        0.0,
        0.0,
        0.0,
        0.0,
        0.0,
        0.0,
        0.0,
        0.0,
        0.0,
        0.0,
        0.0,
        0.0,
        0.0,
        0.0,
        0.0,
        0.0,
        0.0,
        0.0,
        0.0,
        0.0,
        0.0,
        0.0,
        0.0,
        0.0
    ],
    "time": [
        0.02,
        0.040000000000000001,
        0.059999999999999998,
        0.080000000000000002,
        0.10000000000000001,
        0.12,
        0.14000000000000001,
        0.16,
        0.17999999999999999,
        0.20000000000000001,
        0.22,
        0.23999999999999999,
        0.26000000000000001,
        0.28000000000000003,
        0.29999999999999999,
        0.32000000000000001,
        0.34000000000000002,
        0.35999999999999999,
        0.38,
        0.40000000000000002,
        0.41999999999999998,
        0.44,
        0.46000000000000002,
        0.47999999999999998,
        0.5,
        0.52000000000000002,
        0.54000000000000004,
        0.56000000000000005,
        0.57999999999999996,
        0.59999999999999998,
        0.62,
        0.64000000000000001,
        0.66000000000000003,
        0.68000000000000005,
        0.69999999999999996,
        0.71999999999999997,
        0.73999999999999999,
        0.76000000000000001,
        0.78000000000000003,
        0.80000000000000004,
        0.81999999999999995,
        0.83999999999999997,
        0.85999999999999999,
        0.88,
        0.90000000000000002,
        0.92000000000000004,
        0.93999999999999995,
        0.95999999999999996,
        0.97999999999999998,
        1.0,
        1.02,
        1.04,
        1.0600000000000001,
        1.0800000000000001,
        1.1000000000000001,
        1.1200000000000001,
        1.1399999999999999,
        1.1599999999999999,
        1.1799999999999999,
        1.2,
        1.22,
        1.24,
        1.26,
        1.28,
        1.3,
        1.3200000000000001,
        1.3400000000000001,
        1.3600000000000001,
        1.3799999999999999,
        1.3999999999999999,
        1.4199999999999999,
        1.4399999999999999,
        1.46,
        1.48,
        1.5,
        1.52,
        1.54,
        1.5600000000000001,
        1.5800000000000001,
        1.6000000000000001,
        1.6200000000000001,
        1.6399999999999999,
        1.6599999999999999,
        1.6799999999999999,
        1.7,
        1.72,
        1.74,
        1.76,
        1.78,
        1.8,
        1.8200000000000001,
        1.8400000000000001,
        1.8600000000000001,
        1.8799999999999999,
        1.8999999999999999,
        1.9199999999999999,
        1.9399999999999999,
        1.96,
        1.98,
        2.0,
        2.02,
        2.04,
        2.0600000000000001,
        2.0800000000000001,
        2.1000000000000001,
        2.1200000000000001,
        2.1400000000000001,
        2.1600000000000001,
        2.1800000000000002,
        2.2000000000000002,
        2.2200000000000002,
        2.2400000000000002,
        2.2599999999999998,
        2.2799999999999998,
        2.2999999999999998,
        2.3199999999999998,
        2.3399999999999999,
        2.3599999999999999,
        2.3799999999999999,
        2.3999999999999999,
        2.4199999999999999,
        2.4399999999999999,
        2.46,
        2.48,
        2.5,
        2.52,
        2.54,
        2.5600000000000001,
        2.5800000000000001,
        2.6000000000000001,
        2.6200000000000001,
        2.6400000000000001,
        2.6600000000000001,
        2.6800000000000002,
        2.7000000000000002,
        2.7200000000000002,
        2.7400000000000002,
        2.7599999999999998,
        2.7799999999999998,
        2.7999999999999998,
        2.8199999999999998,
        2.8399999999999999,
        2.8599999999999999,
        2.8799999999999999,
        2.8999999999999999,
        2.9199999999999999,
        2.9399999999999999,
        2.96,
        2.98,
        3.0,
        3.02,
        3.04,
        3.0600000000000001,
        3.0800000000000001,
        3.1000000000000001,
        3.1200000000000001,
        3.1400000000000001,
        3.1600000000000001,
        3.1800000000000002,
        3.2000000000000002,
        3.2200000000000002,
        3.2400000000000002,
        3.2599999999999998,
        3.2799999999999998,
        3.2999999999999998,
        3.3199999999999998,
        3.3399999999999999,
        3.3599999999999999,
        3.3799999999999999,
        3.3999999999999999,
        3.4199999999999999,
        3.4399999999999999,
        3.46,
        3.48,
        3.5,
        3.52,
        3.54,
        3.5600000000000001,
        3.5800000000000001,
        3.6000000000000001,
        3.6200000000000001,
        3.6400000000000001,
        3.6600000000000001,
        3.6800000000000002,
        3.7000000000000002,
        3.7200000000000002,
        3.7400000000000002,
        3.7599999999999998,
        3.7799999999999998,
        3.7999999999999998,
        3.8199999999999998,
        3.8399999999999999,
        3.8599999999999999,
        3.8799999999999999,
        3.8999999999999999,
        3.9199999999999999,
        3.9399999999999999,
        3.96,
        3.98,
        4.0,
        4.0199999999999996,
        4.04,
        4.0599999999999996,
        4.0800000000000001,
        4.0999999999999996,
        4.1200000000000001,
        4.1399999999999997,
        4.1600000000000001,
        4.1799999999999997,
        4.2000000000000002,
        4.2199999999999998,
        4.2400000000000002,
        4.2599999999999998,
        4.2800000000000002,
        4.2999999999999998,
        4.3200000000000003,
        4.3399999999999999,
        4.3600000000000003,
        4.3799999999999999,
        4.4000000000000004,
        4.4199999999999999,
        4.4400000000000004,
        4.46,
        4.4800000000000004,
        4.5,
        4.5199999999999996,
        4.54,
        4.5599999999999996,
        4.5800000000000001,
        4.5999999999999996,
        4.6200000000000001,
        4.6399999999999997,
        4.6600000000000001,
        4.6799999999999997,
        4.7000000000000002,
        4.7199999999999998,
        4.7400000000000002,
        4.7599999999999998,
        4.7800000000000002,
        4.7999999999999998,
        4.8200000000000003,
        4.8399999999999999,
        4.8600000000000003,
        4.8799999999999999,
        4.9000000000000004,
        4.9199999999999999,
        4.9400000000000004,
        4.96,
        4.9800000000000004,
        5.0,
        5.0199999999999996,
        5.04,
        5.0599999999999996,
        5.0800000000000001,
        5.0999999999999996,
        5.1200000000000001,
        5.1399999999999997,
        5.1600000000000001,
        5.1799999999999997,
        5.2000000000000002,
        5.2199999999999998,
        5.2400000000000002,
        5.2599999999999998,
        5.2800000000000002,
        5.2999999999999998,
        5.3200000000000003,
        5.3399999999999999,
        5.3600000000000003,
        5.3799999999999999,
        5.4000000000000004,
        5.4199999999999999,
        5.4400000000000004,
        5.46,
        5.4800000000000004,
        5.5,
        5.5199999999999996,
        5.54,
        5.5599999999999996,
        5.5800000000000001,
        5.5999999999999996,
        5.6200000000000001,
        5.6399999999999997,
        5.6600000000000001,
        5.6799999999999997,
        5.7000000000000002,
        5.7199999999999998,
        5.7400000000000002,
        5.7599999999999998,
        5.7800000000000002,
        5.7999999999999998,
        5.8200000000000003,
        5.8399999999999999,
        5.8600000000000003,
        5.8799999999999999,
        5.9000000000000004,
        5.9199999999999999,
        5.9400000000000004,
        5.96,
        5.9800000000000004,
        6.0,
        6.0199999999999996,
        6.04,
        6.0599999999999996,
        6.0800000000000001,
        6.0999999999999996,
        6.1200000000000001,
        6.1399999999999997,
        6.1600000000000001,
        6.1799999999999997,
        6.2000000000000002,
        6.2199999999999998,
        6.2400000000000002,
        6.2599999999999998,
        6.2800000000000002,
        6.2999999999999998,
        6.3200000000000003,
        6.3399999999999999,
        6.3600000000000003,
        6.3799999999999999,
        6.4000000000000004,
        6.4199999999999999,
        6.4400000000000004,
        6.46,
        6.4800000000000004,
        6.5,
        6.5199999999999996,
        6.54,
        6.5599999999999996,
        6.5800000000000001,
        6.5999999999999996,
        6.6200000000000001,
        6.6399999999999997,
        6.6600000000000001,
        6.6799999999999997,
        6.7000000000000002,
        6.7199999999999998,
        6.7400000000000002,
        6.7599999999999998,
        6.7800000000000002,
        6.7999999999999998,
        6.8200000000000003,
        6.8399999999999999,
        6.8600000000000003,
        6.8799999999999999,
        6.9000000000000004,
        6.9199999999999999,
        6.9400000000000004,
        6.96,
        6.9800000000000004,
        7.0,
        7.0199999999999996,
        7.04,
        7.0599999999999996,
        7.0800000000000001,
        7.0999999999999996,
        7.1200000000000001,
        7.1399999999999997,
        7.1600000000000001,
        7.1799999999999997,
        7.2000000000000002,
        7.2199999999999998,
        7.2400000000000002,
        7.2599999999999998,
        7.2800000000000002,
        7.2999999999999998,
        7.3200000000000003,
        7.3399999999999999,
        7.3600000000000003,
        7.3799999999999999,
        7.4000000000000004,
        7.4199999999999999,
        7.4400000000000004,
        7.46,
        7.4800000000000004,
        7.5,
        7.5199999999999996,
        7.54,
        7.5599999999999996,
        7.5800000000000001,
        7.5999999999999996,
        7.6200000000000001,
        7.6399999999999997,
        7.6600000000000001,
        7.6799999999999997,
        7.7000000000000002,
        7.7199999999999998,
        7.7400000000000002,
        7.7599999999999998,
        7.7800000000000002,
        7.7999999999999998,
        7.8200000000000003,
        7.8399999999999999,
        7.8600000000000003,
        7.8799999999999999,
        7.9000000000000004,
        7.9199999999999999,
        7.9400000000000004,
        7.96,
        7.9800000000000004,
        8.0,
        8.0199999999999996,
        8.0399999999999991,
        8.0600000000000005,
        8.0800000000000001,
        8.0999999999999996,
        8.1199999999999992,
        8.1400000000000006,
        8.1600000000000001,
        8.1799999999999997,
        8.1999999999999993,
        8.2200000000000006,
        8.2400000000000002,
        8.2599999999999998,
        8.2799999999999994,
        8.3000000000000007,
        8.3200000000000003,
        8.3399999999999999,
        8.3599999999999994,
        8.3800000000000008,
        8.4000000000000004,
        8.4199999999999999,
        8.4399999999999995,
        8.4600000000000009,
        8.4800000000000004,
        8.5,
        8.5199999999999996,
        8.5399999999999991,
        8.5600000000000005,
        8.5800000000000001,
        8.5999999999999996,
        8.6199999999999992,
        8.6400000000000006,
        8.6600000000000001,
        8.6799999999999997,
        8.6999999999999993,
        8.7200000000000006,
        8.7400000000000002,
        8.7599999999999998,
        8.7799999999999994,
        8.8000000000000007,
        8.8200000000000003,
        8.8399999999999999,
        8.8599999999999994,
        8.8800000000000008,
        8.9000000000000004,
        8.9199999999999999,
        8.9399999999999995,
        8.9600000000000009,
        8.9800000000000004,
        9.0,
        9.0199999999999996,
        9.0399999999999991,
        9.0600000000000005,
        9.0800000000000001,
        9.0999999999999996,
        9.1199999999999992,
        9.1400000000000006,
        9.1600000000000001,
        9.1799999999999997,
        9.1999999999999993,
        9.2200000000000006,
        9.2400000000000002,
        9.2599999999999998,
        9.2799999999999994,
        9.3000000000000007,
        9.3200000000000003,
        9.3399999999999999,
        9.3599999999999994,
        9.3800000000000008,
        9.4000000000000004,
        9.4199999999999999,
        9.4399999999999995,
        9.4600000000000009,
        9.4800000000000004,
        9.5,
        9.5199999999999996,
        9.5399999999999991,
        9.5600000000000005,
        9.5800000000000001,
        9.5999999999999996,
        9.6199999999999992,
        9.6400000000000006,
        9.6600000000000001,
        9.6799999999999997,
        9.6999999999999993,
        9.7200000000000006,
        9.7400000000000002,
        9.7599999999999998,
        9.7799999999999994,
        9.8000000000000007,
        9.8200000000000003,
        9.8399999999999999,
        9.8599999999999994,
        9.8800000000000008,
        9.9000000000000004,
        9.9199999999999999,
        9.9399999999999995,
        9.9600000000000009,
        9.9800000000000004,
        10.0,
        10.02,
        10.039999999999999,
        10.06,
        10.08,
        10.1,
        10.119999999999999,
        10.140000000000001,
        10.16,
        10.18,
        10.199999999999999,
        10.220000000000001,
        10.24,
        10.26,
        10.279999999999999,
        10.300000000000001,
        10.32,
        10.34,
        10.359999999999999,
        10.380000000000001,
        10.4,
        10.42,
        10.44,
        10.460000000000001,
        10.48,
        10.5,
        10.52,
        10.539999999999999,
        10.56,
        10.58,
        10.6,
        10.619999999999999,
        10.640000000000001,
        10.66,
        10.68,
        10.699999999999999,
        10.720000000000001,
        10.74,
        10.76,
        10.779999999999999,
        10.800000000000001,
        10.82,
        10.84,
        10.859999999999999,
        10.880000000000001,
        10.9,
        10.92,
        10.94,
        10.960000000000001,
        10.98,
        11.0,
        11.02,
        11.039999999999999,
        11.06,
        11.08,
        11.1,
        11.119999999999999,
        11.140000000000001,
        11.16,
        11.18,
        11.199999999999999,
        11.220000000000001,
        11.24,
        11.26,
        11.279999999999999,
        11.300000000000001,
        11.32,
        11.34,
        11.359999999999999,
        11.380000000000001,
        11.4,
        11.42,
        11.44,
        11.460000000000001,
        11.48,
        11.5,
        11.52,
        11.539999999999999,
        11.56,
        11.58,
        11.6,
        11.619999999999999,
        11.640000000000001,
        11.66,
        11.68
    ]
}