{
    "DU": 27,
    "DV": 500,
    "F-measure": 0.014690451206715636,
    "F-measure Chroma": 0.06295907660020986,
    "FN": 20,
    "FNC": 0,
    "FNCch": 0,
    "FNI": 20,
    "FNIch": 20,
    "FP": 81,
    "GU": 88,
    "GV": 439,
    "Overall Accuracy": 0.013282732447817837,
    "Overall Chroma Accuracy": 0.056925996204933584,
    "Precision": 0.013806706114398421,
    "Precision Chroma": 0.05917159763313609,
    "Raw Chroma Accuracy": 0.05239179954441914,
    "Raw Pitch Accuracy": 0.0,
    "Recall": 0.01569506726457399,
    "Recall Chroma": 0.06726457399103139,
    "TN": 7,
    "TO": 527,
    "TP": 419,
    "TPC": 0,
    "TPCch": 23,
    "TPI": 419,
    "TPIch": 396,
    "Voiced Chroma Accuracy": 0.05239179954441914,
    "Voiced Pitch Accuracy": 0.0,
    "Voicing Accuracy": 0.8083491461100569,
    "Voicing Detection": 0.9544419134396356,
    "Voicing False Alarm": 0.9204545454545454
}