{
    "DU": 32,
    "DV": 495,
    "F-measure": 0.8517034068136272,
    "F-measure Chroma": 0.8837675350701402,
    "FN": 0,
    "FNC": 0,
    "FNCch": 0,
    "FNI": 0,
    "FNIch": 0,
    "FP": 56,
    "GU": 88,
    "GV": 439,
    "Overall Accuracy": 0.8064516129032258,
    "Overall Chroma Accuracy": 0.8368121442125237,
    "Precision": 0.8064516129032258,
    "Precision Chroma": 0.8368121442125237,
    "Raw Chroma Accuracy": 0.9316628701594533,
    "Raw Pitch Accuracy": 0.8952164009111617,
    "Recall": 0.9023354564755839,
    "Recall Chroma": 0.9363057324840764,
    "TN": 32,
    "TO": 527,
    "TP": 439,
    "TPC": 393,
    "TPCch": 409,
    "TPI": 46,
    "TPIch": 30,
    "Voiced Chroma Accuracy": 0.9316628701594533,
    "Voiced Pitch Accuracy": 0.8952164009111617,
    "Voicing Accuracy": 0.8937381404174574,
    "Voicing Detection": 1.0,
    "Voicing False Alarm": 0.6363636363636364
}