{
    "f0": [
        0.0,
        0.0,
        0.0,
        0.0,
        0.0,
        0.0,
        0.0,
        0.0,
        0.0,
        0.0,
        0.0,
        0.0,
        0.0,
        0.0,
        0.0,
        0.0,
        0.0,
        0.0,
        0.0,
        56.529108016008102,
        63.264584433693877,
        45.986285281857718,
        61.182503002971274,
        67.067192702337167,
        53.04796404858358,
        41.611690671328297,
        45.565750812106863,
        45.245334526102447,
        45.677971438519577,
        0.0,
        0.0,
        0.0,
        43.52222123072562,
        51.7597074766188,
        53.676373396739095,
        54.356705027471079,
        55.869120709631261,
        57.259961915502473,
        57.840602606792679,
        58.675208146674905,
        59.167694008811523,
        58.732942076333671,
        59.019614456271256,
        58.804888726901808,
        50.318291386016114,
        44.491885707439266,
        44.315861138366039,
        44.204778136422348,
        44.09297528776132,
        43.453124530651124,
        42.239642803946325,
        41.538371574778964,
        41.926434432080114,
        42.167598679810716,
        42.518714220127336,
        44.086262683560506,
        44.119878198877508,
        62.921586949121185,
        62.970752390661069,
        63.531515719186757,
        64.074682304858143,
        64.60132437536268,
        64.938426957010634,
        65.180666344738924,
        65.289229178586979,
        65.112244973319505,
        65.106727783778609,
        65.014750526429339,
        64.791799921688082,
        64.632156660379806,
        64.437643898101982,
        64.083816482475058,
        64.145820502592827,
        63.865647232307921,
        64.860272330648414,
        65.03195872157562,
        64.884513799668653,
        64.866361046893104,
        64.848189240174776,
        64.841324690466777,
        64.915468043089604,
        64.93354815571827,
        64.918093335259243,
        64.895387514375912,
        64.813733610189601,
        64.761316888391605,
        64.866158269059184,
        64.819033069277538,
        64.988172001123019,
        64.900978489568431,
        65.074943567938192,
        64.996871630679763,
        64.641898792498978,
        64.593510909662825,
        64.731079667128199,
        64.663154670995539,
        64.594962070190363,
        64.509698267641568,
        64.432453051603602,
        64.522884529299262,
        64.491844441290155,
        49.023797280449536,
        41.204456218084616,
        52.867690459291616,
        65.466560774839039,
        65.926080264325122,
        66.087135817302979,
        66.094302126901297,
        66.055888971304867,
        66.083185610615729,
        66.078343225617928,
        66.073502374531643,
        66.068658724701109,
        65.889823897087837,
        65.93132954102623,
        65.747400547643863,
        65.495744243292307,
        65.785501655292506,
        65.8598698162739,
        65.511779053032214,
        62.940177274720654,
        61.444433458584996,
        60.143129472423595,
        58.027268496023794,
        57.450366919844186,
        56.853575238643671,
        55.347467761702504,
        55.765260395845168,
        56.656097661384614,
        57.510297418334368,
        57.971243078688218,
        58.509812080477701,
        58.461410752878336,
        58.412871478526959,
        58.536460391415019,
        58.659173209334448,
        58.607032551671466,
        58.909143605407714,
        58.841367775954602,
        58.861105552438843,
        58.946101440837751,
        58.950814865658529,
        58.938428271108513,
        58.95886104741269,
        58.949013520205469,
        58.892871955100851,
        58.824236951812047,
        58.771869869814665,
        58.738265572163328,
        58.912909216654839,
        59.14316346539055,
        58.905579483590991,
        58.797780447055004,
        58.920218592209693,
        59.06850042171358,
        58.854300789199613,
        58.637415626075807,
        58.929516486385005,
        58.645765966488113,
        58.901150638905847,
        58.306163276120643,
        57.881613376457253,
        56.460400100695452,
        56.466834264169876,
        37.101487467238663,
        48.905643431348082,
        43.908139770178302,
        48.493443942854299,
        46.66798973902317,
        46.479187491504135,
        46.557793158761712,
        46.393430072840168,
        46.944313530776668,
        46.49073928736361,
        46.425166474181808,
        0.0,
        0.0,
        0.0,
        0.0,
        0.0,
        0.0,
        0.0,
        0.0,
        0.0,
        0.0,
        0.0,
        0.0,
        0.0,
        0.0,
        0.0,
        0.0,
        0.0,
        0.0,
        0.0,
        0.0,
        0.0,
        0.0,
        0.0,
        0.0,
        0.0,
        0.0,
        54.540777331979626,
        42.308309539853319,
        44.608540299982266,
        41.52047058055512,
        41.616685717593434,
        41.405316520775969,
        41.193890114111824,
        41.301146798410528,
        41.791922552268609,
        41.773792916877397,
        42.698072245112513,
        43.575496664509473,
        45.089590034542326,
        0.0,
        53.595338945926194,
        0.0,
        0.0,
        0.0,
        0.0,
        0.0,
        0.0,
        0.0,
        46.51053067336813,
        46.336531668785035,
        65.29795287458289,
        65.392665978578819,
        65.631711923837969,
        65.796209876252618,
        65.820509656331978,
        65.861058864216432,
        65.893385995726476,
        65.925652922642641,
        66.009826804435249,
        65.990294048031373,
        65.976795737399726,
        0.0,
        0.0,
        0.0,
        0.0,
        0.0,
        0.0,
        0.0,
        0.0,
        48.361316471679537,
        59.655290435518268,
        59.481296351937353,
        58.774573040723062,
        58.600580446359231,
        58.424822509648408,
        58.241140400457837,
        58.05549074689732,
        58.026284008773111,
        58.055409378838988,
        58.136091054581932,
        58.533563783530369,
        58.518321063346292,
        58.581407922110714,
        58.720411595260771,
        58.820579580397975,
        58.401035134152373,
        58.795966370132206,
        58.511872077536417,
        58.907405723376968,
        57.288043795443954,
        57.805873956816271,
        57.993007843138429,
        61.201504311565607,
        61.108105086486283,
        61.269277121552363,
        62.209489319855017,
        62.385216679453741,
        62.743324181701652,
        62.796352016937668,
        62.47099435356327,
        62.823195483730821,
        62.779238784607408,
        62.872871631950268,
        62.401484421430602,
        61.663339304465168,
        60.608850020069141,
        60.044268454126779,
        60.206749157008531,
        60.367721113373747,
        60.502414920401087,
        60.594561122618913,
        60.683785362936362,
        60.616483097978467,
        60.543832713307452,
        60.4887740780255,
        60.417230774962349,
        60.371212095659018,
        60.421584936181738,
        60.707432591832223,
        61.012734674850314,
        60.869431768436748,
        60.62248228274818,
        60.596272280580848,
        61.137062259092474,
        60.29506729647612,
        60.467574238463726,
        60.792446482568792,
        60.508559651662864,
        60.232232169685673,
        36.859753661939443,
        37.229591164002812,
        36.194149337606149,
        36.860003258435157,
        37.014151563722436,
        36.522028191753151,
        0.0,
        0.0,
        60.229318859185241,
        41.345938460631878,
        0.0,
        0.0,
        0.0,
        0.0,
        0.0,
        0.0,
        0.0,
        0.0,
        0.0,
        0.0,
        0.0,
        0.0,
        0.0,
        0.0,
        0.0,
        0.0,
        0.0,
        0.0,
        0.0,
        0.0,
        0.0,
        0.0,
        0.0,
        0.0,
        0.0,
        0.0,
        0.0,
        0.0,
        0.0,
        0.0
    ],
    "time": [
        0.02,
        0.040000000000000001,
        0.059999999999999998,
        0.080000000000000002,
        0.10000000000000001,
        0.12,
        0.14000000000000001,
        0.16,
        0.17999999999999999,
        0.20000000000000001,
        0.22,
        0.23999999999999999,
        0.26000000000000001,
        0.28000000000000003,
        0.29999999999999999,
        0.32000000000000001,
        0.34000000000000002,
        0.35999999999999999,
        0.38,
        0.40000000000000002,
        0.41999999999999998,
        0.44,
        0.46000000000000002,
        0.47999999999999998,
        0.5,
        0.52000000000000002,
        0.54000000000000004,
        0.56000000000000005,
        0.57999999999999996,
        0.59999999999999998,
        0.62,
        0.64000000000000001,
        0.66000000000000003,
        0.68000000000000005,
        0.69999999999999996,
        0.71999999999999997,
        0.73999999999999999,
        0.76000000000000001,
        0.78000000000000003,
        0.80000000000000004,
        0.81999999999999995,
        0.83999999999999997,
        0.85999999999999999,
        0.88,
        0.90000000000000002,
        0.92000000000000004,
        0.93999999999999995,
        0.95999999999999996,
        0.97999999999999998,
        1.0,
        1.02,
        1.04,
        1.0600000000000001,
        1.0800000000000001,
        1.1000000000000001,
        1.1200000000000001,
        1.1399999999999999,
        1.1599999999999999,
        1.1799999999999999,
        1.2,
        1.22,
        1.24,
        1.26,
        1.28,
        1.3,
        1.3200000000000001,
        1.3400000000000001,
        1.3600000000000001,
        1.3799999999999999,
        1.3999999999999999,
        1.4199999999999999,
        1.4399999999999999,
        1.46,
        1.48,
        1.5,
        1.52,
        1.54,
        1.5600000000000001,
        1.5800000000000001,
        1.6000000000000001,
        1.6200000000000001,
        1.6399999999999999,
        1.6599999999999999,
        1.6799999999999999,
        1.7,
        1.72,
        1.74,
        1.76,
        1.78,
        1.8,
        1.8200000000000001,
        1.8400000000000001,
        1.8600000000000001,
        1.8799999999999999,
        1.8999999999999999,
        1.9199999999999999,
        1.9399999999999999,
        1.96,
        1.98,
        2.0,
        2.02,
        2.04,
        2.0600000000000001,
        2.0800000000000001,
        2.1000000000000001,
        2.1200000000000001,
        2.1400000000000001,
        2.1600000000000001,
        2.1800000000000002,
        2.2000000000000002,
        2.2200000000000002,
        2.2400000000000002,
        2.2599999999999998,
        2.2799999999999998,
        2.2999999999999998,
        2.3199999999999998,
        2.3399999999999999,
        2.3599999999999999,
        2.3799999999999999,
        2.3999999999999999,
        2.4199999999999999,
        2.4399999999999999,
        2.46,
        2.48,
        2.5,
        2.52,
        2.54,
        2.5600000000000001,
        2.5800000000000001,
        2.6000000000000001,
        2.6200000000000001,
        2.6400000000000001,
        2.6600000000000001,
        2.6800000000000002,
        2.7000000000000002,
        2.7200000000000002,
        2.7400000000000002,
        2.7599999999999998,
        2.7799999999999998,
        2.7999999999999998,
        2.8199999999999998,
        2.8399999999999999,
        2.8599999999999999,
        2.8799999999999999,
        2.8999999999999999,
        2.9199999999999999,
        2.9399999999999999,
        2.96,
        2.98,
        3.0,
        3.02,
        3.04,
        3.0600000000000001,
        3.0800000000000001,
        3.1000000000000001,
        3.1200000000000001,
        3.1400000000000001,
        3.1600000000000001,
        3.1800000000000002,
        3.2000000000000002,
        3.2200000000000002,
        3.2400000000000002,
        3.2599999999999998,
        3.2799999999999998,
        3.2999999999999998,
        3.3199999999999998,
        3.3399999999999999,
        3.3599999999999999,
        3.3799999999999999,
        3.3999999999999999,
        3.4199999999999999,
        3.4399999999999999,
        3.46,
        3.48,
        3.5,
        3.52,
        3.54,
        3.5600000000000001,
        3.5800000000000001,
        3.6000000000000001,
        3.6200000000000001,
        3.6400000000000001,
        3.6600000000000001,
        3.6800000000000002,
        3.7000000000000002,
        3.7200000000000002,
        3.7400000000000002,
        3.7599999999999998,
        3.7799999999999998,
        3.7999999999999998,
        3.8199999999999998,
        3.8399999999999999,
        3.8599999999999999,
        3.8799999999999999,
        3.8999999999999999,
        3.9199999999999999,
        3.9399999999999999,
        3.96,
        3.98,
        4.0,
        4.0199999999999996,
        4.04,
        4.0599999999999996,
        4.0800000000000001,
        4.0999999999999996,
        4.1200000000000001,
        4.1399999999999997,
        4.1600000000000001,
        4.1799999999999997,
        4.2000000000000002,
        4.2199999999999998,
        4.2400000000000002,
        4.2599999999999998,
        4.2800000000000002,
        4.2999999999999998,
        4.3200000000000003,
        4.3399999999999999,
        4.3600000000000003,
        4.3799999999999999,
        4.4000000000000004,
        4.4199999999999999,
        4.4400000000000004,
        4.46,
        4.4800000000000004,
        4.5,
        4.5199999999999996,
        4.54,
        4.5599999999999996,
        4.5800000000000001,
        4.5999999999999996,
        4.6200000000000001,
        4.6399999999999997,
        4.6600000000000001,
        4.6799999999999997,
        4.7000000000000002,
        4.7199999999999998,
        4.7400000000000002,
        4.7599999999999998,
        4.7800000000000002,
        4.7999999999999998,
        4.8200000000000003,
        4.8399999999999999,
        4.8600000000000003,
        4.8799999999999999,
        4.9000000000000004,
        4.9199999999999999,
        4.9400000000000004,
        4.96,
        4.9800000000000004,
        5.0,
        5.0199999999999996,
        5.04,
        5.0599999999999996,
        5.0800000000000001,
        5.0999999999999996,
        5.1200000000000001,
        5.1399999999999997,
        5.1600000000000001,
        5.1799999999999997,
        5.2000000000000002,
        5.2199999999999998,
        5.2400000000000002,
        5.2599999999999998,
        5.2800000000000002,
        5.2999999999999998,
        5.3200000000000003,
        5.3399999999999999,
        5.3600000000000003,
        5.3799999999999999,
        5.4000000000000004,
        5.4199999999999999,
        5.4400000000000004,
        5.46,
        5.4800000000000004,
        5.5,
        5.5199999999999996,
        5.54,
        5.5599999999999996,
        5.5800000000000001,
        5.5999999999999996,
        5.6200000000000001,
        5.6399999999999997,
        5.6600000000000001,
        5.6799999999999997,
        5.7000000000000002,
        5.7199999999999998,
        5.7400000000000002,
        5.7599999999999998,
        5.7800000000000002,
        5.7999999999999998,
        5.8200000000000003,
        5.8399999999999999,
        5.8600000000000003,
        5.8799999999999999,
        5.9000000000000004,
        5.9199999999999999,
        5.9400000000000004,
        5.96,
        5.9800000000000004,
        6.0,
        6.0199999999999996,
        6.04,
        6.0599999999999996,
        6.0800000000000001,
        6.0999999999999996,
        6.1200000000000001,
        6.1399999999999997,
        6.1600000000000001,
        6.1799999999999997,
        6.2000000000000002,
        6.2199999999999998,
        6.2400000000000002,
        6.2599999999999998,
        6.2800000000000002,
        6.2999999999999998,
        6.3200000000000003,
        6.3399999999999999,
        6.3600000000000003,
        6.3799999999999999,
        6.4000000000000004,
        6.4199999999999999,
        6.4400000000000004,
        6.46,
        6.4800000000000004,
        6.5,
        6.5199999999999996,
        6.54,
        6.5599999999999996,
        6.5800000000000001,
        6.5999999999999996,
        6.6200000000000001,
        6.6399999999999997,
        6.6600000000000001,
        6.6799999999999997,
        6.7000000000000002,
        6.7199999999999998,
        6.7400000000000002,
        6.7599999999999998,
        6.7800000000000002,
        6.7999999999999998,
        6.8200000000000003,
        6.8399999999999999,
        6.8600000000000003,
        6.8799999999999999
    ]
}