{
    "DU": 69,
    "DV": 429,
    "F-measure": 0.1381509032943677,
    "F-measure Chroma": 0.28480340063761955,
    "FN": 4,
    "FNC": 0,
    "FNCch": 1,
    "FNI": 4,
    "FNIch": 3,
    "FP": 51,
    "GU": 116,
    "GV": 382,
    "Overall Accuracy": 0.13052208835341367,
    "Overall Chroma Accuracy": 0.26907630522088355,
    "Precision": 0.13157894736842105,
    "Precision Chroma": 0.27125506072874495,
    "Raw Chroma Accuracy": 0.18324607329842932,
    "Raw Pitch Accuracy": 0.0,
    "Recall": 0.14541387024608501,
    "Recall Chroma": 0.29977628635346754,
    "TN": 65,
    "TO": 498,
    "TP": 378,
    "TPC": 0,
    "TPCch": 69,
    "TPI": 378,
    "TPIch": 309,
    "Voiced Chroma Accuracy": 0.1806282722513089,
    "Voiced Pitch Accuracy": 0.0,
    "Voicing Accuracy": 0.8895582329317269,
    "Voicing Detection": 0.9895287958115183,
    "Voicing False Alarm": 0.4396551724137931
}