{
    "f0": [
        44.191200147582364,
        44.017200650391359,
        45.859368593467991,
        46.026251228648853,
        46.191532608606671,
        45.64852972881755,
        46.098596214008438,
        46.335779154317031,
        47.012266719318788,
        48.130635549304735,
        48.613031521805837,
        49.872865308714665,
        49.975635507652981,
        50.444724559302969,
        57.876220655426451,
        57.644491590079852,
        57.656322398812293,
        57.615587336102301,
        57.564024885486361,
        57.512310696190326,
        57.632701398566731,
        57.571875320323052,
        57.744578923727204,
        57.91557556242946,
        57.910910003660796,
        57.862583561161465,
        57.39172501224936,
        57.383585706352456,
        57.481854643036591,
        57.496540415355668,
        57.378751052375968,
        57.617367132318286,
        57.586605684587312,
        57.555792910324456,
        57.175165076381376,
        57.205858833905424,
        56.952682227083898,
        56.568457975580031,
        56.413004473465747,
        56.606065313320002,
        56.582524473954649,
        56.364934417549158,
        56.243097711102905,
        56.320166426966125,
        56.426454336181777,
        56.481811342981999,
        56.527004175883377,
        56.624788050586446,
        56.722025280130083,
        56.818713209249367,
        57.593871577306544,
        58.525596656784145,
        58.792492535648798,
        59.012299856414529,
        59.422874157548314,
        59.555662616715964,
        58.933074628482309,
        59.948011889804505,
        59.625167231050114,
        58.991755582291518,
        59.172066858593553,
        59.934774334593193,
        59.499689525129767,
        59.534473626518668,
        59.983452000472489,
        59.83781971126691,
        59.791424236897662,
        59.86686932392864,
        59.845563996061991,
        59.928458909730779,
        59.938945464791288,
        60.083087988325573,
        60.117773624667066,
        60.032505259780152,
        60.089650616101878,
        60.113721555205686,
        60.115087754028238,
        60.068241706738426,
        60.021268487035833,
        60.146431724229288,
        60.193941648013343,
        60.105638773180637,
        59.794653300446555,
        59.417506486662226,
        59.741907669820833,
        60.060342870795736,
        60.023273240262441,
        60.293357854788511,
        46.134613349096988,
        52.94728815709837,
        52.152006860205169,
        52.049272746085677,
        51.95974064474629,
        52.031495808022996,
        52.005630118765055,
        52.086655459081371,
        52.135645587620431,
        52.063956031148024,
        52.068556136114694,
        52.259602144762702,
        52.979522543162481,
        53.062578275516209,
        52.923202955691956,
        52.982006337925796,
        53.040613729879738,
        52.749265807327959,
        52.452935372412398,
        52.51260052823207,
        52.667980692997332,
        52.836813985391231,
        52.996670375765518,
        53.078591505258764,
        53.198226462642978,
        53.29813136163807,
        53.228752285268442,
        53.066462403105461,
        52.984766937941671,
        52.861471036223378,
        52.889627202532452,
        52.922403551826939,
        53.085157868677214,
        53.061705555475044,
        53.131096793482712,
        52.922528240146661,
        52.884928005687115,
        52.932781179212554,
        53.092525397693592,
        53.116209613763694,
        52.857446071352562,
        52.594754566001825,
        52.807913980268076,
        52.931435553980137,
        53.781344690014734,
        53.898520234022413,
        53.132991546591327,
        53.04424626082956,
        52.988050860351663,
        53.087382799909697,
        52.97973605790272,
        53.050493898749259,
        53.059821065133633,
        53.099725860232496,
        53.12428943904937,
        54.00110765701524,
        54.085032899222817,
        53.839396029066684,
        53.25519236683521,
        54.176457737509793,
        53.096441955484721,
        53.144470946682588,
        53.985298415756631,
        46.075349104943939,
        37.070781255701363,
        45.889937014709886,
        45.894211410908326,
        45.371165072381437,
        46.028413545569812,
        45.965501181485642,
        49.058933674217137,
        45.892222703531985,
        46.03725059305912,
        45.923109986730829,
        46.120451462728646,
        46.03648495637475,
        46.200095173273048,
        46.12725367532299,
        46.054104550175886,
        46.152910731103518,
        46.794623033413288,
        46.091332776402538,
        45.910749411407181,
        45.923853349003934,
        57.028671842269411,
        57.298585208222981,
        57.390363264386089,
        57.568415378032185,
        57.5277732156962,
        57.841728136874039,
        57.819120533701131,
        57.555103382467088,
        57.235992536716424,
        57.615901359608387,
        57.254000481680272,
        56.430636658306383,
        56.54233364427013,
        56.725900087355569,
        56.697667808655446,
        56.669389414660969,
        56.467075775721646,
        56.522880826386434,
        56.37799105408466,
        56.448294367251577,
        56.09991556568766,
        56.28855313001781,
        56.059628154796123,
        54.82446345338554,
        54.722211807041091,
        54.184912383784095,
        53.909266465878069,
        54.167020346650702,
        53.921493567410209,
        53.498438823920083,
        54.335247725566376,
        54.642564744292116,
        56.032144983368838,
        56.82204250524024,
        57.289523505460153,
        57.653545236766973,
        57.353469248307348,
        57.767810144833277,
        57.782366757663702,
        57.68246363013624,
        57.544569274744006,
        57.51320597991257,
        57.600218210167029,
        57.686795301016346,
        57.708859359215502,
        57.874234369259,
        57.967195434173405,
        57.863703096510932,
        57.723975784215803,
        57.583111479203865,
        57.613356504083576,
        57.735824819737289,
        57.637684404567764,
        54.175469689640252,
        54.989255471579078,
        56.902924976577324,
        56.613445114967817,
        56.743476266353753,
        59.639948785897623,
        60.268728268407379,
        60.906243219810477,
        49.522232527037211,
        50.382753174564158,
        50.675198868580964,
        50.775342763980248,
        50.705528387821985,
        50.464765550383063,
        50.307363202966712,
        50.482545836028194,
        50.424828771811107,
        50.233045896786933,
        50.449759757802994,
        50.541755583988611,
        50.520073455875504,
        50.498362305862365,
        50.648885629003253,
        50.737492653531838,
        50.825651967834112,
        50.9133611563919,
        50.885638565133689,
        50.857871397729113,
        50.815950926803069,
        50.773926898304055,
        50.731800612278576,
        50.339812959377149,
        50.461439299083708,
        50.679020670485897,
        50.672170715808647,
        51.123010114277029,
        51.367677454714766,
        51.508668159458239,
        51.348565584096008,
        51.402472153631763,
        51.418272846773817,
        51.453022374883417,
        51.446604294384244,
        51.440190451806217,
        51.433769239586631,
        51.07759122081422,
        51.236229666136325,
        51.2484519562896,
        51.159265298863701,
        51.06961347989796,
        50.091488057404078,
        49.054776886042518,
        48.960775355215802,
        49.21114396937552,
        49.601184048886395,
        49.205993380967094,
        49.669863115180704,
        47.627067669472133,
        47.338322208406311,
        51.343005955185362,
        49.131777946178161,
        48.799840843959103,
        47.29014504197719,
        47.299011863664163,
        48.605164777828151,
        49.004729380701846,
        49.395275999265763,
        48.361882084602748,
        46.913111366864356,
        44.817684338344492,
        43.463736773328137,
        41.733303941704072,
        40.757546324942027,
        62.799965070604962,
        52.265998828746007,
        51.537224182056733,
        51.455422485014822,
        51.373235811389712,
        51.462918572416392,
        51.433810699604244,
        51.250408714179571,
        52.160110983019472,
        52.185835813380578,
        52.603829040262795,
        53.164320285232677,
        53.283826194498786,
        53.086746021105014,
        52.642017774383753,
        52.48422138717396,
        52.230230754063115,
        51.97245983073114,
        51.710789449024098,
        51.617368018468483,
        51.437051328492757,
        50.771222135443864,
        49.24248591222549,
        49.039986212241708,
        48.835089844302068,
        49.306741487165134,
        49.632473325676131,
        49.84380519923387,
        49.741514410873641,
        49.212362276829609,
        49.230612432617171,
        49.030290656196414,
        48.795509506408564,
        49.25278283422184,
        49.728889170172465,
        50.120173299097289,
        49.096025262432505,
        50.277543926012768,
        48.262887621044243,
        47.72211628377859,
        46.799180846278588,
        47.378397615023871,
        47.654357249202278,
        47.004604672959715,
        46.425804522615557,
        47.297710170088585,
        46.71247020812514,
        47.993008335291975,
        47.920228320245734,
        45.488061533065505,
        45.267288219075624,
        45.225382094066603,
        45.368343016782141,
        45.594238308627709,
        45.67873009262167,
        45.762812726509125,
        45.846488960584729,
        45.858441983727452,
        45.681670565711684,
        45.534180136112838,
        45.562671900722123,
        45.691627723596746,
        45.761864819062048,
        45.959368901882989,
        46.091703674988345,
        46.080302226578993,
        45.93841141278304,
        45.734875433420854,
        45.731808200831267,
        45.725515293902731,
        45.640291587664436,
        45.570376604508951,
        45.575920078534253,
        45.664850983778543,
        45.723745449718706,
        45.708142437488412,
        45.686117853986033,
        45.656780164977206,
        45.803308721263271,
        45.896580820793268,
        45.841248849160223,
        45.84650274904822,
        45.859968534468152,
        45.873422657014572,
        45.886866331934982,
        45.726307484312812,
        45.991038330367005,
        46.559719090902149,
        46.255125851077224,
        45.918925852308689,
        46.045932752315743,
        46.582820474783233,
        46.55570128756996,
        45.885231492245076,
        46.037337753423571,
        45.989930418121354,
        45.972850474649157,
        46.283345103007633,
        46.275066773342544,
        45.660130081203825,
        46.01890528398328,
        46.668776973752813,
        46.263875901327481,
        45.849282249069724,
        45.767337990566169,
        46.358301957621379,
        45.523118387394007,
        46.193318000734436,
        46.724200954427815,
        46.406870195758501,
        46.439246049328915,
        46.341572890629166,
        46.562775834529759,
        46.459603106562888,
        45.928039723754871,
        46.618668809072204,
        46.538486331788647,
        48.625908680200602,
        48.783207609642162,
        48.74308856488431,
        48.892341640409974,
        48.814949763804954,
        49.102743690798661,
        48.758747678232311,
        46.07745915747067,
        46.331795892129207,
        45.961631745748562,
        45.887092263520287,
        46.1721113183293,
        46.5356460889885,
        45.770062486725323,
        46.466117790229703,
        45.854118747019911,
        46.187361274981619,
        0.0,
        0.0,
        57.362570451128434,
        0.0,
        0.0,
        57.242156734071024,
        57.92115526314231,
        59.616902570331604,
        51.807526652822148,
        50.860786920118201,
        46.853680531258128,
        46.063455709622588,
        47.203976605312405,
        46.504581839289401,
        46.587830990209106,
        48.641226462256896,
        48.91143785860195,
        48.903878170570891,
        48.827779728006561,
        48.751341379924952,
        45.86742323101285,
        48.736972309743919,
        47.243051678187754,
        47.825996898976015,
        47.046290245076449,
        47.514630414796656,
        45.818253541398526,
        46.537297553466495,
        46.627405270441493,
        47.862898627928239,
        47.255438456975185,
        46.009833493034726,
        46.140929066051385,
        46.094669543459368,
        46.083172918417638,
        46.071669985166778,
        46.061171202178613,
        45.876167017471936,
        44.96022267417932,
        46.145761233059062,
        47.255291868181828,
        48.809712637522068,
        48.35939799379149,
        49.355418691961304,
        48.723898676804005,
        48.808442547570259,
        48.828266845525093,
        48.848068342693381,
        48.867847343065108,
        46.796400364227623,
        49.07948841341117,
        48.871688204049327,
        48.486471035535089,
        48.861165811851542,
        48.875407301728899,
        48.870601365980889,
        48.833638864059104,
        46.384677715775481,
        46.317971224082527,
        0.0,
        72.426743775137496,
        60.833365554126516,
        48.438917542266012,
        49.283591928556845,
        46.332586322569554,
        48.851117825308577,
        48.612493472214631,
        48.826649628186381,
        46.152620949972864,
        46.026495668986136,
        45.616984791904386,
        48.801462462799236,
        46.054980024580374,
        46.446729533725446,
        46.187667374455955,
        0.0,
        0.0,
        0.0,
        0.0,
        0.0,
        0.0,
        0.0,
        0.0,
        0.0,
        0.0,
        0.0,
        0.0,
        0.0,
        0.0,
        0.0,
        0.0,
        0.0,
        0.0,
        0.0,
        0.0,
        0.0,
        0.0,
        0.0,
        0.0,
        0.0,
        0.0,
        0.0,
        0.0,
        0.0,
        0.0,
        0.0,
        0.0,
        0.0,
        0.0,
        0.0,
        0.0,
        0.0,
        0.0,
        0.0,
        0.0,
        0.0,
        0.0,
        0.0,
        0.0,
        0.0,
        0.0,
        0.0,
        0.0,
        0.0,
        0.0,
        0.0,
        0.0,
        0.0,
        0.0,
        0.0,
        0.0,
        0.0,
        0.0,
        0.0,
        0.0,
        0.0,
        0.0,
        0.0,
        0.0,
        0.0,
        0.0,
        0.0,
        0.0,
        0.0,
        0.0,
        0.0,
        0.0,
        0.0,
        0.0,
        0.0,
        0.0,
        0.0,
        0.0,
        0.0,
        0.0,
        0.0,
        0.0,
        0.0,
        0.0,
        0.0,
        0.0,
        0.0,
        0.0,
        0.0,
        0.0,
        0.0,
        0.0,
        0.0,
        0.0,
        0.0,
        0.0,
        0.0,
        0.0,
        0.0,
        0.0,
        0.0,
        0.0,
        0.0,
        0.0,
        0.0,
        0.0,
        0.0,
        0.0,
        0.0,
        0.0,
        0.0,
        0.0,
        0.0,
        0.0,
        0.0,
        0.0,
        0.0,
        0.0,
        0.0,
        0.0,
        0.0,
        0.0,
        0.0,
        0.0,
        0.0,
        0.0,
        0.0,
        0.0,
        0.0,
        0.0,
        0.0,
        0.0,
        0.0,
        0.0,
        0.0,
        0.0,
        0.0,
        0.0,
        0.0,
        0.0,
        0.0,
        0.0,
        0.0,
        0.0,
        0.0,
        0.0,
        0.0,
        0.0,
        0.0,
        0.0
    ],
    "time": [
        0.02,
        0.040000000000000001,
        0.059999999999999998,
        0.080000000000000002,
        0.10000000000000001,
        0.12,
        0.14000000000000001,
        0.16,
        0.17999999999999999,
        0.20000000000000001,
        0.22,
        0.23999999999999999,
        0.26000000000000001,
        0.28000000000000003,
        0.29999999999999999,
        0.32000000000000001,
        0.34000000000000002,
        0.35999999999999999,
        0.38,
        0.40000000000000002,
        0.41999999999999998,
        0.44,
        0.46000000000000002,
        0.47999999999999998,
        0.5,
        0.52000000000000002,
        0.54000000000000004,
        0.56000000000000005,
        0.57999999999999996,
        0.59999999999999998,
        0.62,
        0.64000000000000001,
        0.66000000000000003,
        0.68000000000000005,
        0.69999999999999996,
        0.71999999999999997,
        0.73999999999999999,
        0.76000000000000001,
        0.78000000000000003,
        0.80000000000000004,
        0.81999999999999995,
        0.83999999999999997,
        0.85999999999999999,
        0.88,
        0.90000000000000002,
        0.92000000000000004,
        0.93999999999999995,
        0.95999999999999996,
        0.97999999999999998,
        1.0,
        1.02,
        1.04,
        1.0600000000000001,
        1.0800000000000001,
        1.1000000000000001,
        1.1200000000000001,
        1.1399999999999999,
        1.1599999999999999,
        1.1799999999999999,
        1.2,
        1.22,
        1.24,
        1.26,
        1.28,
        1.3,
        1.3200000000000001,
        1.3400000000000001,
        1.3600000000000001,
        1.3799999999999999,
        1.3999999999999999,
        1.4199999999999999,
        1.4399999999999999,
        1.46,
        1.48,
        1.5,
        1.52,
        1.54,
        1.5600000000000001,
        1.5800000000000001,
        1.6000000000000001,
        1.6200000000000001,
        1.6399999999999999,
        1.6599999999999999,
        1.6799999999999999,
        1.7,
        1.72,
        1.74,
        1.76,
        1.78,
        1.8,
        1.8200000000000001,
        1.8400000000000001,
        1.8600000000000001,
        1.8799999999999999,
        1.8999999999999999,
        1.9199999999999999,
        1.9399999999999999,
        1.96,
        1.98,
        2.0,
        2.02,
        2.04,
        2.0600000000000001,
        2.0800000000000001,
        2.1000000000000001,
        2.1200000000000001,
        2.1400000000000001,
        2.1600000000000001,
        2.1800000000000002,
        2.2000000000000002,
        2.2200000000000002,
        2.2400000000000002,
        2.2599999999999998,
        2.2799999999999998,
        2.2999999999999998,
        2.3199999999999998,
        2.3399999999999999,
        2.3599999999999999,
        2.3799999999999999,
        2.3999999999999999,
        2.4199999999999999,
        2.4399999999999999,
        2.46,
        2.48,
        2.5,
        2.52,
        2.54,
        2.5600000000000001,
        2.5800000000000001,
        2.6000000000000001,
        2.6200000000000001,
        2.6400000000000001,
        2.6600000000000001,
        2.6800000000000002,
        2.7000000000000002,
        2.7200000000000002,
        2.7400000000000002,
        2.7599999999999998,
        2.7799999999999998,
        2.7999999999999998,
        2.8199999999999998,
        2.8399999999999999,
        2.8599999999999999,
        2.8799999999999999,
        2.8999999999999999,
        2.9199999999999999,
        2.9399999999999999,
        2.96,
        2.98,
        3.0,
        3.02,
        3.04,
        3.0600000000000001,
        3.0800000000000001,
        3.1000000000000001,
        3.1200000000000001,
        3.1400000000000001,
        3.1600000000000001,
        3.1800000000000002,
        3.2000000000000002,
        3.2200000000000002,
        3.2400000000000002,
        3.2599999999999998,
        3.2799999999999998,
        3.2999999999999998,
        3.3199999999999998,
        3.3399999999999999,
        3.3599999999999999,
        3.3799999999999999,
        3.3999999999999999,
        3.4199999999999999,
        3.4399999999999999,
        3.46,
        3.48,
        3.5,
        3.52,
        3.54,
        3.5600000000000001,
        3.5800000000000001,
        3.6000000000000001,
        3.6200000000000001,
        3.6400000000000001,
        3.6600000000000001,
        3.6800000000000002,
        3.7000000000000002,
        3.7200000000000002,
        3.7400000000000002,
        3.7599999999999998,
        3.7799999999999998,
        3.7999999999999998,
        3.8199999999999998,
        3.8399999999999999,
        3.8599999999999999,
        3.8799999999999999,
        3.8999999999999999,
        3.9199999999999999,
        3.9399999999999999,
        3.96,
        3.98,
        4.0,
        4.0199999999999996,
        4.04,
        4.0599999999999996,
        4.0800000000000001,
        4.0999999999999996,
        4.1200000000000001,
        4.1399999999999997,
        4.1600000000000001,
        4.1799999999999997,
        4.2000000000000002,
        4.2199999999999998,
        4.2400000000000002,
        4.2599999999999998,
        4.2800000000000002,
        4.2999999999999998,
        4.3200000000000003,
        4.3399999999999999,
        4.3600000000000003,
        4.3799999999999999,
        4.4000000000000004,
        4.4199999999999999,
        4.4400000000000004,
        4.46,
        4.4800000000000004,
        4.5,
        4.5199999999999996,
        4.54,
        4.5599999999999996,
        4.5800000000000001,
        4.5999999999999996,
        4.6200000000000001,
        4.6399999999999997,
        4.6600000000000001,
        4.6799999999999997,
        4.7000000000000002,
        4.7199999999999998,
        4.7400000000000002,
        4.7599999999999998,
        4.7800000000000002,
        4.7999999999999998,
        4.8200000000000003,
        4.8399999999999999,
        4.8600000000000003,
        4.8799999999999999,
        4.9000000000000004,
        4.9199999999999999,
        4.9400000000000004,
        4.96,
        4.9800000000000004,
        5.0,
        5.0199999999999996,
        5.04,
        5.0599999999999996,
        5.0800000000000001,
        5.0999999999999996,
        5.1200000000000001,
        5.1399999999999997,
        5.1600000000000001,
        5.1799999999999997,
        5.2000000000000002,
        5.2199999999999998,
        5.2400000000000002,
        5.2599999999999998,
        5.2800000000000002,
        5.2999999999999998,
        5.3200000000000003,
        5.3399999999999999,
        5.3600000000000003,
        5.3799999999999999,
        5.4000000000000004,
        5.4199999999999999,
        5.4400000000000004,
        5.46,
        5.4800000000000004,
        5.5,
        5.5199999999999996,
        5.54,
        5.5599999999999996,
        5.5800000000000001,
        5.5999999999999996,
        5.6200000000000001,
        5.6399999999999997,
        5.6600000000000001,
        5.6799999999999997,
        5.7000000000000002,
        5.7199999999999998,
        5.7400000000000002,
        5.7599999999999998,
        5.7800000000000002,
        5.7999999999999998,
        5.8200000000000003,
        5.8399999999999999,
        5.8600000000000003,
        5.8799999999999999,
        5.9000000000000004,
        5.9199999999999999,
        5.9400000000000004,
        5.96,
        5.9800000000000004,
        6.0,
        6.0199999999999996,
        6.04,
        6.0599999999999996,
        6.0800000000000001,
        6.0999999999999996,
        6.1200000000000001,
        6.1399999999999997,
        6.1600000000000001,
        6.1799999999999997,
        6.2000000000000002,
        6.2199999999999998,
        6.2400000000000002,
        6.2599999999999998,
        6.2800000000000002,
        6.2999999999999998,
        6.3200000000000003,
        6.3399999999999999,
        6.3600000000000003,
        6.3799999999999999,
        6.4000000000000004,
        6.4199999999999999,
        6.4400000000000004,
        6.46,
        6.4800000000000004,
        6.5,
        6.5199999999999996,
        6.54,
        6.5599999999999996,
        6.5800000000000001,
        6.5999999999999996,
        6.6200000000000001,
        6.6399999999999997,
        6.6600000000000001,
        6.6799999999999997,
        6.7000000000000002,
        6.7199999999999998,
        6.7400000000000002,
        6.7599999999999998,
        6.7800000000000002,
        6.7999999999999998,
        6.8200000000000003,
        6.8399999999999999,
        6.8600000000000003,
        6.8799999999999999,
        6.9000000000000004,
        6.9199999999999999,
        6.9400000000000004,
        6.96,
        6.9800000000000004,
        7.0,
        7.0199999999999996,
        7.04,
        7.0599999999999996,
        7.0800000000000001,
        7.0999999999999996,
        7.1200000000000001,
        7.1399999999999997,
        7.1600000000000001,
        7.1799999999999997,
        7.2000000000000002,
        7.2199999999999998,
        7.2400000000000002,
        7.2599999999999998,
        7.2800000000000002,
        7.2999999999999998,
        7.3200000000000003,
        7.3399999999999999,
        7.3600000000000003,
        7.3799999999999999,
        7.4000000000000004,
        7.4199999999999999,
        7.4400000000000004,
        7.46,
        7.4800000000000004,
        7.5,
        7.5199999999999996,
        7.54,
        7.5599999999999996,
        7.5800000000000001,
        7.5999999999999996,
        7.6200000000000001,
        7.6399999999999997,
        7.6600000000000001,
        7.6799999999999997,
        7.7000000000000002,
        7.7199999999999998,
        7.7400000000000002,
        7.7599999999999998,
        7.7800000000000002,
        7.7999999999999998,
        7.8200000000000003,
        7.8399999999999999,
        7.8600000000000003,
        7.8799999999999999,
        7.9000000000000004,
        7.9199999999999999,
        7.9400000000000004,
        7.96,
        7.9800000000000004,
        8.0,
        8.0199999999999996,
        8.0399999999999991,
        8.0600000000000005,
        8.0800000000000001,
        8.0999999999999996,
        8.1199999999999992,
        8.1400000000000006,
        8.1600000000000001,
        8.1799999999999997,
        8.1999999999999993,
        8.2200000000000006,
        8.2400000000000002,
        8.2599999999999998,
        8.2799999999999994,
        8.3000000000000007,
        8.3200000000000003,
        8.3399999999999999,
        8.3599999999999994,
        8.3800000000000008,
        8.4000000000000004,
        8.4199999999999999,
        8.4399999999999995,
        8.4600000000000009,
        8.4800000000000004,
        8.5,
        8.5199999999999996,
        8.5399999999999991,
        8.5600000000000005,
        8.5800000000000001,
        8.5999999999999996,
        8.6199999999999992,
        8.6400000000000006,
        8.6600000000000001,
        8.6799999999999997,
        8.6999999999999993,
        8.7200000000000006,
        8.7400000000000002,
        8.7599999999999998,
        8.7799999999999994,
        8.8000000000000007,
        8.8200000000000003,
        8.8399999999999999,
        8.8599999999999994,
        8.8800000000000008,
        8.9000000000000004,
        8.9199999999999999,
        8.9399999999999995,
        8.9600000000000009,
        8.9800000000000004,
        9.0,
        9.0199999999999996,
        9.0399999999999991,
        9.0600000000000005,
        9.0800000000000001,
        9.0999999999999996,
        9.1199999999999992,
        9.1400000000000006,
        9.1600000000000001,
        9.1799999999999997,
        9.1999999999999993,
        9.2200000000000006,
        9.2400000000000002,
        9.2599999999999998,
        9.2799999999999994,
        9.3000000000000007,
        9.3200000000000003,
        9.3399999999999999,
        9.3599999999999994,
        9.3800000000000008,
        9.4000000000000004,
        9.4199999999999999,
        9.4399999999999995,
        9.4600000000000009,
        9.4800000000000004,
        9.5,
        9.5199999999999996,
        9.5399999999999991,
        9.5600000000000005,
        9.5800000000000001,
        9.5999999999999996,
        9.6199999999999992,
        9.6400000000000006,
        9.6600000000000001,
        9.6799999999999997,
        9.6999999999999993,
        9.7200000000000006,
        9.7400000000000002,
        9.7599999999999998,
        9.7799999999999994,
        9.8000000000000007,
        9.8200000000000003,
        9.8399999999999999,
        9.8599999999999994,
        9.8800000000000008,
        9.9000000000000004,
        9.9199999999999999,
        9.9399999999999995,
        9.9600000000000009,
        9.9800000000000004,
        10.0,
        10.02,
        10.039999999999999,
        10.06,
        10.08,
        10.1,
        10.119999999999999,
        10.140000000000001,
        10.16,
        10.18,
        10.199999999999999,
        10.220000000000001,
        10.24,
        10.26,
        10.279999999999999,
        10.300000000000001,
        10.32,
        10.34,
        10.359999999999999,
        10.380000000000001,
        10.4,
        10.42,
        10.44,
        10.460000000000001,
        10.48,
        10.5,
        10.52,
        10.539999999999999,
        10.56,
        10.58,
        10.6,
        10.619999999999999,
        10.640000000000001,
        10.66,
        10.68,
        10.699999999999999,
        10.720000000000001,
        10.74,
        10.76,
        10.779999999999999,
        10.800000000000001,
        10.82,
        10.84,
        10.859999999999999,
        10.880000000000001,
        10.9,
        10.92,
        10.94,
        10.960000000000001,
        10.98,
        11.0,
        11.02,
        11.039999999999999,
        11.06,
        11.08,
        11.1,
        11.119999999999999,
        11.140000000000001,
        11.16,
        11.18,
        11.199999999999999,
        11.220000000000001,
        11.24,
        11.26,
        11.279999999999999,
        11.300000000000001,
        11.32,
        11.34,
        11.359999999999999,
        11.380000000000001,
        11.4,
        11.42,
        11.44,
        11.460000000000001,
        11.48,
        11.5,
        11.52,
        11.539999999999999,
        11.56,
        11.58,
        11.6,
        11.619999999999999,
        11.640000000000001,
        11.66,
        11.68,
        11.699999999999999,
        11.720000000000001,
        11.74,
        11.76,
        11.779999999999999,
        11.800000000000001,
        11.82,
        11.84,
        11.859999999999999,
        11.880000000000001,
        11.9,
        11.92,
        11.94,
        11.960000000000001,
        11.98,
        12.0,
        12.02,
        12.039999999999999,
        12.06,
        12.08,
        12.1,
        12.119999999999999,
        12.140000000000001,
        12.16,
        12.18,
        12.199999999999999,
        12.220000000000001,
        12.24,
        12.26,
        12.279999999999999,
        12.300000000000001,
        12.32,
        12.34,
        12.359999999999999,
        12.380000000000001,
        12.4,
        12.42,
        12.44,
        12.460000000000001,
        12.48,
        12.5,
        12.52,
        12.539999999999999,
        12.56,
        12.58,
        12.6,
        12.619999999999999,
        12.640000000000001,
        12.66,
        12.68,
        12.699999999999999,
        12.720000000000001,
        12.74,
        12.76,
        12.779999999999999,
        12.800000000000001,
        12.82,
        12.84,
        12.859999999999999,
        12.880000000000001,
        12.9,
        12.92,
        12.94,
        12.960000000000001,
        12.98,
        13.0,
        13.02,
        13.039999999999999,
        13.06,
        13.08,
        13.1,
        13.119999999999999,
        13.140000000000001
    ]
}