{
    "DU": 108,
    "DV": 198,
    "F-measure": 0.9347079037800687,
    "F-measure Chroma": 0.9347079037800687,
    "FN": 17,
    "FNC": 1,
    "FNCch": 5,
    "FNI": 16,
    "FNIch": 12,
    "FP": 13,
    "GU": 104,
    "GV": 202,
    "Overall Accuracy": 0.8888888888888888,
    "Overall Chroma Accuracy": 0.8888888888888888,
    "Precision": 0.9411764705882353,
    "Precision Chroma": 0.9411764705882353,
    "Raw Chroma Accuracy": 0.9207920792079208,
    "Raw Pitch Accuracy": 0.900990099009901,
    "Recall": 0.9283276450511946,
    "Recall Chroma": 0.9283276450511946,
    "TN": 91,
    "TO": 306,
    "TP": 185,
    "TPC": 181,
    "TPCch": 181,
    "TPI": 4,
    "TPIch": 4,
    "Voiced Chroma Accuracy": 0.8960396039603961,
    "Voiced Pitch Accuracy": 0.8960396039603961,
    "Voicing Accuracy": 0.9019607843137255,
    "Voicing Detection": 0.9158415841584159,
    "Voicing False Alarm": 0.125
}