{
    "DU": 101,
    "DV": 154,
    "F-measure": 0.9277108433734941,
    "F-measure Chroma": 0.931726907630522,
    "FN": 8,
    "FNC": 2,
    "FNCch": 2,
    "FNI": 6,
    "FNIch": 6,
    "FP": 4,
    "GU": 97,
    "GV": 158,
    "Overall Accuracy": 0.9058823529411765,
    "Overall Chroma Accuracy": 0.9098039215686274,
    "Precision": 0.9352226720647774,
    "Precision Chroma": 0.9392712550607287,
    "Raw Chroma Accuracy": 0.8924050632911392,
    "Raw Pitch Accuracy": 0.8860759493670886,
    "Recall": 0.9203187250996016,
    "Recall Chroma": 0.9243027888446215,
    "TN": 93,
    "TO": 255,
    "TP": 150,
    "TPC": 138,
    "TPCch": 139,
    "TPI": 12,
    "TPIch": 11,
    "Voiced Chroma Accuracy": 0.879746835443038,
    "Voiced Pitch Accuracy": 0.8734177215189873,
    "Voicing Accuracy": 0.9529411764705882,
    "Voicing Detection": 0.9493670886075949,
    "Voicing False Alarm": 0.041237113402061855
}