{
    "DU": 87,
    "DV": 173,
    "F-measure": 0.9178356713426854,
    "F-measure Chroma": 0.937875751503006,
    "FN": 16,
    "FNC": 7,
    "FNCch": 9,
    "FNI": 9,
    "FNIch": 7,
    "FP": 5,
    "GU": 76,
    "GV": 184,
    "Overall Accuracy": 0.8807692307692307,
    "Overall Chroma Accuracy": 0.9,
    "Precision": 0.9385245901639344,
    "Precision Chroma": 0.9590163934426229,
    "Raw Chroma Accuracy": 0.9347826086956522,
    "Raw Pitch Accuracy": 0.8967391304347826,
    "Recall": 0.8980392156862745,
    "Recall Chroma": 0.9176470588235294,
    "TN": 71,
    "TO": 260,
    "TP": 168,
    "TPC": 158,
    "TPCch": 163,
    "TPI": 10,
    "TPIch": 5,
    "Voiced Chroma Accuracy": 0.8858695652173914,
    "Voiced Pitch Accuracy": 0.8586956521739131,
    "Voicing Accuracy": 0.9192307692307692,
    "Voicing Detection": 0.9130434782608695,
    "Voicing False Alarm": 0.06578947368421052
}