{
    "DU": 100,
    "DV": 268,
    "F-measure": 0.9140401146131805,
    "F-measure Chroma": 0.9197707736389685,
    "FN": 24,
    "FNC": 0,
    "FNCch": 1,
    "FNI": 24,
    "FNIch": 23,
    "FP": 14,
    "GU": 90,
    "GV": 278,
    "Overall Accuracy": 0.8668478260869565,
    "Overall Chroma Accuracy": 0.8722826086956522,
    "Precision": 0.9273255813953488,
    "Precision Chroma": 0.9331395348837209,
    "Raw Chroma Accuracy": 0.8848920863309353,
    "Raw Pitch Accuracy": 0.8741007194244604,
    "Recall": 0.9011299435028248,
    "Recall Chroma": 0.9067796610169492,
    "TN": 76,
    "TO": 368,
    "TP": 254,
    "TPC": 243,
    "TPCch": 245,
    "TPI": 11,
    "TPIch": 9,
    "Voiced Chroma Accuracy": 0.8812949640287769,
    "Voiced Pitch Accuracy": 0.8741007194244604,
    "Voicing Accuracy": 0.8967391304347826,
    "Voicing Detection": 0.9136690647482014,
    "Voicing False Alarm": 0.15555555555555556
}