{
	"f0": [NaN,49.67320104,50.4780494,50.62597306,77.23555836,76.81921422,76.6743704,60.91732291,60.03414835,60.35491764,60.49288548,60.36249229,60.25550649,60.13036707,60.03240652,60.01533608,60.04634203,60.06629482,72.12840121,72.13785915,72.16182903,60.14729976,60.14586576,60.16879654,59.62440259,59.86344086,59.93704478,60.051457,61.52483579,62.43799833,62.57854762,62.49976834,62.40810875,62.51175264,62.84898024,63.18838267,63.46958963,63.5935541,63.77372957,63.8982145,63.94293497,64.07824635,63.9913363,63.63669753,63.50321771,63.78240551,64.07676685,63.85208158,65.26636785,65.20568944,77.21043552,77.30242571,76.93035138,65.34513332,65.36890469,65.40246116,65.41118594,65.48066467,65.60597018,65.61435046,65.58054581,65.56015898,65.50643681,65.37326992,65.37790013,65.5707689,65.60440443,65.13702304,64.32083002,63.98193267,63.77648408,63.54365028,63.57718467,63.58133778,63.64321194,63.72801343,63.70960177,63.64726246,63.5980143,63.60708966,63.58204793,63.49581979,63.44037025,63.38974384,63.28525973,63.19089388,63.08832021,62.74483951,62.88508141,47.61356984,48.1100549,60.95782067,60.7149862,60.65223338,60.65308405,60.67666058,60.706625,60.56646451,60.0904097,59.47663126,58.86259817,58.123773,56.01165637,54.32797382,54.41654983,54.71077469,55.0945913,55.21244276,55.48781844,55.76623522,56.02996123,56.34473367,56.27778724,56.19108235,56.22053856,56.36659284,56.41902963,56.40202645,56.40533917,56.35388857,56.25606367,56.19332868,56.14805254,56.19636989,56.25494855,56.2914462,56.34217483,56.41967944,56.59488895,56.72658522,56.6014822,56.52543359,56.44684996,56.30544126,56.21902304,56.28890303,56.33564101,56.33194866,56.36841941,56.46877881,56.67954986,57.40331471,57.43141231,57.50331204,57.23758161,56.7563211,56.46727057,44.66531227,45.21566381,45.50402076,57.29991572,47.48573577,37.75826414,56.69965447,56.93520015,56.83029397,45.32301087,45.23628597,57.69374277,58.16881695,58.16354076,57.32160518,57.41245476,57.41612942,60.78035067,52.15557245,47.07836779,57.41612942,57.392425,60.62455856,61.83677829,62.11492368,62.36984926,62.41332743,62.32934843,62.15444483,61.43846333,38.45995225,38.79082522,61.30802519,61.47778939,61.72755914,61.84466871,61.83625258,61.45909633,60.94013131,61.52483579,61.72834473,62.6364136,62.40341549,62.27759789,61.96922478,61.72237359,61.66105526,61.57031157,61.50169654,61.4398803,61.27539777,60.80564402,59.95314407,58.96293866,58.55651858,58.26040777,58.38012537,58.67268355,58.51035774,58.30662501,58.17272519,57.91080137,58.007973,58.42902007,58.69812667,58.68570218,58.60209764,58.4661687,58.26251137,58.19318765,58.35721882,58.60059506,58.66154265,58.71542642,58.77202407,58.78809757,58.65882903,58.47274711,58.4879455,58.41720839,58.34081374,58.39355238,58.79071241,58.82998962,58.85013253,58.89482314,58.97121762,58.90346229,58.8263945,58.7440785,58.58325874,58.22853269,57.65023859,57.02104057,56.27227493,56.13450394,55.97431217,55.92004121,55.94396304,55.9966918,55.96284109,56.14637389,55.77735189,55.54026256,55.91451405,56.26839592,56.42242959,56.14419167,55.68854138,55.70016458,55.83148527,55.36290782,57.86821415,57.76243252,57.52442961,57.07818157,56.7357437,56.71221647,56.38573175,56.44757119,56.48145687,56.45762363,56.51481522,56.70044096,57.11325084,69.20927496,57.1002357,56.95029,56.87512658,56.76151171,56.72105727,56.60364439,56.24140748,55.77913753,54.78677042,54.17441434,53.94206554,53.85508814,53.99899227,54.25003875,54.54729787,54.43432168,54.31983824,54.04680768,53.97017551,54.13420278,54.37128422,54.54202543,54.48421323,54.50070034,54.56112721,54.65782378,54.60348536,54.56314538,54.73672185,54.89170136,54.68451806,54.56097126,54.5689545,54.88416624,54.81258325,54.7189934,54.70247251,55.30697555,55.64669189,55.59107646,54.38699298,53.88078335,53.76363531,54.06174699,54.86419058,56.17233612,56.84729119,57.46257462,57.54724748,57.58514008,57.55528821,57.4854457,57.44538989,57.44244841,57.50364095,57.57492988,57.7459834,57.95074387,58.84889918,59.97729323,59.91446192,59.79110534,59.72974316,59.63757695,59.60997315,59.60446833,59.56028882,59.49082741,59.44078186,59.40774962,59.36036263,59.30827021,59.30464976,59.35076437,59.09321431,58.88776285,59.25712658,59.40246902,47.43662014,47.51128121,47.32621518,59.48573577,59.43570193,59.36894909,59.70603772,61.21841468,58.68036542,58.9446811,60.31520228,60.59650756,47.32646324,47.42223198,40.38648602,59.42975759,59.27152199,61.53766769,60.23351822,61.09112563,62.31639336,63.15635937,63.36695942,63.2176016,63.01045979,62.88929586,62.84495822,63.14840912,63.35467682,63.62527544,64.21753797,64.50309551,76.8483741,65.18081574,65.2493994,65.25533525,65.23421042,65.2450809,65.19015538,65.15232973,77.12503547,77.09135035,77.13059736,77.16289089,77.09462353,76.95527281,64.71100518,64.19930651,62.80659495,60.51896269,59.15012804,58.60238728,58.50529503,58.64888394,58.80537437,58.96264797,59.28211695,58.93723421,59.23969041,59.80998751,59.72294131,59.68777074,59.71848148,59.6976124,59.48369374,59.4565807,59.73407382,59.65863183,59.50657984,59.41308245,60.92429067,62.1165991,62.21719849,62.06889447,61.9761637,61.92185562,61.94588085,62.10123026,62.17240293,62.13312541,62.08349984,62.0094334,61.91565602,61.88463793,61.91960457,61.99169154,62.03714144,62.00785495,61.99952919,61.99479091,61.96186096,61.95411327,61.91348943,61.84436197,61.78094949,61.7209246,61.70250886,61.77238379,61.84150137,61.82788305,61.83622757,61.91395943,61.92463572,61.92264155,62.01612935,62.13685348,62.17147952,62.10165094,61.96150638,61.87783316,61.69243953,61.62310207,61.16396291,60.91732291,61.91408505,49.79289195,49.76863388,50.0381762,49.77579975,49.18978169,49.66596626,49.70810883,49.68534643,49.7790587,50.05338753,49.94390998,49.80808891,49.93433523,49.93163386,49.83278293,49.83677829,49.88753945,62.15444483,49.92542235,49.50577445,49.42383745,49.82564939,49.64688545,61.53059709,61.55034071,61.21841468,61.17655125,61.40461072,61.42318145,37.23568041,41.60182825,50.4780494,76.93035138,76.93035138,76.93035138,76.93035138,76.93035138,76.93035138,76.93035138,76.93035138,76.93035138,76.93035138,76.93035138,76.93035138,76.93035138,76.93035138,76.93035138,76.93035138,76.93035138,76.93035138,76.93035138,76.93035138,76.93035138,76.93035138,76.93035138,76.93035138,76.93035138,76.93035138,76.93035138,76.93035138,76.93035138,76.93035138,76.93035138,76.93035138,76.93035138,76.93035138,76.93035138,76.93035138,76.93035138,76.93035138,76.93035138,76.93035138,76.93035138,76.93035138,76.93035138,76.93035138,76.93035138,76.93035138,76.93035138,76.93035138,76.93035138,76.93035138,76.93035138,76.93035138,76.93035138,76.93035138,76.93035138,76.93035138,76.93035138,76.93035138,76.93035138,76.93035138,76.93035138,76.93035138,76.93035138,76.93035138,76.93035138,76.93035138,76.93035138,76.93035138,76.93035138,76.93035138,76.93035138,76.93035138,76.93035138,76.93035138,76.93035138,76.93035138,76.93035138,76.93035138,76.93035138,76.93035138,76.93035138,76.93035138,76.93035138,76.93035138,76.93035138,76.93035138,76.93035138,76.93035138,76.93035138,76.93035138,76.93035138,76.93035138,76.93035138,76.93035138,76.93035138,76.93035138,76.93035138,76.93035138,76.93035138,76.93035138,76.93035138,76.93035138,76.93035138,76.93035138,76.93035138,76.93035138,76.93035138,76.93035138,76.93035138,76.93035138,76.93035138,76.93035138,76.93035138,76.93035138,76.93035138,76.93035138,76.93035138,76.93035138,76.93035138,76.93035138,76.93035138,76.93035138,76.93035138,76.93035138,76.93035138,76.93035138,76.93035138,76.93035138,76.93035138,76.93035138,76.93035138,76.93035138,76.93035138,76.93035138,76.93035138,76.93035138,76.93035138,76.93035138,76.93035138,76.93035138,76.93035138,76.93035138,76.93035138,76.93035138,76.93035138,76.93035138,76.93035138,76.93035138,76.93035138,76.93035138,NaN,NaN,NaN],
	"ap0": [NaN,0.5856385616,0.6581206978,1.227098078,0.5567035168,0.5417684711,0.5235027257,0.2095981918,0.04392915596,0.03254766173,0.0203413281,0.009568532643,0.004667704523,0.003439629351,0.002584843599,0.001613116848,0.001362349342,0.001010000796,0.04079135851,0.02598577088,0.07744020371,0.00312249636,0.008707669144,0.0617429177,0.1153520615,0.04866713841,0.04026002623,0.2973659575,0.2500320461,0.06405708318,0.01487492485,0.01573547061,0.01277149939,0.01137890223,0.006584146763,0.006736294801,0.005614225012,0.005199150664,0.009964845074,0.008580344849,0.007817375258,0.009864998088,0.01195579264,0.08048300662,0.08201622067,0.04502160752,0.106273442,0.2237613987,0.2360917256,0.05537817145,0.02454266313,0.02495137792,0.06643480064,0.004343535685,0.004038317853,0.00360986411,0.004701230691,0.01497054474,0.01726648728,0.01175384702,0.01051748607,0.008632422283,0.01639070097,0.02825543767,0.02615283385,0.02496820427,0.04694212762,0.2379903494,0.2870222717,0.09003311997,0.0301617522,0.01262515023,0.006716946152,0.005260667054,0.008601544191,0.009558771165,0.008547261522,0.004974239422,0.002206345543,0.001426647373,0.001730102718,0.001365139154,0.0006978754302,0.0009473271495,0.002682933583,0.004590542653,0.01913241595,0.1050787109,0.364423231,0.1553232121,0.2061390619,0.0777225595,0.08678317735,0.05747471615,0.02192747601,0.02212092302,0.03257624748,0.06935251328,0.06165100738,0.02547036699,0.03216900656,0.1040426028,0.3755653299,0.1549776063,0.06125549178,0.05154677089,0.0464817448,0.0257828403,0.01025298001,0.0134420692,0.03953795522,0.04862024112,0.02508555401,0.01499809922,0.01265045936,0.01216319515,0.008757101677,0.005893669702,0.003816293756,0.003685047439,0.001275910319,0.001144760055,0.00128940159,0.001697987295,0.001055219163,0.001393583816,0.001542894669,0.005497333782,0.01273953185,0.01019441777,0.005154212796,0.01301384161,0.01974713242,0.01054521944,0.001970804567,0.001178983751,0.0007210569227,0.001165968514,0.003013109789,0.006569773736,0.05516324594,0.05093959996,0.0243686632,0.02221212112,0.05976203621,0.04032062565,0.311577666,0.2718348906,0.1611554441,0.1935980252,0.3475739465,0.5294698077,0.48833388,0.2755941686,0.2639466496,0.5582880603,0.2516411852,0.4280659722,0.6254692724,0.4459235604,0.3655886159,0.3242475327,0.483568535,0.5905177542,0.6506512164,0.9091944963,0.6370558938,0.543116262,0.5464862924,0.5840990283,0.4697832438,0.2978172525,0.1168331935,0.05462758508,0.1112138952,0.3255712675,0.4792069658,0.1881334064,0.7127568866,0.1232145204,0.05855564518,0.04540661815,0.02084790381,0.01675885736,0.0502952861,0.1025812938,0.2141858776,0.09396557618,0.1198073513,0.04978953345,0.04749660076,0.07577205914,0.04870546898,0.02795785464,0.03214098636,0.01636105845,0.01463187977,0.03461529472,0.08840283267,0.178746709,0.09156874202,0.07230435625,0.04044792185,0.05021039339,0.03510070513,0.03464246376,0.05102392347,0.1594053733,0.3088172147,0.1512062452,0.09042214685,0.03466782179,0.02156470848,0.03475155552,0.06994503575,0.09888808919,0.04864126607,0.02778932367,0.02373420839,0.0181868655,0.01417839203,0.00689960679,0.009735526727,0.01788502261,0.009336164293,0.00627832816,0.00431228778,0.002534335929,0.06285572803,0.03495995527,0.009786989322,0.00410726734,0.007866245802,0.009890361397,0.003320452165,0.002710994574,0.003833601644,0.01386707407,0.06631664732,0.1168989559,0.1858591886,0.1391215721,0.07503375254,0.03050653841,0.02727000698,0.04095608731,0.06949735072,0.09386999309,0.1056666519,0.123086438,0.2313857474,0.1791176113,0.1994138635,0.3303477744,0.2035377079,0.1520239584,0.1467327563,0.2654207531,0.2423903021,0.2625102616,0.1144062637,0.08807335405,0.1410990821,0.1744714197,0.08245114149,0.05764634342,0.05670662373,0.0248813677,0.02924112572,0.03127111096,0.04500420204,0.0324934496,0.101283745,0.04075943297,0.04657209121,0.02710855957,0.01695993758,0.006121432249,0.01567501705,0.05376074162,0.1699020665,0.2274580558,0.08931475123,0.08779358592,0.08825584163,0.05394617566,0.06256604787,0.07073395058,0.02122410575,0.01727666529,0.02618054501,0.01776442042,0.01429919439,0.01878917676,0.008046403938,0.003464850003,0.003539767544,0.005895996565,0.007784461676,0.01177009304,0.01922386484,0.0249400244,0.01944916305,0.06305637426,0.1532736115,0.2243219045,0.1521084977,0.1622727747,0.136879747,0.1472297399,0.1728150126,0.04984624634,0.1354034867,0.2392666779,0.08756750945,0.03926364777,0.1158558633,0.2501793276,0.2302300275,0.2003950728,0.1249739027,0.06087652103,0.05284377442,0.04113881691,0.01745474065,0.01568319418,0.01730528288,0.01571493846,0.01247075431,0.01070876387,0.03326336894,0.09348885541,0.04637373363,0.02838674863,0.01258440611,0.01156870279,0.009830142661,0.00556481434,0.002183244394,0.001716698442,0.001813622415,0.001993272505,0.001611290975,0.002104822689,0.003733475576,0.005385700988,0.006468857351,0.0265684188,0.05291274031,0.08367169598,0.1756173792,0.07872792224,0.08523677679,0.133747073,0.2293325565,0.2464697838,0.1692816928,0.2591957698,0.4826964244,0.429763541,0.4197380973,0.556704427,0.6945232934,0.4717995632,0.4112756203,0.3466429657,0.2689000564,0.2085506943,0.1592874352,0.05424398422,0.05075656463,0.05485432057,0.02148627927,0.01096473898,0.01551198105,0.008279723034,0.009402602686,0.008480437504,0.01152404873,0.02021211528,0.04966602205,0.0967216548,0.08621336599,0.1316636994,0.02538606317,0.01880799835,0.01972120473,0.01464621772,0.004512142828,0.003000746608,0.002465365824,0.06580877566,0.04822875916,0.02552603395,0.016645396,0.03091053847,0.0987085246,0.01526334865,0.07170922382,0.3215010378,0.4189440005,0.1618777651,0.05226609564,0.02586025185,0.02142171844,0.02482239319,0.04980931247,0.1018310064,0.04771967591,0.1195813212,0.03065266091,0.01439652263,0.01240110238,0.01583454004,0.02124751158,0.02148552616,0.04249052846,0.1251108791,0.1345467528,0.1605179952,0.2449894583,0.275764928,0.08580185552,0.05531376035,0.1047675031,0.1441873629,0.1288573839,0.07010299418,0.04075435186,0.02217803428,0.01580813579,0.01661351213,0.02678789759,0.02026130285,0.007945571933,0.007014243604,0.008724694214,0.008270194525,0.00916029324,0.008304430783,0.007528715821,0.01418468573,0.01720597882,0.01131519283,0.05755418462,0.07782033618,0.03775702844,0.02479824206,0.0239975391,0.01805407826,0.01387756983,0.0097416081,0.06214443603,0.1367150422,0.1190513276,0.08925841354,0.1181708205,0.09006784506,0.03925352344,0.03941532948,0.04016309862,0.03193132996,0.05207306418,0.1729253456,0.2868173726,0.2587995962,0.06991759934,0.06798284588,0.07670629918,0.1812036156,0.2112245218,0.1204100362,0.0857015762,0.1342689983,0.1530219656,0.1634493699,0.2544116745,0.1721277248,0.1602245751,0.2252458907,0.2042131631,0.3332251928,0.3122097536,0.288422382,0.122661742,0.1337756321,0.1169997153,0.2397992768,0.2281449068,0.1906771248,0.2265494252,0.3049175087,0.3393866238,0.4572374477,0.4310315001,0.3854401356,0.6729596502,1,1,1,1,1,1,1,1,1,1,1,1,1,1,1,1,1,1,1,1,1,1,1,1,1,1,1,1,1,1,1,1,1,1,1,1,1,1,1,1,1,1,1,1,1,1,1,1,1,1,1,1,1,1,1,1,1,1,1,1,1,1,1,1,1,1,1,1,1,1,1,1,1,1,1,1,1,1,1,1,1,1,1,1,1,1,1,1,1,1,1,1,1,1,1,1,1,1,1,1,1,1,1,1,1,1,1,1,1,1,1,1,1,1,1,1,1,1,1,1,1,1,1,1,1,1,1,1,1,1,1,1,1,1,1,1,1,1,1,1,1,1,1,1,1,1,1,1,1,1,1,NaN,NaN,NaN],
	"ap": [NaN,0.4670953337,0.4390248647,0.3131387067,0.737857661,0.9409678257,0.496880382,0.6477649795,0.7659696882,0.1432516112,0.001555672696,0.01021898013,0.005384940581,0.006239489112,0.002117442465,0.001509531621,0.001313366475,0.0005779125128,0.0476326889,0.02051622163,0.009956649444,0.001293673491,0.001337837268,0.002471367068,0.04062047972,0.06150581379,0.07376153335,0.03333512285,0.1371669052,0.4444243068,0.05743089476,0.00237249713,0.002270769094,0.004942582501,0.02036656303,0.01213973447,0.009585278204,0.002087629377,0.003440502198,0.005179453716,0.004702195899,0.004622525142,0.004493355596,0.01893799281,0.01204846745,0.0127222576,0.01874466059,0.1851052589,0.1778021999,0.2088812733,0.1990466407,0.000719503498,0.00575329967,0.00507794773,0.001548583306,0.003697433175,0.002711505384,0.002633822171,0.005109087178,0.02533864104,0.001566480337,0.007654858035,0.005462295834,0.006994664607,0.01499545847,0.0196523926,0.009581141814,0.01225561716,0.09842299048,0.09305272468,0.04511413547,0.01116548559,0.005951168736,0.001393222083,0.005028140775,0.007910545612,0.005841043265,0.006604682269,0.002611586568,0.0003910883781,0.0005163054999,0.002637278069,0.001070286085,0.0002434356784,0.001387654772,0.002446855186,0.001992222729,0.01036652719,0.02820441707,0.1545040681,0.2034286319,0.08568999024,0.05832930709,0.02810675831,0.02955571517,0.0119650019,0.004141428883,0.0156026533,0.05701828775,0.1364220307,0.01201830138,0.02423379308,0.1997457396,0.3871576444,0.0456458328,0.02649980313,0.03411432135,0.0382200203,0.03181681789,0.00641109238,0.01599569215,0.01830357666,0.006783846138,0.03880323223,0.01057265492,0.01089414683,0.005595276891,0.00091108132,0.002349003244,0.001216825379,0.004180189819,0.001073605324,0.0008134590057,0.001325300943,0.000994826468,0.0004551251825,0.001086902118,0.0008953762826,0.0071249355,0.005286831469,0.01066545749,0.001873845076,0.002786398103,0.02602580299,0.002943379185,0.001777788108,0.0002569875367,0.0006291489206,0.000151044112,0.001311961655,0.004009973623,0.03198913515,0.4101147504,0.003264067561,0.01776483448,0.03031164506,0.02042007335,0.327724392,0.1274956049,0.1068307718,0.1863330306,0.249089623,0.2213149932,0.5419854471,0.1837341975,0.08663413949,0.31807755,0.1632320891,0.1252376909,0.6337548054,0.3098311458,0.2927786359,0.3445371201,0.2132961201,0.5899331657,0.7195666687,0.3581771791,0.4006478674,0.577301422,0.6993987045,0.5574043208,0.2238325566,0.2107658279,0.06237106719,0.03101496546,0.0397532723,0.08727476508,0.1460504616,0.153771395,0.2071296466,0.315771366,0.02074693279,0.01047231149,0.03004429638,0.01624008614,0.02928653282,0.03481585977,0.03258189581,0.1389280877,0.02610766104,0.02125391497,0.04147463284,0.04542568944,0.01791920349,0.01620294083,0.0274678718,0.01402950687,0.01225205647,0.09452313144,0.1260484496,0.2239616205,0.02858908073,0.06294945489,0.01623508422,0.04108815212,0.02445441837,0.009941534846,0.01394657655,0.1738376353,0.2157362124,0.1855211862,0.0138704918,0.04038852573,0.003250782617,0.02088849902,0.1173376376,0.02734526893,0.05160940645,0.0192880832,0.03126568572,0.004484994759,0.002530102873,0.005927207373,0.004164962451,0.008864498467,0.007153450079,0.002078155691,0.002580244747,0.001660709281,0.006894304961,0.08139283243,0.004934907039,0.000677166132,0.008017776567,0.006453251351,0.004089014064,0.004679299664,0.006932758757,0.03406153151,0.07667711976,0.1661568562,0.1285637878,0.1066432787,0.02865689798,0.01088827262,0.00832501412,0.006974720023,0.1272327119,0.01630662297,0.06044297509,0.03088040088,0.05133299753,0.2457811148,0.08475704493,0.1371744624,0.0772394093,0.06069994577,0.1539557631,0.1114136425,0.3265227487,0.1929501937,0.09226427093,0.03247811813,0.08735181348,0.3864158247,0.05460436561,0.007410830711,0.05083974459,0.01347106916,0.009005777114,0.03338244875,0.03413422726,0.2966947328,0.00637781105,0.0206211709,0.01554938473,0.02946360966,0.005482499437,0.006475135971,0.07078480735,0.09367821314,0.2085349801,0.1681209725,0.0357030218,0.006894243509,0.06520704557,0.02919139095,0.05725049352,0.04844194505,0.005922651849,0.02547560166,0.01390255357,0.02817220089,0.01235369502,0.01916799383,0.005444101553,0.00190439861,0.001639160776,0.002896131376,0.005598581276,0.005390724428,0.01628276986,0.002046165499,0.01057049542,0.03813097463,0.1048688427,0.2017313376,0.05865424833,0.1284429292,0.09269774207,0.06468313354,0.1717331249,0.06001900042,0.2494443894,0.1713698499,0.03065586494,0.03671135653,0.2067504054,0.2550289317,0.1824492143,0.082373217,0.04502131323,0.0250191331,0.01812742783,0.03335145031,0.01292169151,0.01186921709,0.01559602248,0.001636896058,0.007786051798,0.00198657517,0.04480730387,0.1331080146,0.04180264907,0.02770639358,0.002121786723,0.006156897315,0.00236707364,0.004150170067,0.001064590728,0.001484870138,0.001273974838,0.000902967317,0.000846120008,0.001315591887,0.001375577425,0.002675558911,0.00974036497,0.00372260432,0.06368866875,0.05074865626,0.03123058162,0.03181753346,0.04509786389,0.03307991426,0.09318178032,0.2985363728,0.06160205223,0.09307644217,0.4074320435,0.3633577692,0.2466585776,0.458470197,0.5604017977,0.1938021219,0.2761294851,0.1939103101,0.2939356708,0.3561433608,0.07989367954,0.06078248809,0.1442647258,0.1237342974,0.01644873566,0.004104666548,0.02617160014,0.0009701096728,0.00621603932,0.01683573878,0.02461465237,0.02135052283,0.03178776398,0.07462334185,0.1082346267,0.04197026325,0.005974441037,0.01707124947,0.006708453205,0.00996960365,0.004159505594,0.002067832026,0.03878522126,0.0499100835,0.02578949106,0.01477995954,0.006011318218,0.01822189182,0.01298322699,0.05007762432,0.2699670436,0.5996417502,0.5149917055,0.1151910172,0.03763820149,0.007081657542,0.009854995298,0.01267648283,0.04219613834,0.0194970916,0.02713521365,0.1357695242,0.05956397263,0.003714692559,0.006792736423,0.001318560633,0.02023361929,0.008634110521,0.02689072363,0.0724490355,0.1201412247,0.07962798578,0.1780816883,0.5427243967,0.04792229396,0.01940880789,0.05227604538,0.08092800573,0.07592419106,0.05169826948,0.02670922615,0.01933556335,0.009348463473,0.006533325511,0.01321427385,0.01477317298,0.005427791152,0.003064761183,0.006328613052,0.005778343369,0.006103136873,0.003481530977,0.002574825008,0.001157222395,0.01104149479,0.005946365422,0.005352011588,0.05950097955,0.03551992188,0.01196015882,0.01971157403,0.01074883756,0.003687657294,0.006087044435,0.003420868325,0.1509971918,0.02695234412,0.04105763521,0.02866061283,0.0576702739,0.01284818106,0.02996824956,0.01922699393,0.007855722156,0.01856873997,0.08989424004,0.3257336675,0.1330183883,0.0380492359,0.02670786951,0.09331888341,0.07843653873,0.1132518816,0.1879802027,0.03762532748,0.1310968261,0.05116549855,0.03684306537,0.07319524605,0.1455095163,0.06051962768,0.1086110581,0.07903431873,0.1852105159,0.8218402918,0.06632759461,0.05252426663,0.04621726448,0.1031858982,0.136918296,0.04061464478,0.08046110802,0.1369498799,0.3823038497,0.3371736255,0.2099183667,0.1369840069,0.2196134416,1,1,1,1,1,1,1,1,1,1,1,1,1,1,1,1,1,1,1,1,1,1,1,1,1,1,1,1,1,1,1,1,1,1,1,1,1,1,1,1,1,1,1,1,1,1,1,1,1,1,1,1,1,1,1,1,1,1,1,1,1,1,1,1,1,1,1,1,1,1,1,1,1,1,1,1,1,1,1,1,1,1,1,1,1,1,1,1,1,1,1,1,1,1,1,1,1,1,1,1,1,1,1,1,1,1,1,1,1,1,1,1,1,1,1,1,1,1,1,1,1,1,1,1,1,1,1,1,1,1,1,1,1,1,1,1,1,1,1,1,1,1,1,1,1,1,1,1,1,1,1,NaN,NaN,NaN],
	"pwr": [NaN,3.440401604e-09,5.530276916e-09,1.96257444e-09,3.982105552e-10,3.741491898e-09,2.77990471e-05,4.244290878e-05,0.0001171631294,0.002852213342,0.03942020108,0.01570117382,0.02088904084,0.03300978304,0.04202296002,0.03239870415,0.02486948699,0.02251321658,0.02108887722,0.02300167385,0.0224368421,0.02023408117,0.01817460809,0.01641432441,0.009039726437,0.003410353194,0.001642989447,0.001674223362,0.0008193208684,0.001183496845,0.01024197548,0.04014194339,0.02510638682,0.0128270534,0.01190621619,0.01429104724,0.02435807145,0.02342203469,0.04286135187,0.03154049885,0.0176288134,0.02653926002,0.009783599907,0.01139575711,0.009277696876,0.01844614522,0.005876070626,0.001402000509,0.0005326797394,0.0005366009376,0.02176555553,0.09434777073,0.08065388928,0.03817524635,0.0380360312,0.03619278022,0.02326759448,0.02061902284,0.01472802884,0.007429032833,0.01713028211,0.004806625618,0.003782360179,0.002114550004,0.0009951596394,0.004862491196,0.001620199268,0.0005075040012,5.927286286e-05,0.0003135851806,0.02679709484,0.07113741629,0.04211773469,0.04419889175,0.032626975,0.02419947055,0.03054043863,0.02714528438,0.02837558578,0.0372460034,0.05246745479,0.04846183192,0.05774007334,0.07968145719,0.07851108372,0.08933536628,0.07857741957,0.0303464601,0.01415463216,0.008803467526,0.01413099229,0.03673067414,0.01848210677,0.01831097946,0.01593226575,0.01473307004,0.006274702294,0.003075781935,0.003419218445,0.003643329002,0.006941744072,0.0110407508,0.01260373251,0.005424408396,0.008654596509,0.02339674367,0.01507288714,0.01234546213,0.03180496689,0.03349171472,0.02765174893,0.02314749879,0.01127317857,0.008441910017,0.01728627265,0.02179179718,0.007665925561,0.005534520363,0.008984964558,0.00768505345,0.007115748487,0.01145740247,0.01101376485,0.01155725178,0.01132574637,0.009866444865,0.009242543809,0.009032661161,0.007373725374,0.003809088091,0.001356129465,0.001148618955,0.0015890126,0.001313920875,0.002515061549,0.002230349821,0.002239777913,0.002137405874,0.001703380981,0.001318907943,0.0006352244506,0.0002712239595,4.60377316e-06,0.002250286908,0.001560070224,0.0003172281256,0.0004985072029,1.361581054e-05,3.470276727e-05,0.0001965980622,0.0001737160515,1.432575398e-05,1.744022071e-05,4.372901654e-06,9.944207156e-06,1.680711937e-05,8.211097854e-06,1.459356348e-05,1.753946463e-05,4.127626808e-06,1.259424522e-05,4.946953535e-05,1.04199634e-05,5.394895889e-06,3.698105832e-06,1.783261803e-06,5.979528615e-07,4.737947831e-07,4.449053717e-07,4.514196517e-07,4.072821784e-07,0.02214510805,0.02054070775,0.02614250511,0.02653468908,0.0307229238,0.01407529787,0.0009507476288,0.003879390502,0.002235504847,0.001299356719,0.005666979447,0.006302272554,0.00505964768,0.009699795412,0.005996528396,0.005185928593,0.003512264204,0.001019906229,0.001366011059,0.01245713302,0.07000503644,0.02945882649,0.008989507243,0.01336601961,0.01249446,0.01654367443,0.02384167845,0.03488773752,0.02101081561,0.03199135484,0.02202896719,0.08530804164,0.09243475067,0.07340984702,0.06690623592,0.03222723511,0.03722904839,0.005234172288,0.001214699845,0.001414022874,0.02067443916,0.04824656462,0.03040288801,0.02034407329,0.009418314682,0.002248169573,0.002236558949,0.005422339889,0.004555508099,0.007431771601,0.008438343449,0.01171469245,0.01197524213,0.005437658924,0.00453225358,0.004752764363,0.00458855321,0.004598515589,0.005997236711,0.009619513799,0.09731592335,0.2160793367,0.1215697578,0.03309656893,0.02415195575,0.02297787775,0.02337278476,0.03412764533,0.03796724867,0.02669854531,0.02895589204,0.01444151448,0.02841994645,0.02961980428,0.04521188288,0.04918825285,0.01418532985,0.008405507957,0.001839615945,0.003014258808,0.002112392439,0.01042214977,0.01494904306,0.002523581268,0.001818641148,0.002546088195,0.01096739564,0.0007651507985,0.0006966503544,0.001018084021,0.006960364988,0.010234032,0.01041575163,0.001096288735,0.005167817763,0.005166902595,0.001535632529,0.002826164851,0.003159219274,0.001259447007,0.001926293962,0.004597923581,0.03633955189,0.01089423654,0.003949549295,0.007300222691,0.006761474005,0.008914846855,0.01367296482,0.01529209042,0.01576138438,0.0159831356,0.01070914419,0.007718716392,0.008798342856,0.01141742754,0.01111188278,0.00308894009,0.00653473095,0.006656364294,0.005798487051,0.005247813663,0.01511951737,0.01328999057,0.008269561339,0.01026321147,0.009861828122,0.01173940214,0.008352026555,0.01021138265,0.01159925408,0.007241844329,0.004409557502,0.001056390269,0.0003261543349,0.0001295333145,0.0001832967829,0.0002697010773,0.000144845157,0.0002434556672,0.0002304742335,0.0009486280293,0.01375743551,0.004170744816,0.01658767542,0.01504659573,0.01011211417,0.005304858652,0.003136387896,0.01500233303,0.01088722797,0.02351648421,0.01698409397,0.00855723189,0.01086776336,0.01658009726,0.0206184909,0.008837966783,0.006986875077,0.005405414439,0.004493301355,0.001545029533,0.002955868411,0.01835709064,0.01064003377,0.008679258764,0.00886208081,0.01106296246,0.01550413778,0.01733982635,0.01450716588,0.01065589661,0.008499160662,0.007898368366,0.006106091401,0.003250793727,0.002102329197,0.002076099022,0.0008540242995,0.000190197448,0.0002004815041,0.0001784344136,9.842584097e-05,3.306839582e-05,0.0001651810354,5.212708993e-05,8.034524734e-05,7.856067723e-05,2.041566062e-05,1.645101807e-05,1.727489109e-05,3.082416904e-06,2.848195095e-06,1.214357893e-06,8.885844013e-07,7.782058244e-07,7.68785619e-07,6.668034197e-07,5.667556596e-07,7.868595668e-05,0.0008517912534,0.002283015765,0.004581020635,0.009722526762,0.0241190512,0.02361786431,0.01196037426,0.003390496125,0.004152831876,0.01808011964,0.009579718395,0.00504993284,0.009526354989,0.01560742561,0.01081185707,0.0109804711,0.0091986952,0.00951859447,0.01518734144,0.01438615388,0.01826576324,0.01417637427,0.01507100036,0.01873119925,0.02027763213,0.02077956703,0.02269514115,0.02217212358,0.03117051806,0.01916707059,0.02298249164,0.0371411244,0.06872303668,0.05691062238,0.07080826726,0.1302999443,0.06738616382,0.0234666464,0.009081131031,0.002412598726,0.006234083479,0.03603995919,0.06247828815,0.02650677424,0.0135956777,0.01359578395,0.02151681207,0.00225139536,0.004165335473,0.001583434646,0.001130533297,0.0006886928385,0.005006096378,0.009827307491,0.002295519867,0.001539496618,0.001061757113,0.0006003798507,0.00160159059,0.001693683064,0.002871903861,0.00337700925,0.001648938429,0.001003091967,0.002159959023,0.002305425171,0.001870728322,0.001738130318,0.001112021158,0.001124033624,0.001228000759,0.001789412274,0.00173317211,0.001744480829,0.001483352755,0.001673017334,0.001899993434,0.001828772351,0.001844882892,0.001930935352,0.002193735993,0.001786451379,0.001539028645,0.0009917869821,0.0007115911696,0.0006103908868,0.000609596006,0.0006313559306,0.0008483964765,0.0004889452899,0.0004433621904,0.0003374931983,0.0003769782366,0.0001907289502,0.0002423910837,7.025569368e-05,4.884024586e-05,5.744123511e-05,2.457962145e-05,1.16763984e-05,1.252920076e-05,3.31245232e-06,2.110474874e-05,1.077482309e-05,3.786834983e-06,9.199887898e-07,5.786132669e-07,6.303252628e-07,6.754605738e-07,7.268077601e-07,2.690278713e-07,6.726089717e-08,4.972982289e-08,1.654512372e-07,1.245316993e-07,6.865202525e-08,1.060703498e-07,2.247882525e-08,1.548979956e-08,3.616772559e-08,1.050086627e-08,1.411356788e-08,7.629433202e-09,1.132537499e-09,5.162024034e-10,2.479580584e-10,0,0,0,0,0,0,0,0,0,0,0,0,0,0,0,0,0,0,0,0,0,0,0,0,0,0,0,0,0,0,0,0,0,0,0,0,0,0,0,0,0,0,0,0,0,0,0,0,0,0,0,0,0,0,0,0,0,0,0,0,0,0,0,0,0,0,0,0,0,0,0,0,0,0,0,0,0,0,0,0,0,0,0,0,0,0,0,0,0,0,0,0,0,0,0,0,0,0,0,0,0,0,0,0,0,0,0,0,0,0,0,0,0,0,0,0,0,0,0,0,0,0,0,0,0,0,0,0,0,0,0,0,0,0,0,0,0,0,0,0,0,0,0,0,0,0,0,0,0,0,0,NaN,NaN,NaN],
	"sr": 16000,
	"range": [1,208204],
	"minf0": 63.1883,
	"maxf0": 706.3069,
	"thresh": 0.1,
	"relflag": 1,
	"hop": 320,
	"bufsize": 10000,
	"wsize": 640,
	"lpf": 4000,
	"shift": 0,
	"plotthreshold": 0.2
}
