{
	"f0": [NaN,58.20013662,70.67468432,59.52245971,59.11905623,59.07410584,59.17436313,59.1969809,59.2690251,59.43372446,59.58849518,59.68017689,59.74381472,59.85692514,60.01779364,60.07049817,60.05758756,60.09629458,72.15005894,72.21043206,60.22250304,60.09651817,60.02791208,59.95418832,59.73476873,59.1801777,58.98696026,58.82713592,58.96010312,58.92518311,52.53327816,53.11955917,52.87358329,52.93632056,53.1070048,54.01414011,40.67289162,41.02156846,55.60631967,56.35450748,56.58054889,56.60269477,56.44092274,56.29015014,56.13592272,55.81221614,55.84297274,56.03860413,56.18766152,56.31136384,56.33074378,56.24397622,56.14758551,56.06930411,56.04119193,56.17539892,56.16053376,56.18835159,56.14999409,55.9391884,56.05261321,56.02568216,55.98300123,56.17020447,56.11689765,56.02509496,56.76851374,55.57382678,56.07487825,56.31198191,56.38946363,56.29499517,56.18063049,56.06123174,56.02922964,56.09096822,56.16317565,56.20679002,56.170287,56.12193224,56.10759094,56.17055682,56.23632488,56.64103326,56.21030403,56.34485013,56.43208,56.40239897,56.34036713,56.31176937,56.26186948,56.20420877,56.1700446,56.19816252,56.25561896,56.29182067,56.31615785,56.38994951,56.50449688,56.61233763,56.55593912,56.53543288,56.50892009,56.26401738,55.9902994,55.48415771,55.14238382,54.78938984,54.75439875,54.75721721,54.6887744,54.64775307,54.65000634,54.69162042,54.7394286,54.7731625,54.84744798,54.91601215,54.92665491,54.77437799,54.79615534,54.94864013,54.64488861,54.57305299,54.56846277,53.57693557,53.62427247,53.58457241,53.42808789,53.25292139,53.12037371,53.05229825,52.99279616,53.01580247,53.02547206,53.01197843,53.02822114,53.04296903,52.94565157,52.65763894,51.9274104,51.31415212,50.24882545,49.51319135,48.61491139,47.46348374,47.58868606,47.62368344,47.37588298,47.20972021,47.67151647,48.83441537,49.69546779,49.93416812,50.34509958,50.8027872,51.05770074,51.08383567,51.04011626,51.04916162,51.15099743,51.2023386,51.25633259,51.29885019,51.31343683,51.3601951,51.43673741,51.56009033,51.55645288,51.48348893,51.46365787,51.48224661,51.51283944,51.57676501,51.65643839,51.64136182,51.45612675,51.52153443,51.59116376,51.26865986,51.27486776,51.43058375,51.5116736,51.13798833,51.95983067,51.40932965,52.34137055,53.68266823,54.40243879,55.76196759,56.046189,56.2023664,56.24985132,56.27273492,56.37541937,56.51792883,56.78304972,57.2475278,57.46529221,57.71524312,58.03005121,58.20176358,58.32019297,58.27849577,58.10125602,57.86603779,57.65437556,57.52640616,57.5597461,57.59307524,57.70323962,57.94127751,57.99302771,58.02540261,58.13040602,58.16398073,58.07548395,57.90955719,57.84857907,57.89579069,57.82540635,58.07673182,58.0056995,57.99699447,58.18110943,58.21598446,58.12699233,54.24239245,53.86514802,54.46290381,54.79196468,54.75421638,54.4997662,54.42927393,54.40019832,54.33000638,54.31310578,54.24755502,54.29080633,54.36563492,54.43870135,54.54738148,54.54959161,54.62905737,54.88637571,55.6304622,56.32514209,57.31907214,57.65273478,57.72203926,57.65042275,57.32654895,57.25316139,57.28318506,57.22222163,57.16241807,57.11566577,57.07628347,57.06142879,57.15220964,57.12748933,57.07774675,57.03009971,57.08979947,57.18630704,57.20337182,57.13829889,57.01954764,57.02731264,57.12834458,57.04984073,57.0705586,57.21269007,57.14833376,57.14555497,57.06230006,56.96577762,57.40631444,57.66169865,57.17399484,56.85414547,45.57182719,45.95789415,46.11864434,45.94285746,58.04908256,57.82265348,48.64577248,48.26437666,47.18944829,43.97458203,54.29708669,45.92490249,45.88934283,46.00530263,36.7938299,38.60089097,73.431091,49.31519936,47.29813307,44.15685057,43.89959628,43.36404865,43.58599302,49.50425083,51.77590908,49.35388795,43.77530298,76.46915367,51.06252607,51.55976527,51.71615021,51.86622807,51.99430326,52.09883502,52.07978193,52.01620861,52.00845044,52.06301742,52.16133673,52.27457915,52.40720847,52.41211415,52.34541216,52.37823145,52.3607015,53.69991543,54.86771246,55.25176239,55.26600646,55.16438505,55.06203399,55.03855311,54.94722981,54.88591679,54.91875335,55.07763554,55.29861595,55.52267732,55.73700478,55.93724986,55.98237379,55.90295305,55.76930294,55.68518303,55.70203695,55.78559074,55.82282529,55.79780437,55.76971841,55.84589124,55.90061927,55.9071368,55.90819705,55.89615553,55.8803633,55.873348,55.80674106,55.72120781,55.66850635,55.84202952,55.98891922,55.77308698,55.52636523,55.75104098,55.81336976,55.42524746,54.92150753,54.82309806,54.85774509,54.96621572,55.11252787,55.26470934,55.35542976,55.44181789,55.62973334,55.64960008,55.58046352,55.54956592,55.66367154,55.72030052,55.70524658,55.69642413,55.71890526,55.72182978,55.66037053,55.62032397,56.45150682,55.93063865,55.06906459,54.76323583,54.61426454,54.53940388,54.64483873,55.15463239,55.74339028,56.00028847,56.0671908,56.00007274,55.83434803,55.86423247,55.94970006,55.96003364,55.93219639,55.91688173,55.90503639,55.89528775,55.88102534,55.82320389,55.7807616,55.84322195,55.962101,56.11017695,56.27242399,56.37789341,56.17710494,55.94823976,55.69422211,55.93408205,55.80117439,56.02735189,55.70778895,55.59615655,56.02157398,55.95007804,57.47336459,58.57168697,58.92344262,59.18279479,59.29679899,59.49247395,59.71847119,59.76378036,59.7492745,59.92579152,60.01784008,60.04830959,60.04549106,60.01263036,59.99461812,60.02224507,60.110538,60.01886624,59.97252907,59.97883508,60.02573441,60.13078494,60.18339059,60.05402989,59.98819965,59.99287203,60.00899458,59.99193875,59.96354484,59.9880187,60.0258702,60.01513237,59.9763584,59.95513207,59.95832492,59.78097472,59.67717792,59.93894828,59.9609882,59.96233502,59.91883572,59.79146306,59.72697413,59.75377174,59.35109605,61.20640828,60.56895996,60.53520741,60.46379733,72.38313912,60.19593004,59.92278801,59.98152132,60.01146213,59.99355635,59.98946844,59.98595985,59.97585836,59.9946334,60.04875474,60.15089438,60.44854565,60.75325921,60.94993087,61.09607453,61.08932005,60.96862026,60.77574684,60.68400211,60.76755726,60.78855704,60.84757978,60.94978409,60.99071433,60.9996214,61.04088558,61.02871465,60.8986162,60.81436936,60.82068343,60.90076946,60.95871182,60.93167855,60.82722435,60.81520067,60.87704712,60.92869908,60.98696135,61.11012994,61.12442969,61.08938544,61.09287564,61.04109262,60.90523838,60.78746635,60.92808257,61.0976991,61.28993492,61.2300799,61.14430899,61.09443221,61.06411578,61.04110955,60.95008929,60.86892008,60.91730469,61.01919784,61.15423724,61.1125454,61.025788,60.99920388,60.93218745,60.88910968,60.95076886,61.07973077,61.21446099,61.39452786,61.51817555,61.32145307,61.27737438,61.34448028,61.34399367,61.22650357,61.26444245,61.36765078,61.45113448,61.43399524,61.31378489,61.30439574,61.32656056,61.44941167,62.15444483,49.47421154,49.17614454,49.21841468,49.07617456,49.21841468,49.3140448,42.0504957,61.4796206,49.47658887,49.37122365,50.25423854,49.68883634,49.5594535,49.55351598,49.48030637,37.45496771,37.52321058,37.41217558,37.62033786,46.79497767,36.16642953,36.96401398,35.34887861,43.55062727,46.68036542,35.34887861,35.34887861,35.34887861,35.34887861,45.87472409,45.2451828,45.41612942,43.96799344,52.93035138,76.93035138,76.93035138,76.93035138,76.93035138,76.93035138,76.93035138,76.93035138,76.93035138,76.93035138,76.93035138,76.93035138,76.93035138,76.93035138,76.93035138,76.93035138,76.93035138,76.93035138,76.93035138,76.93035138,76.93035138,76.93035138,76.93035138,76.93035138,76.93035138,76.93035138,76.93035138,76.93035138,76.93035138,76.93035138,76.93035138,76.93035138,76.93035138,76.93035138,76.93035138,76.93035138,76.93035138,76.93035138,76.93035138,76.93035138,76.93035138,76.93035138,76.93035138,76.93035138,76.93035138,76.93035138,76.93035138,76.93035138,76.93035138,76.93035138,76.93035138,76.93035138,76.93035138,76.93035138,76.93035138,76.93035138,76.93035138,76.93035138,76.93035138,76.93035138,76.93035138,76.93035138,76.93035138,76.93035138,76.93035138,76.93035138,76.93035138,76.93035138,76.93035138,76.93035138,76.93035138,76.93035138,76.93035138,76.93035138,76.93035138,76.93035138,76.93035138,76.93035138,76.93035138,76.93035138,76.93035138,76.93035138,76.93035138,76.93035138,76.93035138,76.93035138,76.93035138,76.93035138,76.93035138,76.93035138,76.93035138,76.93035138,76.93035138,76.93035138,76.93035138,76.93035138,76.93035138,76.93035138,76.93035138,76.93035138,76.93035138,76.93035138,76.93035138,76.93035138,76.93035138,76.93035138,76.93035138,76.93035138,76.93035138,76.93035138,76.93035138,76.93035138,76.93035138,76.93035138,76.93035138,76.93035138,76.93035138,76.93035138,NaN,NaN],
	"ap0": [NaN,0.8183249925,0.4501232209,0.2020863273,0.0786042322,0.01419250454,0.006622305902,0.007953236058,0.01020044045,0.006171069952,0.006431468253,0.005850587862,0.003655248295,0.005423150803,0.005443058436,0.003053564879,0.002521096156,0.002223866588,0.03587471548,0.05122152066,0.008119198217,0.008466984653,0.003976821605,0.01082859795,0.03074895157,0.02322458626,0.06169720163,0.2027543275,0.373388704,0.4093744327,0.4360199652,0.2343977629,0.3474411362,0.4667454483,0.3454719273,0.3609214899,0.3217613781,0.5788710557,0.2978862159,0.09690897809,0.04238151791,0.02507709983,0.01942726082,0.01260865578,0.01765643703,0.01718887792,0.01406444956,0.005941324204,0.007189284397,0.007370368692,0.004941351993,0.01210862868,0.02570510045,0.04364419199,0.07521007424,0.09418259152,0.03988868165,0.04416754993,0.07627528886,0.09717215415,0.05881679191,0.04512435492,0.06782199482,0.1029295786,0.1440693644,0.4227478989,0.6590699898,0.1925431127,0.06170493084,0.02093465522,0.01217270991,0.009188126926,0.005401737503,0.005895828582,0.006175242053,0.002161655286,0.003024764658,0.003128464411,0.01230644557,0.04395721419,0.1345298002,0.1106211518,0.1311771825,0.5785784838,0.2843486433,0.05083211241,0.01524852347,0.009723057793,0.00649562252,0.005807540697,0.006082988003,0.005135291331,0.004767654002,0.002805666948,0.002073799688,0.004241299334,0.004698325362,0.01191679677,0.02194514684,0.01583639541,0.006997618951,0.01123250815,0.01928456729,0.0184944541,0.03778228247,0.02605838438,0.05238838684,0.08496817544,0.04237443315,0.02036923783,0.02960309612,0.018985251,0.00790270207,0.007533167589,0.005531431192,0.006866325033,0.01104014546,0.02065036005,0.03581094171,0.0500658937,0.07452287338,0.1206167331,0.09116465171,0.05758761664,0.07932365585,0.1471341505,0.05506844007,0.02310599848,0.01834131231,0.02506889342,0.04720701181,0.05785149542,0.02381221899,0.008605073735,0.0070967083,0.008680862371,0.009946199375,0.008982195446,0.0106717716,0.05399898327,0.1113266724,0.2909190063,0.3782759688,0.4067913328,0.4553272416,0.4418729083,0.2244393615,0.1945583611,0.1554717377,0.1724405781,0.2036164258,0.2855176602,0.1682546747,0.1064560909,0.1155800863,0.1228570575,0.0784948761,0.04014285855,0.02537870734,0.02966865625,0.02117210847,0.02224700212,0.02687076458,0.0157679214,0.01041772742,0.009536132655,0.01947519374,0.02066940066,0.01198978068,0.006018936248,0.004428999967,0.004435773362,0.00478783204,0.006961589717,0.01131425664,0.03297488241,0.04880961857,0.06380032116,0.1388272973,0.205219969,0.1621959237,0.1270130235,0.3609041491,0.5464573477,0.6616108465,0.7043599685,0.6280816265,0.2849915036,0.1766826569,0.07592906865,0.02839829122,0.02313706157,0.02125960246,0.01359143547,0.009839307589,0.01499990977,0.04670832702,0.0444268931,0.01233146261,0.01295554327,0.0069925289,0.003247875129,0.004247474662,0.005622738004,0.006573313727,0.006806103261,0.006577890791,0.003673464063,0.002247280289,0.003105297398,0.009353504989,0.01011276966,0.007650582816,0.00601900835,0.004287443146,0.00175507659,0.001994156742,0.007164207922,0.01771342852,0.04098540184,0.05021227858,0.02332750254,0.01875952633,0.01861743872,0.08255462033,0.3775649254,0.6105662332,0.4368565823,0.1047054444,0.06508640141,0.03692641956,0.01928813934,0.0178896084,0.009160729613,0.009552455674,0.01161569112,0.01618537142,0.04150520288,0.05017812461,0.03316097374,0.03471495454,0.04426039386,0.03685313327,0.04568781572,0.08593028874,0.09757104444,0.1389062661,0.1067207465,0.02158884768,0.01318979081,0.01767176073,0.01898853183,0.01433861955,0.02349724561,0.04324383249,0.01935019658,0.01995954893,0.03618550133,0.04121381159,0.01643162132,0.007933877568,0.009444568283,0.01494178015,0.01418662129,0.01486499438,0.02313271974,0.02280971753,0.02746460847,0.04973491653,0.03109390968,0.04977458825,0.09875654113,0.1018641517,0.06296582423,0.07483112103,0.1032186722,0.1604668958,0.2764003578,0.5540194224,0.5984169665,0.4429144399,0.697044343,0.6902267444,0.8031785485,0.745339544,0.6939922451,0.769742218,0.7506709683,0.6681745677,0.7540076479,0.8367270182,0.8311836269,0.7229000702,0.7009525078,0.7900999646,0.8361554201,0.8417715671,0.8258599466,0.6851376632,0.8156201766,0.7160300785,0.6691668935,0.5706875043,0.6077710252,0.7294966529,0.6503676683,0.7054110162,0.7733955597,0.9440522704,0.2205755511,0.05302517911,0.02336973274,0.01742803985,0.00978650472,0.003123556691,0.006832732847,0.00643026625,0.004372439726,0.005089195048,0.007145064245,0.01526711204,0.02640843344,0.04517729004,0.05205658702,0.03099683646,0.01666911467,0.3164301206,0.2260823614,0.09787769753,0.03689834063,0.02226545935,0.03834947033,0.06249041788,0.02523984415,0.008013563487,0.01279133997,0.02317897485,0.01841356804,0.02404798608,0.02475732836,0.0120410884,0.005518059113,0.008311978569,0.007922419271,0.008506456844,0.006696184637,0.003866386926,0.006918321473,0.01030254835,0.007854139849,0.010073005,0.006597928674,0.003461938913,0.00575154309,0.01162553434,0.01245120576,0.008048065956,0.005269572982,0.005017348292,0.0179271881,0.05695632945,0.06209999709,0.0372980683,0.02291946033,0.02750813012,0.02339877997,0.1571572047,0.07601414038,0.01137278929,0.006830636805,0.01825770306,0.02475415509,0.02958610903,0.02566802004,0.02937156898,0.02303903319,0.02157124114,0.02100666339,0.01736959591,0.01852967568,0.03093658372,0.03875319345,0.02618041113,0.02993247734,0.09472091769,0.04014251011,0.06600975302,0.1701369051,0.2129694935,0.08648796701,0.06342746606,0.02840794735,0.02556278229,0.06580203299,0.1014078941,0.0783283536,0.08087577587,0.0702836914,0.03363597129,0.01244582479,0.006235648418,0.006527829442,0.004707056706,0.003280004819,0.003234109397,0.00400722038,0.004108506623,0.002557264527,0.00311530458,0.002356969226,0.00289006841,0.004066284195,0.008602189251,0.02128827683,0.03243486279,0.02646182705,0.03971757597,0.06968841577,0.133431578,0.1443004285,0.17857745,0.3753063528,0.4577648685,0.4152785066,0.3143743978,0.2247643846,0.05091937603,0.02130258494,0.007741014501,0.005065819926,0.01143181537,0.01083049851,0.006719458373,0.008011370806,0.006454496849,0.006229453692,0.004105242989,0.002741230061,0.002011816435,0.00353005269,0.01316875773,0.04896973478,0.01178233414,0.0117050098,0.01390844232,0.01066029045,0.140824811,0.09465248935,0.04431981743,0.007413259151,0.002509181608,0.001895908062,0.002446224447,0.001932554903,0.002550892853,0.002482674228,0.004194164432,0.006196144981,0.005319055381,0.01686803181,0.05108446196,0.0551741425,0.06162147613,0.05061150226,0.08800536573,0.1679341522,0.2397738092,0.2259046909,0.3133370748,0.268588455,0.7341406688,0.1140605753,0.03320544869,0.007766399314,0.05110455322,0.01736316566,0.01380769061,0.00768518161,0.01384027647,0.01402182123,0.009229949768,0.01447055336,0.01435929623,0.007579630137,0.003007363521,0.004617140586,0.02257641384,0.01589540004,0.01133405957,0.004929495662,0.002313010003,0.004768229227,0.01033401945,0.008699794845,0.004059271923,0.001072405514,0.005923400446,0.005371751608,0.002556831277,0.002660579946,0.003527677694,0.00339426232,0.001635222661,0.001786258183,0.003297614431,0.003304234919,0.002093595911,0.003538031813,0.004227348059,0.003908782211,0.002856214166,0.004901893157,0.0123028584,0.01969773519,0.01638791232,0.009498639242,0.01247188358,0.0140136973,0.01192840634,0.01445052464,0.01967815626,0.03191715458,0.04694303024,0.03606112154,0.02117000849,0.02919494519,0.02859163153,0.03043690342,0.03252135738,0.02852316889,0.02442119136,0.0177051696,0.009391036996,0.01679893137,0.01836578788,0.008356216809,0.006960111126,0.009929871272,0.007103705991,0.005222855168,0.01090056241,0.02799941221,0.0355645737,0.01577053761,0.0120826648,0.0293026689,0.06940394456,0.09975778048,0.04570760547,0.02814557,0.04922086557,0.07215845571,0.07505447372,0.1015746951,0.1174986167,0.2102957358,0.6769051068,0.5982289771,0.5022853826,0.4911529169,0.5813533729,0.3791504736,0.2483900635,0.2601758472,0.438701992,0.3707841001,0.4728886441,0.4381628858,0.3628472158,0.3588638913,0.3959726771,0.5788653264,0.448527853,0.4905347224,0.7461990035,0.92205652,0.7936393146,0.6821913061,0.5580270316,0.576227091,0.8776981095,0.6461634762,0.6019604228,0.6434636934,0.6779423059,0.6104436244,0.5100034119,0.5244337433,0.7646206725,0.4843037648,1,1,1,1,1,1,1,1,1,1,1,1,1,1,1,1,1,1,1,1,1,1,1,1,1,1,1,1,1,1,1,1,1,1,1,1,1,1,1,1,1,1,1,1,1,1,1,1,1,1,1,1,1,1,1,1,1,1,1,1,1,1,1,1,1,1,1,1,1,1,1,1,1,1,1,1,1,1,1,1,1,1,1,1,1,1,1,1,1,1,1,1,1,1,1,1,1,1,1,1,1,1,1,1,1,1,1,1,1,1,1,1,1,1,1,1,1,1,NaN,NaN],
	"ap": [NaN,0.3385135989,0.3277431278,0.3001721869,0.5721015418,0.01656388984,0.01476300446,0.002115109745,0.00334310253,0.002831792447,0.003775429692,0.002859189614,0.002332334264,0.002643262928,0.0109641792,0.003064356779,0.002044231978,0.0004568280331,0.06769026812,0.01760230414,0.001736461755,0.004577704754,0.008157625342,0.008452632904,0.01258560236,0.05323697697,0.01713225156,0.006942191051,0.07404619591,0.7476058471,0.4313583062,0.3295128759,0.05188443775,0.3679111431,0.05238915072,0.4065378081,0.1373482981,0.1373721483,0.623424723,0.2247007296,0.03622963586,0.02315356014,0.02202848322,0.02199584048,0.01112761236,0.01695446717,0.008679096269,0.009304802999,0.008991236958,0.008513178122,0.003580376159,0.007409803491,0.002985041412,0.03798939547,0.02284994642,0.02667603126,0.05223263677,0.02200531416,0.02761699085,0.08837167289,0.105542134,0.0202733059,0.01011686746,0.04097446425,0.04084253115,0.04483475481,0.1865854274,0.3745820365,0.6168906861,0.09426474017,0.01077898751,0.01227515111,0.0129020094,0.002748303746,0.004617843893,0.002356197178,0.0011917347,0.0023880853,0.00226856088,0.002715572706,0.02834433488,0.03232199257,0.01468238487,0.0817796057,0.01945486623,0.4715132743,0.06351586346,0.004959267812,0.006325969046,0.005840858734,0.00468838181,0.003526822883,0.004780102704,0.003218038435,0.001514984142,0.0008229739861,0.001249111361,0.001352889515,0.004293126044,0.006278637869,0.0043577232,0.003333961856,0.001920224552,0.02104080607,0.0176749717,0.04855915551,0.04010117858,0.05880309621,0.05356248499,0.03170805884,0.007189376665,0.01103399108,0.01168763094,0.01087243372,0.005457757517,0.005904088522,0.004524806246,0.007217420946,0.00534030385,0.03774213867,0.0284486052,0.05274191535,0.1285912797,0.01093566202,0.06262382652,0.09796244784,0.1545138482,0.01363574395,0.0134172131,0.005420911609,0.01738949282,0.02382483076,0.05989737312,0.00786455314,0.003432285453,0.004575366858,0.00235583257,0.002405352584,0.01076079203,0.04330069991,0.1473556845,0.1069545452,0.2779711576,0.1454227086,0.2320863685,0.4485028507,0.05141450032,0.1344913077,0.1051627127,0.07097704616,0.1084784496,0.3044571615,0.06991146205,0.1676383325,0.1274080954,0.09618259995,0.06974025541,0.07194470255,0.01984201576,0.01464498978,0.009676566601,0.0179687955,0.009053973327,0.01676100523,0.009343283896,0.004708294219,0.00815877158,0.01470264963,0.01569702948,0.005544982546,0.002331456984,0.003735290912,0.002617736872,0.004313101347,0.006622440467,0.005308052768,0.01681964327,0.02820705186,0.02582771799,0.0872336147,0.1405104699,0.1134411464,0.1078505106,0.1129143311,0.3044021334,0.2722442318,0.452052598,0.2846145355,0.2968178124,0.1977727465,0.04910847745,0.00979187147,0.005438516493,0.01940239889,0.003417254651,0.009456949971,0.01520077513,0.029273299,0.0287556054,0.02544505859,0.01630303738,0.005664074713,0.001008345795,0.001098202006,0.006474965846,0.003905642676,0.00828990982,0.00488233867,0.003140957539,0.0005396693959,0.001393984044,0.007403688419,0.006833185749,0.002971816146,0.004971922621,0.003178253579,0.00322792077,0.002465953782,0.0008488224105,0.01084655375,0.008698183369,0.05273004666,0.01164595768,0.01271851086,0.009792642811,0.01485899224,0.07968136665,0.5629440909,0.4960578428,0.08544980975,0.02724443752,0.01656316239,0.008659177534,0.008346966666,0.004872354221,0.00666674818,0.001718580854,0.002513027763,0.01478073397,0.03195777637,0.01789035658,0.01111638628,0.037458983,0.02406707555,0.02789764104,0.09306989107,0.2186730225,0.155847748,0.09891439046,0.009594277186,0.005915865134,0.01376827818,0.008786919038,0.008535664411,0.02308636088,0.06329064694,0.01725546192,0.004472399262,0.03383446884,0.005545638557,0.009557236583,0.005221859497,0.003024199038,0.01008713631,0.0043111726,0.002846809745,0.02162688436,0.01178678002,0.005430269234,0.04719531144,0.009907375127,0.01617591811,0.1052888014,0.03568064667,0.02179186809,0.02066546363,0.08730612836,0.08850412291,0.1803381251,0.2274881863,0.373765834,0.3590100627,0.3365478011,0.4253760829,0.2389201673,0.6193511387,0.4399839596,0.3277061004,0.7293691955,0.4273037749,0.3302142869,0.7068319746,0.6658807665,0.3004157584,0.31482277,0.4711256152,0.5195773344,0.3693859622,0.4131528004,0.4713562082,0.377308573,0.327924076,0.4254958693,0.250566688,0.477765303,0.6278646196,0.4701325117,0.2820695771,0.2665330324,0.4754047909,0.6097422827,0.1204765134,0.01294779703,0.01549329279,0.005884241482,0.0008372138177,0.005464349666,0.003831598116,0.003669645134,0.004526669349,0.007564335269,0.006714502187,0.01467665951,0.02341993525,0.04267030928,0.006139790902,0.1215383847,0.3465519017,0.1029435081,0.3220002014,0.01184239808,0.01997859775,0.008734309493,0.04941876674,0.01353845363,0.007358013929,0.01109184283,0.02913048522,0.0218623024,0.0154577298,0.01404844508,0.008071882834,0.002780246385,0.007317416998,0.005739344992,0.001287833625,0.007201172176,0.001375559998,0.001030374156,0.009287320577,0.003496760939,0.004451874713,0.002594653117,0.001010574338,0.002568828523,0.005398292421,0.009226720955,0.003995095533,0.005404219862,0.001471981523,0.008356003533,0.02601354202,0.02539544928,0.02090151537,0.01742175134,0.02373850481,0.02531373571,0.06008434345,0.009080379218,0.00432505689,0.008094534275,0.01095393061,0.009983172425,0.02533549041,0.01682602614,0.01587855382,0.003767834138,0.01015835259,0.01618207113,0.007656860085,0.007295668715,0.007290845654,0.03819275388,0.005666031809,0.02507655288,0.02077025189,0.03788514704,0.05675172596,0.06643453881,0.1592361223,0.1651572016,0.0593964889,0.02199817831,0.00595684079,0.10521805,0.1037568966,0.06304775801,0.02837672535,0.03436604212,0.04194960987,0.006225842986,0.001899765815,0.00250013201,0.003541921961,0.0006630055215,0.002614329893,0.002222205911,0.001805633606,0.000999039477,0.0007034868561,0.0008180289102,0.004848813202,0.005019836794,0.003340317038,0.01461478109,0.05267625001,0.01001469988,0.03863801987,0.052500535,0.1664680177,0.06785917558,0.06814207552,0.2107818112,0.2936886059,0.1171369643,0.2981869484,0.3719569718,0.1011603802,0.01130516246,0.004398253765,0.002540508522,0.01009547088,0.003376901982,0.003605280386,0.004843981996,0.003402077053,0.003144071161,0.002949904442,0.001606151359,0.0008126826672,0.0008048200945,0.009097042497,0.01515693427,0.0114538458,0.006499790308,0.00599889014,0.008373220941,0.007338208493,0.0607884978,0.0100373927,0.01053851408,0.00114537998,0.0004892057374,0.0005608749376,0.001301060025,0.00177704237,0.001683827313,0.001971239225,0.001217922906,0.003796015416,0.01150628961,0.05557095265,0.0431904126,0.02977382405,0.01886191001,0.06559668593,0.08361233012,0.1109033126,0.1522236553,0.1849782869,0.4863107763,0.1155051657,0.3395461179,0.01936089598,0.05115474243,0.01094009628,0.01208378304,0.0067526623,0.005363019612,0.001525439532,0.01334499616,0.003998554831,0.005799186233,0.01193461354,0.004296049694,0.001603335899,0.02177719138,0.04341250312,0.01428812274,0.01101086073,0.002761139935,0.005523696112,0.0088934928,0.002818554439,0.01361708614,0.001425267129,0.0007103436287,0.004332032705,0.002655253308,0.002855750247,0.0006381689723,0.001120594868,0.006455420842,0.002009130915,0.0007161856967,0.001322213908,0.002262154108,0.0002316104315,0.004596636636,0.002770975672,0.001161236053,0.003071240749,0.001498035804,0.005741030899,0.006579878456,0.0110774407,0.00216786083,0.006024202679,0.01955092569,0.01410806292,0.01098152124,0.005497835199,0.01589238364,0.01030199321,0.03980333677,0.0158046614,0.01019638963,0.01451529277,0.01006154959,0.01722449185,0.008053649016,0.01520100812,0.01811255084,0.006578620451,0.002663857901,0.01443614254,0.0009187411251,0.000979994587,0.004160373064,0.01068444642,0.001056974581,0.005129113406,0.004324740792,0.04199031018,0.004681372284,0.01120838675,0.005153400739,0.05821532383,0.1010873952,0.01937283085,0.01323164672,0.006006979603,0.05152165659,0.02652024602,0.04755196966,0.06759250931,0.2124588737,0.2707167241,0.4811962597,0.2353633384,0.2422059373,0.3674907662,0.1888663605,0.09999939545,0.07020290842,0.1670347979,0.1609726637,0.2823534853,0.3162865273,0.1831321279,0.07179221496,0.2150057665,0.3211834447,0.08874904206,0.4449162036,0.339134606,0.2397186552,0.3256586289,0.2382857794,0.1847314124,0.5044565476,0.8794797217,0.2780359365,0.2045051983,0.4003777818,0.2645343151,0.7072895866,0.03719335953,0.5000001736,0.2067043261,1,1,1,1,1,1,1,1,1,1,1,1,1,1,1,1,1,1,1,1,1,1,1,1,1,1,1,1,1,1,1,1,1,1,1,1,1,1,1,1,1,1,1,1,1,1,1,1,1,1,1,1,1,1,1,1,1,1,1,1,1,1,1,1,1,1,1,1,1,1,1,1,1,1,1,1,1,1,1,1,1,1,1,1,1,1,1,1,1,1,1,1,1,1,1,1,1,1,1,1,1,1,1,1,1,1,1,1,1,1,1,1,1,1,1,1,1,1,NaN,NaN],
	"pwr": [NaN,1.891362372e-06,1.092690068e-06,4.184374557e-06,7.532041691e-05,0.02195130099,0.03328077255,0.04000902768,0.03162392586,0.02652038928,0.02288166783,0.02391830847,0.02456779569,0.0377164904,0.04253777939,0.0423156077,0.06176173899,0.07986338552,0.1143517105,0.1091375616,0.08782885788,0.04515076215,0.03011822816,0.03832613957,0.04913324032,0.03032466783,0.01827449975,0.06146467728,0.01427490139,0.001870007612,0.009258998885,0.001042643323,0.004896601987,0.001843150035,0.001631725818,0.000474030891,0.001033185084,0.001980813729,0.001742451866,0.0005253385621,0.004991769637,0.01051347336,0.01038797275,0.01648169169,0.06653773036,0.1195991616,0.03659086564,0.02489714969,0.02460647682,0.02510789982,0.02745013834,0.0276712857,0.04427391335,0.02318496677,0.00753510097,0.002090684664,0.0003540130238,0.001018431799,0.001045883053,0.0004196146629,0.000315318056,0.0003078224353,0.0003634512709,0.0002957632555,7.588286263e-05,6.936975493e-05,5.830477478e-05,0.0001668650302,0.0001059259209,0.002706073879,0.0132785227,0.02033305368,0.0598664874,0.0829056245,0.05827947846,0.02787052696,0.02757336399,0.0271276941,0.029661697,0.04416059855,0.03899986555,0.006801542954,0.002526408952,0.0003063160468,0.0008553412267,0.00678640903,0.01263511774,0.06139589275,0.06081021243,0.08348231045,0.122489127,0.1736235354,0.1387070868,0.07968045298,0.07426200825,0.07548297386,0.09304856104,0.1245993484,0.1527156098,0.1522832074,0.1166026711,0.1473970849,0.2207860583,0.1194940518,0.07967042953,0.06688386338,0.05675345289,0.06706739254,0.04072183044,0.09400676777,0.1732179341,0.08591318158,0.07659593309,0.08268724333,0.08522344675,0.07934865409,0.07799673757,0.07853308083,0.09774561769,0.0612934179,0.02461833522,0.01347564129,0.001984351798,0.003032876718,0.002870119942,0.004650235256,0.002804384309,0.01988485131,0.03553165325,0.01992205524,0.01600858771,0.006889385668,0.007364624973,0.008656656764,0.009616718332,0.009864954136,0.01290462606,0.0102511043,0.01174634097,0.008616173891,0.01088507776,0.008019996021,0.01505124163,0.005901268852,0.003559242876,0.009493650496,0.004625070211,0.003225829893,0.004140994799,0.005509293804,0.002982756127,0.002425781738,0.005085307795,0.005708987675,0.01340381447,0.01098055213,0.02254292893,0.01583385321,0.0366706388,0.02870228724,0.02156497253,0.01306898855,0.0132636998,0.01121666389,0.01079297884,0.01202034936,0.0109581115,0.01016216799,0.01254631904,0.02049375355,0.01927411569,0.01429846185,0.01050759057,0.01210204567,0.01593854144,0.0165334562,0.01023028157,0.003854505335,0.0009837101682,0.000391058139,0.0004033651077,0.0002283383474,0.000418782822,0.0002218363955,0.0002257066811,0.0001754023365,0.0003253439566,0.0003819832206,0.0001775019266,0.001286871509,0.002088005939,0.007395926348,0.00637768574,0.005040051704,0.009274426144,0.009195070852,0.006053321263,0.003238612934,0.002021592566,0.006439135257,0.01668547469,0.02027614221,0.02332156515,0.0201042935,0.0196875626,0.02923829211,0.02021954773,0.02703077281,0.0241082333,0.02179324036,0.01931743988,0.01563344125,0.01358206376,0.01339191232,0.01462777961,0.01661494928,0.01979496115,0.02464634111,0.02141597916,0.01124673289,0.005578098317,0.00103337332,0.0009650883191,0.001158319124,0.001855056651,0.0009940462778,0.0007358629851,0.0006584350852,0.0002470027986,0.001557738079,0.002974779442,0.006906370841,0.01173309829,0.01932847064,0.04218087763,0.05030504616,0.01560681937,0.01370021953,0.009134127248,0.008707061922,0.007103466207,0.007887988644,0.005037281139,0.008518619805,0.01108364291,0.006428763613,0.008955786954,0.0247640932,0.008279734318,0.02350081899,0.04758485948,0.03113933628,0.02806254229,0.03602509743,0.03037990843,0.0061414826,0.006581135285,0.01051892229,0.00838930929,0.002715979903,0.003719105105,0.005952603831,0.005902921604,0.002346615797,0.001525185328,0.001826936975,0.001301297286,0.0006383122497,0.0005002719586,0.0001125553928,0.0001741389244,0.0001855877408,0.0001279927249,0.0001487056382,9.040825641e-05,7.501404912e-05,5.274773895e-05,5.713856181e-05,1.692965327e-05,3.146325778e-05,1.333208901e-05,1.362814519e-05,6.470659939e-06,1.641056978e-05,6.408672847e-06,4.631956286e-06,4.454719439e-06,3.449778424e-06,6.304106313e-06,9.430772877e-06,6.736751307e-06,3.304819074e-06,2.587685581e-06,7.000830281e-06,6.242374527e-06,7.8831262e-06,7.936973786e-06,4.262831765e-06,1.088176224e-05,7.539111591e-06,7.383788516e-06,1.159972022e-05,5.52095557e-06,3.818086688e-06,3.45329044e-06,4.016271408e-06,5.766666968e-06,8.508275548e-06,4.184427564e-05,4.88816171e-05,6.538671623e-05,0.002177416672,0.01128966168,0.01144148266,0.01976991905,0.01994166483,0.01948756202,0.02437732795,0.03231447631,0.03189197845,0.02205372092,0.0162193606,0.009817659269,0.006576234143,0.003509794997,0.003200207606,0.002274153956,0.003201538617,0.01096615382,0.0058089171,0.03174218236,0.02849597523,0.02251417652,0.006852359444,0.03233622518,0.04262874884,0.02494815528,0.01564316333,0.01735307648,0.02383049362,0.04120968859,0.04413693811,0.06138274796,0.06537143361,0.05456933393,0.04509583142,0.04051659458,0.03607337366,0.03534002166,0.03008191994,0.02739306064,0.02485097295,0.03943337547,0.06025790452,0.05297625076,0.03526608775,0.02262386626,0.0231680526,0.01472666703,0.01172876875,0.007512105431,0.001508397646,0.000916931028,0.0009309737137,0.001411627333,0.0006935524604,0.0006764636211,0.0006870187771,0.008733928946,0.02348029206,0.02700859377,0.03450882598,0.02374903395,0.01631045048,0.01994494767,0.03031194471,0.02128731804,0.01871897653,0.01124433804,0.006721293986,0.003548704836,0.003416969228,0.006451145533,0.004592855936,0.003650547133,0.0004944362231,0.0004509971043,0.001204524167,0.0006602211559,0.08934147864,0.04368155413,0.03846775308,0.05730397353,0.06630486783,0.02764983699,0.02576508705,0.02124588623,0.06066689485,0.09091486829,0.06487607034,0.03291862714,0.02878427152,0.03614240152,0.0411861245,0.04284051721,0.04323865693,0.05206633081,0.05897558665,0.07165033192,0.08079847683,0.08857669667,0.1122803116,0.1398247447,0.1419129536,0.08418069501,0.01633862601,0.03135200023,0.01744503962,0.00689371972,0.00304874144,0.002664896536,0.003271455833,0.001233240655,0.001447290156,0.0005934665878,0.000842990452,0.0007705355495,0.006426961129,0.04778516144,0.04394185004,0.04561814649,0.05656510767,0.07477684672,0.05645998884,0.03359523362,0.02645262393,0.02958838011,0.03675110146,0.06556675537,0.07442293351,0.06720470513,0.06674611684,0.004198992816,0.002353031326,0.002391965348,0.001738613199,0.00145036612,0.002359602611,0.003880115336,0.03138098819,0.0439793202,0.05931756338,0.07936143841,0.1118184288,0.1162034906,0.08828105098,0.06305708139,0.04415948254,0.03077111129,0.03171170832,0.02096534549,0.007604400419,0.01367878582,0.002888953333,0.003283799912,0.001211385148,0.0003979189964,0.0002256805238,0.00025972002,0.0001282049029,9.695482061e-05,0.0002067214823,0.0001075128156,0.03467281057,0.09283964583,0.2378472337,0.09054352828,0.02431317655,0.02076826469,0.03001149652,0.02420612921,0.02810415771,0.02769419007,0.02944651953,0.03199816373,0.03742801191,0.04005571469,0.03787834676,0.06162660456,0.09176767774,0.07308861387,0.08374330101,0.1029431685,0.08006124381,0.04079136223,0.1437617015,0.1605750682,0.1057885016,0.1003396128,0.09004483321,0.09261480245,0.07155079488,0.06048270207,0.05942245862,0.05717028118,0.0576658109,0.07763159285,0.08708438062,0.0795154644,0.06454617464,0.06559428401,0.05587067816,0.05217590756,0.03009116179,0.01508104942,0.01295071521,0.0198420087,0.02364536927,0.02398487338,0.01690700034,0.007941357681,0.0112725171,0.01107662703,0.007966281437,0.006665893591,0.006904915801,0.006059749302,0.005348851181,0.005474229007,0.006111169091,0.004471127271,0.004467086441,0.005641793945,0.006727700718,0.005661320971,0.006898591623,0.0059373036,0.005205375284,0.005405352769,0.004581728308,0.004792752336,0.003938191504,0.001821894852,0.0004995497376,0.001514225296,0.001742584948,0.0005949632349,0.0001233359594,1.369444091e-05,0.0001354512377,0.0001513994668,0.0001767811915,7.975380939e-05,6.251365723e-05,3.68366258e-05,2.288465103e-05,1.931459539e-05,5.854715701e-06,2.38266775e-06,2.807747622e-06,6.581301668e-06,1.228780571e-06,2.61033164e-06,1.566812096e-06,1.480143595e-06,7.428077591e-07,5.029284849e-07,3.746982831e-07,1.986273152e-07,4.390660069e-07,2.529584727e-07,2.43656156e-08,3.43814093e-08,6.720214952e-08,1.798259297e-08,1.869868921e-08,6.252119165e-09,2.864100248e-08,7.676621084e-09,3.425314597e-09,1.52732576e-08,1.650098993e-09,7.371289846e-09,1.390338105e-09,1.765479605e-09,6.8703373e-10,1.294860571e-09,7.482128965e-10,2.434883844e-10,3.038779217e-10,0,0,0,0,0,0,0,0,0,0,0,0,0,0,0,0,0,0,0,0,0,0,0,0,0,0,0,0,0,0,0,0,0,0,0,0,0,0,0,0,0,0,0,0,0,0,0,0,0,0,0,0,0,0,0,0,0,0,0,0,0,0,0,0,0,0,0,0,0,0,0,0,0,0,0,0,0,0,0,0,0,0,0,0,0,0,0,0,0,0,0,0,0,0,0,0,0,0,0,0,0,0,0,0,0,0,0,0,0,0,0,0,0,0,0,0,0,0,NaN,NaN],
	"sr": 16000,
	"range": [1,227177],
	"minf0": 63.1883,
	"maxf0": 706.3069,
	"thresh": 0.1,
	"relflag": 1,
	"hop": 320,
	"bufsize": 10000,
	"wsize": 640,
	"lpf": 4000,
	"shift": 0,
	"plotthreshold": 0.2
}
