{
	"f0": [NaN,59.99566894,66.32966342,66.28296966,66.30259835,66.30375833,66.28018397,66.32281003,66.43380461,66.52152552,66.62010834,66.64754058,66.47302728,66.32640881,66.36756542,66.40497693,66.45142441,66.46187917,66.42922523,66.41358942,66.37510118,66.39816488,66.44819684,66.46468146,66.56757672,66.63643369,66.36699883,66.52028401,66.45581501,66.3896368,71.09862155,71.12971917,71.17601764,71.16218235,71.12091524,71.13955636,71.15192806,71.23113281,71.36853815,71.52316343,71.62120818,71.62542948,71.65572894,71.70360671,71.6299158,71.5523291,71.19406284,72.47021363,72.78265013,72.90716186,71.89986413,71.85203974,71.79174847,69.2522492,68.74788037,68.35730887,67.86400544,67.59939001,67.47119945,67.35342408,67.45617262,67.56944833,67.73984923,68.00819719,68.31667978,68.42954736,68.4403987,68.44928996,68.69967488,68.48538278,68.13418074,67.87236574,67.78690104,66.9224708,66.92922057,66.59317592,66.29214614,66.09734399,66.00246991,66.10811844,66.19844722,66.19323613,66.16350294,66.12438077,66.0814154,66.0437631,65.87894013,65.72571881,65.70813204,65.73657821,65.8221894,65.88882719,65.87591155,65.77458161,65.74154215,65.79869181,65.88314425,65.98625683,66.00607319,65.99013272,66.02251812,66.04056788,66.13454706,66.3310862,66.41972627,66.464602,66.46309826,66.50270902,66.60937294,66.49914834,66.34135456,66.27899585,66.32013132,66.38533687,66.38236211,66.3782266,66.3533844,66.36940146,66.1824209,66.13396417,35.3711174,44.23796469,58.81648805,58.84809232,58.88734529,58.91014449,58.90933659,58.98499398,59.14801809,59.32412078,59.36286324,59.18418832,59.7743504,59.19952499,59.13630601,59.40003902,58.98769642,59.01595595,66.07597084,66.08473045,66.10153395,66.12109493,65.95590736,65.7098327,65.76149015,65.90614033,66.0367195,66.19250042,66.31313583,66.36436006,66.37935687,66.19428617,66.01280832,66.00166499,66.24199667,66.48700757,66.6177081,66.65136796,66.69518327,66.65135903,66.46695171,66.40117082,66.6219406,66.47432892,66.64481187,68.99639255,68.97546276,68.8374837,68.68832374,68.77315113,68.95626932,69.12536281,69.18302331,69.21998759,69.20102386,69.09829954,68.63208478,68.64967553,68.65837518,68.49269654,67.38764867,66.94441521,66.65820082,66.33232595,65.98549681,65.75502821,65.72551619,65.79247784,65.89800432,66.04641601,66.18110231,66.23458766,66.27228268,66.29175163,66.13345358,65.84181422,65.31925033,65.0809352,65.18006381,65.22544161,65.15651339,64.96567426,65.01454357,65.14320427,65.20328947,65.12970865,65.14012895,65.15448599,65.26685723,65.77958794,66.10841888,66.12310681,65.41172587,65.0195089,64.66493797,64.51945371,64.50094684,64.52998015,64.54466753,64.51873276,64.44301861,64.35478021,64.43762532,64.57378805,64.66429958,64.70686555,64.70601725,64.69094175,64.66614386,64.57678898,64.45069409,64.4562858,64.55718694,64.66884776,64.73137003,64.7710394,64.81824668,64.76653805,64.7123857,64.92407256,64.95277701,64.81537627,64.62428844,64.6917568,64.82238289,64.75462685,64.85711095,64.83471207,66.0979178,66.43582954,66.8486601,35.33246312,35.34887861,58.13675543,63.14988937,61.79148978,62.03541042,36.55244477,36.53919488,37.61374694,35.34887861,40.13762612,54.73389978,54.76148916,57.27510489,57.38831971,35.34887861,35.34887861,41.69991543,66.82534323,68.2389319,68.10662714,68.00058733,67.86437933,67.72814679,67.69715006,67.67357604,67.67303179,67.69548676,67.7163938,67.76187985,67.85549972,67.98339346,68.12009503,68.26273144,68.3323189,68.18770003,68.01767753,67.65231077,67.76714328,67.72655254,67.45636961,69.9525431,69.87782377,69.6992114,69.42387597,69.39502732,69.37248087,69.36594783,69.35055985,69.23609884,69.12747472,69.11744626,69.19984076,69.29206459,69.39129748,69.47964331,69.5235801,69.44775901,69.3174727,69.38072718,69.38454591,70.04285868,69.18036556,69.18693612,70.95268157,71.8462157,71.74137937,71.45182585,71.49201413,71.64901694,71.78411868,71.80814954,71.7239145,71.61798743,71.52974871,71.52041684,71.9085969,71.93809759,71.75906332,71.74491153,71.78207588,71.73440934,71.67594212,71.57739307,71.57981406,71.63227522,71.64455055,71.75430343,71.75258916,71.67935577,71.6837838,71.71566105,71.70740819,71.77643669,71.88269718,71.86566828,35.6959964,35.79545069,35.90771291,35.73293711,35.69265957,35.69880444,35.63979307,71.79025592,35.74010366,35.78208695,35.69089907,71.89094615,72.16107451,35.54964623,76.93035138,76.93035138,76.93035138,76.93035138,76.93035138,76.93035138,76.93035138,76.93035138,76.93035138,76.93035138,76.93035138,76.93035138,76.93035138,76.93035138,76.93035138,76.93035138,76.93035138,76.93035138,76.93035138,76.93035138,76.93035138,76.93035138,76.93035138,76.93035138,76.93035138,76.93035138,76.93035138,76.93035138,76.93035138,76.93035138,76.93035138,76.93035138,76.93035138,76.93035138,76.93035138,76.93035138,76.93035138,76.93035138,76.93035138,76.93035138,76.93035138,76.93035138,76.93035138,76.93035138,76.93035138,76.93035138,76.93035138,76.93035138,76.93035138,76.93035138,76.93035138,76.93035138,76.93035138,76.93035138,76.93035138,76.93035138,76.93035138,76.93035138,76.93035138,76.93035138,76.93035138,76.93035138,76.93035138,76.93035138,76.93035138,76.93035138,76.93035138,76.93035138,76.93035138,76.93035138,76.93035138,76.93035138,76.93035138,76.93035138,76.93035138,76.93035138,76.93035138,76.93035138,76.93035138,76.93035138,76.93035138,76.93035138,76.93035138,76.93035138,76.93035138,76.93035138,76.93035138,76.93035138,76.93035138,76.93035138,76.93035138,76.93035138,76.93035138,76.93035138,76.93035138,76.93035138,76.93035138,76.93035138,76.93035138,76.93035138,76.93035138,76.93035138,76.93035138,76.93035138,76.93035138,76.93035138,76.93035138,76.93035138,76.93035138,76.93035138,76.93035138,76.93035138,76.93035138,76.93035138,76.93035138,NaN,NaN],
	"ap0": [NaN,1.058164029,0.03573760419,0.01100613656,0.002649981175,0.001361293245,0.00123508893,0.001800603813,0.00169567356,0.001456457764,0.002075291811,0.001935873174,0.003535226155,0.005610642693,0.009007855189,0.003299875065,0.001220625993,0.0004655734922,0.0003020099432,0.0006323854752,0.0008961561167,0.001030965819,0.001105192571,0.003783100813,0.01160383203,0.02173670666,0.03177343035,0.05819373873,0.1169645985,0.367070734,0.0526463431,0.02182268406,0.008464881742,0.004925125364,0.0041638514,0.002982430315,0.002204165099,0.002438445588,0.002503258125,0.003378004106,0.003288828182,0.002323674062,0.003666209389,0.005478923034,0.006032415618,0.01349089089,0.1364194703,0.3426718123,0.5140892391,0.5733799791,0.4211882384,0.3105903289,0.3083052957,0.08409920776,0.0231123018,0.01294207835,0.01654576358,0.02363554061,0.02587053997,0.02316560289,0.006555927393,0.002315691336,0.002436542472,0.004729300515,0.002286571874,0.002644319812,0.003011298923,0.005890064609,0.01129654028,0.04747323685,0.04260028854,0.06175371844,0.1662956241,0.4953989703,0.06353298444,0.03630705442,0.009972876171,0.008035124028,0.006613550123,0.004396959678,0.002421931165,0.002332068796,0.001569559183,0.001520299596,0.002683639487,0.004440107511,0.005526087076,0.002692895836,0.001408905513,0.001126275952,0.00116688026,0.001297472553,0.002288169497,0.002388039927,0.001177273696,0.00122625979,0.001761914538,0.002016052315,0.001513108999,0.001317617134,0.001520864169,0.001546622297,0.003807303848,0.004327840238,0.004235070084,0.00275317946,0.003629730597,0.008418643259,0.01490194729,0.02208184627,0.03662434074,0.1349049005,0.2022739634,0.1279294808,0.07574615579,0.0999780074,0.2585756618,0.3660254737,0.4246790877,0.6395413627,0.5897364215,1.470717726,0.05582348832,0.0128956486,0.002436672312,0.0009142016671,0.0007519302348,0.001066810561,0.001810608948,0.00394313438,0.01072187102,0.03517761337,0.1489535548,0.1785962024,0.2445834375,0.1362315799,0.07658042347,0.07032458937,0.1056774429,0.02287033845,0.007425654428,0.005021031395,0.007301002065,0.003376002996,0.002035727188,0.001422764935,0.001655190474,0.002248795002,0.001150232397,0.001527674842,0.002817237257,0.003517327953,0.001722148046,0.001750671805,0.003501378243,0.002253926073,0.001653265767,0.001225048628,0.001333168118,0.002268063592,0.003106140274,0.006907072579,0.03080001831,0.0633266988,0.2424813045,0.04694594161,0.02708639693,0.01042824143,0.01425437204,0.01065037783,0.007331927537,0.004633563564,0.002971336741,0.00598745482,0.01132190299,0.06112500831,0.04287867536,0.04844457555,0.06597730283,0.0682340527,0.1252383271,0.08581248813,0.0238517887,0.01672360664,0.01288601932,0.01271117128,0.008350867577,0.003975469992,0.003683046342,0.004437856777,0.004561042449,0.00396060356,0.004362342704,0.005127500592,0.006219906446,0.01634615573,0.02214375442,0.03015039969,0.0483991275,0.01950170721,0.016290478,0.01843230022,0.0168228921,0.0202798582,0.02738472871,0.01355357141,0.009526390549,0.01933643416,0.0856747568,0.2227296913,0.3234527814,0.3589979395,0.06095010539,0.04390495917,0.02194923482,0.01022613596,0.006039087961,0.004791735287,0.00292925624,0.00286893169,0.005991991903,0.006435444243,0.006136028446,0.005014036972,0.005403454837,0.006077542664,0.008987638073,0.01343262404,0.01196048981,0.01270388937,0.008610999939,0.004625769009,0.003852034531,0.003759819324,0.005582651947,0.01288588662,0.01887696614,0.03343037105,0.1306267217,0.06892506468,0.01947322352,0.01679696012,0.02490075418,0.05660869664,0.1750594403,0.5276269699,0.3395824501,0.3327435598,0.5369653202,0.6596697178,0.9170944356,0.6578990884,0.7680083694,0.8766189603,0.764689221,0.8119418433,0.9610418011,0.781046366,0.8547486346,0.7763616899,0.7020311047,0.7828396906,0.8451988703,0.8075693028,0.7918473431,0.8361057486,0.6939336756,0.6843587504,1.232765195,0.8344424134,0.035664791,0.0102250643,0.002293977522,0.003177807737,0.001479745983,0.001184425843,0.0009775770937,0.0009409932103,0.0009887843391,0.0008446380384,0.0008624657078,0.001286759377,0.001353276894,0.001301305668,0.00241931215,0.003685433617,0.004590270433,0.02171174311,0.1639266858,0.4840652964,0.5404782014,0.4084528846,0.2277791995,0.03497230645,0.01450365257,0.0070276317,0.005925346532,0.002714517928,0.00177403908,0.001917510123,0.002473308796,0.003106667346,0.002244878121,0.001954457208,0.001299649109,0.001225683381,0.0009349604498,0.0009786473436,0.004539184307,0.01336620857,0.03258987659,0.09703539897,0.2150280527,0.2422136826,0.2278113776,0.1807760583,0.02163145934,0.008636413621,0.007386896358,0.006653309736,0.004925922011,0.004896832787,0.004159729122,0.005543308315,0.007263234906,0.009704892641,0.02653816816,0.06334247925,0.05338479566,0.01554821242,0.01177831049,0.01323850674,0.01278889584,0.01328943537,0.01505047693,0.02278365607,0.01851379124,0.01732250621,0.01952325686,0.03290088097,0.04376052366,0.03014769384,0.03051970827,0.03434723003,0.05544000957,0.07554259235,0.1167720192,0.07921832297,0.1605316909,0.1955628056,0.1231443959,0.09459078199,0.1041644781,0.2177589319,0.2534771118,0.1289975656,0.1965898207,0.3254071563,0.2203049195,0.6664391937,0.7013901986,1,1,1,1,1,1,1,1,1,1,1,1,1,1,1,1,1,1,1,1,1,1,1,1,1,1,1,1,1,1,1,1,1,1,1,1,1,1,1,1,1,1,1,1,1,1,1,1,1,1,1,1,1,1,1,1,1,1,1,1,1,1,1,1,1,1,1,1,1,1,1,1,1,1,1,1,1,1,1,1,1,1,1,1,1,1,1,1,1,1,1,1,1,1,1,1,1,1,1,1,1,1,1,1,1,1,1,1,1,1,1,1,1,1,1,NaN,NaN],
	"ap": [NaN,0.5840822687,0.3483409024,0.6067954942,0.007927504113,0.001481129771,0.0004281314878,0.0004627775249,0.001495350287,0.001993583632,0.001056746005,0.0006197847962,0.004305507091,0.003919996451,0.001129269754,0.009841516337,0.00269960855,0.0001156714166,0.0001784975043,0.0001541860965,0.0002355442519,0.0001287065377,0.0004336147627,0.0002383430439,0.002806646529,0.003429167734,0.005799611738,0.01425398135,0.02860381353,0.03613443127,0.4250753064,0.1257522897,0.006527506432,0.00321663142,0.001777723449,0.001227926223,0.001266026228,0.002008321705,0.005685287553,0.001491018161,0.002481739923,0.001186773505,0.0008632597218,0.003337586402,0.003113382288,0.001023379436,0.007710902909,0.02828488385,0.1261553729,0.4264086463,0.5522447489,0.1404109069,0.1819783305,0.2502664625,0.2992981823,0.1116708909,0.02002908594,0.01480938204,0.01857711555,0.01249059324,0.005651734809,0.001984750986,0.001336956465,0.002896738519,0.008822700817,0.001108594206,0.001746117511,0.0006668872777,0.002484801903,0.01221312444,0.06202657981,0.005455053062,0.04078269022,0.07659168581,0.2116057245,0.2032232716,0.0170409604,0.008916835748,0.003325170946,0.007090658617,0.002776428037,0.0008406543389,0.0006932432775,0.002260941376,0.000892610083,0.002206320964,0.003890610767,0.007370586295,0.001561650718,0.001346621248,0.0006789621043,0.0008546531456,0.0001119620627,0.002603358711,0.0009661241337,0.001039367724,0.001258818243,0.002530869671,0.0006873355258,0.001574937567,0.001220652108,0.0009004887637,0.001314907214,0.00600103214,0.002190211569,0.002646840438,0.001025513711,0.001156591094,0.004085678545,0.01767488163,0.006219401108,0.01574632869,0.08903300763,0.1799993208,0.02939065972,0.0197131142,0.1014254354,0.05991008265,0.3233798671,0.2783597388,0.407401102,0.6405910141,0.6413239121,0.3449520534,0.01075975771,0.0009062727071,0.0002227193498,0.001241388529,0.002427147811,0.002187072619,0.0002343041961,0.003718034677,0.01473468307,0.0756452125,0.1257479227,0.1775157749,0.05339493368,0.03467690014,0.6827604027,0.6632685045,0.0009821341015,0.008075640226,0.006003388186,0.003128703388,0.002254052891,0.003169235646,0.001586448395,0.001538701902,0.0008570935141,0.0008329592296,0.0005436662619,0.002450528599,0.004861832541,0.0008126410952,0.005773502098,0.005169090208,0.0007919574707,0.001706882699,0.001099246415,0.0006181979719,0.004877241247,0.001949054095,0.004374152438,0.007546033078,0.01248035255,0.5139749544,0.3999927741,0.003700588885,0.008832335279,0.01127136532,0.007384701707,0.002303282045,0.00113441992,0.002829064719,0.0008726174176,0.006016407578,0.03063246649,0.01755526669,0.02162952343,0.2595367077,0.2274834629,0.3906815146,0.009018727121,0.05438256656,0.02533134386,0.006729068827,0.005253217968,0.002450637125,0.001609453107,0.007071956444,0.0009846746427,0.001896818401,0.001308532166,0.001770899416,0.006140567551,0.01385034262,0.03197205946,0.004141495769,0.01134186467,0.1208991924,0.01651630731,0.01148575497,0.005722518678,0.01145872045,0.002337871696,0.0197086719,0.01216424465,0.005145715297,0.009735640838,0.07512947491,0.1279965804,0.3336089369,0.1923294728,0.3509821165,0.05749998164,0.01515847213,0.007272746687,0.005030506427,0.002310855532,0.001023137522,0.001825710973,0.00434628385,0.00388503199,0.006650793488,0.001772356589,0.00339143749,0.00180193562,0.002924286944,0.01025870376,0.005802939838,0.004460479932,0.005180512217,0.0029607656,0.001679640009,0.00205085893,0.002859639042,0.007316755457,0.005909204407,0.008547634251,0.0847987526,0.229998031,0.0181830377,0.002582434731,0.01967665381,0.01838833474,0.04516043772,0.6977455175,0.06392337875,0.09503072621,0.3611682241,0.2007404829,0.3545689263,0.3464100043,0.5695061538,0.7208021971,0.2135804739,0.2460248268,0.3311419816,0.3517044093,0.3859271883,0.339143673,0.338950876,0.526023798,0.4658372738,0.5313922612,0.3157330256,0.4231228323,0.3018782541,0.5561159662,0.4222894354,0.2102977542,0.3651264827,0.004442082893,0.003373169301,0.003396904442,0.0007703271167,0.0002243705266,0.001154431482,0.0006658309262,0.0001729487104,0.0009312297506,0.001319353306,0.002429824253,0.001323132989,0.00083098574,0.001113886887,0.004308578226,0.001546711843,0.01236220934,0.1623853358,0.1211107987,0.4261675314,0.2564401583,0.1985723476,0.3852580362,0.03255824916,0.0005945607718,0.008193195605,0.002143713845,0.0005157838895,0.003396811438,0.0008951588805,0.001100608981,0.003097586822,0.002535968301,0.001061727508,0.001216419625,0.0005084671215,0.0009790002517,0.002554992748,0.006494547887,0.008813463497,0.0490423884,0.0944101016,0.1395899433,0.1401300829,0.3140696564,0.0766315423,0.01273905346,0.002067418916,0.006353333802,0.00267633462,0.003722479684,0.002687620979,0.003378890756,0.006705699681,0.002871089886,0.05272381383,0.03007639253,0.08203926262,0.01343674653,0.004213794343,0.006514955585,0.009708139739,0.003383165733,0.0031477608,0.01812639916,0.01278269949,0.007721229972,0.009656459431,0.006460624208,0.01346887169,0.02637629031,0.01069194252,0.0117817774,0.002455995396,0.01305322436,0.02719593004,0.07013808847,0.1046247514,0.09227442103,0.05472923889,0.03737168803,0.07082618198,0.2195130139,0.0711198333,0.07864902447,0.1623792024,0.05010599333,0.1068748964,0.2408748064,0.5000001261,1,1,1,1,1,1,1,1,1,1,1,1,1,1,1,1,1,1,1,1,1,1,1,1,1,1,1,1,1,1,1,1,1,1,1,1,1,1,1,1,1,1,1,1,1,1,1,1,1,1,1,1,1,1,1,1,1,1,1,1,1,1,1,1,1,1,1,1,1,1,1,1,1,1,1,1,1,1,1,1,1,1,1,1,1,1,1,1,1,1,1,1,1,1,1,1,1,1,1,1,1,1,1,1,1,1,1,1,1,1,1,1,1,1,NaN,NaN],
	"pwr": [NaN,2.706486005e-06,1.082421613e-05,1.447129307e-05,0.009933352603,0.02772526541,0.03611942707,0.0299636874,0.03252510236,0.02672713079,0.03200211178,0.04135373083,0.0314097418,0.04293564112,0.04703185669,0.01146373349,0.03763647965,0.08511096292,0.09109379684,0.1014032377,0.08452893959,0.05282278299,0.04872819205,0.04427490906,0.03761778599,0.01979520039,0.006262514624,0.001902864263,0.00117584453,0.0004289159909,0.0003569136173,0.000191325355,0.03491855176,0.03002039828,0.02120358785,0.02592106923,0.02321560581,0.02413104701,0.0298404955,0.02344131659,0.01957344159,0.01775836011,0.02341958401,0.02354240387,0.01060174472,0.00729973075,0.004349211581,0.001350735636,0.001369624487,0.001018448391,0.0006723353207,0.00132041578,0.001075444315,0.00130986002,0.0003569010887,0.004746213754,0.04619929117,0.04754373051,0.009668045071,0.008155235042,0.002995545215,0.01495270641,0.04889042304,0.06420724598,0.05579943325,0.03719696316,0.04203458588,0.01789504836,0.0273876968,0.007119353725,0.0003084342788,0.002038243136,0.0001916865935,0.0003736542833,0.0002372128266,9.293540563e-05,0.0243988362,0.04749569764,0.05085098004,0.03189498681,0.02660169911,0.03245840886,0.03148833584,0.03507626395,0.04338054793,0.0385633354,0.02851921309,0.02226806443,0.02594250339,0.04090397783,0.07408359676,0.1092358486,0.1435178386,0.1065458307,0.0592398252,0.04054828943,0.04383236314,0.04293992737,0.03025921765,0.03282997619,0.03879705879,0.03609215718,0.03642076877,0.03056892441,0.01684193053,0.02063248631,0.02559610358,0.03590888488,0.012204013,0.003579963489,0.002358483142,0.0009268260543,0.0003388026595,0.0002812463697,0.0002128927347,0.0003628085297,0.0003345611072,7.426302492e-05,1.266069753e-05,2.232233959e-05,1.704982539e-05,1.373805725e-05,3.46103259e-05,3.074537244e-05,0.01064897726,0.03545542128,0.03842834977,0.03576948543,0.03531309128,0.04068261925,0.03837737113,0.02203099178,0.004476337963,0.0005372196319,0.000444105878,0.0002582123031,0.0005493187796,0.0008650116578,0.001141457644,0.000775536939,0.03718961179,0.0510494535,0.04907853469,0.01672611764,0.01784609002,0.03628193525,0.04693016746,0.05784071633,0.0409183016,0.02895307753,0.03602338239,0.02904761414,0.03659917383,0.04837815704,0.03247384646,0.03254224972,0.02741279942,0.03183077981,0.03875930208,0.04195978757,0.03643470606,0.05701486542,0.04907070601,0.003511482292,0.001376870509,9.952143818e-05,0.0003290554593,0.06410136668,0.02824021053,0.01595040905,0.03669129695,0.02322885378,0.01638237511,0.03428705094,0.05060788794,0.04073630966,0.002478683168,0.0004852146964,0.003189749696,0.0006489566387,0.0005541316763,5.240253349e-05,0.006726650409,0.009198505866,0.03402763365,0.02970301416,0.01245638424,0.01771604272,0.02382383217,0.0252129209,0.01949490404,0.01157527101,0.01763076724,0.0176703083,0.01347076163,0.01619143218,0.02382220944,0.009434955321,0.005543542288,0.001302030438,0.002723463086,0.003950877951,0.00186920465,0.002026121263,0.005358911721,0.001076078816,0.001681567406,0.003881224101,0.002875313771,0.001353068954,0.0003991766185,0.0002177399027,0.0001825937659,4.37057041e-05,0.004637394655,0.005480012077,0.005892618287,0.007696039357,0.008953975446,0.009172761351,0.01038538944,0.01328743046,0.0100995713,0.009061106858,0.01029859494,0.01003837369,0.006709804204,0.004251078792,0.002523258767,0.002552718939,0.002364918431,0.002486926462,0.004850298474,0.006915735978,0.007137974986,0.005475378427,0.002345015754,0.001227332757,0.001229577167,0.0001790302028,4.147815424e-05,0.0005660015523,0.001136260296,0.0004119841399,0.0002542972033,0.0001073859547,1.570714669e-05,6.481709843e-05,4.982859367e-05,1.216369276e-05,8.481772559e-06,5.008671899e-05,3.31917719e-05,8.991802104e-05,4.460929722e-05,2.198501862e-05,3.646966672e-05,2.864130924e-05,2.964531071e-05,3.052442109e-05,2.868171446e-05,2.839571257e-05,2.990524375e-05,1.707923983e-05,3.424995334e-05,3.244359845e-05,1.612472633e-05,1.171463207e-05,1.384697647e-05,1.228781969e-05,1.133417932e-05,0.001526458012,0.1529863972,0.2480105399,0.1431019152,0.1208079273,0.1655820068,0.1929294233,0.1778048696,0.1454499077,0.1328583758,0.1097175604,0.1214068648,0.1533608798,0.198345392,0.1765826256,0.0864917889,0.1520458932,0.08820423973,0.006174508212,0.002936171575,0.000890616055,0.002087450873,0.002208858771,0.000786545809,0.0921966478,0.1315850706,0.0575093811,0.1214305748,0.08354622837,0.06659960607,0.06187085287,0.04389740689,0.03307813922,0.04003803699,0.05731073406,0.07656395413,0.0809499641,0.07296540965,0.07325168628,0.0214446171,0.02020917569,0.01088604368,0.005344119868,0.003704425995,0.002795839338,0.0007072650803,0.001449151147,0.01917505796,0.007956559237,0.006507691036,0.009262521201,0.008195319871,0.007183798479,0.007231726725,0.005080920842,0.003250935159,0.0004909925602,0.0001922095719,6.368484331e-05,0.0002666878855,0.0005324799632,0.0003454585527,0.0001376776171,0.0001085076371,5.09457343e-05,3.665345987e-05,4.472915262e-05,2.640193882e-05,1.609492143e-05,1.157749381e-05,5.674303525e-06,5.03655269e-06,5.605813775e-06,3.945842303e-06,1.75164234e-06,5.9448126e-07,7.036841616e-07,3.661500857e-07,1.348153395e-07,6.203566357e-08,5.968567226e-08,3.529202679e-08,2.362459147e-08,3.007583373e-08,8.459036156e-09,8.995684459e-09,3.104844403e-09,1.432642972e-09,1.243693014e-09,3.097343072e-10,4.403536086e-10,0,0,0,0,0,0,0,0,0,0,0,0,0,0,0,0,0,0,0,0,0,0,0,0,0,0,0,0,0,0,0,0,0,0,0,0,0,0,0,0,0,0,0,0,0,0,0,0,0,0,0,0,0,0,0,0,0,0,0,0,0,0,0,0,0,0,0,0,0,0,0,0,0,0,0,0,0,0,0,0,0,0,0,0,0,0,0,0,0,0,0,0,0,0,0,0,0,0,0,0,0,0,0,0,0,0,0,0,0,0,0,0,0,0,NaN,NaN],
	"sr": 16000,
	"range": [1,152937],
	"minf0": 63.1883,
	"maxf0": 706.3069,
	"thresh": 0.1,
	"relflag": 1,
	"hop": 320,
	"bufsize": 10000,
	"wsize": 640,
	"lpf": 4000,
	"shift": 0,
	"plotthreshold": 0.2
}
