{
	"f0": [NaN,57.58722192,57.89526468,67.00496734,68.07643345,67.92436492,67.7050624,67.54003131,67.36318188,67.22444882,67.15410438,67.17514563,67.40934808,67.67573038,67.85274796,67.92695081,67.79875061,67.76954574,67.83921661,67.96592207,68.10438962,68.24472837,68.33527574,68.26804972,68.02244366,67.81244198,67.66146848,67.48941133,68.71988767,67.3929757,67.68442828,67.59206956,67.31821804,66.98710749,66.80325469,66.6671979,66.56919122,66.56296281,66.63741585,66.70720339,66.7691707,66.90150011,66.93921317,67.15302931,66.96498439,66.90398744,67.01124324,67.03108339,67.13515883,67.28908545,67.37686104,63.71406943,63.41833874,63.27556193,63.20257096,63.13736907,63.0882333,63.02777876,62.99069522,63.03753656,63.14613595,63.19966333,63.18556167,64.50748066,64.57256435,64.48152432,64.35689052,64.25478433,64.22644617,64.32912218,64.41624873,64.5090344,64.68461917,64.85070071,64.89357553,64.75219473,64.61583712,64.69427112,64.88229798,65.0320295,65.06313094,65.07554902,65.11762268,65.16717565,65.13629935,64.88746874,65.2707181,65.33430782,65.22083354,64.94635265,64.84561399,64.80815985,64.75649222,64.77347254,64.91495696,64.99470967,64.97069944,64.93885537,64.9234533,64.98697551,65.14487209,65.39178613,65.30226457,65.22418894,65.21723913,65.0998358,64.94426599,65.07202848,65.28097993,65.43605912,65.19003633,64.90093903,66.13799252,65.68506507,65.25351846,37.166258,35.34887861,37.599097,46.29130769,63.95778749,64.30416571,64.76224061,64.66000251,64.51373987,64.40896332,64.23647278,64.28350572,64.32738431,64.27377528,64.40253857,64.41510473,64.39790484,64.40024737,64.4447366,64.44525324,64.46524367,64.57046487,64.63543869,64.6301251,64.26734914,64.09419121,65.0298599,64.86741972,64.5827117,64.43127817,64.40371902,64.44102436,64.48233233,64.48566978,64.4388463,64.39432903,64.42601372,64.45727453,64.44198406,64.39943878,64.43864973,64.54433195,64.53644785,64.47252894,64.57139824,64.72325875,64.8610727,64.80307989,64.84888369,64.88031872,64.88609028,64.85977191,64.85125391,65.04744923,65.06100944,64.92835757,65.03600338,67.34977919,67.39218477,67.3373289,67.15807465,67.05288767,67.07192385,67.10366638,67.24566482,67.39890604,67.38835267,67.44153841,67.58554078,67.66308088,67.70556401,67.74654118,67.77704298,67.87659011,67.99103948,67.9672168,67.9057075,67.91042463,67.98367474,68.09333169,68.17906402,68.15568944,67.97353329,68.03281312,68.04913106,67.81271273,66.94249753,66.64890533,66.74883044,66.54103713,66.37273814,66.30435785,66.17936372,66.11235305,66.09441494,66.10258493,66.15183001,66.19866853,66.18191701,66.22643279,66.35411762,66.58170681,66.82432624,66.97338844,66.9945709,66.94645434,66.99818724,66.93210559,66.91338028,65.52591618,64.63798934,64.36111894,63.74937596,63.44996834,63.52577863,63.61052864,63.73540094,63.87555451,64.06981214,64.32887931,64.50750127,64.51942646,64.44271104,64.39621086,64.38372132,64.39435377,64.37812004,64.48307073,64.51933632,64.26372361,64.15831468,62.45270795,61.93771123,61.63859157,61.43698807,61.39958706,61.40708213,61.43275866,61.45348603,61.45080945,61.47943651,61.57887402,61.70678878,61.83504136,61.87518484,61.76455089,61.77203609,61.96665934,61.74729442,61.56399453,61.74324972,62.12370243,62.42040179,62.36143667,61.82632916,62.79771078,62.79776723,62.65492348,62.3556479,62.42849043,62.55007696,62.64648038,62.73337479,62.79114694,62.76908446,62.65288024,62.54750241,62.60202994,62.71478311,62.81368514,62.82408085,62.64396911,62.36325229,62.44381561,62.64375695,62.7836001,62.84490944,62.83559819,62.79819598,62.79376183,62.78429852,62.7866662,62.77642858,62.74675346,62.76997926,62.85403845,62.82097459,62.9869951,63.08449982,63.03872567,62.89522889,62.6348577,62.50621476,62.5240903,62.56178069,62.5771376,62.53415192,62.48244166,62.50490241,62.58847748,62.63658404,62.62178027,62.63579627,62.81608795,63.01241903,62.66971671,62.62321423,62.75771828,62.83297662,64.44161172,65.32467177,65.26844119,65.1348136,65.01738411,64.91153616,64.97904111,65.04594862,65.0508053,65.07108374,64.82694818,64.29404665,63.23897843,62.89458913,62.59948496,62.40782552,62.4833474,62.55600951,62.66392011,62.80853852,62.96114095,63.15521464,63.05374224,62.9808106,63.16761183,63.83657672,62.79610712,63.05136133,63.04804147,63.00210665,62.97814672,62.95830322,62.85974019,62.67340681,62.47091127,62.4998465,62.59586834,62.69006688,62.72295045,62.73530785,62.93756265,62.99749742,62.85894016,62.81190562,63.03472933,63.16392464,63.16602641,63.07423518,62.94229666,62.96376111,63.05562061,63.00059227,62.99137884,62.93736019,62.86635577,62.81562134,62.87289051,62.93914223,62.86638215,62.66135632,63.01092407,63.31175101,62.61650892,62.52455384,35.34887861,39.10514523,35.34887861,35.34887861,35.34887861,35.34887861,35.34887861,35.34887861,35.34887861,35.34887861,35.34887861,35.34887861,35.34887861,35.34887861,35.34887861,35.34887861,35.34887861,35.34887861,35.34887861,35.39656844,35.34887861,35.34887861,35.34887861,35.34887861,35.34887861,35.34887861,35.34887861,35.34887861,35.41717196,35.34887861,35.34887861,35.34887861,35.69307167,38.2085987,35.61478224,36.0442468,36.25124077,35.38299161,35.34887861,76.93035138,76.93035138,76.93035138,76.93035138,76.93035138,76.93035138,76.93035138,76.93035138,76.93035138,76.93035138,76.93035138,76.93035138,76.93035138,76.93035138,76.93035138,76.93035138,76.93035138,76.93035138,76.93035138,76.93035138,76.93035138,76.93035138,76.93035138,76.93035138,76.93035138,76.93035138,76.93035138,76.93035138,76.93035138,76.93035138,76.93035138,76.93035138,76.93035138,76.93035138,76.93035138,76.93035138,76.93035138,76.93035138,76.93035138,76.93035138,76.93035138,76.93035138,76.93035138,76.93035138,76.93035138,76.93035138,76.93035138,76.93035138,76.93035138,76.93035138,76.93035138,76.93035138,76.93035138,76.93035138,76.93035138,76.93035138,76.93035138,76.93035138,76.93035138,76.93035138,76.93035138,76.93035138,76.93035138,76.93035138,76.93035138,76.93035138,76.93035138,76.93035138,76.93035138,76.93035138,76.93035138,76.93035138,76.93035138,76.93035138,76.93035138,76.93035138,76.93035138,76.93035138,76.93035138,76.93035138,76.93035138,76.93035138,76.93035138,76.93035138,76.93035138,76.93035138,76.93035138,76.93035138,76.93035138,76.93035138,76.93035138,76.93035138,76.93035138,76.93035138,76.93035138,76.93035138,76.93035138,76.93035138,76.93035138,76.93035138,76.93035138,76.93035138,76.93035138,76.93035138,76.93035138,76.93035138,76.93035138,76.93035138,76.93035138,76.93035138,76.93035138,76.93035138,76.93035138,NaN,NaN],
	"ap0": [NaN,0.5463987173,0.7985790313,0.4764548588,0.01949833247,0.007203754818,0.006779651459,0.01021675795,0.02149403142,0.0255400311,0.01786832521,0.01627579121,0.01591226103,0.008303806306,0.00668372446,0.007546109026,0.003403586242,0.001600468902,0.001673517858,0.002015614413,0.001648761638,0.002330067498,0.005557180713,0.01356315721,0.02815593071,0.07762828647,0.3145049102,0.6302888585,0.6784077988,0.0695962954,0.01986943312,0.009349788949,0.01603038113,0.02573923191,0.005685704409,0.002552021773,0.002994845107,0.001827826204,0.00157562578,0.002664619316,0.004257581152,0.003663612836,0.01598334931,0.03771379308,0.02272545053,0.03043728072,0.09135188568,0.1366507243,0.1535438279,0.4624489869,0.8726207702,0.1056439576,0.03029810636,0.006509076635,0.003039949609,0.001880473513,0.001647564138,0.001686497963,0.001891839041,0.00144334359,0.001772286113,0.00272358297,0.02087360065,0.06024128414,0.02110854481,0.009223731652,0.007966066283,0.006718420508,0.007068877277,0.007236317836,0.006618725862,0.005829024345,0.005286162654,0.006693668152,0.008016422117,0.01121044847,0.005588832195,0.00486679607,0.00537896728,0.005919106237,0.005650788944,0.02584196094,0.03971566926,0.006216234855,0.005779832515,0.08340125567,0.07487206438,0.02811893393,0.01500204795,0.03010499098,0.01563245891,0.007564621861,0.01114030565,0.01297243574,0.01588817064,0.01694611751,0.01634847166,0.01215064434,0.006289173953,0.00440232193,0.01038899813,0.02967806155,0.01668012256,0.003498286443,0.008783945774,0.03703580206,0.08423857564,0.07048665149,0.06518605567,0.1021331662,0.2083080913,0.4553925628,0.6176233811,0.7635973163,0.7630740055,0.7253662011,0.7551657873,0.7181217621,1.791355674,0.04190983205,0.02688294249,0.03241838283,0.03226333268,0.01041826898,0.01062104569,0.009063245268,0.006218214245,0.008168541159,0.03292348002,0.03926612753,0.01173214925,0.0050787414,0.003118018442,0.004508990437,0.01350573491,0.04411844867,0.1111555312,0.144652872,0.1567828463,0.2448355054,0.4648353881,0.084065016,0.05312150326,0.0223464455,0.007978483677,0.005860367963,0.005037645687,0.00361720905,0.002458846409,0.003451575949,0.004035208146,0.003192618534,0.002351948208,0.002186253615,0.002139456607,0.002863103916,0.004181627413,0.01421464475,0.02159215204,0.01455896483,0.0273955674,0.03559617684,0.01787132252,0.006294155443,0.003980232972,0.004972761711,0.02806322141,0.06946064001,0.07718869736,0.01515123222,0.008841932779,0.1765717056,0.07236840991,0.03982052769,0.03252284214,0.04958583787,0.01872113721,0.005520743131,0.007887262571,0.0176037474,0.007306153895,0.002469540681,0.002040077549,0.00197429424,0.001689110797,0.001376947255,0.0009830389023,0.0008960733925,0.001381528409,0.0006639307749,0.0005530932775,0.0003692046918,0.0004247765153,0.001007020374,0.00140449786,0.009267794397,0.02565457213,0.01681574202,0.01122255591,0.2586288868,0.3523619731,0.3486766982,0.08258266724,0.03472764388,0.02487324244,0.01164117595,0.01280962319,0.01462050333,0.01215016058,0.008537039834,0.005745023611,0.004292982989,0.003352594572,0.003136352231,0.003062372186,0.002448065895,0.008406025955,0.01809627645,0.02532712996,0.01715342511,0.02668479749,0.04004641853,0.03559739821,0.1104367242,0.2354604122,0.07466068501,0.04700702434,0.04875067661,0.01943495352,0.007193163137,0.005937441274,0.006220473684,0.004913052082,0.01139309448,0.01269265909,0.009853376949,0.004762880021,0.003133857328,0.006066970792,0.01852388853,0.01986799608,0.008979573233,0.01149861591,0.03130413497,0.1083558792,0.1118244519,0.1289880695,0.05767876846,0.03232812597,0.02099197619,0.006813228822,0.005978903824,0.006258043052,0.006106820067,0.006803679764,0.006649339008,0.006287560309,0.005916229916,0.006729249118,0.007934515465,0.009343798233,0.01310137337,0.06376393359,0.08516830027,0.04569141266,0.07732866443,0.2734501479,0.3069840075,0.313863026,0.305844428,0.0594693575,0.02907340958,0.01364681352,0.0150070257,0.007955123809,0.003487578884,0.001738309128,0.001318719297,0.001528608852,0.003199981173,0.005884788963,0.004839419456,0.002918142092,0.002912725958,0.003140812959,0.004043332768,0.0097701455,0.0114139084,0.006773395652,0.004472517745,0.002653861268,0.002514897399,0.003928563037,0.005027829492,0.006575423788,0.007650259845,0.007710438464,0.009526038516,0.01357675709,0.06960165557,0.1460565095,0.06066678823,0.08152474622,0.02438310678,0.004193650253,0.007429729844,0.01172060186,0.007850011798,0.005819733067,0.003821701354,0.00308109677,0.00411849369,0.004109022206,0.003477843074,0.002653529045,0.001749089251,0.00179137293,0.001943282858,0.006461980147,0.01879374977,0.05048839195,0.04248451246,0.05118084364,0.04752205966,0.08459017589,0.02618962226,0.01726912503,0.01336341143,0.01485017543,0.01073327656,0.008140416982,0.01113594928,0.02425781985,0.01176166847,0.01022650166,0.05053637459,0.05988186104,0.05312376712,0.06417114091,0.03960950865,0.007917851406,0.00371121611,0.003121136959,0.003363448089,0.008362309669,0.01482546544,0.008674568671,0.005838993025,0.1763946985,0.4192805805,0.1828592247,0.02987607372,0.006056566517,0.00453738501,0.005947754161,0.005161664979,0.007650857156,0.01368490471,0.01841953364,0.01181275147,0.006686469555,0.004875684931,0.00435584665,0.006295489618,0.01045062017,0.00626806539,0.006971258552,0.007879302561,0.008440759961,0.004347299988,0.006024364238,0.01392366346,0.03726881095,0.07838472127,0.05528039559,0.03896583014,0.03241221653,0.02588697784,0.0237515024,0.05444262726,0.1121413839,0.131395852,0.1910577847,0.3683594054,0.7083092839,0.8117886129,0.7497914484,0.7766500955,0.6748688034,0.6230665706,0.5473863709,0.4893811315,0.5617859465,0.5574926702,0.5455714579,0.4771720998,0.4812368128,0.501824002,0.3719517301,0.34156034,0.2711953054,0.2348316409,0.1950605315,0.1917947311,0.1560518075,0.1346895178,0.1151686819,0.06753568371,0.1139395863,0.2076222403,0.1022633573,0.06440248135,0.08404963475,0.08998068425,0.1138513532,0.07481801684,0.1420216449,0.4716404451,0.3194684333,0.1420010543,0.3415202168,0.7176997031,0.3400652443,0.3005187745,0.5676981569,0.9193824325,1.145620234,1,1,1,1,1,1,1,1,1,1,1,1,1,1,1,1,1,1,1,1,1,1,1,1,1,1,1,1,1,1,1,1,1,1,1,1,1,1,1,1,1,1,1,1,1,1,1,1,1,1,1,1,1,1,1,1,1,1,1,1,1,1,1,1,1,1,1,1,1,1,1,1,1,1,1,1,1,1,1,1,1,1,1,1,1,1,1,1,1,1,1,1,1,1,1,1,1,1,1,1,1,1,1,1,1,1,1,1,1,1,1,1,1,NaN,NaN],
	"ap": [NaN,0.3835534935,0.3807684722,0.4016546334,0.515411064,0.3414545832,0.0145541279,0.004562302877,0.002472016781,0.02564725639,0.01712988988,0.03754504049,0.006007470194,0.03663393552,0.007254209903,0.00290480135,0.009185108531,0.003714685708,0.0004547012774,0.003652296454,0.00114094855,0.0009653951132,0.002017509438,0.003555126041,0.01586113622,0.08646905743,0.006480691187,0.2016135354,0.1895558088,0.396410936,0.5670572344,0.005132209163,0.00319036844,0.004029954484,0.1745452386,0.01032405791,0.00106886085,0.002548652525,0.0001995823793,0.001285831202,0.001058056962,0.002712969478,0.001256576883,0.006580630397,0.1084822927,0.01957527952,0.005382112428,0.5162532121,0.3264920201,0.02817277949,0.2637483903,0.5251753585,0.4086743374,0.02765443829,0.006146655567,0.005187043915,0.0002283391734,0.000440663665,0.0008767765233,0.0006481384882,0.001928571273,0.001495948823,0.001248219197,0.09233354772,0.07219988327,0.01080093684,0.006515508141,0.003098501414,0.001296263247,0.004379953972,0.007301218384,0.00179894091,0.01051373389,0.004604418501,0.002463680673,0.01419255334,0.006811252606,0.004979606758,0.007425390474,0.004092941927,0.001973432085,0.001346915705,0.002171131107,0.03056372978,0.002088124395,0.01256978786,0.007414754782,0.1167253655,0.005686556563,0.008893893558,0.03277245598,0.01054482937,0.002127294738,0.00395408018,0.01421709267,0.006962092357,0.003236368359,0.005557779921,0.005171404372,0.002713880103,0.002703216992,0.003573576738,0.0205628894,0.02489942566,0.001707777986,0.002893004181,0.02931588228,0.02332633269,0.02597005159,0.02008782234,0.04083654552,0.06631713882,0.1442132274,0.2973490298,0.4078061951,0.2674342427,0.3997146832,0.4023491332,0.5130297029,0.4821527851,0.299193662,0.03894165715,0.00410973389,0.002411992364,0.003344417073,0.008540186675,0.002934183049,0.0009563286624,0.006770608137,0.01806365193,0.06533861039,0.003906936424,0.003262927067,0.0008365484387,0.001574696192,0.00382770533,0.04965779683,0.02299134326,0.07006723646,0.05732664663,0.0665978875,0.3858034021,0.3493774054,0.01500273284,0.03197905694,0.008722134076,0.0007557285586,0.002583651391,0.00234238211,0.002174764023,0.001975860884,0.002587868754,0.002306047818,0.001782093873,0.0008564361668,0.00171355811,0.002680647355,0.0008125043175,0.004084532419,0.001794026596,0.01309755574,0.003332448847,0.01245658646,0.01079342808,0.005558080344,0.001643662547,0.003505941472,0.001321397796,0.03655931815,0.458487021,0.002573424259,0.003906073885,0.1682169351,0.4658511979,0.006769647525,0.01186663109,0.01923898986,0.01117015364,0.003471873494,0.006933195102,0.01229353075,0.004257811174,0.0006406216008,0.002026383295,0.001269887404,0.0007918698918,0.001718989983,0.0006017980515,0.0006930536423,0.001140846566,0.0003098521271,0.0008031480705,0.0001052956875,0.0006594912867,0.0009548768028,0.0008413441232,0.0003807642199,0.08721925363,0.06878981508,0.008102766976,0.01618406124,0.2686313657,0.2891001452,0.2132064018,0.01483800716,0.02536636619,0.004828993503,0.01109804959,0.00536746285,0.005561703476,0.005710889773,0.009103578693,0.003669029938,0.001781331595,0.001402795655,0.003169791266,0.00478757118,0.01089698473,0.004212531181,0.05456119652,0.001149452744,0.01869675977,0.0562725948,0.006074373971,0.2441062343,0.5021468342,0.317239153,0.03974574399,0.02821931426,0.007156802331,0.003396271102,0.004476976035,0.00223178182,0.003246595433,0.008791573033,0.009717043291,0.003960985133,0.001150828674,0.0006347321132,0.002900613685,0.01075395316,0.02834775509,0.005616844184,0.003033215645,0.009209437115,0.08706194744,0.07981656746,0.254267179,0.04131638387,0.002903343928,0.01172302345,0.003394330331,0.003181321806,0.002458109573,0.002891357575,0.003177890553,0.006433952005,0.003106397112,0.002248798377,0.0008825237663,0.004788056829,0.007891428092,0.006531590226,0.01635684549,0.28506704,0.0980676657,0.01063362855,0.07470240143,0.1833547847,0.1113081856,0.2632190573,0.04955760413,0.002984067824,0.005971729763,0.001028259062,0.004160723307,0.0005086029134,0.0006106258036,0.001424423663,0.0004219791404,0.0005620943518,0.003441756492,0.003849978329,0.0007093449872,0.0007599344243,0.002629885038,0.003985125259,0.007619688504,0.003233542261,0.007018198764,0.002505636286,0.001686728135,0.0007480917356,0.001006868896,0.003156139218,0.002318658853,0.004291957618,0.003156840636,0.005829897859,0.003170195333,0.01133766979,0.008040838639,0.01122543017,0.05507571264,0.01145980866,0.00152845086,0.01194820449,0.007993850817,0.006014101836,0.002802989172,0.002467130123,0.0006817607716,0.001860532714,0.002602770058,0.0008412913964,0.003961932704,0.0006822575329,0.0007284200058,0.003264721077,0.003582353854,0.02550071376,0.2314218954,0.003737902514,0.0366143856,0.1262177315,0.09659760407,0.01767444541,0.005460947685,0.005665780146,0.00623848926,0.005075188524,0.001726054872,0.001498585748,0.01473099303,0.01362857397,0.01678130029,0.04010794295,0.04306257068,0.01264133134,0.0951136248,0.08856610861,0.006040632681,0.003014641901,0.001667845912,0.0009140929404,0.004752328561,0.01820209426,0.004653268674,0.003245184817,0.03485913256,0.4905059668,0.08488092638,0.1623987113,0.005320540621,0.0007053547592,0.002750158945,0.002067056487,0.002125663982,0.003867755617,0.01789462768,0.01793480505,0.002382028764,0.003384612056,0.001734966249,0.008506079853,0.005721614457,0.0117139771,0.003127315527,0.01404310576,0.009175065423,0.0009139807064,0.002717679633,0.01022189123,0.01928134882,0.03005593774,0.03219353732,0.01881953347,0.01365244135,0.007261518461,0.01256715822,0.02439159674,0.08991040066,0.08080074021,0.04341150029,0.1544135302,0.1910374737,0.5473347581,0.3750181782,0.3779837682,0.4104463104,0.3013559089,0.2041461388,0.3279007644,0.3053764232,0.3116425734,0.2700186111,0.1892477572,0.3337301675,0.2035570267,0.2442715677,0.1334190984,0.1131307453,0.08752333496,0.1090956564,0.1241989379,0.05468012864,0.07435701185,0.04592530124,0.01468866968,0.1264100022,0.09698889081,0.02982358918,0.03731319939,0.02746679348,0.06731597869,0.04732498062,0.03127110781,0.1040569619,0.4303466264,0.05820748343,0.1059578952,0.2503161263,0.4370325277,0.08414164135,0.2211084531,0.5000004974,0.5000005026,0.5000000741,1,1,1,1,1,1,1,1,1,1,1,1,1,1,1,1,1,1,1,1,1,1,1,1,1,1,1,1,1,1,1,1,1,1,1,1,1,1,1,1,1,1,1,1,1,1,1,1,1,1,1,1,1,1,1,1,1,1,1,1,1,1,1,1,1,1,1,1,1,1,1,1,1,1,1,1,1,1,1,1,1,1,1,1,1,1,1,1,1,1,1,1,1,1,1,1,1,1,1,1,1,1,1,1,1,1,1,1,1,1,1,1,NaN,NaN],
	"pwr": [NaN,2.083106637e-05,1.145981546e-05,2.487462833e-05,0.0003449243214,0.0001427744652,0.04466956578,0.1152195788,0.0881705986,0.02377462932,0.01813588656,0.006152708573,0.03179231081,0.01531095248,0.1057578694,0.1282309037,0.04770332832,0.06832238128,0.1059969949,0.154474318,0.1508806489,0.1112058983,0.088224664,0.06638840585,0.04195710796,0.005148346247,0.0080211209,0.003044782168,0.001737215226,0.001368750013,0.0007199768883,0.03882849656,0.05859261632,0.04108443647,0.002301474778,0.0417624316,0.0906607494,0.05997930841,0.0858622165,0.06901353279,0.0679285095,0.02615579828,0.02825856032,0.009096095746,0.0008759669041,0.008307004941,0.04790577576,0.001447052089,0.0005177700739,0.005502218248,0.001382180976,0.001145026242,0.0001429303451,0.03009562353,0.05509909533,0.07979184056,0.08697356178,0.07384910004,0.07627912293,0.05115563511,0.0419314015,0.04900860423,0.05275145845,0.02536116543,0.02480815737,0.05607223555,0.1126246653,0.08652642921,0.09831134697,0.05211764865,0.05004203355,0.03834146463,0.04595608229,0.06778643116,0.05757184566,0.0451019337,0.03466748991,0.03713484949,0.04651083167,0.0487120421,0.02749172438,0.04797492189,0.07241928461,0.009965973294,0.03274701245,0.02387335281,0.01328077954,0.01052420195,0.1818494977,0.1379119255,0.04480018624,0.05128478445,0.08226572804,0.04051680184,0.01788613502,0.01380104936,0.01768146672,0.02526370277,0.03305112072,0.03731307979,0.04502299063,0.03922714832,0.01430790748,0.005158833874,0.02426078456,0.01431842655,0.003669389681,0.0007727808792,0.001826193204,0.002340290142,0.0009110948266,0.0008188155568,0.000683419328,0.0001793799681,5.496700538e-05,9.239416847e-05,8.555689729e-05,3.736467014e-05,4.362158555e-05,4.63718121e-05,6.148257155e-05,0.01363539032,0.01258068848,0.05104020408,0.01964114542,0.03124328096,0.01930793514,0.0421215034,0.03471913801,0.006559667315,0.001332736055,0.007943597558,0.01131116723,0.02250064622,0.02366017869,0.02763044828,0.008300924772,0.01044550854,0.006224222693,0.006174141988,0.004990757512,0.001349708259,0.0006247780459,0.09786671087,0.02547439694,0.06760985246,0.09166752316,0.09498234992,0.1196567142,0.1403452135,0.14765107,0.09302068658,0.1235712156,0.1221513152,0.120395842,0.1160398979,0.0965740087,0.07665879314,0.05513205018,0.05317729552,0.0169602338,0.01828045912,0.006695225871,0.008923782408,0.0155136914,0.03407865335,0.03294458631,0.03034688762,0.03258684672,0.0004192749694,0.006101295034,0.01694142008,0.015735692,0.005946998916,0.1825002057,0.06017794491,0.06408093804,0.01950680103,0.08587257288,0.09065612154,0.0308528579,0.07672784163,0.1627002308,0.1828179575,0.2235911362,0.2357935495,0.2252122339,0.1776565496,0.1974483158,0.2319620195,0.222752589,0.2429387644,0.2578027354,0.2618949654,0.2437342198,0.1760906646,0.1603731346,0.03320309787,0.006053788377,0.02446131287,0.0065910655,0.005550457176,0.006990724531,0.002473036055,0.03339031516,0.01856949356,0.06669601612,0.1216633645,0.07631898397,0.0430927416,0.0468037217,0.04490611493,0.04539842656,0.05621478124,0.06236596587,0.0560172245,0.06440393747,0.08134307783,0.1017275597,0.02323476452,0.05920833441,0.01258877099,0.003835316657,0.006335179407,0.001657672562,0.001770509677,0.00321046571,0.07880456797,0.06027324664,0.09767816526,0.1218090555,0.1146447812,0.05874919424,0.09126938213,0.0609717011,0.03811100483,0.04783412599,0.07019323451,0.08230852003,0.05479696915,0.02940932493,0.00830810432,0.02317238546,0.01441172429,0.00724696019,0.0005573654189,0.0008994124601,0.001261105975,0.0248698163,0.03776120341,0.0399031072,0.03818226511,0.04439240762,0.03575378623,0.04237011644,0.03495528745,0.03348544384,0.03348659625,0.02743983629,0.02864800671,0.02806105084,0.01761905698,0.01079375314,0.003441222949,0.0004334948359,0.004724897776,0.00163006608,0.0001459726168,0.0001117817293,0.001012219616,0.0002369556324,0.001285444964,0.05830801253,0.07022864942,0.02029769022,0.0287479488,0.04238714931,0.05395921822,0.05819000182,0.05164753469,0.03146809244,0.0249713956,0.02078741496,0.02913053681,0.03706136244,0.04793772076,0.03734789374,0.02170571954,0.009389536987,0.01754368709,0.03865332778,0.08327808522,0.1177350502,0.09141534507,0.05875989157,0.04071292463,0.02871507155,0.02079030502,0.0207110422,0.01817695116,0.02152768308,0.007216379852,0.005449160833,0.003688456213,0.05865332079,0.1055833535,0.1073987883,0.04289990634,0.02920558561,0.02990524847,0.03163262359,0.02950993012,0.03169083861,0.01935000074,0.02087951168,0.02829677235,0.03427399185,0.03583200164,0.03092369675,0.02311359803,0.01401699161,0.001130482082,0.0063247031,0.001677139572,0.003119520189,0.002192685695,0.007776495637,0.03164925892,0.02634346993,0.02986417598,0.02572493959,0.04087952784,0.03870801574,0.01736373947,0.0113127326,0.02639110469,0.03557516883,0.02622990879,0.03526953304,0.02472345921,0.009553850825,0.02159227095,0.04097365598,0.04876651188,0.045135583,0.02541711642,0.006981639041,0.01637805832,0.02167852647,0.007319625612,0.002434183688,0.0006908703286,0.005822832367,0.1249395328,0.1235964561,0.06882758028,0.06049616348,0.06512856307,0.04825340256,0.01507567921,0.0176785729,0.03439371057,0.04171699239,0.03242376631,0.01945072156,0.01093379746,0.01282822021,0.02189139682,0.01967277998,0.02318026555,0.05226884054,0.04420393956,0.0118588277,0.001863987094,0.0004865385531,0.0006926617213,0.001169944601,0.001907274635,0.002363552631,0.002230745242,0.001321428037,0.0002762877436,0.0003835939242,0.0002719859513,0.0001723084598,0.000160769562,4.345211799e-05,4.322744765e-05,5.59562154e-05,5.441291844e-05,7.117508845e-05,6.039754243e-05,3.306523944e-05,1.699059439e-05,7.946891655e-06,5.112690979e-06,7.417321564e-06,3.499000454e-06,2.903635999e-06,2.08109323e-06,1.375670921e-06,2.355606059e-06,1.480514147e-06,1.12876044e-06,1.113573282e-06,9.43880992e-07,7.050169181e-07,8.093259985e-07,6.977049817e-07,4.712052233e-07,2.776416052e-07,3.711742122e-07,3.718869123e-07,2.051448801e-07,1.105122859e-07,7.537640008e-08,3.900511463e-08,3.211619149e-08,9.139519419e-09,9.516723395e-09,1.606484688e-08,3.592561127e-09,2.080568993e-10,6.486337296e-10,6.425778112e-10,8.358023106e-11,2.84163384e-11,7.491072883e-10,0,0,0,0,0,0,0,0,0,0,0,0,0,0,0,0,0,0,0,0,0,0,0,0,0,0,0,0,0,0,0,0,0,0,0,0,0,0,0,0,0,0,0,0,0,0,0,0,0,0,0,0,0,0,0,0,0,0,0,0,0,0,0,0,0,0,0,0,0,0,0,0,0,0,0,0,0,0,0,0,0,0,0,0,0,0,0,0,0,0,0,0,0,0,0,0,0,0,0,0,0,0,0,0,0,0,0,0,0,0,0,0,NaN,NaN],
	"sr": 16000,
	"range": [1,173417],
	"minf0": 63.1883,
	"maxf0": 706.3069,
	"thresh": 0.1,
	"relflag": 1,
	"hop": 320,
	"bufsize": 10000,
	"wsize": 640,
	"lpf": 4000,
	"shift": 0,
	"plotthreshold": 0.2
}
