{
    "DU": 184,
    "DV": 213,
    "F-measure": 0.9465449804432856,
    "F-measure Chroma": 0.9543676662320729,
    "FN": 12,
    "FNC": 0,
    "FNCch": 1,
    "FNI": 12,
    "FNIch": 11,
    "FP": 15,
    "GU": 187,
    "GV": 210,
    "Overall Accuracy": 0.9143576826196473,
    "Overall Chroma Accuracy": 0.9219143576826196,
    "Precision": 0.9428571428571428,
    "Precision Chroma": 0.9506493506493506,
    "Raw Chroma Accuracy": 0.9285714285714286,
    "Raw Pitch Accuracy": 0.9095238095238095,
    "Recall": 0.9502617801047121,
    "Recall Chroma": 0.9581151832460733,
    "TN": 172,
    "TO": 397,
    "TP": 198,
    "TPC": 191,
    "TPCch": 194,
    "TPI": 7,
    "TPIch": 4,
    "Voiced Chroma Accuracy": 0.9238095238095239,
    "Voiced Pitch Accuracy": 0.9095238095238095,
    "Voicing Accuracy": 0.9319899244332494,
    "Voicing Detection": 0.9428571428571428,
    "Voicing False Alarm": 0.08021390374331551
}