{
    "DU": 93,
    "DV": 374,
    "F-measure": 0.8574686431014824,
    "F-measure Chroma": 0.9053591790193842,
    "FN": 14,
    "FNC": 7,
    "FNCch": 11,
    "FNI": 7,
    "FNIch": 3,
    "FP": 43,
    "GU": 122,
    "GV": 345,
    "Overall Accuracy": 0.8051391862955032,
    "Overall Chroma Accuracy": 0.8501070663811563,
    "Precision": 0.8300220750551877,
    "Precision Chroma": 0.8763796909492274,
    "Raw Chroma Accuracy": 0.9536231884057971,
    "Raw Pitch Accuracy": 0.881159420289855,
    "Recall": 0.8867924528301887,
    "Recall Chroma": 0.9363207547169812,
    "TN": 79,
    "TO": 467,
    "TP": 331,
    "TPC": 297,
    "TPCch": 318,
    "TPI": 34,
    "TPIch": 13,
    "Voiced Chroma Accuracy": 0.9217391304347826,
    "Voiced Pitch Accuracy": 0.8608695652173913,
    "Voicing Accuracy": 0.8779443254817987,
    "Voicing Detection": 0.9594202898550724,
    "Voicing False Alarm": 0.3524590163934426
}