{
    "DU": 44,
    "DV": 503,
    "F-measure": 0.7702407002188184,
    "F-measure Chroma": 0.7702407002188184,
    "FN": 0,
    "FNC": 0,
    "FNCch": 0,
    "FNI": 0,
    "FNIch": 0,
    "FP": 180,
    "GU": 224,
    "GV": 323,
    "Overall Accuracy": 0.643510054844607,
    "Overall Chroma Accuracy": 0.643510054844607,
    "Precision": 0.643510054844607,
    "Precision Chroma": 0.643510054844607,
    "Raw Chroma Accuracy": 0.9535603715170279,
    "Raw Pitch Accuracy": 0.9535603715170279,
    "Recall": 0.9591280653950953,
    "Recall Chroma": 0.9591280653950953,
    "TN": 44,
    "TO": 547,
    "TP": 323,
    "TPC": 308,
    "TPCch": 308,
    "TPI": 15,
    "TPIch": 15,
    "Voiced Chroma Accuracy": 0.9535603715170279,
    "Voiced Pitch Accuracy": 0.9535603715170279,
    "Voicing Accuracy": 0.6709323583180987,
    "Voicing Detection": 1.0,
    "Voicing False Alarm": 0.8035714285714286
}