{
    "f0": [
        0.0,
        0.0,
        0.0,
        0.0,
        0.0,
        0.0,
        0.0,
        58.966210056669482,
        59.477939628618586,
        59.820770107541506,
        59.902914426209932,
        60.06345973261282,
        60.266033917579151,
        60.444216948777999,
        60.614428941915556,
        60.782070801472059,
        60.793561435158402,
        60.8824459945142,
        60.933735499616887,
        60.984875441160327,
        61.10312075118911,
        61.16357708776949,
        61.117730684558857,
        61.13998177533994,
        61.162204365967725,
        61.182233291351437,
        61.158697386145072,
        61.139361653995081,
        61.114837691344093,
        61.05280633978316,
        60.948970809128383,
        60.844508736530287,
        60.739412514976806,
        60.737378728006469,
        60.792610452547486,
        60.847664514681163,
        61.245370771271773,
        62.699671996192421,
        63.382320643026041,
        63.652662497656763,
        63.76042581811685,
        63.811168050432727,
        63.861760404233976,
        63.912205341230887,
        63.962503665384141,
        64.012651502872956,
        64.062656121214701,
        64.112516670909784,
        64.162234083640527,
        64.1838583568003,
        64.21942003381146,
        64.226624250190739,
        64.140690865707398,
        64.054328856733463,
        64.01685369020268,
        63.991764762709934,
        63.927798840553692,
        63.996347157328955,
        64.064623556963269,
        64.068699787962487,
        64.055865866319678,
        64.061031842318656,
        64.055560705540927,
        64.050086215754561,
        64.064952470228206,
        64.057675884253925,
        64.050396238556516,
        64.043116726368623,
        64.208094218367165,
        64.623202154065922,
        64.732118339861458,
        64.814307052514522,
        64.735080354660724,
        64.757998819831798,
        64.780888541472123,
        65.14657570366073,
        65.337642480676067,
        65.701132384171558,
        65.939956321491152,
        66.049665003293526,
        66.158682834409149,
        66.093022461805347,
        66.088654543833215,
        66.053635692684338,
        66.033905758867363,
        65.832470849199098,
        63.486369854520817,
        63.332232986894851,
        63.206768005613533,
        63.305120197861498,
        63.456085763000701,
        63.605746209737241,
        63.793240527482013,
        63.959385615420629,
        63.959539809804753,
        63.692336664773059,
        63.503351106596696,
        63.949675921162573,
        63.911855723205363,
        63.873954363113484,
        61.720047374302112,
        61.355134833573857,
        61.116108208622805,
        61.148873479480216,
        61.244293962902375,
        61.339191337256601,
        61.403113932003848,
        61.358796365821526,
        61.366229075508379,
        60.847756824458145,
        60.984446222724863,
        61.231513280816884,
        61.0704945578292,
        61.265527163131104,
        61.197021673284631,
        63.430166885813193,
        63.912920550192332,
        64.043781808098174,
        64.127814762919826,
        64.122703619934171,
        64.168158988732372,
        64.16250401856513,
        64.152272165028876,
        64.114508710137315,
        64.165276175247342,
        64.21589675889939,
        64.266369761427853,
        64.316691348090131,
        64.250806674013148,
        64.184671918774512,
        64.118286683276949,
        64.223906228732531,
        64.328885261743849,
        64.310154324171975,
        64.478104402094104,
        64.555390333690085,
        64.536287651167513,
        64.647300535328711,
        65.098226146370507,
        65.198506153409312,
        65.979402192805409,
        66.053964497748495,
        66.171707857138216,
        66.093073609270178,
        65.755237479070232,
        66.222179321390442,
        65.884061768259201,
        65.947872776040683,
        64.59626757935763,
        63.737634400304373,
        63.525592909304827,
        63.505328662318462,
        63.603101114218703,
        63.647791928538908,
        63.692367619604241,
        63.626320787452386,
        63.749028157979346,
        63.695292735062715,
        63.516790576563039,
        63.742321970182992,
        63.486830476844318,
        63.915660494665623,
        64.078749789998085,
        63.660564094655903,
        46.886258492005368,
        45.37915639764622,
        44.736997828069292,
        45.290432628576248,
        45.153171551916785,
        44.896957648125429,
        47.245846778592664,
        46.120364719805032,
        46.457697977363296,
        47.779837698639369,
        49.366230971185118,
        51.33466332649401,
        51.687519600408855,
        75.485694534287077,
        63.642028180090868,
        63.76625910208076,
        63.889604908132512,
        64.012078121556556,
        64.133694180875167,
        64.221702062389085,
        64.024256331965091,
        63.982354019075224,
        63.861427554845008,
        64.16651919384519,
        64.198557997959682,
        64.190354509946104,
        64.011676087266764,
        64.089739544006605,
        64.43947383703933,
        64.969294128052496,
        65.218870266107885,
        65.421799957093768,
        65.506265801288905,
        65.298437655364594,
        65.398011464959325,
        65.599779039511603,
        65.704435754111614,
        65.328316842517012,
        65.349368112131145,
        65.474910013845957,
        65.54774303346926,
        64.354775290806913,
        63.982610738329058,
        53.132667258124926,
        0.0,
        64.524078849695144,
        65.203077601695583,
        65.545903415266949,
        65.919317404569128,
        66.014989417167698,
        66.070857438004381,
        66.106728531598293,
        66.091178864808938,
        66.151153833638546,
        66.462684810907845,
        66.988529866834313,
        67.392503359446792,
        68.011595187178003,
        68.018406715824469,
        68.259191893904415,
        68.187568690929012,
        68.104106698129897,
        68.026041306662549,
        68.024262863247714,
        67.991773147803812,
        68.022087856472766,
        68.053556934949881,
        68.226775143178187,
        68.234415019481503,
        67.796820945706727,
        67.999620463441133,
        67.660294519963756,
        67.803621021468246,
        67.819928249974282,
        67.192472026608073,
        67.216949335462076,
        67.735630265263836,
        67.664270458474633,
        67.552888232743172,
        67.522771788680714,
        67.440276285918358,
        67.415958955224824,
        67.391608715077595,
        67.367225517831173,
        67.342809229109548,
        67.318358499836009,
        67.293873145808831,
        67.269353155851817,
        67.070802526173608,
        67.469909445297489,
        67.463067549852184,
        67.638282483207121,
        67.185656910901756,
        67.748554365325859,
        68.060004650805382,
        68.653418681142753,
        68.56139146267536,
        0.0,
        0.0,
        53.128814490392877,
        41.612550840633219,
        0.0,
        0.0,
        0.0,
        0.0,
        46.873952791796654,
        59.436194828458952,
        59.649824329094336,
        59.808231168785284,
        59.965201793992158,
        60.081665058465219,
        60.366347043182977,
        60.56349099705988,
        60.67304913268358,
        59.936377620629401,
        60.6916125286943,
        60.189218294662957,
        60.609495315176893,
        60.159578574817445,
        60.130619524655536,
        59.712127964161674,
        60.162993718468371,
        60.863848000231343,
        61.06243615068621,
        62.94274160307473,
        63.110646606799627,
        63.211786048075574,
        63.34475563360391,
        63.226729248585102,
        63.083752113666051,
        41.640194744902701,
        39.268388617289126,
        35.406340684371713,
        35.149885399594531,
        34.889573653250586,
        65.253595752753981,
        40.803313384786321,
        45.320538727262459,
        64.358298661512322,
        64.329286283661204,
        64.315197796962451,
        64.179279330977977,
        64.149826843952738,
        64.120324217866525,
        64.090769609748293,
        64.061164409116429,
        63.857512295575312,
        64.082519631114408,
        63.834900220997064,
        64.259150507157742,
        63.905781230240358,
        64.163713887198398,
        64.960230335111547,
        66.308985624500153,
        67.461785487245123,
        67.547866785555144,
        67.961577433590705,
        68.032167826446468,
        68.269330196282723,
        68.5032875268586,
        68.912620921232758,
        69.534288445672161,
        69.853648940795551,
        70.305652196629396,
        70.387420883684484,
        70.367118630801201,
        70.180805729405648,
        69.902570152761399,
        69.491546978332394,
        68.429620369368109,
        68.092984160756416,
        67.827760024692978,
        67.861630767379737,
        67.921248799799187,
        67.980662231610538,
        67.992447724209597,
        67.965907985061193,
        67.884112618208079,
        67.479934545538711,
        67.855757842452022,
        67.86909248412212,
        66.998438577590179,
        67.694252027045934,
        67.884527571606725,
        67.783806634520062,
        67.787313863637962,
        67.815485143221991,
        67.751693186264575,
        67.805359207561182,
        67.816414730645363,
        67.84574275629879,
        67.832622580029877,
        67.481942803560742,
        67.639967206411001,
        67.650888668342859,
        67.73474670202593,
        67.607949992493403,
        67.658951686330084,
        65.966559235591646,
        65.786467397880543,
        65.513893958587659,
        65.625870543833045,
        65.66088939160295,
        65.734102972607872,
        65.839207214867969,
        65.943677211667108,
        66.04752057174872,
        65.800988775088499,
        65.918063524765401,
        65.920826528185017,
        65.923590594636224,
        66.098614697955625,
        66.012833532194904,
        66.011928870726024,
        65.79443118046261,
        65.856450565379518,
        66.03283257647567,
        65.990805563615353,
        65.975277193388692,
        66.018187778585542,
        66.098181637446601,
        66.0720989026089,
        66.112937693476425,
        66.002828193639218,
        65.892015305673127,
        65.780488554445043,
        65.840505731331277,
        65.900317022477068,
        65.959916618071532,
        66.019313235003253,
        64.566533166207606,
        62.980581291201617,
        63.391175002422386,
        63.632603823878021,
        63.728161018170269,
        63.823193668920553,
        63.917705867567406,
        63.748732194789973,
        63.69533191643044,
        63.755327020053322,
        63.807808654447584,
        63.514019770668334,
        63.675056461976816,
        63.666944156294662,
        63.694672877234339,
        63.82281799973169,
        63.726239648806427,
        63.629119557208483,
        64.04318069477273,
        63.99711022029571,
        62.752003189297398,
        61.410361981114434,
        60.800623746078074,
        60.580406896866492,
        44.159540581639085,
        39.47954786597024,
        44.973666641569913,
        42.906242423014234,
        43.682024576809297,
        43.855865618944385,
        41.646239706387611,
        44.315062941671869,
        63.560709878143697,
        63.472004450672635,
        63.555107824692101,
        63.357907935062379,
        63.348643786880842,
        63.416744444133144,
        63.488428601698189,
        63.383905205173122,
        63.309956397127081,
        63.343780090369371,
        63.377537884419986,
        66.075696233416792,
        66.065944806829805,
        66.075191506034756,
        66.153652084543154,
        66.141304623612072,
        66.125207564474891,
        66.110967062252328,
        66.096714836666209,
        65.908458262640949,
        65.806310748600765,
        65.831526427124743,
        66.10687613225997,
        66.13600104510823,
        66.286252839174395,
        66.201251903274368,
        65.857520348009615,
        65.811372717276186,
        66.076327424754538,
        66.337288257243671,
        66.362356719805419,
        66.525618335344362,
        66.593882558714114,
        66.359289835209012,
        66.338684390267048,
        66.544462591737599,
        66.939171641718985,
        67.213492354641033,
        67.364563859650119,
        67.814095134899461,
        67.935886664907329,
        67.980756504993963,
        67.950457315398396,
        67.897175897554632,
        67.681239414664319,
        67.195286870297664,
        66.376741301767211,
        64.945124119351561,
        64.211653946613396,
        64.02707630270379,
        63.465224791358061,
        63.422414629551184,
        63.623713239512789,
        63.993238349848291,
        64.033989821624871,
        64.348942230412845,
        64.350096729408889,
        63.98811942728576,
        64.031865351082601,
        64.075499392388735,
        64.119031663318452,
        63.807397015505487,
        64.154175410100493,
        64.552004628817642,
        64.385311104593512,
        64.128775733082165,
        63.917113237229913,
        63.702830869573184,
        63.82869506825314,
        63.923293221239454,
        63.960182420775006,
        64.025552730166652,
        64.117089546604774,
        64.208144918136611,
        64.152200685145857,
        64.136857334639501,
        64.095325877051607,
        64.04510393250608,
        64.171304775434578,
        63.936735716496145,
        63.922844066686508,
        63.797264404747303,
        63.67076715735886,
        64.150336897909611,
        63.815965382124595,
        63.699784704722234,
        63.981768382102487,
        63.796228098908244,
        64.166150901342675,
        63.112532925532747,
        64.484221438246237,
        64.49870100980327,
        64.264264152668432,
        64.051184100914838,
        63.995277835513519,
        63.152476535044123,
        63.196734266947168,
        63.769946552085415,
        63.896620344696693,
        63.70891016174734,
        64.126537105597663,
        0.0,
        0.0,
        0.0,
        0.0,
        0.0,
        0.0,
        0.0,
        0.0,
        0.0,
        0.0,
        0.0,
        0.0,
        0.0,
        0.0,
        0.0,
        0.0,
        0.0,
        0.0,
        0.0,
        0.0,
        0.0,
        0.0,
        0.0,
        0.0,
        0.0,
        0.0,
        0.0,
        0.0,
        0.0,
        0.0,
        0.0,
        0.0,
        0.0,
        0.0
    ],
    "time": [
        0.02,
        0.040000000000000001,
        0.059999999999999998,
        0.080000000000000002,
        0.10000000000000001,
        0.12,
        0.14000000000000001,
        0.16,
        0.17999999999999999,
        0.20000000000000001,
        0.22,
        0.23999999999999999,
        0.26000000000000001,
        0.28000000000000003,
        0.29999999999999999,
        0.32000000000000001,
        0.34000000000000002,
        0.35999999999999999,
        0.38,
        0.40000000000000002,
        0.41999999999999998,
        0.44,
        0.46000000000000002,
        0.47999999999999998,
        0.5,
        0.52000000000000002,
        0.54000000000000004,
        0.56000000000000005,
        0.57999999999999996,
        0.59999999999999998,
        0.62,
        0.64000000000000001,
        0.66000000000000003,
        0.68000000000000005,
        0.69999999999999996,
        0.71999999999999997,
        0.73999999999999999,
        0.76000000000000001,
        0.78000000000000003,
        0.80000000000000004,
        0.81999999999999995,
        0.83999999999999997,
        0.85999999999999999,
        0.88,
        0.90000000000000002,
        0.92000000000000004,
        0.93999999999999995,
        0.95999999999999996,
        0.97999999999999998,
        1.0,
        1.02,
        1.04,
        1.0600000000000001,
        1.0800000000000001,
        1.1000000000000001,
        1.1200000000000001,
        1.1399999999999999,
        1.1599999999999999,
        1.1799999999999999,
        1.2,
        1.22,
        1.24,
        1.26,
        1.28,
        1.3,
        1.3200000000000001,
        1.3400000000000001,
        1.3600000000000001,
        1.3799999999999999,
        1.3999999999999999,
        1.4199999999999999,
        1.4399999999999999,
        1.46,
        1.48,
        1.5,
        1.52,
        1.54,
        1.5600000000000001,
        1.5800000000000001,
        1.6000000000000001,
        1.6200000000000001,
        1.6399999999999999,
        1.6599999999999999,
        1.6799999999999999,
        1.7,
        1.72,
        1.74,
        1.76,
        1.78,
        1.8,
        1.8200000000000001,
        1.8400000000000001,
        1.8600000000000001,
        1.8799999999999999,
        1.8999999999999999,
        1.9199999999999999,
        1.9399999999999999,
        1.96,
        1.98,
        2.0,
        2.02,
        2.04,
        2.0600000000000001,
        2.0800000000000001,
        2.1000000000000001,
        2.1200000000000001,
        2.1400000000000001,
        2.1600000000000001,
        2.1800000000000002,
        2.2000000000000002,
        2.2200000000000002,
        2.2400000000000002,
        2.2599999999999998,
        2.2799999999999998,
        2.2999999999999998,
        2.3199999999999998,
        2.3399999999999999,
        2.3599999999999999,
        2.3799999999999999,
        2.3999999999999999,
        2.4199999999999999,
        2.4399999999999999,
        2.46,
        2.48,
        2.5,
        2.52,
        2.54,
        2.5600000000000001,
        2.5800000000000001,
        2.6000000000000001,
        2.6200000000000001,
        2.6400000000000001,
        2.6600000000000001,
        2.6800000000000002,
        2.7000000000000002,
        2.7200000000000002,
        2.7400000000000002,
        2.7599999999999998,
        2.7799999999999998,
        2.7999999999999998,
        2.8199999999999998,
        2.8399999999999999,
        2.8599999999999999,
        2.8799999999999999,
        2.8999999999999999,
        2.9199999999999999,
        2.9399999999999999,
        2.96,
        2.98,
        3.0,
        3.02,
        3.04,
        3.0600000000000001,
        3.0800000000000001,
        3.1000000000000001,
        3.1200000000000001,
        3.1400000000000001,
        3.1600000000000001,
        3.1800000000000002,
        3.2000000000000002,
        3.2200000000000002,
        3.2400000000000002,
        3.2599999999999998,
        3.2799999999999998,
        3.2999999999999998,
        3.3199999999999998,
        3.3399999999999999,
        3.3599999999999999,
        3.3799999999999999,
        3.3999999999999999,
        3.4199999999999999,
        3.4399999999999999,
        3.46,
        3.48,
        3.5,
        3.52,
        3.54,
        3.5600000000000001,
        3.5800000000000001,
        3.6000000000000001,
        3.6200000000000001,
        3.6400000000000001,
        3.6600000000000001,
        3.6800000000000002,
        3.7000000000000002,
        3.7200000000000002,
        3.7400000000000002,
        3.7599999999999998,
        3.7799999999999998,
        3.7999999999999998,
        3.8199999999999998,
        3.8399999999999999,
        3.8599999999999999,
        3.8799999999999999,
        3.8999999999999999,
        3.9199999999999999,
        3.9399999999999999,
        3.96,
        3.98,
        4.0,
        4.0199999999999996,
        4.04,
        4.0599999999999996,
        4.0800000000000001,
        4.0999999999999996,
        4.1200000000000001,
        4.1399999999999997,
        4.1600000000000001,
        4.1799999999999997,
        4.2000000000000002,
        4.2199999999999998,
        4.2400000000000002,
        4.2599999999999998,
        4.2800000000000002,
        4.2999999999999998,
        4.3200000000000003,
        4.3399999999999999,
        4.3600000000000003,
        4.3799999999999999,
        4.4000000000000004,
        4.4199999999999999,
        4.4400000000000004,
        4.46,
        4.4800000000000004,
        4.5,
        4.5199999999999996,
        4.54,
        4.5599999999999996,
        4.5800000000000001,
        4.5999999999999996,
        4.6200000000000001,
        4.6399999999999997,
        4.6600000000000001,
        4.6799999999999997,
        4.7000000000000002,
        4.7199999999999998,
        4.7400000000000002,
        4.7599999999999998,
        4.7800000000000002,
        4.7999999999999998,
        4.8200000000000003,
        4.8399999999999999,
        4.8600000000000003,
        4.8799999999999999,
        4.9000000000000004,
        4.9199999999999999,
        4.9400000000000004,
        4.96,
        4.9800000000000004,
        5.0,
        5.0199999999999996,
        5.04,
        5.0599999999999996,
        5.0800000000000001,
        5.0999999999999996,
        5.1200000000000001,
        5.1399999999999997,
        5.1600000000000001,
        5.1799999999999997,
        5.2000000000000002,
        5.2199999999999998,
        5.2400000000000002,
        5.2599999999999998,
        5.2800000000000002,
        5.2999999999999998,
        5.3200000000000003,
        5.3399999999999999,
        5.3600000000000003,
        5.3799999999999999,
        5.4000000000000004,
        5.4199999999999999,
        5.4400000000000004,
        5.46,
        5.4800000000000004,
        5.5,
        5.5199999999999996,
        5.54,
        5.5599999999999996,
        5.5800000000000001,
        5.5999999999999996,
        5.6200000000000001,
        5.6399999999999997,
        5.6600000000000001,
        5.6799999999999997,
        5.7000000000000002,
        5.7199999999999998,
        5.7400000000000002,
        5.7599999999999998,
        5.7800000000000002,
        5.7999999999999998,
        5.8200000000000003,
        5.8399999999999999,
        5.8600000000000003,
        5.8799999999999999,
        5.9000000000000004,
        5.9199999999999999,
        5.9400000000000004,
        5.96,
        5.9800000000000004,
        6.0,
        6.0199999999999996,
        6.04,
        6.0599999999999996,
        6.0800000000000001,
        6.0999999999999996,
        6.1200000000000001,
        6.1399999999999997,
        6.1600000000000001,
        6.1799999999999997,
        6.2000000000000002,
        6.2199999999999998,
        6.2400000000000002,
        6.2599999999999998,
        6.2800000000000002,
        6.2999999999999998,
        6.3200000000000003,
        6.3399999999999999,
        6.3600000000000003,
        6.3799999999999999,
        6.4000000000000004,
        6.4199999999999999,
        6.4400000000000004,
        6.46,
        6.4800000000000004,
        6.5,
        6.5199999999999996,
        6.54,
        6.5599999999999996,
        6.5800000000000001,
        6.5999999999999996,
        6.6200000000000001,
        6.6399999999999997,
        6.6600000000000001,
        6.6799999999999997,
        6.7000000000000002,
        6.7199999999999998,
        6.7400000000000002,
        6.7599999999999998,
        6.7800000000000002,
        6.7999999999999998,
        6.8200000000000003,
        6.8399999999999999,
        6.8600000000000003,
        6.8799999999999999,
        6.9000000000000004,
        6.9199999999999999,
        6.9400000000000004,
        6.96,
        6.9800000000000004,
        7.0,
        7.0199999999999996,
        7.04,
        7.0599999999999996,
        7.0800000000000001,
        7.0999999999999996,
        7.1200000000000001,
        7.1399999999999997,
        7.1600000000000001,
        7.1799999999999997,
        7.2000000000000002,
        7.2199999999999998,
        7.2400000000000002,
        7.2599999999999998,
        7.2800000000000002,
        7.2999999999999998,
        7.3200000000000003,
        7.3399999999999999,
        7.3600000000000003,
        7.3799999999999999,
        7.4000000000000004,
        7.4199999999999999,
        7.4400000000000004,
        7.46,
        7.4800000000000004,
        7.5,
        7.5199999999999996,
        7.54,
        7.5599999999999996,
        7.5800000000000001,
        7.5999999999999996,
        7.6200000000000001,
        7.6399999999999997,
        7.6600000000000001,
        7.6799999999999997,
        7.7000000000000002,
        7.7199999999999998,
        7.7400000000000002,
        7.7599999999999998,
        7.7800000000000002,
        7.7999999999999998,
        7.8200000000000003,
        7.8399999999999999,
        7.8600000000000003,
        7.8799999999999999,
        7.9000000000000004,
        7.9199999999999999,
        7.9400000000000004,
        7.96,
        7.9800000000000004,
        8.0,
        8.0199999999999996,
        8.0399999999999991,
        8.0600000000000005,
        8.0800000000000001,
        8.0999999999999996,
        8.1199999999999992,
        8.1400000000000006,
        8.1600000000000001,
        8.1799999999999997,
        8.1999999999999993,
        8.2200000000000006,
        8.2400000000000002,
        8.2599999999999998,
        8.2799999999999994,
        8.3000000000000007,
        8.3200000000000003,
        8.3399999999999999,
        8.3599999999999994,
        8.3800000000000008,
        8.4000000000000004,
        8.4199999999999999,
        8.4399999999999995,
        8.4600000000000009,
        8.4800000000000004,
        8.5,
        8.5199999999999996,
        8.5399999999999991,
        8.5600000000000005,
        8.5800000000000001,
        8.5999999999999996,
        8.6199999999999992,
        8.6400000000000006,
        8.6600000000000001,
        8.6799999999999997,
        8.6999999999999993,
        8.7200000000000006,
        8.7400000000000002,
        8.7599999999999998,
        8.7799999999999994,
        8.8000000000000007,
        8.8200000000000003,
        8.8399999999999999,
        8.8599999999999994,
        8.8800000000000008,
        8.9000000000000004,
        8.9199999999999999,
        8.9399999999999995,
        8.9600000000000009,
        8.9800000000000004,
        9.0,
        9.0199999999999996,
        9.0399999999999991,
        9.0600000000000005,
        9.0800000000000001,
        9.0999999999999996,
        9.1199999999999992,
        9.1400000000000006,
        9.1600000000000001,
        9.1799999999999997,
        9.1999999999999993,
        9.2200000000000006,
        9.2400000000000002,
        9.2599999999999998,
        9.2799999999999994,
        9.3000000000000007,
        9.3200000000000003,
        9.3399999999999999,
        9.3599999999999994,
        9.3800000000000008,
        9.4000000000000004,
        9.4199999999999999,
        9.4399999999999995,
        9.4600000000000009,
        9.4800000000000004,
        9.5,
        9.5199999999999996,
        9.5399999999999991,
        9.5600000000000005,
        9.5800000000000001,
        9.5999999999999996,
        9.6199999999999992,
        9.6400000000000006,
        9.6600000000000001,
        9.6799999999999997,
        9.6999999999999993,
        9.7200000000000006,
        9.7400000000000002,
        9.7599999999999998,
        9.7799999999999994,
        9.8000000000000007,
        9.8200000000000003,
        9.8399999999999999,
        9.8599999999999994,
        9.8800000000000008,
        9.9000000000000004,
        9.9199999999999999,
        9.9399999999999995,
        9.9600000000000009,
        9.9800000000000004,
        10.0,
        10.02,
        10.039999999999999,
        10.06,
        10.08,
        10.1,
        10.119999999999999,
        10.140000000000001,
        10.16,
        10.18,
        10.199999999999999,
        10.220000000000001,
        10.24,
        10.26,
        10.279999999999999,
        10.300000000000001,
        10.32,
        10.34,
        10.359999999999999,
        10.380000000000001,
        10.4,
        10.42,
        10.44,
        10.460000000000001,
        10.48,
        10.5,
        10.52,
        10.539999999999999,
        10.56,
        10.58,
        10.6,
        10.619999999999999,
        10.640000000000001,
        10.66,
        10.68,
        10.699999999999999,
        10.720000000000001,
        10.74,
        10.76,
        10.779999999999999,
        10.800000000000001,
        10.82,
        10.84,
        10.859999999999999,
        10.880000000000001,
        10.9,
        10.92,
        10.94,
        10.960000000000001,
        10.98,
        11.0,
        11.02,
        11.039999999999999,
        11.06,
        11.08,
        11.1,
        11.119999999999999,
        11.140000000000001,
        11.16,
        11.18,
        11.199999999999999,
        11.220000000000001
    ]
}