{
    "DU": 102,
    "DV": 404,
    "F-measure": 0.8831437435367115,
    "F-measure Chroma": 0.9472595656670114,
    "FN": 6,
    "FNC": 0,
    "FNCch": 2,
    "FNI": 6,
    "FNIch": 4,
    "FP": 39,
    "GU": 135,
    "GV": 371,
    "Overall Accuracy": 0.8438735177865613,
    "Overall Chroma Accuracy": 0.9051383399209486,
    "Precision": 0.854,
    "Precision Chroma": 0.916,
    "Raw Chroma Accuracy": 0.9811320754716981,
    "Raw Pitch Accuracy": 0.8921832884097035,
    "Recall": 0.9143468950749465,
    "Recall Chroma": 0.9807280513918629,
    "TN": 96,
    "TO": 506,
    "TP": 365,
    "TPC": 331,
    "TPCch": 362,
    "TPI": 34,
    "TPIch": 3,
    "Voiced Chroma Accuracy": 0.9757412398921833,
    "Voiced Pitch Accuracy": 0.8921832884097035,
    "Voicing Accuracy": 0.9110671936758893,
    "Voicing Detection": 0.9838274932614556,
    "Voicing False Alarm": 0.28888888888888886
}