{
    "f0": [
        0.0,
        0.0,
        0.0,
        0.0,
        52.59743513175129,
        51.074052549998051,
        44.308754501434571,
        45.443383476928169,
        46.163546082188937,
        46.615666647978131,
        46.770148488037478,
        47.206357380366597,
        47.593875154815166,
        47.990080770908548,
        48.642625561646604,
        48.555292761073275,
        48.535911038580927,
        48.228294575344819,
        48.262545579414649,
        47.957567569990928,
        48.929370557849225,
        48.220938979454019,
        49.837417375426618,
        51.453730301041873,
        51.592155715282153,
        51.674435772128504,
        51.458553293855047,
        51.275234118612708,
        51.276614613186226,
        51.34402485411799,
        51.321916703255063,
        51.260521795324394,
        51.084929964377615,
        50.912308203575478,
        50.792435743197743,
        50.770847063883963,
        50.497810004441689,
        51.089709761642979,
        51.490198209079523,
        51.015576656055487,
        51.43693543554437,
        53.277520833196348,
        51.402170206144518,
        51.396569794706679,
        51.334618353627079,
        51.27088972743072,
        51.086056962523898,
        51.201745153275638,
        51.201332213607387,
        51.356342577654502,
        51.597937701439854,
        51.926450057515453,
        52.270654461092597,
        52.654904576810537,
        52.867472461039398,
        53.186938220935673,
        53.296275454644906,
        53.099412974631974,
        53.247431452618784,
        53.397853238118756,
        53.509991396618119,
        53.321595516499826,
        53.315672293361033,
        53.316826493831925,
        53.372434266245804,
        53.237719791604235,
        53.313583516686677,
        53.313963826385482,
        53.239726705358727,
        53.175280257206637,
        52.990828650155663,
        52.82806862941473,
        52.75166779351909,
        50.902974904752298,
        52.670275246255784,
        53.356698137005587,
        53.366568406956965,
        53.257151051540525,
        53.165671892385745,
        53.15669537406346,
        53.071343145004349,
        53.01165907512366,
        52.980490336452775,
        52.938176465121394,
        52.893731481979593,
        52.906663504507783,
        52.915756922427676,
        52.88274398034784,
        52.829533955054536,
        52.816435548014375,
        52.838562486553784,
        52.880379979707101,
        52.907959425017928,
        52.935765289125889,
        52.965823211064794,
        52.95693357688743,
        52.956313252641337,
        53.005285601806989,
        53.032928090682852,
        53.033556263944234,
        53.105064745201197,
        53.109387337895171,
        52.943527496942409,
        52.959948308545293,
        52.992702414464233,
        53.080195260734044,
        53.012724939946573,
        53.062219570577618,
        53.468096711802211,
        53.549264389331768,
        53.532054038721455,
        53.528578218647155,
        53.479912369427595,
        53.395559997740719,
        53.35805559157825,
        53.288866217438702,
        53.195303725228953,
        53.176550239692659,
        53.135960727195901,
        53.115398094914653,
        53.159747529422255,
        53.196744276105377,
        53.193435290902471,
        53.213883072485615,
        53.233990399829395,
        53.245218101472872,
        53.205130420932811,
        53.092731606308796,
        52.901498894307224,
        52.992926478896493,
        50.678807872713399,
        52.731517598886981,
        52.984102159562724,
        52.510683453917018,
        52.89755473582472,
        53.119533391006549,
        53.183349048180069,
        51.685789623773481,
        51.412078988656148,
        51.484801298682854,
        51.307529255442745,
        51.333460698725276,
        51.264014120402152,
        51.268044216569066,
        51.324401791832614,
        51.345694413873915,
        51.364822855603933,
        51.383093022256048,
        51.357462074988433,
        51.254582457770191,
        51.130590854028597,
        51.125646996029907,
        51.051249747097529,
        51.14784197976384,
        51.032944379342396,
        51.22370541964024,
        51.009639207297198,
        51.002842409954518,
        50.849790054318191,
        50.722372969516002,
        50.588443704981543,
        50.584643687518664,
        50.61697928912929,
        50.673525636395652,
        50.774196934178804,
        50.859686223937153,
        51.050668978050076,
        51.288908578880822,
        51.173904243154183,
        51.16468405387598,
        51.145610949105318,
        51.135572058032267,
        51.0950945460878,
        51.157621443248928,
        51.118295100129444,
        51.14625420135993,
        51.234655024129601,
        51.253565080556619,
        51.330722080980749,
        51.425079221246634,
        51.415625514403175,
        51.383666011656373,
        51.356221128172791,
        51.338007474068817,
        51.288668123963653,
        51.217230318585337,
        51.26512798664492,
        51.241853755140085,
        51.243134750088515,
        51.191248325277392,
        50.909000168444663,
        50.595036705006301,
        50.326022611165214,
        50.645837194660103,
        48.760336419871464,
        47.447342286887242,
        46.429100635019523,
        46.695701195262821,
        46.796300911164053,
        46.999739997227167,
        47.838845051133788,
        47.69137122458892,
        47.751442561233333,
        47.553671349230825,
        47.709066240408191,
        47.813026962337005,
        47.977546629733183,
        48.13437913132195,
        48.412731625158912,
        48.698906569816096,
        48.846858783805452,
        48.831964504960183,
        48.372988926641355,
        48.5639327654618,
        47.321237454062498,
        48.452623365902468,
        48.458569460212928,
        48.555034631167196,
        46.717174833907315,
        48.508891019946162,
        48.844747209157752,
        48.647956304320658,
        48.451169370663607,
        48.735350473340652,
        48.656937039372416,
        48.609390035526161,
        48.636728709568089,
        48.732267081229551,
        48.73098355744672,
        48.885635103735396,
        48.912863250159567,
        48.926798106673459,
        48.869783172021172,
        48.831061734335997,
        48.807351731664944,
        48.829633502236234,
        48.904537495303025,
        48.937707198320275,
        48.948448925633024,
        48.93763260493175,
        48.914502939331513,
        48.922310705501673,
        48.957621033671288,
        49.02634201408631,
        49.084250019267152,
        49.060384940867365,
        49.10044327690035,
        49.100786172704119,
        49.020502079868791,
        48.982147166141615,
        48.997929074495126,
        48.924688607162274,
        48.864178365924175,
        48.9272823206597,
        49.072470617780624,
        49.247657673811354,
        49.287428032886837,
        49.367219996930231,
        49.627637656519049,
        50.300559016448453,
        50.586650825267618,
        51.205376926077506,
        51.839830078191959,
        52.202022976334348,
        52.539163770240947,
        52.653563376057051,
        52.619237400919104,
        52.669527440238298,
        52.737934359794536,
        52.719436529403694,
        52.686401097859218,
        52.69196453715719,
        52.694865618477422,
        52.817579128607363,
        52.98146571808752,
        53.026208931927528,
        52.838046391335467,
        52.758644739440484,
        51.788479054738893,
        50.666669989734956,
        51.509838795247376,
        52.76047473926959,
        53.22832822047274,
        53.378918366700688,
        53.017233878263376,
        52.850881256094105,
        52.759864224653768,
        52.65355103571855,
        52.599062469986656,
        52.528542732146647,
        52.565478309408078,
        52.601960593970375,
        52.59127742247054,
        52.616835518862011,
        52.620194634969373,
        52.611008072472828,
        52.659288546624168,
        52.735353786133707,
        52.741030540522416,
        52.758258065268933,
        52.756403196072199,
        52.777634027195901,
        52.777701414230691,
        52.757560099541607,
        52.719979247304245,
        52.752439717900174,
        52.807331102605559,
        52.868702686521061,
        52.915965147690159,
        52.944430563552089,
        52.932345323152944,
        52.937704227059264,
        52.989034844159946,
        53.088383743196857,
        53.134686386288493,
        53.223897814995496,
        53.332144778338161,
        53.468190896961467,
        53.611922848518141,
        53.848316498668325,
        54.293657358361656,
        54.86812035594297,
        54.901157363642774,
        55.517901177108747,
        55.60030838052883,
        56.271022291040502,
        56.422958749583316,
        56.582689246423982,
        56.724164083299506,
        56.92460418514181,
        0.0,
        0.0,
        0.0,
        0.0,
        0.0,
        0.0,
        0.0,
        0.0,
        0.0,
        0.0,
        0.0,
        0.0,
        0.0,
        0.0,
        0.0,
        0.0,
        56.595789280697026,
        56.540265916810277,
        56.615764406346223,
        56.668515508216529,
        56.633630490178376,
        56.680741055855734,
        56.684170317752042,
        56.682329776777991,
        56.708373270892373,
        56.681344067195198,
        56.739521192420248,
        56.716706872487805,
        56.699579983924636,
        56.705720737947274,
        56.736529625037733,
        56.744980019709672,
        56.709433225998275,
        56.602912988516501,
        56.620330789890971,
        56.681117790112978,
        56.690417961580735,
        56.650602139951907,
        56.64771763992016,
        56.659486463347363,
        56.653331693534099,
        56.614562394969944,
        56.634118603822152,
        56.645071780696583,
        56.654941314998894,
        56.605039586608918,
        56.512436707705795,
        56.390864886474589,
        56.048101495965916,
        55.723036479533391,
        55.274185337346431,
        54.865983932627287,
        54.489039838232806,
        54.321843488153917,
        54.129751944848564,
        53.833719463444041,
        53.588606424914943,
        53.52310845646285,
        53.467827181153517,
        53.285845617504513,
        53.371665819822098,
        53.402011710908468,
        53.465161757431517,
        53.510437979064186,
        53.599276334334988,
        53.803351700995222,
        53.91936615323587,
        53.947818334935342,
        53.961855841392726,
        54.283062840063316,
        54.478907431057308,
        54.56136904950101,
        54.642508386748545,
        54.633557021537577,
        54.646277986520353,
        54.628114345363088,
        54.52895088928976,
        54.332244748956285,
        54.119693430059293,
        53.865054274546864,
        53.481836924366306,
        53.376356120710113,
        53.086118393731319,
        52.976806576622472,
        52.955266672216894,
        52.664317771890033,
        52.473083232585466,
        52.229873247172094,
        51.995457347502949,
        51.850700947157932,
        51.931138199437029,
        51.953089900588502,
        51.972498337203987,
        51.99146162274058,
        52.009489560569456,
        51.88713187465283,
        51.794687368754381,
        51.627608100648231,
        51.334746613315261,
        51.248112205132458,
        51.172957698383243,
        51.019444449411573,
        51.162650331514584,
        51.237070558302193,
        51.286819234767542,
        51.296128222498375,
        50.717098807240916,
        49.160467054184764,
        45.92747077876777,
        45.785190940864396,
        45.80583046613669,
        45.722855176565417,
        45.949314445845815,
        46.022802739196791,
        46.037553725429049,
        45.968973603469891,
        45.963014052204315,
        45.907526201773813,
        45.917111935651647,
        45.931730102701351,
        46.041082862844476,
        46.061051447425427,
        46.067132135980252,
        46.055630826407565,
        46.12957798892635,
        46.193720360650865,
        46.176477045926518,
        46.195145952779583,
        46.221187252966843,
        46.222325194841318,
        46.284826753800111,
        46.199304250678615,
        46.09496930829755,
        45.968786240539572,
        45.888442857225442,
        45.744361527148783,
        45.939621609959616,
        46.206090236996694,
        45.640506958302652,
        45.327844156090521,
        45.240212371753827,
        45.484676928190879,
        45.489705087916924,
        45.50015014683197,
        45.725853816739765,
        46.282968203657603,
        46.270915520840887,
        46.792973231314271,
        47.405142231047414,
        47.766043025393515,
        47.954073109074329,
        47.782502440847878,
        47.994737629876781,
        47.910172891140064,
        47.865465122505135,
        48.050282018601187,
        47.913550399477536,
        47.978027921758141,
        47.929969498614071,
        47.921824777868238,
        47.950276261210398,
        47.813821070951207,
        47.749354854362345,
        47.472235013565879,
        47.918233870880485,
        47.516089423848371,
        48.399529068286292,
        48.270362619098634,
        48.183462718889842,
        47.896357902558925,
        47.775204450770488,
        47.535051342398255,
        47.575127601025372,
        47.675135597857093,
        47.649776859450405,
        47.774022011191079,
        47.776894237845809,
        47.776810449529584,
        47.728339169709983,
        47.77846924867157,
        47.797849090549818,
        47.926558775827345,
        47.995276956515568,
        48.019646803263029,
        48.038061455219847,
        48.102561532135198,
        48.117869843708419,
        48.084394246403349,
        48.186653398160217,
        48.240040977978502,
        48.163932006152876,
        48.140165092284747,
        47.993628475799952,
        48.14215212185595,
        47.974917839489258,
        48.699940308464598,
        48.107278464585704,
        48.171949623806817,
        49.117316100058808,
        47.674187027919288,
        48.011756045766049,
        48.15554027982386,
        48.242128161198281,
        48.232483275054378,
        48.281085203351793,
        48.431621479995542,
        48.855439053302597,
        49.067783538453028,
        49.437991414757754,
        49.660037067172851,
        50.056376105923604,
        50.269978720453906,
        50.272022670841295,
        50.452909530973074,
        50.573567361236442,
        50.628869280485425,
        50.618795197021754,
        50.560122304000878,
        50.612296369201474,
        0.0,
        0.0,
        0.0,
        0.0,
        0.0,
        0.0,
        0.0,
        0.0,
        0.0,
        0.0,
        0.0,
        0.0,
        0.0,
        0.0,
        0.0,
        0.0,
        0.0,
        45.016065792259923,
        44.673649307515092,
        44.883141969685035,
        44.710635870343076,
        0.0,
        0.0,
        0.0,
        0.0,
        0.0,
        0.0,
        0.0,
        0.0,
        0.0,
        0.0,
        0.0,
        0.0,
        0.0,
        0.0,
        0.0,
        0.0,
        0.0,
        0.0,
        0.0,
        0.0,
        0.0,
        0.0,
        0.0,
        0.0,
        0.0,
        0.0,
        0.0,
        0.0,
        0.0,
        0.0,
        0.0,
        0.0,
        0.0,
        0.0,
        0.0,
        0.0,
        0.0,
        0.0,
        0.0,
        0.0,
        0.0,
        0.0,
        0.0,
        0.0,
        0.0,
        0.0,
        0.0,
        0.0,
        0.0,
        0.0,
        0.0,
        0.0,
        0.0,
        0.0,
        0.0
    ],
    "time": [
        0.02,
        0.040000000000000001,
        0.059999999999999998,
        0.080000000000000002,
        0.10000000000000001,
        0.12,
        0.14000000000000001,
        0.16,
        0.17999999999999999,
        0.20000000000000001,
        0.22,
        0.23999999999999999,
        0.26000000000000001,
        0.28000000000000003,
        0.29999999999999999,
        0.32000000000000001,
        0.34000000000000002,
        0.35999999999999999,
        0.38,
        0.40000000000000002,
        0.41999999999999998,
        0.44,
        0.46000000000000002,
        0.47999999999999998,
        0.5,
        0.52000000000000002,
        0.54000000000000004,
        0.56000000000000005,
        0.57999999999999996,
        0.59999999999999998,
        0.62,
        0.64000000000000001,
        0.66000000000000003,
        0.68000000000000005,
        0.69999999999999996,
        0.71999999999999997,
        0.73999999999999999,
        0.76000000000000001,
        0.78000000000000003,
        0.80000000000000004,
        0.81999999999999995,
        0.83999999999999997,
        0.85999999999999999,
        0.88,
        0.90000000000000002,
        0.92000000000000004,
        0.93999999999999995,
        0.95999999999999996,
        0.97999999999999998,
        1.0,
        1.02,
        1.04,
        1.0600000000000001,
        1.0800000000000001,
        1.1000000000000001,
        1.1200000000000001,
        1.1399999999999999,
        1.1599999999999999,
        1.1799999999999999,
        1.2,
        1.22,
        1.24,
        1.26,
        1.28,
        1.3,
        1.3200000000000001,
        1.3400000000000001,
        1.3600000000000001,
        1.3799999999999999,
        1.3999999999999999,
        1.4199999999999999,
        1.4399999999999999,
        1.46,
        1.48,
        1.5,
        1.52,
        1.54,
        1.5600000000000001,
        1.5800000000000001,
        1.6000000000000001,
        1.6200000000000001,
        1.6399999999999999,
        1.6599999999999999,
        1.6799999999999999,
        1.7,
        1.72,
        1.74,
        1.76,
        1.78,
        1.8,
        1.8200000000000001,
        1.8400000000000001,
        1.8600000000000001,
        1.8799999999999999,
        1.8999999999999999,
        1.9199999999999999,
        1.9399999999999999,
        1.96,
        1.98,
        2.0,
        2.02,
        2.04,
        2.0600000000000001,
        2.0800000000000001,
        2.1000000000000001,
        2.1200000000000001,
        2.1400000000000001,
        2.1600000000000001,
        2.1800000000000002,
        2.2000000000000002,
        2.2200000000000002,
        2.2400000000000002,
        2.2599999999999998,
        2.2799999999999998,
        2.2999999999999998,
        2.3199999999999998,
        2.3399999999999999,
        2.3599999999999999,
        2.3799999999999999,
        2.3999999999999999,
        2.4199999999999999,
        2.4399999999999999,
        2.46,
        2.48,
        2.5,
        2.52,
        2.54,
        2.5600000000000001,
        2.5800000000000001,
        2.6000000000000001,
        2.6200000000000001,
        2.6400000000000001,
        2.6600000000000001,
        2.6800000000000002,
        2.7000000000000002,
        2.7200000000000002,
        2.7400000000000002,
        2.7599999999999998,
        2.7799999999999998,
        2.7999999999999998,
        2.8199999999999998,
        2.8399999999999999,
        2.8599999999999999,
        2.8799999999999999,
        2.8999999999999999,
        2.9199999999999999,
        2.9399999999999999,
        2.96,
        2.98,
        3.0,
        3.02,
        3.04,
        3.0600000000000001,
        3.0800000000000001,
        3.1000000000000001,
        3.1200000000000001,
        3.1400000000000001,
        3.1600000000000001,
        3.1800000000000002,
        3.2000000000000002,
        3.2200000000000002,
        3.2400000000000002,
        3.2599999999999998,
        3.2799999999999998,
        3.2999999999999998,
        3.3199999999999998,
        3.3399999999999999,
        3.3599999999999999,
        3.3799999999999999,
        3.3999999999999999,
        3.4199999999999999,
        3.4399999999999999,
        3.46,
        3.48,
        3.5,
        3.52,
        3.54,
        3.5600000000000001,
        3.5800000000000001,
        3.6000000000000001,
        3.6200000000000001,
        3.6400000000000001,
        3.6600000000000001,
        3.6800000000000002,
        3.7000000000000002,
        3.7200000000000002,
        3.7400000000000002,
        3.7599999999999998,
        3.7799999999999998,
        3.7999999999999998,
        3.8199999999999998,
        3.8399999999999999,
        3.8599999999999999,
        3.8799999999999999,
        3.8999999999999999,
        3.9199999999999999,
        3.9399999999999999,
        3.96,
        3.98,
        4.0,
        4.0199999999999996,
        4.04,
        4.0599999999999996,
        4.0800000000000001,
        4.0999999999999996,
        4.1200000000000001,
        4.1399999999999997,
        4.1600000000000001,
        4.1799999999999997,
        4.2000000000000002,
        4.2199999999999998,
        4.2400000000000002,
        4.2599999999999998,
        4.2800000000000002,
        4.2999999999999998,
        4.3200000000000003,
        4.3399999999999999,
        4.3600000000000003,
        4.3799999999999999,
        4.4000000000000004,
        4.4199999999999999,
        4.4400000000000004,
        4.46,
        4.4800000000000004,
        4.5,
        4.5199999999999996,
        4.54,
        4.5599999999999996,
        4.5800000000000001,
        4.5999999999999996,
        4.6200000000000001,
        4.6399999999999997,
        4.6600000000000001,
        4.6799999999999997,
        4.7000000000000002,
        4.7199999999999998,
        4.7400000000000002,
        4.7599999999999998,
        4.7800000000000002,
        4.7999999999999998,
        4.8200000000000003,
        4.8399999999999999,
        4.8600000000000003,
        4.8799999999999999,
        4.9000000000000004,
        4.9199999999999999,
        4.9400000000000004,
        4.96,
        4.9800000000000004,
        5.0,
        5.0199999999999996,
        5.04,
        5.0599999999999996,
        5.0800000000000001,
        5.0999999999999996,
        5.1200000000000001,
        5.1399999999999997,
        5.1600000000000001,
        5.1799999999999997,
        5.2000000000000002,
        5.2199999999999998,
        5.2400000000000002,
        5.2599999999999998,
        5.2800000000000002,
        5.2999999999999998,
        5.3200000000000003,
        5.3399999999999999,
        5.3600000000000003,
        5.3799999999999999,
        5.4000000000000004,
        5.4199999999999999,
        5.4400000000000004,
        5.46,
        5.4800000000000004,
        5.5,
        5.5199999999999996,
        5.54,
        5.5599999999999996,
        5.5800000000000001,
        5.5999999999999996,
        5.6200000000000001,
        5.6399999999999997,
        5.6600000000000001,
        5.6799999999999997,
        5.7000000000000002,
        5.7199999999999998,
        5.7400000000000002,
        5.7599999999999998,
        5.7800000000000002,
        5.7999999999999998,
        5.8200000000000003,
        5.8399999999999999,
        5.8600000000000003,
        5.8799999999999999,
        5.9000000000000004,
        5.9199999999999999,
        5.9400000000000004,
        5.96,
        5.9800000000000004,
        6.0,
        6.0199999999999996,
        6.04,
        6.0599999999999996,
        6.0800000000000001,
        6.0999999999999996,
        6.1200000000000001,
        6.1399999999999997,
        6.1600000000000001,
        6.1799999999999997,
        6.2000000000000002,
        6.2199999999999998,
        6.2400000000000002,
        6.2599999999999998,
        6.2800000000000002,
        6.2999999999999998,
        6.3200000000000003,
        6.3399999999999999,
        6.3600000000000003,
        6.3799999999999999,
        6.4000000000000004,
        6.4199999999999999,
        6.4400000000000004,
        6.46,
        6.4800000000000004,
        6.5,
        6.5199999999999996,
        6.54,
        6.5599999999999996,
        6.5800000000000001,
        6.5999999999999996,
        6.6200000000000001,
        6.6399999999999997,
        6.6600000000000001,
        6.6799999999999997,
        6.7000000000000002,
        6.7199999999999998,
        6.7400000000000002,
        6.7599999999999998,
        6.7800000000000002,
        6.7999999999999998,
        6.8200000000000003,
        6.8399999999999999,
        6.8600000000000003,
        6.8799999999999999,
        6.9000000000000004,
        6.9199999999999999,
        6.9400000000000004,
        6.96,
        6.9800000000000004,
        7.0,
        7.0199999999999996,
        7.04,
        7.0599999999999996,
        7.0800000000000001,
        7.0999999999999996,
        7.1200000000000001,
        7.1399999999999997,
        7.1600000000000001,
        7.1799999999999997,
        7.2000000000000002,
        7.2199999999999998,
        7.2400000000000002,
        7.2599999999999998,
        7.2800000000000002,
        7.2999999999999998,
        7.3200000000000003,
        7.3399999999999999,
        7.3600000000000003,
        7.3799999999999999,
        7.4000000000000004,
        7.4199999999999999,
        7.4400000000000004,
        7.46,
        7.4800000000000004,
        7.5,
        7.5199999999999996,
        7.54,
        7.5599999999999996,
        7.5800000000000001,
        7.5999999999999996,
        7.6200000000000001,
        7.6399999999999997,
        7.6600000000000001,
        7.6799999999999997,
        7.7000000000000002,
        7.7199999999999998,
        7.7400000000000002,
        7.7599999999999998,
        7.7800000000000002,
        7.7999999999999998,
        7.8200000000000003,
        7.8399999999999999,
        7.8600000000000003,
        7.8799999999999999,
        7.9000000000000004,
        7.9199999999999999,
        7.9400000000000004,
        7.96,
        7.9800000000000004,
        8.0,
        8.0199999999999996,
        8.0399999999999991,
        8.0600000000000005,
        8.0800000000000001,
        8.0999999999999996,
        8.1199999999999992,
        8.1400000000000006,
        8.1600000000000001,
        8.1799999999999997,
        8.1999999999999993,
        8.2200000000000006,
        8.2400000000000002,
        8.2599999999999998,
        8.2799999999999994,
        8.3000000000000007,
        8.3200000000000003,
        8.3399999999999999,
        8.3599999999999994,
        8.3800000000000008,
        8.4000000000000004,
        8.4199999999999999,
        8.4399999999999995,
        8.4600000000000009,
        8.4800000000000004,
        8.5,
        8.5199999999999996,
        8.5399999999999991,
        8.5600000000000005,
        8.5800000000000001,
        8.5999999999999996,
        8.6199999999999992,
        8.6400000000000006,
        8.6600000000000001,
        8.6799999999999997,
        8.6999999999999993,
        8.7200000000000006,
        8.7400000000000002,
        8.7599999999999998,
        8.7799999999999994,
        8.8000000000000007,
        8.8200000000000003,
        8.8399999999999999,
        8.8599999999999994,
        8.8800000000000008,
        8.9000000000000004,
        8.9199999999999999,
        8.9399999999999995,
        8.9600000000000009,
        8.9800000000000004,
        9.0,
        9.0199999999999996,
        9.0399999999999991,
        9.0600000000000005,
        9.0800000000000001,
        9.0999999999999996,
        9.1199999999999992,
        9.1400000000000006,
        9.1600000000000001,
        9.1799999999999997,
        9.1999999999999993,
        9.2200000000000006,
        9.2400000000000002,
        9.2599999999999998,
        9.2799999999999994,
        9.3000000000000007,
        9.3200000000000003,
        9.3399999999999999,
        9.3599999999999994,
        9.3800000000000008,
        9.4000000000000004,
        9.4199999999999999,
        9.4399999999999995,
        9.4600000000000009,
        9.4800000000000004,
        9.5,
        9.5199999999999996,
        9.5399999999999991,
        9.5600000000000005,
        9.5800000000000001,
        9.5999999999999996,
        9.6199999999999992,
        9.6400000000000006,
        9.6600000000000001,
        9.6799999999999997,
        9.6999999999999993,
        9.7200000000000006,
        9.7400000000000002,
        9.7599999999999998,
        9.7799999999999994,
        9.8000000000000007,
        9.8200000000000003,
        9.8399999999999999,
        9.8599999999999994,
        9.8800000000000008,
        9.9000000000000004,
        9.9199999999999999,
        9.9399999999999995,
        9.9600000000000009,
        9.9800000000000004,
        10.0,
        10.02,
        10.039999999999999,
        10.06,
        10.08,
        10.1,
        10.119999999999999,
        10.140000000000001,
        10.16,
        10.18,
        10.199999999999999,
        10.220000000000001,
        10.24,
        10.26,
        10.279999999999999,
        10.300000000000001,
        10.32,
        10.34,
        10.359999999999999,
        10.380000000000001,
        10.4,
        10.42,
        10.44,
        10.460000000000001,
        10.48,
        10.5,
        10.52,
        10.539999999999999,
        10.56,
        10.58,
        10.6,
        10.619999999999999,
        10.640000000000001,
        10.66,
        10.68,
        10.699999999999999,
        10.720000000000001,
        10.74,
        10.76,
        10.779999999999999,
        10.800000000000001,
        10.82,
        10.84,
        10.859999999999999,
        10.880000000000001,
        10.9,
        10.92,
        10.94,
        10.960000000000001,
        10.98,
        11.0,
        11.02,
        11.039999999999999,
        11.06,
        11.08,
        11.1,
        11.119999999999999,
        11.140000000000001,
        11.16,
        11.18,
        11.199999999999999,
        11.220000000000001,
        11.24,
        11.26,
        11.279999999999999,
        11.300000000000001,
        11.32,
        11.34,
        11.359999999999999,
        11.380000000000001,
        11.4,
        11.42,
        11.44,
        11.460000000000001,
        11.48,
        11.5,
        11.52,
        11.539999999999999,
        11.56,
        11.58,
        11.6,
        11.619999999999999,
        11.640000000000001,
        11.66,
        11.68,
        11.699999999999999,
        11.720000000000001,
        11.74,
        11.76,
        11.779999999999999,
        11.800000000000001,
        11.82,
        11.84,
        11.859999999999999,
        11.880000000000001,
        11.9,
        11.92,
        11.94,
        11.960000000000001,
        11.98,
        12.0,
        12.02,
        12.039999999999999,
        12.06,
        12.08,
        12.1,
        12.119999999999999,
        12.140000000000001,
        12.16,
        12.18,
        12.199999999999999,
        12.220000000000001,
        12.24,
        12.26,
        12.279999999999999,
        12.300000000000001,
        12.32,
        12.34,
        12.359999999999999,
        12.380000000000001,
        12.4,
        12.42,
        12.44,
        12.460000000000001,
        12.48,
        12.5
    ]
}