{
    "f0": [
        0.0,
        0.0,
        0.0,
        0.0,
        0.0,
        0.0,
        0.0,
        0.0,
        0.0,
        0.0,
        0.0,
        0.0,
        0.0,
        0.0,
        0.0,
        0.0,
        0.0,
        0.0,
        0.0,
        0.0,
        0.0,
        0.0,
        0.0,
        0.0,
        0.0,
        0.0,
        0.0,
        0.0,
        0.0,
        0.0,
        0.0,
        0.0,
        0.0,
        0.0,
        0.0,
        0.0,
        0.0,
        0.0,
        0.0,
        0.0,
        0.0,
        0.0,
        0.0,
        0.0,
        0.0,
        0.0,
        0.0,
        47.249495573220969,
        46.89974013044872,
        0.0,
        0.0,
        0.0,
        0.0,
        0.0,
        0.0,
        0.0,
        0.0,
        47.322555271282035,
        42.925632764261827,
        42.785010342919932,
        42.64323200366286,
        45.860523678526178,
        0.0,
        47.766464638107934,
        49.344392216417276,
        49.344390379575771,
        42.865134968956987,
        49.300002576795393,
        0.0,
        40.889033399203619,
        40.821556773853153,
        41.973748487741069,
        52.043043170270288,
        53.562843807704596,
        41.072581578308068,
        38.628576160915458,
        37.957454640164492,
        38.477478186105238,
        0.0,
        0.0,
        0.0,
        0.0,
        43.86169110855046,
        50.974113236328492,
        50.974114908145467,
        50.974114908145467,
        51.146378788028443,
        51.554959793485068,
        51.664243065006829,
        51.567721716559717,
        51.592913896444479,
        51.949634098110579,
        52.137469585325377,
        52.403453590173655,
        52.451979795027043,
        51.900397774887125,
        52.04472985247223,
        51.951048651453796,
        52.306877791611797,
        54.895109305902707,
        54.707807281559376,
        54.423339554203821,
        54.282678008358552,
        54.140861258820436,
        54.228923648017535,
        54.315362429549651,
        54.221960821644956,
        54.252121596114378,
        54.482137908879494,
        54.626073464691686,
        54.768822194542246,
        54.910404931113867,
        54.876844003255769,
        54.680606848149864,
        54.580217303466384,
        54.521812697883938,
        54.463208934637137,
        54.576668090129445,
        54.526240324610221,
        54.602257266359246,
        54.397809480253215,
        54.148131416201679,
        53.994084129156718,
        54.124101793369015,
        54.253150284082452,
        54.405418941702557,
        54.408207075918909,
        54.367728427300158,
        54.054761645686753,
        53.52553904470723,
        53.260829360743543,
        53.858543974917822,
        53.581136910030452,
        53.389917949819889,
        53.493590309967146,
        53.314914661442373,
        0.0,
        0.0,
        0.0,
        47.903300245954753,
        47.968052556544393,
        47.968052556544393,
        48.140317373215296,
        48.483146594676924,
        48.907322108510819,
        49.278447732690438,
        49.488810599111247,
        49.422633703156869,
        49.34697805108452,
        49.392058207900476,
        49.387729022413481,
        49.376812705736469,
        49.195189842439547,
        49.27037309943929,
        48.57317010483257,
        48.444649968780958,
        49.02529901914523,
        49.562067825907903,
        49.388118554193852,
        49.505031595972198,
        49.41098186400653,
        49.504890858293301,
        49.534096210333203,
        49.452451551044604,
        49.487787689691828,
        49.541891898698921,
        49.586438544316515,
        49.630874473797277,
        49.501202759324848,
        49.370552452204421,
        49.411167891637703,
        49.59833205678477,
        49.183789266877412,
        49.549492030258399,
        49.512016934608241,
        49.060646972531451,
        49.918313813095089,
        50.141146488450445,
        50.12979704950105,
        50.118440165326774,
        50.154109540670589,
        50.065171461276243,
        50.051833161659424,
        50.167830776993171,
        50.181243855060004,
        50.071594056249694,
        49.959442102882441,
        50.01973355676445,
        49.667502949165886,
        50.033752067655371,
        49.920459283853901,
        49.806420220287926,
        49.517626745362364,
        50.850127497756326,
        52.087355606739536,
        51.59910898185062,
        51.527620712536432,
        51.346956077064647,
        51.219488951176857,
        51.235608192036409,
        51.239301578797964,
        51.272260599276692,
        51.305158632141968,
        51.337990885355609,
        51.543026158111729,
        51.48674797257226,
        51.508803349079564,
        51.549298414884177,
        51.662066142996849,
        51.788122090864448,
        51.913270093930151,
        52.037521484252508,
        51.811132422366811,
        52.08220694216709,
        51.987874089618217,
        51.728126819435488,
        51.66212494758711,
        51.595870593276949,
        51.701630731676822,
        51.69328287388376,
        51.666623924038092,
        51.712717393137467,
        51.758688465876276,
        51.74568434288723,
        51.726726480619192,
        51.536730265744673,
        51.431303166760259,
        51.325228364363682,
        51.561332988761848,
        51.794609454367176,
        51.674855561697363,
        51.849231229993272,
        52.021864881038624,
        51.843040964481069,
        51.830231183806248,
        51.733923847161066,
        51.679109504413596,
        51.862329150516175,
        51.889659773499886,
        51.819988863997509,
        51.897442656541585,
        51.928885206168232,
        51.983080793350524,
        52.037107252732056,
        52.090965741113045,
        51.970664871132634,
        52.026761037552092,
        51.679501359509871,
        51.896251126441598,
        50.633152262360213,
        50.588640293870441,
        50.068092740848094,
        49.950760521651503,
        49.96561553922831,
        49.817978214205915,
        50.011774402206186,
        50.377247840981198,
        50.300491924011467,
        50.409825155392667,
        50.71014813599858,
        51.005346575286467,
        51.295599043982804,
        51.753327313311573,
        52.002540622391322,
        52.248214114437708,
        52.316456811176977,
        52.631903166124488,
        52.566092565950697,
        52.540128496311269,
        52.649832450606297,
        52.758842597454787,
        53.209999069329356,
        53.484596963266007,
        53.754907269812215,
        53.847061714280144,
        54.158354528553659,
        54.006851032177963,
        53.477462152923877,
        53.416634629058976,
        53.62554225669092,
        53.518685312849357,
        52.992999083482204,
        53.496554265628625,
        53.865450011262283,
        53.758398778660094,
        53.005869385305367,
        52.731789576221693,
        51.925981574360335,
        50.995789814676534,
        53.820880457280396,
        0.0,
        0.0,
        0.0,
        0.0,
        0.0,
        0.0,
        0.0,
        0.0,
        0.0,
        0.0,
        0.0,
        0.0,
        0.0,
        0.0,
        0.0,
        0.0,
        0.0,
        0.0,
        0.0,
        0.0,
        0.0,
        0.0,
        0.0,
        0.0,
        0.0,
        0.0,
        0.0,
        0.0,
        0.0,
        0.0,
        0.0,
        0.0,
        0.0,
        0.0,
        0.0,
        0.0,
        0.0,
        0.0,
        0.0,
        0.0,
        0.0,
        0.0,
        0.0,
        0.0,
        0.0,
        0.0,
        0.0
    ],
    "time": [
        0.02,
        0.040000000000000001,
        0.059999999999999998,
        0.080000000000000002,
        0.10000000000000001,
        0.12,
        0.14000000000000001,
        0.16,
        0.17999999999999999,
        0.20000000000000001,
        0.22,
        0.23999999999999999,
        0.26000000000000001,
        0.28000000000000003,
        0.29999999999999999,
        0.32000000000000001,
        0.34000000000000002,
        0.35999999999999999,
        0.38,
        0.40000000000000002,
        0.41999999999999998,
        0.44,
        0.46000000000000002,
        0.47999999999999998,
        0.5,
        0.52000000000000002,
        0.54000000000000004,
        0.56000000000000005,
        0.57999999999999996,
        0.59999999999999998,
        0.62,
        0.64000000000000001,
        0.66000000000000003,
        0.68000000000000005,
        0.69999999999999996,
        0.71999999999999997,
        0.73999999999999999,
        0.76000000000000001,
        0.78000000000000003,
        0.80000000000000004,
        0.81999999999999995,
        0.83999999999999997,
        0.85999999999999999,
        0.88,
        0.90000000000000002,
        0.92000000000000004,
        0.93999999999999995,
        0.95999999999999996,
        0.97999999999999998,
        1.0,
        1.02,
        1.04,
        1.0600000000000001,
        1.0800000000000001,
        1.1000000000000001,
        1.1200000000000001,
        1.1399999999999999,
        1.1599999999999999,
        1.1799999999999999,
        1.2,
        1.22,
        1.24,
        1.26,
        1.28,
        1.3,
        1.3200000000000001,
        1.3400000000000001,
        1.3600000000000001,
        1.3799999999999999,
        1.3999999999999999,
        1.4199999999999999,
        1.4399999999999999,
        1.46,
        1.48,
        1.5,
        1.52,
        1.54,
        1.5600000000000001,
        1.5800000000000001,
        1.6000000000000001,
        1.6200000000000001,
        1.6399999999999999,
        1.6599999999999999,
        1.6799999999999999,
        1.7,
        1.72,
        1.74,
        1.76,
        1.78,
        1.8,
        1.8200000000000001,
        1.8400000000000001,
        1.8600000000000001,
        1.8799999999999999,
        1.8999999999999999,
        1.9199999999999999,
        1.9399999999999999,
        1.96,
        1.98,
        2.0,
        2.02,
        2.04,
        2.0600000000000001,
        2.0800000000000001,
        2.1000000000000001,
        2.1200000000000001,
        2.1400000000000001,
        2.1600000000000001,
        2.1800000000000002,
        2.2000000000000002,
        2.2200000000000002,
        2.2400000000000002,
        2.2599999999999998,
        2.2799999999999998,
        2.2999999999999998,
        2.3199999999999998,
        2.3399999999999999,
        2.3599999999999999,
        2.3799999999999999,
        2.3999999999999999,
        2.4199999999999999,
        2.4399999999999999,
        2.46,
        2.48,
        2.5,
        2.52,
        2.54,
        2.5600000000000001,
        2.5800000000000001,
        2.6000000000000001,
        2.6200000000000001,
        2.6400000000000001,
        2.6600000000000001,
        2.6800000000000002,
        2.7000000000000002,
        2.7200000000000002,
        2.7400000000000002,
        2.7599999999999998,
        2.7799999999999998,
        2.7999999999999998,
        2.8199999999999998,
        2.8399999999999999,
        2.8599999999999999,
        2.8799999999999999,
        2.8999999999999999,
        2.9199999999999999,
        2.9399999999999999,
        2.96,
        2.98,
        3.0,
        3.02,
        3.04,
        3.0600000000000001,
        3.0800000000000001,
        3.1000000000000001,
        3.1200000000000001,
        3.1400000000000001,
        3.1600000000000001,
        3.1800000000000002,
        3.2000000000000002,
        3.2200000000000002,
        3.2400000000000002,
        3.2599999999999998,
        3.2799999999999998,
        3.2999999999999998,
        3.3199999999999998,
        3.3399999999999999,
        3.3599999999999999,
        3.3799999999999999,
        3.3999999999999999,
        3.4199999999999999,
        3.4399999999999999,
        3.46,
        3.48,
        3.5,
        3.52,
        3.54,
        3.5600000000000001,
        3.5800000000000001,
        3.6000000000000001,
        3.6200000000000001,
        3.6400000000000001,
        3.6600000000000001,
        3.6800000000000002,
        3.7000000000000002,
        3.7200000000000002,
        3.7400000000000002,
        3.7599999999999998,
        3.7799999999999998,
        3.7999999999999998,
        3.8199999999999998,
        3.8399999999999999,
        3.8599999999999999,
        3.8799999999999999,
        3.8999999999999999,
        3.9199999999999999,
        3.9399999999999999,
        3.96,
        3.98,
        4.0,
        4.0199999999999996,
        4.04,
        4.0599999999999996,
        4.0800000000000001,
        4.0999999999999996,
        4.1200000000000001,
        4.1399999999999997,
        4.1600000000000001,
        4.1799999999999997,
        4.2000000000000002,
        4.2199999999999998,
        4.2400000000000002,
        4.2599999999999998,
        4.2800000000000002,
        4.2999999999999998,
        4.3200000000000003,
        4.3399999999999999,
        4.3600000000000003,
        4.3799999999999999,
        4.4000000000000004,
        4.4199999999999999,
        4.4400000000000004,
        4.46,
        4.4800000000000004,
        4.5,
        4.5199999999999996,
        4.54,
        4.5599999999999996,
        4.5800000000000001,
        4.5999999999999996,
        4.6200000000000001,
        4.6399999999999997,
        4.6600000000000001,
        4.6799999999999997,
        4.7000000000000002,
        4.7199999999999998,
        4.7400000000000002,
        4.7599999999999998,
        4.7800000000000002,
        4.7999999999999998,
        4.8200000000000003,
        4.8399999999999999,
        4.8600000000000003,
        4.8799999999999999,
        4.9000000000000004,
        4.9199999999999999,
        4.9400000000000004,
        4.96,
        4.9800000000000004,
        5.0,
        5.0199999999999996,
        5.04,
        5.0599999999999996,
        5.0800000000000001,
        5.0999999999999996,
        5.1200000000000001,
        5.1399999999999997,
        5.1600000000000001,
        5.1799999999999997,
        5.2000000000000002,
        5.2199999999999998,
        5.2400000000000002,
        5.2599999999999998,
        5.2800000000000002,
        5.2999999999999998,
        5.3200000000000003,
        5.3399999999999999,
        5.3600000000000003,
        5.3799999999999999,
        5.4000000000000004,
        5.4199999999999999,
        5.4400000000000004,
        5.46,
        5.4800000000000004,
        5.5,
        5.5199999999999996,
        5.54,
        5.5599999999999996,
        5.5800000000000001,
        5.5999999999999996,
        5.6200000000000001,
        5.6399999999999997,
        5.6600000000000001,
        5.6799999999999997,
        5.7000000000000002,
        5.7199999999999998,
        5.7400000000000002,
        5.7599999999999998,
        5.7800000000000002,
        5.7999999999999998,
        5.8200000000000003,
        5.8399999999999999,
        5.8600000000000003,
        5.8799999999999999,
        5.9000000000000004,
        5.9199999999999999,
        5.9400000000000004,
        5.96,
        5.9800000000000004,
        6.0,
        6.0199999999999996,
        6.04,
        6.0599999999999996,
        6.0800000000000001,
        6.0999999999999996,
        6.1200000000000001,
        6.1399999999999997,
        6.1600000000000001,
        6.1799999999999997,
        6.2000000000000002,
        6.2199999999999998,
        6.2400000000000002,
        6.2599999999999998,
        6.2800000000000002,
        6.2999999999999998,
        6.3200000000000003,
        6.3399999999999999,
        6.3600000000000003,
        6.3799999999999999,
        6.4000000000000004,
        6.4199999999999999,
        6.4400000000000004,
        6.46,
        6.4800000000000004,
        6.5,
        6.5199999999999996,
        6.54,
        6.5599999999999996,
        6.5800000000000001,
        6.5999999999999996,
        6.6200000000000001,
        6.6399999999999997,
        6.6600000000000001,
        6.6799999999999997,
        6.7000000000000002,
        6.7199999999999998,
        6.7400000000000002
    ]
}