{
	"f0": [NaN,47.70310353,47.46850449,39.59609981,49.06721424,55.28220035,59.42722406,59.65993087,55.50541537,46.01140041,47.84242266,48.12673655,44.69965447,48.0878915,47.98363508,47.89551981,44.67913207,49.04347619,47.90292079,48.07104348,48.08897008,48.09449956,47.90010296,47.88666218,48.09280235,49.02276157,49.08008048,39.83757209,49.41775548,49.26474108,49.65790559,49.67732097,49.59961372,49.48124927,49.30173758,49.27761104,49.49337499,49.70443889,49.93426629,50.14717975,50.4596075,50.96954576,51.16846377,51.24537181,51.15010761,51.20537836,51.31079053,51.26915833,51.22262176,52.10482388,50.32154013,50.341165,50.57555209,50.6463044,50.63309993,50.6338289,50.60858331,50.67317598,50.81135081,50.9521302,51.06650261,50.95753209,50.85835136,51.31455706,51.27957161,50.98340901,51.53386742,51.53407343,56.99411129,55.35138401,55.08709795,54.86579909,54.69490424,54.5528446,54.64598359,54.78515324,54.91128056,55.09023837,55.20334895,55.19063454,55.23354233,55.23708915,55.04930622,54.88233729,54.90250955,55.2713472,55.08063067,54.97498889,54.52365317,54.49259618,55.36590545,56.25599853,55.69300008,55.40708241,55.38212345,55.4366987,55.41890827,55.40784254,55.34911467,55.32877541,55.33817742,55.35757415,55.35829038,55.46582641,55.8466284,55.94103193,55.66158853,55.49362417,55.39409344,59.0440798,57.0823448,57.08896296,57.087621,57.16132381,57.26092839,57.27255988,57.49224952,57.60938594,57.62302137,57.53786883,57.44743744,57.54366542,57.58201868,57.52337969,57.26695957,57.21442822,57.49034947,57.91080137,57.34631596,58.38890271,59.08164013,58.30798835,57.95964293,57.88075988,57.91451085,57.9663119,57.91770927,57.8867851,57.74293189,57.56591202,57.10251821,56.86917481,56.71423499,56.69965447,56.73895188,56.84972754,56.8847933,56.92668195,56.96473739,58.16449897,54.79867509,55.02669353,55.0802372,55.13856407,55.18096344,55.23016922,55.32897799,55.41268543,55.5554352,55.65338733,55.56854265,55.52903405,55.53685552,55.69809514,55.68619113,55.5188306,55.54007373,55.74369276,56.13439583,56.75232291,57.5066301,57.90578828,58.17342164,58.20658813,58.25391824,58.33857082,58.32815586,58.3287801,58.32873515,58.37013809,58.53741666,58.81816635,59.2275582,59.51377773,59.62876939,59.64644714,59.59813584,59.59683896,59.66661602,59.73902527,59.80805417,59.88393484,60.00813375,60.15233517,60.20317996,60.04493106,59.7767181,59.60842596,59.54780395,59.58370418,59.66998108,59.73042959,59.62245393,59.33321465,59.38392632,59.25966432,59.66969692,59.70235988,59.62881709,60.01546254,61.21841468,58.37510233,58.11264929,57.94526339,57.84438119,57.6442742,57.53976879,57.60093071,57.70182048,57.77259677,57.8097028,57.73449682,57.26944351,57.07587298,57.01867597,56.93742938,57.20731922,57.20551335,57.2993578,57.41612942,57.13498476,56.73607221,49.33657743,50.54733449,51.32315503,51.58576646,51.33632732,51.15451197,51.11834897,51.21108295,51.42766787,51.82815399,52.05442897,51.88470204,51.72002081,51.59930028,51.4443516,51.58551656,51.75133793,52.01810927,52.12816558,52.28104142,52.34828861,52.2028796,51.86983774,51.83211049,51.92886873,51.98918162,52.06183122,52.14595391,52.21383886,52.33655797,52.51090297,52.56701468,52.67972303,52.76379703,52.70862532,52.62579129,52.66186038,52.68430542,52.92722679,53.09927873,52.96699565,52.88137989,52.55802863,52.55802863,53.3108577,53.50683123,47.71689799,47.76273913,47.76142035,57.17399484,47.34186413,47.38695147,43.24637033,43.46123954,52.63234405,47.76878239,48.8480272,48.09262548,47.93364597,46.95409776,58.8255556,60.33040771,47.62368344,47.48573577,47.70874503,41.02469679,49.52483579,47.73620748,46.64542636,40.83651733,40.3804966,47.8900273,48.07177811,46.68036542,45.7499615,48.18673601,47.98033329,45.83156183,45.79127443,43.56772588,48.33040771,48.08909717,45.76331969,45.90415609,45.8564284,47.30111061,47.95399055,40.99111488,40.23807773,47.07602442,46.03670986,46.03670986,48.5992114,45.66169865,45.91080137,46.81201884,46.9446811,45.91080137,46.29130769,35.34887861,35.34887861,35.34887861,47.34887861,46.9446811,45.41612942,35.34887861,35.34887861,35.34887861,35.34887861,35.34887861,35.34887861,35.34887861,35.62017115,35.34887861,43.88671919,44.88675893,35.34887861,35.34887861,35.34887861,35.34887861,NaN,NaN],
	"ap0": [NaN,0.5229407161,0.681833391,0.7297576449,0.7128252791,0.8029188051,0.6872232856,0.6843168209,0.7173401901,0.7753050026,0.7089309663,0.6995455929,0.6673062369,0.7192122825,0.7112430586,0.6435163769,0.7306461182,0.8874301088,0.8190764461,0.6283328649,0.6871707921,0.5943996172,0.5179120021,0.6287186846,0.6127524788,0.6557268732,0.8037483562,0.7878563417,0.4254005022,0.1154022455,0.07527294876,0.03834104651,0.03069301147,0.04655432882,0.0458795254,0.03691054496,0.03851375351,0.04514488728,0.04016871678,0.05127698939,0.1245056748,0.08081867505,0.04378633066,0.07326253355,0.1521176252,0.1420540318,0.2515837264,0.1756574101,0.204502063,0.3902257857,0.3638045853,0.1925289172,0.06224652015,0.02039834543,0.008447991008,0.0118279982,0.01452844787,0.01817676496,0.01490701616,0.02124287217,0.02426709669,0.08554545047,0.1538485348,0.1506062816,0.4391274754,0.3339424437,0.3324568982,0.4698467987,0.6599304931,0.1565498551,0.08989239754,0.02941655787,0.02591054243,0.01736512792,0.01231279734,0.008617463921,0.01030858981,0.02253575272,0.01695615614,0.01693877958,0.01613988883,0.0105972272,0.01851162456,0.03790796931,0.1155115132,0.07340765565,0.2290196149,0.4484740194,0.5050401197,0.6318110917,0.6739205948,0.1391601115,0.1136436637,0.02915437538,0.01222449087,0.00735637835,0.007380180212,0.007708158601,0.01574685752,0.02648785489,0.04149086493,0.04170862934,0.02063242376,0.05854153133,0.1032528266,0.08040386443,0.04559562029,0.05934417325,0.2045609457,0.5737914366,0.09731621391,0.0216731419,0.008499272881,0.00980451663,0.01767351118,0.04213477664,0.05733066848,0.03170145576,0.0126818384,0.01802696849,0.01510940267,0.00366373257,0.003765531371,0.01125249464,0.02023704259,0.03724237987,0.1386336944,0.2454042598,0.2753464948,0.5395670373,0.2262785382,0.107126304,0.01677429496,0.009233836206,0.01040937455,0.01346361625,0.01108062819,0.0107070145,0.01461214439,0.01438792694,0.02287428428,0.03767676589,0.07719841334,0.1628539928,0.3276292692,0.2713525283,0.2335823678,0.329421848,0.6905054574,0.661642638,0.1415603601,0.06119014179,0.02974264364,0.02799496032,0.02260336739,0.02717916664,0.0225681825,0.03188237854,0.06020023934,0.07232907273,0.04684187577,0.03811416714,0.02340441725,0.03927577018,0.07845837665,0.05502409543,0.0080965186,0.01661746747,0.04109207966,0.06912342596,0.03209626869,0.01193144724,0.003733007195,0.003038795166,0.001819932852,0.0008814450944,0.001316172571,0.001419635288,0.001164635912,0.002001848267,0.003805733336,0.007497166249,0.01180085205,0.007994972073,0.003658470119,0.001751830931,0.001913069469,0.001534066256,0.001565750106,0.001696252817,0.001618405617,0.002299286225,0.003060512158,0.003373108945,0.003113459005,0.005332266564,0.005342874295,0.00300095017,0.001991002524,0.001885278084,0.001363525426,0.0009081157363,0.007997578411,0.02416832998,0.09781496428,0.03505604346,0.05894358008,0.04932131977,0.0677555694,0.2988541531,0.5983855566,0.07442108566,0.02189673025,0.01023551222,0.01494266818,0.02088113571,0.005056557873,0.004660729137,0.008394463388,0.01226052508,0.0138329747,0.01387360237,0.03057402621,0.03666619446,0.05560286464,0.1152082867,0.1451518776,0.1255682408,0.09723120017,0.2125756839,0.5205348679,0.6822427886,0.5182978941,0.1424402868,0.116030675,0.04559255213,0.055324881,0.02163796891,0.01145816767,0.01733710361,0.02721975118,0.05496276547,0.01637433235,0.02436915502,0.01437890174,0.03482617474,0.03375517282,0.0167669146,0.03109506237,0.02962212131,0.03572528116,0.0410148584,0.02184636124,0.02296657945,0.04986090963,0.04530267291,0.01715285574,0.009135927923,0.008374937816,0.01373627606,0.01726592761,0.01854674741,0.01283620934,0.01303618443,0.01813919,0.02813550329,0.05508635194,0.04455314762,0.03631368864,0.06168839879,0.06886841154,0.06816086329,0.1441084628,0.342153216,0.6754115804,0.7594075034,0.5336497432,0.6549811251,0.7693796523,0.6813885539,0.6971020661,0.8718007576,0.7437951572,0.6122223597,0.6808311726,0.7456081183,0.7096614463,0.7898970915,0.6553713269,0.6274529437,0.6526754989,0.7163131675,0.5541654199,0.5859432135,0.3493915235,0.3412501553,0.5005944534,0.5879870752,0.8675189377,0.7064298064,0.8291654612,0.7654822876,0.7719097106,0.7434395237,0.7184107948,0.7323799341,0.6021083408,0.533661093,0.5920560739,0.6924693435,0.8258181834,0.7470345649,0.705755921,0.7623986303,0.597918888,0.5293322562,0.5669408834,0.6620503645,0.6445292423,0.6264565241,0.6691114211,0.8944710852,0.6122400764,0.6604951615,0.7813639948,0.5609003004,0.6352565156,0.6013291557,0.4663360958,0.2603664943,0.450037668,0.3819391549,0.4017787375,0.451920005,0.4667622682,0.4769879559,1.021082719,0.6746309834,0.6166913573,0.60831136,0.6509629706,0.7636977182,0.8803474874,0.7604958876,0.8055563486,0.84540203,1.004095164,0.8671547802,0.4507014445,0.3377445255,0.4935142728,0.5402236537,NaN,NaN],
	"ap": [NaN,0.4508177068,0.2902834673,0.312153187,0.4844789884,0.5990111743,0.7603448329,0.5314558062,0.3323063531,0.5509523641,0.4803771967,0.394284566,0.3416793056,0.1787222001,0.3050127442,0.3723017347,0.3128147455,0.6214682386,0.4331572758,0.5154331997,0.2713641458,0.2081758996,0.3515986995,0.145834596,0.4019695854,0.3110784609,0.2468011989,0.3848645397,0.4089996613,0.4424205662,0.1764357065,0.07991547388,0.01558394997,0.03005981199,0.02662570385,0.01947793209,0.04831715948,0.03842153655,0.04747919253,0.03460075923,0.0556744851,0.07173867108,0.09354547006,0.0174410687,0.02381172982,0.1138513678,0.07469791691,0.1411571572,0.06093178199,0.2069561124,0.2827643241,0.4170654129,0.07618668652,0.05780443186,0.006004933239,0.00363151497,0.00662715947,0.003873348362,0.006196745972,0.00712882797,0.01317714387,0.01471555507,0.02117498786,0.06919428817,0.04252364062,0.1664893061,0.114321904,0.135851077,0.8789904188,0.5542479195,0.3412498918,0.04450949643,0.02352944087,0.01813862844,0.007469010583,0.009121386938,0.008277676014,0.01587626646,0.0148186015,0.01185925421,0.007256564152,0.01215864806,0.01391926242,0.01223619316,0.008706366585,0.02165958613,0.03887858764,0.0325152605,0.4436108665,0.2140522078,0.554136905,0.4238306438,0.3692372762,0.05458588554,0.01608390719,0.006138974316,0.003220741866,0.005931134426,0.003232422653,0.008715041085,0.004205920415,0.0236700107,0.02755327637,0.01169559278,0.05563974469,0.1544568489,0.1001092404,0.01229545187,0.04689527703,0.2685081029,0.206111401,0.4711155286,0.01483341427,0.009042255954,0.005776536759,0.003049260619,0.06163925048,0.03300660108,0.0255495682,0.01180244268,0.01489950932,0.00758054923,0.001466872601,0.0006847491164,0.003356416629,0.02310374302,0.01826256187,0.2391514905,0.09452710277,0.166916923,0.2556701314,0.4790177389,0.05010773789,0.01396896064,0.001735917215,0.003822767385,0.01151598927,0.005410945266,0.004171933628,0.02184113694,0.03278641571,0.01787770933,0.001700165834,0.04720444055,0.08245095514,0.2150224927,0.3150715448,0.06996706277,0.1257530364,0.4690266489,0.3781156331,0.4465044881,0.03836825445,0.01507951446,0.03517181825,0.01328908491,0.02915850336,0.009440154541,0.01830942084,0.0126852777,0.04873655509,0.02715233737,0.03082017976,0.01311108712,0.01085387425,0.0937529941,0.003504277704,0.01111579001,0.01955923969,0.04270901781,0.08347076683,0.05324340947,0.003295046619,0.002689223768,0.001888073048,0.002148991506,0.0006552501276,0.0001208915962,0.0007854426342,0.0002158153089,0.004402035802,0.001764198581,0.01350196662,0.006761978172,0.003497295022,0.0009075011799,0.001293645509,0.001389806579,0.000402594958,0.001467814985,0.0005725522045,0.0009515937208,0.003343422432,0.0004998663771,0.002022856749,0.002251390701,0.01302681741,0.001591039446,0.002485415997,0.002097505313,0.0009694427765,0.001204933364,0.000465986837,0.007917329703,0.01657229231,0.1122349624,0.004018393028,0.1879050487,0.02255715647,0.09589898561,0.0353655483,0.4906632347,0.2974396524,0.01247826936,0.005386574154,0.01442986196,0.003510434317,0.002887834081,0.002601110284,0.003465170002,0.002404541888,0.01146976214,0.03721206359,0.02713548257,0.008604094176,0.06046254743,0.06448897477,0.07308114615,0.05493888104,0.03307533884,0.09434081472,0.4373695092,0.501933116,0.6156006095,0.4321889466,0.0570119568,0.02779822563,0.02636852335,0.01632076086,0.001485565458,0.03451618763,0.03243674803,0.02511425935,0.02022760236,0.01955880425,0.004879314151,0.01752650224,0.0367464225,0.009716333505,0.02124278522,0.02844945946,0.01469145855,0.03828074633,0.006530319029,0.02416169723,0.02269673911,0.02148991263,0.01297283498,0.00471699815,0.001858973348,0.003159823442,0.007845960581,0.01365052654,0.001993432495,0.006346470133,0.01950762065,0.004578709518,0.04177290247,0.03289105661,0.01830013653,0.05073858354,0.02079192327,0.0337921559,0.05693215134,0.1355171637,0.5019357074,0.5704681686,0.2047786298,0.2581628809,0.2061612292,0.2944377721,0.4982706088,0.6009854151,0.304942961,0.5913085887,0.2272670468,0.6399015532,0.4611820147,0.3487793913,0.5055101373,0.1961361728,0.2715000731,0.3844484144,0.4903741856,0.1942509238,0.1895538245,0.1930634846,0.3242879538,0.5008364792,0.5696408215,0.5251788545,0.2768637079,0.3369990334,0.233774929,0.3520651653,0.2986923575,0.332948243,0.1993573307,0.1797939034,0.5566271385,0.3149424299,0.4438055622,0.3166403713,0.2427024459,0.467031465,0.2731777879,0.4405774335,0.3965909814,0.1418461904,0.4036877847,0.198875862,0.3674548928,0.3701280637,0.3825901839,0.5673747074,0.6067981812,0.2240796942,0.4404067639,0.2719093647,0.3102348889,0.1289441952,0.2074734849,0.2494175738,0.1407280046,0.1452783886,0.2829480283,0.1204432309,0.4262915402,0.4088772128,0.3476947319,0.4837413683,0.3824057898,0.3851184691,0.4691334849,0.490974556,0.4968603782,0.3211838184,0.5041118176,0.3145411365,0.05305913881,0.3355174699,0.1537786489,NaN,NaN],
	"pwr": [NaN,6.664392877e-06,6.208125644e-06,1.366165193e-05,3.12318418e-05,1.734565976e-05,1.036170453e-05,3.678777505e-06,1.632820493e-05,1.233141644e-05,1.282082844e-05,1.442187752e-05,1.334820165e-05,1.793863115e-05,2.474045091e-05,1.778057833e-05,1.135662742e-05,3.070774755e-05,7.605303658e-06,1.169617357e-05,1.377698772e-05,2.318001601e-05,1.833259738e-05,3.168798827e-05,9.421068477e-06,1.540789772e-05,1.399868663e-05,1.479260532e-05,2.012936899e-05,3.234365966e-05,0.0008597893399,0.01127316861,0.03542123257,0.03412813202,0.03491573601,0.02149062709,0.0121790767,0.01150000344,0.02069762917,0.01802803981,0.01868423301,0.009903594318,0.004919221988,0.01657972803,0.01964185192,0.005976522782,0.002766780921,0.0003501844302,0.0003735703195,0.0001792295197,0.000162289375,0.0006473061866,0.003889879318,0.003056454118,0.00475517019,0.004044121559,0.002708041368,0.002034478657,0.001915440657,0.002082163899,0.001875912731,0.001573010279,0.002130736476,0.001036263204,0.0004242419972,3.348401971e-05,7.833108812e-05,2.332170238e-05,4.420548031e-05,2.329004493e-05,0.0003476266339,0.02367376776,0.02523251558,0.0264302537,0.01019393286,0.008060071637,0.01007677071,0.009244305595,0.007812357986,0.006669506325,0.01376375009,0.01053535476,0.006965056745,0.009813264496,0.01432756313,0.001800739484,0.0008251672921,0.0008172947448,0.0006527332556,0.0002390869838,7.014509529e-05,6.461439926e-05,0.0001037595141,0.007353110402,0.00527518081,0.006341375006,0.006039143977,0.005751033252,0.007098728749,0.007598383772,0.01157853971,0.01454719249,0.01389321465,0.01435914014,0.02349287068,0.004964194905,0.004909734619,0.002311552985,0.0007562325496,0.0003254071438,0.0002663511533,0.00214319908,0.07167415709,0.2286220188,0.1785787294,0.1011570984,0.0715790275,0.02668202915,0.03097997315,0.03245619922,0.02437949397,0.01161522609,0.01410422029,0.01287892007,0.00942953627,0.003672793725,0.000875892791,0.0001217349377,0.0001249026778,2.032998963e-05,3.2640224e-05,3.893247909e-05,0.01303906129,0.02187462831,0.02289960832,0.01545014052,0.01339669026,0.01488174228,0.01544881075,0.01247258738,0.01414958653,0.01614433461,0.03213969471,0.01146728065,0.003455182428,0.0005416059429,0.0002616763836,0.0007116800848,0.0004350993533,0.000171652069,0.0001170754404,6.232326481e-05,0.0392513973,0.06470565968,0.03983662867,0.04818384405,0.02741029821,0.02127831331,0.01988057259,0.01155906745,0.007532341515,0.006921632399,0.005080541126,0.003949125702,0.004646476683,0.006304085136,0.006916376568,0.004353373411,0.003423936834,0.00251281169,0.00161214517,0.02084737598,0.06481168706,0.07093517025,0.06054024472,0.07617581934,0.06539038817,0.06382118083,0.07071027563,0.06801359784,0.07539307987,0.07582418557,0.05411986618,0.03075930992,0.03116089315,0.05271819756,0.06619779794,0.06935050485,0.06166860306,0.05185671042,0.06031195075,0.05891433636,0.05462581291,0.04235078062,0.02790936492,0.0180220428,0.01878677866,0.02392065668,0.0303390843,0.02865200748,0.03535984604,0.04107443837,0.04420568417,0.03394238225,0.01331314224,0.0002520759423,0.001028487661,0.0001855769033,0.0002887467465,0.0003864323458,5.807370364e-05,1.745416899e-05,0.001659547016,0.08207433281,0.1167994266,0.08782115745,0.03173802388,0.02627847599,0.03278382565,0.02954610175,0.03605922236,0.03329579632,0.03877788078,0.03446292592,0.07799703287,0.01625929395,0.004283200635,0.001631155772,0.001213336202,0.000667806582,0.0003965569657,0.0001112370018,0.00010258721,7.758713185e-05,0.0009854112095,0.007625376657,0.01115102148,0.009169635268,0.01582347694,0.03364204115,0.0405254399,0.03777612744,0.0267551066,0.02872384576,0.04254983537,0.03905665463,0.02003599049,0.006894575564,0.0108391413,0.007711966022,0.005775044912,0.01029678471,0.006615362201,0.008035853604,0.00534018166,0.001722962537,0.0008188358135,0.001388339735,0.002394750952,0.002907029704,0.002962754076,0.002627964901,0.002273357827,0.002165768486,0.00208908672,0.0009014722543,0.0004931978252,0.000313742833,0.0002742456426,0.0003990209611,0.0002175778419,0.0002203370909,0.0001516113466,0.0001666534096,7.240812572e-05,2.972158093e-05,6.867317845e-06,1.437395604e-05,1.894007395e-05,1.737507362e-05,1.664578432e-05,1.344873777e-05,9.247920812e-06,2.247724019e-05,1.102449938e-05,1.097481417e-05,1.00506998e-05,9.960188805e-06,1.004600168e-05,1.12525357e-05,1.518678009e-05,1.653729814e-05,3.454612996e-06,7.694038019e-06,2.407779731e-05,1.383187076e-05,3.665473381e-05,3.072935286e-05,1.626910047e-05,1.835637522e-05,1.456772278e-05,1.052649899e-05,1.596060031e-05,1.27975704e-05,1.597869725e-05,1.19513332e-05,1.168495764e-05,1.741597796e-05,1.081245255e-05,9.290861602e-06,2.050141793e-05,6.504618796e-06,1.092839957e-05,1.545740153e-05,7.257215339e-06,9.743733626e-06,6.431880378e-06,1.591674111e-05,2.077171779e-05,1.331986356e-05,1.168004266e-05,1.201294794e-05,1.91613544e-06,1.274381533e-06,1.77991031e-06,1.89487972e-07,3.052198841e-07,5.976771509e-08,1.735483798e-08,3.055353865e-08,1.136989643e-08,1.638912317e-08,7.020668897e-09,7.452413909e-09,3.562125517e-09,5.184959334e-10,2.266819471e-09,1.710709404e-09,2.301265082e-09,2.447242563e-09,7.383664703e-10,4.299117003e-10,9.739470822e-10,6.343260055e-10,1.01559017e-09,4.152452031e-10,8.685685678e-11,6.506391256e-10,8.877814109e-10,4.633696471e-10,4.0309951e-10,5.985764185e-10,NaN,NaN],
	"sr": 16000,
	"range": [1,113251],
	"minf0": 63.1883,
	"maxf0": 706.3069,
	"thresh": 0.1,
	"relflag": 1,
	"hop": 320,
	"bufsize": 10000,
	"wsize": 640,
	"lpf": 4000,
	"shift": 0,
	"plotthreshold": 0.2
}
