{
    "f0": [
        0.0,
        0.0,
        0.0,
        0.0,
        75.155644077455165,
        53.09652014154247,
        72.847404941991158,
        72.847404941991158,
        63.606006909106462,
        63.558475502541043,
        72.837294962685689,
        67.365151107980211,
        67.720505311387427,
        55.266343273455448,
        55.239899455865334,
        54.457228471733366,
        53.637491607523188,
        52.949271347311608,
        55.526422477378603,
        55.436482452851706,
        54.755265671273094,
        54.852461171554452,
        58.143960616990377,
        45.69356128271356,
        41.766978925018286,
        60.159954717463819,
        40.852411749070527,
        36.095240625505582,
        36.095240625505582,
        34.679911909992363,
        58.611472670657342,
        60.274839256625214,
        62.135142443175738,
        62.630286713049031,
        62.755399880823205,
        62.70763547955854,
        61.810822452759751,
        61.5722890441602,
        61.453847874071684,
        61.695368018351473,
        62.157227976030732,
        62.585248965102338,
        62.931922884051673,
        63.091986807190459,
        63.250582736231223,
        63.471657470757279,
        63.586970963420249,
        63.578751613636086,
        63.375168443408107,
        62.561564494966831,
        60.791879276058026,
        60.691245790805496,
        62.291737375426393,
        62.387187230999899,
        62.48211366024379,
        63.088260249574702,
        62.987857582699547,
        62.886869233712133,
        62.731766082980123,
        62.632583385050204,
        62.623691544584815,
        62.671473197137388,
        62.81677986512355,
        62.990812427899293,
        63.163112978042776,
        63.333715542274206,
        63.561316504927781,
        63.738060765131593,
        62.521421168855966,
        63.379566444950576,
        58.469270694727868,
        57.882178221729603,
        62.839242136644842,
        62.811681997070679,
        62.694264729388351,
        62.507535424748497,
        62.369086797832452,
        62.32513981073442,
        62.405477805325319,
        62.713328568279387,
        63.015800586945446,
        62.425071059908305,
        61.813472324829135,
        61.691207409822567,
        61.823996888553715,
        61.918346331186079,
        62.596340320358351,
        62.969964794034027,
        62.880184808183891,
        62.558599908533068,
        62.349197326097254,
        62.363154256285014,
        62.590113101003318,
        63.088219669904966,
        63.391198231541409,
        63.441003269467174,
        63.412244818698227,
        63.314632785180301,
        63.144070147448673,
        62.966839638741575,
        62.836528742194915,
        62.799975371788136,
        62.770580302542534,
        62.563516788935942,
        62.955794197281278,
        62.783311077652705,
        62.351930066901119,
        61.909524818835536,
        62.624580064156845,
        62.330801240342993,
        61.588069155606988,
        61.045580059872542,
        60.854852870233543,
        60.6935857096828,
        60.637587075540189,
        60.693120090777086,
        60.676616991785309,
        60.502632633507424,
        60.326880065794498,
        59.724215480397362,
        59.321475838457502,
        58.795996660691117,
        58.312530163114822,
        58.139897015367097,
        58.31401384068279,
        58.697566045628207,
        58.969805683126921,
        59.038734950408085,
        59.075478190841082,
        59.13597935323061,
        59.087398853904112,
        59.162778623328059,
        59.369698053061185,
        59.681402149102169,
        59.811244767597813,
        59.678110768415038,
        59.576791528816855,
        59.536262722608818,
        59.391994203131219,
        59.387875366420687,
        59.656032007350049,
        60.229890825303173,
        60.791084472983023,
        61.157872023792549,
        61.254093922853656,
        61.194428349465916,
        61.09837178596954,
        61.085797796824636,
        61.123375192407494,
        61.248661007753611,
        61.370462888323587,
        61.517791444849507,
        61.731078421321314,
        61.941765994769966,
        61.622602046921429,
        60.689400411641103,
        60.027519893599035,
        58.464526913854279,
        56.546285953529996,
        59.207482044843054,
        58.564578348413505,
        57.658109603249585,
        57.122012059673615,
        56.994819215232674,
        57.100643268196087,
        57.247649978063372,
        57.393421200216984,
        57.764645290769188,
        58.128077240262897,
        58.13428169370917,
        58.6590117596038,
        58.459125144118218,
        58.259021861323504,
        57.945641448975948,
        57.263219216854296,
        56.800474889746113,
        55.491447436131196,
        55.541337808994967,
        55.681340470408777,
        56.004667789535901,
        56.194856110117961,
        56.315697490576255,
        56.40858680037627,
        56.3894357847186,
        56.199109833421971,
        56.07168301044787,
        55.964290358336697,
        55.845674746813842,
        55.805932999582268,
        55.838835927055356,
        55.911441610661527,
        56.136219883835494,
        56.321231676797595,
        56.504289621272207,
        56.685428569337191,
        57.036960452210863,
        55.959812745310728,
        57.018533245540468,
        56.539295440510216,
        54.590919909412904,
        54.039965842510036,
        53.864426792617984,
        53.625917209254112,
        53.557499204198812,
        53.488809643084608,
        53.592108252794077,
        53.663296324732876,
        53.734194296222704,
        53.824931376418988,
        53.915196682363757,
        53.800569883639923,
        53.492583131700158,
        54.128605360624562,
        53.841407872803003,
        53.650681376130905,
        52.175154499566894,
        50.562052161077752,
        48.255735797889322,
        46.415413234169009,
        46.554934214388339,
        46.868468192869571,
        46.740869668283459,
        46.19648065890911,
        47.357334137290081,
        46.830887171931536,
        46.454592814141591,
        46.327767109045524,
        46.870708943246349,
        46.927485247130974,
        46.822583453250559,
        46.425931636679792,
        46.932404470955383,
        47.427854075676777,
        48.080141499515655,
        47.241142350554576,
        49.529244126778494,
        44.893375820113107,
        58.808740807044458,
        58.811037000725179,
        57.925325207628788,
        57.754743763424642,
        57.893610488131394,
        58.094024787698061,
        58.380351975931063,
        58.873981816306568,
        59.075116054162031,
        59.167618814654645,
        59.259631047993665,
        59.280226295435,
        59.194090919806953,
        59.018464704557047,
        58.886082985699403,
        59.07282690703147,
        59.679674299450383,
        59.535912204573265,
        59.390947330480387,
        0.0,
        0.0,
        0.0,
        0.0,
        58.242141750191855,
        59.292046836221928,
        59.74724849788074,
        59.573254550028608,
        59.311288241195975,
        59.08912197036301,
        59.076268471299386,
        59.151143004583176,
        59.240912329353137,
        59.321806639539929,
        59.438754548412305,
        59.587229455619152,
        59.610990598559653,
        59.696468733023138,
        59.576834994811939,
        59.449049828151963,
        58.808409838012537,
        58.667349548442225,
        59.107517459319645,
        59.229602607448278,
        59.15427212980687,
        58.988917048056571,
        58.930939633895917,
        58.895049384506351,
        58.844774661556926,
        58.896284872260402,
        59.064161050652181,
        59.172818800534934,
        58.60272048778323,
        58.478838096147967,
        58.835356603488307,
        59.503954335738825,
        59.644861460007263,
        59.508527647863879,
        59.383768097869549,
        59.282140836089575,
        59.218845335009505,
        59.199553732792637,
        59.215720451846195,
        59.211808845234536,
        59.135234295976737,
        59.267114736015188,
        59.628860743947556,
        59.870495300499528,
        59.637156797351338,
        59.400630303241449,
        59.160827498150283,
        56.544791905731756,
        0.0,
        0.0,
        62.366747858900979,
        61.660024201096412,
        61.500210254135609,
        61.292963082499355,
        61.083204850865258,
        61.0000067469336,
        61.048250834550728,
        61.121450334470623,
        61.194345466376525,
        61.330127614981393,
        61.433524951267728,
        61.377890591981888,
        61.206300370937598,
        61.091558840274025,
        60.976059449943214,
        61.032046815425886,
        61.087855505793065,
        60.969488447850843,
        59.582986197246498,
        59.787246012563187,
        59.584175588393059,
        59.295237923211431,
        58.976346666006599,
        58.870303719633142,
        58.898432818464435,
        59.085680867753503,
        59.348645968670517,
        59.912265637894663,
        60.822954682392655,
        62.179016512471073,
        64.666372202162961,
        65.496132374692024,
        65.975051244172178,
        66.105217063744064,
        66.013702473283985,
        65.866663148227246,
        65.911017600241223,
        65.901576517516432,
        65.719947643828078,
        65.449618792778352,
        65.219137679863778,
        65.135456422473354,
        65.148474759803776,
        64.816047156311868,
        63.541818180145718,
        63.357872997053136,
        63.323045146552587,
        63.288147035643206,
        63.208994522962215,
        63.249849670899557,
        63.249114874206555,
        63.33009394464635,
        63.410695995525757,
        63.316928846775454,
        63.222651014264947,
        62.953863495420762,
        62.062708685850943,
        62.377532960793999,
        62.305784880575771,
        61.905109620091679,
        61.663968468205901,
        61.333912191443012,
        61.10011347700987,
        61.153978872528221,
        61.207677129933131,
        61.386198721391906,
        61.562898205104553,
        61.423946924213055,
        60.927142640113409,
        60.600289039499145,
        59.285274787588214,
        60.781806353529639,
        62.220129439322818,
        62.543054533332985,
        62.39656526188201,
        61.717385020221904,
        61.254738197805935,
        61.031306666654167,
        61.012203225805806,
        61.232476200395119,
        61.511698642430197,
        61.756144859579429,
        62.012160982708309,
        62.689089182231143,
        62.87662096359211,
        63.012468176135897,
        63.097706910830759,
        63.06672111048448,
        62.944969958305457,
        62.822356564680881,
        62.687961934676053,
        62.630009136432299,
        62.634402828708097,
        62.684489764031113,
        62.718914537329653,
        62.715912914599187,
        62.70739366177299,
        62.735275399436375,
        62.799789836970824,
        62.758814808295917,
        62.590067861114335,
        62.419659899162298,
        61.994504502262302,
        61.339103509633802,
        60.422674758363414,
        62.346818659152241,
        61.997486254727328,
        59.671159792857523,
        55.667411635602079,
        54.488234689709088,
        53.885647351483307,
        52.37331843610545,
        49.7993415648696,
        0.0,
        55.589249474729144,
        55.54391499397591,
        48.284458563290322,
        47.396450756875339,
        51.100658336755501,
        48.872433320739333,
        46.486718729446991,
        42.730015496143878,
        0.0,
        0.0,
        0.0,
        0.0,
        0.0,
        0.0,
        0.0,
        0.0,
        0.0,
        0.0,
        0.0,
        0.0,
        0.0,
        0.0,
        0.0,
        0.0,
        0.0,
        0.0,
        0.0,
        0.0,
        0.0,
        0.0,
        0.0,
        0.0,
        0.0,
        0.0,
        0.0,
        0.0,
        0.0,
        0.0,
        0.0,
        0.0,
        0.0,
        0.0,
        0.0,
        0.0,
        0.0,
        0.0,
        0.0,
        0.0,
        0.0,
        0.0,
        0.0,
        0.0,
        0.0,
        0.0,
        0.0,
        0.0,
        0.0,
        0.0,
        0.0,
        0.0,
        0.0,
        0.0,
        0.0,
        0.0,
        0.0,
        0.0,
        0.0,
        0.0,
        0.0,
        0.0,
        0.0,
        0.0,
        0.0,
        0.0,
        0.0,
        0.0,
        0.0,
        0.0,
        0.0,
        0.0,
        0.0,
        0.0,
        0.0,
        0.0,
        0.0,
        0.0,
        0.0,
        0.0,
        0.0,
        0.0,
        0.0,
        0.0,
        0.0,
        0.0,
        0.0,
        0.0,
        0.0,
        0.0,
        0.0,
        0.0,
        0.0,
        0.0,
        0.0,
        0.0,
        0.0,
        0.0,
        0.0,
        0.0,
        0.0,
        0.0,
        0.0,
        0.0,
        0.0,
        0.0,
        0.0,
        0.0,
        0.0,
        0.0,
        0.0,
        0.0,
        0.0,
        0.0,
        0.0,
        0.0,
        0.0,
        0.0,
        0.0,
        0.0,
        0.0,
        0.0,
        0.0,
        0.0,
        0.0,
        0.0,
        0.0,
        0.0,
        0.0,
        0.0,
        0.0,
        0.0,
        0.0,
        0.0,
        0.0,
        0.0,
        0.0,
        0.0,
        0.0,
        0.0,
        0.0,
        0.0,
        0.0,
        0.0,
        0.0,
        0.0,
        0.0,
        0.0,
        0.0
    ],
    "time": [
        0.02,
        0.040000000000000001,
        0.059999999999999998,
        0.080000000000000002,
        0.10000000000000001,
        0.12,
        0.14000000000000001,
        0.16,
        0.17999999999999999,
        0.20000000000000001,
        0.22,
        0.23999999999999999,
        0.26000000000000001,
        0.28000000000000003,
        0.29999999999999999,
        0.32000000000000001,
        0.34000000000000002,
        0.35999999999999999,
        0.38,
        0.40000000000000002,
        0.41999999999999998,
        0.44,
        0.46000000000000002,
        0.47999999999999998,
        0.5,
        0.52000000000000002,
        0.54000000000000004,
        0.56000000000000005,
        0.57999999999999996,
        0.59999999999999998,
        0.62,
        0.64000000000000001,
        0.66000000000000003,
        0.68000000000000005,
        0.69999999999999996,
        0.71999999999999997,
        0.73999999999999999,
        0.76000000000000001,
        0.78000000000000003,
        0.80000000000000004,
        0.81999999999999995,
        0.83999999999999997,
        0.85999999999999999,
        0.88,
        0.90000000000000002,
        0.92000000000000004,
        0.93999999999999995,
        0.95999999999999996,
        0.97999999999999998,
        1.0,
        1.02,
        1.04,
        1.0600000000000001,
        1.0800000000000001,
        1.1000000000000001,
        1.1200000000000001,
        1.1399999999999999,
        1.1599999999999999,
        1.1799999999999999,
        1.2,
        1.22,
        1.24,
        1.26,
        1.28,
        1.3,
        1.3200000000000001,
        1.3400000000000001,
        1.3600000000000001,
        1.3799999999999999,
        1.3999999999999999,
        1.4199999999999999,
        1.4399999999999999,
        1.46,
        1.48,
        1.5,
        1.52,
        1.54,
        1.5600000000000001,
        1.5800000000000001,
        1.6000000000000001,
        1.6200000000000001,
        1.6399999999999999,
        1.6599999999999999,
        1.6799999999999999,
        1.7,
        1.72,
        1.74,
        1.76,
        1.78,
        1.8,
        1.8200000000000001,
        1.8400000000000001,
        1.8600000000000001,
        1.8799999999999999,
        1.8999999999999999,
        1.9199999999999999,
        1.9399999999999999,
        1.96,
        1.98,
        2.0,
        2.02,
        2.04,
        2.0600000000000001,
        2.0800000000000001,
        2.1000000000000001,
        2.1200000000000001,
        2.1400000000000001,
        2.1600000000000001,
        2.1800000000000002,
        2.2000000000000002,
        2.2200000000000002,
        2.2400000000000002,
        2.2599999999999998,
        2.2799999999999998,
        2.2999999999999998,
        2.3199999999999998,
        2.3399999999999999,
        2.3599999999999999,
        2.3799999999999999,
        2.3999999999999999,
        2.4199999999999999,
        2.4399999999999999,
        2.46,
        2.48,
        2.5,
        2.52,
        2.54,
        2.5600000000000001,
        2.5800000000000001,
        2.6000000000000001,
        2.6200000000000001,
        2.6400000000000001,
        2.6600000000000001,
        2.6800000000000002,
        2.7000000000000002,
        2.7200000000000002,
        2.7400000000000002,
        2.7599999999999998,
        2.7799999999999998,
        2.7999999999999998,
        2.8199999999999998,
        2.8399999999999999,
        2.8599999999999999,
        2.8799999999999999,
        2.8999999999999999,
        2.9199999999999999,
        2.9399999999999999,
        2.96,
        2.98,
        3.0,
        3.02,
        3.04,
        3.0600000000000001,
        3.0800000000000001,
        3.1000000000000001,
        3.1200000000000001,
        3.1400000000000001,
        3.1600000000000001,
        3.1800000000000002,
        3.2000000000000002,
        3.2200000000000002,
        3.2400000000000002,
        3.2599999999999998,
        3.2799999999999998,
        3.2999999999999998,
        3.3199999999999998,
        3.3399999999999999,
        3.3599999999999999,
        3.3799999999999999,
        3.3999999999999999,
        3.4199999999999999,
        3.4399999999999999,
        3.46,
        3.48,
        3.5,
        3.52,
        3.54,
        3.5600000000000001,
        3.5800000000000001,
        3.6000000000000001,
        3.6200000000000001,
        3.6400000000000001,
        3.6600000000000001,
        3.6800000000000002,
        3.7000000000000002,
        3.7200000000000002,
        3.7400000000000002,
        3.7599999999999998,
        3.7799999999999998,
        3.7999999999999998,
        3.8199999999999998,
        3.8399999999999999,
        3.8599999999999999,
        3.8799999999999999,
        3.8999999999999999,
        3.9199999999999999,
        3.9399999999999999,
        3.96,
        3.98,
        4.0,
        4.0199999999999996,
        4.04,
        4.0599999999999996,
        4.0800000000000001,
        4.0999999999999996,
        4.1200000000000001,
        4.1399999999999997,
        4.1600000000000001,
        4.1799999999999997,
        4.2000000000000002,
        4.2199999999999998,
        4.2400000000000002,
        4.2599999999999998,
        4.2800000000000002,
        4.2999999999999998,
        4.3200000000000003,
        4.3399999999999999,
        4.3600000000000003,
        4.3799999999999999,
        4.4000000000000004,
        4.4199999999999999,
        4.4400000000000004,
        4.46,
        4.4800000000000004,
        4.5,
        4.5199999999999996,
        4.54,
        4.5599999999999996,
        4.5800000000000001,
        4.5999999999999996,
        4.6200000000000001,
        4.6399999999999997,
        4.6600000000000001,
        4.6799999999999997,
        4.7000000000000002,
        4.7199999999999998,
        4.7400000000000002,
        4.7599999999999998,
        4.7800000000000002,
        4.7999999999999998,
        4.8200000000000003,
        4.8399999999999999,
        4.8600000000000003,
        4.8799999999999999,
        4.9000000000000004,
        4.9199999999999999,
        4.9400000000000004,
        4.96,
        4.9800000000000004,
        5.0,
        5.0199999999999996,
        5.04,
        5.0599999999999996,
        5.0800000000000001,
        5.0999999999999996,
        5.1200000000000001,
        5.1399999999999997,
        5.1600000000000001,
        5.1799999999999997,
        5.2000000000000002,
        5.2199999999999998,
        5.2400000000000002,
        5.2599999999999998,
        5.2800000000000002,
        5.2999999999999998,
        5.3200000000000003,
        5.3399999999999999,
        5.3600000000000003,
        5.3799999999999999,
        5.4000000000000004,
        5.4199999999999999,
        5.4400000000000004,
        5.46,
        5.4800000000000004,
        5.5,
        5.5199999999999996,
        5.54,
        5.5599999999999996,
        5.5800000000000001,
        5.5999999999999996,
        5.6200000000000001,
        5.6399999999999997,
        5.6600000000000001,
        5.6799999999999997,
        5.7000000000000002,
        5.7199999999999998,
        5.7400000000000002,
        5.7599999999999998,
        5.7800000000000002,
        5.7999999999999998,
        5.8200000000000003,
        5.8399999999999999,
        5.8600000000000003,
        5.8799999999999999,
        5.9000000000000004,
        5.9199999999999999,
        5.9400000000000004,
        5.96,
        5.9800000000000004,
        6.0,
        6.0199999999999996,
        6.04,
        6.0599999999999996,
        6.0800000000000001,
        6.0999999999999996,
        6.1200000000000001,
        6.1399999999999997,
        6.1600000000000001,
        6.1799999999999997,
        6.2000000000000002,
        6.2199999999999998,
        6.2400000000000002,
        6.2599999999999998,
        6.2800000000000002,
        6.2999999999999998,
        6.3200000000000003,
        6.3399999999999999,
        6.3600000000000003,
        6.3799999999999999,
        6.4000000000000004,
        6.4199999999999999,
        6.4400000000000004,
        6.46,
        6.4800000000000004,
        6.5,
        6.5199999999999996,
        6.54,
        6.5599999999999996,
        6.5800000000000001,
        6.5999999999999996,
        6.6200000000000001,
        6.6399999999999997,
        6.6600000000000001,
        6.6799999999999997,
        6.7000000000000002,
        6.7199999999999998,
        6.7400000000000002,
        6.7599999999999998,
        6.7800000000000002,
        6.7999999999999998,
        6.8200000000000003,
        6.8399999999999999,
        6.8600000000000003,
        6.8799999999999999,
        6.9000000000000004,
        6.9199999999999999,
        6.9400000000000004,
        6.96,
        6.9800000000000004,
        7.0,
        7.0199999999999996,
        7.04,
        7.0599999999999996,
        7.0800000000000001,
        7.0999999999999996,
        7.1200000000000001,
        7.1399999999999997,
        7.1600000000000001,
        7.1799999999999997,
        7.2000000000000002,
        7.2199999999999998,
        7.2400000000000002,
        7.2599999999999998,
        7.2800000000000002,
        7.2999999999999998,
        7.3200000000000003,
        7.3399999999999999,
        7.3600000000000003,
        7.3799999999999999,
        7.4000000000000004,
        7.4199999999999999,
        7.4400000000000004,
        7.46,
        7.4800000000000004,
        7.5,
        7.5199999999999996,
        7.54,
        7.5599999999999996,
        7.5800000000000001,
        7.5999999999999996,
        7.6200000000000001,
        7.6399999999999997,
        7.6600000000000001,
        7.6799999999999997,
        7.7000000000000002,
        7.7199999999999998,
        7.7400000000000002,
        7.7599999999999998,
        7.7800000000000002,
        7.7999999999999998,
        7.8200000000000003,
        7.8399999999999999,
        7.8600000000000003,
        7.8799999999999999,
        7.9000000000000004,
        7.9199999999999999,
        7.9400000000000004,
        7.96,
        7.9800000000000004,
        8.0,
        8.0199999999999996,
        8.0399999999999991,
        8.0600000000000005,
        8.0800000000000001,
        8.0999999999999996,
        8.1199999999999992,
        8.1400000000000006,
        8.1600000000000001,
        8.1799999999999997,
        8.1999999999999993,
        8.2200000000000006,
        8.2400000000000002,
        8.2599999999999998,
        8.2799999999999994,
        8.3000000000000007,
        8.3200000000000003,
        8.3399999999999999,
        8.3599999999999994,
        8.3800000000000008,
        8.4000000000000004,
        8.4199999999999999,
        8.4399999999999995,
        8.4600000000000009,
        8.4800000000000004,
        8.5,
        8.5199999999999996,
        8.5399999999999991,
        8.5600000000000005,
        8.5800000000000001,
        8.5999999999999996,
        8.6199999999999992,
        8.6400000000000006,
        8.6600000000000001,
        8.6799999999999997,
        8.6999999999999993,
        8.7200000000000006,
        8.7400000000000002,
        8.7599999999999998,
        8.7799999999999994,
        8.8000000000000007,
        8.8200000000000003,
        8.8399999999999999,
        8.8599999999999994,
        8.8800000000000008,
        8.9000000000000004,
        8.9199999999999999,
        8.9399999999999995,
        8.9600000000000009,
        8.9800000000000004,
        9.0,
        9.0199999999999996,
        9.0399999999999991,
        9.0600000000000005,
        9.0800000000000001,
        9.0999999999999996,
        9.1199999999999992,
        9.1400000000000006,
        9.1600000000000001,
        9.1799999999999997,
        9.1999999999999993,
        9.2200000000000006,
        9.2400000000000002,
        9.2599999999999998,
        9.2799999999999994,
        9.3000000000000007,
        9.3200000000000003,
        9.3399999999999999,
        9.3599999999999994,
        9.3800000000000008,
        9.4000000000000004,
        9.4199999999999999,
        9.4399999999999995,
        9.4600000000000009,
        9.4800000000000004,
        9.5,
        9.5199999999999996,
        9.5399999999999991,
        9.5600000000000005,
        9.5800000000000001,
        9.5999999999999996,
        9.6199999999999992,
        9.6400000000000006,
        9.6600000000000001,
        9.6799999999999997,
        9.6999999999999993,
        9.7200000000000006,
        9.7400000000000002,
        9.7599999999999998,
        9.7799999999999994,
        9.8000000000000007,
        9.8200000000000003,
        9.8399999999999999,
        9.8599999999999994,
        9.8800000000000008,
        9.9000000000000004,
        9.9199999999999999,
        9.9399999999999995,
        9.9600000000000009,
        9.9800000000000004,
        10.0,
        10.02,
        10.039999999999999,
        10.06,
        10.08,
        10.1,
        10.119999999999999,
        10.140000000000001,
        10.16,
        10.18,
        10.199999999999999,
        10.220000000000001,
        10.24,
        10.26,
        10.279999999999999,
        10.300000000000001,
        10.32,
        10.34,
        10.359999999999999,
        10.380000000000001,
        10.4,
        10.42,
        10.44,
        10.460000000000001,
        10.48,
        10.5,
        10.52,
        10.539999999999999,
        10.56,
        10.58,
        10.6,
        10.619999999999999,
        10.640000000000001,
        10.66,
        10.68,
        10.699999999999999,
        10.720000000000001,
        10.74,
        10.76,
        10.779999999999999,
        10.800000000000001,
        10.82,
        10.84,
        10.859999999999999,
        10.880000000000001,
        10.9,
        10.92,
        10.94,
        10.960000000000001,
        10.98,
        11.0,
        11.02,
        11.039999999999999,
        11.06,
        11.08,
        11.1,
        11.119999999999999,
        11.140000000000001,
        11.16,
        11.18,
        11.199999999999999,
        11.220000000000001,
        11.24,
        11.26,
        11.279999999999999,
        11.300000000000001,
        11.32,
        11.34,
        11.359999999999999,
        11.380000000000001,
        11.4,
        11.42,
        11.44,
        11.460000000000001,
        11.48,
        11.5,
        11.52,
        11.539999999999999,
        11.56,
        11.58,
        11.6,
        11.619999999999999
    ]
}