{
    "f0": [
        0.0,
        0.0,
        0.0,
        0.0,
        0.0,
        0.0,
        0.0,
        0.0,
        0.0,
        0.0,
        36.930782809994042,
        37.696477489096381,
        38.632517510248576,
        38.828921005819538,
        39.988111438624692,
        37.969025901421325,
        38.124901912718201,
        38.94815866964769,
        38.505422902391231,
        38.555061557131211,
        38.447245846015377,
        39.038829759819599,
        38.013965931946174,
        38.072314171271898,
        38.70126678621822,
        39.475018194189374,
        40.465756169249332,
        37.472733744488345,
        38.385339888738031,
        36.509610794005084,
        0.0,
        0.0,
        37.486775772064988,
        37.596772287996728,
        39.520643528102532,
        39.291241376378665,
        38.148762928765251,
        37.936053455518355,
        38.446746260081511,
        38.288478534944907,
        38.723846543240889,
        38.685399421184997,
        38.730143128264245,
        39.334476666500947,
        38.621374639714439,
        40.491534311048127,
        37.637279952117524,
        39.182727944063636,
        37.67702781363829,
        38.71919414193755,
        38.776182329586881,
        0.0,
        0.0,
        0.0,
        0.0,
        0.0,
        0.0,
        0.0,
        38.422255085562888,
        40.427984662575135,
        42.991283768607715,
        0.0,
        0.0,
        0.0,
        0.0,
        0.0,
        0.0,
        0.0,
        0.0,
        0.0,
        35.875609595379039,
        33.257695325441382,
        33.330176702688036,
        32.716876532029211,
        0.0,
        33.49176749636807,
        33.466328900823399,
        32.012511846462971,
        0.0,
        0.0,
        0.0,
        0.0,
        0.0,
        0.0,
        0.0,
        0.0,
        0.0,
        32.643236878465252,
        34.520767022111471,
        33.567464686522612,
        34.104852731054123,
        35.466301676901971,
        33.677581277903514,
        35.041277248213127,
        35.213057735951324,
        34.877837971198936,
        0.0,
        0.0,
        0.0,
        0.0,
        0.0,
        40.875835152464276,
        43.239864784559458,
        53.199521617854664,
        52.922429445641342,
        52.864798312284044,
        52.828777576535572,
        52.825883527833895,
        52.961784479434371,
        53.340151111267694,
        53.846012954043431,
        54.29871069329203,
        54.526148909067203,
        54.623187951248063,
        54.709051869495767,
        54.680130429281178,
        54.858712937769567,
        54.929479314879487,
        54.866645395753956,
        54.821108279157954,
        54.784685519092911,
        54.804973071190119,
        54.615415966756537,
        54.503040795496233,
        54.442120034680748,
        54.40294560729383,
        54.400631027358841,
        54.406424575549877,
        54.416423893016045,
        54.400933785495255,
        54.386154547214325,
        54.329835216580264,
        54.283548931042418,
        54.262296131143991,
        54.259564601537782,
        54.362325973460628,
        54.391481137621383,
        54.450080061767032,
        54.557272546353346,
        54.629288963326601,
        54.593911540172421,
        54.626424654460045,
        54.613315690646708,
        54.515469850192076,
        54.377168869330269,
        54.012498240654857,
        54.149527300064605,
        55.426320418825625,
        54.895888999361887,
        54.565920619634028,
        54.442810389113916,
        54.477101606915696,
        54.497454265183698,
        54.485142844347166,
        54.426421638397755,
        54.348094498658952,
        54.31696505027297,
        54.335474621260985,
        54.401585369613649,
        54.466717535468504,
        54.50809309493642,
        54.41985695061382,
        53.97681288579858,
        53.895641538758944,
        54.216168602912106,
        54.625106595504576,
        53.992281317944702,
        0.0,
        42.04222664216001,
        43.020467045060883,
        42.442071322057032,
        54.567598384846775,
        54.242191624255675,
        54.14918615625497,
        54.138230910943939,
        54.123917452603678,
        54.161130443232182,
        54.29227019537732,
        54.428209019585914,
        54.49571430567363,
        54.542220820354189,
        54.556228603969572,
        54.557305802858188,
        54.531386867427528,
        54.526524281629662,
        54.431666211588954,
        54.218392372117421,
        53.682558433803194,
        54.394849351908469,
        54.779389816525104,
        54.890260982222415,
        54.203113459466877,
        0.0,
        0.0,
        0.0,
        0.0,
        0.0,
        54.465422060606024,
        53.587261082402193,
        53.446418279561577,
        53.341213177464098,
        53.336804180146672,
        53.34165528888083,
        53.396975067402373,
        53.602342043916146,
        53.739607851969822,
        53.860998394929794,
        54.037733321242428,
        54.17712486488653,
        54.290287618086587,
        54.438396225298803,
        54.499038754750593,
        54.51703743272266,
        54.514265318461788,
        54.53868313020466,
        54.584957171853105,
        54.575578245570334,
        54.465866892837653,
        54.401004925116695,
        54.363602611067471,
        54.356088147561991,
        54.386513383155815,
        54.415213820482776,
        54.427237975088744,
        54.414062322986879,
        54.322949331056648,
        54.139623323098519,
        54.038200671246884,
        54.11094009695347,
        54.134265464345532,
        54.209149884383855,
        54.399665384639967,
        54.507288832059508,
        54.562501188529808,
        54.38282363466498,
        54.090852115618546,
        53.737099960228136,
        52.896853187609224,
        54.678835709400289,
        54.480710245270082,
        0.0,
        0.0,
        52.647450291260242,
        52.416118590020318,
        52.387681072820044,
        52.397997129255629,
        52.38500542939164,
        52.382954887789552,
        52.422900447716415,
        52.446223111132284,
        52.460793809192666,
        52.452257734518675,
        52.3839159264041,
        52.235468332020965,
        52.183924925232411,
        52.206816140741019,
        52.262897102565901,
        52.345720189354999,
        52.340034867622009,
        52.117506668068756,
        52.004383527803796,
        52.158346616429121,
        51.755847231966797,
        49.591821731206878,
        51.763212683944374,
        51.698894270746273,
        0.0,
        52.613302483419936,
        51.24580529726363,
        51.020833597889911,
        50.961367181780311,
        50.897963928993605,
        50.864653554975206,
        50.877539354569009,
        50.887486327413626,
        50.904482648219734,
        50.895228877332741,
        50.913632493319284,
        50.844139986852269,
        50.811069170936214,
        50.776591669289104,
        50.721137337075419,
        50.747425651992501,
        50.723513527227396,
        50.699799781829,
        50.671480115753262,
        49.646344197435461,
        50.781502089323553,
        51.493400395646894,
        46.071376473941847,
        0.0,
        0.0,
        51.357625158635877,
        51.354587473522706,
        51.458665682454026,
        51.656789519253856,
        52.002689654230679,
        52.54022023157971,
        52.980210128636877,
        53.485401578416223,
        0.0,
        0.0,
        0.0,
        0.0,
        0.0,
        0.0,
        0.0,
        0.0,
        0.0,
        0.0,
        0.0,
        0.0,
        0.0,
        0.0,
        0.0,
        0.0,
        0.0,
        0.0,
        0.0,
        0.0,
        0.0,
        0.0,
        0.0,
        0.0,
        0.0,
        0.0,
        0.0,
        0.0,
        0.0,
        0.0,
        0.0,
        0.0,
        0.0,
        0.0,
        0.0,
        0.0,
        0.0,
        0.0,
        0.0,
        0.0,
        0.0,
        0.0,
        0.0,
        0.0,
        0.0,
        0.0,
        0.0,
        0.0,
        0.0,
        0.0,
        0.0,
        0.0,
        0.0,
        0.0,
        0.0,
        0.0,
        0.0,
        0.0,
        0.0,
        0.0,
        0.0,
        0.0,
        0.0,
        0.0,
        0.0,
        0.0,
        0.0,
        0.0,
        0.0,
        0.0,
        0.0,
        0.0,
        0.0,
        0.0,
        0.0,
        0.0,
        0.0,
        0.0,
        0.0,
        0.0,
        0.0,
        0.0,
        0.0,
        0.0,
        0.0,
        0.0,
        0.0,
        0.0,
        0.0,
        0.0,
        0.0,
        0.0,
        0.0,
        0.0,
        0.0,
        0.0,
        0.0,
        0.0,
        0.0,
        0.0,
        0.0,
        0.0,
        0.0,
        0.0,
        0.0,
        0.0,
        0.0,
        0.0,
        0.0,
        0.0,
        0.0,
        0.0,
        0.0,
        0.0,
        0.0,
        0.0,
        0.0,
        0.0,
        0.0,
        0.0,
        0.0,
        0.0,
        0.0,
        0.0,
        0.0,
        0.0,
        0.0,
        0.0,
        0.0,
        0.0,
        0.0,
        0.0,
        0.0,
        0.0,
        0.0,
        0.0,
        0.0,
        0.0,
        0.0,
        0.0,
        0.0,
        0.0,
        0.0,
        0.0,
        0.0,
        0.0,
        0.0,
        0.0,
        0.0,
        0.0
    ],
    "time": [
        0.02,
        0.040000000000000001,
        0.059999999999999998,
        0.080000000000000002,
        0.10000000000000001,
        0.12,
        0.14000000000000001,
        0.16,
        0.17999999999999999,
        0.20000000000000001,
        0.22,
        0.23999999999999999,
        0.26000000000000001,
        0.28000000000000003,
        0.29999999999999999,
        0.32000000000000001,
        0.34000000000000002,
        0.35999999999999999,
        0.38,
        0.40000000000000002,
        0.41999999999999998,
        0.44,
        0.46000000000000002,
        0.47999999999999998,
        0.5,
        0.52000000000000002,
        0.54000000000000004,
        0.56000000000000005,
        0.57999999999999996,
        0.59999999999999998,
        0.62,
        0.64000000000000001,
        0.66000000000000003,
        0.68000000000000005,
        0.69999999999999996,
        0.71999999999999997,
        0.73999999999999999,
        0.76000000000000001,
        0.78000000000000003,
        0.80000000000000004,
        0.81999999999999995,
        0.83999999999999997,
        0.85999999999999999,
        0.88,
        0.90000000000000002,
        0.92000000000000004,
        0.93999999999999995,
        0.95999999999999996,
        0.97999999999999998,
        1.0,
        1.02,
        1.04,
        1.0600000000000001,
        1.0800000000000001,
        1.1000000000000001,
        1.1200000000000001,
        1.1399999999999999,
        1.1599999999999999,
        1.1799999999999999,
        1.2,
        1.22,
        1.24,
        1.26,
        1.28,
        1.3,
        1.3200000000000001,
        1.3400000000000001,
        1.3600000000000001,
        1.3799999999999999,
        1.3999999999999999,
        1.4199999999999999,
        1.4399999999999999,
        1.46,
        1.48,
        1.5,
        1.52,
        1.54,
        1.5600000000000001,
        1.5800000000000001,
        1.6000000000000001,
        1.6200000000000001,
        1.6399999999999999,
        1.6599999999999999,
        1.6799999999999999,
        1.7,
        1.72,
        1.74,
        1.76,
        1.78,
        1.8,
        1.8200000000000001,
        1.8400000000000001,
        1.8600000000000001,
        1.8799999999999999,
        1.8999999999999999,
        1.9199999999999999,
        1.9399999999999999,
        1.96,
        1.98,
        2.0,
        2.02,
        2.04,
        2.0600000000000001,
        2.0800000000000001,
        2.1000000000000001,
        2.1200000000000001,
        2.1400000000000001,
        2.1600000000000001,
        2.1800000000000002,
        2.2000000000000002,
        2.2200000000000002,
        2.2400000000000002,
        2.2599999999999998,
        2.2799999999999998,
        2.2999999999999998,
        2.3199999999999998,
        2.3399999999999999,
        2.3599999999999999,
        2.3799999999999999,
        2.3999999999999999,
        2.4199999999999999,
        2.4399999999999999,
        2.46,
        2.48,
        2.5,
        2.52,
        2.54,
        2.5600000000000001,
        2.5800000000000001,
        2.6000000000000001,
        2.6200000000000001,
        2.6400000000000001,
        2.6600000000000001,
        2.6800000000000002,
        2.7000000000000002,
        2.7200000000000002,
        2.7400000000000002,
        2.7599999999999998,
        2.7799999999999998,
        2.7999999999999998,
        2.8199999999999998,
        2.8399999999999999,
        2.8599999999999999,
        2.8799999999999999,
        2.8999999999999999,
        2.9199999999999999,
        2.9399999999999999,
        2.96,
        2.98,
        3.0,
        3.02,
        3.04,
        3.0600000000000001,
        3.0800000000000001,
        3.1000000000000001,
        3.1200000000000001,
        3.1400000000000001,
        3.1600000000000001,
        3.1800000000000002,
        3.2000000000000002,
        3.2200000000000002,
        3.2400000000000002,
        3.2599999999999998,
        3.2799999999999998,
        3.2999999999999998,
        3.3199999999999998,
        3.3399999999999999,
        3.3599999999999999,
        3.3799999999999999,
        3.3999999999999999,
        3.4199999999999999,
        3.4399999999999999,
        3.46,
        3.48,
        3.5,
        3.52,
        3.54,
        3.5600000000000001,
        3.5800000000000001,
        3.6000000000000001,
        3.6200000000000001,
        3.6400000000000001,
        3.6600000000000001,
        3.6800000000000002,
        3.7000000000000002,
        3.7200000000000002,
        3.7400000000000002,
        3.7599999999999998,
        3.7799999999999998,
        3.7999999999999998,
        3.8199999999999998,
        3.8399999999999999,
        3.8599999999999999,
        3.8799999999999999,
        3.8999999999999999,
        3.9199999999999999,
        3.9399999999999999,
        3.96,
        3.98,
        4.0,
        4.0199999999999996,
        4.04,
        4.0599999999999996,
        4.0800000000000001,
        4.0999999999999996,
        4.1200000000000001,
        4.1399999999999997,
        4.1600000000000001,
        4.1799999999999997,
        4.2000000000000002,
        4.2199999999999998,
        4.2400000000000002,
        4.2599999999999998,
        4.2800000000000002,
        4.2999999999999998,
        4.3200000000000003,
        4.3399999999999999,
        4.3600000000000003,
        4.3799999999999999,
        4.4000000000000004,
        4.4199999999999999,
        4.4400000000000004,
        4.46,
        4.4800000000000004,
        4.5,
        4.5199999999999996,
        4.54,
        4.5599999999999996,
        4.5800000000000001,
        4.5999999999999996,
        4.6200000000000001,
        4.6399999999999997,
        4.6600000000000001,
        4.6799999999999997,
        4.7000000000000002,
        4.7199999999999998,
        4.7400000000000002,
        4.7599999999999998,
        4.7800000000000002,
        4.7999999999999998,
        4.8200000000000003,
        4.8399999999999999,
        4.8600000000000003,
        4.8799999999999999,
        4.9000000000000004,
        4.9199999999999999,
        4.9400000000000004,
        4.96,
        4.9800000000000004,
        5.0,
        5.0199999999999996,
        5.04,
        5.0599999999999996,
        5.0800000000000001,
        5.0999999999999996,
        5.1200000000000001,
        5.1399999999999997,
        5.1600000000000001,
        5.1799999999999997,
        5.2000000000000002,
        5.2199999999999998,
        5.2400000000000002,
        5.2599999999999998,
        5.2800000000000002,
        5.2999999999999998,
        5.3200000000000003,
        5.3399999999999999,
        5.3600000000000003,
        5.3799999999999999,
        5.4000000000000004,
        5.4199999999999999,
        5.4400000000000004,
        5.46,
        5.4800000000000004,
        5.5,
        5.5199999999999996,
        5.54,
        5.5599999999999996,
        5.5800000000000001,
        5.5999999999999996,
        5.6200000000000001,
        5.6399999999999997,
        5.6600000000000001,
        5.6799999999999997,
        5.7000000000000002,
        5.7199999999999998,
        5.7400000000000002,
        5.7599999999999998,
        5.7800000000000002,
        5.7999999999999998,
        5.8200000000000003,
        5.8399999999999999,
        5.8600000000000003,
        5.8799999999999999,
        5.9000000000000004,
        5.9199999999999999,
        5.9400000000000004,
        5.96,
        5.9800000000000004,
        6.0,
        6.0199999999999996,
        6.04,
        6.0599999999999996,
        6.0800000000000001,
        6.0999999999999996,
        6.1200000000000001,
        6.1399999999999997,
        6.1600000000000001,
        6.1799999999999997,
        6.2000000000000002,
        6.2199999999999998,
        6.2400000000000002,
        6.2599999999999998,
        6.2800000000000002,
        6.2999999999999998,
        6.3200000000000003,
        6.3399999999999999,
        6.3600000000000003,
        6.3799999999999999,
        6.4000000000000004,
        6.4199999999999999,
        6.4400000000000004,
        6.46,
        6.4800000000000004,
        6.5,
        6.5199999999999996,
        6.54,
        6.5599999999999996,
        6.5800000000000001,
        6.5999999999999996,
        6.6200000000000001,
        6.6399999999999997,
        6.6600000000000001,
        6.6799999999999997,
        6.7000000000000002,
        6.7199999999999998,
        6.7400000000000002,
        6.7599999999999998,
        6.7800000000000002,
        6.7999999999999998,
        6.8200000000000003,
        6.8399999999999999,
        6.8600000000000003,
        6.8799999999999999,
        6.9000000000000004,
        6.9199999999999999,
        6.9400000000000004,
        6.96,
        6.9800000000000004,
        7.0,
        7.0199999999999996,
        7.04,
        7.0599999999999996,
        7.0800000000000001,
        7.0999999999999996,
        7.1200000000000001,
        7.1399999999999997,
        7.1600000000000001,
        7.1799999999999997,
        7.2000000000000002,
        7.2199999999999998,
        7.2400000000000002,
        7.2599999999999998,
        7.2800000000000002,
        7.2999999999999998,
        7.3200000000000003,
        7.3399999999999999,
        7.3600000000000003,
        7.3799999999999999,
        7.4000000000000004,
        7.4199999999999999,
        7.4400000000000004,
        7.46,
        7.4800000000000004,
        7.5,
        7.5199999999999996,
        7.54,
        7.5599999999999996,
        7.5800000000000001,
        7.5999999999999996,
        7.6200000000000001,
        7.6399999999999997,
        7.6600000000000001,
        7.6799999999999997,
        7.7000000000000002,
        7.7199999999999998,
        7.7400000000000002,
        7.7599999999999998,
        7.7800000000000002,
        7.7999999999999998,
        7.8200000000000003,
        7.8399999999999999,
        7.8600000000000003,
        7.8799999999999999,
        7.9000000000000004,
        7.9199999999999999,
        7.9400000000000004,
        7.96,
        7.9800000000000004,
        8.0,
        8.0199999999999996,
        8.0399999999999991,
        8.0600000000000005,
        8.0800000000000001,
        8.0999999999999996,
        8.1199999999999992,
        8.1400000000000006,
        8.1600000000000001,
        8.1799999999999997,
        8.1999999999999993,
        8.2200000000000006,
        8.2400000000000002,
        8.2599999999999998,
        8.2799999999999994,
        8.3000000000000007,
        8.3200000000000003,
        8.3399999999999999,
        8.3599999999999994,
        8.3800000000000008,
        8.4000000000000004,
        8.4199999999999999,
        8.4399999999999995,
        8.4600000000000009,
        8.4800000000000004,
        8.5,
        8.5199999999999996,
        8.5399999999999991,
        8.5600000000000005,
        8.5800000000000001,
        8.5999999999999996,
        8.6199999999999992,
        8.6400000000000006,
        8.6600000000000001,
        8.6799999999999997,
        8.6999999999999993,
        8.7200000000000006,
        8.7400000000000002,
        8.7599999999999998,
        8.7799999999999994,
        8.8000000000000007,
        8.8200000000000003,
        8.8399999999999999,
        8.8599999999999994,
        8.8800000000000008,
        8.9000000000000004,
        8.9199999999999999,
        8.9399999999999995,
        8.9600000000000009,
        8.9800000000000004,
        9.0
    ]
}