{
    "f0": [
        36.103946568777644,
        46.428966878087522,
        46.194188960814259,
        47.038865267374021,
        46.079086001428038,
        46.05692436122176,
        47.022489691808538,
        46.106382512659152,
        47.892259796110693,
        47.28363308735485,
        0.0,
        0.0,
        0.0,
        0.0,
        0.0,
        0.0,
        0.0,
        0.0,
        0.0,
        0.0,
        52.767382217927079,
        52.593388599615409,
        52.281551526594576,
        51.963997481563524,
        51.436678797181187,
        51.095955823385012,
        51.063141352500324,
        51.045573486694714,
        51.020331507554232,
        51.116100828022326,
        51.160209284651877,
        50.879972731797807,
        50.328626607298681,
        51.482996399012507,
        50.255714262985428,
        50.292883647148535,
        49.940951875360099,
        50.313996942827657,
        52.816022706181485,
        54.572739620701228,
        53.939592382024017,
        54.317908580004989,
        54.38355974343019,
        54.329273387891241,
        54.168178569159792,
        54.212429701688222,
        54.278547341695827,
        54.268761884956795,
        54.2589708940544,
        54.115354965633259,
        53.786499184136197,
        53.545339050385692,
        53.079141141329856,
        0.0,
        0.0,
        0.0,
        0.0,
        0.0,
        0.0,
        0.0,
        0.0,
        40.826954682666731,
        53.133811194029846,
        53.133811194029846,
        53.233675431842784,
        53.156881365900162,
        53.173048729245579,
        53.234776914429524,
        53.273594381769065,
        53.230139180535836,
        53.244576739778374,
        53.271418632235509,
        53.192892213005479,
        53.05799220004652,
        52.950284881302139,
        52.888785235064759,
        52.629561789424891,
        51.760219462408827,
        52.011769038844193,
        52.125162369059879,
        52.304789695637467,
        53.177818558893108,
        53.454161216804181,
        53.268259487740686,
        52.947491528329664,
        52.977445823579657,
        53.037157034164082,
        53.196976105861985,
        53.355333193951935,
        53.636844164062992,
        53.852654721598,
        54.152807114618732,
        54.577394554713948,
        54.593598302744176,
        54.504438896158732,
        54.123307831890422,
        53.176562212809117,
        52.4723658037584,
        50.877113565249417,
        48.89496910990718,
        48.347338381522647,
        47.90109074925293,
        48.390672425665059,
        49.254433850427127,
        49.719396398748081,
        49.831639518253034,
        49.944673927508184,
        50.056220035817361,
        50.11528609820607,
        50.199966657173853,
        50.471782147378804,
        50.627096161030238,
        50.746202196100541,
        50.740774990248326,
        50.622903695231997,
        50.435186610076563,
        50.239511182729181,
        50.38741061904625,
        50.536256923614417,
        50.744916649892751,
        50.951087933012317,
        51.105673378580136,
        51.109276479463119,
        50.838074916345064,
        50.82621976342309,
        51.025766803003123,
        51.082128042243767,
        50.320665179124049,
        49.350172525984888,
        48.148031537576095,
        46.149423464494632,
        41.359470816693076,
        53.542597519171494,
        46.822756417190789,
        34.566579076501405,
        52.259559511587021,
        0.0,
        59.840740477546106,
        39.352882132974941,
        44.808634352273437,
        36.231096469809337,
        55.266429558180029,
        43.301966371729684,
        50.265953955125234,
        46.187855616332293,
        45.624411695479566,
        42.403838385184194,
        0.0,
        0.0,
        54.33869976151194,
        0.0,
        51.275646942276914,
        51.275646942276914,
        51.052412891020303,
        50.878416678431648,
        50.831635649000035,
        50.753515558748447,
        50.694323460165819,
        50.689198124265516,
        50.813745330176317,
        50.983644427589155,
        51.15189413258463,
        51.24533821714688,
        51.216692018769606,
        50.856131903200364,
        51.001029064457306,
        51.70183944334827,
        0.0,
        0.0,
        0.0,
        0.0,
        50.593073948502386,
        52.226429649703,
        51.645671904501654,
        51.29591620294714,
        51.136668823688829,
        51.048191669425385,
        50.922987325160229,
        51.067903446005687,
        51.153410687749599,
        51.128849717464064,
        51.290229543820303,
        51.373190938612453,
        51.455754940157725,
        51.442996312177442,
        51.480238255346357,
        51.287734509947569,
        50.864963341960944,
        51.170338151589497,
        51.300275975393788,
        51.686161753410389,
        52.617427886348857,
        52.890476711993692,
        52.93528691471586,
        52.918059913902454,
        52.900812662737053,
        52.867909953383545,
        52.870470845158323,
        52.878813917325729,
        52.897277770299411,
        52.915720457841729,
        52.777946556208619,
        53.030261267147864,
        52.032511678605687,
        0.0,
        0.0,
        0.0,
        0.0,
        0.0,
        0.0,
        0.0,
        0.0,
        48.009532042311143,
        60.618053724960454,
        61.626817785988521,
        61.626817785988521,
        61.452822957557089,
        61.299699146895293,
        61.196855808034393,
        61.404013354043933,
        61.653610474139455,
        61.902967700265769,
        62.148784203943833,
        62.396790372695328,
        62.537878953442146,
        62.500318303291465,
        62.494154300850383,
        62.535227766591305,
        62.516041761050673,
        62.52539219041828,
        62.706547414411219,
        62.872625328571615,
        62.96813607164335,
        62.996428472748988,
        62.884002579223775,
        62.415720720977319,
        61.22988824412829,
        59.812202246799764,
        59.487658395062951,
        59.390721415913248,
        59.359169992094095,
        59.806299457327874,
        60.731390179756616,
        60.953736066070817,
        60.793416752638862,
        60.649140960039595,
        60.333123107112961,
        60.183560603238448,
        60.265312025397535,
        60.535308033400085,
        60.971644045948267,
        61.385428847296851,
        61.580860110369883,
        61.714197242439475,
        61.557138662605034,
        61.228953410672638,
        60.951192099048093,
        60.640072448552324,
        60.48603320535431,
        60.47274106061321,
        60.550727690092785,
        60.71463863353928,
        60.909728878766856,
        61.027965316565727,
        61.043667465518276,
        61.032191387624771,
        61.034367742212794,
        61.04280233357116,
        60.992073797523467,
        60.971294641310664,
        61.002017535005791,
        61.032686003688283,
        61.112652503686675,
        61.23584035960863,
        61.257012601931109,
        61.212880028452354,
        61.133221136146531,
        61.064806209616918,
        61.004879925742728,
        61.03900112211123,
        61.122290706993141,
        61.137446132428714,
        61.190978854704341,
        61.231592288459368,
        61.143999108071561,
        61.166271231282252,
        61.214642192843414,
        61.110610958986584,
        61.034223188187184,
        61.115562923806067,
        61.196525987117063,
        61.210149812380251,
        61.189747797981667,
        61.150997447427919,
        61.242140022032402,
        61.28168861289852,
        61.326031642078831,
        61.414030452346495,
        61.389749325630341,
        61.299153966440308,
        61.280585915194408,
        61.225744070674637,
        61.146017829766969,
        61.114758211116907,
        61.135746057315885,
        61.206055470652402,
        61.251524216368217,
        61.252965029840936,
        61.163006876333725,
        61.138533448504674,
        61.176962688468173,
        61.194388760796869,
        61.21179737190959,
        61.252809117289296,
        61.214636579175,
        61.131711684481949,
        61.139709541768923,
        61.161075096012404,
        61.17573817758494,
        61.231532077519589,
        61.330331426129085,
        61.289190119666557,
        61.11028327664615,
        60.999202391291078,
        61.02463099290253,
        61.042758658400984,
        61.065092939480792,
        61.152973750632654,
        61.311029255455921,
        61.371666245811774,
        61.290447844835569,
        61.223066627850116,
        61.155423988949849,
        61.078475164574456,
        61.108211162843794,
        61.186172925420379,
        61.211516825230717,
        61.356066610818338,
        61.399284824559132,
        61.374982993276802,
        61.309793577113581,
        61.090881995931717,
        60.05905484451263,
        59.570346233042429,
        59.268608352001387,
        59.371159788958302,
        46.164971806812105,
        40.800938411936826,
        46.26860235486761,
        0.0,
        0.0,
        0.0,
        0.0,
        0.0,
        0.0,
        0.0,
        0.0,
        0.0,
        0.0,
        0.0,
        0.0,
        0.0,
        0.0,
        0.0,
        0.0,
        0.0,
        0.0,
        0.0,
        0.0,
        0.0,
        0.0,
        0.0,
        0.0,
        0.0,
        0.0,
        0.0,
        0.0,
        0.0,
        0.0,
        0.0,
        0.0,
        0.0,
        0.0,
        0.0,
        0.0,
        0.0,
        0.0,
        0.0,
        0.0,
        0.0,
        0.0,
        0.0,
        0.0,
        0.0,
        0.0,
        0.0,
        0.0,
        0.0,
        0.0,
        0.0,
        0.0,
        0.0,
        0.0,
        0.0,
        0.0,
        0.0,
        0.0,
        0.0,
        0.0,
        0.0,
        0.0,
        0.0,
        0.0,
        0.0,
        0.0,
        0.0,
        0.0,
        0.0,
        0.0,
        0.0,
        0.0,
        0.0,
        0.0,
        0.0,
        0.0,
        0.0,
        0.0,
        0.0,
        0.0,
        0.0,
        0.0,
        0.0,
        0.0,
        0.0,
        0.0,
        0.0,
        0.0,
        0.0,
        0.0,
        0.0,
        0.0,
        0.0,
        0.0,
        0.0,
        0.0,
        0.0,
        0.0,
        0.0,
        0.0,
        0.0,
        0.0,
        0.0,
        0.0,
        0.0,
        0.0,
        0.0,
        0.0,
        0.0,
        0.0,
        0.0,
        0.0,
        0.0,
        0.0,
        0.0,
        0.0,
        0.0,
        0.0,
        0.0,
        0.0,
        0.0,
        0.0,
        0.0,
        0.0,
        0.0,
        0.0,
        0.0,
        0.0,
        0.0,
        0.0,
        0.0,
        0.0,
        0.0,
        0.0,
        0.0,
        0.0,
        0.0,
        0.0,
        0.0,
        0.0,
        0.0,
        0.0,
        0.0,
        0.0,
        0.0,
        0.0,
        0.0,
        0.0,
        0.0
    ],
    "time": [
        0.02,
        0.040000000000000001,
        0.059999999999999998,
        0.080000000000000002,
        0.10000000000000001,
        0.12,
        0.14000000000000001,
        0.16,
        0.17999999999999999,
        0.20000000000000001,
        0.22,
        0.23999999999999999,
        0.26000000000000001,
        0.28000000000000003,
        0.29999999999999999,
        0.32000000000000001,
        0.34000000000000002,
        0.35999999999999999,
        0.38,
        0.40000000000000002,
        0.41999999999999998,
        0.44,
        0.46000000000000002,
        0.47999999999999998,
        0.5,
        0.52000000000000002,
        0.54000000000000004,
        0.56000000000000005,
        0.57999999999999996,
        0.59999999999999998,
        0.62,
        0.64000000000000001,
        0.66000000000000003,
        0.68000000000000005,
        0.69999999999999996,
        0.71999999999999997,
        0.73999999999999999,
        0.76000000000000001,
        0.78000000000000003,
        0.80000000000000004,
        0.81999999999999995,
        0.83999999999999997,
        0.85999999999999999,
        0.88,
        0.90000000000000002,
        0.92000000000000004,
        0.93999999999999995,
        0.95999999999999996,
        0.97999999999999998,
        1.0,
        1.02,
        1.04,
        1.0600000000000001,
        1.0800000000000001,
        1.1000000000000001,
        1.1200000000000001,
        1.1399999999999999,
        1.1599999999999999,
        1.1799999999999999,
        1.2,
        1.22,
        1.24,
        1.26,
        1.28,
        1.3,
        1.3200000000000001,
        1.3400000000000001,
        1.3600000000000001,
        1.3799999999999999,
        1.3999999999999999,
        1.4199999999999999,
        1.4399999999999999,
        1.46,
        1.48,
        1.5,
        1.52,
        1.54,
        1.5600000000000001,
        1.5800000000000001,
        1.6000000000000001,
        1.6200000000000001,
        1.6399999999999999,
        1.6599999999999999,
        1.6799999999999999,
        1.7,
        1.72,
        1.74,
        1.76,
        1.78,
        1.8,
        1.8200000000000001,
        1.8400000000000001,
        1.8600000000000001,
        1.8799999999999999,
        1.8999999999999999,
        1.9199999999999999,
        1.9399999999999999,
        1.96,
        1.98,
        2.0,
        2.02,
        2.04,
        2.0600000000000001,
        2.0800000000000001,
        2.1000000000000001,
        2.1200000000000001,
        2.1400000000000001,
        2.1600000000000001,
        2.1800000000000002,
        2.2000000000000002,
        2.2200000000000002,
        2.2400000000000002,
        2.2599999999999998,
        2.2799999999999998,
        2.2999999999999998,
        2.3199999999999998,
        2.3399999999999999,
        2.3599999999999999,
        2.3799999999999999,
        2.3999999999999999,
        2.4199999999999999,
        2.4399999999999999,
        2.46,
        2.48,
        2.5,
        2.52,
        2.54,
        2.5600000000000001,
        2.5800000000000001,
        2.6000000000000001,
        2.6200000000000001,
        2.6400000000000001,
        2.6600000000000001,
        2.6800000000000002,
        2.7000000000000002,
        2.7200000000000002,
        2.7400000000000002,
        2.7599999999999998,
        2.7799999999999998,
        2.7999999999999998,
        2.8199999999999998,
        2.8399999999999999,
        2.8599999999999999,
        2.8799999999999999,
        2.8999999999999999,
        2.9199999999999999,
        2.9399999999999999,
        2.96,
        2.98,
        3.0,
        3.02,
        3.04,
        3.0600000000000001,
        3.0800000000000001,
        3.1000000000000001,
        3.1200000000000001,
        3.1400000000000001,
        3.1600000000000001,
        3.1800000000000002,
        3.2000000000000002,
        3.2200000000000002,
        3.2400000000000002,
        3.2599999999999998,
        3.2799999999999998,
        3.2999999999999998,
        3.3199999999999998,
        3.3399999999999999,
        3.3599999999999999,
        3.3799999999999999,
        3.3999999999999999,
        3.4199999999999999,
        3.4399999999999999,
        3.46,
        3.48,
        3.5,
        3.52,
        3.54,
        3.5600000000000001,
        3.5800000000000001,
        3.6000000000000001,
        3.6200000000000001,
        3.6400000000000001,
        3.6600000000000001,
        3.6800000000000002,
        3.7000000000000002,
        3.7200000000000002,
        3.7400000000000002,
        3.7599999999999998,
        3.7799999999999998,
        3.7999999999999998,
        3.8199999999999998,
        3.8399999999999999,
        3.8599999999999999,
        3.8799999999999999,
        3.8999999999999999,
        3.9199999999999999,
        3.9399999999999999,
        3.96,
        3.98,
        4.0,
        4.0199999999999996,
        4.04,
        4.0599999999999996,
        4.0800000000000001,
        4.0999999999999996,
        4.1200000000000001,
        4.1399999999999997,
        4.1600000000000001,
        4.1799999999999997,
        4.2000000000000002,
        4.2199999999999998,
        4.2400000000000002,
        4.2599999999999998,
        4.2800000000000002,
        4.2999999999999998,
        4.3200000000000003,
        4.3399999999999999,
        4.3600000000000003,
        4.3799999999999999,
        4.4000000000000004,
        4.4199999999999999,
        4.4400000000000004,
        4.46,
        4.4800000000000004,
        4.5,
        4.5199999999999996,
        4.54,
        4.5599999999999996,
        4.5800000000000001,
        4.5999999999999996,
        4.6200000000000001,
        4.6399999999999997,
        4.6600000000000001,
        4.6799999999999997,
        4.7000000000000002,
        4.7199999999999998,
        4.7400000000000002,
        4.7599999999999998,
        4.7800000000000002,
        4.7999999999999998,
        4.8200000000000003,
        4.8399999999999999,
        4.8600000000000003,
        4.8799999999999999,
        4.9000000000000004,
        4.9199999999999999,
        4.9400000000000004,
        4.96,
        4.9800000000000004,
        5.0,
        5.0199999999999996,
        5.04,
        5.0599999999999996,
        5.0800000000000001,
        5.0999999999999996,
        5.1200000000000001,
        5.1399999999999997,
        5.1600000000000001,
        5.1799999999999997,
        5.2000000000000002,
        5.2199999999999998,
        5.2400000000000002,
        5.2599999999999998,
        5.2800000000000002,
        5.2999999999999998,
        5.3200000000000003,
        5.3399999999999999,
        5.3600000000000003,
        5.3799999999999999,
        5.4000000000000004,
        5.4199999999999999,
        5.4400000000000004,
        5.46,
        5.4800000000000004,
        5.5,
        5.5199999999999996,
        5.54,
        5.5599999999999996,
        5.5800000000000001,
        5.5999999999999996,
        5.6200000000000001,
        5.6399999999999997,
        5.6600000000000001,
        5.6799999999999997,
        5.7000000000000002,
        5.7199999999999998,
        5.7400000000000002,
        5.7599999999999998,
        5.7800000000000002,
        5.7999999999999998,
        5.8200000000000003,
        5.8399999999999999,
        5.8600000000000003,
        5.8799999999999999,
        5.9000000000000004,
        5.9199999999999999,
        5.9400000000000004,
        5.96,
        5.9800000000000004,
        6.0,
        6.0199999999999996,
        6.04,
        6.0599999999999996,
        6.0800000000000001,
        6.0999999999999996,
        6.1200000000000001,
        6.1399999999999997,
        6.1600000000000001,
        6.1799999999999997,
        6.2000000000000002,
        6.2199999999999998,
        6.2400000000000002,
        6.2599999999999998,
        6.2800000000000002,
        6.2999999999999998,
        6.3200000000000003,
        6.3399999999999999,
        6.3600000000000003,
        6.3799999999999999,
        6.4000000000000004,
        6.4199999999999999,
        6.4400000000000004,
        6.46,
        6.4800000000000004,
        6.5,
        6.5199999999999996,
        6.54,
        6.5599999999999996,
        6.5800000000000001,
        6.5999999999999996,
        6.6200000000000001,
        6.6399999999999997,
        6.6600000000000001,
        6.6799999999999997,
        6.7000000000000002,
        6.7199999999999998,
        6.7400000000000002,
        6.7599999999999998,
        6.7800000000000002,
        6.7999999999999998,
        6.8200000000000003,
        6.8399999999999999,
        6.8600000000000003,
        6.8799999999999999,
        6.9000000000000004,
        6.9199999999999999,
        6.9400000000000004,
        6.96,
        6.9800000000000004,
        7.0,
        7.0199999999999996,
        7.04,
        7.0599999999999996,
        7.0800000000000001,
        7.0999999999999996,
        7.1200000000000001,
        7.1399999999999997,
        7.1600000000000001,
        7.1799999999999997,
        7.2000000000000002,
        7.2199999999999998,
        7.2400000000000002,
        7.2599999999999998,
        7.2800000000000002,
        7.2999999999999998,
        7.3200000000000003,
        7.3399999999999999,
        7.3600000000000003,
        7.3799999999999999,
        7.4000000000000004,
        7.4199999999999999,
        7.4400000000000004,
        7.46,
        7.4800000000000004,
        7.5,
        7.5199999999999996,
        7.54,
        7.5599999999999996,
        7.5800000000000001,
        7.5999999999999996,
        7.6200000000000001,
        7.6399999999999997,
        7.6600000000000001,
        7.6799999999999997,
        7.7000000000000002,
        7.7199999999999998,
        7.7400000000000002,
        7.7599999999999998,
        7.7800000000000002,
        7.7999999999999998,
        7.8200000000000003,
        7.8399999999999999,
        7.8600000000000003,
        7.8799999999999999,
        7.9000000000000004,
        7.9199999999999999,
        7.9400000000000004,
        7.96,
        7.9800000000000004,
        8.0,
        8.0199999999999996,
        8.0399999999999991,
        8.0600000000000005,
        8.0800000000000001,
        8.0999999999999996,
        8.1199999999999992,
        8.1400000000000006,
        8.1600000000000001,
        8.1799999999999997,
        8.1999999999999993,
        8.2200000000000006,
        8.2400000000000002,
        8.2599999999999998,
        8.2799999999999994,
        8.3000000000000007,
        8.3200000000000003,
        8.3399999999999999,
        8.3599999999999994,
        8.3800000000000008,
        8.4000000000000004,
        8.4199999999999999,
        8.4399999999999995,
        8.4600000000000009,
        8.4800000000000004,
        8.5,
        8.5199999999999996,
        8.5399999999999991,
        8.5600000000000005,
        8.5800000000000001,
        8.5999999999999996,
        8.6199999999999992,
        8.6400000000000006,
        8.6600000000000001,
        8.6799999999999997,
        8.6999999999999993,
        8.7200000000000006,
        8.7400000000000002,
        8.7599999999999998,
        8.7799999999999994,
        8.8000000000000007,
        8.8200000000000003,
        8.8399999999999999,
        8.8599999999999994,
        8.8800000000000008,
        8.9000000000000004,
        8.9199999999999999,
        8.9399999999999995,
        8.9600000000000009,
        8.9800000000000004,
        9.0,
        9.0199999999999996,
        9.0399999999999991,
        9.0600000000000005,
        9.0800000000000001,
        9.0999999999999996,
        9.1199999999999992,
        9.1400000000000006,
        9.1600000000000001,
        9.1799999999999997,
        9.1999999999999993,
        9.2200000000000006,
        9.2400000000000002,
        9.2599999999999998,
        9.2799999999999994,
        9.3000000000000007,
        9.3200000000000003,
        9.3399999999999999,
        9.3599999999999994,
        9.3800000000000008,
        9.4000000000000004,
        9.4199999999999999,
        9.4399999999999995,
        9.4600000000000009,
        9.4800000000000004,
        9.5,
        9.5199999999999996,
        9.5399999999999991,
        9.5600000000000005,
        9.5800000000000001,
        9.5999999999999996,
        9.6199999999999992,
        9.6400000000000006,
        9.6600000000000001,
        9.6799999999999997,
        9.6999999999999993,
        9.7200000000000006,
        9.7400000000000002,
        9.7599999999999998,
        9.7799999999999994,
        9.8000000000000007,
        9.8200000000000003,
        9.8399999999999999,
        9.8599999999999994,
        9.8800000000000008,
        9.9000000000000004,
        9.9199999999999999,
        9.9399999999999995,
        9.9600000000000009
    ]
}