{
    "DU": 86,
    "DV": 269,
    "F-measure": 0.9619883040935672,
    "F-measure Chroma": 0.9561403508771931,
    "FN": 26,
    "FNC": 5,
    "FNCch": 11,
    "FNI": 21,
    "FNIch": 15,
    "FP": 0,
    "GU": 60,
    "GV": 295,
    "Overall Accuracy": 0.9267605633802817,
    "Overall Chroma Accuracy": 0.9211267605633803,
    "Precision": 1.0,
    "Precision Chroma": 0.993920972644377,
    "Raw Chroma Accuracy": 0.9423728813559322,
    "Raw Pitch Accuracy": 0.9288135593220339,
    "Recall": 0.9267605633802817,
    "Recall Chroma": 0.9211267605633803,
    "TN": 60,
    "TO": 355,
    "TP": 269,
    "TPC": 269,
    "TPCch": 267,
    "TPI": 0,
    "TPIch": 2,
    "Voiced Chroma Accuracy": 0.9050847457627119,
    "Voiced Pitch Accuracy": 0.911864406779661,
    "Voicing Accuracy": 0.9267605633802817,
    "Voicing Detection": 0.911864406779661,
    "Voicing False Alarm": 0.0
}