{
    "f0": [
        0.0,
        0.0,
        0.0,
        0.0,
        0.0,
        0.0,
        0.0,
        52.574267361397645,
        52.645124880752135,
        52.954600859473274,
        53.377387835800363,
        53.863597817620438,
        53.922301162354955,
        53.931038564393489,
        54.426736454378172,
        55.088216775894146,
        55.631985016574745,
        55.913032216294717,
        56.138521947280971,
        56.422257334489188,
        56.630529807267578,
        56.741344640489217,
        56.684513879757425,
        56.636414233200341,
        56.165037946502807,
        55.556943738612091,
        54.380633521428756,
        53.078736096076469,
        54.692899498985085,
        0.0,
        0.0,
        0.0,
        56.487118253115639,
        56.571151303925305,
        56.746581143043997,
        56.591569162099901,
        56.467498007077765,
        56.297795203319282,
        56.191071845494385,
        56.178430005648202,
        56.253303117008045,
        56.271787475610331,
        56.239528557936829,
        56.224737149856828,
        56.244986776349535,
        56.251236978443842,
        56.264828082369782,
        56.416759097804587,
        56.377231772940405,
        56.38948925996381,
        56.357299585428009,
        56.2898304623264,
        56.329339209428859,
        56.498186996276594,
        56.860706325841669,
        57.37364003919398,
        57.721373022292155,
        57.707979953261024,
        57.808916681120557,
        57.778525005629191,
        57.715925541688932,
        57.679479406842425,
        57.662642698956986,
        57.629794254488104,
        57.678987585554474,
        57.75799200117261,
        57.850772972417047,
        58.016863918422509,
        58.133684476886266,
        58.23393096530306,
        58.196669979969627,
        58.178126076802293,
        58.159854235612251,
        58.129045855853718,
        58.099920217528094,
        58.057346782459845,
        58.036344721863031,
        58.150477331888972,
        57.782822331360798,
        57.827480041573033,
        57.851559452011486,
        57.842463533620943,
        57.775328775972838,
        57.859979916073492,
        58.145940945565577,
        58.15636034424373,
        58.320253231389749,
        58.444080739685994,
        58.56470883303971,
        58.758658138447686,
        58.901675707357413,
        59.087473350989782,
        59.221850259891497,
        59.248401001756662,
        59.355509695054153,
        59.440228167328804,
        59.46177651462407,
        59.529226534488743,
        59.607954322441955,
        59.67949533036753,
        59.694247025133677,
        59.692296355632521,
        59.745781242172441,
        59.753404969475604,
        59.633681672751557,
        59.28775059502761,
        59.772739122404829,
        59.697311303247133,
        62.135820788642846,
        61.085033403558903,
        60.729051431770607,
        60.79104976707815,
        60.85610413007457,
        60.927355139752187,
        61.009989813168943,
        61.083586128647262,
        61.174856990547291,
        61.217215528847348,
        61.215412173499139,
        61.218719456087726,
        61.204876345786097,
        61.182150288052767,
        61.183102731623556,
        61.286413796481156,
        61.12237207521445,
        62.14577666300714,
        61.114500657928403,
        61.170678841264419,
        61.315849349251792,
        61.179545339730844,
        60.647396072757594,
        61.064954304193392,
        61.14906624611239,
        61.299521125664072,
        0.0,
        0.0,
        0.0,
        61.24231487728683,
        61.453177623868292,
        61.413252545235849,
        61.307016813353698,
        61.309381726084624,
        61.393241443389272,
        61.452161916583314,
        61.474527206917642,
        61.589587210366993,
        61.725681648774739,
        62.076653014036523,
        62.408278948216939,
        62.714091665165142,
        62.981579187229961,
        63.118964678538902,
        63.234319997628482,
        63.2504672884534,
        63.101249159016319,
        0.0,
        0.0,
        0.0,
        62.477513111623217,
        62.508492782310555,
        62.589751406494514,
        62.62654436932138,
        62.608767326011112,
        62.578695795169992,
        62.571825129415274,
        62.546307678048521,
        62.549063455267621,
        62.588306376346367,
        62.5776378550148,
        62.637468902865756,
        62.65980124225667,
        62.639163009064085,
        62.476879566684673,
        62.477227855822889,
        63.096874438743093,
        62.847326720033678,
        62.442257268092362,
        62.455445417105338,
        62.320220088772182,
        62.544728254550122,
        63.191879813501458,
        0.0,
        40.852068362419509,
        41.10662249673581,
        42.194509463357363,
        55.222222023735114,
        55.731382577565753,
        56.023335461053193,
        56.144142073188235,
        56.163007910071343,
        55.988419143218003,
        55.83204449458151,
        55.730833448670417,
        55.644191977602283,
        55.535361708322085,
        55.513946440167643,
        55.458390174992388,
        55.423536298857023,
        55.480811536007806,
        55.679108954334708,
        55.832288627968673,
        55.889567487721393,
        55.841301138083764,
        55.770984910359076,
        55.709626378471931,
        55.706236635401851,
        55.766967665122507,
        55.919325415177127,
        56.058332394266102,
        56.132436678637923,
        56.32729709732584,
        56.28818653242444,
        56.590826603534801,
        56.727468841390142,
        56.72223878850496,
        56.703406182590477,
        56.436733383292676,
        55.957123314746617,
        55.1654464604065,
        54.772324091665112,
        0.0,
        0.0,
        38.38157414308111,
        38.814871335411141,
        38.992733836713867,
        39.599876533375038,
        39.134973792932527,
        36.431518985674096,
        34.420297862933786,
        0.0,
        36.309482450545815,
        37.694044144085346,
        37.405992772215214,
        38.137569963196412,
        38.602270027213549,
        35.668949268716062,
        38.304257504834084,
        38.83627669715807,
        39.17934694537982,
        53.163439125500986,
        53.613285319424378,
        53.818316411736902,
        54.059075496274481,
        54.338842644609876,
        54.733374555358395,
        55.110554637773234,
        55.452834462427958,
        55.570906917339954,
        55.608850454376253,
        55.61369554916503,
        55.583115243065166,
        55.469641880227648,
        55.32559241501415,
        55.164337061901193,
        54.900133864851256,
        55.097797827925376,
        55.293472970575117,
        55.57360480484423,
        55.900779221945754,
        56.302781301332473,
        56.618602588928077,
        56.931397411477136,
        57.41598985559753,
        57.9882043475518,
        58.490012146781034,
        59.608536833847147,
        59.785792393353347,
        60.068145145563591,
        60.373356575439153,
        60.600856613771974,
        60.753802811288899,
        60.823276301395495,
        60.933316485370369,
        61.122156312149897,
        61.145110601644888,
        0.0,
        0.0,
        0.0,
        0.0,
        0.0,
        0.0,
        0.0,
        0.0,
        0.0,
        0.0,
        0.0,
        0.0,
        0.0,
        0.0,
        0.0,
        0.0,
        0.0,
        0.0,
        0.0,
        0.0,
        0.0,
        0.0,
        0.0,
        0.0,
        0.0,
        0.0,
        0.0,
        0.0,
        0.0,
        0.0,
        0.0,
        0.0,
        0.0,
        0.0,
        0.0,
        0.0,
        0.0,
        0.0,
        0.0,
        0.0,
        0.0,
        0.0,
        0.0,
        0.0,
        0.0,
        0.0,
        0.0,
        0.0,
        0.0,
        0.0,
        0.0,
        0.0,
        0.0,
        0.0,
        0.0,
        0.0,
        0.0,
        0.0,
        0.0,
        0.0,
        0.0,
        0.0,
        0.0,
        0.0,
        0.0,
        0.0,
        0.0,
        0.0,
        0.0,
        0.0,
        0.0,
        0.0,
        0.0,
        0.0,
        0.0,
        0.0,
        0.0,
        0.0,
        0.0,
        0.0,
        0.0,
        0.0,
        0.0,
        0.0,
        0.0,
        0.0,
        0.0,
        0.0,
        0.0,
        0.0,
        0.0,
        0.0,
        0.0,
        0.0,
        0.0,
        0.0,
        0.0,
        0.0,
        0.0,
        0.0,
        0.0,
        0.0,
        0.0,
        0.0,
        0.0,
        0.0,
        0.0,
        0.0,
        0.0,
        0.0,
        0.0,
        0.0,
        0.0,
        0.0,
        0.0,
        0.0,
        0.0,
        0.0,
        0.0,
        0.0,
        0.0,
        0.0,
        0.0,
        0.0,
        0.0,
        0.0,
        0.0,
        0.0,
        0.0,
        0.0,
        0.0,
        0.0,
        0.0,
        0.0,
        0.0,
        0.0,
        0.0,
        0.0,
        0.0,
        0.0,
        0.0,
        0.0,
        0.0,
        0.0,
        0.0,
        0.0,
        0.0,
        0.0
    ],
    "time": [
        0.02,
        0.040000000000000001,
        0.059999999999999998,
        0.080000000000000002,
        0.10000000000000001,
        0.12,
        0.14000000000000001,
        0.16,
        0.17999999999999999,
        0.20000000000000001,
        0.22,
        0.23999999999999999,
        0.26000000000000001,
        0.28000000000000003,
        0.29999999999999999,
        0.32000000000000001,
        0.34000000000000002,
        0.35999999999999999,
        0.38,
        0.40000000000000002,
        0.41999999999999998,
        0.44,
        0.46000000000000002,
        0.47999999999999998,
        0.5,
        0.52000000000000002,
        0.54000000000000004,
        0.56000000000000005,
        0.57999999999999996,
        0.59999999999999998,
        0.62,
        0.64000000000000001,
        0.66000000000000003,
        0.68000000000000005,
        0.69999999999999996,
        0.71999999999999997,
        0.73999999999999999,
        0.76000000000000001,
        0.78000000000000003,
        0.80000000000000004,
        0.81999999999999995,
        0.83999999999999997,
        0.85999999999999999,
        0.88,
        0.90000000000000002,
        0.92000000000000004,
        0.93999999999999995,
        0.95999999999999996,
        0.97999999999999998,
        1.0,
        1.02,
        1.04,
        1.0600000000000001,
        1.0800000000000001,
        1.1000000000000001,
        1.1200000000000001,
        1.1399999999999999,
        1.1599999999999999,
        1.1799999999999999,
        1.2,
        1.22,
        1.24,
        1.26,
        1.28,
        1.3,
        1.3200000000000001,
        1.3400000000000001,
        1.3600000000000001,
        1.3799999999999999,
        1.3999999999999999,
        1.4199999999999999,
        1.4399999999999999,
        1.46,
        1.48,
        1.5,
        1.52,
        1.54,
        1.5600000000000001,
        1.5800000000000001,
        1.6000000000000001,
        1.6200000000000001,
        1.6399999999999999,
        1.6599999999999999,
        1.6799999999999999,
        1.7,
        1.72,
        1.74,
        1.76,
        1.78,
        1.8,
        1.8200000000000001,
        1.8400000000000001,
        1.8600000000000001,
        1.8799999999999999,
        1.8999999999999999,
        1.9199999999999999,
        1.9399999999999999,
        1.96,
        1.98,
        2.0,
        2.02,
        2.04,
        2.0600000000000001,
        2.0800000000000001,
        2.1000000000000001,
        2.1200000000000001,
        2.1400000000000001,
        2.1600000000000001,
        2.1800000000000002,
        2.2000000000000002,
        2.2200000000000002,
        2.2400000000000002,
        2.2599999999999998,
        2.2799999999999998,
        2.2999999999999998,
        2.3199999999999998,
        2.3399999999999999,
        2.3599999999999999,
        2.3799999999999999,
        2.3999999999999999,
        2.4199999999999999,
        2.4399999999999999,
        2.46,
        2.48,
        2.5,
        2.52,
        2.54,
        2.5600000000000001,
        2.5800000000000001,
        2.6000000000000001,
        2.6200000000000001,
        2.6400000000000001,
        2.6600000000000001,
        2.6800000000000002,
        2.7000000000000002,
        2.7200000000000002,
        2.7400000000000002,
        2.7599999999999998,
        2.7799999999999998,
        2.7999999999999998,
        2.8199999999999998,
        2.8399999999999999,
        2.8599999999999999,
        2.8799999999999999,
        2.8999999999999999,
        2.9199999999999999,
        2.9399999999999999,
        2.96,
        2.98,
        3.0,
        3.02,
        3.04,
        3.0600000000000001,
        3.0800000000000001,
        3.1000000000000001,
        3.1200000000000001,
        3.1400000000000001,
        3.1600000000000001,
        3.1800000000000002,
        3.2000000000000002,
        3.2200000000000002,
        3.2400000000000002,
        3.2599999999999998,
        3.2799999999999998,
        3.2999999999999998,
        3.3199999999999998,
        3.3399999999999999,
        3.3599999999999999,
        3.3799999999999999,
        3.3999999999999999,
        3.4199999999999999,
        3.4399999999999999,
        3.46,
        3.48,
        3.5,
        3.52,
        3.54,
        3.5600000000000001,
        3.5800000000000001,
        3.6000000000000001,
        3.6200000000000001,
        3.6400000000000001,
        3.6600000000000001,
        3.6800000000000002,
        3.7000000000000002,
        3.7200000000000002,
        3.7400000000000002,
        3.7599999999999998,
        3.7799999999999998,
        3.7999999999999998,
        3.8199999999999998,
        3.8399999999999999,
        3.8599999999999999,
        3.8799999999999999,
        3.8999999999999999,
        3.9199999999999999,
        3.9399999999999999,
        3.96,
        3.98,
        4.0,
        4.0199999999999996,
        4.04,
        4.0599999999999996,
        4.0800000000000001,
        4.0999999999999996,
        4.1200000000000001,
        4.1399999999999997,
        4.1600000000000001,
        4.1799999999999997,
        4.2000000000000002,
        4.2199999999999998,
        4.2400000000000002,
        4.2599999999999998,
        4.2800000000000002,
        4.2999999999999998,
        4.3200000000000003,
        4.3399999999999999,
        4.3600000000000003,
        4.3799999999999999,
        4.4000000000000004,
        4.4199999999999999,
        4.4400000000000004,
        4.46,
        4.4800000000000004,
        4.5,
        4.5199999999999996,
        4.54,
        4.5599999999999996,
        4.5800000000000001,
        4.5999999999999996,
        4.6200000000000001,
        4.6399999999999997,
        4.6600000000000001,
        4.6799999999999997,
        4.7000000000000002,
        4.7199999999999998,
        4.7400000000000002,
        4.7599999999999998,
        4.7800000000000002,
        4.7999999999999998,
        4.8200000000000003,
        4.8399999999999999,
        4.8600000000000003,
        4.8799999999999999,
        4.9000000000000004,
        4.9199999999999999,
        4.9400000000000004,
        4.96,
        4.9800000000000004,
        5.0,
        5.0199999999999996,
        5.04,
        5.0599999999999996,
        5.0800000000000001,
        5.0999999999999996,
        5.1200000000000001,
        5.1399999999999997,
        5.1600000000000001,
        5.1799999999999997,
        5.2000000000000002,
        5.2199999999999998,
        5.2400000000000002,
        5.2599999999999998,
        5.2800000000000002,
        5.2999999999999998,
        5.3200000000000003,
        5.3399999999999999,
        5.3600000000000003,
        5.3799999999999999,
        5.4000000000000004,
        5.4199999999999999,
        5.4400000000000004,
        5.46,
        5.4800000000000004,
        5.5,
        5.5199999999999996,
        5.54,
        5.5599999999999996,
        5.5800000000000001,
        5.5999999999999996,
        5.6200000000000001,
        5.6399999999999997,
        5.6600000000000001,
        5.6799999999999997,
        5.7000000000000002,
        5.7199999999999998,
        5.7400000000000002,
        5.7599999999999998,
        5.7800000000000002,
        5.7999999999999998,
        5.8200000000000003,
        5.8399999999999999,
        5.8600000000000003,
        5.8799999999999999,
        5.9000000000000004,
        5.9199999999999999,
        5.9400000000000004,
        5.96,
        5.9800000000000004,
        6.0,
        6.0199999999999996,
        6.04,
        6.0599999999999996,
        6.0800000000000001,
        6.0999999999999996,
        6.1200000000000001,
        6.1399999999999997,
        6.1600000000000001,
        6.1799999999999997,
        6.2000000000000002,
        6.2199999999999998,
        6.2400000000000002,
        6.2599999999999998,
        6.2800000000000002,
        6.2999999999999998,
        6.3200000000000003,
        6.3399999999999999,
        6.3600000000000003,
        6.3799999999999999,
        6.4000000000000004,
        6.4199999999999999,
        6.4400000000000004,
        6.46,
        6.4800000000000004,
        6.5,
        6.5199999999999996,
        6.54,
        6.5599999999999996,
        6.5800000000000001,
        6.5999999999999996,
        6.6200000000000001,
        6.6399999999999997,
        6.6600000000000001,
        6.6799999999999997,
        6.7000000000000002,
        6.7199999999999998,
        6.7400000000000002,
        6.7599999999999998,
        6.7800000000000002,
        6.7999999999999998,
        6.8200000000000003,
        6.8399999999999999,
        6.8600000000000003,
        6.8799999999999999,
        6.9000000000000004,
        6.9199999999999999,
        6.9400000000000004,
        6.96,
        6.9800000000000004,
        7.0,
        7.0199999999999996,
        7.04,
        7.0599999999999996,
        7.0800000000000001,
        7.0999999999999996,
        7.1200000000000001,
        7.1399999999999997,
        7.1600000000000001,
        7.1799999999999997,
        7.2000000000000002,
        7.2199999999999998,
        7.2400000000000002,
        7.2599999999999998,
        7.2800000000000002,
        7.2999999999999998,
        7.3200000000000003,
        7.3399999999999999,
        7.3600000000000003,
        7.3799999999999999,
        7.4000000000000004,
        7.4199999999999999,
        7.4400000000000004,
        7.46,
        7.4800000000000004,
        7.5,
        7.5199999999999996,
        7.54,
        7.5599999999999996,
        7.5800000000000001,
        7.5999999999999996,
        7.6200000000000001,
        7.6399999999999997,
        7.6600000000000001,
        7.6799999999999997,
        7.7000000000000002,
        7.7199999999999998,
        7.7400000000000002,
        7.7599999999999998,
        7.7800000000000002,
        7.7999999999999998,
        7.8200000000000003,
        7.8399999999999999,
        7.8600000000000003,
        7.8799999999999999,
        7.9000000000000004,
        7.9199999999999999,
        7.9400000000000004,
        7.96,
        7.9800000000000004,
        8.0,
        8.0199999999999996,
        8.0399999999999991,
        8.0600000000000005,
        8.0800000000000001,
        8.0999999999999996,
        8.1199999999999992,
        8.1400000000000006,
        8.1600000000000001,
        8.1799999999999997,
        8.1999999999999993,
        8.2200000000000006,
        8.2400000000000002,
        8.2599999999999998,
        8.2799999999999994,
        8.3000000000000007,
        8.3200000000000003,
        8.3399999999999999,
        8.3599999999999994,
        8.3800000000000008,
        8.4000000000000004,
        8.4199999999999999,
        8.4399999999999995,
        8.4600000000000009
    ]
}