{
    "f0": [
        0.0,
        0.0,
        0.0,
        0.0,
        0.0,
        0.0,
        0.0,
        0.0,
        0.0,
        0.0,
        0.0,
        0.0,
        0.0,
        0.0,
        0.0,
        0.0,
        0.0,
        0.0,
        0.0,
        0.0,
        0.0,
        0.0,
        0.0,
        0.0,
        0.0,
        0.0,
        0.0,
        0.0,
        0.0,
        0.0,
        0.0,
        0.0,
        0.0,
        0.0,
        0.0,
        0.0,
        0.0,
        0.0,
        0.0,
        54.764238959555271,
        45.46362053463595,
        45.46362053463595,
        0.0,
        0.0,
        0.0,
        0.0,
        43.175960255577309,
        50.773684257048544,
        49.885677523030822,
        46.243510775713375,
        46.58634000755147,
        48.760991481602169,
        50.06681855885607,
        51.401596089086098,
        49.54172385681872,
        49.386944313407021,
        49.40303570326482,
        49.265951375871282,
        49.540389996804812,
        49.810547752057708,
        50.419387671167783,
        51.01496077557676,
        51.759403601046145,
        52.042669098096582,
        52.706776178509799,
        52.811950476053838,
        52.991892723198632,
        52.932684035720243,
        52.914373406198422,
        52.896043489429964,
        52.921143770979597,
        52.946206221765401,
        52.971233932654712,
        52.88584481296985,
        52.620154502132543,
        52.614170323981938,
        52.988449004517321,
        53.109464086211801,
        53.002141058829849,
        52.856317317916684,
        52.84429094086925,
        52.974040139293734,
        52.934257374712388,
        52.998449707419503,
        52.949016487821766,
        52.916486596521096,
        52.87535372109506,
        52.880494189092872,
        52.82567271403363,
        53.029306842942709,
        52.872465950372614,
        52.714194183681627,
        52.554463640431962,
        52.769893619209618,
        52.339032145159265,
        52.533847801781462,
        53.05875967698092,
        53.233709765587925,
        53.045986001686792,
        52.856204448522639,
        52.667841928714751,
        52.818455224765117,
        52.794229725668778,
        52.777814796592949,
        52.929720698225601,
        52.843645257519611,
        52.849825282061119,
        52.909892410073255,
        52.94291276004413,
        53.161535718483037,
        52.982401643711,
        53.045774785724326,
        53.02184284258206,
        53.074103062355427,
        53.006332136200299,
        52.899892060606092,
        52.984388357772552,
        52.916714638274556,
        52.716865492079691,
        52.407541678332336,
        52.32447031471041,
        52.330965713245099,
        52.337454040055242,
        52.291593768484361,
        52.266762821408271,
        52.416519134547855,
        52.506513762539107,
        52.596041467976505,
        52.685102418660122,
        52.287959012777392,
        52.326426983003586,
        52.423355572746388,
        52.637559874021036,
        52.617058216545693,
        52.737614866681682,
        50.943934166355874,
        51.116718095340303,
        53.948537319182357,
        53.189899831619471,
        53.005001235618224,
        52.856047289912212,
        52.809896359325421,
        52.763622071488619,
        52.543229204717036,
        52.408333819096939,
        52.191288172838242,
        51.485275164584699,
        52.740493011124926,
        52.71867079060344,
        52.014719086774122,
        49.649698677563748,
        49.644568507343728,
        49.586729684416767,
        49.727421730115339,
        49.832722194896299,
        49.986848787491347,
        50.11511802600161,
        50.215860354276288,
        49.6279262976037,
        49.952499763616601,
        51.336025665179157,
        51.424046837690128,
        51.227418041341444,
        51.145189936447593,
        51.118789273162548,
        51.111367124207497,
        51.375454254896312,
        51.867860097899737,
        52.745798030894576,
        53.042572709013058,
        53.334347044626128,
        53.447288148856302,
        53.427099554252294,
        53.405391871492313,
        53.383655481021059,
        53.31075303345817,
        53.23753779566708,
        53.336279000136557,
        53.471310780241602,
        53.237264651478867,
        53.093792392969007,
        52.84111401458194,
        52.854112882483648,
        53.047811587323807,
        52.976250604183591,
        52.961246308163538,
        53.012262359899083,
        53.06313000077251,
        53.113848717063263,
        52.990419946192183,
        52.976544477554398,
        52.907481776811814,
        52.941613484562353,
        52.767882035312837,
        52.842410148449311,
        52.916620393335648,
        52.816513505876799,
        52.680372011980651,
        52.799662138116204,
        52.918137415489568,
        53.035807426742679,
        52.625363493660558,
        53.009503069283348,
        52.903099397313703,
        52.502632749195016,
        52.755250941508798,
        52.724535854761207,
        52.693766278184469,
        52.135621720761385,
        52.512477645220592,
        52.680580057890118,
        52.772764795515215,
        52.194727756807261,
        53.36055539146539,
        54.459730242053496,
        54.78327847502581,
        50.484627788296564,
        50.824024019040507,
        50.697900847887098,
        50.845046403272363,
        50.96586308275446,
        51.098313104598688,
        51.395831137713678,
        51.949703311519706,
        52.703022915756819,
        52.971620348067717,
        52.933491922545343,
        53.048424093779801,
        53.120119340849385,
        53.140256140981009,
        53.21098393762307,
        53.25623289072643,
        53.13993503735697,
        53.109779745800573,
        53.079570356574543,
        53.049314191652343,
        52.845006926924839,
        53.405532305756815,
        53.132146278346838,
        53.129389596541799,
        53.161911917999788,
        53.143236170544057,
        53.222803078762368,
        53.302006070059029,
        53.20685113095017,
        52.533507510363762,
        52.815080748638565,
        53.192962513090158,
        53.163746338310837,
        53.24096508086393,
        53.203430509333558,
        53.165811240490477,
        53.128110146312437,
        53.09032825067839,
        53.052460755289083,
        51.77675079610502,
        52.329800559289481,
        52.387797038493325,
        52.246142645434205,
        52.216911358414265,
        52.185461592308982,
        52.137417062881553,
        51.747777553796944,
        51.867541919952451,
        52.085539073130732,
        52.594811910279134,
        52.597543510717571,
        52.673984796015475,
        53.056261176022382,
        52.931385385886543,
        52.892289936998139,
        52.981977555580372,
        52.76594086636225,
        53.5478998482766,
        52.972894633537003,
        53.167664787660087,
        53.244994346067827,
        53.379457095349579,
        53.310391935367512,
        53.483830490620505,
        54.07964246687358,
        53.745095121543955,
        53.38043983910601,
        53.362782203095719,
        53.340676271044295,
        54.165430665061152,
        53.462831660663092,
        52.314859420959479,
        51.821415641658177,
        51.947171311247097,
        52.193171344532544,
        52.202105411748249,
        52.046782399943979,
        51.963459381532999,
        51.842888855966173,
        51.912305162928703,
        53.094395780679875,
        52.981055204947339,
        52.704869595285899,
        52.643892630631392,
        52.603019418487321,
        52.377874695643541,
        52.149766496640098,
        52.430350384783324,
        52.503107618098014,
        52.575563509256973,
        52.473722648294881,
        53.192148701050449,
        52.794791574309571,
        52.388099531655747,
        52.314448574813071,
        52.412015294931066,
        52.547879175409918,
        52.246302229017616,
        52.559213010286136,
        52.43117273235039,
        52.240560540351723,
        52.047826180783446,
        52.869864197293971,
        53.259090175318335,
        53.442335309982631,
        53.840152682014832,
        53.949539811211345,
        54.197674926312402,
        53.83431773077865,
        53.804563376461005,
        53.430612053482108,
        53.567999379872987,
        53.770643151654227,
        51.492248334376484,
        51.461885192187431,
        51.327066494865889,
        51.243881596745524,
        51.133841582035373,
        50.862421623784066,
        50.473604629374265,
        50.476631005653005,
        50.592371640495145,
        50.500489549939076,
        50.520961989158707,
        50.536286529692219,
        50.52488776269108,
        50.428076139857673,
        50.46260417963687,
        50.470973355946626,
        50.479338488362401,
        50.48769946615991,
        50.322060273122169,
        50.245119073310804,
        50.634284846031377,
        50.250750016914758,
        49.962565135277949,
        49.919503141786919,
        49.975170653854619,
        50.030666921134952,
        50.119714066574552,
        50.017544641636249,
        50.015378774282908,
        49.944794812174258,
        49.873923675941697,
        49.975021170656618,
        50.075533481151432,
        50.258927877623151,
        50.293345380472822,
        50.424553231131526,
        50.8496119003891,
        50.771426921537085,
        50.341973876504497,
        50.40090609460843,
        49.968034520392571,
        50.383478222330382,
        49.737834246910495,
        52.245614797495328,
        49.907703494654328,
        45.030857070126515,
        40.253931217637067,
        38.58381735256156,
        37.943186574873081,
        37.277933782195504,
        37.487726480800731,
        49.989410624782693,
        49.919159737439941,
        47.227419388792654,
        49.986398748463778,
        49.8617900830046,
        50.16059537223542,
        49.669397308937953,
        49.875681460622637,
        50.07953644335938,
        0.0,
        0.0,
        0.0,
        0.0,
        0.0,
        0.0,
        0.0,
        0.0,
        0.0,
        0.0,
        0.0,
        0.0,
        0.0,
        0.0,
        0.0,
        0.0,
        0.0,
        0.0,
        0.0,
        0.0,
        0.0,
        0.0,
        0.0
    ],
    "time": [
        0.02,
        0.040000000000000001,
        0.059999999999999998,
        0.080000000000000002,
        0.10000000000000001,
        0.12,
        0.14000000000000001,
        0.16,
        0.17999999999999999,
        0.20000000000000001,
        0.22,
        0.23999999999999999,
        0.26000000000000001,
        0.28000000000000003,
        0.29999999999999999,
        0.32000000000000001,
        0.34000000000000002,
        0.35999999999999999,
        0.38,
        0.40000000000000002,
        0.41999999999999998,
        0.44,
        0.46000000000000002,
        0.47999999999999998,
        0.5,
        0.52000000000000002,
        0.54000000000000004,
        0.56000000000000005,
        0.57999999999999996,
        0.59999999999999998,
        0.62,
        0.64000000000000001,
        0.66000000000000003,
        0.68000000000000005,
        0.69999999999999996,
        0.71999999999999997,
        0.73999999999999999,
        0.76000000000000001,
        0.78000000000000003,
        0.80000000000000004,
        0.81999999999999995,
        0.83999999999999997,
        0.85999999999999999,
        0.88,
        0.90000000000000002,
        0.92000000000000004,
        0.93999999999999995,
        0.95999999999999996,
        0.97999999999999998,
        1.0,
        1.02,
        1.04,
        1.0600000000000001,
        1.0800000000000001,
        1.1000000000000001,
        1.1200000000000001,
        1.1399999999999999,
        1.1599999999999999,
        1.1799999999999999,
        1.2,
        1.22,
        1.24,
        1.26,
        1.28,
        1.3,
        1.3200000000000001,
        1.3400000000000001,
        1.3600000000000001,
        1.3799999999999999,
        1.3999999999999999,
        1.4199999999999999,
        1.4399999999999999,
        1.46,
        1.48,
        1.5,
        1.52,
        1.54,
        1.5600000000000001,
        1.5800000000000001,
        1.6000000000000001,
        1.6200000000000001,
        1.6399999999999999,
        1.6599999999999999,
        1.6799999999999999,
        1.7,
        1.72,
        1.74,
        1.76,
        1.78,
        1.8,
        1.8200000000000001,
        1.8400000000000001,
        1.8600000000000001,
        1.8799999999999999,
        1.8999999999999999,
        1.9199999999999999,
        1.9399999999999999,
        1.96,
        1.98,
        2.0,
        2.02,
        2.04,
        2.0600000000000001,
        2.0800000000000001,
        2.1000000000000001,
        2.1200000000000001,
        2.1400000000000001,
        2.1600000000000001,
        2.1800000000000002,
        2.2000000000000002,
        2.2200000000000002,
        2.2400000000000002,
        2.2599999999999998,
        2.2799999999999998,
        2.2999999999999998,
        2.3199999999999998,
        2.3399999999999999,
        2.3599999999999999,
        2.3799999999999999,
        2.3999999999999999,
        2.4199999999999999,
        2.4399999999999999,
        2.46,
        2.48,
        2.5,
        2.52,
        2.54,
        2.5600000000000001,
        2.5800000000000001,
        2.6000000000000001,
        2.6200000000000001,
        2.6400000000000001,
        2.6600000000000001,
        2.6800000000000002,
        2.7000000000000002,
        2.7200000000000002,
        2.7400000000000002,
        2.7599999999999998,
        2.7799999999999998,
        2.7999999999999998,
        2.8199999999999998,
        2.8399999999999999,
        2.8599999999999999,
        2.8799999999999999,
        2.8999999999999999,
        2.9199999999999999,
        2.9399999999999999,
        2.96,
        2.98,
        3.0,
        3.02,
        3.04,
        3.0600000000000001,
        3.0800000000000001,
        3.1000000000000001,
        3.1200000000000001,
        3.1400000000000001,
        3.1600000000000001,
        3.1800000000000002,
        3.2000000000000002,
        3.2200000000000002,
        3.2400000000000002,
        3.2599999999999998,
        3.2799999999999998,
        3.2999999999999998,
        3.3199999999999998,
        3.3399999999999999,
        3.3599999999999999,
        3.3799999999999999,
        3.3999999999999999,
        3.4199999999999999,
        3.4399999999999999,
        3.46,
        3.48,
        3.5,
        3.52,
        3.54,
        3.5600000000000001,
        3.5800000000000001,
        3.6000000000000001,
        3.6200000000000001,
        3.6400000000000001,
        3.6600000000000001,
        3.6800000000000002,
        3.7000000000000002,
        3.7200000000000002,
        3.7400000000000002,
        3.7599999999999998,
        3.7799999999999998,
        3.7999999999999998,
        3.8199999999999998,
        3.8399999999999999,
        3.8599999999999999,
        3.8799999999999999,
        3.8999999999999999,
        3.9199999999999999,
        3.9399999999999999,
        3.96,
        3.98,
        4.0,
        4.0199999999999996,
        4.04,
        4.0599999999999996,
        4.0800000000000001,
        4.0999999999999996,
        4.1200000000000001,
        4.1399999999999997,
        4.1600000000000001,
        4.1799999999999997,
        4.2000000000000002,
        4.2199999999999998,
        4.2400000000000002,
        4.2599999999999998,
        4.2800000000000002,
        4.2999999999999998,
        4.3200000000000003,
        4.3399999999999999,
        4.3600000000000003,
        4.3799999999999999,
        4.4000000000000004,
        4.4199999999999999,
        4.4400000000000004,
        4.46,
        4.4800000000000004,
        4.5,
        4.5199999999999996,
        4.54,
        4.5599999999999996,
        4.5800000000000001,
        4.5999999999999996,
        4.6200000000000001,
        4.6399999999999997,
        4.6600000000000001,
        4.6799999999999997,
        4.7000000000000002,
        4.7199999999999998,
        4.7400000000000002,
        4.7599999999999998,
        4.7800000000000002,
        4.7999999999999998,
        4.8200000000000003,
        4.8399999999999999,
        4.8600000000000003,
        4.8799999999999999,
        4.9000000000000004,
        4.9199999999999999,
        4.9400000000000004,
        4.96,
        4.9800000000000004,
        5.0,
        5.0199999999999996,
        5.04,
        5.0599999999999996,
        5.0800000000000001,
        5.0999999999999996,
        5.1200000000000001,
        5.1399999999999997,
        5.1600000000000001,
        5.1799999999999997,
        5.2000000000000002,
        5.2199999999999998,
        5.2400000000000002,
        5.2599999999999998,
        5.2800000000000002,
        5.2999999999999998,
        5.3200000000000003,
        5.3399999999999999,
        5.3600000000000003,
        5.3799999999999999,
        5.4000000000000004,
        5.4199999999999999,
        5.4400000000000004,
        5.46,
        5.4800000000000004,
        5.5,
        5.5199999999999996,
        5.54,
        5.5599999999999996,
        5.5800000000000001,
        5.5999999999999996,
        5.6200000000000001,
        5.6399999999999997,
        5.6600000000000001,
        5.6799999999999997,
        5.7000000000000002,
        5.7199999999999998,
        5.7400000000000002,
        5.7599999999999998,
        5.7800000000000002,
        5.7999999999999998,
        5.8200000000000003,
        5.8399999999999999,
        5.8600000000000003,
        5.8799999999999999,
        5.9000000000000004,
        5.9199999999999999,
        5.9400000000000004,
        5.96,
        5.9800000000000004,
        6.0,
        6.0199999999999996,
        6.04,
        6.0599999999999996,
        6.0800000000000001,
        6.0999999999999996,
        6.1200000000000001,
        6.1399999999999997,
        6.1600000000000001,
        6.1799999999999997,
        6.2000000000000002,
        6.2199999999999998,
        6.2400000000000002,
        6.2599999999999998,
        6.2800000000000002,
        6.2999999999999998,
        6.3200000000000003,
        6.3399999999999999,
        6.3600000000000003,
        6.3799999999999999,
        6.4000000000000004,
        6.4199999999999999,
        6.4400000000000004,
        6.46,
        6.4800000000000004,
        6.5,
        6.5199999999999996,
        6.54,
        6.5599999999999996,
        6.5800000000000001,
        6.5999999999999996,
        6.6200000000000001,
        6.6399999999999997,
        6.6600000000000001,
        6.6799999999999997,
        6.7000000000000002,
        6.7199999999999998,
        6.7400000000000002,
        6.7599999999999998,
        6.7800000000000002,
        6.7999999999999998,
        6.8200000000000003,
        6.8399999999999999,
        6.8600000000000003,
        6.8799999999999999,
        6.9000000000000004,
        6.9199999999999999,
        6.9400000000000004,
        6.96,
        6.9800000000000004,
        7.0,
        7.0199999999999996,
        7.04,
        7.0599999999999996,
        7.0800000000000001,
        7.0999999999999996,
        7.1200000000000001,
        7.1399999999999997,
        7.1600000000000001,
        7.1799999999999997,
        7.2000000000000002,
        7.2199999999999998,
        7.2400000000000002,
        7.2599999999999998,
        7.2800000000000002,
        7.2999999999999998,
        7.3200000000000003,
        7.3399999999999999,
        7.3600000000000003,
        7.3799999999999999,
        7.4000000000000004,
        7.4199999999999999,
        7.4400000000000004,
        7.46,
        7.4800000000000004,
        7.5,
        7.5199999999999996,
        7.54,
        7.5599999999999996,
        7.5800000000000001,
        7.5999999999999996,
        7.6200000000000001,
        7.6399999999999997,
        7.6600000000000001,
        7.6799999999999997,
        7.7000000000000002,
        7.7199999999999998,
        7.7400000000000002,
        7.7599999999999998,
        7.7800000000000002,
        7.7999999999999998,
        7.8200000000000003,
        7.8399999999999999,
        7.8600000000000003,
        7.8799999999999999,
        7.9000000000000004,
        7.9199999999999999,
        7.9400000000000004,
        7.96,
        7.9800000000000004,
        8.0,
        8.0199999999999996,
        8.0399999999999991,
        8.0600000000000005,
        8.0800000000000001,
        8.0999999999999996,
        8.1199999999999992,
        8.1400000000000006,
        8.1600000000000001,
        8.1799999999999997,
        8.1999999999999993,
        8.2200000000000006,
        8.2400000000000002
    ]
}