{
    "f0": [
        0.0,
        0.0,
        0.0,
        0.0,
        0.0,
        0.0,
        0.0,
        0.0,
        0.0,
        0.0,
        0.0,
        0.0,
        0.0,
        0.0,
        0.0,
        0.0,
        0.0,
        0.0,
        0.0,
        0.0,
        0.0,
        0.0,
        0.0,
        0.0,
        0.0,
        0.0,
        0.0,
        0.0,
        0.0,
        0.0,
        0.0,
        0.0,
        0.0,
        0.0,
        0.0,
        0.0,
        43.075420799538421,
        42.48307238866424,
        42.476580771398361,
        42.498936102841725,
        41.083914414708786,
        40.527540068792511,
        40.461464874045475,
        40.699344299892175,
        40.769364721896416,
        40.728215366588039,
        41.334786219501432,
        42.031604032545744,
        42.303142496926156,
        42.459823375916002,
        42.424982432811724,
        42.495060707184379,
        42.393982638395116,
        42.338880452913756,
        42.250539617773036,
        42.241525522992845,
        42.179305586231671,
        42.124176867069849,
        42.158978587170971,
        42.09723740887295,
        42.067456863982116,
        42.088070681102522,
        41.907357235514787,
        42.056445470897259,
        42.22600488361622,
        42.248812668782747,
        42.3043463595125,
        41.900859909769309,
        42.051698139517143,
        41.591943070976455,
        42.375983979025122,
        42.667390382817544,
        42.668360475799609,
        42.547268591284706,
        42.841180549067467,
        42.670094154268341,
        42.653534289567943,
        42.885844137473008,
        43.056219076970905,
        42.688319500392566,
        42.693426274442267,
        42.63243782050013,
        42.635544879815065,
        42.686571096657602,
        42.886262026609586,
        42.313797615479146,
        42.982617611433916,
        43.786757516855602,
        43.08461321864273,
        43.198599609138675,
        42.640144360695039,
        45.065120186065414,
        45.130929499653305,
        45.014729367024081,
        45.76946303499868,
        46.160485285084754,
        46.148824486951526,
        46.508951518310923,
        46.450825531409734,
        46.538165636095002,
        47.055069526662628,
        47.291893318915186,
        47.179352372330499,
        47.446699122860721,
        47.229312242441196,
        47.032383065197656,
        47.624189004765441,
        47.995913165604136,
        48.259681106563619,
        48.665052334753014,
        48.774774959060082,
        49.126187269648128,
        49.205447154954186,
        49.452902787012206,
        0.0,
        0.0,
        0.0,
        0.0,
        0.0,
        0.0,
        0.0,
        0.0,
        0.0,
        0.0,
        0.0,
        0.0,
        0.0,
        0.0,
        0.0,
        0.0,
        0.0,
        0.0,
        0.0,
        0.0,
        0.0,
        0.0,
        0.0,
        50.656075717750277,
        50.682032209752151,
        51.082915536826441,
        51.128976196835836,
        51.181528260696403,
        0.0,
        0.0,
        51.377077666107652,
        51.429790895275602,
        51.365762237268811,
        51.042478881275777,
        51.340072317323347,
        51.176274509712862,
        51.256151998801116,
        51.477575590751016,
        51.089481691865444,
        50.321214364684828,
        49.801936783792229,
        51.52250551576347,
        51.273515904084697,
        51.320438217073189,
        51.258066003684831,
        51.086004584261246,
        51.367014158421675,
        51.541046324376147,
        51.502377919242861,
        50.922915671404745,
        51.027470781569178,
        50.763384202312089,
        0.0,
        0.0,
        0.0,
        0.0,
        40.152669281684766,
        38.929854872144055,
        50.657861536043058,
        50.306937288447614,
        49.98322950055119,
        51.500325749677927,
        51.161040315624575,
        0.0,
        0.0,
        0.0,
        0.0,
        0.0,
        0.0,
        0.0,
        0.0,
        0.0,
        38.822313726605714,
        40.37170109550506,
        0.0,
        0.0,
        54.815227079588823,
        0.0,
        0.0,
        0.0,
        0.0,
        0.0,
        0.0,
        0.0,
        0.0,
        0.0,
        0.0,
        0.0,
        0.0,
        0.0,
        0.0,
        0.0,
        0.0,
        0.0,
        0.0,
        0.0,
        0.0,
        0.0,
        0.0,
        0.0,
        0.0,
        0.0,
        0.0,
        0.0,
        0.0,
        0.0,
        0.0,
        0.0,
        48.162667659130172,
        48.675641998900886,
        48.266984426032451,
        48.316854067532603,
        48.282030914539185,
        48.272420224807313,
        48.335870445934702,
        48.333549048477764,
        48.436235806614611,
        48.327720232991531,
        48.391493653111119,
        48.396916114558692,
        48.379235110883165,
        48.408186000052908,
        48.543820978273629,
        48.84121768048179,
        48.908922138477571,
        48.957789206869307,
        49.034622625607327,
        49.202191907749707,
        49.565075237124347,
        49.504989010812494,
        49.739036158361309,
        49.861733866622586,
        49.822791867818893,
        49.859200136694497,
        49.904973994369165,
        49.987066723004787,
        49.844725557948117,
        49.839224330617043,
        49.79276440943336,
        49.787111881558488,
        49.925504806678425,
        49.837252177727663,
        49.786090093102956,
        49.681895583934939,
        49.74712525386272,
        49.618164643409727,
        49.322954397874831,
        49.11719686562904,
        47.919173285156006,
        47.430285506410897,
        47.509655657886341,
        46.844203580820825,
        45.881774239208049,
        46.294570135642097,
        46.536662592872972,
        46.937483423993683,
        46.812322792867519,
        47.124745278656164,
        47.229943608883268,
        47.490232325615537,
        47.433443968825557,
        47.232119107716443,
        47.392707389137691,
        47.905361354587036,
        48.34412165379586,
        48.596198183348996,
        48.542997069239036,
        48.499228938039622,
        48.325465150006892,
        48.149391029800832,
        48.029652870663028,
        47.852023653338037,
        47.717336266324551,
        47.511940725110478,
        47.61343257992192,
        47.365090042657158,
        47.36065877723658,
        47.285114865726442,
        47.132652676028187,
        47.054026680879872,
        47.115666441603494,
        47.116101130113996,
        46.951092714595262,
        0.0,
        0.0,
        0.0,
        0.0,
        0.0,
        0.0,
        0.0,
        0.0,
        0.0,
        0.0,
        0.0,
        0.0,
        0.0,
        0.0,
        0.0,
        0.0,
        0.0,
        0.0,
        0.0,
        0.0,
        0.0,
        0.0,
        0.0,
        0.0,
        0.0,
        0.0,
        0.0,
        0.0,
        0.0,
        0.0,
        0.0,
        0.0,
        0.0,
        0.0,
        0.0,
        0.0,
        0.0,
        0.0,
        0.0,
        0.0,
        0.0,
        0.0,
        0.0,
        0.0,
        0.0,
        0.0,
        0.0,
        0.0,
        0.0,
        0.0,
        0.0
    ],
    "time": [
        0.02,
        0.040000000000000001,
        0.059999999999999998,
        0.080000000000000002,
        0.10000000000000001,
        0.12,
        0.14000000000000001,
        0.16,
        0.17999999999999999,
        0.20000000000000001,
        0.22,
        0.23999999999999999,
        0.26000000000000001,
        0.28000000000000003,
        0.29999999999999999,
        0.32000000000000001,
        0.34000000000000002,
        0.35999999999999999,
        0.38,
        0.40000000000000002,
        0.41999999999999998,
        0.44,
        0.46000000000000002,
        0.47999999999999998,
        0.5,
        0.52000000000000002,
        0.54000000000000004,
        0.56000000000000005,
        0.57999999999999996,
        0.59999999999999998,
        0.62,
        0.64000000000000001,
        0.66000000000000003,
        0.68000000000000005,
        0.69999999999999996,
        0.71999999999999997,
        0.73999999999999999,
        0.76000000000000001,
        0.78000000000000003,
        0.80000000000000004,
        0.81999999999999995,
        0.83999999999999997,
        0.85999999999999999,
        0.88,
        0.90000000000000002,
        0.92000000000000004,
        0.93999999999999995,
        0.95999999999999996,
        0.97999999999999998,
        1.0,
        1.02,
        1.04,
        1.0600000000000001,
        1.0800000000000001,
        1.1000000000000001,
        1.1200000000000001,
        1.1399999999999999,
        1.1599999999999999,
        1.1799999999999999,
        1.2,
        1.22,
        1.24,
        1.26,
        1.28,
        1.3,
        1.3200000000000001,
        1.3400000000000001,
        1.3600000000000001,
        1.3799999999999999,
        1.3999999999999999,
        1.4199999999999999,
        1.4399999999999999,
        1.46,
        1.48,
        1.5,
        1.52,
        1.54,
        1.5600000000000001,
        1.5800000000000001,
        1.6000000000000001,
        1.6200000000000001,
        1.6399999999999999,
        1.6599999999999999,
        1.6799999999999999,
        1.7,
        1.72,
        1.74,
        1.76,
        1.78,
        1.8,
        1.8200000000000001,
        1.8400000000000001,
        1.8600000000000001,
        1.8799999999999999,
        1.8999999999999999,
        1.9199999999999999,
        1.9399999999999999,
        1.96,
        1.98,
        2.0,
        2.02,
        2.04,
        2.0600000000000001,
        2.0800000000000001,
        2.1000000000000001,
        2.1200000000000001,
        2.1400000000000001,
        2.1600000000000001,
        2.1800000000000002,
        2.2000000000000002,
        2.2200000000000002,
        2.2400000000000002,
        2.2599999999999998,
        2.2799999999999998,
        2.2999999999999998,
        2.3199999999999998,
        2.3399999999999999,
        2.3599999999999999,
        2.3799999999999999,
        2.3999999999999999,
        2.4199999999999999,
        2.4399999999999999,
        2.46,
        2.48,
        2.5,
        2.52,
        2.54,
        2.5600000000000001,
        2.5800000000000001,
        2.6000000000000001,
        2.6200000000000001,
        2.6400000000000001,
        2.6600000000000001,
        2.6800000000000002,
        2.7000000000000002,
        2.7200000000000002,
        2.7400000000000002,
        2.7599999999999998,
        2.7799999999999998,
        2.7999999999999998,
        2.8199999999999998,
        2.8399999999999999,
        2.8599999999999999,
        2.8799999999999999,
        2.8999999999999999,
        2.9199999999999999,
        2.9399999999999999,
        2.96,
        2.98,
        3.0,
        3.02,
        3.04,
        3.0600000000000001,
        3.0800000000000001,
        3.1000000000000001,
        3.1200000000000001,
        3.1400000000000001,
        3.1600000000000001,
        3.1800000000000002,
        3.2000000000000002,
        3.2200000000000002,
        3.2400000000000002,
        3.2599999999999998,
        3.2799999999999998,
        3.2999999999999998,
        3.3199999999999998,
        3.3399999999999999,
        3.3599999999999999,
        3.3799999999999999,
        3.3999999999999999,
        3.4199999999999999,
        3.4399999999999999,
        3.46,
        3.48,
        3.5,
        3.52,
        3.54,
        3.5600000000000001,
        3.5800000000000001,
        3.6000000000000001,
        3.6200000000000001,
        3.6400000000000001,
        3.6600000000000001,
        3.6800000000000002,
        3.7000000000000002,
        3.7200000000000002,
        3.7400000000000002,
        3.7599999999999998,
        3.7799999999999998,
        3.7999999999999998,
        3.8199999999999998,
        3.8399999999999999,
        3.8599999999999999,
        3.8799999999999999,
        3.8999999999999999,
        3.9199999999999999,
        3.9399999999999999,
        3.96,
        3.98,
        4.0,
        4.0199999999999996,
        4.04,
        4.0599999999999996,
        4.0800000000000001,
        4.0999999999999996,
        4.1200000000000001,
        4.1399999999999997,
        4.1600000000000001,
        4.1799999999999997,
        4.2000000000000002,
        4.2199999999999998,
        4.2400000000000002,
        4.2599999999999998,
        4.2800000000000002,
        4.2999999999999998,
        4.3200000000000003,
        4.3399999999999999,
        4.3600000000000003,
        4.3799999999999999,
        4.4000000000000004,
        4.4199999999999999,
        4.4400000000000004,
        4.46,
        4.4800000000000004,
        4.5,
        4.5199999999999996,
        4.54,
        4.5599999999999996,
        4.5800000000000001,
        4.5999999999999996,
        4.6200000000000001,
        4.6399999999999997,
        4.6600000000000001,
        4.6799999999999997,
        4.7000000000000002,
        4.7199999999999998,
        4.7400000000000002,
        4.7599999999999998,
        4.7800000000000002,
        4.7999999999999998,
        4.8200000000000003,
        4.8399999999999999,
        4.8600000000000003,
        4.8799999999999999,
        4.9000000000000004,
        4.9199999999999999,
        4.9400000000000004,
        4.96,
        4.9800000000000004,
        5.0,
        5.0199999999999996,
        5.04,
        5.0599999999999996,
        5.0800000000000001,
        5.0999999999999996,
        5.1200000000000001,
        5.1399999999999997,
        5.1600000000000001,
        5.1799999999999997,
        5.2000000000000002,
        5.2199999999999998,
        5.2400000000000002,
        5.2599999999999998,
        5.2800000000000002,
        5.2999999999999998,
        5.3200000000000003,
        5.3399999999999999,
        5.3600000000000003,
        5.3799999999999999,
        5.4000000000000004,
        5.4199999999999999,
        5.4400000000000004,
        5.46,
        5.4800000000000004,
        5.5,
        5.5199999999999996,
        5.54,
        5.5599999999999996,
        5.5800000000000001,
        5.5999999999999996,
        5.6200000000000001,
        5.6399999999999997,
        5.6600000000000001,
        5.6799999999999997,
        5.7000000000000002,
        5.7199999999999998,
        5.7400000000000002,
        5.7599999999999998,
        5.7800000000000002,
        5.7999999999999998,
        5.8200000000000003,
        5.8399999999999999,
        5.8600000000000003,
        5.8799999999999999,
        5.9000000000000004,
        5.9199999999999999,
        5.9400000000000004,
        5.96,
        5.9800000000000004,
        6.0,
        6.0199999999999996,
        6.04,
        6.0599999999999996,
        6.0800000000000001,
        6.0999999999999996,
        6.1200000000000001,
        6.1399999999999997,
        6.1600000000000001,
        6.1799999999999997,
        6.2000000000000002,
        6.2199999999999998,
        6.2400000000000002,
        6.2599999999999998,
        6.2800000000000002,
        6.2999999999999998,
        6.3200000000000003,
        6.3399999999999999,
        6.3600000000000003,
        6.3799999999999999,
        6.4000000000000004,
        6.4199999999999999,
        6.4400000000000004,
        6.46,
        6.4800000000000004,
        6.5,
        6.5199999999999996,
        6.54,
        6.5599999999999996,
        6.5800000000000001,
        6.5999999999999996,
        6.6200000000000001,
        6.6399999999999997,
        6.6600000000000001,
        6.6799999999999997,
        6.7000000000000002,
        6.7199999999999998,
        6.7400000000000002,
        6.7599999999999998,
        6.7800000000000002,
        6.7999999999999998,
        6.8200000000000003,
        6.8399999999999999,
        6.8600000000000003,
        6.8799999999999999,
        6.9000000000000004,
        6.9199999999999999,
        6.9400000000000004,
        6.96
    ]
}