{
	"f0": [NaN,42.67703921,42.71262168,43.34995772,44.2489104,73.4660161,65.71148843,68.3340008,56.47455075,52.74318912,49.55525157,49.14302474,48.75488969,48.54288284,48.29887784,48.12904084,48.03626133,48.10349753,48.34539055,48.83932079,48.9968279,49.11878231,49.12609661,49.15594472,49.19449073,49.29390356,49.34743967,49.35493018,49.44189952,49.51794857,49.50378029,49.43419417,49.41576808,49.29574998,49.3277947,49.03728748,48.72086341,48.24019602,48.23710404,48.19898927,48.12349408,48.06940645,48.01587875,48.00027354,48.01424685,47.9958872,47.89474524,47.87639701,47.80542551,47.70093272,47.54415292,47.49991557,47.55441318,47.57085372,47.54407755,47.49375484,47.46629953,47.43604483,47.42942976,47.44864914,47.47074515,47.43978964,47.27278585,47.21333469,47.17352577,47.09190873,47.00657684,47.02667216,47.11311702,47.30403953,47.69193586,47.89062,48.1255668,48.54524788,48.56611192,48.50455419,48.38994315,48.28356638,48.22895657,48.12769498,48.06602671,48.05706009,48.01822676,47.99872979,48.031639,48.07124098,48.08223563,48.05517355,48.00577363,47.99057022,48.09940417,48.29137238,48.31305214,48.36446386,48.58051002,48.97624154,48.90567692,48.72555568,48.81886881,49.45041986,49.52483579,44.08450632,44.41022512,46.42002457,48.0442468,35.34887861,42.59800615,42.71262168,42.0979178,50.8154566,50.33591478,53.88170412,73.30123981,51.87548685,60.54681275,51.41642533,51.25396874,65.18000586,51.29385936,65.32479338,65.14379282,60.73770384,60.88358168,53.46391809,50.05797836,51.40303548,51.54102517,42.67837732,44.90251695,44.12444074,43.34995772,51.14399075,51.66081541,60.33240618,76.19867319,76.0455832,46.92907355,46.45704507,46.33262826,46.22567735,46.15745455,46.21297901,46.26704642,46.30795506,46.34191941,46.3498365,46.17778134,45.97078649,45.67103866,45.72627961,45.98619102,45.97358727,45.75494518,45.66039505,45.69228907,45.75027301,45.94309718,46.22859467,46.38236575,46.29309764,45.88194948,45.56272096,52.01414075,51.86427889,51.72941468,51.4525974,51.19276094,51.02434911,51.22907631,51.40481501,51.54160811,51.62219834,51.54225999,51.48615132,51.58650931,51.80138928,51.95000593,51.93713528,51.78687923,51.71785826,51.76887476,52.05805473,52.40638968,52.40662366,52.43059818,52.55802863,51.83657672,54.50528578,54.52591391,54.34261018,54.09664579,53.95401868,53.99266011,54.18133792,54.31942593,54.51626818,54.76080886,54.86180845,54.92905973,54.96513872,54.8651796,54.6302285,54.25642038,53.64462447,53.51182638,53.39323488,53.37209578,53.3394078,53.34828638,53.32646344,53.27493018,53.14772371,52.95476795,53.10194893,53.34984425,53.3590003,53.23040969,53.10860231,52.86409739,52.74582012,52.79685429,52.81337204,52.84957337,52.93283893,52.97539554,53.00529361,53.05695896,53.11424837,53.17174602,53.20470958,53.27992443,53.28112428,53.27195717,53.47164504,52.91113958,52.61478456,52.57711003,52.74318912,51.06579643,51.07801434,51.20334009,50.81123876,50.14775675,50.00585965,49.95978852,50.18522248,50.40489222,50.80210378,51.1304152,51.41281006,51.62784117,51.62519451,51.58502151,51.64288761,52.10481046,52.26712641,52.18725412,51.95878157,51.68089649,51.08349858,51.14399075,51.84929892,51.9833248,52.01414075,50.48960938,50.08147777,49.77364849,49.57742401,49.51311431,49.57467532,49.48256168,49.3423228,49.32548292,49.21973516,49.24619726,49.09831318,48.25672281,47.25722784,47.10169665,47.28580002,47.33588996,47.61758959,47.82237712,48.02110328,47.99859992,47.63369543,47.28304125,47.25715319,47.90292079,48.57991577,48.54411819,48.21418613,47.36088478,47.53778106,47.67225563,47.79983279,47.75089384,47.566278,47.53217006,47.51545245,47.54287803,47.65185392,47.79497303,47.92288993,48.02005513,48.01859082,47.97634336,47.93662845,48.01479868,48.22473538,48.33842624,48.2659427,48.08250295,47.75867027,47.86216562,48.20765589,48.16843361,47.87425651,47.95231228,48.42812279,48.4783416,48.41927565,47.99391531,41.77664688,73.81175234,47.21768853,47.86193859,47.98590067,48.05523776,47.85328792,47.70035985,48.31397515,48.79276002,48.5736002,47.67848795,47.5999737,47.59858191,47.46013908,47.14434744,47.13149775,47.523428,47.86719994,47.8772843,47.84970432,47.88445174,47.98087489,48.14426528,48.44651233,49.01328939,49.38781733,49.61477421,49.61053364,49.48000501,49.19095528,48.52256387,48.18984262,48.02358442,48.00124812,48.06710782,48.15704773,48.21225548,48.15912418,48.07461265,48.05502283,48.08187434,47.9954802,47.84705219,47.6475554,47.638637,47.62212588,47.65447259,47.76560291,47.82681259,47.94656597,48.09866419,48.26672575,48.18119148,48.11096091,48.06208763,48.05271348,48.13005685,48.24088016,48.16888621,48.04175535,48.02910761,48.13506494,48.28047953,48.36640619,48.32815514,48.24187842,48.20318436,48.21276558,48.29546781,48.48152581,48.49970802,48.41344232,48.3389969,48.36544122,48.45990653,48.52885559,48.50667089,48.4812087,48.46218608,48.42319462,48.37016364,48.31428588,48.26548056,48.27485691,48.36831313,48.36049712,48.32078405,48.2896727,48.30526064,48.37398725,48.42631111,48.38061191,48.29337146,48.23603083,48.20421354,48.21051442,48.25365737,48.19173859,48.07247152,48.14071059,48.22624752,48.26328259,48.31541886,48.34319126,48.29283686,48.26579412,48.28592514,48.26944612,48.27851094,48.24942569,48.13761831,48.09112845,48.10830113,48.19014003,48.29839069,48.43174586,48.45493193,48.38918877,48.30952058,48.34100408,48.36632971,48.34895484,48.31233546,48.31693239,48.31509507,48.25543914,48.26285313,48.2921303,48.2927306,48.24823068,48.21396723,48.20141989,48.23816655,48.27824302,48.23896702,48.19606283,48.09300071,48.04893135,48.12948038,48.11217005,48.11987703,48.11786535,48.1568758,48.16331074,48.03987495,47.98892262,48.07033766,48.16293978,48.18057404,48.11108504,48.05500042,48.09069869,47.95491089,47.96455602,48.10718993,48.20534733,48.03328047,47.93734619,47.87245362,47.94882596,48.01676527,48.01642806,47.84847035,47.82236927,47.91553112,48.15184428,49.06721424,49.68010446,49.68010446,49.83677829,50.31549102,50.31549102,49.99488296,49.80852988,50.64214864,42.91553363,42.83975144,42.81463603,42.92070537,43.02445066,43.028357,42.90078477,42.93932235,43.24209232,51.0054696,42.84775345,42.90018489,42.81539777,42.71262168,42.7911127,42.81722828,51.14399075,42.9224708,42.81722828,42.68889014,42.81722828,42.77321926,42.90210334,43.0463664,42.96296021,43.028357,43.028357,51.66081541,51.14399075,42.99206594,43.20860942,43.13394653,42.90621968,42.91709381,43.13489482,35.34887861,43.02383195,42.87861735,42.9224708,42.774795,42.50528578,41.58048319,41.65708072,41.50429368,41.11955917,41.60182825,52.55802863,35.34887861,35.34887861,35.34887861,37.91565014,43.24209232,35.34887861,35.34887861,35.34887861,35.34887861,76.93035138,67.34995772,35.34887861,70.9446811,76.93035138,76.93035138,76.93035138,76.93035138,76.93035138,76.93035138,76.93035138,76.93035138,76.93035138,76.93035138,76.93035138,76.93035138,76.93035138,76.93035138,76.93035138,76.93035138,76.93035138,76.93035138,76.93035138,NaN,NaN],
	"ap0": [NaN,0.461349001,0.4897789859,0.5078326014,0.7629083111,0.8889196273,0.7573497328,0.7223889141,0.7134651279,0.6977389989,0.3070403395,0.1465651046,0.07306294035,0.09099232549,0.1224954247,0.08633789485,0.04584813856,0.03822877103,0.1032176838,0.1878994194,0.075467182,0.01664736438,0.004677893968,0.002287002911,0.001947048452,0.001905728586,0.001849679413,0.002376525403,0.003847429202,0.00271118331,0.003553378233,0.01156048553,0.02301904719,0.04042352071,0.1555254184,0.1511584465,0.1572256568,0.06600144273,0.05846896826,0.04607871908,0.01845116186,0.01565021666,0.01641518261,0.01028882242,0.01197654314,0.01680396496,0.0309853996,0.02478030481,0.01542432851,0.01815855934,0.02025977599,0.01141467243,0.007979984413,0.005872869555,0.006347145593,0.004978676496,0.003514047258,0.006342731732,0.0242346664,0.0340860248,0.01903859638,0.02356458413,0.1025523124,0.08536894997,0.03876872491,0.03013759966,0.0161867942,0.01893156591,0.02742567921,0.03063134129,0.03822856783,0.02724949109,0.05212353951,0.04656204144,0.03688990234,0.03504387895,0.04921341581,0.03325400696,0.02278504343,0.01800568844,0.00870518203,0.004164855736,0.004151418154,0.003667121467,0.004183906614,0.004792785568,0.004576551632,0.004912211283,0.007947089437,0.008137792571,0.007293144843,0.01212083899,0.02386352426,0.06699268272,0.1086521112,0.04919161453,0.01778791703,0.02172803696,0.06496781057,0.2181080963,0.5798761334,0.4081887957,0.3508360314,0.3738336801,0.4735793988,0.4628150609,0.4398655452,0.4251919027,0.6576109586,0.5544519079,0.6381890591,0.8099852167,0.7746203941,0.7280151195,0.6585705345,0.5922827654,0.6656843239,0.8092360498,0.8348838973,0.804133602,0.864160764,0.7518903911,0.739313093,0.7220560366,0.7554696458,0.6821926213,0.6582002467,0.6961811163,0.6046482605,0.4678844159,0.3602517982,0.6055437574,0.6146370057,1.056722965,0.5098747875,0.7585645062,0.348907565,0.1538166214,0.04092318403,0.0193330328,0.01279006412,0.01220066839,0.01067702224,0.01216187501,0.02564610001,0.02636499015,0.02831169916,0.05538264307,0.07559109127,0.04839582473,0.05533629856,0.04533133749,0.03088478659,0.01220203712,0.007637565098,0.009013145009,0.01988261135,0.03330234414,0.05076782374,0.1391794127,0.4217916834,0.5944535591,0.3484639368,0.07168734038,0.02705924499,0.03356611998,0.0501655015,0.0407291434,0.01532596499,0.009091422896,0.006130121257,0.004215072718,0.006456596998,0.005671392047,0.01495222714,0.01410624582,0.01359061517,0.009619486373,0.006227783015,0.003780805264,0.01120490934,0.03772008036,0.03905753524,0.0676696571,0.07556368663,0.1813925678,0.2535478734,0.4126154798,0.1232043545,0.0274413354,0.0216972641,0.009045426442,0.008524628885,0.007622316349,0.003518695513,0.007408202465,0.005173431778,0.002169656592,0.00182165094,0.0009141991166,0.002282718675,0.006739696758,0.0261011002,0.02349805698,0.0220181898,0.02047388084,0.01096963718,0.007002862167,0.0085632398,0.01195391744,0.02946593719,0.01763115657,0.005769054986,0.008472562543,0.01305559957,0.01442488819,0.01566635253,0.01669848535,0.02093778978,0.009059791036,0.003514136263,0.002796974032,0.00215385096,0.00194658363,0.002750091625,0.003989765978,0.004394968426,0.007075906039,0.01359713356,0.01520329912,0.01198848271,0.01268020782,0.01906223486,0.04712975515,0.03974259571,0.03970780919,0.08467703826,0.2160487205,0.194860968,0.07064000938,0.05082638623,0.1178428582,0.05520008329,0.05051381161,0.0342456542,0.01767118969,0.02082926144,0.02841168799,0.02116200873,0.02386324056,0.01222282392,0.01501964417,0.02530878933,0.04036488303,0.03579619979,0.02105069071,0.007983505849,0.008389581857,0.03849914007,0.1497297059,0.3701801172,0.4074649861,0.3610878862,0.432956013,0.2323125622,0.1256699613,0.05595603328,0.03943013733,0.01445189969,0.004436723525,0.007385280508,0.007018220434,0.008821063288,0.01456213524,0.02635490222,0.03813542523,0.04815089571,0.08918678114,0.05244743248,0.02661794009,0.04040658189,0.03198813128,0.01591259559,0.02703621627,0.06202255384,0.06699409135,0.04518983378,0.08292791669,0.3177648235,0.2588607739,0.2490763181,0.3598596798,0.1028090928,0.06619446732,0.06189674957,0.03401447456,0.03671171888,0.03080869483,0.01339691383,0.007607168813,0.01052577114,0.01643917086,0.01659459398,0.01655335013,0.0150997808,0.01354421833,0.01289132915,0.01433324022,0.02290479626,0.02280435629,0.0256596526,0.05137387009,0.1081473552,0.05554635849,0.06499275579,0.0995959487,0.1451057668,0.2048451385,0.2650155569,0.2839118602,0.2896669486,0.3837433497,0.5772682231,0.6508288353,0.664451337,0.6141228625,0.6801743344,0.5928443698,0.5642184601,0.5560669994,0.4678250746,0.55732769,1.326112852,0.403152117,0.2177385174,0.06949548837,0.0533561324,0.04786461873,0.02520839501,0.01937963508,0.277605454,0.1781461434,0.07184489804,0.03882145783,0.0267828071,0.02249437685,0.04503286686,0.1270137741,0.1703760245,0.09569120251,0.02790388019,0.008971636593,0.01769233678,0.05707575662,0.1104509324,0.1609046359,0.08751995613,0.03340982782,0.02123665696,0.01975709093,0.01617699487,0.01983536185,0.02322375506,0.01999388811,0.01603443173,0.02117314282,0.1027403815,0.06279457244,0.03863838992,0.0311810897,0.01557159046,0.009073725949,0.01197299362,0.02063415502,0.04793234897,0.04683460219,0.02380975356,0.01049502446,0.007823037144,0.007382949126,0.01280530501,0.01083797277,0.0159518924,0.01488304031,0.01238357102,0.01261070028,0.01351972872,0.01085807856,0.01025445862,0.01104882082,0.01142977468,0.01109346534,0.01436727066,0.01912973792,0.02636920246,0.02359395814,0.01636080684,0.01230029257,0.01472819555,0.02130376668,0.01402405067,0.007027207271,0.006182532214,0.006115857008,0.01177575435,0.01090854911,0.01406119368,0.01424717861,0.01038495368,0.01337044104,0.01531753236,0.01423525371,0.01168488031,0.01041154613,0.01008819831,0.0172756496,0.01553139145,0.01581745995,0.01334992645,0.01077331456,0.01095544131,0.01901598684,0.01205589133,0.008455260659,0.008442768224,0.01293481375,0.01850288199,0.02547349572,0.02350718461,0.01662796677,0.01061687612,0.007657784519,0.009201380845,0.01066135891,0.01004634577,0.01207230845,0.008156027491,0.005541542529,0.01395984902,0.03187482872,0.06749145583,0.1497957194,0.06713769076,0.01816646232,0.01370871309,0.01846986632,0.02281742275,0.01876555898,0.01751834051,0.01665128843,0.01134832857,0.009355620229,0.008703349705,0.008131436437,0.01022839769,0.01339360853,0.01053367821,0.008336674925,0.01036263635,0.009686029917,0.01674579578,0.01152916428,0.00873500035,0.006596971824,0.007105704772,0.008587805059,0.006781954721,0.01243679105,0.01792599942,0.02378095824,0.01816194902,0.00756677875,0.007455443478,0.01299860659,0.01323822572,0.0136367448,0.008212530553,0.007206899317,0.009191151491,0.009320118046,0.01399644662,0.01800448733,0.01537948323,0.01266472764,0.01419717688,0.02494971576,0.0346797098,0.04432713774,0.04553036573,0.08105110244,0.2006852351,0.3600378819,0.392531524,0.4417469977,0.4065437457,0.3846079807,0.3923061164,0.4224648899,0.5546842198,0.6023177519,0.5885230847,0.4901727343,0.5070425646,0.5041983262,0.4705592867,0.4575963841,0.3843470393,0.5069402908,0.6322150679,0.5618280974,0.4611264646,0.4770709697,0.4998167764,0.4717158364,0.5140173806,0.5045524006,0.4817141859,0.4800509624,0.5472981139,0.520618408,0.4519591543,0.5171380047,0.5285725921,0.4393560136,0.4677288305,0.5669389039,0.5387276068,0.5234599934,0.4744494058,0.4178114137,0.4606038455,0.452032688,0.3981955292,0.5670419987,0.677609743,0.4976371597,0.4576325904,0.4699138722,0.4278367354,0.4116903338,0.2601507862,0.2014353516,0.2889150412,0.4676303975,0.4690177605,0.7655336987,0.5606178445,0.560673042,0.9796915305,0.7953913257,0.799858679,0.9736194358,0.8448363231,0.8139772538,1.654932144,1,1.704872365,1.02514599,0.9004065642,1,1,1,1,1,1,1,1,1,1,1,1,1,1,1,1,1,1,1,NaN,NaN],
	"ap": [NaN,0.2015634647,0.2471856863,0.2974205654,0.5067059209,0.5915053679,0.5664705162,0.3542166356,0.5436540859,0.6566057622,0.7183642204,0.4662190886,0.06401105193,0.02789197062,0.0598908856,0.0666802725,0.05341106645,0.02076418285,0.02641524964,0.06418668218,0.1055317893,0.05856308203,0.008598844283,0.003002891893,0.001245595272,0.002087348705,0.0007433520514,0.0005557729399,0.000573278707,0.002768837624,0.0009935327226,0.001843324696,0.006809236036,0.01408051886,0.01808923966,0.1062897444,0.06274049073,0.03567707405,0.04327949573,0.02962925422,0.0305062028,0.009815054074,0.006068973012,0.01409387416,0.005250787286,0.007081866953,0.008400776238,0.02015662834,0.0138262614,0.008820458655,0.02379198851,0.00713708986,0.004430928588,0.006643624251,0.002227789078,0.002707929439,0.002580562188,0.002047206954,0.00157105414,0.00939753124,0.006440406282,0.006506374764,0.009521331646,0.02717698991,0.01931810398,0.02512259168,0.005315384938,0.0088204494,0.01749135367,0.01559916765,0.02281202103,0.02313914151,0.02109575477,0.04229706876,0.01848498589,0.0267288098,0.01789806782,0.01517051041,0.01744288917,0.01360392231,0.01864883364,0.003933057424,0.003245546088,0.00134140448,0.002114606536,0.003181997971,0.00260870933,0.001005485048,0.003916700053,0.003044131653,0.007228272863,0.009324831514,0.002868029371,0.008970613192,0.03775671267,0.218066919,0.02918676114,0.02053518736,0.004269252897,0.06123253489,0.03960366159,0.1374198382,0.2060246007,0.1816434017,0.4196634471,0.2090066123,0.5112280681,0.08846621291,0.286105952,0.321907282,0.4727450423,0.459722337,0.6717777696,0.5524200231,0.493563479,0.3228431444,0.2568782698,0.1773249618,0.4693913094,0.4366426018,0.5062839407,0.4029543408,0.485228508,0.5210341646,0.5591691038,0.7218111442,0.170084087,0.3066533127,0.2664724379,0.3031213099,0.09737080054,0.5920261957,0.1786595647,0.6779988732,0.930554037,0.7516829033,0.5823134618,0.4754114217,0.08931519763,0.02055159058,0.006774144321,0.007495754245,0.01110112721,0.003653621553,0.01004309512,0.008264354774,0.01316060571,0.01283727539,0.03820194418,0.0739930007,0.04072977189,0.02507932163,0.04349602441,0.01153853133,0.005655495103,0.003142725408,0.007945071534,0.01412151672,0.01434378251,0.01695133608,0.07552814068,0.2695905343,0.5240213649,0.5866745167,0.06947752188,0.01699580307,0.04911422131,0.02012823541,0.0337416311,0.0077209284,0.006783991616,0.00256871625,0.004838018407,0.002424161477,0.00610575805,0.01868102724,0.007928466665,0.00942603227,0.01246168845,0.001482221313,0.005146973762,0.02922888643,0.02815003566,0.0116047104,0.02972413748,0.07906579537,0.1570420979,0.3194520656,0.1842263293,0.1369787486,0.024663671,0.01059091483,0.007061809592,0.01296284737,0.004833514644,0.004310176793,0.007885220726,0.002835587615,0.001445363581,0.001005635153,0.002084902151,0.004611028728,0.01139089283,0.01980265855,0.02196156444,0.005554390825,0.01378015893,0.003458350375,0.003501558925,0.004365629017,0.003232052635,0.0244642732,0.01337799133,0.002065300864,0.00721079921,0.007087184773,0.0110330251,0.009279502147,0.01611452979,0.01099623075,0.002791759451,0.0008889561943,0.001668953569,0.00133099364,0.0009999064503,0.0008413609108,0.002334917129,0.002822286959,0.002381134986,0.009267748599,0.00446539774,0.005008983039,0.007680820443,0.008032596678,0.03288434637,0.05043291059,0.008966656401,0.084806152,0.04654069077,0.7184875576,0.05013706113,0.05770149091,0.1291754959,0.01320832859,0.03816574182,0.02471404137,0.01328080363,0.03497122601,0.02095336746,0.03229542657,0.01165069623,0.004633369903,0.00538112408,0.006207402335,0.03375828056,0.01013624354,0.01816877159,0.006487005159,0.006545184578,0.02540608332,0.249135636,0.099098864,0.07858888335,0.1511972223,0.3700219251,0.3237577521,0.04005493138,0.01651665327,0.01389250173,0.01676492776,0.0008133530834,0.005591628512,0.001789440184,0.004794117897,0.005426528064,0.02098299505,0.04629661732,0.06296734267,0.03065478773,0.02772876082,0.0120536699,0.04030009884,0.01539101249,0.004738330812,0.01635421952,0.03700365425,0.059318293,0.01332920463,0.06347420488,0.6633148408,0.2733207251,0.07761241892,0.1413683977,0.0674892026,0.04423642556,0.0448841117,0.01363471543,0.02868117632,0.0243705374,0.004332542711,0.004486147857,0.008390951218,0.01480650099,0.013576903,0.01371951321,0.008201497064,0.008947752019,0.006018497324,0.01208122495,0.009851523366,0.009077341367,0.02356385644,0.02569986296,0.06777094664,0.05139558328,0.01133983868,0.1944890508,0.02597037351,0.2678822575,0.1602351052,0.1037703856,0.1132110009,0.2078323926,0.543847996,0.5179449375,0.3022695119,0.4451416905,0.3776098681,0.2146029018,0.2010730647,0.1909967517,0.2075404208,0.313130723,0.2599106937,0.4924183977,0.01378003418,0.04523082648,0.03169477687,0.04249000577,0.01010590266,0.02174012884,0.07073842528,0.09572086655,0.01610059481,0.0195637175,0.02332484669,0.01628276564,0.03665565295,0.1180524661,0.19032735,0.05013048399,0.01855309356,0.002211130054,0.01284509032,0.06361038351,0.04241100331,0.07680697754,0.0409185256,0.00914098666,0.01210525643,0.009582484702,0.0127579934,0.009389901076,0.02224415063,0.005600190008,0.009378286936,0.01942022045,0.01241792057,0.04376423346,0.02201619962,0.008657276432,0.01294087432,0.005217970932,0.00781390055,0.01387021155,0.02536852335,0.03386790765,0.01160697255,0.004166310206,0.005103844823,0.007365255835,0.008897612408,0.006012317844,0.01006014182,0.005714185774,0.007769271633,0.007450172986,0.008537854072,0.006260056283,0.006009994344,0.006499568139,0.00371990807,0.004887437922,0.007898126079,0.008801690526,0.0188312464,0.01038386132,0.009935568238,0.00757066242,0.008429778304,0.008581202095,0.005727372704,0.004552032145,0.00158072689,0.002762124277,0.002460555167,0.009483458501,0.00269193022,0.01162217714,0.005292494205,0.003284990201,0.007343383683,0.01007850454,0.006854162761,0.009243229561,0.003014964598,0.01627521074,0.006509096226,0.005489509725,0.002366305144,0.006983124005,0.01401112255,0.004955758163,0.007969511395,0.003850599648,0.0058514693,0.003005622632,0.004174263851,0.01640622765,0.009412819618,0.0183672314,0.005438345244,0.00232836514,0.00096663075,0.003513265814,0.00655050415,0.00572128105,0.002986618564,0.003584400854,0.006235860513,0.0314172527,0.03054869445,0.06224745671,0.04585379933,0.01214776694,0.007810805377,0.00630786239,0.009774710189,0.01080352003,0.01690618566,0.01609842468,0.003640307687,0.001912510136,0.00457258524,0.006124198754,0.002819994053,0.01036649894,0.004091610749,0.004213737618,0.006032532894,0.004182293474,0.006403639549,0.01586930589,0.006162034449,0.002049581279,0.006691963571,0.004066722064,0.002060612356,0.005130110124,0.0157756472,0.02641477572,0.01340816536,0.00594008865,0.001861746864,0.005362403702,0.007810484411,0.006426525443,0.005282445775,0.00828843126,0.003617811462,0.004476787038,0.008445012283,0.01690510751,0.007482950214,0.007147531493,0.007319154521,0.01927576836,0.03805932768,0.02588804682,0.01895149617,0.09444292119,0.1619940843,0.2250064102,0.07164986367,0.1493322735,0.0945536819,0.06634555513,0.1163298446,0.1404680577,0.265392566,0.3615014749,0.4104235925,0.2908466037,0.3496969258,0.3970667352,0.2293961432,0.2740792117,0.1645997549,0.5117213579,0.2575368267,0.14607816,0.2895050989,0.2226930933,0.3364362195,0.1047829435,0.5726444154,0.1938570848,0.1931569784,0.3914957453,0.1377944551,0.2737602027,0.2451368858,0.1935391996,0.2333166323,0.2787399072,0.2187423328,0.2974597024,0.3256476944,0.2317042501,0.1854670517,0.3013134506,0.2311213188,0.1852968236,0.2054469944,0.2393844561,0.3103834968,0.3555261737,0.2672123468,0.2429885657,0.2378176058,0.1222841129,0.1476051023,0.1040537981,0.1483405407,0.2638914271,0.3219143411,0.3379447003,0.1736873053,0.4170633183,0.6042117523,0.3413622942,0.6804514188,0.203030888,0.4548200727,0.500002633,1,1,0.5000011874,1,1,1,1,1,1,1,1,1,1,1,1,1,1,1,1,1,1,1,1,NaN,NaN],
	"pwr": [NaN,1.395742295e-07,8.75471272e-08,1.426662493e-07,1.001219316e-07,2.66197345e-07,1.818361022e-06,1.168673869e-05,8.599338155e-05,0.0001486607556,0.0006507175184,0.002476102379,0.01465527042,0.01111938262,0.008771833492,0.006649395829,0.007223850814,0.006218604179,0.006988551826,0.003677512823,0.00145280253,0.002162602197,0.00706609791,0.01030745455,0.01240937041,0.01259455887,0.01056242279,0.01178814794,0.01100214276,0.01308984832,0.01478525911,0.01421654597,0.009480633225,0.00421071723,0.002706520311,0.002098843312,0.02096055619,0.01489129242,0.007114595324,0.005793077111,0.009196593426,0.00631848577,0.005324422168,0.004327450604,0.004306319274,0.004009594549,0.002827132022,0.003216764312,0.005194791327,0.008379205416,0.00761089618,0.007043557053,0.007552727855,0.007834637218,0.006994865872,0.006251627189,0.006945111615,0.007964822183,0.008103660195,0.007143983394,0.004032596987,0.003791213737,0.002955921634,0.002561419276,0.007987126531,0.007091442469,0.005977064614,0.008121981624,0.007038353496,0.004260062591,0.003496337067,0.002402978705,0.002610955167,0.002367112757,0.001455530715,0.001462936468,0.001147684724,0.0008894341858,0.001188195382,0.00198011923,0.00202070908,0.002722952797,0.00232621923,0.002035023004,0.001898503057,0.002056398267,0.002019183013,0.001920435265,0.001705940177,0.001365921824,0.001366806645,0.001450488786,0.001194497214,0.0008341054133,0.0002734313176,8.24372284e-05,0.0004388464486,0.001126254659,0.00221594961,0.001322872202,0.0003981650396,7.48406712e-05,9.87884167e-05,9.56745674e-05,4.639103436e-05,5.197874683e-05,2.448725035e-05,1.303143715e-05,8.944269719e-06,2.440138298e-06,4.273855253e-07,2.241133983e-06,6.768245516e-06,1.184203379e-05,3.04535284e-05,4.021977532e-05,3.740019805e-05,3.366978661e-05,3.279295492e-05,1.141228199e-05,1.646033568e-05,1.145988722e-05,6.109894306e-06,6.821910683e-06,1.977301137e-06,1.573139699e-06,1.505792487e-06,7.321612281e-07,6.607187503e-07,3.817338296e-07,1.592770059e-06,9.162079853e-07,2.414871224e-07,4.569028517e-07,2.44078577e-07,6.312583791e-07,0.0002173392806,0.000196611269,0.01024326423,0.03266688683,0.05306472213,0.03229807219,0.02499589674,0.01626038573,0.01240288282,0.0101595696,0.01010641869,0.01051260227,0.008356611871,0.002507682602,0.006374851554,0.009334802616,0.01918722307,0.02008605493,0.02293590423,0.02424404606,0.02096735302,0.01443328139,0.007369393931,0.003932059465,0.002885995482,0.0008410929272,0.0005496045168,0.0009725321318,0.02031129197,0.07441908198,0.120508024,0.1398229896,0.06433577911,0.07068214146,0.0416542141,0.05684286461,0.04358167774,0.03923992971,0.03407064316,0.01967228506,0.0128337469,0.0106845165,0.01087178606,0.01496764805,0.01564804646,0.01492612489,0.0137573275,0.01898607888,0.008974637946,0.003778158148,0.003292955431,0.0009182969536,0.003303195644,0.003443872667,0.02794206759,0.03481950169,0.04135365813,0.03637390899,0.04479066742,0.06269478647,0.06066547132,0.04307904547,0.0392804086,0.04821705981,0.04435505369,0.04909951886,0.05126003417,0.03622558916,0.01378388397,0.02757663,0.02001025245,0.01257002244,0.01317334998,0.009163458871,0.009321596782,0.006834300372,0.01482462261,0.03170218934,0.04000210498,0.0509671106,0.05247459279,0.04788566144,0.03311152955,0.03034406792,0.04179924129,0.04508091325,0.04019709156,0.03473757383,0.03074353729,0.02494444741,0.02062311304,0.0149440898,0.01130009761,0.005679584743,0.002593435484,0.002099872512,0.001708278717,0.001456665584,0.001099576961,0.002901786126,0.01822486142,0.01404449858,0.01114117045,0.0009484660576,0.01559267749,0.05183135556,0.07891149192,0.06435268009,0.03550441708,0.01799868742,0.02275897854,0.0246841354,0.0149713943,0.01768081293,0.02257747445,0.02334469189,0.01370655303,0.005969239337,0.003328431388,0.00145002226,0.002901106944,0.009093693247,0.01209716577,0.008425195301,0.0005936129412,0.0001711680359,0.0004860059469,0.002815785949,0.003737553394,0.001192860014,0.01176479151,0.01092798532,0.02023848138,0.01190630598,0.01710294156,0.02043159845,0.01197160304,0.01112675296,0.006338940406,0.00364564876,0.002252093957,0.003402182962,0.002063980475,0.0009348140669,0.001603355818,0.0006772023401,0.001004052208,0.001457123217,0.001275145078,0.0003994091239,0.0004317565602,0.001364064797,0.001334504028,5.001581454e-05,0.0001418992691,0.01179106824,0.009949470235,0.005500807735,0.009967183578,0.01028607646,0.005168875924,0.004308350691,0.003707424092,0.00517282073,0.004826020527,0.00426105609,0.004522556366,0.003911208593,0.002964118986,0.003329581236,0.003088484921,0.002528796199,0.001941025959,0.002166735227,0.002341822455,0.001488964986,0.0008496513965,0.0004991508597,0.001173924235,0.004610976052,0.0008644510422,0.001084733819,7.295654479e-05,4.371344492e-05,4.841635944e-05,3.950263699e-05,3.473564494e-05,2.16203533e-05,1.839237031e-05,1.340534981e-05,9.333156636e-06,6.030609611e-06,6.736931776e-06,2.109804931e-06,1.125367444e-06,6.090255782e-07,4.912111888e-07,3.532794013e-07,3.165501003e-06,0.001314541026,0.001521522445,0.001069259959,0.00172469113,0.003151411743,0.005352953015,0.002543969141,0.009654271556,0.0212621773,0.0137903697,0.01129006108,0.01116819011,0.008608809048,0.006272289234,0.003743540475,0.006916517059,0.01832850239,0.03410629964,0.03015842421,0.02043358214,0.01214246046,0.007073396762,0.005463905895,0.009326169157,0.008837220515,0.006482232281,0.004175859085,0.004729258452,0.004603808415,0.00446702676,0.003683688052,0.002850827236,0.003666271664,0.01105210796,0.02220929433,0.01652243909,0.01456746607,0.01494525987,0.0156387508,0.009615596049,0.004955010724,0.00278400101,0.003657111758,0.004416914611,0.004572227455,0.004311705623,0.004176812904,0.003459216478,0.003748805268,0.003016971104,0.003427695917,0.004124533524,0.003631845816,0.002911625694,0.0027934926,0.002287254969,0.002387501017,0.003018855143,0.003404187809,0.002562473334,0.002187048296,0.001453107059,0.002104455507,0.002555731245,0.00258270921,0.001619354216,0.001787821559,0.001759539148,0.002208215002,0.002183325501,0.0021224459,0.00203989167,0.001895316762,0.001499105492,0.001953090836,0.001465072192,0.001056287998,0.001054002509,0.001346694327,0.001113555781,0.001179957498,0.0009540860195,0.0007110560521,0.0009906826655,0.00124289417,0.001515777177,0.001459862814,0.001244725659,0.00101567222,0.001490312887,0.001528551318,0.00122018293,0.0007477076924,0.0003907335082,0.0002644856613,0.0003464277327,0.0005837606045,0.0005421311065,0.0004692395673,0.0003184103595,0.0003464961041,0.000332782026,0.0005806211694,0.0005746859392,0.0005875797071,0.0002568860396,8.682255201e-05,3.657233378e-05,7.076307388e-05,0.0001606135435,0.0002084510334,0.0001888355827,0.0001305746293,0.0001528721593,0.0001291502876,0.0001386854877,0.000256523376,0.0002912628252,0.0002607908685,0.0002855621115,0.0001726185133,0.0002060913698,0.000233698563,0.0002679746903,0.0001985545616,0.0001509412931,0.0001640570996,0.0002131147632,0.0003666067132,0.0004179906916,0.0003888828218,0.0003704419363,0.0003944271118,0.0003935310571,0.0003455550044,0.0002213696088,0.0004510461796,0.0006180317395,0.0006751749048,0.0004003410267,0.000237651002,0.0001218464447,0.0001106688695,8.810150349e-05,7.965056508e-05,6.216419e-05,4.976233457e-05,2.694887921e-05,1.969319268e-05,2.054872942e-05,2.109541898e-05,1.383901079e-05,8.654469498e-06,4.342279691e-06,8.472641153e-06,5.376526742e-06,1.7878525e-06,4.543506473e-07,4.179828631e-07,5.22884858e-07,3.337643597e-07,4.338702922e-07,2.406401464e-07,1.874380922e-07,2.500463319e-07,1.403771735e-07,1.381397132e-07,2.014405404e-07,1.386498065e-07,2.715576646e-07,1.686247514e-07,1.683830034e-07,1.124405701e-07,9.396912731e-08,3.45999151e-07,1.426830361e-07,6.679024485e-08,1.229959433e-07,1.455848674e-07,1.656318394e-07,1.07861649e-07,1.19376814e-07,1.555202867e-07,1.506342375e-07,2.131998454e-07,1.591697516e-07,2.081077629e-07,1.593476892e-07,1.394562689e-07,1.393245002e-07,1.54308152e-07,1.545748532e-07,9.865114264e-08,1.61957514e-07,3.395685275e-07,1.698331179e-07,1.826506092e-07,1.782289691e-07,1.306740429e-07,1.842277051e-07,2.577175985e-07,1.204196602e-07,1.532813568e-07,1.521719521e-07,2.272711191e-07,1.022028783e-07,5.741775392e-08,6.538715078e-08,3.228830122e-08,1.109168354e-08,3.039802207e-09,1.306464074e-09,7.965741312e-10,5.619101754e-10,1.764835016e-10,1.366614648e-10,1.512482528e-11,5.706184082e-11,1.879144959e-11,2.108308978e-11,0,0,0,0,0,0,0,0,0,0,0,0,0,0,0,0,0,0,0,0,0,0,0,NaN,NaN],
	"sr": 16000,
	"range": [1,185692],
	"minf0": 63.1883,
	"maxf0": 706.3069,
	"thresh": 0.1,
	"relflag": 1,
	"hop": 320,
	"bufsize": 10000,
	"wsize": 640,
	"lpf": 4000,
	"shift": 0,
	"plotthreshold": 0.2
}
