{
    "f0": [
        35.374360272064933,
        46.706352068736365,
        46.17903470435936,
        46.351293276608516,
        45.169635767385863,
        45.835367686761316,
        46.308239839730192,
        43.78207662547333,
        42.98291310195988,
        40.45562560536311,
        39.456674551321655,
        37.972138230351042,
        37.239933208018051,
        39.851761490288467,
        37.892675652601326,
        34.843353114515203,
        62.42399316248877,
        45.498281263730135,
        45.773157416890832,
        46.043743135439797,
        45.775697402132501,
        50.05013267423783,
        48.710086304052965,
        49.687346299251459,
        50.356051152919818,
        50.417115197355713,
        53.390290673245197,
        53.622860071507006,
        52.733339795651901,
        52.674330116646672,
        55.123942972038208,
        57.269519153942625,
        58.007343592894813,
        58.565076341477976,
        58.828467223086193,
        59.087912933071692,
        59.343523690347851,
        59.421419929096899,
        59.404681318051892,
        59.387925547698188,
        59.197159406874029,
        59.264719172729372,
        59.281572483241241,
        59.343599224021119,
        59.555167401307607,
        59.76418434614731,
        59.970708836813017,
        60.022297096196695,
        60.073730109939049,
        60.039292548725356,
        60.044536359105905,
        60.04977858164677,
        59.927816097074619,
        59.999520357324016,
        60.070926748539129,
        60.821046236250709,
        61.560466146892715,
        61.910022135282233,
        61.820127040635995,
        61.420021958615152,
        61.341983521178548,
        61.440693365991294,
        61.577195471247919,
        62.036443457491032,
        62.669635185911872,
        62.951329774596971,
        63.106974664728028,
        63.073604527531238,
        63.009252247740534,
        62.940165381525048,
        62.864309552576337,
        62.93082323772817,
        62.967210543865363,
        62.915398819607283,
        62.857537583631789,
        62.647514808591431,
        62.599089910888068,
        62.351866581485197,
        62.133498323440712,
        62.238742867323985,
        62.413583034791742,
        62.553029912237633,
        62.534062503634736,
        62.675975780753987,
        62.596642814350069,
        62.538996871651506,
        62.481158340333593,
        62.47649100927849,
        62.614045059358617,
        62.542557590306693,
        62.544262780112355,
        62.390726569294166,
        62.48250209147735,
        62.473601130300878,
        62.509133929813395,
        62.595700685645525,
        62.561797857327655,
        62.382209397644303,
        62.32530226929542,
        62.285519869568468,
        62.387312098067042,
        62.338225220912136,
        62.337189542704294,
        62.557880445616441,
        62.775796880793791,
        62.944290266951505,
        63.081891399214001,
        63.218407475141035,
        63.267545957521662,
        63.18563634108741,
        63.256374539055479,
        63.238539496723199,
        63.16499860467799,
        63.061956972898301,
        63.14524721242789,
        62.598917871395457,
        62.015511829746345,
        60.75029917348968,
        60.494121014359472,
        60.973310705992802,
        61.275513977901113,
        61.303615887386954,
        61.116678043614598,
        61.230412991048283,
        61.343405620784957,
        61.281673619040525,
        61.219720706589754,
        61.329813437174188,
        61.108410093055042,
        61.034476141356421,
        61.215259685257152,
        60.03641110062167,
        59.740909418613221,
        59.632809166494411,
        59.657789080431911,
        59.501293089676423,
        59.238086905300186,
        59.294302976896887,
        59.339876856976204,
        59.390546768772353,
        59.629357912135909,
        59.944568208674795,
        59.508345879566221,
        59.676487496647667,
        59.707312345124762,
        0.0,
        0.0,
        49.628705580402944,
        61.132596929721728,
        61.1326044914872,
        61.132608272368699,
        61.132608272368699,
        61.084822892713383,
        61.036905188768827,
        61.119396614878895,
        61.07342718638715,
        61.06351679990172,
        61.073717567270378,
        60.896574114691944,
        61.000002936981765,
        60.641467751525276,
        60.298940174762627,
        60.280296420135954,
        60.172897318954064,
        59.93553644366596,
        59.586554193345393,
        60.476499724118291,
        60.394138990515927,
        60.006893883418172,
        59.939488590805688,
        60.386608672065123,
        59.433040149924182,
        59.348288470623473,
        59.649469890445658,
        59.759444582284225,
        59.611662810517963,
        59.493459796049748,
        59.402644456177917,
        59.435586731673922,
        59.468468490025153,
        59.51920825577217,
        59.512074743073867,
        59.504935157593465,
        59.840626343751282,
        59.966879171684248,
        59.962979825560772,
        60.002658310506902,
        60.042246063483688,
        60.081741456818939,
        59.947151033738621,
        59.842158972939636,
        59.77431250006083,
        59.513246216011652,
        59.248182687319613,
        59.151257536271011,
        59.646386798690045,
        59.891542457817096,
        59.900385956180827,
        59.852007435453942,
        59.803493277366492,
        59.683876474063688,
        59.690090482491165,
        59.726162556923775,
        59.747266895703021,
        59.775787529070179,
        59.800545803436336,
        59.861396316443034,
        59.863309751502811,
        59.859934700990721,
        59.856558925659584,
        59.853182558685198,
        59.849805533100977,
        59.806131963929161,
        59.824026324679551,
        59.736632850611585,
        59.783741589873543,
        59.431971755304986,
        59.102336011588214,
        59.430314775605346,
        59.675899041583889,
        59.918049239731531,
        61.43377219790176,
        61.543288471849735,
        61.747988736224144,
        61.743544946669964,
        61.857308244482518,
        61.961174978023678,
        61.894976378010121,
        61.992693925134496,
        62.056725789521494,
        62.010578846491569,
        62.054939631966384,
        62.042180311545096,
        61.99262014397884,
        61.942915859162966,
        61.821681290083419,
        61.736453340247003,
        61.650807469589658,
        61.736997731454082,
        61.667042608386744,
        61.781368193631053,
        61.894940197987573,
        61.833773971726657,
        61.486701685517524,
        62.459939717115617,
        62.664078281529441,
        62.696722303397152,
        62.650133242442621,
        62.549230793719431,
        62.511972496830211,
        62.45931075298158,
        62.414983036107948,
        62.359339682111056,
        62.309139432693314,
        62.29987301588433,
        62.312860868573509,
        62.368047712418836,
        62.489051535558701,
        62.748738506709017,
        63.00458769801336,
        63.20399915284387,
        63.375452621390068,
        63.545224677410545,
        63.487274586528621,
        63.459223008578782,
        63.48688993377759,
        63.555038793915415,
        63.673978508878996,
        63.666269311168577,
        63.618475703404748,
        63.607958053688932,
        63.629640248572947,
        63.628795297655529,
        63.593271574356464,
        63.592031015498577,
        63.606631668946456,
        63.563833178407009,
        63.599484591848402,
        63.632505595202353,
        63.627246140690858,
        63.632669327234566,
        63.654861819454304,
        63.667695749884601,
        63.65894251811995,
        63.632535047769288,
        63.600790240822114,
        63.567798989469452,
        63.555662054792222,
        63.54351660546434,
        63.569342006111647,
        63.594288915760636,
        63.638283937473886,
        63.6733137323248,
        63.645751993061033,
        63.627562218818952,
        63.630187161540171,
        63.685350577530684,
        63.714172581204423,
        63.680157712976587,
        63.620443427825407,
        63.610349942012292,
        63.681305469219211,
        63.789056699631494,
        63.805481180378095,
        63.777780182155425,
        63.73181749217035,
        63.694866972737174,
        63.616424148399702,
        63.624558438496912,
        63.666702363016867,
        63.662048201665883,
        63.64329791992693,
        63.64931802432271,
        63.63467309517506,
        63.577610169594195,
        63.520358537663576,
        63.479714728829244,
        63.489752551631909,
        63.525462762948678,
        63.577432784263458,
        63.629248926650774,
        63.652358344922035,
        63.645626070520855,
        63.63141844390266,
        63.555744285184687,
        63.509408501511295,
        63.448078660632248,
        63.468608372690241,
        63.576907237260869,
        63.753198921030091,
        63.82191598896982,
        63.769139292579339,
        63.756094281873665,
        63.675562716060178,
        63.56456136292217,
        63.57165708079296,
        63.656320271279824,
        63.640470393830036,
        63.664462027323765,
        63.752787579844117,
        63.743994336509601,
        63.577833567041083,
        63.489689859003533,
        63.505666753634017,
        63.521625677850977,
        63.524352457617063,
        63.578267114544396,
        63.685040473353126,
        63.735559481105931,
        63.739427610591946,
        63.679979770242028,
        63.514970914630844,
        63.086224283988372,
        63.12436567524523,
        62.88136460024446,
        63.358910914740576,
        63.489245757180676,
        63.611372833364427,
        63.386479360448718,
        62.600765170673256,
        62.415276341120169,
        61.908448712734128,
        62.063361152814551,
        62.295911758025937,
        45.350186470692037,
        45.212915022140415,
        45.417374171077306,
        47.006419445950712,
        46.949979182796071,
        46.693928623536671,
        46.772589530140742,
        46.850895777907169,
        47.306040282531448,
        48.039854652516397,
        46.668715945760923,
        0.0,
        35.392199128891541,
        46.155457298113681,
        50.785396724240229,
        43.090950781337767,
        46.660527096980125,
        49.790694110650776,
        45.430131856085978,
        45.502213604692997,
        45.046677503900099,
        0.0,
        0.0,
        0.0,
        0.0,
        0.0,
        0.0,
        0.0,
        0.0,
        0.0,
        0.0,
        0.0,
        0.0,
        0.0,
        0.0,
        0.0,
        0.0,
        0.0,
        0.0,
        0.0,
        0.0,
        0.0,
        0.0,
        0.0,
        0.0,
        0.0,
        0.0,
        0.0,
        0.0,
        0.0,
        0.0,
        0.0
    ],
    "time": [
        0.02,
        0.040000000000000001,
        0.059999999999999998,
        0.080000000000000002,
        0.10000000000000001,
        0.12,
        0.14000000000000001,
        0.16,
        0.17999999999999999,
        0.20000000000000001,
        0.22,
        0.23999999999999999,
        0.26000000000000001,
        0.28000000000000003,
        0.29999999999999999,
        0.32000000000000001,
        0.34000000000000002,
        0.35999999999999999,
        0.38,
        0.40000000000000002,
        0.41999999999999998,
        0.44,
        0.46000000000000002,
        0.47999999999999998,
        0.5,
        0.52000000000000002,
        0.54000000000000004,
        0.56000000000000005,
        0.57999999999999996,
        0.59999999999999998,
        0.62,
        0.64000000000000001,
        0.66000000000000003,
        0.68000000000000005,
        0.69999999999999996,
        0.71999999999999997,
        0.73999999999999999,
        0.76000000000000001,
        0.78000000000000003,
        0.80000000000000004,
        0.81999999999999995,
        0.83999999999999997,
        0.85999999999999999,
        0.88,
        0.90000000000000002,
        0.92000000000000004,
        0.93999999999999995,
        0.95999999999999996,
        0.97999999999999998,
        1.0,
        1.02,
        1.04,
        1.0600000000000001,
        1.0800000000000001,
        1.1000000000000001,
        1.1200000000000001,
        1.1399999999999999,
        1.1599999999999999,
        1.1799999999999999,
        1.2,
        1.22,
        1.24,
        1.26,
        1.28,
        1.3,
        1.3200000000000001,
        1.3400000000000001,
        1.3600000000000001,
        1.3799999999999999,
        1.3999999999999999,
        1.4199999999999999,
        1.4399999999999999,
        1.46,
        1.48,
        1.5,
        1.52,
        1.54,
        1.5600000000000001,
        1.5800000000000001,
        1.6000000000000001,
        1.6200000000000001,
        1.6399999999999999,
        1.6599999999999999,
        1.6799999999999999,
        1.7,
        1.72,
        1.74,
        1.76,
        1.78,
        1.8,
        1.8200000000000001,
        1.8400000000000001,
        1.8600000000000001,
        1.8799999999999999,
        1.8999999999999999,
        1.9199999999999999,
        1.9399999999999999,
        1.96,
        1.98,
        2.0,
        2.02,
        2.04,
        2.0600000000000001,
        2.0800000000000001,
        2.1000000000000001,
        2.1200000000000001,
        2.1400000000000001,
        2.1600000000000001,
        2.1800000000000002,
        2.2000000000000002,
        2.2200000000000002,
        2.2400000000000002,
        2.2599999999999998,
        2.2799999999999998,
        2.2999999999999998,
        2.3199999999999998,
        2.3399999999999999,
        2.3599999999999999,
        2.3799999999999999,
        2.3999999999999999,
        2.4199999999999999,
        2.4399999999999999,
        2.46,
        2.48,
        2.5,
        2.52,
        2.54,
        2.5600000000000001,
        2.5800000000000001,
        2.6000000000000001,
        2.6200000000000001,
        2.6400000000000001,
        2.6600000000000001,
        2.6800000000000002,
        2.7000000000000002,
        2.7200000000000002,
        2.7400000000000002,
        2.7599999999999998,
        2.7799999999999998,
        2.7999999999999998,
        2.8199999999999998,
        2.8399999999999999,
        2.8599999999999999,
        2.8799999999999999,
        2.8999999999999999,
        2.9199999999999999,
        2.9399999999999999,
        2.96,
        2.98,
        3.0,
        3.02,
        3.04,
        3.0600000000000001,
        3.0800000000000001,
        3.1000000000000001,
        3.1200000000000001,
        3.1400000000000001,
        3.1600000000000001,
        3.1800000000000002,
        3.2000000000000002,
        3.2200000000000002,
        3.2400000000000002,
        3.2599999999999998,
        3.2799999999999998,
        3.2999999999999998,
        3.3199999999999998,
        3.3399999999999999,
        3.3599999999999999,
        3.3799999999999999,
        3.3999999999999999,
        3.4199999999999999,
        3.4399999999999999,
        3.46,
        3.48,
        3.5,
        3.52,
        3.54,
        3.5600000000000001,
        3.5800000000000001,
        3.6000000000000001,
        3.6200000000000001,
        3.6400000000000001,
        3.6600000000000001,
        3.6800000000000002,
        3.7000000000000002,
        3.7200000000000002,
        3.7400000000000002,
        3.7599999999999998,
        3.7799999999999998,
        3.7999999999999998,
        3.8199999999999998,
        3.8399999999999999,
        3.8599999999999999,
        3.8799999999999999,
        3.8999999999999999,
        3.9199999999999999,
        3.9399999999999999,
        3.96,
        3.98,
        4.0,
        4.0199999999999996,
        4.04,
        4.0599999999999996,
        4.0800000000000001,
        4.0999999999999996,
        4.1200000000000001,
        4.1399999999999997,
        4.1600000000000001,
        4.1799999999999997,
        4.2000000000000002,
        4.2199999999999998,
        4.2400000000000002,
        4.2599999999999998,
        4.2800000000000002,
        4.2999999999999998,
        4.3200000000000003,
        4.3399999999999999,
        4.3600000000000003,
        4.3799999999999999,
        4.4000000000000004,
        4.4199999999999999,
        4.4400000000000004,
        4.46,
        4.4800000000000004,
        4.5,
        4.5199999999999996,
        4.54,
        4.5599999999999996,
        4.5800000000000001,
        4.5999999999999996,
        4.6200000000000001,
        4.6399999999999997,
        4.6600000000000001,
        4.6799999999999997,
        4.7000000000000002,
        4.7199999999999998,
        4.7400000000000002,
        4.7599999999999998,
        4.7800000000000002,
        4.7999999999999998,
        4.8200000000000003,
        4.8399999999999999,
        4.8600000000000003,
        4.8799999999999999,
        4.9000000000000004,
        4.9199999999999999,
        4.9400000000000004,
        4.96,
        4.9800000000000004,
        5.0,
        5.0199999999999996,
        5.04,
        5.0599999999999996,
        5.0800000000000001,
        5.0999999999999996,
        5.1200000000000001,
        5.1399999999999997,
        5.1600000000000001,
        5.1799999999999997,
        5.2000000000000002,
        5.2199999999999998,
        5.2400000000000002,
        5.2599999999999998,
        5.2800000000000002,
        5.2999999999999998,
        5.3200000000000003,
        5.3399999999999999,
        5.3600000000000003,
        5.3799999999999999,
        5.4000000000000004,
        5.4199999999999999,
        5.4400000000000004,
        5.46,
        5.4800000000000004,
        5.5,
        5.5199999999999996,
        5.54,
        5.5599999999999996,
        5.5800000000000001,
        5.5999999999999996,
        5.6200000000000001,
        5.6399999999999997,
        5.6600000000000001,
        5.6799999999999997,
        5.7000000000000002,
        5.7199999999999998,
        5.7400000000000002,
        5.7599999999999998,
        5.7800000000000002,
        5.7999999999999998,
        5.8200000000000003,
        5.8399999999999999,
        5.8600000000000003,
        5.8799999999999999,
        5.9000000000000004,
        5.9199999999999999,
        5.9400000000000004,
        5.96,
        5.9800000000000004,
        6.0,
        6.0199999999999996,
        6.04,
        6.0599999999999996,
        6.0800000000000001,
        6.0999999999999996,
        6.1200000000000001,
        6.1399999999999997,
        6.1600000000000001,
        6.1799999999999997,
        6.2000000000000002,
        6.2199999999999998,
        6.2400000000000002,
        6.2599999999999998,
        6.2800000000000002,
        6.2999999999999998,
        6.3200000000000003,
        6.3399999999999999,
        6.3600000000000003,
        6.3799999999999999,
        6.4000000000000004,
        6.4199999999999999,
        6.4400000000000004,
        6.46,
        6.4800000000000004,
        6.5,
        6.5199999999999996,
        6.54,
        6.5599999999999996,
        6.5800000000000001,
        6.5999999999999996,
        6.6200000000000001,
        6.6399999999999997,
        6.6600000000000001,
        6.6799999999999997,
        6.7000000000000002,
        6.7199999999999998,
        6.7400000000000002,
        6.7599999999999998,
        6.7800000000000002,
        6.7999999999999998,
        6.8200000000000003,
        6.8399999999999999,
        6.8600000000000003,
        6.8799999999999999,
        6.9000000000000004,
        6.9199999999999999,
        6.9400000000000004,
        6.96,
        6.9800000000000004,
        7.0,
        7.0199999999999996,
        7.04,
        7.0599999999999996,
        7.0800000000000001,
        7.0999999999999996,
        7.1200000000000001,
        7.1399999999999997,
        7.1600000000000001,
        7.1799999999999997,
        7.2000000000000002,
        7.2199999999999998,
        7.2400000000000002,
        7.2599999999999998,
        7.2800000000000002,
        7.2999999999999998,
        7.3200000000000003,
        7.3399999999999999,
        7.3600000000000003,
        7.3799999999999999,
        7.4000000000000004,
        7.4199999999999999,
        7.4400000000000004,
        7.46,
        7.4800000000000004,
        7.5,
        7.5199999999999996,
        7.54,
        7.5599999999999996,
        7.5800000000000001,
        7.5999999999999996,
        7.6200000000000001,
        7.6399999999999997,
        7.6600000000000001,
        7.6799999999999997,
        7.7000000000000002,
        7.7199999999999998,
        7.7400000000000002,
        7.7599999999999998,
        7.7800000000000002,
        7.7999999999999998,
        7.8200000000000003,
        7.8399999999999999,
        7.8600000000000003,
        7.8799999999999999,
        7.9000000000000004,
        7.9199999999999999,
        7.9400000000000004,
        7.96,
        7.9800000000000004,
        8.0,
        8.0199999999999996,
        8.0399999999999991,
        8.0600000000000005,
        8.0800000000000001,
        8.0999999999999996,
        8.1199999999999992,
        8.1400000000000006,
        8.1600000000000001,
        8.1799999999999997,
        8.1999999999999993,
        8.2200000000000006,
        8.2400000000000002,
        8.2599999999999998,
        8.2799999999999994,
        8.3000000000000007,
        8.3200000000000003
    ]
}