{
    "DU": 8,
    "DV": 323,
    "F-measure": 0.8850393700787401,
    "F-measure Chroma": 0.9196850393700787,
    "FN": 0,
    "FNC": 0,
    "FNCch": 0,
    "FNI": 0,
    "FNIch": 0,
    "FP": 27,
    "GU": 35,
    "GV": 296,
    "Overall Accuracy": 0.8489425981873112,
    "Overall Chroma Accuracy": 0.8821752265861027,
    "Precision": 0.8489425981873112,
    "Precision Chroma": 0.8821752265861027,
    "Raw Chroma Accuracy": 0.9594594594594594,
    "Raw Pitch Accuracy": 0.9222972972972973,
    "Recall": 0.9243421052631579,
    "Recall Chroma": 0.9605263157894737,
    "TN": 8,
    "TO": 331,
    "TP": 296,
    "TPC": 273,
    "TPCch": 284,
    "TPI": 23,
    "TPIch": 12,
    "Voiced Chroma Accuracy": 0.9594594594594594,
    "Voiced Pitch Accuracy": 0.9222972972972973,
    "Voicing Accuracy": 0.918429003021148,
    "Voicing Detection": 1.0,
    "Voicing False Alarm": 0.7714285714285715
}