{
	"f0": [NaN,42.9224708,50.81026753,50.63864532,50.95754149,45.3011097,53.05431229,49.91714963,49.57306751,50.04812514,51.41575983,51.88011653,52.37552694,52.99686851,53.63115681,54.04351142,54.31205087,54.41993544,54.45370749,54.54938259,54.6436629,54.66954619,54.62646313,54.55990205,54.56198345,54.67522046,54.80869938,54.90154571,54.92726289,54.88052773,54.77139828,54.67031549,54.58369302,54.42746546,54.1481552,53.79399369,53.50318963,53.49617416,53.48092134,53.46578638,53.36641971,53.22111684,53.08635832,52.96581739,52.9529388,52.95459173,52.9803035,52.97347012,52.9223353,52.84485522,52.80566867,52.83836944,52.82620178,52.64927276,52.47978286,52.67868214,52.95179514,52.86137035,52.87410926,51.41697575,50.67785403,50.26888878,50.18190169,50.48393786,50.66129603,50.74693842,50.81399584,50.93077745,51.02421231,51.05151585,51.04885444,51.03003748,51.04442433,51.17207944,51.12240471,50.95407407,50.80407196,50.67297565,50.52818318,50.38171882,50.24021087,50.35324229,50.63820166,50.82937073,51.3924901,51.90882162,52.50371907,52.93402615,53.19985364,53.2658916,53.14252527,53.08531113,53.1603166,53.2659408,53.27519897,53.2102982,53.12158971,53.08827858,53.15067675,53.25225224,53.3275698,53.30958574,53.30489292,53.41773916,53.56955201,53.70422305,53.72788663,53.7043233,53.6824951,53.66836505,53.6274581,53.57067334,53.49008068,53.4018618,53.42726214,53.39850073,53.25309804,53.26057328,53.37589384,53.44088712,53.44508168,53.50832989,53.6404477,53.72685416,53.81961546,53.73698265,53.61463409,53.56093452,53.60205289,53.3289977,53.54704265,53.58086474,53.7451537,53.82840399,53.81392546,53.81433914,53.67760783,53.69991543,53.49231186,53.35713646,52.90742992,51.31455706,42.30040362,53.09850434,43.13489482,42.88695959,42.929921,51.80678442,54.67701578,53.68145849,74.82343712,51.31455706,50.77569931,51.18753756,51.64164867,52.04885059,52.61386167,52.94726269,53.18899197,53.22788673,53.31052596,53.40540626,53.40459828,53.35765646,53.35456277,53.3572307,53.40535786,53.42500082,53.35414257,53.37300729,53.44365333,53.41472931,53.33903082,53.31363216,53.33121187,53.33436687,53.29564201,53.27413733,53.2372076,53.20070373,53.17884008,53.16938278,53.18303293,53.24404657,53.280056,53.21773999,65.14805396,65.31572907,65.44817848,53.57789339,53.61831288,53.97097305,54.33500895,54.54141298,54.56594082,54.67247626,54.87473089,54.97115262,55.0482998,55.28331375,55.46357841,55.58936085,55.84546715,56.05229212,56.18355821,56.12247391,56.01031238,56.02968834,56.06222378,56.02092574,55.88145731,55.6504457,55.25230362,55.23881885,55.11204629,54.635436,54.10346241,53.8283474,53.72279727,53.60837378,53.5326967,53.59242573,53.64343123,53.63152169,53.70785681,53.82811213,53.84968935,53.80906387,53.77466015,53.74991853,53.72078101,53.71665868,53.74196809,53.81543831,53.89258568,53.91183434,53.86437712,53.79389109,53.79208577,53.79727951,53.71634924,53.5946544,53.56687531,53.61774443,53.57163607,53.47511802,53.40144371,53.42108508,53.42225627,53.33039341,53.36063728,53.51133218,53.57105462,53.53667054,53.44778106,53.48000643,53.65368951,53.75255302,53.8192523,53.95927752,54.03462328,54.15585782,54.56622747,54.78879914,54.71276787,54.90630826,54.19974768,53.8119139,54.36230586,54.28282044,57.35356572,57.43891634,53.92902366,54.11551132,54.15559519,53.50429368,53.69991543,53.37216704,52.43681633,52.46078492,52.65157512,52.86299613,53.17673975,53.53519825,53.7328528,53.81058912,53.7758383,53.70984704,53.71153512,53.64688049,53.67798662,53.2078919,53.18673619,53.27283066,53.37914636,61.1177731,53.23059288,53.39888573,53.63699956,53.70683796,53.70654455,53.74523957,53.77850577,53.70027674,53.59965274,53.54693645,53.53889846,53.4893927,53.49335892,53.56865519,53.63224986,53.64843261,53.60828555,53.59422359,53.62651932,53.67411587,53.7265704,53.74229348,53.7292093,53.81426135,53.84171062,53.51662031,53.43907691,53.30722246,53.26287325,53.20327857,53.32330757,53.79185453,53.72084363,53.65026657,53.65273235,53.61399545,53.67526251,53.61699083,53.5302257,53.50751241,53.54808481,53.59227863,53.63855057,53.60741472,53.54032193,53.4935285,53.54348933,53.59276628,53.60486383,53.62785621,53.63180863,53.60492378,53.45410445,53.32931833,53.37982069,53.41447123,52.37482755,NaN,NaN],
	"ap0": [NaN,0.531985594,0.6719551764,0.8167363947,0.7902734103,0.6340436527,0.5961678577,0.1923766005,0.09128262682,0.08522402993,0.1529778511,0.0662015566,0.06536478461,0.1225705613,0.1049777775,0.08143360653,0.06593257124,0.02754516552,0.01807008306,0.0152275022,0.006756286313,0.002385240673,0.003420850399,0.002540322091,0.002979248156,0.006639114424,0.008562048795,0.007397000765,0.006493952952,0.00848344499,0.02766730914,0.05866861483,0.04916178516,0.0433042476,0.05034479246,0.07396229577,0.04234442847,0.01921958623,0.0109639668,0.004922976321,0.007758493582,0.01166848734,0.02355538425,0.01355628271,0.006277048013,0.003351510191,0.001554304925,0.001157169441,0.001260919418,0.001360175875,0.001215278487,0.001049477647,0.001532078747,0.01644226251,0.02714510254,0.02426326479,0.01050225633,0.01022223771,0.02601424192,0.2800656732,0.2740219075,0.1187900747,0.0630583667,0.04504112768,0.025445317,0.01142377083,0.008461227049,0.009355506581,0.005750640752,0.004276940585,0.004849176488,0.02414005612,0.04467025304,0.01142019759,0.0102797597,0.009723511298,0.01063672997,0.01350911945,0.01189926726,0.01994255954,0.02092865037,0.0187047232,0.09325644305,0.0674837448,0.0862723744,0.08723795798,0.05628315895,0.0648780819,0.04566831345,0.01490642234,0.01572723918,0.009352865498,0.01021739835,0.0089840214,0.005907506888,0.004051154982,0.0026922939,0.001412559048,0.006388134158,0.00924247151,0.007473395113,0.00535702363,0.003602968543,0.01085465461,0.01009129372,0.01283146982,0.007089941155,0.004398569616,0.006098240623,0.005541639064,0.005268120842,0.005174327127,0.008890607479,0.006846407215,0.003932140298,0.006451824793,0.01634523134,0.01594304863,0.01148197878,0.009028953303,0.005355798805,0.01688158285,0.0217438056,0.03222944607,0.0452598916,0.04000400475,0.03025674861,0.02881541649,0.05525071002,0.06130749735,0.08206211405,0.1576653827,0.1959902803,0.1912957901,0.2487393181,0.3966323696,0.3805986857,0.2997208082,0.3714333804,0.414378182,0.5265795865,0.5887673816,0.5420542722,0.5768351261,0.6962757026,0.6131571457,0.7134686895,0.757920458,0.7654267222,0.7019246205,0.6826038842,0.3354322386,0.07463665326,0.04835004961,0.04542715421,0.05654340033,0.06736726251,0.05509670446,0.02425710388,0.01835174214,0.01422081191,0.005950558733,0.005715002056,0.002715253361,0.0009337675741,0.004310250841,0.01548204206,0.01610405063,0.005860807131,0.005280434813,0.00229951962,0.003555493151,0.002902072218,0.002127648625,0.001773070853,0.001702855116,0.002018712787,0.001510357084,0.001164258332,0.0009609794054,0.001286475939,0.002329549442,0.003638924792,0.006182837151,0.004970501626,0.003641784382,0.05902010665,0.06356517786,0.1078470031,0.01871370937,0.02887880839,0.03784474973,0.04388930155,0.03024764741,0.01407807326,0.006855980604,0.004923033004,0.002698431742,0.004588415995,0.005650445922,0.002922123717,0.007546604159,0.01392174898,0.0124851419,0.01073896217,0.008248698909,0.00415570691,0.002640544684,0.001407247728,0.00188850004,0.004474370297,0.01853298979,0.01899559066,0.007616431795,0.01258273457,0.01748073556,0.01532830436,0.02618483542,0.03590915993,0.03130282371,0.009455134617,0.005152827788,0.003076987521,0.004173012893,0.007842356435,0.01079710441,0.007781639338,0.004339744665,0.002752736693,0.003131830957,0.003328248152,0.002863222029,0.001648069699,0.005965425313,0.004004584366,0.001596318555,0.002761756819,0.00250905766,0.002741444331,0.003057612388,0.009428074046,0.01375880087,0.01208978833,0.00359934011,0.005142083754,0.005931830495,0.005612587055,0.004271032007,0.003855222028,0.009181876863,0.01570912397,0.01227464068,0.007630120279,0.005894121484,0.006754059577,0.00969690845,0.01146521046,0.009352932721,0.009521612462,0.01432165249,0.03798303359,0.1130769107,0.153349669,0.1367161545,0.2741343701,0.1706485886,0.1744517146,0.6252363404,0.5095839058,0.3742073781,0.5657583085,0.5109592581,0.3756476746,0.350474019,0.4889922558,0.5809656723,0.6274547089,0.4134568982,0.1406969636,0.04051093071,0.03436443658,0.03869893795,0.05471147508,0.0495826228,0.04307654248,0.03133995058,0.02441824657,0.04882912954,0.1031358775,0.06312620286,0.1073902405,0.1205334487,0.09396870916,0.09048491467,0.2138907759,0.7577611031,0.1101674332,0.0454534699,0.0316314685,0.02661216108,0.01280578321,0.01101032223,0.009052794248,0.008564906108,0.007714338514,0.005612688043,0.003601769,0.004029028041,0.005108775936,0.006403817362,0.00749675311,0.006299733064,0.00861738889,0.01612244342,0.0164210743,0.005909831467,0.004158094691,0.004327809536,0.009318806046,0.02061587947,0.03047400956,0.0135115038,0.01245765966,0.01020499931,0.01006229306,0.02217834881,0.06380873952,0.03457781257,0.02243762343,0.0318352938,0.02936354937,0.07341001356,0.1297562099,0.03636344122,0.03374702585,0.02653259654,0.030458605,0.03358005513,0.05840217389,0.0523824526,0.05279909963,0.06941055654,0.03707262534,0.01336630041,0.01123983023,0.02778371322,0.08996665048,0.1225805175,0.08587647055,0.07296287108,0.05745960927,0.09291535719,0.3945820945,NaN,NaN],
	"ap": [NaN,0.3221838838,0.4421655067,0.2475117558,0.343846919,0.4081034744,0.3745114757,0.2121968301,0.4376929249,0.04244850881,0.3660866518,0.1933732919,0.05940275986,0.08782518444,0.1068892329,0.05984304193,0.06706254781,0.05680193281,0.009996869258,0.01569046608,0.01054240068,0.002335026513,0.002116769762,0.002962953322,0.0008879244185,0.00600784658,0.009385652479,0.004996354019,0.004819525834,0.002119685512,0.01153738346,0.003793282976,0.06197165426,0.04787381589,0.02431095351,0.03878594246,0.03060865685,0.05105988789,0.006819895552,0.004453077092,0.002358715957,0.006784160218,0.01313964447,0.009118321383,0.01131318532,0.002165040586,0.001218015384,0.0002825016953,0.0008199409796,0.0009185219837,0.0007187103171,0.0008109064463,0.0006888479685,0.002712242619,0.006054312412,0.02909396592,0.005666449145,0.004710388258,0.001668143573,0.1056780955,0.1851527409,0.3775516234,0.05626435503,0.1366194195,0.03687256678,0.01565345519,0.007539745712,0.0091463302,0.005691650745,0.002253229742,0.001927633991,0.002562827873,0.005785117282,0.02829458537,0.005189383261,0.01259586541,0.002368884714,0.009328739529,0.008177487047,0.007252160773,0.01291632159,0.014885749,0.01378601191,0.1215048298,0.1523800748,0.1866986734,0.1092512165,0.07742598629,0.05132261652,0.03392281654,0.01707510533,0.004047221197,0.006169372425,0.007112344134,0.006967315851,0.004725725413,0.007064409019,0.001279677975,0.00300567091,0.009112541359,0.00494175993,0.003653095592,0.005113702321,0.005908324964,0.01260660767,0.008883872164,0.005925185108,0.007790234443,0.0009416793775,0.004460156905,0.002638923942,0.005419045244,0.003764736565,0.006565934443,0.003495573635,0.001174156113,0.01390104226,0.003644551419,0.0144296408,0.007198860997,0.004320709874,0.005525977703,0.01097533281,0.01700360748,0.009990390229,0.02721466617,0.0304274072,0.004365196504,0.01830866442,0.01407189004,0.02071869502,0.0242473807,0.08584814619,0.1611515462,0.1112691197,0.02604575317,0.229653262,0.3316694139,0.2169577716,0.1538873987,0.3898962247,0.2546568698,0.3134141501,0.4144327408,0.2081464865,0.2978421096,0.179960841,0.3961531999,0.4854608154,0.5470530718,0.4573738655,0.5996997994,0.398858616,0.1043008511,0.08714560744,0.05027568896,0.07540208474,0.03073293725,0.06026240275,0.008075977448,0.005571463095,0.007947086141,0.002326698318,0.005546778659,0.0008018189211,0.0003361510433,0.001183742717,0.0199724279,0.008044493453,0.004756302579,0.002068638701,0.002409666395,0.002610263545,0.001871734146,0.001470925637,0.001075258811,0.002066388033,0.001266411298,0.001281406422,0.0007847430504,0.001073807783,0.0003120033983,0.0008561768709,0.003457544525,0.003026816173,0.001298556987,0.03935004833,0.02331012588,0.03926741049,0.002100431014,0.01046881407,0.02743625059,0.01526018017,0.04139443879,0.020366839,0.01047960133,0.004914611267,0.002471548562,0.0031474066,0.009258801326,0.005437482555,0.003630173881,0.005860138949,0.007386835048,0.015017483,0.001891765785,0.01416860336,0.001344716562,0.0002665766127,0.0005533060711,0.003627196589,0.005486457298,0.01960932016,0.009954277512,0.005773102753,0.01276509274,0.01073395844,0.004051779006,0.01605355452,0.004599180448,0.00968342874,0.006130892374,0.003145936556,0.001335475015,0.003009892775,0.00840230415,0.00574657739,0.006641764156,0.00146754876,0.001527980264,0.00188395484,0.0008172888603,0.001165113774,0.002711187609,0.005689351446,0.00194555483,0.001952963111,0.003933705877,0.0009684021623,0.001116202536,0.006354289559,0.005961126106,0.008455283289,0.004078468446,0.00309814324,0.006606721309,0.003682750058,0.003568084985,0.001555758416,0.008051341596,0.002311051274,0.0226501601,0.008500406235,0.004489689277,0.006235576952,0.0030657211,0.01728534636,0.00755264793,0.006066137951,0.008261178174,0.009019260604,0.007611474025,0.08711018342,0.07663145339,0.08486612899,0.1584775795,0.1548305493,0.09783983194,0.4152000677,0.2102672637,0.1401495085,0.2541752273,0.2308498092,0.180910883,0.05824333654,0.2872700826,0.2936186216,0.2252348935,0.6067449636,0.2779750584,0.040864459,0.01601701769,0.05957109167,0.05363205905,0.02576829723,0.02471233501,0.02832058477,0.01591686004,0.01518025867,0.1085401865,0.02806452841,0.04391650668,0.0436577685,0.03990347309,0.04243157606,0.8126934556,0.3157274912,0.4943664801,0.03448375379,0.004693645344,0.04114959616,0.006129870859,0.003758751568,0.01284484107,0.01684640916,0.004017966133,0.005384642753,0.003024618201,0.001073293485,0.005411924519,0.003998623526,0.006193530691,0.005266016458,0.004442531124,0.01009642671,0.004798109015,0.005386175057,0.002104151753,0.001339998268,0.004706145427,0.02455469093,0.004641968143,0.007554187458,0.003470333031,0.01081699479,0.002559064953,0.0210092472,0.06045100133,0.00717600382,0.01219968388,0.01361646515,0.002906424701,0.07012731977,0.03788912586,0.03048936666,0.03482174279,0.006859118327,0.02155770092,0.006104246421,0.06160556099,0.02583358481,0.03310229845,0.02465422238,0.01293737517,0.01098924726,0.003926598326,0.02109802794,0.03942328003,0.06452359331,0.03286016056,0.05576760569,0.01812961392,0.09371857544,NaN,NaN],
	"pwr": [NaN,4.333776859e-07,6.828240268e-07,3.942053699e-07,6.139399126e-07,9.558345144e-07,2.539377823e-06,3.386490681e-06,0.000163322081,0.004373880441,0.00580180488,0.02179964948,0.05900723928,0.08723848102,0.1054826908,0.06063445389,0.09297941573,0.07092342493,0.1105641369,0.1005398254,0.1029393955,0.1232884688,0.1465117079,0.135803229,0.1110518126,0.08748629555,0.08235870643,0.07462138846,0.05982934664,0.04823959434,0.03682172656,0.04163987505,0.01073629375,0.006658957463,0.008419014006,0.007495455061,0.005281688158,0.003992580195,0.009791258692,0.009261339361,0.009696466185,0.01278403786,0.008380551772,0.00467770917,0.004868544986,0.008115568307,0.01227530062,0.01579626089,0.01541475136,0.01523281007,0.01516153485,0.01753850198,0.0196950484,0.02089470315,0.01888581621,0.01116251757,0.006021847735,0.00451369998,0.003169590195,0.001411961502,0.00116451315,0.03193251802,0.0311287752,0.02114414838,0.02566682878,0.05231865775,0.05340317969,0.06210739129,0.07639243873,0.07719663749,0.07479927117,0.06080231848,0.07571098362,0.03335263458,0.01645050991,0.01243112014,0.01163609932,0.009932728386,0.009096504332,0.009355662095,0.006304165662,0.003267243105,0.003501655946,0.00349872227,0.009912930008,0.03552436791,0.09387463449,0.1256652032,0.1315096847,0.09227293278,0.1347842786,0.1334076201,0.1214496198,0.1072112154,0.07072783348,0.05981748568,0.06234060064,0.06752421793,0.06347746224,0.05729415658,0.04483411364,0.03215430736,0.03114375937,0.04111853973,0.04582039048,0.04129968876,0.03415228019,0.03996491119,0.06652779686,0.04996098783,0.02848406457,0.03244821292,0.03742737171,0.02808653919,0.02720245793,0.0448167781,0.04797274664,0.03746647097,0.03959213605,0.03851067496,0.02159946438,0.02049216614,0.01723568402,0.01328636413,0.01717966777,0.0114467065,0.005006215066,0.003516713728,0.001458615743,0.0003827613084,0.0001801819044,0.0001549965439,6.007341563e-05,2.887256213e-05,1.711530697e-05,1.12139103e-05,2.759449065e-06,3.694357557e-06,2.332280963e-06,1.973214712e-06,4.850454942e-07,1.407997212e-06,1.152186408e-06,1.69424265e-06,1.904096549e-06,1.294857173e-06,1.058727537e-06,4.283749613e-07,1.810990279e-06,4.034049456e-06,4.282239972e-06,7.868701786e-06,2.192436947e-05,0.008052282884,0.06300249624,0.1285675952,0.1593069725,0.09154661618,0.1280535146,0.08308621916,0.08492236246,0.08254882884,0.08211306248,0.06574359261,0.09666640353,0.09406801682,0.09568867384,0.08069045613,0.04505560289,0.04633150229,0.05023059803,0.0471168684,0.04641994677,0.04643654335,0.0538210316,0.05723424741,0.04687420062,0.04475344977,0.05854296267,0.06868885729,0.07305212161,0.07360772815,0.06348487472,0.04268956538,0.0322636629,0.02558854917,0.02848378464,0.03569746185,0.03856335455,0.04443816376,0.03258535217,0.01528331079,0.01508616227,0.007671111502,0.008330001527,0.01204143584,0.01198775965,0.01459896566,0.01390437129,0.01392422418,0.0134945446,0.01495319278,0.02113043742,0.01137723861,0.008682860136,0.006007242362,0.008242320407,0.01587000855,0.01204146171,0.01138843989,0.0126549078,0.01445403971,0.01335017429,0.009181184814,0.01463516908,0.02941025776,0.01704944841,0.009172622944,0.004719894125,0.004578151784,0.007544181056,0.005533468974,0.007216349021,0.008686174816,0.009004632042,0.009943502063,0.01513763707,0.02525492697,0.04111887147,0.04602455708,0.03970084397,0.02630220743,0.0195746694,0.01940519955,0.02282344572,0.03320571657,0.04344946059,0.04499044896,0.0398848698,0.03077309509,0.03038009386,0.03124734251,0.0213155498,0.01041502604,0.01067414976,0.01199990728,0.01022993641,0.01182859774,0.02053579575,0.02132263085,0.01879787782,0.01814401998,0.01872347989,0.01520186212,0.0136169913,0.009537674655,0.009502581055,0.009675093892,0.0108977018,0.008035637452,0.006538210555,0.007364676778,0.006242103197,0.002802702253,0.001084042674,0.0001009530128,0.0002017139228,0.0002073329403,2.388810217e-05,5.677030764e-05,7.406669807e-05,2.94017102e-05,1.771282476e-05,1.332620659e-05,8.058115353e-06,3.133720608e-06,2.541127535e-06,2.491271735e-06,6.484755333e-07,0.009250463985,0.04068475351,0.07418426396,0.09896727254,0.08049194066,0.08412974874,0.09628151997,0.05114865516,0.07772380935,0.06336797901,0.01286157618,0.007483850146,0.003113557396,0.0009222838748,0.0005039521239,0.0009258667684,0.0003897663763,7.730635207e-05,0.0002708985814,0.06284953849,0.06526300782,0.09987634698,0.1082881918,0.08758069312,0.0722982653,0.0699473611,0.073389078,0.05551636773,0.03732113641,0.03508485613,0.0325014698,0.02947793774,0.02159846985,0.01616138312,0.01309165262,0.01033567958,0.007314440839,0.005098922428,0.005280471047,0.005965849039,0.00727055125,0.004345745281,0.001392798656,0.0007110968299,0.0008349597893,0.0003646606163,0.0002218085148,0.0001462022436,2.12132833e-05,6.669721034e-06,6.995091891e-06,1.829261476e-06,1.968925033e-06,1.251718571e-06,3.071768725e-07,4.809467834e-07,2.461045717e-07,3.603558728e-07,1.738558913e-07,7.662105304e-08,5.452082428e-08,4.198540858e-08,3.829190139e-08,2.398100774e-08,3.33474565e-08,6.379101867e-08,1.152816358e-07,5.301350302e-08,9.750260963e-09,4.78168308e-09,1.136754538e-08,4.605381077e-09,4.969977569e-09,2.089961383e-09,NaN,NaN],
	"sr": 16000,
	"range": [1,113726],
	"minf0": 63.1883,
	"maxf0": 706.3069,
	"thresh": 0.1,
	"relflag": 1,
	"hop": 320,
	"bufsize": 10000,
	"wsize": 640,
	"lpf": 4000,
	"shift": 0,
	"plotthreshold": 0.2
}
