{
    "DU": 75,
    "DV": 460,
    "F-measure": 0.8677766895200784,
    "F-measure Chroma": 0.9108716944172381,
    "FN": 13,
    "FNC": 5,
    "FNCch": 6,
    "FNI": 8,
    "FNIch": 7,
    "FP": 36,
    "GU": 98,
    "GV": 437,
    "Overall Accuracy": 0.8280373831775701,
    "Overall Chroma Accuracy": 0.8691588785046729,
    "Precision": 0.8486590038314177,
    "Precision Chroma": 0.8908045977011494,
    "Raw Chroma Accuracy": 0.9359267734553776,
    "Raw Pitch Accuracy": 0.8832951945080092,
    "Recall": 0.8877755511022044,
    "Recall Chroma": 0.9318637274549099,
    "TN": 62,
    "TO": 535,
    "TP": 424,
    "TPC": 381,
    "TPCch": 403,
    "TPI": 43,
    "TPIch": 21,
    "Voiced Chroma Accuracy": 0.9221967963386728,
    "Voiced Pitch Accuracy": 0.8718535469107551,
    "Voicing Accuracy": 0.908411214953271,
    "Voicing Detection": 0.9702517162471396,
    "Voicing False Alarm": 0.3673469387755102
}