{
    "DU": 15,
    "DV": 550,
    "F-measure": 0.8015952143569293,
    "F-measure Chroma": 0.8414755732801595,
    "FN": 0,
    "FNC": 0,
    "FNCch": 0,
    "FNI": 0,
    "FNIch": 0,
    "FP": 127,
    "GU": 142,
    "GV": 423,
    "Overall Accuracy": 0.7115044247787611,
    "Overall Chroma Accuracy": 0.7469026548672566,
    "Precision": 0.7115044247787611,
    "Precision Chroma": 0.7469026548672566,
    "Raw Chroma Accuracy": 0.9621749408983451,
    "Raw Pitch Accuracy": 0.9148936170212766,
    "Recall": 0.9178082191780822,
    "Recall Chroma": 0.9634703196347032,
    "TN": 15,
    "TO": 565,
    "TP": 423,
    "TPC": 387,
    "TPCch": 407,
    "TPI": 36,
    "TPIch": 16,
    "Voiced Chroma Accuracy": 0.9621749408983451,
    "Voiced Pitch Accuracy": 0.9148936170212766,
    "Voicing Accuracy": 0.7752212389380531,
    "Voicing Detection": 1.0,
    "Voicing False Alarm": 0.8943661971830986
}