{
	"f0": [NaN,42.85641089,50.37247994,50.35705215,60.62264031,51.3749737,51.27955728,43.66412792,68.04432543,72.98279051,73.07299525,72.70611492,42.69306224,68.87779939,51.0518275,51.07488729,50.8715043,50.56757422,47.97830342,49.15051998,49.265733,52.08733054,50.89525158,66.10302368,65.80839309,43.25583332,50.94389663,47.55922928,46.75329997,46.25871052,46.09727067,45.85903047,45.60279369,45.54304726,45.55889168,45.60047258,45.63499914,45.63583705,45.64404133,46.03729748,46.67708196,47.1979612,47.34896477,47.44819538,47.60423644,47.81259524,47.84472295,47.71542036,47.71978132,47.86277545,50.15444483,49.77528156,49.5431704,48.87464474,48.19792877,48.05883477,47.96451396,47.89966054,47.90237309,47.87673818,47.80502917,47.68616269,47.69890516,47.69991811,48.09109411,72.20558153,47.78320912,47.80646526,47.93671261,48.09686958,48.31842317,48.48282426,48.44176376,48.53770262,48.72043786,48.76200459,49.00303396,49.34143882,49.14886868,48.18184186,47.61187436,47.41574122,47.30870196,47.24373166,47.29236548,47.49434773,47.58733936,47.60086761,47.53034523,47.40052129,47.45636217,47.52101813,47.63058121,47.56026796,50.43461849,53.67526251,53.88662756,50.92984956,50.80234202,52.97029407,51.11946296,54.04559639,48.63315203,46.20439302,47.05200226,46.93420902,45.70364372,45.34880227,45.12972141,44.85419039,45.01811398,45.33665506,45.60020647,47.10534681,47.2463077,47.32156805,47.41851605,47.7224945,47.79047159,47.73461006,47.90670426,47.99593344,47.88580155,47.53581968,47.35895195,47.65019159,47.71462758,47.77992337,48.69507132,47.97229107,47.69598182,47.52797675,47.42257431,47.50371255,47.64776011,47.51943152,47.07667805,47.42566627,47.2847543,71.76273913,71.76273913,58.59762663,46.3042534,46.14178596,46.16323598,46.11149132,46.49848114,46.52930458,46.59880127,48.47484302,67.34995772,47.84788588,47.59367892,47.41789414,47.38926058,47.44499494,47.48774319,47.42521596,47.18827614,47.23940964,47.36740649,38.24704152,70.6255931,47.43198922,46.72949188,46.52217938,46.40646183,46.26045294,46.16354076,45.05418577,45.17399484,42.57871156,44.29981398,43.74397493,43.32146544,43.04124481,43.04240457,43.12558596,43.13722269,43.08073205,42.95825253,42.77922401,42.70780424,42.7009107,42.71150216,42.76563624,42.93570748,43.21176171,43.40248579,43.33250781,43.24541239,43.2314081,43.28277525,43.49987532,43.78112844,44.03618736,44.07822849,44.3098431,44.38090509,44.35223798,43.66010728,43.37523074,43.56772588,43.89960199,43.73694999,43.74847377,43.21483511,43.62008495,42.59714991,53.61672407,51.68198976,51.60080677,51.57949142,53.6250852,50.59710633,50.43944361,50.31549102,50.31549102,50.23578328,50.63186425,48.7935317,47.64982695,47.92437726,48.03012749,48.02753438,47.83841982,47.47294369,47.58157083,47.95427802,47.98048315,48.02795894,47.60633196,49.93391436,48.96272109,48.48991142,48.19156755,48.02264206,47.64008657,47.8879563,48.23403545,48.29744088,48.23218867,48.0228598,48.11748716,48.14611329,48.0442468,56.94320611,56.81944716,56.82310985,56.71449968,56.53825146,56.58122689,56.77666246,57.5817686,57.76484218,58.00638705,58.41939877,58.55292531,58.64177389,58.56109357,58.40096562,58.47647407,58.55280452,58.36609566,58.22797683,58.38802495,58.26582379,58.0341249,57.75008329,57.6309665,57.54997201,57.59897989,57.76095095,58.05338425,58.03328922,57.70319903,57.77386255,57.93628204,58.11383876,59.77280754,59.63046037,59.43370575,58.85029947,57.9868617,57.41612942,56.1352879,53.14126908,52.74318912,53.07188757,52.74837834,46.2566483,45.17399484,44.35223798,44.31309503,44.6440833,44.86786224,44.98104036,45.0893606,45.34109451,46.35429163,47.04648337,46.99285612,46.84299369,46.68036736,58.49108659,46.31159406,46.18589467,46.383683,46.51049626,46.48719981,46.44112305,46.46947788,46.42119986,46.57992528,46.68036542,46.29510993,45.94194208,48.05387502,47.89081362,47.88623948,47.97793995,48.0001464,48.0765577,48.31682552,48.41963743,48.44752048,48.30439518,48.24116172,48.35580701,48.32846302,48.58838199,49.93477459,51.14892821,52.1868857,53.19730176,53.83150882,54.22807081,54.55698768,54.7171259,54.88176012,55.08480386,55.39417409,55.38229149,55.25749107,55.20387506,55.14745384,55.02582329,55.12377724,54.98490249,55.13489482,55.76280709,55.34163125,54.91963825,54.85674521,54.78970856,54.73716626,54.68207067,54.62026454,54.58768978,54.6614606,54.76523709,54.80110622,54.84924888,54.89549137,54.95542543,54.98909125,54.98848826,54.98410044,54.96830577,54.93969086,54.9381735,54.91366349,54.90420995,54.89274029,54.83204697,54.84038896,54.93025935,55.00765606,55.05871859,55.05193837,54.94635986,54.74209795,54.50421447,54.62184204,54.56818955,54.0979178,53.69875978,53.80425028,53.98604853,53.90631474,54.37038345,54.96063551,54.82521628,54.67378121,54.64717982,54.68039914,54.9224708,54.82606775,54.70543431,54.63399165,54.99495409,54.74557724,54.72259947,54.81920864,54.7790761,54.66722521,54.83164928,54.76146911,54.63214365,54.9224708,54.85058897,54.69418543,54.0979178,52.55802863,35.34887861,35.34887861,42.73001228,47.28085361,76.93035138,76.93035138,NaN,NaN,NaN],
	"ap0": [NaN,0.7244144194,0.64589025,0.7264327305,0.7616755964,0.8227392584,0.689974922,0.6769180798,0.6979610841,0.7635193381,0.6795416119,0.7811148162,0.6920864948,0.7906097018,0.6979532399,0.5225588954,0.3540303068,0.3577382992,0.4857873308,0.4175294161,0.5685823125,0.7371645885,0.669491824,0.7466678198,0.8254530031,0.7578100051,0.8278385364,0.3612228166,0.1596470849,0.05593553273,0.03483147546,0.03009346161,0.01988578792,0.0107062865,0.01275617985,0.0133649195,0.009961101679,0.00929428215,0.01169272209,0.04383891196,0.07809024474,0.0704232824,0.06002674585,0.05733192989,0.07171778757,0.05660096506,0.07944756524,0.122359771,0.08770580501,0.1301740537,0.6813722436,0.1593332009,0.2038387875,0.2704629122,0.1305008266,0.07815064232,0.05287653248,0.01556472644,0.009869327675,0.01493661401,0.07860965944,0.2155954669,0.3319537519,0.4168886344,0.5283429558,0.4358726411,0.1195338357,0.09419249799,0.1227895843,0.1350471006,0.2377383869,0.2391181379,0.2045624838,0.1028494518,0.05599666472,0.04500702214,0.08962987894,0.2696481394,0.2331009929,0.4385919137,0.1036643334,0.0875123096,0.05784127332,0.03273383966,0.04492499355,0.03552840088,0.01792131084,0.01824120507,0.05776140539,0.1014121218,0.1206922022,0.1940195419,0.2978384953,0.4149138984,0.5386230135,0.4462096379,0.4179457909,0.3666798581,0.4816954007,0.6229915575,0.6889598632,0.6152935474,0.7366747714,0.2821680819,0.2883937639,0.218929253,0.5734532506,0.3246988495,0.2258259707,0.1698824848,0.107282134,0.2006911101,0.3389789923,0.3784360189,0.0999724193,0.04134936555,0.07136077805,0.1038947663,0.08203643553,0.08021038489,0.09893412982,0.04762531255,0.08829293318,0.1912403696,0.1265053263,0.1540734111,0.1912394706,0.3132764326,0.4765745831,0.1759069899,0.07791548673,0.04776656863,0.03457087027,0.04639286145,0.1040829326,0.2311541178,0.205655617,0.2683878143,0.9455237098,0.5314190216,0.3701065486,0.2758096905,0.1540493725,0.2678290184,0.1453927151,0.1896917362,0.2868803871,0.208814714,0.1513306594,0.2659581952,0.2236707014,0.07803531125,0.07319688478,0.05108215205,0.02592103952,0.02569504772,0.04911258644,0.1760623692,0.1991010374,0.1965273259,0.2241178985,0.6569094884,0.5386289459,0.2480070751,0.1900492425,0.1124302431,0.195955906,0.197873141,0.2434301865,0.241406948,0.3256562167,0.5885303222,0.3554068268,0.1711541897,0.1083117492,0.03854320254,0.04059318346,0.04347412752,0.0317720535,0.01727534168,0.04045187592,0.06536030795,0.05060640316,0.04316419887,0.04185564898,0.0714420352,0.137251193,0.1732796298,0.09458080934,0.06004091195,0.03721350523,0.03199298425,0.03696972275,0.0988046093,0.1059089974,0.07577921452,0.03368946362,0.02692065693,0.05858934147,0.1752966478,0.465883531,0.3468861277,0.2243684663,0.1811277066,0.2860668394,0.3716624674,0.5831863912,0.5991768302,0.6588224762,0.3736192929,0.2903566374,0.3235002459,0.4922295335,0.5744582533,0.5198111577,0.4539341318,0.3912953808,0.3142949956,0.3575217827,0.6504823455,0.9566408701,0.1575823557,0.109168587,0.05839567985,0.08466534054,0.1822002319,0.1379962746,0.1444230104,0.3499093315,0.2838341297,0.4752974684,0.6563181567,0.4243657201,0.1644044487,0.1234083945,0.1005154759,0.1500834432,0.1262123082,0.09946781962,0.05404929323,0.04378729493,0.09986204177,0.2005645744,0.1531144565,0.1939354115,0.5506149024,0.1700034729,0.09673247171,0.06932883604,0.0763560499,0.04025724746,0.03522055092,0.08422980307,0.08331810729,0.04874054115,0.06653345527,0.05120593848,0.03761786087,0.02836892909,0.02744907501,0.01916858031,0.01852563137,0.008246018692,0.01065556556,0.03735718515,0.1095623691,0.04343578979,0.04723325789,0.02050429332,0.008210999441,0.002018578526,0.006081012629,0.02314964732,0.02407204594,0.03171530282,0.04809021289,0.1063155034,0.06337210958,0.05102367602,0.3859628232,0.1563404752,0.0854891407,0.1959721415,0.180463411,0.3713484118,0.673669376,0.6177627968,0.5806393926,0.5176989565,0.7134959634,0.437360456,0.4951779818,0.3928218009,0.1799213071,0.09826245132,0.0472139168,0.02261167202,0.02575738983,0.05770576816,0.08706710689,0.1613729623,0.1910568983,0.07417978633,0.02915993167,0.1187561781,0.07777997935,0.1331658691,0.03279911147,0.02676519588,0.02078556297,0.03956235385,0.0927370127,0.107811432,0.1494160413,0.267759981,0.2649580302,0.4737871765,0.2020933523,0.08760820795,0.05296173228,0.03234857438,0.01291785909,0.04679180781,0.03606867749,0.02313787285,0.01994215793,0.04368719694,0.04082449501,0.03177376596,0.03800783968,0.168947769,0.174570285,0.1578530322,0.1489161114,0.1157736258,0.07814243647,0.06725149825,0.01796441752,0.01519785124,0.01474522312,0.01737714464,0.01588422494,0.009720819502,0.004044173013,0.004172901833,0.02484614637,0.07031855278,0.08819697766,0.04845829389,0.3697529419,0.1027982187,0.09900002587,0.0228357883,0.01235841182,0.01083510232,0.005294003955,0.003432766081,0.002854905579,0.002610589707,0.008656009205,0.007006333888,0.007872045348,0.002233330752,0.003680148682,0.004983039354,0.004564221894,0.003671099757,0.003624208086,0.004470358341,0.004481029594,0.004060372331,0.003409182594,0.003834971833,0.00696623703,0.009074871013,0.009262599248,0.007971552751,0.008971640344,0.009382859585,0.0100938605,0.01402992226,0.02482717165,0.0662238999,0.1846597094,0.1041961041,0.07439641158,0.1015447717,0.08830894671,0.06336447555,0.1598661659,0.09930066979,0.1112541531,0.1055093649,0.04863394224,0.04920598569,0.1052062481,0.1629436888,0.149944881,0.1003413802,0.06831314511,0.1012014356,0.04449004208,0.0567827515,0.1247878663,0.1681657721,0.1289342422,0.1434376101,0.1334613929,0.195410639,0.3477055533,0.207032083,0.1726598004,0.3135059648,0.5150568623,0.3759357339,0.5805915473,0.9487500925,1.709470665,1,1,NaN,NaN,NaN],
	"ap": [NaN,0.4668091731,0.6810393357,0.3802108072,0.212356749,0.3810011645,0.401361933,0.3461836185,0.5936950221,0.4459457372,0.6218662183,0.210484765,0.3739117403,0.3899965733,0.464582626,0.3215838523,0.1997319258,0.1290661838,0.515609551,0.08183750927,0.2263012522,0.3871347735,0.536008892,0.399806392,0.2755395386,0.3949132506,0.4276873163,0.5622845835,0.5085133503,0.1015803031,0.05063625791,0.02305111765,0.01404157188,0.0102315653,0.004030278066,0.003842027943,0.006981343515,0.004615105804,0.005420559911,0.02613655663,0.07677395223,0.06729610842,0.04807544097,0.04204535163,0.04164856021,0.03883731624,0.02551414547,0.04008938796,0.08994401912,0.03669072573,0.4573390214,0.5166880626,0.1676265296,0.1832284428,0.108906325,0.0346192172,0.05827323968,0.01426217879,0.00651991563,0.004732475333,0.01324455205,0.01961516387,0.1685051023,0.1922396418,0.1603071119,0.09780185884,0.2105102677,0.02813772103,0.08497335383,0.0378041445,0.08654490285,0.1209801214,0.05230087325,0.1063016764,0.03880123879,0.02686228078,0.02832485177,0.02298181549,0.2016216107,0.4488237642,0.2012144977,0.06220473904,0.05021115815,0.04693834394,0.02587033718,0.04869064114,0.02112792389,0.0088851636,0.0102361737,0.03126512718,0.06873954222,0.04061412273,0.1491379539,0.1494377026,0.5163543239,0.6630433037,0.1845542946,0.2816484889,0.09418135763,0.5456004603,0.179043121,0.7010500349,0.2192379509,0.6205460695,0.3953919165,0.1720125392,0.5462870819,0.4989034111,0.173643648,0.1033605609,0.1588697918,0.1199390718,0.1098327133,0.612453087,0.1172484298,0.03487148976,0.02946424983,0.09810421628,0.0401289596,0.04279209708,0.1055338589,0.03811063265,0.03254055567,0.05510020187,0.2485449769,0.0435308819,0.1905685912,0.03075505853,0.2462909553,0.6022509394,0.1148156241,0.03646010046,0.02370585455,0.01863239283,0.03737273652,0.01030708744,0.3833338451,0.08477641094,0.2175593025,0.5906907189,0.7369908598,0.4969325403,0.06636478392,0.05228787719,0.1130190753,0.05087175031,0.05458682382,0.1503914944,0.07035668061,0.3981824599,0.9548259132,0.0982426023,0.03730682337,0.05844907118,0.01912062601,0.01576429428,0.008519025753,0.0392498091,0.1653268642,0.07559214876,0.1656092298,0.4429266473,0.4775253945,0.6163712737,0.290432113,0.09984339287,0.03535536113,0.1430889159,0.103912801,0.08379336785,0.06667817458,0.2165349403,0.5150214895,0.3863809201,0.1316390941,0.05185123028,0.01394220507,0.02059971209,0.02739607055,0.008559730684,0.01914938248,0.03887167931,0.02800283967,0.03380152142,0.01389585618,0.04434055915,0.0650661339,0.09220050539,0.07211680914,0.03999263971,0.01831324341,0.0222303871,0.01174911941,0.06452019548,0.05848963177,0.05763764927,0.03388269569,0.01671045901,0.01252455454,0.04488682451,0.1217205531,0.5034947412,0.08432083038,0.1415349626,0.05541966627,0.1353375513,0.1559922998,0.411885152,0.3256843187,0.5041368501,0.2600148837,0.1484558317,0.1265201443,0.3632481331,0.1288174567,0.3550882665,0.6445728667,0.05844824628,0.2604366994,0.202557488,0.6248309534,0.5492685614,0.2394041666,0.0572301884,0.04807214493,0.02695552217,0.3541357356,0.04077346583,0.1673229447,0.0457262587,0.2348600914,0.2174454564,0.4674531747,0.304648198,0.1791448204,0.09806411172,0.04289188764,0.05589168702,0.1308213498,0.1181931082,0.02830286612,0.01436996507,0.1161730326,0.1137262987,0.07007265464,0.1164828463,0.7642583227,0.5871528707,0.04236594054,0.01932656897,0.05885863467,0.02285289225,0.009783461166,0.1664950566,0.1502927863,0.01983474728,0.07935193753,0.02007148776,0.03975008974,0.01207697879,0.01786323973,0.01565160489,0.005858416801,0.001914035908,0.002060558682,0.01168310022,0.2492964771,0.04130123112,0.01252981586,0.02041439983,0.009295576316,0.001172806081,0.0148928554,0.02459713037,0.008007954581,0.02612777557,0.02484885218,0.05090304336,0.007302353808,0.3852037554,0.3844805565,0.04672059,0.1630141751,0.2423803708,0.09397230439,0.2092058528,0.3813374358,0.3300021711,0.1311923368,0.4304656814,0.4543825199,0.2866144759,0.3314439916,0.0720101519,0.1406644051,0.05758329905,0.02200757733,0.005345143747,0.02426363177,0.09078805043,0.1359091625,0.02925393473,0.2375406865,0.05101284697,0.09172693225,0.02975697317,0.06054196378,0.01344697141,0.03487732135,0.0107703293,0.007687040136,0.03791365198,0.02381088773,0.09026117108,0.03860259612,0.3861583908,0.27360921,0.5959344257,0.2165068487,0.02249901476,0.05952923752,0.0158066949,0.006963041657,0.04603496127,0.01389870078,0.004333064293,0.02178323421,0.01879816669,0.02728354163,0.01129575282,0.01125133993,0.2292458482,0.2634564786,0.2183980473,0.1090570665,0.1045532063,0.01776244637,0.07048295322,0.01078945578,0.006493568031,0.02212044694,0.03212093461,0.00227332253,0.01236986079,0.0005348558826,0.00214928045,0.005829404302,0.05633297351,0.01951136137,0.005619684349,0.07652636406,0.5014670906,0.08603070075,0.008351986654,0.003996806695,0.01263068846,0.002537265479,0.001801674257,0.001381906869,0.003663896275,0.005578080318,0.003405394959,0.004288716359,0.002313464671,0.002894035002,0.00301014908,0.001180972035,0.001860029746,0.002295727551,0.002025412165,0.0024983353,0.003316419135,0.001427449298,0.001347921565,0.005762291182,0.004384257806,0.006992762896,0.004090993599,0.005027986279,0.004998651045,0.00877366295,0.01155866706,0.007920567836,0.0331836114,0.1522871875,0.1584286818,0.03899000687,0.1071167608,0.02127031793,0.04096610897,0.1244266381,0.01330093303,0.01683376947,0.2865619223,0.01989355021,0.01716872513,0.04156906311,0.01784472955,0.1346251953,0.1462997266,0.03591698921,0.04684791552,0.02533788401,0.02031402015,0.05645614926,0.09234558052,0.01243745312,0.05770967232,0.07379047951,0.05889661441,0.5322720993,0.1535659409,0.0808500367,0.0788969023,0.211100137,0.1938869207,0.3415119626,0.500000102,1,1,NaN,NaN,NaN],
	"pwr": [NaN,2.081650219e-07,3.742536731e-07,1.954356633e-07,1.758146839e-07,2.913928333e-07,4.368384697e-07,6.955769534e-07,7.675709257e-07,7.414441041e-07,3.944349611e-06,7.174289881e-06,4.037814048e-06,1.965957897e-06,4.546009574e-06,7.346265097e-06,8.293375507e-06,9.864484214e-06,3.080213827e-06,4.308224261e-06,3.263129224e-06,1.328439596e-06,5.002616429e-06,8.993728337e-06,2.166163764e-05,1.373952002e-05,1.252739045e-05,1.145773303e-05,6.533229688e-06,0.0008079362345,0.001950602201,0.007493993116,0.005840432731,0.004125564924,0.005738523031,0.005138149809,0.004738355182,0.004742804193,0.003234151101,0.001974427617,0.002086007454,0.003945394466,0.005228238364,0.003249154001,0.002667771725,0.001917470201,0.002597163958,0.001574204852,0.000413520875,0.0006271430871,0.0001226023197,0.0001356433391,0.00321604838,0.02189160096,0.006902958192,0.006370877498,0.01086039364,0.01480287562,0.01099810602,0.01140988439,0.01391901584,0.0150708109,0.002123188566,0.001100114694,0.001156789584,0.0006559110038,0.01223550653,0.01397866093,0.01589013525,0.01064021174,0.004302392918,0.001338570108,0.001443745474,0.0005409221242,0.001089520828,0.001064635025,0.001034740809,0.0008648314862,0.0007802509367,0.003791417428,0.005995565929,0.01184128879,0.01107496748,0.007816894903,0.008042680557,0.005076445663,0.00672640697,0.005815376977,0.003797198285,0.002884705218,0.001051508858,0.0005100635884,0.0001325928825,0.0001003701971,4.340607871e-05,6.598730583e-05,8.572538748e-05,0.0001729352669,0.0001247080773,4.958883803e-05,2.470663975e-05,1.532606355e-05,6.347284669e-06,2.590443883e-05,0.0003152749498,0.001689035371,0.007981582719,0.0081136866,0.01287224776,0.02052515542,0.006332258808,0.006950461409,0.01015103022,0.009792619467,0.004919957774,0.006181744177,0.008230487781,0.01086146114,0.009123389491,0.006373577528,0.005603680907,0.002980182981,0.008658099497,0.007365039077,0.0009985549738,0.002946146811,0.0007627607871,0.001012141335,0.0001590315724,0.0001184643839,0.0007528057639,0.002006089144,0.001961168217,0.002271469733,0.003876926641,0.00550372662,0.0019294621,0.001525151382,0.000342840973,0.0001278306421,9.704114223e-05,0.005333483471,0.02317205929,0.03283552121,0.007997574858,0.004540998186,0.002597462317,0.0007355574951,0.0005159844109,0.0006450989758,0.001120248863,0.0111362537,0.01452368879,0.01200332353,0.009897118913,0.01976907622,0.02538303764,0.01829593385,0.002832245572,0.003578600021,0.001208896445,0.0006602108658,0.0001050920711,0.007410580514,0.009277931726,0.004381723636,0.01145761196,0.004172040875,0.002672332166,0.001595954434,0.0007039011661,0.0004391195603,8.623339782e-05,7.443315392e-05,0.001752933773,0.002761461781,0.004207803954,0.004981107361,0.005754699004,0.004814869514,0.004990264775,0.004505372501,0.005412111363,0.00567624351,0.003373853508,0.002727850256,0.001654567583,0.0009774560451,0.0004853048801,0.0003969860916,0.0005778032678,0.0006873327651,0.0006803020282,0.0005704428218,0.0004111362546,0.0005041054499,0.000539966,0.0006844955011,0.0005942915218,0.0003538105135,5.660681893e-05,3.330844555e-06,5.9020553e-06,2.346129247e-06,3.507323582e-06,1.15368322e-06,1.091739025e-06,6.219836971e-07,1.323412576e-06,2.639219167e-06,3.48812922e-06,2.768464357e-05,1.752983708e-05,2.279033599e-05,1.155234684e-05,3.847134377e-06,4.499710043e-06,9.082685329e-06,1.490897924e-06,3.766667159e-06,6.499072525e-07,3.615958445e-07,2.963222601e-05,0.001136861498,0.001693422054,0.002494522778,0.0004907577151,0.002623576868,0.001413505003,0.0004099242928,0.0001247306186,6.440740118e-05,3.942791588e-05,3.77145739e-05,0.001216451214,0.002839597193,0.002127825603,0.003457674213,0.002488352315,0.004861766832,0.01615961334,0.0305449879,0.0106771622,0.003495276298,0.003287029649,0.001333751279,0.0004737693646,0.001022460568,0.0923869281,0.1218197108,0.06588531605,0.08698841794,0.06798794707,0.027061663,0.00706962604,0.04491871618,0.02214647152,0.01546376111,0.02811180797,0.02364019953,0.01303005831,0.01207970055,0.004785778423,0.004807762156,0.007041444799,0.005563042414,0.0005758788059,0.06236942601,0.205123009,0.1069797989,0.2425828793,0.2662724335,0.215371685,0.2388568189,0.1266648016,0.09812018739,0.04753421701,0.005888743322,0.006291848666,0.004137244769,0.001720828659,0.04384524641,0.0751615251,0.09052001458,0.09609389674,0.04051192157,0.01766312329,0.007266928143,0.01146309341,0.00273001433,0.002547684289,0.004207978767,0.00112192013,0.001593156872,0.0007494028967,0.00101026431,0.001352726639,0.001414100879,0.00122455104,0.001445096944,0.001789031914,0.003490463428,0.00521493409,0.009091183943,0.01704494723,0.06976041946,0.06996803488,0.01488910777,0.01336904546,0.01629033579,0.01819338964,0.02027698644,0.005448656632,0.001560619977,0.0006048428428,6.784986398e-05,5.673024127e-05,3.622979259e-05,7.444539864e-05,0.000821099686,0.0007511655213,0.00105567764,0.001251521458,0.00142615438,0.002595761993,0.00231459463,0.002100249304,0.001826800925,0.001155825558,0.001646108732,0.0006497765746,0.0004815225957,0.0004319477432,0.001993372257,0.004492526059,0.005261386126,0.003902129196,0.001380102694,0.007857099379,0.01214281813,0.008262697302,0.01602321997,0.01046504911,0.01182622075,0.02135003777,0.01742990373,0.01272986491,0.004054993816,0.0006876632202,0.0005842458721,0.0009592647295,0.000347390585,0.03454738564,0.02061874067,0.02124095385,0.03499396872,0.05281062244,0.05054282422,0.04900040661,0.04060255446,0.03422237118,0.03087802819,0.01964147609,0.01635166367,0.01406513759,0.009822271995,0.00714414401,0.00665259062,0.006410440304,0.005114323516,0.004530042572,0.004046840736,0.003515171573,0.003243510107,0.002666187076,0.001906964533,0.001782368577,0.001482372722,0.001585318461,0.001550267432,0.001708392733,0.001371809913,0.001118588555,0.0005617964444,0.000148105871,5.138595453e-05,0.0001624598727,0.0001152931825,6.259323803e-05,4.312275465e-05,4.711981762e-06,9.890140942e-06,4.678060288e-06,5.376917445e-07,2.239716511e-06,1.914398577e-06,4.375697023e-07,3.791719781e-07,2.166878316e-07,7.706493936e-08,2.512706123e-07,2.673545564e-08,7.108455554e-08,4.70834742e-08,4.359440726e-08,8.145904907e-09,4.120047246e-08,9.940679256e-09,1.672919779e-08,1.723372673e-08,5.875439211e-09,5.209051899e-09,4.21667125e-09,2.036029671e-09,1.13573688e-09,1.041321304e-09,6.423317757e-10,5.441845632e-10,0,0,NaN,NaN,NaN],
	"sr": 16000,
	"range": [1,135230],
	"minf0": 63.1883,
	"maxf0": 706.3069,
	"thresh": 0.1,
	"relflag": 1,
	"hop": 320,
	"bufsize": 10000,
	"wsize": 640,
	"lpf": 4000,
	"shift": 0,
	"plotthreshold": 0.2
}
