{
    "f0": [
        0.0,
        0.0,
        49.453023504025623,
        42.518137871156952,
        51.610130294223666,
        48.975219642221589,
        43.344249414731841,
        43.635566090546625,
        43.356769127105103,
        43.073407789826831,
        42.991655818217424,
        44.329905833825016,
        46.251090458100435,
        46.438511311345607,
        44.513032012315747,
        45.678979489302534,
        45.916156467105978,
        46.403264203964788,
        46.404593990880549,
        44.299842027242249,
        45.935547180962949,
        45.949672458219027,
        45.993789076622292,
        46.049445665717023,
        46.441950827210945,
        46.134432339743981,
        46.201948104974988,
        45.366148280205167,
        48.308280302618854,
        48.028652973355513,
        51.456861415888348,
        50.583401719326098,
        52.655123649957396,
        0.0,
        0.0,
        0.0,
        0.0,
        45.410460708340423,
        44.355820338272338,
        0.0,
        0.0,
        0.0,
        0.0,
        54.649894079766611,
        43.761203107326871,
        44.285379930061914,
        44.964383853857058,
        45.8090564419198,
        45.996067782494173,
        46.315740042348885,
        47.242626525691989,
        46.609642263439994,
        46.365547356618706,
        48.902220138642697,
        48.503217237823932,
        49.52350670418685,
        50.609376939933405,
        50.511562003492955,
        51.259693772008092,
        51.52260107720403,
        51.479488437940205,
        51.733448524899245,
        51.937215136334004,
        51.987620654469438,
        52.426616439613305,
        52.838487730258628,
        52.898979088461658,
        52.956416326804629,
        53.013662149272207,
        52.896726818140486,
        52.813915556416859,
        52.724763416927928,
        52.128218905517379,
        52.783676727562252,
        52.914604564521888,
        52.58807382495101,
        52.74526225935935,
        52.901036324169098,
        53.055421245348121,
        53.034445642302956,
        53.000841561301158,
        52.62373092524944,
        52.064904593487093,
        52.961218981812607,
        52.767313182907898,
        53.130403071299703,
        52.26465084666475,
        52.678994301190748,
        52.693364326445305,
        52.554049183593392,
        52.150321017526139,
        52.04453487294986,
        51.9883423725108,
        52.079040217132501,
        52.16926849950552,
        52.431296193819435,
        52.255013094975716,
        52.457531599099795,
        52.634516217078392,
        52.647198639842827,
        52.659871778702978,
        52.919464352207569,
        53.175221859326406,
        52.749264298437922,
        52.579260797648324,
        52.099412432364801,
        52.444109574461343,
        52.725143083490543,
        53.029728189660062,
        52.965513956022825,
        52.687479403099204,
        52.513783117903905,
        52.962419810025729,
        54.125245888678549,
        55.722678464897697,
        55.514643795331196,
        55.345823034391088,
        55.326540794465984,
        55.307237054305944,
        55.287909159735861,
        55.330994821758267,
        55.4084862172028,
        55.485633588438056,
        55.494591324861958,
        55.363482976593247,
        55.439570632607982,
        55.433326700777812,
        54.707555029375243,
        54.841332805217846,
        54.807464572723802,
        54.260416960254474,
        54.305310253601164,
        55.123152082722825,
        57.678738188990245,
        57.532639770360937,
        57.385299161464772,
        57.236694891940665,
        56.830321502944855,
        56.414181976525967,
        56.361234509096718,
        56.308129689919085,
        56.597685678874548,
        56.783204570447481,
        56.84194504837393,
        57.085807611132395,
        57.207791662903318,
        57.213859112121,
        57.268280177196722,
        57.240240776303338,
        57.104479708421181,
        57.070691435553215,
        57.057737847212785,
        57.044772126203796,
        56.991159006198259,
        56.937381788675836,
        56.978436725979719,
        56.795956896416257,
        56.893311764501,
        56.878076030148819,
        56.837675453970256,
        56.80979129919205,
        56.764648796086604,
        56.900286337260368,
        56.83254160347974,
        56.658583885708119,
        56.482860450144855,
        56.477594327088489,
        56.472327737469122,
        56.467057191787077,
        56.461786177540887,
        56.799341521453691,
        56.599167759843567,
        56.618506858734293,
        56.287896266242278,
        56.460582195018588,
        56.492291208308309,
        56.523947264981594,
        57.400217208947105,
        57.30960494676318,
        56.330509983713981,
        56.112636383680012,
        56.611614261403176,
        57.223524793982143,
        0.0,
        46.661358424188272,
        50.101449759304785,
        0.0,
        0.0,
        45.194344244608402,
        52.514473952734875,
        52.686733854211631,
        53.531404082260003,
        35.227603162001714,
        46.131845674428618,
        45.233311789805299,
        44.807486956296366,
        46.446494285150976,
        44.899042339034715,
        45.351303238587327,
        42.976911055718531,
        0.0,
        0.0,
        45.456765220151304,
        0.0,
        0.0,
        0.0,
        0.0,
        0.0,
        45.997713732445675,
        54.29437472718751,
        54.466638375908005,
        54.440771173444119,
        54.440771173444119,
        54.448538411511834,
        54.624813238593546,
        54.799313986131615,
        54.798079981318885,
        54.746654236223854,
        53.832257438600948,
        52.621635808343235,
        51.319949766707737,
        50.92114346005026,
        50.848543050579181,
        51.48480292190402,
        51.639085899010738,
        52.193485151942333,
        52.537238637425972,
        52.795428347501911,
        52.914732198463255,
        53.266011599284703,
        53.322594882484893,
        53.348984158262219,
        53.37533317294649,
        53.3953988412675,
        53.254324711031849,
        53.288373709163054,
        53.288339483656301,
        53.288309743488654,
        53.288276980490735,
        53.114246933509854,
        52.676799493868906,
        52.228011583568843,
        52.279007651558892,
        52.726964339731069,
        55.835715392291505,
        55.890251218248281,
        55.770620113420478,
        55.640064587687412,
        55.685868690864339,
        55.869894877083951,
        55.809681424204129,
        55.980575678260237,
        56.239084366363826,
        56.409140903216624,
        56.577539526645225,
        56.890042158964881,
        57.262432755194098,
        57.336831650691657,
        57.276194977091336,
        56.402277571525154,
        56.594373209809277,
        54.549975865859075,
        56.088081594218963,
        56.141106358418369,
        56.357674685821721,
        55.784189219072211,
        54.287081518622678,
        55.290432795714565,
        56.328685200225294,
        56.718355723208482,
        56.839076529464933,
        56.870354542608524,
        57.118119947289081,
        57.307283619393331,
        57.347684624478333,
        57.356532473806666,
        57.365372336350205,
        57.315250157315539,
        57.264981282117901,
        57.214564775264833,
        57.506835539700774,
        57.519365520472967,
        57.437882868601797,
        57.356012581641444,
        57.273750887473796,
        56.841343952026449,
        57.257157182811795,
        57.481303447858458,
        57.085900870215333,
        61.677154305546992,
        61.848856694822452,
        61.887396079518382,
        61.991230569643079,
        62.061979066148552,
        62.320878836946889,
        62.133625092230396,
        61.994626867586369,
        62.171990661850366,
        62.107436907864098,
        61.743345942549418,
        61.697244753443243,
        61.831274364512346,
        0.0,
        0.0,
        45.397179238864418,
        46.241848917603356,
        42.216894827166072,
        41.046215409363327,
        44.162532678191852,
        41.994566981439597,
        40.249507983709108,
        59.786669483388344,
        59.892113441003609,
        59.988662293194501,
        60.084675622932906,
        60.180155474067952,
        60.163863901052693,
        60.098150528256028,
        60.032188754497511,
        59.791976095976615,
        59.575205250477538,
        58.992354921659995,
        56.507300616794659,
        56.91497770137785,
        44.185046678467394,
        0.0,
        0.0,
        0.0,
        0.0,
        56.242682467256323,
        55.180681159968714,
        55.006689917241133,
        55.006689917241133,
        55.177602489506128,
        55.346841646105311,
        55.373755859956844,
        55.400628297211576,
        55.624994960340615,
        55.835884903138307,
        55.851158389238492,
        55.963139168670111,
        55.983360776377481,
        56.026517594616308,
        56.058120676306601,
        56.089666172762925,
        56.121155452525088,
        56.190564812065503,
        56.375033438522124,
        56.500587304511981,
        56.468569079789347,
        56.512955445392024,
        56.660979152549764,
        56.756388205429246,
        56.702839403560127,
        57.049219616903059,
        56.918669705071963,
        57.039605902045011,
        56.991341586258663,
        56.94294123491521,
        56.894403923805797,
        56.671736671821449,
        56.70678325656155,
        57.095639332786575,
        57.494639634471831,
        57.701521651189381,
        57.469375823381853,
        57.37290678966145,
        57.549060074833911,
        57.298466016258082,
        57.684704031866573,
        57.179127565222444,
        57.692367331304112,
        0.0,
        0.0,
        0.0,
        0.0,
        0.0,
        0.0,
        0.0,
        0.0,
        0.0,
        0.0,
        0.0,
        0.0,
        0.0,
        0.0,
        0.0,
        0.0,
        0.0,
        0.0,
        0.0,
        0.0,
        0.0,
        0.0,
        0.0,
        0.0,
        0.0,
        0.0,
        0.0,
        0.0,
        0.0,
        0.0,
        0.0
    ],
    "time": [
        0.02,
        0.040000000000000001,
        0.059999999999999998,
        0.080000000000000002,
        0.10000000000000001,
        0.12,
        0.14000000000000001,
        0.16,
        0.17999999999999999,
        0.20000000000000001,
        0.22,
        0.23999999999999999,
        0.26000000000000001,
        0.28000000000000003,
        0.29999999999999999,
        0.32000000000000001,
        0.34000000000000002,
        0.35999999999999999,
        0.38,
        0.40000000000000002,
        0.41999999999999998,
        0.44,
        0.46000000000000002,
        0.47999999999999998,
        0.5,
        0.52000000000000002,
        0.54000000000000004,
        0.56000000000000005,
        0.57999999999999996,
        0.59999999999999998,
        0.62,
        0.64000000000000001,
        0.66000000000000003,
        0.68000000000000005,
        0.69999999999999996,
        0.71999999999999997,
        0.73999999999999999,
        0.76000000000000001,
        0.78000000000000003,
        0.80000000000000004,
        0.81999999999999995,
        0.83999999999999997,
        0.85999999999999999,
        0.88,
        0.90000000000000002,
        0.92000000000000004,
        0.93999999999999995,
        0.95999999999999996,
        0.97999999999999998,
        1.0,
        1.02,
        1.04,
        1.0600000000000001,
        1.0800000000000001,
        1.1000000000000001,
        1.1200000000000001,
        1.1399999999999999,
        1.1599999999999999,
        1.1799999999999999,
        1.2,
        1.22,
        1.24,
        1.26,
        1.28,
        1.3,
        1.3200000000000001,
        1.3400000000000001,
        1.3600000000000001,
        1.3799999999999999,
        1.3999999999999999,
        1.4199999999999999,
        1.4399999999999999,
        1.46,
        1.48,
        1.5,
        1.52,
        1.54,
        1.5600000000000001,
        1.5800000000000001,
        1.6000000000000001,
        1.6200000000000001,
        1.6399999999999999,
        1.6599999999999999,
        1.6799999999999999,
        1.7,
        1.72,
        1.74,
        1.76,
        1.78,
        1.8,
        1.8200000000000001,
        1.8400000000000001,
        1.8600000000000001,
        1.8799999999999999,
        1.8999999999999999,
        1.9199999999999999,
        1.9399999999999999,
        1.96,
        1.98,
        2.0,
        2.02,
        2.04,
        2.0600000000000001,
        2.0800000000000001,
        2.1000000000000001,
        2.1200000000000001,
        2.1400000000000001,
        2.1600000000000001,
        2.1800000000000002,
        2.2000000000000002,
        2.2200000000000002,
        2.2400000000000002,
        2.2599999999999998,
        2.2799999999999998,
        2.2999999999999998,
        2.3199999999999998,
        2.3399999999999999,
        2.3599999999999999,
        2.3799999999999999,
        2.3999999999999999,
        2.4199999999999999,
        2.4399999999999999,
        2.46,
        2.48,
        2.5,
        2.52,
        2.54,
        2.5600000000000001,
        2.5800000000000001,
        2.6000000000000001,
        2.6200000000000001,
        2.6400000000000001,
        2.6600000000000001,
        2.6800000000000002,
        2.7000000000000002,
        2.7200000000000002,
        2.7400000000000002,
        2.7599999999999998,
        2.7799999999999998,
        2.7999999999999998,
        2.8199999999999998,
        2.8399999999999999,
        2.8599999999999999,
        2.8799999999999999,
        2.8999999999999999,
        2.9199999999999999,
        2.9399999999999999,
        2.96,
        2.98,
        3.0,
        3.02,
        3.04,
        3.0600000000000001,
        3.0800000000000001,
        3.1000000000000001,
        3.1200000000000001,
        3.1400000000000001,
        3.1600000000000001,
        3.1800000000000002,
        3.2000000000000002,
        3.2200000000000002,
        3.2400000000000002,
        3.2599999999999998,
        3.2799999999999998,
        3.2999999999999998,
        3.3199999999999998,
        3.3399999999999999,
        3.3599999999999999,
        3.3799999999999999,
        3.3999999999999999,
        3.4199999999999999,
        3.4399999999999999,
        3.46,
        3.48,
        3.5,
        3.52,
        3.54,
        3.5600000000000001,
        3.5800000000000001,
        3.6000000000000001,
        3.6200000000000001,
        3.6400000000000001,
        3.6600000000000001,
        3.6800000000000002,
        3.7000000000000002,
        3.7200000000000002,
        3.7400000000000002,
        3.7599999999999998,
        3.7799999999999998,
        3.7999999999999998,
        3.8199999999999998,
        3.8399999999999999,
        3.8599999999999999,
        3.8799999999999999,
        3.8999999999999999,
        3.9199999999999999,
        3.9399999999999999,
        3.96,
        3.98,
        4.0,
        4.0199999999999996,
        4.04,
        4.0599999999999996,
        4.0800000000000001,
        4.0999999999999996,
        4.1200000000000001,
        4.1399999999999997,
        4.1600000000000001,
        4.1799999999999997,
        4.2000000000000002,
        4.2199999999999998,
        4.2400000000000002,
        4.2599999999999998,
        4.2800000000000002,
        4.2999999999999998,
        4.3200000000000003,
        4.3399999999999999,
        4.3600000000000003,
        4.3799999999999999,
        4.4000000000000004,
        4.4199999999999999,
        4.4400000000000004,
        4.46,
        4.4800000000000004,
        4.5,
        4.5199999999999996,
        4.54,
        4.5599999999999996,
        4.5800000000000001,
        4.5999999999999996,
        4.6200000000000001,
        4.6399999999999997,
        4.6600000000000001,
        4.6799999999999997,
        4.7000000000000002,
        4.7199999999999998,
        4.7400000000000002,
        4.7599999999999998,
        4.7800000000000002,
        4.7999999999999998,
        4.8200000000000003,
        4.8399999999999999,
        4.8600000000000003,
        4.8799999999999999,
        4.9000000000000004,
        4.9199999999999999,
        4.9400000000000004,
        4.96,
        4.9800000000000004,
        5.0,
        5.0199999999999996,
        5.04,
        5.0599999999999996,
        5.0800000000000001,
        5.0999999999999996,
        5.1200000000000001,
        5.1399999999999997,
        5.1600000000000001,
        5.1799999999999997,
        5.2000000000000002,
        5.2199999999999998,
        5.2400000000000002,
        5.2599999999999998,
        5.2800000000000002,
        5.2999999999999998,
        5.3200000000000003,
        5.3399999999999999,
        5.3600000000000003,
        5.3799999999999999,
        5.4000000000000004,
        5.4199999999999999,
        5.4400000000000004,
        5.46,
        5.4800000000000004,
        5.5,
        5.5199999999999996,
        5.54,
        5.5599999999999996,
        5.5800000000000001,
        5.5999999999999996,
        5.6200000000000001,
        5.6399999999999997,
        5.6600000000000001,
        5.6799999999999997,
        5.7000000000000002,
        5.7199999999999998,
        5.7400000000000002,
        5.7599999999999998,
        5.7800000000000002,
        5.7999999999999998,
        5.8200000000000003,
        5.8399999999999999,
        5.8600000000000003,
        5.8799999999999999,
        5.9000000000000004,
        5.9199999999999999,
        5.9400000000000004,
        5.96,
        5.9800000000000004,
        6.0,
        6.0199999999999996,
        6.04,
        6.0599999999999996,
        6.0800000000000001,
        6.0999999999999996,
        6.1200000000000001,
        6.1399999999999997,
        6.1600000000000001,
        6.1799999999999997,
        6.2000000000000002,
        6.2199999999999998,
        6.2400000000000002,
        6.2599999999999998,
        6.2800000000000002,
        6.2999999999999998,
        6.3200000000000003,
        6.3399999999999999,
        6.3600000000000003,
        6.3799999999999999,
        6.4000000000000004,
        6.4199999999999999,
        6.4400000000000004,
        6.46,
        6.4800000000000004,
        6.5,
        6.5199999999999996,
        6.54,
        6.5599999999999996,
        6.5800000000000001,
        6.5999999999999996,
        6.6200000000000001,
        6.6399999999999997,
        6.6600000000000001,
        6.6799999999999997,
        6.7000000000000002,
        6.7199999999999998,
        6.7400000000000002,
        6.7599999999999998,
        6.7800000000000002,
        6.7999999999999998,
        6.8200000000000003,
        6.8399999999999999,
        6.8600000000000003,
        6.8799999999999999,
        6.9000000000000004,
        6.9199999999999999,
        6.9400000000000004,
        6.96,
        6.9800000000000004,
        7.0,
        7.0199999999999996,
        7.04,
        7.0599999999999996,
        7.0800000000000001,
        7.0999999999999996,
        7.1200000000000001,
        7.1399999999999997,
        7.1600000000000001,
        7.1799999999999997,
        7.2000000000000002,
        7.2199999999999998,
        7.2400000000000002,
        7.2599999999999998,
        7.2800000000000002,
        7.2999999999999998,
        7.3200000000000003,
        7.3399999999999999,
        7.3600000000000003,
        7.3799999999999999,
        7.4000000000000004,
        7.4199999999999999,
        7.4400000000000004,
        7.46,
        7.4800000000000004,
        7.5,
        7.5199999999999996,
        7.54,
        7.5599999999999996,
        7.5800000000000001,
        7.5999999999999996,
        7.6200000000000001,
        7.6399999999999997,
        7.6600000000000001,
        7.6799999999999997,
        7.7000000000000002,
        7.7199999999999998,
        7.7400000000000002,
        7.7599999999999998,
        7.7800000000000002,
        7.7999999999999998,
        7.8200000000000003,
        7.8399999999999999,
        7.8600000000000003,
        7.8799999999999999,
        7.9000000000000004,
        7.9199999999999999,
        7.9400000000000004,
        7.96,
        7.9800000000000004,
        8.0,
        8.0199999999999996,
        8.0399999999999991,
        8.0600000000000005
    ]
}