{
	"f0": [NaN,50.77506922,35.64855727,44.1133431,47.4826694,48.28914579,49.22559321,50.35347182,51.58063817,52.07293752,52.29290781,52.48402956,52.6636124,52.89278217,53.20766905,53.79133491,54.73970057,55.69928078,56.52080248,56.84752613,56.91868381,56.75991948,56.46797453,55.94874911,55.31963617,50.44726567,45.79479816,45.77306691,48.88477823,56.24554887,55.83600541,56.08879896,56.57871445,56.83496461,56.841524,56.73363169,56.74159672,56.83487902,56.88985663,56.90725004,56.86599605,56.812537,56.79626477,56.80792936,56.90025917,56.99807102,57.0628609,57.08757195,57.03932119,56.98668898,56.95608758,56.92357816,56.90010801,56.87102741,56.91232024,56.98215337,56.9436629,56.89016356,56.80217178,56.77223262,57.03421263,57.57024889,58.34072047,59.05599796,59.37083935,59.67171559,59.82718135,59.7536851,59.69959383,59.69427993,59.69803622,59.71559101,59.72980659,59.69463369,59.45367009,59.08303723,59.00173256,58.64753298,59.48573577,59.77491758,59.91370729,59.92783295,59.79925864,59.64567224,59.4191098,59.1719802,58.77958487,58.35306359,58.0280932,58.17609913,58.51926304,58.7332136,58.78940012,58.77131254,58.62761913,58.37091129,57.98040603,57.48202822,57.84804369,58.05480283,58.19162344,58.26342606,58.23236362,58.18672373,58.13066672,58.11411186,58.18879204,58.2690923,58.40480607,58.56929705,58.72832662,58.86577494,58.94360669,58.95918935,58.96835393,58.90118225,58.74738572,58.60228112,58.37003432,57.90013531,57.66169865,56.46727057,56.25428126,56.30013886,56.43716518,56.6138098,56.73448856,56.82317674,57.00402221,57.25589479,57.52166965,58.24000761,58.80581356,59.05751715,59.17667619,59.31338998,59.31056906,59.1081866,58.88054572,58.74243644,58.66731313,58.67928791,58.71698572,58.73559648,58.78135858,58.87566798,58.93104923,58.91507012,58.80505362,58.76188526,58.83182237,58.84543924,58.83823488,58.82396076,58.81350736,58.80606565,58.77872604,58.77605615,58.76125802,58.76468971,58.77254251,58.75023495,58.76587358,58.79660731,58.80059336,58.77407787,58.69866151,58.63154863,58.61663278,58.61701934,58.66082145,58.74221205,58.83042684,58.83499729,58.79208484,58.79806548,58.85508668,58.91266242,58.99909123,58.9928009,58.89510182,58.84434318,58.8343565,58.86182081,58.86220697,58.83046445,58.7903243,58.73710195,58.60427462,58.45492384,58.58350818,58.39935845,58.11272721,57.16452473,50.04216227,49.04365613,50.80945004,50.27188766,49.3008403,49.02119877,49.21172876,49.68727876,52.29105478,54.9224708,56.7008706,57.51497392,57.93180489,58.50550184,58.83947077,58.98501007,59.14096714,59.2387984,59.22746036,59.11809929,58.92421668,58.73558673,58.58163671,58.54256367,58.56666027,58.55736986,58.56097642,58.60970303,58.73307596,58.72305791,58.71527064,58.72847761,58.71780363,58.75678304,58.78236499,58.81482781,58.8579561,58.86564487,58.90774706,58.95565622,58.89283935,58.82107023,58.83457118,58.72061856,58.52622545,58.31369883,58.06713107,46.38138252,46.40964626,46.51965899,46.30154086,55.15705009,63.39792015,63.40293344,63.4846635,63.53019057,63.60236771,63.7579625,63.95567595,64.05829362,64.1175116,64.14981802,64.16023656,64.19991747,64.27293147,64.3638868,64.46045779,64.43787404,64.11452189,63.57716322,63.01684339,63.17990488,63.90827212,64.31929386,64.39705182,64.35807415,64.203537,64.0468617,63.79518668,63.60514923,63.43388973,63.21871891,62.74272425,62.43895714,62.15018332,62.01268468,62.00923339,62.03644152,62.08621212,62.18838012,62.35269237,62.3974661,62.39947334,62.39856894,62.43981486,62.54349118,62.60207465,62.57325628,62.54785579,62.69209299,62.77261108,62.76622888,62.77184319,62.72191329,62.76230112,62.84631893,62.93384324,63.01690285,62.97793166,62.92254179,62.92038132,62.8488493,62.64240922,62.46156618,62.40935895,62.60165469,63.36507075,63.84826482,64.05563589,64.14615468,64.16573236,64.19681248,64.30426941,64.54876399,64.88026181,64.98588749,64.83840042,64.61213372,64.45860661,64.39681832,64.37168628,64.35668957,64.37567141,64.39390122,64.29145263,64.14337273,64.03379003,63.97644553,64.12223083,64.50444155,65.18603698,65.37240831,65.40232062,65.41363848,65.3846332,65.37032058,65.37855233,65.36270683,65.34102495,65.22405999,64.98666891,64.85673162,64.86432986,64.92352794,65.11323782,65.93828143,67.421841,68.95465199,68.7470991,68.69965447,66.34382256,65.29941201,66.9224708,69.17399484,69.17399484,67.36105384,68.19892038,49.91959574,49.52483579,49.80164637,50.43581466,49.21841468,44.68186303,47.34887861,56.23796469,76.93035138,76.93035138,76.93035138,76.93035138,76.93035138,76.93035138,76.93035138,76.93035138,76.93035138,76.93035138,76.93035138,76.93035138,76.93035138,76.93035138,76.93035138,76.93035138,76.93035138,76.93035138,76.93035138,76.93035138,76.93035138,76.93035138,76.93035138,76.93035138,76.93035138,76.93035138,76.93035138,76.93035138,76.93035138,76.93035138,76.93035138,76.93035138,76.93035138,76.93035138,76.93035138,76.93035138,76.93035138,76.93035138,76.93035138,76.93035138,76.93035138,76.93035138,76.93035138,76.93035138,76.93035138,76.93035138,76.93035138,76.93035138,76.93035138,76.93035138,76.93035138,76.93035138,76.93035138,76.93035138,76.93035138,76.93035138,76.93035138,76.93035138,76.93035138,76.93035138,76.93035138,76.93035138,76.93035138,76.93035138,76.93035138,76.93035138,76.93035138,76.93035138,76.93035138,76.93035138,76.93035138,76.93035138,76.93035138,76.93035138,76.93035138,76.93035138,76.93035138,76.93035138,76.93035138,76.93035138,76.93035138,76.93035138,76.93035138,76.93035138,76.93035138,76.93035138,76.93035138,76.93035138,76.93035138,76.93035138,76.93035138,76.93035138,76.93035138,76.93035138,76.93035138,76.93035138,76.93035138,76.93035138,76.93035138,76.93035138,76.93035138,76.93035138,76.93035138,76.93035138,76.93035138,76.93035138,76.93035138,76.93035138,76.93035138,76.93035138,76.93035138,76.93035138,76.93035138,76.93035138,76.93035138,76.93035138,76.93035138,76.93035138,76.93035138,76.93035138,76.93035138,76.93035138,76.93035138,76.93035138,76.93035138,76.93035138,76.93035138,76.93035138,76.93035138,76.93035138,76.93035138,76.93035138,NaN,NaN,NaN],
	"ap0": [NaN,0.6435169976,0.329373693,0.9638352649,0.2486864096,0.1111379548,0.1314455817,0.09169344614,0.07157853071,0.03139203746,0.01473937243,0.01492607811,0.009490975943,0.01312685813,0.01599713901,0.04778279079,0.0943931525,0.1213706141,0.04699403284,0.01859583826,0.005950488702,0.01718423777,0.0638573844,0.3230479634,0.4449865447,0.6487888725,0.6477881061,0.6719133441,0.6425875421,0.8721731547,0.1593363746,0.05051685916,0.01978275766,0.005531683909,0.002657458618,0.002009575944,0.001987169729,0.001015673734,0.0004263826033,0.0003069044501,0.0007416308974,0.0004774788124,0.0003018784791,0.0006231974423,0.001634817674,0.0006082314867,0.0005549571309,0.0004210918293,0.0006505930673,0.0003678259317,0.0005427295258,0.005181382107,0.01033283436,0.00353570652,0.006122100679,0.01287114765,0.00793145571,0.001547936666,0.001973015986,0.002426579075,0.006247323427,0.01345905347,0.02774488733,0.01273789478,0.006794135937,0.004657143706,0.00127638665,0.001011074151,0.0008372723725,0.0005779618654,0.0003933721786,0.0004131879832,0.0003431272203,0.001443119861,0.00952646576,0.007087919112,0.02264800755,0.07324232386,0.4866876987,0.1736888677,0.05009742853,0.01093668559,0.008701616322,0.005497148785,0.003824275425,0.007021096666,0.01461755048,0.02213570133,0.008124257073,0.01039593857,0.01851564659,0.004828203447,0.002103909166,0.001179204423,0.003183400183,0.008537797376,0.03319772597,0.1443781939,0.07415144735,0.02610857466,0.0230234294,0.006541574851,0.00607421745,0.006424969142,0.005950629254,0.004585209033,0.003502006187,0.002517652553,0.004334038672,0.003661330888,0.002519634385,0.00119971038,0.00060443962,0.0004110637379,0.0003083800282,0.001666289155,0.002584919246,0.008766832045,0.03593783033,0.1198606293,0.1612551255,0.3151985407,0.09209173664,0.06081507822,0.02826335267,0.01352637872,0.00915527477,0.007961464102,0.006851558596,0.005379814009,0.01716563553,0.02737840535,0.01793774473,0.005459512065,0.003017526726,0.002871738126,0.002358027342,0.004528983561,0.003504927296,0.00276783417,0.002275110473,0.002654973731,0.002900242593,0.001873028465,0.001732797522,0.00164555631,0.00105038472,0.0008335444753,0.001650250603,0.001597619529,0.002111997116,0.002103146385,0.001408586179,0.0009391916358,0.001623641925,0.00184228417,0.0009915730284,0.0006771082787,0.0005077321774,0.0009027668213,0.0008946284062,0.0004261406807,0.0004715308517,0.0006089635219,0.0006013170305,0.001097824252,0.001585299815,0.0009076763984,0.0007809599034,0.001192013461,0.001292726615,0.0009344993004,0.001319180136,0.001592632285,0.001410714377,0.0009811728078,0.001008916663,0.001318020816,0.001351347673,0.001189386674,0.001206165417,0.001582633151,0.00192879689,0.001522593569,0.0006371303404,0.0005796611546,0.0006281231564,0.0007010746645,0.005328021131,0.01673481167,0.05697941782,0.0568146963,0.1266459695,0.6144865916,0.36606705,0.558714532,0.1571885548,0.06611346241,0.03502187698,0.02938816448,0.02151447512,0.1362632739,0.3110385571,0.401985372,0.318148184,0.1158983354,0.0748031467,0.09369264106,0.01627470369,0.004458076517,0.002948190582,0.001558952611,0.001357580538,0.001953248548,0.002117084024,0.001789808632,0.001589289423,0.001171335971,0.0009903125937,0.0009426939958,0.0007874778651,0.0008824738142,0.006966887294,0.005859459962,0.0009452505848,0.0006359212632,0.000525378922,0.0008681287672,0.0009521744042,0.0006827894211,0.000483326739,0.0006274333633,0.0009816306571,0.0005489356236,0.0009873036687,0.0008298843898,0.001161991385,0.004826024087,0.01837812022,0.1840082052,0.4452045564,0.3311419138,0.3934970448,0.4822997826,0.5417249238,1.226921187,0.09152695962,0.03695156057,0.008051200915,0.007626316825,0.007941674285,0.008713600656,0.006090242673,0.002292960617,0.002219754296,0.001576187128,0.0009033989387,0.001412309905,0.001790286266,0.002484256901,0.003394049123,0.003765726192,0.01581213447,0.06503090908,0.06371252642,0.03319006458,0.02981511289,0.007535297884,0.003333877854,0.003030948639,0.004636673674,0.007509796049,0.007449847523,0.005288339295,0.006863522788,0.01273454006,0.01865439173,0.01519155585,0.0138588212,0.004542282606,0.002659530667,0.002455063394,0.001573324861,0.002075605845,0.002127659271,0.002000489546,0.001901365083,0.001924987145,0.002146168379,0.002682350637,0.002480276087,0.00262521797,0.002573511704,0.006085311815,0.004411780467,0.003714117751,0.004350319828,0.004117757332,0.003619199472,0.003420270541,0.00412844165,0.002508164346,0.003901013663,0.004188505574,0.003338201137,0.003666521952,0.00841144117,0.005162599882,0.005598515108,0.02101683301,0.02083889696,0.006117220634,0.004093615912,0.001938411208,0.001509022959,0.0009088036012,0.002159583884,0.006733696027,0.01272770477,0.009244767879,0.00486644016,0.00383464479,0.001942967996,0.001139657151,0.001178144094,0.0007419575303,0.0005306660816,0.0007600417966,0.001750086743,0.001204157156,0.001054968988,0.001019301075,0.003435115098,0.01639391849,0.02181951827,0.00484595045,0.002937374098,0.002715192882,0.0023129715,0.002068578027,0.002219935943,0.002260936457,0.002041679714,0.004327404192,0.007597489842,0.006206582077,0.004628342125,0.005282988543,0.01314026198,0.1145117355,0.2158951226,0.07482946064,0.1515825928,0.4158191034,0.9040936952,0.2552855559,0.5563351599,0.2748586049,0.2597149247,0.3928606983,0.5888141531,0.4144638322,0.5819554133,0.5140092062,0.4709607696,0.36664369,0.8323417349,0.5817785116,1,1,1,1,1,1,1,1,1,1,1,1,1,1,1,1,1,1,1,1,1,1,1,1,1,1,1,1,1,1,1,1,1,1,1,1,1,1,1,1,1,1,1,1,1,1,1,1,1,1,1,1,1,1,1,1,1,1,1,1,1,1,1,1,1,1,1,1,1,1,1,1,1,1,1,1,1,1,1,1,1,1,1,1,1,1,1,1,1,1,1,1,1,1,1,1,1,1,1,1,1,1,1,1,1,1,1,1,1,1,1,1,1,1,1,1,1,1,1,1,1,1,1,1,1,1,1,1,1,1,1,1,1,NaN,NaN,NaN],
	"ap": [NaN,0.09201691642,0.01326161173,0.01312029352,0.01637162872,0.5004212726,0.1812329671,0.1313159158,0.1348560553,0.03921515776,0.03069716053,0.02821623144,0.01691932373,0.005296630108,0.0247815565,0.02223637274,0.05731248322,0.2427534158,0.1309892042,0.02938414667,0.01013639,0.01010860592,0.01303375403,0.06574454136,0.1211757811,0.08059172538,0.416354296,0.1843764374,0.2722969869,0.4512659914,0.2963153402,0.2183895931,0.03406313431,0.01768121315,0.001396166695,0.003947717463,0.0007000851563,0.003370744227,0.0005245994867,0.0003214936099,0.0003191912295,0.0005058668323,0.0002753521209,0.0002263600964,0.001352347328,0.001764727791,0.0003717816193,0.000292859293,0.0007227739277,0.0007425722051,0.0001785729607,0.0001281484227,0.0005266725174,0.0139182902,0.001348400462,0.001649163226,0.004537463809,0.001956326732,0.0008595360865,0.001160691928,0.005026933536,0.02251681305,0.04173265363,0.03061044922,0.01228137669,0.008909421961,0.001997642397,0.001429498055,0.000930381227,0.0001913058908,0.0003411831123,9.820040034e-05,0.0001502856541,0.0004167000964,0.00376092251,0.01387916775,0.003022485554,0.01465757533,0.2962896011,0.03972304646,0.2782344509,0.0002006008626,0.003058514833,0.01304121823,0.002628392506,0.008130447052,0.01500859583,0.01619227836,0.01087464643,0.005965994384,0.01259873073,0.01688729185,0.003327634686,0.000628355222,0.001298748108,0.005390240484,0.009362069947,0.01516294627,0.116163742,0.04417246815,0.03156277402,0.007483783288,0.001689288064,0.001962155208,0.001185821222,0.002230676646,0.002346501423,0.003236346712,0.001396308104,0.006768455532,0.003792256392,0.002872856046,0.001081353416,9.713790963e-05,0.0001802259962,0.0005825048014,0.002064215617,0.002032935358,0.003832859108,0.01978520455,0.3243638366,0.3063939776,0.4669439675,0.2506377794,0.03378770824,0.04537446659,0.005191121569,0.008600664613,0.004273675779,0.00795580285,0.008099979862,0.05236282607,0.02605738709,0.01224176655,0.001694543757,0.002649540076,0.001357676429,0.001899309897,0.0042452805,0.00217026334,0.001465440898,0.001699192514,0.002088887365,0.002482876009,0.001094927279,0.002011162001,0.0002875143093,0.000763169077,0.002193595213,0.0007530759349,0.001321094612,0.000280780447,0.00167905493,0.001062314476,0.0006912371908,0.0002746363373,0.001237010942,0.0006649408025,0.0005219130311,0.0002448920738,8.607129717e-05,0.001079301529,0.0002957605805,0.0002839429027,0.0001434609986,0.0001487109281,0.001199562816,0.0008637595384,0.0001448715467,0.0006504335579,0.0001289416798,0.0008947342208,0.00130896747,0.0003000966284,0.001531506686,0.0003309353391,0.000764444848,0.0001845359046,0.001175877119,0.0004573713662,0.001673418912,0.0002988254968,0.001535159832,0.0002308610203,0.0006467996482,0.0002755049818,0.000221138909,0.000273648768,0.001304145999,0.002725947115,0.01342943537,0.02463639618,0.007221366613,0.05297573347,0.216350913,0.1766406316,0.1032257084,0.371346215,0.03825503178,0.00780321523,0.05361769974,0.01412496514,0.4046428206,0.4402845527,0.283331577,0.2888725909,0.1195671678,0.04011890475,0.07227924559,0.02311127802,0.003341443747,0.001846022465,0.001392181856,0.0008416386176,0.001040312652,0.001725231981,0.00064152243,0.0003367194461,0.0009172812716,0.0001667793995,0.0002959868104,0.0006012206103,0.00117492766,0.0009371248884,0.001214101705,0.0003010061058,0.0002887879593,0.0007182876729,0.0001292706165,0.000612161979,0.001097654762,0.0002006369116,0.000230013656,0.0009886164747,0.0007059088223,0.0007453533786,0.0008458106983,0.001541294535,0.004731511708,0.005872878487,0.2587168677,0.06905883604,0.262552945,0.09541692846,0.1503514171,0.3322079289,0.212881909,0.3876543632,0.02240504018,0.003513967074,0.001685752263,0.00648928043,0.006379186697,0.0007443537585,0.0003969543888,0.001934250469,0.0003716239549,0.001526808265,0.0004705660611,0.001793261596,0.001422636763,0.0007130588607,0.009447812745,0.03313643992,0.02282226757,0.1861356827,0.07126022522,0.02772041247,0.002209305149,0.0003477949305,0.004909236719,0.008005581939,0.00785904856,0.008018813443,0.00474560789,0.008945191033,0.03881077147,0.02715229714,0.0240338968,0.005201641363,0.003186911816,0.001343700501,0.0007160120393,0.001993343041,0.002059610772,0.0001894867664,0.0007863581092,0.0007581720976,0.001017982123,0.002232518785,0.00121616968,0.003318959089,0.000413266688,0.002892016721,0.00258751788,0.003926768762,0.001720084246,0.004889107969,0.003343597891,0.003113759479,0.007716888571,0.001194456297,0.001445469864,0.003228099303,0.00159906171,0.001418676033,0.005636066279,0.009440989452,0.002436105893,0.005258154247,0.05446283911,0.01755870731,0.006175879667,0.002337149478,0.0009550531865,0.0007157447432,0.001007407917,0.004461223097,0.006974604534,0.007300360562,0.005968221709,0.004060109346,0.005196152952,0.0006469754906,0.0004165983418,0.0008646209512,0.0005673166566,0.0001727213351,0.001284813987,0.002337100359,0.00141528216,0.0007708849079,0.001415679642,0.009967605357,0.02779961494,0.006254540495,0.001659216777,0.002795601492,0.001005213778,0.001493088126,0.0006219006312,0.000937542418,0.0006420063816,0.002510126945,0.006762907921,0.005396933379,0.004687796051,0.001220668185,0.009759910349,0.05979883064,0.1431114151,0.07004499293,0.03359212922,0.0423584013,0.2174359564,0.547176721,0.5759243472,0.4766136236,0.0848252038,0.4115448692,0.1149337431,0.3630767272,0.199921427,0.3392080675,0.1210320706,0.1664103627,0.3746976983,0.5000001553,0.5000002144,1,1,1,1,1,1,1,1,1,1,1,1,1,1,1,1,1,1,1,1,1,1,1,1,1,1,1,1,1,1,1,1,1,1,1,1,1,1,1,1,1,1,1,1,1,1,1,1,1,1,1,1,1,1,1,1,1,1,1,1,1,1,1,1,1,1,1,1,1,1,1,1,1,1,1,1,1,1,1,1,1,1,1,1,1,1,1,1,1,1,1,1,1,1,1,1,1,1,1,1,1,1,1,1,1,1,1,1,1,1,1,1,1,1,1,1,1,1,1,1,1,1,1,1,1,1,1,1,1,1,1,1,NaN,NaN,NaN],
	"pwr": [NaN,0.0007709413848,0.0004752775775,0.0004482462543,0.0004804086601,0.002281652626,0.01348201937,0.02197486484,0.02491187151,0.03744093215,0.05052682885,0.05368903588,0.03772754393,0.03903672212,0.05283626354,0.04426990285,0.03609372129,0.02221523297,0.03080103015,0.03486006792,0.06015208148,0.08874978026,0.115929888,0.03681720227,0.004939339283,0.003219473968,0.002163981102,0.00264254234,0.002672597816,0.00148953661,0.001052824793,0.001463732567,0.009489978618,0.01906118945,0.0373374061,0.05428224102,0.06242947667,0.05146058574,0.05055597928,0.06020385601,0.06499525066,0.06489316677,0.06440384747,0.05800107757,0.05726696405,0.05810370975,0.0639426443,0.0708968119,0.07892482375,0.08416045577,0.09236321866,0.08716294281,0.07425643158,0.03087984684,0.0210824801,0.01780555746,0.02141827617,0.04225502829,0.04925843918,0.04170754378,0.02782372866,0.02419894266,0.03418109071,0.03680555156,0.02727869308,0.09301015098,0.1098881816,0.08821849087,0.1037972823,0.09448811985,0.0916112712,0.09224035314,0.09267721453,0.103369666,0.09739502054,0.0940094537,0.07584624188,0.06251422466,0.00172542045,0.01096732086,0.04351310944,0.1745970637,0.1465769296,0.1139799855,0.1227775118,0.1250173056,0.1741556267,0.2135617563,0.1516016883,0.06754011095,0.05372737741,0.03889502625,0.08829208832,0.1928474685,0.2070527751,0.2099164682,0.1745559873,0.1154401697,0.01916614991,0.04445843534,0.1071588459,0.1001311127,0.0704558924,0.04640840438,0.03004145624,0.02256776338,0.02253444039,0.02282536299,0.02451612707,0.02594554764,0.05100777978,0.08665823876,0.1127870823,0.1247437199,0.1234008544,0.1162473085,0.1081400452,0.1025676343,0.1016814524,0.04344463709,0.002207927403,0.005590437125,0.002551505412,0.002920571318,0.1096020927,0.0462449846,0.04407309857,0.03684947941,0.04643079566,0.04074212178,0.04489808281,0.03841677688,0.03823259732,0.03906325755,0.07947664313,0.1256190763,0.1093527127,0.1035465824,0.1004713045,0.08524457952,0.07898216719,0.06582590792,0.08197260099,0.08890694391,0.08561397723,0.08831214661,0.08604078378,0.09188171674,0.0932888345,0.08505540885,0.07055221418,0.07688431876,0.08707504493,0.08335045209,0.08343768962,0.0696523216,0.07553514947,0.06997619702,0.07278497127,0.06896143326,0.0652561641,0.06061018162,0.05573358091,0.04857379619,0.04729833701,0.04333068187,0.04289540153,0.0346712774,0.02759650761,0.0243681207,0.02015844378,0.022044245,0.02271163399,0.02467292878,0.02677673887,0.02398722575,0.022879919,0.02330536466,0.02720932713,0.02908524033,0.02850337558,0.0249516326,0.02393998812,0.02342548442,0.02619098091,0.03150269758,0.03335463061,0.03218893392,0.03157197708,0.02760660679,0.01086436989,0.001427780445,0.001507373082,0.001180462896,0.0005138966034,0.0005823179811,0.008205143575,0.002118199193,0.04701741576,0.02952577495,0.02758912498,0.02707526824,0.02352846741,0.01206463872,0.02297319142,0.01538166497,0.01074504274,0.01389863149,0.005943898569,0.01120559896,0.03245085023,0.04533785078,0.04003754125,0.04287323162,0.03856259766,0.03773842523,0.03164113715,0.03053844952,0.0305356612,0.03799466135,0.03550327869,0.03270977314,0.03547843667,0.03946180114,0.06893665985,0.0632831625,0.06863793556,0.06921241396,0.07909254391,0.09010714618,0.09905626436,0.1067388957,0.1079165535,0.1029498398,0.1173657812,0.1130709097,0.1081095831,0.1224437199,0.1758968577,0.120024451,0.006587513157,0.01546437627,0.006740324474,0.002008207295,0.00153319372,0.001366915892,0.0006293589844,0.002090988398,0.05258796548,0.0619647146,0.06414178469,0.05177891991,0.05981438899,0.07904958864,0.1133046195,0.1157028703,0.1317851872,0.1363189213,0.1178974645,0.1054773038,0.09775890772,0.05903546162,0.03462644151,0.03373633414,0.04681518204,0.01066358848,0.02566689715,0.01678734692,0.03699693008,0.07790680319,0.06453238033,0.08069326711,0.1183859587,0.06815809908,0.05992823125,0.06961543856,0.06670487276,0.02806491694,0.06008115854,0.05349685826,0.08249628603,0.1011290639,0.06443610189,0.06984854232,0.06006678897,0.04230771121,0.03576541932,0.0331484796,0.03501347499,0.03419735215,0.03039323272,0.03314542648,0.0330374452,0.04101725043,0.04676303737,0.04295332621,0.0444989567,0.04303525313,0.03632853316,0.04383762921,0.03884040873,0.03686496265,0.04206054684,0.04202882881,0.04497807774,0.04683111182,0.04633577293,0.04295628693,0.0424018293,0.03216206194,0.02776761472,0.01521164888,0.02043854888,0.06460273924,0.09035576433,0.1384960076,0.1355888912,0.1864047409,0.1450209147,0.05230346386,0.02190882123,0.05343252468,0.0645783517,0.07956652556,0.1043669884,0.1182470897,0.1103420674,0.1179942684,0.1265552852,0.129921938,0.1722417638,0.2054090613,0.1692595388,0.1230136029,0.1185286485,0.02756787509,0.07044705742,0.1064804291,0.09839547503,0.1294795062,0.09820461947,0.0955733437,0.08528614427,0.08348848031,0.07511843502,0.08113185122,0.06990072072,0.05132711082,0.03270449346,0.02139595455,0.01217000473,0.01399720899,0.007022958915,0.002125016222,0.0006923923506,0.000276755381,6.437555194e-05,7.665333235e-05,6.612536931e-05,2.416455174e-05,6.208984435e-06,1.071988031e-06,2.605988162e-07,1.103320196e-07,1.333258647e-07,4.045943027e-09,3.48472141e-09,1.833312155e-12,2.58870913e-10,0,0,0,0,0,0,0,0,0,0,0,0,0,0,0,0,0,0,0,0,0,0,0,0,0,0,0,0,0,0,0,0,0,0,0,0,0,0,0,0,0,0,0,0,0,0,0,0,0,0,0,0,0,0,0,0,0,0,0,0,0,0,0,0,0,0,0,0,0,0,0,0,0,0,0,0,0,0,0,0,0,0,0,0,0,0,0,0,0,0,0,0,0,0,0,0,0,0,0,0,0,0,0,0,0,0,0,0,0,0,0,0,0,0,0,0,0,0,0,0,0,0,0,0,0,0,0,0,0,0,0,0,NaN,NaN,NaN],
	"sr": 16000,
	"range": [1,161128],
	"minf0": 63.1883,
	"maxf0": 706.3069,
	"thresh": 0.1,
	"relflag": 1,
	"hop": 320,
	"bufsize": 10000,
	"wsize": 640,
	"lpf": 4000,
	"shift": 0,
	"plotthreshold": 0.2
}
