{
	"f0": [NaN,35.34887861,35.34887861,35.34887861,35.34887861,35.34887861,35.34887861,35.34887861,35.34887861,35.34887861,35.34887861,35.34887861,43.74637381,63.55126448,63.65379359,63.63583658,63.56603368,63.48794457,63.51631596,63.73688497,63.61980751,63.09978646,65.00214743,65.07707473,65.19150798,65.21913895,65.18222966,65.17328105,65.09921848,65.03338725,65.09519368,65.24754948,65.44133943,65.96315635,66.37200286,66.50932541,66.49550243,66.37229494,66.15608943,65.79595754,65.80934647,65.93641028,66.09591994,66.42385508,66.8032041,67.0147261,67.34600382,67.72834779,67.97174555,68.0739042,68.10532471,68.13371095,68.20978116,70.16354076,48.74735889,48.8770747,56.73789326,68.18984393,68.30966446,68.22476556,67.99386545,67.85668392,67.84221518,67.94189634,67.96560315,67.94905299,67.95292216,67.96687061,68.02338782,68.01361982,67.67393262,67.33673981,67.30973245,67.52671995,67.80129359,68.06529013,68.12445269,68.07655157,68.1966512,68.40838467,68.69948246,69.04804443,68.55675316,68.23252559,56.16648552,35.34157064,35.48715259,35.34887861,49.68192024,54.87581635,54.92831894,55.01104451,55.68730242,40.93462672,47.072811,54.8159765,54.45806947,40.97300046,49.1577049,49.83677829,50.01922994,67.48992799,67.40760946,67.43335819,67.72134891,67.90505209,67.93043922,67.7642245,68.04240012,68.9557544,67.77606431,68.29797832,68.1464399,67.87852171,67.65429336,67.41304313,67.30673132,67.31877559,67.46243097,67.64831108,67.83791796,67.93385639,67.91290808,67.87255406,67.87049929,67.90475515,67.90654916,67.83824101,67.69662511,67.87682171,68.59342767,66.72717089,66.37285997,66.10772036,65.90432734,65.89573412,65.8821312,65.94440133,66.01858032,66.10476577,66.14203359,66.07927442,65.96210256,66.01366907,66.22481674,66.49704092,66.653099,66.59992043,66.29099322,66.38313542,65.73495418,65.76602586,48.56082173,53.08207882,66.5141873,66.1644178,65.72956013,65.42047872,65.2293815,65.2138813,65.37434633,65.59361246,65.81841391,65.95577994,65.80045584,65.55530818,65.37581186,64.51293487,64.34252374,64.19281259,64.0721195,64.28869731,63.7886792,49.07213897,49.05259874,40.54981202,50.04098974,64.7848158,64.43464721,64.16661377,64.02107739,63.9256401,63.81019437,63.6871074,63.6373454,63.65899599,63.6604788,63.65061719,63.69227726,63.73019591,63.70031799,63.65925063,63.62384946,63.6544918,63.68409391,63.68641709,63.70848581,63.74654555,63.85384754,63.97411007,64.01668108,63.95562434,63.82441726,63.6896755,63.61128594,63.5859557,63.57342467,63.59331274,63.67368282,63.77928117,63.81990615,63.88970913,63.99294223,64.05950414,64.08316363,64.1583693,64.22183263,64.24785449,64.33031298,64.53377893,54.71262168,36.37430436,41.28046067,50.31549102,53.3108577,54.50528578,52.01414075,52.55802863,53.60896722,50.25782072,48.62137826,47.45942946,40.26647298,49.99488296,39.96445709,35.34887861,40.17112784,35.34887861,35.34887861,35.34887861,35.34887861,35.34887861,35.34887861,35.34887861,35.34887861,35.34887861,35.34887861,35.34887861,35.34887861,35.34887861,40.64907888,40.42413829,40.28484076,55.77102225,56.69965447,35.34887861,35.34887861,54.71262168,54.72256367,35.34887861,35.56172254,35.63682465,35.76322563,35.79283611,35.76469452,35.34887861,35.34887861,35.34887861,35.34887861,35.34887861,39.97969372,48.91732291,35.34887861,35.34887861,46.54970563,46.54970563,49.06891414,50.15444483,64.21632677,64.06499041,63.95587881,63.88909382,63.84236557,63.83957564,63.90870136,64.01829243,64.04512652,63.97878715,63.86787511,64.02673839,64.0161247,63.99686123,64.02921461,64.11585522,64.23926211,64.315609,64.28721443,64.24760024,64.19660108,64.12844723,64.11047663,64.16289902,64.24088676,64.21592631,64.06282427,64.13095284,64.2465271,64.45779314,65.51104209,63.45839795,64.14284181,64.0184807,63.899379,63.83373588,63.7898496,63.82628691,63.90468324,63.89681618,63.8342124,63.81525741,63.91138282,64.03130244,64.08105843,64.03172192,63.8759239,63.72452615,63.69986396,63.27664544,61.82331396,61.38470513,61.15433816,61.04237813,61.10527379,61.23798314,61.41263176,61.63173105,61.93088213,62.25787973,62.467399,62.68021252,62.58306836,62.63790931,62.9177064,63.19503979,63.16967371,63.10192755,62.98052026,63.67320073,63.83657672,63.66548826,63.41696583,62.85909855,35.55050434,40.3794718,49.42445037,60.62137826,60.80164994,60.86618199,60.79365106,60.69728869,60.54912536,60.42335322,60.45807061,60.43890435,60.34090579,60.29992825,60.33387142,60.37375075,60.26936367,60.07018059,59.96123903,60.03471403,60.21887894,60.269829,60.32796586,60.54797096,60.86554057,61.03905043,60.94187203,60.80941524,60.77571428,60.85501148,61.1259941,61.25663038,60.61336769,60.91732291,50.97508853,49.99488296,49.80167106,48.3461083,49.16855309,49.50705192,48.40957314,51.14399075,49.3709473,39.31455706,52.55802863,35.34887861,35.34887861,37.20461449,45.97364115,58.42002457,76.93035138,76.93035138,76.93035138,76.93035138,76.93035138,76.93035138,76.93035138,76.93035138,76.93035138,76.93035138,76.93035138,76.93035138,76.93035138,76.93035138,76.93035138,76.93035138,76.93035138,76.93035138,76.93035138,76.93035138,76.93035138,76.93035138,76.93035138,76.93035138,76.93035138,76.93035138,76.93035138,76.93035138,76.93035138,76.93035138,76.93035138,76.93035138,76.93035138,76.93035138,76.93035138,76.93035138,76.93035138,76.93035138,76.93035138,76.93035138,76.93035138,76.93035138,76.93035138,76.93035138,76.93035138,76.93035138,76.93035138,76.93035138,76.93035138,76.93035138,76.93035138,76.93035138,76.93035138,76.93035138,76.93035138,76.93035138,76.93035138,76.93035138,76.93035138,76.93035138,76.93035138,76.93035138,76.93035138,76.93035138,76.93035138,76.93035138,76.93035138,76.93035138,76.93035138,76.93035138,76.93035138,76.93035138,76.93035138,76.93035138,76.93035138,76.93035138,76.93035138,76.93035138,76.93035138,76.93035138,76.93035138,76.93035138,76.93035138,76.93035138,76.93035138,76.93035138,76.93035138,76.93035138,76.93035138,76.93035138,76.93035138,76.93035138,76.93035138,76.93035138,76.93035138,76.93035138,76.93035138,76.93035138,76.93035138,76.93035138,76.93035138,76.93035138,76.93035138,76.93035138,76.93035138,76.93035138,76.93035138,76.93035138,76.93035138,76.93035138,76.93035138,76.93035138,76.93035138,76.93035138,76.93035138,76.93035138,76.93035138,76.93035138,76.93035138,76.93035138,76.93035138,76.93035138,76.93035138,76.93035138,76.93035138,76.93035138,76.93035138,76.93035138,76.93035138,76.93035138,76.93035138,76.93035138,76.93035138,NaN,NaN,NaN],
	"ap0": [NaN,0.6414686375,0.5881986096,0.5747114655,0.5690769074,0.6540722355,0.5766964075,0.5373378243,0.6338815955,0.5810326903,0.621384776,0.6329623283,1.047564754,0.1011084859,0.03239162844,0.01008085486,0.008796629798,0.01683673329,0.03707341769,0.03381148636,0.1268400592,0.4415442098,0.05246889675,0.01981178201,0.007765559997,0.005356310434,0.004074516289,0.003496599356,0.004784481121,0.005511593757,0.006863080315,0.007177338496,0.007149796905,0.01210297006,0.00629616816,0.003169639278,0.002724098585,0.004501575426,0.01170215761,0.01244233953,0.007121872714,0.00702195829,0.01222818736,0.01989609393,0.009083111726,0.007185345946,0.007670603179,0.005787806974,0.004876511071,0.002604030292,0.002008571407,0.007901945222,0.03722829788,1.118313141,0.5208284048,0.5959399031,0.6711321812,0.06598727966,0.01084267685,0.005951152012,0.003569193552,0.002379167048,0.002597242844,0.001742639935,0.001240532615,0.0009453219071,0.001087184738,0.001564935489,0.001943904223,0.002770465814,0.007505425991,0.002999500235,0.001932839791,0.003376625939,0.003751256867,0.003015037814,0.003151338755,0.005383961996,0.008504318803,0.007920796343,0.02377780524,0.09670702414,0.223268886,0.4189034217,0.4313353016,0.6080344794,0.716848006,0.8097314599,0.826825688,0.7063583216,0.6015826212,0.7480326891,0.790339472,0.6674162292,0.6937620435,0.7256579883,0.8004004646,0.6878043189,0.7476575332,0.7123602446,0.9187965903,0.03962328243,0.01458100588,0.00278527928,0.006365747365,0.006492175778,0.01552654873,0.1076629241,0.5351467841,0.969811874,0.1982202432,0.01646201435,0.007130242734,0.00493373936,0.004377392473,0.003278444154,0.001502182316,0.001237217,0.002056121944,0.001421085788,0.00218617206,0.0008871367606,0.0006231385777,0.0005119183501,0.0004499013595,0.0004648616836,0.000579240346,0.006290999917,0.0191209506,0.04532327792,0.6375065122,0.1159216698,0.04943413941,0.01649127345,0.01088392321,0.006015444447,0.002373012738,0.001938919587,0.001785582197,0.001733205453,0.001877032857,0.002603370718,0.002691896095,0.003239255313,0.004117645889,0.006540621702,0.006959450246,0.01014135236,0.03434360181,0.1791971546,0.4716351552,0.7146894143,0.6028683129,0.8508796589,0.03466650163,0.02519110902,0.01735612907,0.008370414064,0.006975976361,0.006214872502,0.002837275959,0.004344759847,0.004777238345,0.004154657175,0.009067102808,0.0101134768,0.03698531217,0.07918546833,0.02921540829,0.01754496756,0.02113587461,0.08993111323,0.8241782007,0.7372942437,0.7663944427,0.6422619001,0.5794437908,0.09265144246,0.02872864412,0.00488793294,0.001642994339,0.001367926963,0.001859393517,0.002225763172,0.001393596712,0.001581932743,0.001980017131,0.002167109857,0.002365567252,0.001941020789,0.001779952128,0.002453493402,0.003045158752,0.003055259705,0.00236667537,0.001822561116,0.001690885113,0.00171048585,0.001874582762,0.001324668651,0.001010538539,0.001958991403,0.003001876572,0.002768720164,0.002732418939,0.004746029578,0.01143620277,0.04514182022,0.196738095,0.05819638405,0.0191388181,0.01689196014,0.01942368376,0.02025492617,0.02235077228,0.02819562971,0.04302243003,0.05882259945,0.1284978407,0.4212888304,1.03138701,0.6175644236,0.5854644396,0.5511573279,0.5280037751,0.6786975279,0.5676600093,0.4187974371,0.6248242293,0.5841516723,0.721272706,0.8124896991,0.5910128886,0.5917382949,1.045230452,0.6157112783,0.6116590692,0.6645040313,0.5553177425,0.6247096502,0.589797114,0.5851960424,0.578812356,0.6212736318,0.6368777046,0.5772121886,0.6756640914,0.6896337764,0.6161427042,0.6097265262,0.6489085113,0.7096801453,0.7224565099,0.6760657362,0.8342899771,0.6456250121,0.610031179,0.6940791506,0.8284776104,0.6923499859,0.6474733307,0.6891435595,0.8010000463,0.7608968885,0.7286808464,0.7787018799,0.6398010488,0.528234248,0.5345477488,0.5913500538,0.6203097717,0.9230095406,0.5070444387,0.9334912716,0.6161682806,0.5624084604,0.4174411423,0.5055958704,0.05423894003,0.01396328698,0.002387462571,0.001308919543,0.001280726245,0.001714161947,0.001805958032,0.001627760019,0.003882391689,0.009350051516,0.03636462786,0.04325247983,0.01479412496,0.001936784862,0.001354426209,0.001920826548,0.002000209073,0.001677916081,0.001725113829,0.002187543619,0.002044256223,0.001038574283,0.0008979921532,0.001295477313,0.002059190672,0.006122980697,0.01226175576,0.02968745189,0.1731312516,0.3630199238,0.4986458079,0.5773215947,0.03794058454,0.01202714826,0.001397976547,0.001082966019,0.001303277172,0.001422248641,0.001198780631,0.00125265658,0.001382830481,0.00164367473,0.002299461875,0.001447390856,0.001034870105,0.001732557057,0.004683926157,0.01087151535,0.04795243096,0.07993909699,0.06428483577,0.01269824077,0.005723715631,0.003171112559,0.002319323741,0.002329533559,0.005433601083,0.01135106723,0.02912796451,0.01558714166,0.01846335315,0.01682077113,0.008383371585,0.009793208706,0.01540599741,0.01155780315,0.01006113014,0.02262445937,0.1923773944,0.4661891106,0.3384485914,0.3806268873,0.5721535111,0.8524909907,0.7567801777,0.8248696745,0.8301084729,0.09606461762,0.02632298714,0.004680762947,0.002351368439,0.002223497616,0.002957037868,0.00274103766,0.002736431648,0.002798539168,0.002428197579,0.001486220219,0.001523492733,0.001354977919,0.002072197587,0.002171908597,0.002760766629,0.00642972803,0.006552668912,0.003160819536,0.002505877381,0.003873094,0.00405812181,0.002720265764,0.002724307767,0.002730903651,0.005840739957,0.01533159076,0.04160366881,0.1519812595,0.3160558282,0.54369539,0.9986612805,0.801967504,0.6567234087,0.5291904739,0.5534148409,0.4195995692,0.4614555617,0.6456316837,0.4419012902,0.8376082507,0.7704151016,0.7421108207,0.8920533507,0.5731397986,0.9890132965,1,1,1,1,1,1,1,1,1,1,1,1,1,1,1,1,1,1,1,1,1,1,1,1,1,1,1,1,1,1,1,1,1,1,1,1,1,1,1,1,1,1,1,1,1,1,1,1,1,1,1,1,1,1,1,1,1,1,1,1,1,1,1,1,1,1,1,1,1,1,1,1,1,1,1,1,1,1,1,1,1,1,1,1,1,1,1,1,1,1,1,1,1,1,1,1,1,1,1,1,1,1,1,1,1,1,1,1,1,1,1,1,1,1,1,1,1,1,1,1,1,1,1,1,1,1,1,1,1,1,1,1,1,1,NaN,NaN,NaN],
	"ap": [NaN,0.2347353684,0.3475063793,0.3016626784,0.282590448,0.344079886,0.3448914442,0.2438871875,0.3722922042,0.2752747877,0.3480532954,0.246762015,0.6120017671,0.2008696574,0.446515063,0.01229843587,0.003434078922,0.007693716534,0.003141382359,0.02229990095,0.01874663703,0.04013626761,0.5999669925,0.8746191994,0.004356077438,0.007115239105,0.004078095132,0.001565487874,0.001196763555,0.002244530608,0.004442421609,0.007920633856,0.003432630451,0.01774173142,0.02071916377,0.007090869804,0.002214224935,0.002548407139,0.005659300518,0.01244129306,0.001468839683,0.003006049691,0.00531459335,0.01538715927,0.01083146755,0.005784627349,0.01068982578,0.006397274098,0.00479750604,0.002286520307,0.0009395343891,0.0005299287775,0.001581924757,0.2014202251,0.276635933,0.306180727,0.2604953284,0.6793340668,0.1340169025,0.006510752756,0.006195541002,0.002117197763,0.0008295815456,0.002613206252,0.0006649550251,0.0004697641613,0.0008248859017,0.0001903410388,0.0007221762694,0.0004070585758,0.01140276013,0.01132179088,0.0005876652014,0.002064882489,0.005573170958,0.006428574746,0.0004717490613,0.001596895935,0.005425414008,0.008391878905,0.006812825203,0.005459427446,0.1009705156,0.1000697531,0.04520451887,0.3725205011,0.2769651026,0.4383647144,0.4164627263,0.510211093,0.3368431073,0.2840548698,0.2776432204,0.3785385642,0.4076379599,0.575748836,0.3785555672,0.3651072606,0.801312116,0.4629463491,0.4208818464,0.2341140415,0.7882281045,0.004953633675,0.005192866272,0.006530505408,0.0008195827458,0.002837513425,0.1076521969,0.1265341209,0.4792059119,0.3947893347,0.1042271907,0.01629474353,0.003263668014,0.004147055528,0.002719262324,0.0009866330122,0.002542273458,0.004058470937,0.001985984101,0.001793544121,0.0009015885126,0.0004734831026,0.0002642141762,0.0003096175334,0.000117791474,0.0006817277775,0.001335087714,0.05332951046,0.06222574714,0.04556934504,0.7051055877,0.02712970981,0.01350270911,0.008346454117,0.002757870987,0.001545229676,0.0007442599654,0.001389192355,0.001125338672,0.001064971529,0.003464561873,0.0009795256032,0.005432322492,0.00465000764,0.00324759092,0.006621335216,0.004830126888,0.01736546632,0.1213323343,0.297748568,0.3781636959,0.471062317,0.7583110652,0.7685548249,0.04312998178,0.01080225628,0.01272616831,0.003830411967,0.007881487855,0.002180478091,0.007990588146,0.001249606391,0.009368696884,0.004100212659,0.004058291446,0.04970201915,0.04026843411,0.04801654678,0.006716735229,0.000585909822,0.01021682526,0.5094547473,0.3358168594,0.3755418878,0.3321420238,0.8912929106,0.5949659347,0.03779073563,0.002856391077,0.001561396693,0.001555802655,0.00147273536,0.0009268236619,0.0005160411987,0.0005598947094,0.0006723017216,0.001008190822,0.001428785444,0.0006668329736,0.0004956071159,0.0009363906929,0.001778997127,0.00182576376,0.001378975083,0.0004181707244,0.000766514495,0.001439603873,0.001812554632,0.0006469904304,0.0004624817184,0.002027388163,0.002496888116,0.00444957229,0.0006160062849,0.002064415132,0.0009862628928,0.01249693744,0.1182728909,0.01560087332,0.006140481203,0.003957818919,0.007275851159,0.01260612329,0.00888192953,0.003911606243,0.04106722045,0.01243967606,0.1057847194,0.5675125326,0.4132281923,0.3113605868,0.572817965,0.7118825235,0.1971041863,0.3406825518,0.264387055,0.4280183467,0.3716611983,0.2533774441,0.2578360659,0.4152204486,0.22947224,0.6541733242,0.3595192998,0.2971996018,0.3414039599,0.2991080463,0.2923534405,0.3528835169,0.2644614977,0.2807376048,0.2793349061,0.3491738107,0.3426091297,0.2564138029,0.4071249203,0.3128886049,0.2757978957,0.3495074529,0.2328538869,0.4274255406,0.709578637,0.3635925083,0.3300839245,0.4137671769,0.2840341234,0.3546924605,0.2828302378,0.3138188964,0.3766790572,0.3382312946,0.4177308565,0.2748025722,0.4537778665,0.3686852581,0.2753924548,0.28355444,0.17075537,0.4677887544,0.8061621897,0.3340168717,0.1632570999,0.4928908694,0.09764515209,0.6879783129,0.3953305036,0.910219979,0.4421992286,0.01790907529,0.001825452783,0.0002554560535,0.0006094886221,0.001049886613,0.002561076869,0.001157880108,0.000329120094,0.002972438006,0.003345346573,0.03322888838,0.003124922265,0.002108918756,0.0007632214134,0.001119239295,0.000696617376,0.000615434392,0.0007031870393,0.0007940857023,0.003458914054,0.0002357040145,0.0009526819409,0.0007544510515,0.0006846001509,0.004467792987,0.005089227487,0.0177319353,0.0904752917,0.2974605133,0.208474575,0.1971255395,0.2792421111,0.004313742698,0.000559910425,0.0003980470085,0.0003350470369,0.001078235484,0.0003626884761,0.0008299930618,0.0003748910578,0.001796751924,0.00152397941,0.0004155156645,0.0006042315028,0.001242797632,0.0007930945694,0.004738883185,0.1021087261,0.1785207595,0.09709012665,0.0105037147,0.007945919224,0.0003527229769,0.001738397855,0.00267356834,0.003926465766,0.009146516125,0.03424005082,0.02116079593,0.01083640697,0.00952663851,0.002799650692,0.002238230229,0.01714805255,0.004117959086,0.001999416587,0.002469068151,0.09314433889,0.2340438224,0.09137604663,0.1467439289,0.2282119296,0.3818630205,0.4944195021,0.5661926259,0.7240720208,0.3776619499,0.03818418355,0.004506778734,0.0007378017002,0.0006466843101,0.00355220275,0.002403946908,0.002067694606,0.001785217305,0.00190013039,0.0001765792067,0.001314168458,0.001804177672,0.005277939486,0.001154848378,0.001599935552,0.004939542536,0.006165918286,0.001522010181,0.00326555335,0.004821578764,0.003786200627,0.001260059624,0.001878816379,0.000415447569,0.001030254091,0.009253095287,0.03238889149,0.0297668009,0.1588197269,0.5727241025,0.3348350629,0.3761825265,0.1839163616,0.2324536362,0.2983286485,0.09917435787,0.1919768471,0.2390377771,0.3764217283,0.763996157,0.3950729969,0.4272738668,0.1823331147,0.5000001383,1,1,1,1,1,1,1,1,1,1,1,1,1,1,1,1,1,1,1,1,1,1,1,1,1,1,1,1,1,1,1,1,1,1,1,1,1,1,1,1,1,1,1,1,1,1,1,1,1,1,1,1,1,1,1,1,1,1,1,1,1,1,1,1,1,1,1,1,1,1,1,1,1,1,1,1,1,1,1,1,1,1,1,1,1,1,1,1,1,1,1,1,1,1,1,1,1,1,1,1,1,1,1,1,1,1,1,1,1,1,1,1,1,1,1,1,1,1,1,1,1,1,1,1,1,1,1,1,1,1,1,1,1,1,NaN,NaN,NaN],
	"pwr": [NaN,2.413349319e-05,1.828986501e-05,1.639487083e-05,2.173148119e-05,1.220020037e-05,1.751453598e-05,1.579344224e-05,1.216345828e-05,2.270268357e-05,1.054506531e-05,1.965852213e-05,1.874494906e-05,1.517925513e-05,8.325697249e-05,0.007419133908,0.01579769579,0.01912891596,0.007557277644,0.002637544544,0.001147458702,0.0005130979855,0.0003093876816,7.784365882e-05,0.0207433751,0.01918480644,0.02072006504,0.02192061949,0.01553313236,0.01347082515,0.01094095581,0.006806411202,0.007980242905,0.007357969536,0.01019739049,0.02343546662,0.04288517345,0.04860122955,0.04446889088,0.02954574061,0.009949073092,0.01299022401,0.01870543202,0.01213117617,0.008119897615,0.005798428559,0.01660749457,0.01363492625,0.01530898356,0.01345071537,0.01548915245,0.02180399878,0.01969091173,0.000932959737,0.0004078126903,0.001041389995,0.003319236655,0.001289567041,0.0007093040974,0.02596250336,0.03441403687,0.03321979367,0.03276328446,0.02651752247,0.02080851533,0.02334488273,0.02774516984,0.03011217157,0.02615114937,0.01606632291,0.01320226266,0.01680990767,0.01984187002,0.01914096644,0.01978410629,0.01773716859,0.01371018316,0.01649787181,0.01413909407,0.00402763445,0.003580911099,0.001114624397,0.0001112944095,0.0002350190346,7.132100684e-05,2.754309446e-05,2.823713487e-05,3.930623093e-05,2.945303967e-05,2.858051953e-05,9.235223584e-05,8.715363277e-05,0.0001079403936,4.219127695e-05,5.282107431e-05,5.671425932e-05,3.974613952e-05,2.914068671e-05,1.864883875e-05,1.343299518e-05,1.995733812e-05,4.78494563e-05,1.580735092e-05,0.07579342074,0.07680883333,0.05649254416,0.05750306702,0.03141819273,0.001078087357,0.001146434481,0.0008988494206,0.0003955552579,0.00899080781,0.2310027601,0.168162177,0.1341247639,0.05993750905,0.05508735297,0.06187607668,0.06746978204,0.07918482517,0.06565000268,0.07067291494,0.09673475545,0.1223365479,0.137863631,0.1571697503,0.1777984686,0.2023040764,0.02855105499,0.001892575938,0.0006802358806,0.004292983921,0.08212653704,0.0572120896,0.03155543403,0.03164900842,0.03445363427,0.03750760719,0.03542611928,0.03933455377,0.03371840294,0.02557697057,0.02345256843,0.02856297139,0.03320435732,0.03149759043,0.03189692199,0.01875303986,0.003433250235,0.002655505123,0.0009428032487,0.0007777987791,0.0005939499831,0.00114239203,0.0002735197691,0.06107726864,0.05194381781,0.06110637756,0.04671030219,0.02122186063,0.03936774334,0.03985918862,0.03870764033,0.01988128368,0.01433862081,0.0113125647,0.01228651713,0.002695512179,0.001330444286,0.00746516262,0.003925824188,0.001176197556,0.0005861612154,0.0008499075048,0.000648873768,0.001108463302,0.001726713433,4.985045843e-05,0.02388635263,0.02373211441,0.03310239059,0.04230616203,0.03596151011,0.02489940368,0.02205166174,0.02113024046,0.02052458983,0.020539897,0.01765891748,0.0205601073,0.01938295899,0.01562214522,0.0130147547,0.01200608899,0.0135883372,0.0173174608,0.01839866237,0.02033607994,0.02103319206,0.02646011285,0.02899281765,0.03022160609,0.02820650919,0.02072483077,0.01165992565,0.008296098935,0.004345204382,0.0009813155602,3.921429392e-05,0.0001912924613,0.0008958501651,0.00142920587,0.001147672887,0.0007978349845,0.0009153293636,0.001053741264,0.0006548339106,0.0003357989796,0.0002276869628,5.790079994e-05,3.905424625e-05,5.203237276e-05,5.463585225e-05,9.021500268e-05,0.0002910913518,0.0004269005581,0.000224502481,0.0007575455594,9.818402654e-05,5.850054854e-05,0.0001039281697,6.13523112e-05,9.679248174e-05,1.457965096e-05,1.739007998e-05,1.875213673e-05,2.069852872e-05,1.758550029e-05,1.902498881e-05,1.839739633e-05,2.17959519e-05,1.597698795e-05,2.080989648e-05,1.614391882e-05,2.140104752e-05,2.116504342e-05,2.180251332e-05,1.041655631e-05,2.234096512e-05,1.453367163e-05,2.170263292e-05,1.749987366e-05,1.962659978e-05,2.170242747e-05,2.00018866e-05,2.543788012e-05,2.93415274e-05,2.940326725e-05,2.2261794e-05,2.079545579e-05,2.708355383e-05,2.25363266e-05,2.373813447e-05,2.001738227e-05,2.93979281e-05,3.665395509e-05,2.685525935e-05,1.714512404e-05,1.872532225e-05,1.215027544e-05,1.750369095e-05,1.940312548e-05,0.000102997834,0.0001042263497,0.0004370181162,4.78646457e-05,0.0001032590193,0.0002163096138,0.0001503300819,0.01458466142,0.03565402533,0.04654043615,0.0453749618,0.03585563671,0.03200854278,0.03429193272,0.03254215315,0.02465300333,0.005544124967,0.001353595021,0.01707112606,0.0264628912,0.03472501675,0.03774282838,0.03444722017,0.0277171206,0.02398580061,0.0273000793,0.0311074405,0.03203389588,0.03182075489,0.03018256217,0.03050513889,0.02238972461,0.008188474892,0.002568685749,0.0005011429788,6.571832887e-05,0.0002585449249,0.0001340837834,8.577067646e-05,0.02758324999,0.04815452234,0.04977488887,0.03769953655,0.03034327457,0.03623534301,0.04103902619,0.03771977456,0.03577058864,0.03382814579,0.03959811348,0.03801061785,0.03364283903,0.03264649247,0.01747085678,0.001527436429,0.0007074839741,0.001210894389,0.006781976521,0.01779038946,0.03976615772,0.04601691956,0.0516304491,0.0402455789,0.02699763564,0.008923237124,0.007174105847,0.01277304137,0.003410584533,0.008429188229,0.004542187857,0.005024820373,0.003788961283,0.004393286945,0.002376659543,0.0005047040934,0.0002558870842,0.0006374050778,0.0002767609149,4.716245154e-05,3.293944778e-05,9.023952322e-05,7.337887184e-05,4.719024607e-05,6.920287363e-05,0.007625957389,0.01533019694,0.02192357846,0.02324949017,0.01735327637,0.01148733239,0.01103097291,0.01336847046,0.01432460318,0.01851980339,0.01909459142,0.0192417999,0.02203411118,0.02606249906,0.021171025,0.01318815367,0.007072533252,0.008229265958,0.01208254307,0.01564725534,0.01687098362,0.01437033215,0.01733796426,0.02145872736,0.01366813806,0.004588578158,0.0008371704405,0.0001396892523,3.555482394e-05,5.149359372e-05,2.711698084e-05,2.495284384e-05,8.99738221e-06,8.480892193e-07,3.830463448e-07,6.908439877e-07,2.14911244e-07,3.787103744e-08,2.670319668e-08,8.573864606e-09,4.33142913e-09,1.010567493e-08,9.390449456e-10,3.606758334e-10,0,0,0,0,0,0,0,0,0,0,0,0,0,0,0,0,0,0,0,0,0,0,0,0,0,0,0,0,0,0,0,0,0,0,0,0,0,0,0,0,0,0,0,0,0,0,0,0,0,0,0,0,0,0,0,0,0,0,0,0,0,0,0,0,0,0,0,0,0,0,0,0,0,0,0,0,0,0,0,0,0,0,0,0,0,0,0,0,0,0,0,0,0,0,0,0,0,0,0,0,0,0,0,0,0,0,0,0,0,0,0,0,0,0,0,0,0,0,0,0,0,0,0,0,0,0,0,0,0,0,0,0,0,0,NaN,NaN,NaN],
	"sr": 16000,
	"range": [1,172029],
	"minf0": 63.1883,
	"maxf0": 706.3069,
	"thresh": 0.1,
	"relflag": 1,
	"hop": 320,
	"bufsize": 10000,
	"wsize": 640,
	"lpf": 4000,
	"shift": 0,
	"plotthreshold": 0.2
}
