{
    "f0": [
        48.350194224826311,
        41.450506179007292,
        53.527514313602993,
        60.398666706528488,
        62.044960120314613,
        54.789473459739263,
        72.904736864178602,
        52.901048489353613,
        61.607055843740412,
        61.778235946115181,
        34.883685773935007,
        47.283361628032495,
        54.08435513594516,
        0.0,
        0.0,
        0.0,
        50.813022668453506,
        49.719239178340757,
        49.545242710331465,
        49.25156182788227,
        49.432329541041227,
        49.924093492216173,
        50.008293374992903,
        49.939484198713743,
        49.601738199808267,
        49.032802018845956,
        48.751981449106061,
        48.136939703854104,
        47.843263517105989,
        47.02060811974367,
        0.0,
        0.0,
        0.0,
        0.0,
        52.012086151650266,
        50.333365715049624,
        50.509792512414492,
        51.021527296709344,
        51.193790867458759,
        51.311157270235867,
        51.293839411840366,
        51.548933142804778,
        51.696235629042889,
        51.842295248977294,
        51.98713143319975,
        52.130764286554545,
        52.099221200980757,
        51.901161909292597,
        51.957475259993579,
        54.545404867090333,
        54.505463789201855,
        54.773673230390926,
        55.037792190451043,
        55.138526990093098,
        55.193479610949794,
        55.443065593243517,
        55.689104373478976,
        55.793809976937233,
        55.7925560149517,
        55.616865392017317,
        55.612237235061308,
        55.52136853410525,
        55.075766948891726,
        55.499735559450386,
        55.72300293186013,
        55.688011222507939,
        0.0,
        0.0,
        56.193457234789612,
        56.019460215729602,
        56.191722333866622,
        56.25688701057917,
        56.321806095551423,
        56.494158221162621,
        56.78384657322821,
        57.182585511648945,
        57.516798261363256,
        57.697962889117115,
        58.024325027802007,
        57.922859605820619,
        57.73637490902145,
        56.883858865725017,
        57.432384119341748,
        57.72911909785303,
        0.0,
        0.0,
        0.0,
        0.0,
        0.0,
        55.635975294385375,
        55.635970100639447,
        55.639721707825046,
        55.716253868238063,
        55.77115894231811,
        55.881159061216714,
        55.963028298188185,
        55.93583172819153,
        55.852409459253138,
        55.848047812819274,
        55.976251299293324,
        56.028269129406226,
        55.972889150545797,
        55.904325586057595,
        55.925110335016115,
        56.025148257445856,
        56.016548735419391,
        55.930221575056606,
        55.881191128570393,
        55.772705722320794,
        55.743274290100302,
        55.880577557302402,
        55.938001031142775,
        55.931040308209568,
        55.864336332722878,
        55.875499082393816,
        55.922516505334727,
        55.951534020255835,
        55.963800867708855,
        55.976061450633949,
        56.035904406744578,
        56.095542461883937,
        56.154974539766236,
        56.2142032892137,
        56.099233848687419,
        56.150511928608779,
        56.164705308046202,
        56.369608565698783,
        56.210493673285995,
        56.244697017975774,
        55.744713908824998,
        56.547793361837563,
        57.315267852701993,
        61.282037400782933,
        53.897231804298514,
        53.541011049049629,
        54.021976011259731,
        54.013703875897775,
        54.048014721153216,
        0.0,
        0.0,
        0.0,
        0.0,
        0.0,
        61.672173453881001,
        52.453019691551162,
        52.103265435675539,
        51.575944742538702,
        51.575944742538702,
        51.561840855539828,
        51.570301637530015,
        51.219700260506684,
        51.77118257031259,
        53.167838584354371,
        52.19655654939158,
        52.05943625088036,
        52.184927214290212,
        52.323139455990543,
        52.805882345048168,
        53.451036792216094,
        53.81458290229326,
        54.111299103920686,
        54.258229560832234,
        54.768252590417369,
        54.948657177708576,
        54.926025388239978,
        54.768256708320507,
        54.628888288220125,
        54.582473524303886,
        54.58605465864472,
        54.504793925395688,
        54.473060237088973,
        54.475417961627834,
        54.655794671901539,
        54.746442256674996,
        55.052646454685544,
        55.247709706193021,
        55.319013525776796,
        55.035332208887908,
        54.922058997675514,
        54.720117535746674,
        54.612681692099514,
        54.405504049420323,
        53.896273633141284,
        53.176881165731913,
        53.577741220544823,
        54.399962672999578,
        54.80656092789846,
        54.862419465572636,
        53.465715471261085,
        51.946361051948969,
        47.218578119182787,
        54.252436830821708,
        54.74200900377781,
        54.868362180101968,
        54.976738317520244,
        55.092921514154895,
        55.360221495753777,
        55.355468654178409,
        55.3395015399512,
        55.597829516749727,
        55.669630383543549,
        55.631925232052694,
        55.105711326563771,
        54.988973612284838,
        55.001150363339704,
        54.674992190201294,
        54.342568292821163,
        0.0,
        0.0,
        0.0,
        0.0,
        0.0,
        0.0,
        0.0,
        0.0,
        0.0,
        0.0,
        0.0,
        0.0,
        47.91126705199023,
        47.70887324121712,
        48.071807633606262,
        48.427289468557447,
        48.396395106277339,
        48.134986218229898,
        47.986962787569816,
        47.813569972822272,
        47.650594966712234,
        47.652195957476629,
        47.809090797732964,
        48.566800110861593,
        48.961501373825939,
        48.982841654205011,
        48.92348827941246,
        48.602959224813823,
        48.582103842191437,
        48.751683657043785,
        48.828638388005466,
        48.905246659012761,
        0.0,
        0.0,
        0.0,
        0.0,
        0.0,
        0.0,
        48.989161665564581,
        48.101154280361754,
        47.927157112911885,
        47.753167424860884,
        47.753167424860884,
        47.977813515234466,
        48.015638340123026,
        48.145396487543238,
        48.400847229631715,
        48.399367281733916,
        48.226169931897303,
        48.303377633652531,
        48.380246684068155,
        48.62903442659497,
        48.727206271238856,
        48.628524186082565,
        48.828339893046547,
        49.417249711121897,
        49.6245418108076,
        50.181583850087009,
        50.024137637413148,
        50.125200173635406,
        49.584590276143871,
        49.173619159861843,
        49.356475517189175,
        50.049782916225539,
        49.94445912449261,
        49.452382915417068,
        49.318029644626961,
        49.675110501168703,
        49.816050828795333,
        0.0,
        0.0,
        0.0,
        0.0,
        0.0,
        0.0,
        0.0,
        0.0,
        0.0,
        0.0,
        0.0,
        0.0,
        0.0,
        0.0,
        0.0,
        0.0,
        0.0,
        0.0,
        0.0,
        0.0,
        0.0,
        0.0,
        0.0,
        0.0,
        0.0,
        0.0,
        0.0,
        0.0,
        0.0,
        0.0,
        0.0,
        0.0,
        0.0,
        0.0,
        0.0,
        0.0,
        0.0,
        0.0,
        0.0,
        0.0,
        0.0,
        0.0,
        0.0,
        0.0,
        0.0,
        0.0,
        0.0,
        0.0,
        0.0,
        0.0,
        0.0,
        0.0,
        0.0,
        0.0,
        0.0,
        0.0,
        0.0,
        0.0,
        0.0,
        0.0,
        0.0,
        0.0,
        0.0,
        0.0,
        0.0,
        0.0,
        0.0,
        0.0,
        0.0,
        0.0,
        0.0,
        0.0,
        0.0,
        0.0,
        0.0,
        0.0,
        0.0,
        0.0,
        0.0,
        0.0,
        0.0,
        0.0,
        0.0,
        0.0,
        0.0,
        0.0,
        0.0,
        0.0,
        0.0,
        0.0,
        0.0,
        0.0,
        0.0,
        0.0,
        0.0,
        0.0,
        0.0,
        0.0,
        0.0,
        0.0,
        0.0,
        0.0,
        0.0,
        0.0,
        0.0,
        0.0,
        0.0,
        0.0,
        0.0,
        0.0,
        0.0,
        0.0,
        0.0,
        0.0,
        0.0,
        0.0,
        0.0,
        0.0,
        0.0,
        0.0,
        0.0,
        0.0,
        0.0,
        0.0,
        0.0,
        0.0,
        0.0,
        0.0,
        0.0,
        0.0,
        0.0,
        0.0,
        0.0,
        0.0,
        0.0,
        0.0,
        0.0,
        0.0,
        0.0,
        0.0,
        0.0,
        0.0
    ],
    "time": [
        0.02,
        0.040000000000000001,
        0.059999999999999998,
        0.080000000000000002,
        0.10000000000000001,
        0.12,
        0.14000000000000001,
        0.16,
        0.17999999999999999,
        0.20000000000000001,
        0.22,
        0.23999999999999999,
        0.26000000000000001,
        0.28000000000000003,
        0.29999999999999999,
        0.32000000000000001,
        0.34000000000000002,
        0.35999999999999999,
        0.38,
        0.40000000000000002,
        0.41999999999999998,
        0.44,
        0.46000000000000002,
        0.47999999999999998,
        0.5,
        0.52000000000000002,
        0.54000000000000004,
        0.56000000000000005,
        0.57999999999999996,
        0.59999999999999998,
        0.62,
        0.64000000000000001,
        0.66000000000000003,
        0.68000000000000005,
        0.69999999999999996,
        0.71999999999999997,
        0.73999999999999999,
        0.76000000000000001,
        0.78000000000000003,
        0.80000000000000004,
        0.81999999999999995,
        0.83999999999999997,
        0.85999999999999999,
        0.88,
        0.90000000000000002,
        0.92000000000000004,
        0.93999999999999995,
        0.95999999999999996,
        0.97999999999999998,
        1.0,
        1.02,
        1.04,
        1.0600000000000001,
        1.0800000000000001,
        1.1000000000000001,
        1.1200000000000001,
        1.1399999999999999,
        1.1599999999999999,
        1.1799999999999999,
        1.2,
        1.22,
        1.24,
        1.26,
        1.28,
        1.3,
        1.3200000000000001,
        1.3400000000000001,
        1.3600000000000001,
        1.3799999999999999,
        1.3999999999999999,
        1.4199999999999999,
        1.4399999999999999,
        1.46,
        1.48,
        1.5,
        1.52,
        1.54,
        1.5600000000000001,
        1.5800000000000001,
        1.6000000000000001,
        1.6200000000000001,
        1.6399999999999999,
        1.6599999999999999,
        1.6799999999999999,
        1.7,
        1.72,
        1.74,
        1.76,
        1.78,
        1.8,
        1.8200000000000001,
        1.8400000000000001,
        1.8600000000000001,
        1.8799999999999999,
        1.8999999999999999,
        1.9199999999999999,
        1.9399999999999999,
        1.96,
        1.98,
        2.0,
        2.02,
        2.04,
        2.0600000000000001,
        2.0800000000000001,
        2.1000000000000001,
        2.1200000000000001,
        2.1400000000000001,
        2.1600000000000001,
        2.1800000000000002,
        2.2000000000000002,
        2.2200000000000002,
        2.2400000000000002,
        2.2599999999999998,
        2.2799999999999998,
        2.2999999999999998,
        2.3199999999999998,
        2.3399999999999999,
        2.3599999999999999,
        2.3799999999999999,
        2.3999999999999999,
        2.4199999999999999,
        2.4399999999999999,
        2.46,
        2.48,
        2.5,
        2.52,
        2.54,
        2.5600000000000001,
        2.5800000000000001,
        2.6000000000000001,
        2.6200000000000001,
        2.6400000000000001,
        2.6600000000000001,
        2.6800000000000002,
        2.7000000000000002,
        2.7200000000000002,
        2.7400000000000002,
        2.7599999999999998,
        2.7799999999999998,
        2.7999999999999998,
        2.8199999999999998,
        2.8399999999999999,
        2.8599999999999999,
        2.8799999999999999,
        2.8999999999999999,
        2.9199999999999999,
        2.9399999999999999,
        2.96,
        2.98,
        3.0,
        3.02,
        3.04,
        3.0600000000000001,
        3.0800000000000001,
        3.1000000000000001,
        3.1200000000000001,
        3.1400000000000001,
        3.1600000000000001,
        3.1800000000000002,
        3.2000000000000002,
        3.2200000000000002,
        3.2400000000000002,
        3.2599999999999998,
        3.2799999999999998,
        3.2999999999999998,
        3.3199999999999998,
        3.3399999999999999,
        3.3599999999999999,
        3.3799999999999999,
        3.3999999999999999,
        3.4199999999999999,
        3.4399999999999999,
        3.46,
        3.48,
        3.5,
        3.52,
        3.54,
        3.5600000000000001,
        3.5800000000000001,
        3.6000000000000001,
        3.6200000000000001,
        3.6400000000000001,
        3.6600000000000001,
        3.6800000000000002,
        3.7000000000000002,
        3.7200000000000002,
        3.7400000000000002,
        3.7599999999999998,
        3.7799999999999998,
        3.7999999999999998,
        3.8199999999999998,
        3.8399999999999999,
        3.8599999999999999,
        3.8799999999999999,
        3.8999999999999999,
        3.9199999999999999,
        3.9399999999999999,
        3.96,
        3.98,
        4.0,
        4.0199999999999996,
        4.04,
        4.0599999999999996,
        4.0800000000000001,
        4.0999999999999996,
        4.1200000000000001,
        4.1399999999999997,
        4.1600000000000001,
        4.1799999999999997,
        4.2000000000000002,
        4.2199999999999998,
        4.2400000000000002,
        4.2599999999999998,
        4.2800000000000002,
        4.2999999999999998,
        4.3200000000000003,
        4.3399999999999999,
        4.3600000000000003,
        4.3799999999999999,
        4.4000000000000004,
        4.4199999999999999,
        4.4400000000000004,
        4.46,
        4.4800000000000004,
        4.5,
        4.5199999999999996,
        4.54,
        4.5599999999999996,
        4.5800000000000001,
        4.5999999999999996,
        4.6200000000000001,
        4.6399999999999997,
        4.6600000000000001,
        4.6799999999999997,
        4.7000000000000002,
        4.7199999999999998,
        4.7400000000000002,
        4.7599999999999998,
        4.7800000000000002,
        4.7999999999999998,
        4.8200000000000003,
        4.8399999999999999,
        4.8600000000000003,
        4.8799999999999999,
        4.9000000000000004,
        4.9199999999999999,
        4.9400000000000004,
        4.96,
        4.9800000000000004,
        5.0,
        5.0199999999999996,
        5.04,
        5.0599999999999996,
        5.0800000000000001,
        5.0999999999999996,
        5.1200000000000001,
        5.1399999999999997,
        5.1600000000000001,
        5.1799999999999997,
        5.2000000000000002,
        5.2199999999999998,
        5.2400000000000002,
        5.2599999999999998,
        5.2800000000000002,
        5.2999999999999998,
        5.3200000000000003,
        5.3399999999999999,
        5.3600000000000003,
        5.3799999999999999,
        5.4000000000000004,
        5.4199999999999999,
        5.4400000000000004,
        5.46,
        5.4800000000000004,
        5.5,
        5.5199999999999996,
        5.54,
        5.5599999999999996,
        5.5800000000000001,
        5.5999999999999996,
        5.6200000000000001,
        5.6399999999999997,
        5.6600000000000001,
        5.6799999999999997,
        5.7000000000000002,
        5.7199999999999998,
        5.7400000000000002,
        5.7599999999999998,
        5.7800000000000002,
        5.7999999999999998,
        5.8200000000000003,
        5.8399999999999999,
        5.8600000000000003,
        5.8799999999999999,
        5.9000000000000004,
        5.9199999999999999,
        5.9400000000000004,
        5.96,
        5.9800000000000004,
        6.0,
        6.0199999999999996,
        6.04,
        6.0599999999999996,
        6.0800000000000001,
        6.0999999999999996,
        6.1200000000000001,
        6.1399999999999997,
        6.1600000000000001,
        6.1799999999999997,
        6.2000000000000002,
        6.2199999999999998,
        6.2400000000000002,
        6.2599999999999998,
        6.2800000000000002,
        6.2999999999999998,
        6.3200000000000003,
        6.3399999999999999,
        6.3600000000000003,
        6.3799999999999999,
        6.4000000000000004,
        6.4199999999999999,
        6.4400000000000004,
        6.46,
        6.4800000000000004,
        6.5,
        6.5199999999999996,
        6.54,
        6.5599999999999996,
        6.5800000000000001,
        6.5999999999999996,
        6.6200000000000001,
        6.6399999999999997,
        6.6600000000000001,
        6.6799999999999997,
        6.7000000000000002,
        6.7199999999999998,
        6.7400000000000002,
        6.7599999999999998,
        6.7800000000000002,
        6.7999999999999998,
        6.8200000000000003,
        6.8399999999999999,
        6.8600000000000003,
        6.8799999999999999,
        6.9000000000000004,
        6.9199999999999999,
        6.9400000000000004,
        6.96,
        6.9800000000000004,
        7.0,
        7.0199999999999996,
        7.04,
        7.0599999999999996,
        7.0800000000000001,
        7.0999999999999996,
        7.1200000000000001,
        7.1399999999999997,
        7.1600000000000001,
        7.1799999999999997,
        7.2000000000000002,
        7.2199999999999998,
        7.2400000000000002,
        7.2599999999999998,
        7.2800000000000002,
        7.2999999999999998,
        7.3200000000000003,
        7.3399999999999999,
        7.3600000000000003,
        7.3799999999999999,
        7.4000000000000004,
        7.4199999999999999,
        7.4400000000000004,
        7.46,
        7.4800000000000004,
        7.5,
        7.5199999999999996,
        7.54,
        7.5599999999999996,
        7.5800000000000001,
        7.5999999999999996,
        7.6200000000000001,
        7.6399999999999997,
        7.6600000000000001,
        7.6799999999999997,
        7.7000000000000002,
        7.7199999999999998,
        7.7400000000000002,
        7.7599999999999998,
        7.7800000000000002,
        7.7999999999999998,
        7.8200000000000003,
        7.8399999999999999,
        7.8600000000000003,
        7.8799999999999999,
        7.9000000000000004,
        7.9199999999999999,
        7.9400000000000004,
        7.96,
        7.9800000000000004,
        8.0,
        8.0199999999999996,
        8.0399999999999991,
        8.0600000000000005,
        8.0800000000000001,
        8.0999999999999996,
        8.1199999999999992,
        8.1400000000000006,
        8.1600000000000001,
        8.1799999999999997,
        8.1999999999999993,
        8.2200000000000006,
        8.2400000000000002,
        8.2599999999999998,
        8.2799999999999994,
        8.3000000000000007,
        8.3200000000000003,
        8.3399999999999999,
        8.3599999999999994
    ]
}