{
    "f0": [
        0.0,
        0.0,
        0.0,
        0.0,
        0.0,
        0.0,
        0.0,
        0.0,
        0.0,
        0.0,
        0.0,
        44.937143116722311,
        44.793675000215806,
        44.581358365645897,
        44.527854363155427,
        44.531442270932395,
        44.687782306465387,
        44.818847916989583,
        45.060688776643232,
        45.172572361384496,
        45.255568242541862,
        45.283425698807839,
        45.510601743843779,
        45.548473734674701,
        45.595265084587083,
        45.482407045145685,
        45.464741500607246,
        45.484536896147603,
        45.518710586717617,
        45.640540477013154,
        45.733532266041209,
        45.849282249069724,
        45.900133132412599,
        46.153083743439666,
        46.204675675425719,
        46.133034465176543,
        46.114499860674066,
        46.040328807487363,
        45.850295058858165,
        46.071176753277442,
        46.36032222805278,
        0.0,
        0.0,
        52.540872647746696,
        52.673116816641581,
        52.843860454630388,
        52.961187084453876,
        53.143248166722515,
        53.379983973988445,
        53.960662347387597,
        54.788110529747691,
        54.909808800876277,
        55.08312177810285,
        55.279020255574771,
        55.449781438404415,
        55.544398184151063,
        55.571453279918487,
        55.552688465397651,
        55.520054138577521,
        55.439288173774486,
        55.437512797271509,
        55.453788975940803,
        55.386100070393589,
        55.314584170958831,
        55.349141418902313,
        55.201450780758151,
        54.953954058865563,
        54.778499735474185,
        54.143785873803154,
        53.915661615602261,
        54.606891892477293,
        54.80835718494933,
        54.472108369843752,
        54.28321879573943,
        54.034618328300333,
        53.877590186135635,
        53.69024451430429,
        53.586390933787925,
        53.50679326398307,
        53.36618925111064,
        53.088114351419669,
        52.990333640966043,
        52.873031358174565,
        52.639853805890326,
        52.321388430699038,
        52.131421266475172,
        51.76156991604438,
        51.72103624564383,
        51.538758383118022,
        51.481557907062758,
        51.407694239947503,
        51.710499346998681,
        51.883528999418338,
        52.037945348554601,
        52.144490214111144,
        52.047925275934254,
        51.927330446638422,
        51.637956578045959,
        50.842359580375771,
        50.526905385421152,
        50.684463753695546,
        51.410404190074345,
        50.862940317145487,
        52.843309400616668,
        52.561030144879666,
        51.837673534494321,
        51.693175205710517,
        51.540167428253589,
        51.427660507976611,
        51.41848000561545,
        51.415041847436441,
        51.61599971764258,
        51.765160885973458,
        51.887273867965611,
        51.897861828236074,
        51.880514519300895,
        51.833595936178035,
        51.777903551155248,
        51.70826136050357,
        51.642955964700235,
        51.622333952763597,
        51.601228158331708,
        51.579374021428329,
        51.573600580577384,
        51.585503375996403,
        51.593737533925506,
        51.598480725276801,
        51.527423059668457,
        51.246739529407009,
        49.838356282551956,
        50.921097400034967,
        51.26831169478266,
        51.445128067156247,
        51.520948491833821,
        50.96065913323072,
        0.0,
        0.0,
        51.525169592686602,
        51.316627042673872,
        51.225896202202087,
        51.059284973967799,
        50.893151382354162,
        50.809508599605309,
        50.801888921325641,
        50.892712203332934,
        50.942039715334104,
        51.012230578998036,
        51.246175265804581,
        51.535614101076106,
        51.706288902407252,
        51.973901345244855,
        52.073522052747663,
        52.0628525190033,
        51.924284865114821,
        51.852184947752576,
        51.787070721969364,
        51.693428069823661,
        51.643000143679558,
        51.199569794300182,
        50.56706556512615,
        50.271052088564232,
        51.14232026658788,
        51.282810258501257,
        51.541574632949605,
        51.742912511509253,
        0.0,
        0.0,
        0.0,
        0.0,
        0.0,
        0.0,
        52.370966909537998,
        51.89925314768702,
        51.765060158995652,
        51.704890108287188,
        51.576204276385255,
        51.579321500244944,
        51.434627072709134,
        51.42264166768237,
        51.538159218320025,
        51.560464926556087,
        51.543582446761377,
        51.570952237697696,
        51.656437972874322,
        51.727001691406727,
        51.696196503171102,
        51.71043087964815,
        51.700026036398995,
        51.721060690950111,
        51.701916066510194,
        51.635426091048814,
        51.564526785622327,
        51.660446421110464,
        51.785978664160368,
        51.702824297654175,
        51.62876256550814,
        51.63641644692558,
        51.803667283129982,
        51.982321948616296,
        52.09180436833234,
        52.183963068153105,
        52.047808687183121,
        52.089007671571181,
        51.956337664973219,
        51.968771860417711,
        51.92602345459094,
        51.880537153917956,
        51.641234612425713,
        51.089601594943446,
        51.294038108354272,
        51.150698929972393,
        51.458141448973379,
        51.743088209391345,
        51.872370376922653,
        52.198737075956963,
        51.550778938514846,
        0.0,
        0.0,
        0.0,
        0.0,
        0.0,
        0.0,
        0.0,
        0.0,
        0.0,
        0.0,
        0.0,
        0.0,
        0.0,
        0.0,
        0.0,
        0.0,
        0.0,
        0.0,
        0.0,
        0.0,
        0.0,
        0.0,
        0.0,
        0.0,
        0.0,
        0.0,
        0.0,
        0.0,
        0.0,
        0.0,
        0.0,
        49.533380972641808,
        47.454021199198131,
        46.125072107986,
        45.023818451142191,
        44.553268557788208,
        44.717173132268755,
        44.942190698627741,
        45.130817504511313,
        45.399490928430154,
        45.712408934485978,
        45.859185731630106,
        45.900674589331921,
        46.017654167361613,
        46.018778410542446,
        46.187777145728639,
        46.330413717960511,
        46.356905308773854,
        46.164633963805869,
        46.020049773945715,
        46.005273761129899,
        45.944111033349728,
        45.842288513376985,
        45.791810859700412,
        45.876938580082978,
        45.948830230899581,
        46.141043701808329,
        46.663785402420466,
        47.087614950371879,
        46.349900575168022,
        45.900544754765349,
        46.196000957954055,
        46.243762274408937,
        45.868288887125303,
        44.599042365340061,
        54.067882117914692,
        53.497143778127779,
        53.474720172677593,
        53.625796146651638,
        53.697735392082635,
        54.118073929532656,
        54.488374888319598,
        54.575821384612794,
        55.549361893381437,
        55.513713553470183,
        55.702094241296507,
        55.674529776950919,
        55.713588462013675,
        55.906199504785263,
        55.852159218848044,
        55.79723542383168,
        55.722520719232392,
        55.662427254210868,
        55.601227497247052,
        55.616926507124397,
        55.623255483199657,
        55.647182322527996,
        55.598556011118234,
        55.576877255773944,
        55.432703596562163,
        55.270585850265178,
        54.839933121410184,
        54.340494845513049,
        54.545501712425313,
        54.145383204790249,
        53.778232412872711,
        53.55597996403241,
        53.405359329320859,
        53.180357960254604,
        53.073101293041169,
        53.07320219329516,
        53.082929691291966,
        53.069437089900923,
        52.95220101731833,
        52.783903513682787,
        52.386497644421986,
        52.100120001450421,
        51.568015944108993,
        51.027399558957079,
        50.901058729535592,
        51.012283180938901,
        51.331783189828485,
        51.626522251738393,
        51.503512767689372,
        51.728872560607442,
        51.889066182303196,
        51.769714283213325,
        51.671799599210303,
        51.442587459885971,
        51.192811842529167,
        0.0,
        0.0,
        0.0,
        0.0,
        0.0,
        0.0,
        0.0,
        0.0,
        0.0,
        0.0,
        0.0,
        0.0,
        0.0,
        0.0,
        0.0,
        0.0,
        0.0,
        0.0,
        0.0,
        0.0,
        0.0,
        0.0,
        0.0,
        0.0,
        0.0,
        0.0,
        0.0,
        0.0,
        0.0,
        0.0,
        0.0,
        0.0,
        0.0,
        0.0,
        0.0,
        0.0,
        0.0,
        0.0,
        0.0,
        0.0,
        0.0,
        0.0,
        0.0,
        0.0,
        0.0,
        0.0,
        0.0,
        0.0,
        0.0,
        0.0,
        0.0,
        0.0,
        0.0,
        0.0,
        0.0,
        0.0,
        0.0,
        0.0,
        0.0,
        0.0,
        0.0,
        0.0,
        0.0,
        0.0,
        0.0,
        0.0,
        0.0,
        0.0,
        0.0,
        0.0,
        0.0,
        0.0,
        0.0,
        0.0,
        0.0,
        0.0,
        0.0,
        0.0,
        0.0,
        0.0,
        0.0,
        0.0,
        0.0,
        0.0,
        0.0,
        0.0,
        0.0,
        0.0,
        0.0,
        0.0,
        0.0,
        0.0,
        0.0,
        0.0,
        0.0,
        0.0,
        0.0,
        0.0,
        0.0,
        0.0,
        0.0,
        0.0,
        0.0,
        0.0,
        0.0,
        0.0,
        0.0,
        0.0,
        0.0,
        0.0,
        0.0,
        0.0,
        0.0,
        0.0,
        0.0,
        0.0,
        0.0,
        0.0,
        0.0,
        0.0,
        0.0,
        0.0,
        0.0,
        0.0,
        0.0,
        0.0,
        0.0,
        0.0,
        0.0,
        0.0,
        0.0,
        0.0,
        0.0,
        0.0,
        0.0,
        0.0,
        0.0,
        0.0,
        0.0,
        0.0,
        0.0,
        0.0,
        0.0,
        0.0,
        0.0,
        0.0,
        0.0,
        0.0,
        0.0
    ],
    "time": [
        0.02,
        0.040000000000000001,
        0.059999999999999998,
        0.080000000000000002,
        0.10000000000000001,
        0.12,
        0.14000000000000001,
        0.16,
        0.17999999999999999,
        0.20000000000000001,
        0.22,
        0.23999999999999999,
        0.26000000000000001,
        0.28000000000000003,
        0.29999999999999999,
        0.32000000000000001,
        0.34000000000000002,
        0.35999999999999999,
        0.38,
        0.40000000000000002,
        0.41999999999999998,
        0.44,
        0.46000000000000002,
        0.47999999999999998,
        0.5,
        0.52000000000000002,
        0.54000000000000004,
        0.56000000000000005,
        0.57999999999999996,
        0.59999999999999998,
        0.62,
        0.64000000000000001,
        0.66000000000000003,
        0.68000000000000005,
        0.69999999999999996,
        0.71999999999999997,
        0.73999999999999999,
        0.76000000000000001,
        0.78000000000000003,
        0.80000000000000004,
        0.81999999999999995,
        0.83999999999999997,
        0.85999999999999999,
        0.88,
        0.90000000000000002,
        0.92000000000000004,
        0.93999999999999995,
        0.95999999999999996,
        0.97999999999999998,
        1.0,
        1.02,
        1.04,
        1.0600000000000001,
        1.0800000000000001,
        1.1000000000000001,
        1.1200000000000001,
        1.1399999999999999,
        1.1599999999999999,
        1.1799999999999999,
        1.2,
        1.22,
        1.24,
        1.26,
        1.28,
        1.3,
        1.3200000000000001,
        1.3400000000000001,
        1.3600000000000001,
        1.3799999999999999,
        1.3999999999999999,
        1.4199999999999999,
        1.4399999999999999,
        1.46,
        1.48,
        1.5,
        1.52,
        1.54,
        1.5600000000000001,
        1.5800000000000001,
        1.6000000000000001,
        1.6200000000000001,
        1.6399999999999999,
        1.6599999999999999,
        1.6799999999999999,
        1.7,
        1.72,
        1.74,
        1.76,
        1.78,
        1.8,
        1.8200000000000001,
        1.8400000000000001,
        1.8600000000000001,
        1.8799999999999999,
        1.8999999999999999,
        1.9199999999999999,
        1.9399999999999999,
        1.96,
        1.98,
        2.0,
        2.02,
        2.04,
        2.0600000000000001,
        2.0800000000000001,
        2.1000000000000001,
        2.1200000000000001,
        2.1400000000000001,
        2.1600000000000001,
        2.1800000000000002,
        2.2000000000000002,
        2.2200000000000002,
        2.2400000000000002,
        2.2599999999999998,
        2.2799999999999998,
        2.2999999999999998,
        2.3199999999999998,
        2.3399999999999999,
        2.3599999999999999,
        2.3799999999999999,
        2.3999999999999999,
        2.4199999999999999,
        2.4399999999999999,
        2.46,
        2.48,
        2.5,
        2.52,
        2.54,
        2.5600000000000001,
        2.5800000000000001,
        2.6000000000000001,
        2.6200000000000001,
        2.6400000000000001,
        2.6600000000000001,
        2.6800000000000002,
        2.7000000000000002,
        2.7200000000000002,
        2.7400000000000002,
        2.7599999999999998,
        2.7799999999999998,
        2.7999999999999998,
        2.8199999999999998,
        2.8399999999999999,
        2.8599999999999999,
        2.8799999999999999,
        2.8999999999999999,
        2.9199999999999999,
        2.9399999999999999,
        2.96,
        2.98,
        3.0,
        3.02,
        3.04,
        3.0600000000000001,
        3.0800000000000001,
        3.1000000000000001,
        3.1200000000000001,
        3.1400000000000001,
        3.1600000000000001,
        3.1800000000000002,
        3.2000000000000002,
        3.2200000000000002,
        3.2400000000000002,
        3.2599999999999998,
        3.2799999999999998,
        3.2999999999999998,
        3.3199999999999998,
        3.3399999999999999,
        3.3599999999999999,
        3.3799999999999999,
        3.3999999999999999,
        3.4199999999999999,
        3.4399999999999999,
        3.46,
        3.48,
        3.5,
        3.52,
        3.54,
        3.5600000000000001,
        3.5800000000000001,
        3.6000000000000001,
        3.6200000000000001,
        3.6400000000000001,
        3.6600000000000001,
        3.6800000000000002,
        3.7000000000000002,
        3.7200000000000002,
        3.7400000000000002,
        3.7599999999999998,
        3.7799999999999998,
        3.7999999999999998,
        3.8199999999999998,
        3.8399999999999999,
        3.8599999999999999,
        3.8799999999999999,
        3.8999999999999999,
        3.9199999999999999,
        3.9399999999999999,
        3.96,
        3.98,
        4.0,
        4.0199999999999996,
        4.04,
        4.0599999999999996,
        4.0800000000000001,
        4.0999999999999996,
        4.1200000000000001,
        4.1399999999999997,
        4.1600000000000001,
        4.1799999999999997,
        4.2000000000000002,
        4.2199999999999998,
        4.2400000000000002,
        4.2599999999999998,
        4.2800000000000002,
        4.2999999999999998,
        4.3200000000000003,
        4.3399999999999999,
        4.3600000000000003,
        4.3799999999999999,
        4.4000000000000004,
        4.4199999999999999,
        4.4400000000000004,
        4.46,
        4.4800000000000004,
        4.5,
        4.5199999999999996,
        4.54,
        4.5599999999999996,
        4.5800000000000001,
        4.5999999999999996,
        4.6200000000000001,
        4.6399999999999997,
        4.6600000000000001,
        4.6799999999999997,
        4.7000000000000002,
        4.7199999999999998,
        4.7400000000000002,
        4.7599999999999998,
        4.7800000000000002,
        4.7999999999999998,
        4.8200000000000003,
        4.8399999999999999,
        4.8600000000000003,
        4.8799999999999999,
        4.9000000000000004,
        4.9199999999999999,
        4.9400000000000004,
        4.96,
        4.9800000000000004,
        5.0,
        5.0199999999999996,
        5.04,
        5.0599999999999996,
        5.0800000000000001,
        5.0999999999999996,
        5.1200000000000001,
        5.1399999999999997,
        5.1600000000000001,
        5.1799999999999997,
        5.2000000000000002,
        5.2199999999999998,
        5.2400000000000002,
        5.2599999999999998,
        5.2800000000000002,
        5.2999999999999998,
        5.3200000000000003,
        5.3399999999999999,
        5.3600000000000003,
        5.3799999999999999,
        5.4000000000000004,
        5.4199999999999999,
        5.4400000000000004,
        5.46,
        5.4800000000000004,
        5.5,
        5.5199999999999996,
        5.54,
        5.5599999999999996,
        5.5800000000000001,
        5.5999999999999996,
        5.6200000000000001,
        5.6399999999999997,
        5.6600000000000001,
        5.6799999999999997,
        5.7000000000000002,
        5.7199999999999998,
        5.7400000000000002,
        5.7599999999999998,
        5.7800000000000002,
        5.7999999999999998,
        5.8200000000000003,
        5.8399999999999999,
        5.8600000000000003,
        5.8799999999999999,
        5.9000000000000004,
        5.9199999999999999,
        5.9400000000000004,
        5.96,
        5.9800000000000004,
        6.0,
        6.0199999999999996,
        6.04,
        6.0599999999999996,
        6.0800000000000001,
        6.0999999999999996,
        6.1200000000000001,
        6.1399999999999997,
        6.1600000000000001,
        6.1799999999999997,
        6.2000000000000002,
        6.2199999999999998,
        6.2400000000000002,
        6.2599999999999998,
        6.2800000000000002,
        6.2999999999999998,
        6.3200000000000003,
        6.3399999999999999,
        6.3600000000000003,
        6.3799999999999999,
        6.4000000000000004,
        6.4199999999999999,
        6.4400000000000004,
        6.46,
        6.4800000000000004,
        6.5,
        6.5199999999999996,
        6.54,
        6.5599999999999996,
        6.5800000000000001,
        6.5999999999999996,
        6.6200000000000001,
        6.6399999999999997,
        6.6600000000000001,
        6.6799999999999997,
        6.7000000000000002,
        6.7199999999999998,
        6.7400000000000002,
        6.7599999999999998,
        6.7800000000000002,
        6.7999999999999998,
        6.8200000000000003,
        6.8399999999999999,
        6.8600000000000003,
        6.8799999999999999,
        6.9000000000000004,
        6.9199999999999999,
        6.9400000000000004,
        6.96,
        6.9800000000000004,
        7.0,
        7.0199999999999996,
        7.04,
        7.0599999999999996,
        7.0800000000000001,
        7.0999999999999996,
        7.1200000000000001,
        7.1399999999999997,
        7.1600000000000001,
        7.1799999999999997,
        7.2000000000000002,
        7.2199999999999998,
        7.2400000000000002,
        7.2599999999999998,
        7.2800000000000002,
        7.2999999999999998,
        7.3200000000000003,
        7.3399999999999999,
        7.3600000000000003,
        7.3799999999999999,
        7.4000000000000004,
        7.4199999999999999,
        7.4400000000000004,
        7.46,
        7.4800000000000004,
        7.5,
        7.5199999999999996,
        7.54,
        7.5599999999999996,
        7.5800000000000001,
        7.5999999999999996,
        7.6200000000000001,
        7.6399999999999997,
        7.6600000000000001,
        7.6799999999999997,
        7.7000000000000002,
        7.7199999999999998,
        7.7400000000000002,
        7.7599999999999998,
        7.7800000000000002,
        7.7999999999999998,
        7.8200000000000003,
        7.8399999999999999,
        7.8600000000000003,
        7.8799999999999999,
        7.9000000000000004,
        7.9199999999999999,
        7.9400000000000004,
        7.96,
        7.9800000000000004,
        8.0,
        8.0199999999999996,
        8.0399999999999991,
        8.0600000000000005,
        8.0800000000000001,
        8.0999999999999996,
        8.1199999999999992,
        8.1400000000000006,
        8.1600000000000001,
        8.1799999999999997,
        8.1999999999999993,
        8.2200000000000006,
        8.2400000000000002,
        8.2599999999999998,
        8.2799999999999994,
        8.3000000000000007,
        8.3200000000000003,
        8.3399999999999999,
        8.3599999999999994,
        8.3800000000000008,
        8.4000000000000004,
        8.4199999999999999,
        8.4399999999999995,
        8.4600000000000009,
        8.4800000000000004,
        8.5,
        8.5199999999999996,
        8.5399999999999991,
        8.5600000000000005,
        8.5800000000000001,
        8.5999999999999996,
        8.6199999999999992,
        8.6400000000000006,
        8.6600000000000001,
        8.6799999999999997,
        8.6999999999999993,
        8.7200000000000006,
        8.7400000000000002,
        8.7599999999999998,
        8.7799999999999994,
        8.8000000000000007,
        8.8200000000000003,
        8.8399999999999999,
        8.8599999999999994,
        8.8800000000000008,
        8.9000000000000004,
        8.9199999999999999,
        8.9399999999999995,
        8.9600000000000009,
        8.9800000000000004,
        9.0,
        9.0199999999999996,
        9.0399999999999991,
        9.0600000000000005,
        9.0800000000000001,
        9.0999999999999996,
        9.1199999999999992,
        9.1400000000000006,
        9.1600000000000001,
        9.1799999999999997,
        9.1999999999999993,
        9.2200000000000006,
        9.2400000000000002,
        9.2599999999999998,
        9.2799999999999994,
        9.3000000000000007,
        9.3200000000000003,
        9.3399999999999999,
        9.3599999999999994,
        9.3800000000000008,
        9.4000000000000004,
        9.4199999999999999,
        9.4399999999999995,
        9.4600000000000009,
        9.4800000000000004,
        9.5,
        9.5199999999999996,
        9.5399999999999991,
        9.5600000000000005,
        9.5800000000000001,
        9.5999999999999996,
        9.6199999999999992,
        9.6400000000000006,
        9.6600000000000001,
        9.6799999999999997,
        9.6999999999999993
    ]
}