{
    "f0": [
        0.0,
        0.0,
        0.0,
        0.0,
        0.0,
        0.0,
        0.0,
        0.0,
        0.0,
        0.0,
        0.0,
        53.530362370374505,
        56.803174868429096,
        55.553886863799441,
        55.316479395665453,
        54.966723985834903,
        54.949366782212159,
        54.939333941154288,
        55.437348556056079,
        55.492936907523827,
        55.505971374665023,
        55.522770503151712,
        55.625316066296378,
        55.510690886989345,
        55.199020582470588,
        55.324703625098209,
        55.686050032762168,
        55.397202537812831,
        55.46275915828906,
        57.319612179547654,
        57.107031258141262,
        57.038603109619544,
        56.969907046918458,
        57.243768165951636,
        57.100476154621703,
        57.10461698218537,
        0.0,
        0.0,
        0.0,
        57.217908880753377,
        57.021891457710936,
        57.021893894094163,
        57.194160135673101,
        57.194158968450452,
        56.968662050041132,
        56.944865036271239,
        57.161693450921724,
        57.230212393917412,
        57.39837964873,
        57.550345440457946,
        57.764804985286339,
        57.853448939697792,
        58.003031318805746,
        58.29318849151354,
        58.334948727929117,
        58.324552898513396,
        58.318271595582026,
        58.311990347202411,
        58.131710633014919,
        0.0,
        0.0,
        0.0,
        57.805507174482514,
        58.148335731254065,
        57.896318623451485,
        57.896318623451485,
        58.028448694522943,
        58.015834685673866,
        57.92999941263102,
        57.893739403181925,
        57.876712590755744,
        57.963581904762805,
        57.953698060617747,
        57.893652712586999,
        57.922370099188967,
        57.979212902299018,
        57.96831953581448,
        57.92966717014334,
        57.846625046243744,
        57.763181543963768,
        57.851600580509967,
        57.995889776363271,
        58.283345103007633,
        58.470070342716355,
        58.528379185206852,
        58.33777539495027,
        58.145052013324573,
        58.461885253170593,
        58.156105437966403,
        58.245108762939054,
        0.0,
        0.0,
        0.0,
        58.082851512124464,
        58.082848111749996,
        57.908850188638596,
        49.209722317192572,
        49.381983601719284,
        49.408195113820263,
        49.332586608502979,
        49.285108901012123,
        49.237502479790173,
        49.70149537820069,
        49.781561388056126,
        49.611498024447116,
        49.515663930615922,
        49.892898335945709,
        49.941988106729319,
        49.944513298632224,
        49.932916640891456,
        49.951558040762848,
        50.171871294866641,
        50.389412623749095,
        50.363082037175715,
        50.129014955168628,
        49.891739686862991,
        49.93999863916094,
        49.978858323896233,
        49.84825770599042,
        49.507406614382766,
        49.439046986960406,
        50.411791181053545,
        50.879204976744916,
        50.844494608838488,
        50.656856950783407,
        50.467163186490573,
        50.447633279459069,
        50.342058610590115,
        50.451425004687977,
        51.563392698084002,
        51.969197411267594,
        51.838385414461044,
        54.202604016402304,
        53.203153886796542,
        52.14245078162611,
        51.524227268491174,
        51.292924568788962,
        51.860766707810086,
        52.599872175363515,
        53.218118861762875,
        53.152138686866024,
        52.273879490468886,
        51.431967369442305,
        51.439236872137386,
        51.691733007769798,
        52.664837555830367,
        53.072575456954951,
        51.883600063872201,
        51.594093689349137,
        51.619933895043474,
        51.864006004174911,
        52.84207126593865,
        53.072482056685701,
        52.400237009162637,
        52.030118222066449,
        52.493188887360951,
        52.944195327145124,
        53.033995615439295,
        52.027833188314993,
        52.26125358212542,
        52.253976970037904,
        52.386155985171385,
        52.988144717239464,
        0.0,
        0.0,
        0.0,
        0.0,
        0.0,
        0.0,
        0.0,
        0.0,
        0.0,
        35.76508694732226,
        58.743473443911853,
        57.751648930105432,
        57.60509924893767,
        57.71249767020776,
        57.892443931428858,
        58.070540146775876,
        58.246819515013613,
        58.247332297628446,
        58.161062445237761,
        58.038729813955626,
        57.933478961970955,
        57.951975226011584,
        57.953489008857524,
        58.135750362939106,
        58.399176824435578,
        58.804646383575182,
        59.298017238018531,
        59.454532769493227,
        59.298683865401507,
        58.818067363777445,
        58.316842833697336,
        57.88782117556859,
        57.999206511464045,
        58.234219388635367,
        58.40485418933676,
        58.361188027639571,
        58.336334910899808,
        58.311448252960574,
        58.16653667259876,
        58.081008337309427,
        58.80930221359317,
        58.144998023343838,
        57.83738355417988,
        57.831809934784722,
        57.919368817316091,
        58.014107782099387,
        58.033737650315018,
        57.914985606650205,
        57.874233172181675,
        57.966188249737002,
        57.991852498113474,
        57.989548265590003,
        58.028351404419013,
        57.993858252056,
        57.653163694515563,
        57.462474825058223,
        57.869542761820803,
        57.509344828865302,
        58.283234693830664,
        58.590727362816807,
        59.963070940560257,
        60.745570438235156,
        58.915561360923824,
        58.446991271151731,
        58.388944710339416,
        58.119509364098278,
        58.12567743826235,
        57.853482048653341,
        57.841454763102192,
        58.003586572739678,
        58.14282428958991,
        58.1175687242484,
        58.078151852924456,
        58.286384184406622,
        58.391891101705887,
        58.372658948522144,
        58.35260369951434,
        57.983168074917415,
        58.239111667526828,
        58.022700892473694,
        57.812779176194354,
        57.582081699434667,
        57.521835732679094,
        58.383277671862295,
        58.401038472601485,
        58.418782231144945,
        57.909186340185769,
        56.918830123175312,
        57.134061009072809,
        57.479108978244177,
        57.924857404395738,
        0.0,
        0.0,
        0.0,
        0.0,
        0.0,
        49.497526740543101,
        48.402680177406985,
        48.402684185757366,
        48.636057192533187,
        48.636061019641765,
        48.577586733102052,
        49.124427364225696,
        49.205209772718007,
        49.173313444904338,
        49.188090539279862,
        49.291465591289601,
        49.693068093992181,
        49.903680517353529,
        49.852101412499813,
        49.470320654574529,
        49.460709083975345,
        49.511248875721726,
        49.551428991596417,
        49.422617002312606,
        48.599932058985814,
        48.548771430353341,
        49.305357610688517,
        49.042741524744926,
        47.631317848824942,
        48.424671016358758,
        49.059758040468743,
        49.732081488610987,
        50.236372003399637,
        50.337727624406135,
        50.370770439719351,
        50.263579847555008,
        50.601166550665909,
        51.276053074922558,
        52.272650412447156,
        52.701774707022309,
        53.120515936210225,
        53.355373212315087,
        52.402333945821333,
        51.393758030927067,
        50.665601811596602,
        50.710826784374376,
        51.416888718768689,
        52.095278084233676,
        52.282912350918792,
        53.358563893388045,
        53.069232183644012,
        51.601803862190152,
        49.763709862461297,
        49.646518687819707,
        50.432753032511329,
        51.315818308496439,
        52.436579622022322,
        53.183741254730563,
        53.340461134394943,
        52.135014199109598,
        50.821105784174442,
        48.881789663951366,
        49.139543126512805,
        50.098475133479269,
        51.520857780803667,
        52.071662537674626,
        52.452540376804109,
        51.93779748575119,
        51.360855119262268,
        50.081338020121997,
        51.566165415198313,
        51.750041236738326,
        52.527707879620912,
        52.282442461110961,
        51.671735903055733,
        50.520614635967178,
        49.287467347941288,
        52.271446582062424,
        52.313293243409028,
        52.527297468720576,
        52.479828716714024,
        52.432227915299862,
        52.384495975850335,
        52.67945971124832,
        51.990002335957556,
        0.0,
        0.0,
        0.0,
        0.0,
        0.0,
        0.0,
        0.0,
        0.0,
        0.0,
        0.0,
        0.0,
        0.0,
        0.0,
        0.0,
        0.0,
        0.0,
        0.0,
        0.0,
        0.0,
        0.0,
        0.0,
        0.0,
        0.0,
        0.0,
        0.0,
        0.0,
        0.0,
        0.0,
        0.0,
        0.0,
        0.0,
        0.0,
        0.0,
        0.0,
        0.0,
        0.0,
        0.0,
        0.0,
        0.0,
        0.0,
        0.0,
        0.0,
        0.0,
        0.0,
        0.0,
        0.0,
        0.0,
        0.0,
        0.0,
        0.0,
        0.0,
        0.0,
        0.0,
        0.0,
        0.0,
        0.0,
        0.0,
        0.0,
        0.0,
        0.0,
        0.0,
        0.0,
        0.0,
        0.0,
        0.0,
        0.0,
        0.0,
        0.0,
        0.0,
        0.0,
        0.0,
        0.0,
        0.0,
        0.0,
        0.0,
        0.0,
        0.0,
        0.0,
        0.0,
        0.0,
        0.0,
        0.0,
        0.0,
        0.0,
        0.0,
        0.0,
        0.0,
        0.0,
        0.0,
        0.0,
        0.0,
        0.0,
        0.0,
        0.0,
        0.0,
        0.0,
        0.0,
        0.0,
        0.0,
        0.0,
        0.0,
        0.0,
        0.0,
        0.0,
        0.0,
        0.0,
        0.0,
        0.0,
        0.0,
        0.0,
        0.0,
        0.0,
        0.0,
        0.0,
        0.0,
        0.0,
        0.0,
        0.0,
        0.0,
        0.0,
        0.0,
        0.0,
        0.0,
        0.0,
        0.0,
        0.0,
        0.0,
        0.0,
        0.0,
        0.0,
        0.0,
        0.0,
        0.0,
        0.0,
        0.0,
        0.0,
        0.0,
        0.0,
        0.0,
        0.0,
        0.0,
        0.0,
        0.0,
        0.0,
        0.0,
        0.0,
        0.0,
        0.0,
        0.0,
        0.0
    ],
    "time": [
        0.02,
        0.040000000000000001,
        0.059999999999999998,
        0.080000000000000002,
        0.10000000000000001,
        0.12,
        0.14000000000000001,
        0.16,
        0.17999999999999999,
        0.20000000000000001,
        0.22,
        0.23999999999999999,
        0.26000000000000001,
        0.28000000000000003,
        0.29999999999999999,
        0.32000000000000001,
        0.34000000000000002,
        0.35999999999999999,
        0.38,
        0.40000000000000002,
        0.41999999999999998,
        0.44,
        0.46000000000000002,
        0.47999999999999998,
        0.5,
        0.52000000000000002,
        0.54000000000000004,
        0.56000000000000005,
        0.57999999999999996,
        0.59999999999999998,
        0.62,
        0.64000000000000001,
        0.66000000000000003,
        0.68000000000000005,
        0.69999999999999996,
        0.71999999999999997,
        0.73999999999999999,
        0.76000000000000001,
        0.78000000000000003,
        0.80000000000000004,
        0.81999999999999995,
        0.83999999999999997,
        0.85999999999999999,
        0.88,
        0.90000000000000002,
        0.92000000000000004,
        0.93999999999999995,
        0.95999999999999996,
        0.97999999999999998,
        1.0,
        1.02,
        1.04,
        1.0600000000000001,
        1.0800000000000001,
        1.1000000000000001,
        1.1200000000000001,
        1.1399999999999999,
        1.1599999999999999,
        1.1799999999999999,
        1.2,
        1.22,
        1.24,
        1.26,
        1.28,
        1.3,
        1.3200000000000001,
        1.3400000000000001,
        1.3600000000000001,
        1.3799999999999999,
        1.3999999999999999,
        1.4199999999999999,
        1.4399999999999999,
        1.46,
        1.48,
        1.5,
        1.52,
        1.54,
        1.5600000000000001,
        1.5800000000000001,
        1.6000000000000001,
        1.6200000000000001,
        1.6399999999999999,
        1.6599999999999999,
        1.6799999999999999,
        1.7,
        1.72,
        1.74,
        1.76,
        1.78,
        1.8,
        1.8200000000000001,
        1.8400000000000001,
        1.8600000000000001,
        1.8799999999999999,
        1.8999999999999999,
        1.9199999999999999,
        1.9399999999999999,
        1.96,
        1.98,
        2.0,
        2.02,
        2.04,
        2.0600000000000001,
        2.0800000000000001,
        2.1000000000000001,
        2.1200000000000001,
        2.1400000000000001,
        2.1600000000000001,
        2.1800000000000002,
        2.2000000000000002,
        2.2200000000000002,
        2.2400000000000002,
        2.2599999999999998,
        2.2799999999999998,
        2.2999999999999998,
        2.3199999999999998,
        2.3399999999999999,
        2.3599999999999999,
        2.3799999999999999,
        2.3999999999999999,
        2.4199999999999999,
        2.4399999999999999,
        2.46,
        2.48,
        2.5,
        2.52,
        2.54,
        2.5600000000000001,
        2.5800000000000001,
        2.6000000000000001,
        2.6200000000000001,
        2.6400000000000001,
        2.6600000000000001,
        2.6800000000000002,
        2.7000000000000002,
        2.7200000000000002,
        2.7400000000000002,
        2.7599999999999998,
        2.7799999999999998,
        2.7999999999999998,
        2.8199999999999998,
        2.8399999999999999,
        2.8599999999999999,
        2.8799999999999999,
        2.8999999999999999,
        2.9199999999999999,
        2.9399999999999999,
        2.96,
        2.98,
        3.0,
        3.02,
        3.04,
        3.0600000000000001,
        3.0800000000000001,
        3.1000000000000001,
        3.1200000000000001,
        3.1400000000000001,
        3.1600000000000001,
        3.1800000000000002,
        3.2000000000000002,
        3.2200000000000002,
        3.2400000000000002,
        3.2599999999999998,
        3.2799999999999998,
        3.2999999999999998,
        3.3199999999999998,
        3.3399999999999999,
        3.3599999999999999,
        3.3799999999999999,
        3.3999999999999999,
        3.4199999999999999,
        3.4399999999999999,
        3.46,
        3.48,
        3.5,
        3.52,
        3.54,
        3.5600000000000001,
        3.5800000000000001,
        3.6000000000000001,
        3.6200000000000001,
        3.6400000000000001,
        3.6600000000000001,
        3.6800000000000002,
        3.7000000000000002,
        3.7200000000000002,
        3.7400000000000002,
        3.7599999999999998,
        3.7799999999999998,
        3.7999999999999998,
        3.8199999999999998,
        3.8399999999999999,
        3.8599999999999999,
        3.8799999999999999,
        3.8999999999999999,
        3.9199999999999999,
        3.9399999999999999,
        3.96,
        3.98,
        4.0,
        4.0199999999999996,
        4.04,
        4.0599999999999996,
        4.0800000000000001,
        4.0999999999999996,
        4.1200000000000001,
        4.1399999999999997,
        4.1600000000000001,
        4.1799999999999997,
        4.2000000000000002,
        4.2199999999999998,
        4.2400000000000002,
        4.2599999999999998,
        4.2800000000000002,
        4.2999999999999998,
        4.3200000000000003,
        4.3399999999999999,
        4.3600000000000003,
        4.3799999999999999,
        4.4000000000000004,
        4.4199999999999999,
        4.4400000000000004,
        4.46,
        4.4800000000000004,
        4.5,
        4.5199999999999996,
        4.54,
        4.5599999999999996,
        4.5800000000000001,
        4.5999999999999996,
        4.6200000000000001,
        4.6399999999999997,
        4.6600000000000001,
        4.6799999999999997,
        4.7000000000000002,
        4.7199999999999998,
        4.7400000000000002,
        4.7599999999999998,
        4.7800000000000002,
        4.7999999999999998,
        4.8200000000000003,
        4.8399999999999999,
        4.8600000000000003,
        4.8799999999999999,
        4.9000000000000004,
        4.9199999999999999,
        4.9400000000000004,
        4.96,
        4.9800000000000004,
        5.0,
        5.0199999999999996,
        5.04,
        5.0599999999999996,
        5.0800000000000001,
        5.0999999999999996,
        5.1200000000000001,
        5.1399999999999997,
        5.1600000000000001,
        5.1799999999999997,
        5.2000000000000002,
        5.2199999999999998,
        5.2400000000000002,
        5.2599999999999998,
        5.2800000000000002,
        5.2999999999999998,
        5.3200000000000003,
        5.3399999999999999,
        5.3600000000000003,
        5.3799999999999999,
        5.4000000000000004,
        5.4199999999999999,
        5.4400000000000004,
        5.46,
        5.4800000000000004,
        5.5,
        5.5199999999999996,
        5.54,
        5.5599999999999996,
        5.5800000000000001,
        5.5999999999999996,
        5.6200000000000001,
        5.6399999999999997,
        5.6600000000000001,
        5.6799999999999997,
        5.7000000000000002,
        5.7199999999999998,
        5.7400000000000002,
        5.7599999999999998,
        5.7800000000000002,
        5.7999999999999998,
        5.8200000000000003,
        5.8399999999999999,
        5.8600000000000003,
        5.8799999999999999,
        5.9000000000000004,
        5.9199999999999999,
        5.9400000000000004,
        5.96,
        5.9800000000000004,
        6.0,
        6.0199999999999996,
        6.04,
        6.0599999999999996,
        6.0800000000000001,
        6.0999999999999996,
        6.1200000000000001,
        6.1399999999999997,
        6.1600000000000001,
        6.1799999999999997,
        6.2000000000000002,
        6.2199999999999998,
        6.2400000000000002,
        6.2599999999999998,
        6.2800000000000002,
        6.2999999999999998,
        6.3200000000000003,
        6.3399999999999999,
        6.3600000000000003,
        6.3799999999999999,
        6.4000000000000004,
        6.4199999999999999,
        6.4400000000000004,
        6.46,
        6.4800000000000004,
        6.5,
        6.5199999999999996,
        6.54,
        6.5599999999999996,
        6.5800000000000001,
        6.5999999999999996,
        6.6200000000000001,
        6.6399999999999997,
        6.6600000000000001,
        6.6799999999999997,
        6.7000000000000002,
        6.7199999999999998,
        6.7400000000000002,
        6.7599999999999998,
        6.7800000000000002,
        6.7999999999999998,
        6.8200000000000003,
        6.8399999999999999,
        6.8600000000000003,
        6.8799999999999999,
        6.9000000000000004,
        6.9199999999999999,
        6.9400000000000004,
        6.96,
        6.9800000000000004,
        7.0,
        7.0199999999999996,
        7.04,
        7.0599999999999996,
        7.0800000000000001,
        7.0999999999999996,
        7.1200000000000001,
        7.1399999999999997,
        7.1600000000000001,
        7.1799999999999997,
        7.2000000000000002,
        7.2199999999999998,
        7.2400000000000002,
        7.2599999999999998,
        7.2800000000000002,
        7.2999999999999998,
        7.3200000000000003,
        7.3399999999999999,
        7.3600000000000003,
        7.3799999999999999,
        7.4000000000000004,
        7.4199999999999999,
        7.4400000000000004,
        7.46,
        7.4800000000000004,
        7.5,
        7.5199999999999996,
        7.54,
        7.5599999999999996,
        7.5800000000000001,
        7.5999999999999996,
        7.6200000000000001,
        7.6399999999999997,
        7.6600000000000001,
        7.6799999999999997,
        7.7000000000000002,
        7.7199999999999998,
        7.7400000000000002,
        7.7599999999999998,
        7.7800000000000002,
        7.7999999999999998,
        7.8200000000000003,
        7.8399999999999999,
        7.8600000000000003,
        7.8799999999999999,
        7.9000000000000004,
        7.9199999999999999,
        7.9400000000000004,
        7.96,
        7.9800000000000004,
        8.0,
        8.0199999999999996,
        8.0399999999999991,
        8.0600000000000005,
        8.0800000000000001,
        8.0999999999999996,
        8.1199999999999992,
        8.1400000000000006,
        8.1600000000000001,
        8.1799999999999997,
        8.1999999999999993,
        8.2200000000000006,
        8.2400000000000002,
        8.2599999999999998,
        8.2799999999999994,
        8.3000000000000007,
        8.3200000000000003,
        8.3399999999999999,
        8.3599999999999994,
        8.3800000000000008,
        8.4000000000000004,
        8.4199999999999999,
        8.4399999999999995,
        8.4600000000000009,
        8.4800000000000004,
        8.5,
        8.5199999999999996,
        8.5399999999999991,
        8.5600000000000005,
        8.5800000000000001,
        8.5999999999999996,
        8.6199999999999992,
        8.6400000000000006,
        8.6600000000000001,
        8.6799999999999997,
        8.6999999999999993,
        8.7200000000000006,
        8.7400000000000002,
        8.7599999999999998,
        8.7799999999999994,
        8.8000000000000007,
        8.8200000000000003,
        8.8399999999999999,
        8.8599999999999994,
        8.8800000000000008,
        8.9000000000000004,
        8.9199999999999999,
        8.9399999999999995,
        8.9600000000000009,
        8.9800000000000004,
        9.0,
        9.0199999999999996,
        9.0399999999999991,
        9.0600000000000005,
        9.0800000000000001,
        9.0999999999999996,
        9.1199999999999992,
        9.1400000000000006,
        9.1600000000000001,
        9.1799999999999997,
        9.1999999999999993,
        9.2200000000000006,
        9.2400000000000002,
        9.2599999999999998,
        9.2799999999999994,
        9.3000000000000007,
        9.3200000000000003,
        9.3399999999999999,
        9.3599999999999994,
        9.3800000000000008,
        9.4000000000000004,
        9.4199999999999999,
        9.4399999999999995,
        9.4600000000000009,
        9.4800000000000004,
        9.5,
        9.5199999999999996,
        9.5399999999999991,
        9.5600000000000005,
        9.5800000000000001,
        9.5999999999999996,
        9.6199999999999992,
        9.6400000000000006,
        9.6600000000000001,
        9.6799999999999997,
        9.6999999999999993,
        9.7200000000000006,
        9.7400000000000002,
        9.7599999999999998,
        9.7799999999999994
    ]
}