{
    "f0": [
        0.0,
        0.0,
        0.0,
        0.0,
        0.0,
        0.0,
        0.0,
        0.0,
        0.0,
        0.0,
        0.0,
        0.0,
        0.0,
        0.0,
        0.0,
        0.0,
        0.0,
        0.0,
        0.0,
        0.0,
        0.0,
        0.0,
        0.0,
        0.0,
        0.0,
        0.0,
        0.0,
        0.0,
        0.0,
        0.0,
        0.0,
        0.0,
        0.0,
        0.0,
        0.0,
        0.0,
        0.0,
        0.0,
        0.0,
        0.0,
        44.8331162293143,
        45.003832370589365,
        45.062044398074256,
        45.189471779240364,
        45.508538062949832,
        45.909398167561733,
        46.113575442901734,
        46.456652664019153,
        46.708937156574223,
        47.012249625316493,
        47.091677034118455,
        47.110186703395861,
        47.044818930018906,
        46.821861405755101,
        46.732678005185193,
        46.620700487777334,
        47.231548003476213,
        47.325204227697384,
        47.18205399253219,
        47.523899019867628,
        48.087997074406232,
        48.265353796653883,
        48.009425034286892,
        47.994521444403354,
        47.962702565105275,
        48.006207474222961,
        48.036741527493554,
        48.029451257540273,
        48.045611963450739,
        48.080832953183261,
        48.092613587359111,
        48.08201675153866,
        48.081401745004065,
        48.058275928549016,
        48.058694573031786,
        47.033527694682562,
        47.53897772257109,
        47.766886240554953,
        47.79456544638677,
        48.977536754681246,
        47.51442897478249,
        49.932300786096093,
        50.19956291831403,
        50.260928883102657,
        50.268030306625072,
        50.302496821191767,
        50.405820565861973,
        50.401839587471173,
        50.384657124150451,
        50.344473184332678,
        50.320979530672943,
        50.239014287619241,
        50.218427648205825,
        50.065244992613721,
        51.077008010954756,
        48.443065529826548,
        46.729232821241062,
        47.982528255744313,
        50.519554913963944,
        50.165893954971637,
        50.196313316821389,
        0.0,
        0.0,
        0.0,
        0.0,
        47.630901043697939,
        47.911094518391494,
        47.82909508657518,
        48.001236760611874,
        48.157581544695987,
        48.429994407816821,
        48.438447087845155,
        48.37650655939472,
        48.182409592334906,
        48.11763718199488,
        48.261869297339963,
        48.387406538643994,
        48.534787259709859,
        48.818862210403807,
        49.031563527798319,
        49.653316787752061,
        50.016834730630933,
        50.322210377333882,
        50.507986201746291,
        50.57700100715828,
        50.484356637309745,
        50.470306238081456,
        50.457401044330908,
        50.383668272774102,
        50.519823797961884,
        50.598167107715412,
        50.695972258172532,
        50.74445652696317,
        50.876037781326708,
        50.936504792545918,
        50.98213164283267,
        51.325748337775451,
        51.343914991789234,
        50.867716747990762,
        50.291735578430107,
        50.955312364871446,
        50.951656763153501,
        51.366126382418571,
        51.807722726755287,
        51.051918483959497,
        51.282581433893107,
        50.989838893572809,
        51.75688590446417,
        52.631252551015358,
        51.961147950634313,
        51.455579662190402,
        51.192590189585808,
        51.292567196800945,
        51.260182171327216,
        51.188943954564891,
        51.109016596426628,
        50.881952757373384,
        50.862178649187285,
        50.785011593226322,
        50.85885417638481,
        50.829543540166704,
        50.691270894869831,
        50.733395779481889,
        50.612819082873493,
        50.597895906762048,
        50.826874880393916,
        50.834944679030109,
        50.629018567171961,
        50.564976043386309,
        50.650748385208345,
        50.756231666983126,
        0.0,
        0.0,
        0.0,
        0.0,
        0.0,
        0.0,
        0.0,
        0.0,
        0.0,
        0.0,
        0.0,
        0.0,
        0.0,
        0.0,
        0.0,
        0.0,
        0.0,
        0.0,
        0.0,
        50.89847293901353,
        50.83296275286429,
        50.767320813499154,
        50.741871185750071,
        50.639029434333352,
        50.580769751837487,
        50.555279421090148,
        50.411980920940579,
        50.464033453426346,
        50.498437571462162,
        50.443242778716552,
        50.447058215730237,
        50.48383003046964,
        50.386666480654036,
        50.598078492331496,
        50.418838023413102,
        50.45759901207181,
        50.548031575226105,
        50.601528006767253,
        50.614826484444571,
        50.519876086833051,
        50.442795599448871,
        50.558202734907397,
        50.699326455031098,
        51.714223093021886,
        51.388936972733667,
        51.19724969688162,
        51.087810823041622,
        51.123790779198536,
        51.138272716975557,
        50.997143574860992,
        50.869989035143035,
        50.771180862182433,
        50.705155286274362,
        50.585271534365702,
        50.264003346435231,
        50.317192696236603,
        50.317895722185227,
        50.324933206138603,
        50.32501443657906,
        50.508076996912187,
        50.749046930976661,
        50.779869983445707,
        50.82719399925967,
        50.914127398238193,
        50.960177491975458,
        50.928026936580963,
        50.959305975024712,
        50.932105276467368,
        51.023501312970801,
        51.05830685315496,
        51.132346835405556,
        51.143243212958424,
        50.87767620118953,
        50.859663897401177,
        50.850290267522347,
        50.979862217812865,
        51.111947519201379,
        51.210829863566978,
        51.419573984795122,
        50.968132671107824,
        51.057611188078909,
        51.050042471291363,
        51.018755780829466,
        50.782165775135965,
        51.064823030110546,
        50.768924891961049,
        51.342553164704555,
        0.0,
        0.0,
        0.0,
        0.0,
        0.0,
        0.0,
        0.0,
        0.0,
        0.0,
        0.0,
        0.0,
        73.364575568860488,
        71.451230276423189,
        71.040919710964488,
        71.156135966021296,
        0.0,
        0.0,
        0.0,
        0.0,
        0.0,
        0.0,
        0.0,
        0.0,
        48.898575905039706,
        49.394819595770265,
        49.686662937643106,
        49.391506585783389,
        49.084946141623547,
        49.175379636573233,
        49.173226626808379,
        49.144819433770991,
        48.990971494459707,
        48.943573243837726,
        48.997311402475567,
        49.429432899574643,
        50.235395930928327,
        50.901492548420009,
        51.42305598694896,
        52.11247685700841,
        52.529424204689292,
        52.747508263675847,
        52.745274534498421,
        52.671442466468442,
        52.711077774665483,
        52.695563190081387,
        52.649261324791638,
        52.632711438292219,
        52.605229786210188,
        52.539750961366181,
        52.430025164538222,
        52.367154214321879,
        52.344128483339645,
        52.346345484458965,
        52.564085222499301,
        52.696252863289835,
        52.729357135477798,
        52.822704724063442,
        52.938337357448326,
        53.085188058546159,
        53.132431515487504,
        52.970236720572451,
        52.82967753707792,
        52.497565717645898,
        52.731552943091685,
        52.800105961097515,
        52.562792790652715,
        52.680712660604513,
        52.900165992721071,
        52.987514894040274,
        53.082145325922525,
        53.068645990231147,
        53.058761159135983,
        53.104058754239574,
        53.03411791941209,
        52.862828206368377,
        52.756041107408734,
        52.761652781623525,
        52.835146184481431,
        52.869669102495124,
        52.885077317041066,
        52.968158986062392,
        53.063493329665064,
        53.055621769034438,
        52.9897705632062,
        52.997944405342096,
        51.991373448946611,
        52.164625265038794,
        52.714975440913747,
        52.71633497223246,
        53.236506612217909,
        53.212372354927638,
        53.175871782278264,
        53.184372906382045,
        53.187263063693379,
        53.15388118083672,
        53.071882446550291,
        52.93977208870345,
        52.823366513821618,
        52.71905824919719,
        52.574237893126224,
        52.399594770863317,
        52.329677814730914,
        52.304140810293802,
        52.296905748078245,
        52.450800856268444,
        52.577719984263894,
        52.601960593970375,
        52.653481545287505,
        52.68276358116897,
        52.740130589542531,
        52.710108614871146,
        52.658802471175633,
        52.653628213264824,
        52.614462703458081,
        52.598565466652033,
        52.592606403891558,
        52.642868691173142,
        52.631133545762282,
        52.465668844498808,
        52.471896326117715,
        52.46255891684342,
        52.417198172735681,
        52.337769981621285,
        52.42453176951804,
        51.598132938262893,
        52.186024531630281,
        52.475374124452905,
        52.34160171762727,
        52.732649987298728,
        52.989522350809153,
        53.101007311245908,
        53.126259937943601,
        52.971788477293288,
        52.887035711658996,
        52.59961983139646,
        52.475558077637594,
        52.317714238428749,
        52.349328633276301,
        52.328794048831398,
        52.581314528189623,
        52.672242731277088,
        52.688533010332847,
        52.777655418339684,
        52.916136906739411,
        52.983891675821134,
        52.950171131399806,
        52.95303692387477,
        52.879589278679589,
        52.807000656191292,
        52.655128302450308,
        52.530712813959816,
        52.273792743397301,
        52.164853856338468,
        52.617548506265685,
        51.806137608288971,
        52.543963857964201,
        52.564325680842487,
        52.687339280721147,
        52.82091334752829,
        52.482324561235089,
        52.169328830886244,
        53.255647035892437,
        0.0,
        0.0,
        0.0,
        0.0,
        0.0,
        0.0,
        0.0,
        0.0,
        0.0,
        54.468712072967236,
        56.563173442766491,
        0.0,
        0.0,
        0.0,
        0.0,
        0.0,
        56.381898851134466,
        54.234298827386844,
        54.446860284924327,
        54.285467752377301,
        54.365822916987618,
        54.351532786728583,
        54.379101055509452,
        54.63896777332949,
        54.765251363260226,
        54.790735435627724,
        54.72276372037787,
        54.650770157707228,
        54.617334117939244,
        54.58566808995495,
        54.567548574996174,
        54.528571394028759,
        54.364338071409314,
        54.388175041613728,
        54.311656105271112,
        54.418396280693258,
        54.612800201641882,
        54.680229313142505,
        54.798114118922925,
        54.951909248577799,
        54.979251121415018,
        54.991647776374535,
        55.011096344954268,
        54.841462061437461,
        54.635080931316097,
        54.644147008888083,
        54.758656827471029,
        54.865329298697162,
        54.976511535210527,
        55.061334055498932,
        55.164770943172684,
        0.0,
        0.0,
        0.0,
        0.0,
        0.0,
        0.0,
        0.0,
        0.0,
        0.0,
        0.0,
        0.0,
        0.0,
        0.0,
        0.0,
        0.0,
        0.0,
        0.0,
        0.0,
        0.0,
        0.0,
        0.0,
        0.0,
        0.0,
        0.0,
        0.0,
        0.0,
        0.0,
        0.0,
        0.0,
        0.0,
        0.0,
        0.0,
        0.0,
        0.0,
        0.0,
        0.0,
        0.0,
        0.0,
        0.0,
        0.0,
        0.0,
        0.0,
        0.0,
        0.0,
        0.0,
        0.0,
        0.0,
        0.0,
        0.0,
        0.0,
        0.0,
        0.0,
        0.0,
        0.0,
        0.0,
        0.0,
        0.0,
        0.0,
        0.0,
        0.0,
        0.0,
        0.0,
        0.0,
        0.0,
        0.0,
        0.0,
        0.0,
        0.0,
        0.0,
        0.0,
        0.0,
        0.0,
        0.0,
        0.0,
        0.0,
        0.0,
        0.0,
        0.0,
        0.0,
        0.0,
        0.0,
        0.0,
        0.0,
        0.0,
        0.0,
        0.0,
        0.0,
        0.0,
        0.0,
        0.0,
        0.0,
        0.0,
        0.0,
        0.0,
        0.0,
        0.0,
        0.0,
        0.0,
        0.0,
        0.0,
        0.0,
        0.0,
        0.0,
        0.0,
        0.0,
        0.0,
        0.0,
        0.0,
        0.0,
        0.0,
        0.0,
        0.0,
        0.0,
        0.0,
        0.0,
        0.0,
        0.0,
        0.0,
        0.0,
        0.0,
        0.0,
        0.0,
        0.0,
        0.0,
        0.0,
        0.0,
        0.0,
        0.0,
        0.0,
        0.0,
        0.0,
        0.0,
        0.0,
        0.0,
        0.0,
        0.0,
        0.0,
        0.0,
        0.0,
        0.0,
        0.0,
        0.0,
        0.0,
        0.0,
        0.0,
        0.0,
        0.0,
        0.0,
        0.0,
        0.0,
        0.0,
        0.0,
        0.0,
        0.0,
        0.0,
        0.0,
        0.0
    ],
    "time": [
        0.02,
        0.040000000000000001,
        0.059999999999999998,
        0.080000000000000002,
        0.10000000000000001,
        0.12,
        0.14000000000000001,
        0.16,
        0.17999999999999999,
        0.20000000000000001,
        0.22,
        0.23999999999999999,
        0.26000000000000001,
        0.28000000000000003,
        0.29999999999999999,
        0.32000000000000001,
        0.34000000000000002,
        0.35999999999999999,
        0.38,
        0.40000000000000002,
        0.41999999999999998,
        0.44,
        0.46000000000000002,
        0.47999999999999998,
        0.5,
        0.52000000000000002,
        0.54000000000000004,
        0.56000000000000005,
        0.57999999999999996,
        0.59999999999999998,
        0.62,
        0.64000000000000001,
        0.66000000000000003,
        0.68000000000000005,
        0.69999999999999996,
        0.71999999999999997,
        0.73999999999999999,
        0.76000000000000001,
        0.78000000000000003,
        0.80000000000000004,
        0.81999999999999995,
        0.83999999999999997,
        0.85999999999999999,
        0.88,
        0.90000000000000002,
        0.92000000000000004,
        0.93999999999999995,
        0.95999999999999996,
        0.97999999999999998,
        1.0,
        1.02,
        1.04,
        1.0600000000000001,
        1.0800000000000001,
        1.1000000000000001,
        1.1200000000000001,
        1.1399999999999999,
        1.1599999999999999,
        1.1799999999999999,
        1.2,
        1.22,
        1.24,
        1.26,
        1.28,
        1.3,
        1.3200000000000001,
        1.3400000000000001,
        1.3600000000000001,
        1.3799999999999999,
        1.3999999999999999,
        1.4199999999999999,
        1.4399999999999999,
        1.46,
        1.48,
        1.5,
        1.52,
        1.54,
        1.5600000000000001,
        1.5800000000000001,
        1.6000000000000001,
        1.6200000000000001,
        1.6399999999999999,
        1.6599999999999999,
        1.6799999999999999,
        1.7,
        1.72,
        1.74,
        1.76,
        1.78,
        1.8,
        1.8200000000000001,
        1.8400000000000001,
        1.8600000000000001,
        1.8799999999999999,
        1.8999999999999999,
        1.9199999999999999,
        1.9399999999999999,
        1.96,
        1.98,
        2.0,
        2.02,
        2.04,
        2.0600000000000001,
        2.0800000000000001,
        2.1000000000000001,
        2.1200000000000001,
        2.1400000000000001,
        2.1600000000000001,
        2.1800000000000002,
        2.2000000000000002,
        2.2200000000000002,
        2.2400000000000002,
        2.2599999999999998,
        2.2799999999999998,
        2.2999999999999998,
        2.3199999999999998,
        2.3399999999999999,
        2.3599999999999999,
        2.3799999999999999,
        2.3999999999999999,
        2.4199999999999999,
        2.4399999999999999,
        2.46,
        2.48,
        2.5,
        2.52,
        2.54,
        2.5600000000000001,
        2.5800000000000001,
        2.6000000000000001,
        2.6200000000000001,
        2.6400000000000001,
        2.6600000000000001,
        2.6800000000000002,
        2.7000000000000002,
        2.7200000000000002,
        2.7400000000000002,
        2.7599999999999998,
        2.7799999999999998,
        2.7999999999999998,
        2.8199999999999998,
        2.8399999999999999,
        2.8599999999999999,
        2.8799999999999999,
        2.8999999999999999,
        2.9199999999999999,
        2.9399999999999999,
        2.96,
        2.98,
        3.0,
        3.02,
        3.04,
        3.0600000000000001,
        3.0800000000000001,
        3.1000000000000001,
        3.1200000000000001,
        3.1400000000000001,
        3.1600000000000001,
        3.1800000000000002,
        3.2000000000000002,
        3.2200000000000002,
        3.2400000000000002,
        3.2599999999999998,
        3.2799999999999998,
        3.2999999999999998,
        3.3199999999999998,
        3.3399999999999999,
        3.3599999999999999,
        3.3799999999999999,
        3.3999999999999999,
        3.4199999999999999,
        3.4399999999999999,
        3.46,
        3.48,
        3.5,
        3.52,
        3.54,
        3.5600000000000001,
        3.5800000000000001,
        3.6000000000000001,
        3.6200000000000001,
        3.6400000000000001,
        3.6600000000000001,
        3.6800000000000002,
        3.7000000000000002,
        3.7200000000000002,
        3.7400000000000002,
        3.7599999999999998,
        3.7799999999999998,
        3.7999999999999998,
        3.8199999999999998,
        3.8399999999999999,
        3.8599999999999999,
        3.8799999999999999,
        3.8999999999999999,
        3.9199999999999999,
        3.9399999999999999,
        3.96,
        3.98,
        4.0,
        4.0199999999999996,
        4.04,
        4.0599999999999996,
        4.0800000000000001,
        4.0999999999999996,
        4.1200000000000001,
        4.1399999999999997,
        4.1600000000000001,
        4.1799999999999997,
        4.2000000000000002,
        4.2199999999999998,
        4.2400000000000002,
        4.2599999999999998,
        4.2800000000000002,
        4.2999999999999998,
        4.3200000000000003,
        4.3399999999999999,
        4.3600000000000003,
        4.3799999999999999,
        4.4000000000000004,
        4.4199999999999999,
        4.4400000000000004,
        4.46,
        4.4800000000000004,
        4.5,
        4.5199999999999996,
        4.54,
        4.5599999999999996,
        4.5800000000000001,
        4.5999999999999996,
        4.6200000000000001,
        4.6399999999999997,
        4.6600000000000001,
        4.6799999999999997,
        4.7000000000000002,
        4.7199999999999998,
        4.7400000000000002,
        4.7599999999999998,
        4.7800000000000002,
        4.7999999999999998,
        4.8200000000000003,
        4.8399999999999999,
        4.8600000000000003,
        4.8799999999999999,
        4.9000000000000004,
        4.9199999999999999,
        4.9400000000000004,
        4.96,
        4.9800000000000004,
        5.0,
        5.0199999999999996,
        5.04,
        5.0599999999999996,
        5.0800000000000001,
        5.0999999999999996,
        5.1200000000000001,
        5.1399999999999997,
        5.1600000000000001,
        5.1799999999999997,
        5.2000000000000002,
        5.2199999999999998,
        5.2400000000000002,
        5.2599999999999998,
        5.2800000000000002,
        5.2999999999999998,
        5.3200000000000003,
        5.3399999999999999,
        5.3600000000000003,
        5.3799999999999999,
        5.4000000000000004,
        5.4199999999999999,
        5.4400000000000004,
        5.46,
        5.4800000000000004,
        5.5,
        5.5199999999999996,
        5.54,
        5.5599999999999996,
        5.5800000000000001,
        5.5999999999999996,
        5.6200000000000001,
        5.6399999999999997,
        5.6600000000000001,
        5.6799999999999997,
        5.7000000000000002,
        5.7199999999999998,
        5.7400000000000002,
        5.7599999999999998,
        5.7800000000000002,
        5.7999999999999998,
        5.8200000000000003,
        5.8399999999999999,
        5.8600000000000003,
        5.8799999999999999,
        5.9000000000000004,
        5.9199999999999999,
        5.9400000000000004,
        5.96,
        5.9800000000000004,
        6.0,
        6.0199999999999996,
        6.04,
        6.0599999999999996,
        6.0800000000000001,
        6.0999999999999996,
        6.1200000000000001,
        6.1399999999999997,
        6.1600000000000001,
        6.1799999999999997,
        6.2000000000000002,
        6.2199999999999998,
        6.2400000000000002,
        6.2599999999999998,
        6.2800000000000002,
        6.2999999999999998,
        6.3200000000000003,
        6.3399999999999999,
        6.3600000000000003,
        6.3799999999999999,
        6.4000000000000004,
        6.4199999999999999,
        6.4400000000000004,
        6.46,
        6.4800000000000004,
        6.5,
        6.5199999999999996,
        6.54,
        6.5599999999999996,
        6.5800000000000001,
        6.5999999999999996,
        6.6200000000000001,
        6.6399999999999997,
        6.6600000000000001,
        6.6799999999999997,
        6.7000000000000002,
        6.7199999999999998,
        6.7400000000000002,
        6.7599999999999998,
        6.7800000000000002,
        6.7999999999999998,
        6.8200000000000003,
        6.8399999999999999,
        6.8600000000000003,
        6.8799999999999999,
        6.9000000000000004,
        6.9199999999999999,
        6.9400000000000004,
        6.96,
        6.9800000000000004,
        7.0,
        7.0199999999999996,
        7.04,
        7.0599999999999996,
        7.0800000000000001,
        7.0999999999999996,
        7.1200000000000001,
        7.1399999999999997,
        7.1600000000000001,
        7.1799999999999997,
        7.2000000000000002,
        7.2199999999999998,
        7.2400000000000002,
        7.2599999999999998,
        7.2800000000000002,
        7.2999999999999998,
        7.3200000000000003,
        7.3399999999999999,
        7.3600000000000003,
        7.3799999999999999,
        7.4000000000000004,
        7.4199999999999999,
        7.4400000000000004,
        7.46,
        7.4800000000000004,
        7.5,
        7.5199999999999996,
        7.54,
        7.5599999999999996,
        7.5800000000000001,
        7.5999999999999996,
        7.6200000000000001,
        7.6399999999999997,
        7.6600000000000001,
        7.6799999999999997,
        7.7000000000000002,
        7.7199999999999998,
        7.7400000000000002,
        7.7599999999999998,
        7.7800000000000002,
        7.7999999999999998,
        7.8200000000000003,
        7.8399999999999999,
        7.8600000000000003,
        7.8799999999999999,
        7.9000000000000004,
        7.9199999999999999,
        7.9400000000000004,
        7.96,
        7.9800000000000004,
        8.0,
        8.0199999999999996,
        8.0399999999999991,
        8.0600000000000005,
        8.0800000000000001,
        8.0999999999999996,
        8.1199999999999992,
        8.1400000000000006,
        8.1600000000000001,
        8.1799999999999997,
        8.1999999999999993,
        8.2200000000000006,
        8.2400000000000002,
        8.2599999999999998,
        8.2799999999999994,
        8.3000000000000007,
        8.3200000000000003,
        8.3399999999999999,
        8.3599999999999994,
        8.3800000000000008,
        8.4000000000000004,
        8.4199999999999999,
        8.4399999999999995,
        8.4600000000000009,
        8.4800000000000004,
        8.5,
        8.5199999999999996,
        8.5399999999999991,
        8.5600000000000005,
        8.5800000000000001,
        8.5999999999999996,
        8.6199999999999992,
        8.6400000000000006,
        8.6600000000000001,
        8.6799999999999997,
        8.6999999999999993,
        8.7200000000000006,
        8.7400000000000002,
        8.7599999999999998,
        8.7799999999999994,
        8.8000000000000007,
        8.8200000000000003,
        8.8399999999999999,
        8.8599999999999994,
        8.8800000000000008,
        8.9000000000000004,
        8.9199999999999999,
        8.9399999999999995,
        8.9600000000000009,
        8.9800000000000004,
        9.0,
        9.0199999999999996,
        9.0399999999999991,
        9.0600000000000005,
        9.0800000000000001,
        9.0999999999999996,
        9.1199999999999992,
        9.1400000000000006,
        9.1600000000000001,
        9.1799999999999997,
        9.1999999999999993,
        9.2200000000000006,
        9.2400000000000002,
        9.2599999999999998,
        9.2799999999999994,
        9.3000000000000007,
        9.3200000000000003,
        9.3399999999999999,
        9.3599999999999994,
        9.3800000000000008,
        9.4000000000000004,
        9.4199999999999999,
        9.4399999999999995,
        9.4600000000000009,
        9.4800000000000004,
        9.5,
        9.5199999999999996,
        9.5399999999999991,
        9.5600000000000005,
        9.5800000000000001,
        9.5999999999999996,
        9.6199999999999992,
        9.6400000000000006,
        9.6600000000000001,
        9.6799999999999997,
        9.6999999999999993,
        9.7200000000000006,
        9.7400000000000002,
        9.7599999999999998,
        9.7799999999999994,
        9.8000000000000007,
        9.8200000000000003,
        9.8399999999999999,
        9.8599999999999994,
        9.8800000000000008,
        9.9000000000000004,
        9.9199999999999999,
        9.9399999999999995,
        9.9600000000000009,
        9.9800000000000004,
        10.0,
        10.02,
        10.039999999999999,
        10.06,
        10.08,
        10.1,
        10.119999999999999,
        10.140000000000001,
        10.16,
        10.18,
        10.199999999999999,
        10.220000000000001,
        10.24,
        10.26,
        10.279999999999999,
        10.300000000000001,
        10.32,
        10.34,
        10.359999999999999,
        10.380000000000001,
        10.4,
        10.42,
        10.44,
        10.460000000000001,
        10.48,
        10.5,
        10.52,
        10.539999999999999,
        10.56,
        10.58,
        10.6,
        10.619999999999999,
        10.640000000000001,
        10.66,
        10.68,
        10.699999999999999,
        10.720000000000001,
        10.74,
        10.76,
        10.779999999999999,
        10.800000000000001,
        10.82,
        10.84,
        10.859999999999999,
        10.880000000000001,
        10.9,
        10.92,
        10.94,
        10.960000000000001,
        10.98,
        11.0,
        11.02,
        11.039999999999999,
        11.06,
        11.08,
        11.1,
        11.119999999999999,
        11.140000000000001,
        11.16,
        11.18,
        11.199999999999999,
        11.220000000000001,
        11.24,
        11.26,
        11.279999999999999,
        11.300000000000001,
        11.32,
        11.34,
        11.359999999999999,
        11.380000000000001,
        11.4,
        11.42,
        11.44,
        11.460000000000001,
        11.48,
        11.5,
        11.52,
        11.539999999999999,
        11.56,
        11.58,
        11.6,
        11.619999999999999,
        11.640000000000001,
        11.66,
        11.68,
        11.699999999999999,
        11.720000000000001,
        11.74,
        11.76,
        11.779999999999999,
        11.800000000000001,
        11.82,
        11.84,
        11.859999999999999,
        11.880000000000001,
        11.9,
        11.92,
        11.94,
        11.960000000000001,
        11.98,
        12.0,
        12.02,
        12.039999999999999,
        12.06,
        12.08,
        12.1,
        12.119999999999999,
        12.140000000000001,
        12.16,
        12.18,
        12.199999999999999,
        12.220000000000001,
        12.24,
        12.26,
        12.279999999999999,
        12.300000000000001,
        12.32,
        12.34,
        12.359999999999999,
        12.380000000000001,
        12.4,
        12.42,
        12.44,
        12.460000000000001,
        12.48,
        12.5,
        12.52,
        12.539999999999999,
        12.56
    ]
}