{
    "DU": 143,
    "DV": 163,
    "F-measure": 0.8694096601073344,
    "F-measure Chroma": 0.9016100178890877,
    "FN": 53,
    "FNC": 2,
    "FNCch": 7,
    "FNI": 51,
    "FNIch": 46,
    "FP": 0,
    "GU": 90,
    "GV": 216,
    "Overall Accuracy": 0.7941176470588235,
    "Overall Chroma Accuracy": 0.8235294117647058,
    "Precision": 0.9604743083003953,
    "Precision Chroma": 0.9960474308300395,
    "Raw Chroma Accuracy": 0.7824074074074074,
    "Raw Pitch Accuracy": 0.7175925925925926,
    "Recall": 0.7941176470588235,
    "Recall Chroma": 0.8235294117647058,
    "TN": 90,
    "TO": 306,
    "TP": 163,
    "TPC": 153,
    "TPCch": 162,
    "TPI": 10,
    "TPIch": 1,
    "Voiced Chroma Accuracy": 0.75,
    "Voiced Pitch Accuracy": 0.7083333333333334,
    "Voicing Accuracy": 0.826797385620915,
    "Voicing Detection": 0.7546296296296297,
    "Voicing False Alarm": 0.0
}