{
	"f0": [NaN,35.34887861,35.34887861,35.34887861,35.34887861,35.34887861,35.34887861,35.34887861,35.34887861,35.34887861,35.34887861,35.56568258,35.53623563,35.34887861,46.48849566,40.83471518,36.44071438,69.24732565,35.49119927,35.91351653,50.61341802,50.60271069,51.25447857,35.34887861,35.34887861,35.34887861,40.14272327,51.5034462,52.14347144,52.84329024,53.8334911,55.54963758,57.57844969,57.85863824,58.05011005,58.01497329,57.88937337,57.76858993,57.75174202,57.80155853,58.12134614,58.54377654,58.8871494,59.07811133,59.30029247,59.44599278,59.37671831,59.2673373,59.16102342,59.00827104,58.83544221,58.60412164,58.48658117,58.50258319,58.3099986,58.07738736,58.09269235,58.16767763,58.09378012,58.07635902,58.37081325,58.39699148,58.34718157,58.13553932,57.58608467,57.52118408,57.66617505,56.95677798,55.92024187,56.03150641,56.10997488,57.69369496,58.36877536,58.51437088,58.39131548,58.03279097,57.88404319,57.95333973,58.06300364,58.25108023,58.53009047,58.7997411,58.97212456,59.29635525,59.2453415,58.92014815,58.34497805,58.08490372,58.16501844,58.13905702,57.88435104,58.74038281,58.43411054,58.7290721,58.50179034,58.41836749,58.48225787,58.50297276,58.48675378,58.47134076,58.44205717,58.38235384,58.0304047,57.60133845,57.60164366,57.92747891,58.0728717,58.50831646,64.54180483,63.50066854,76.81237683,74.17747674,57.32475855,56.75961762,57.4561022,57.8940127,57.81946384,57.22822637,57.06304118,57.00811136,57.11744159,57.37018514,57.80739353,58.35269906,58.60427306,58.82712527,58.98448528,59.03668642,58.89193425,58.46283354,58.35949241,58.61398602,58.45951607,58.7152064,58.47239905,58.29583936,58.15574765,58.04334561,57.54949419,57.4369682,57.99501596,58.01029376,57.948433,57.91666101,57.94916197,57.20159024,56.44601092,46.92696242,76.8419628,77.00172275,69.67933413,59.02626687,58.94481562,58.63130522,58.12953011,57.79060776,57.66753187,57.620296,57.68488701,57.86305018,58.06937597,58.33878357,58.61570582,58.85679964,59.00967639,58.94032958,58.83733389,58.69378242,57.96183493,57.84330694,57.63291276,57.54807481,58.13043914,58.04162135,57.90440136,57.8047261,57.7408105,57.73221437,57.78255569,57.91110188,58.35414778,58.36133898,58.27340204,58.12476192,58.29945397,58.09200855,58.14993539,58.27709039,58.09595224,58.06347718,58.08561954,57.76757749,61.08436419,59.60879134,59.55007835,59.35389388,58.87548823,58.64403009,58.45677251,58.4236332,58.47446957,58.50205419,58.54501705,58.61010875,58.67739185,58.72196164,58.69573689,58.62538001,58.55953251,58.51599221,58.4742006,58.58289778,58.91215033,59.14161021,59.2565366,59.13558841,58.85287014,58.74625286,58.6567424,58.4856691,58.3685618,58.55077665,58.93987807,59.93177512,60.93991927,61.2377502,61.49063744,73.72866434,61.22885935,59.79952165,59.62059503,60.40797014,60.59779315,60.66575749,56.25390165,55.14357383,54.83028514,54.65571101,54.60375594,54.58284664,54.56943429,54.54971881,54.44509365,54.32846662,54.20705456,54.25714597,54.30040362,53.45605504,53.43412761,53.41614087,53.46505077,53.53194484,53.58288731,53.80789856,54.05879772,54.48218174,54.74159115,54.6953596,54.58039507,53.87576074,54.09371096,54.46190396,54.66546869,54.65246956,56.9783932,55.31962887,54.91286891,54.78823331,54.83859683,54.86571005,54.88198049,54.84736475,54.77286581,54.65070546,54.53161366,54.65136718,54.81691315,54.9115951,55.20832742,55.55952997,55.9118642,56.11491649,56.03846291,55.80122073,55.59984565,55.32630924,55.30547919,55.73464143,56.34318794,56.71868717,56.66900149,56.4280765,56.00212236,55.63599546,55.36625012,55.3427576,55.57411826,55.93673437,56.08171144,56.06471285,56.03915853,55.98603485,55.88871037,55.87393239,56.04029035,56.13945889,56.01165637,43.98656587,44.00085906,55.78239895,48.95968889,44.0288226,35.34887861,35.34887861,45.78580198,45.78580198,47.07836779,49.68010446,48.61536641,46.89156086,46.52292706,46.42002457,46.16354076,48.84286112,38.89125136,76.93035138,76.93035138,76.93035138,76.93035138,76.93035138,76.93035138,76.93035138,76.93035138,76.93035138,76.93035138,76.93035138,76.93035138,76.93035138,76.93035138,76.93035138,76.93035138,76.93035138,76.93035138,76.93035138,76.93035138,76.93035138,76.93035138,76.93035138,76.93035138,76.93035138,76.93035138,76.93035138,76.93035138,76.93035138,76.93035138,76.93035138,76.93035138,76.93035138,76.93035138,76.93035138,76.93035138,76.93035138,76.93035138,76.93035138,76.93035138,76.93035138,76.93035138,76.93035138,76.93035138,76.93035138,76.93035138,76.93035138,76.93035138,76.93035138,76.93035138,76.93035138,76.93035138,76.93035138,76.93035138,76.93035138,76.93035138,76.93035138,76.93035138,76.93035138,76.93035138,76.93035138,76.93035138,76.93035138,76.93035138,76.93035138,76.93035138,76.93035138,76.93035138,76.93035138,76.93035138,76.93035138,76.93035138,76.93035138,76.93035138,76.93035138,76.93035138,76.93035138,76.93035138,76.93035138,76.93035138,76.93035138,76.93035138,76.93035138,76.93035138,76.93035138,76.93035138,76.93035138,76.93035138,76.93035138,76.93035138,76.93035138,76.93035138,76.93035138,76.93035138,76.93035138,76.93035138,76.93035138,76.93035138,76.93035138,76.93035138,76.93035138,76.93035138,76.93035138,76.93035138,76.93035138,76.93035138,76.93035138,76.93035138,76.93035138,76.93035138,76.93035138,76.93035138,76.93035138,76.93035138,76.93035138,76.93035138,76.93035138,76.93035138,76.93035138,76.93035138,76.93035138,76.93035138,76.93035138,76.93035138,76.93035138,76.93035138,76.93035138,76.93035138,76.93035138,76.93035138,76.93035138,76.93035138,76.93035138,76.93035138,76.93035138,76.93035138,NaN,NaN,NaN],
	"ap0": [NaN,0.560330656,0.567681384,0.529347628,0.5436941288,0.5239565457,0.4880678292,0.5721224071,0.5953480367,0.5219006353,0.532725763,0.533358367,0.6708768605,0.8361302024,0.8558313895,0.5764702775,0.6262123706,0.7982738541,0.7113489167,0.7257087048,0.7244126823,0.7157852571,0.7284215224,0.5372875354,0.557938672,0.408395993,2.577930991,0.1243739176,0.04965334052,0.03298955,0.05226632773,0.1923138986,0.07179491382,0.03433490702,0.007786129645,0.007528572696,0.01116596776,0.009901384347,0.008280086965,0.00824690976,0.02188785718,0.03228841698,0.01262071441,0.008097398304,0.008095293484,0.002830747596,0.003052444707,0.002087685579,0.002465907913,0.01136631131,0.03612658788,0.2101561825,0.1093109076,0.07275441722,0.06505105962,0.01799311802,0.008510440484,0.005775636641,0.01429114693,0.04308615911,0.04260363251,0.02178673746,0.01726340571,0.04267822588,0.06660926513,0.04260314255,0.1524191642,0.1921381326,0.147228152,0.1154955813,0.03961595744,0.0943302719,0.05100547267,0.03424559676,0.06863095339,0.09795285064,0.02803582046,0.01021131418,0.009590877034,0.01120559011,0.02233179374,0.01161066871,0.0178758236,0.00940907054,0.006754475274,0.01698943563,0.01699605271,0.05446341606,0.102805457,0.04869367659,0.1373626959,0.4819951524,0.2715704864,0.05691037287,0.03093040351,0.0182165329,0.0126044731,0.003376557894,0.002982990379,0.003498951714,0.003262426021,0.01367026951,0.04368252611,0.05984372642,0.05150675417,0.04399146579,0.1099569666,0.4255759752,0.5919670402,0.7573599813,0.7661901615,0.7637133771,0.283599678,0.08257705682,0.1728424601,0.09701858232,0.109368938,0.04028632156,0.02536895991,0.02854797968,0.02381383546,0.03887403827,0.08021395857,0.03429054814,0.02931583917,0.01453187919,0.007439032127,0.005618261942,0.01153483051,0.01123369851,0.04409571147,0.1433242879,0.08851198471,0.1275318272,0.03864563299,0.01445059037,0.01020690332,0.03609677569,0.1038945998,0.1002421133,0.1491972323,0.3823515991,0.6705681774,0.6634467486,0.7566718558,0.6994243394,0.7720018241,0.9052725831,0.7077201566,0.7577923214,0.7091310586,0.2061756516,0.04458055366,0.1209377115,0.1379519233,0.03239347502,0.01870756636,0.009382489556,0.01049629781,0.01484707647,0.0208132697,0.02643750694,0.02040457214,0.01733904077,0.008347783455,0.005256636402,0.02839989991,0.07418601538,0.06412337398,0.06539079996,0.04455090461,0.04190271282,0.07549199508,0.04130756718,0.008115056632,0.006976852864,0.02416449938,0.07141019134,0.1053666312,0.08844790492,0.04694242865,0.02356318966,0.031465248,0.07760285564,0.1733127582,0.08326199382,0.04884797121,0.04778418678,0.1666405119,0.1662268052,0.247778052,0.7911709236,0.3958853426,0.04995022484,0.01740123408,0.03784552445,0.03756504872,0.04059438094,0.03787501781,0.01199129298,0.009775199175,0.006551002885,0.003947434246,0.003188853573,0.002882938788,0.002329821244,0.005321977114,0.005951979262,0.002329095934,0.002447146544,0.003003565828,0.005726667775,0.007446156857,0.00352594461,0.03750973445,0.07088259046,0.04449374093,0.007795750568,0.00749458342,0.007842859894,0.004012265515,0.04179525667,0.07787043956,0.1852800684,0.1072495352,0.03676879355,0.04147810766,0.1328114986,0.1146298487,0.08200018514,0.09417118175,0.2927880757,0.21872275,0.1744953312,0.3686990216,0.1753431811,0.03504885867,0.01397961085,0.008331501679,0.006262527502,0.008837666529,0.01168960371,0.03180737254,0.08418300249,0.134959332,0.09785240496,0.3419632662,0.07827344427,0.02533638515,0.004654015933,0.003905484704,0.002347448075,0.01063792309,0.03284306592,0.04337815515,0.04354871149,0.01173116355,0.02187322361,0.06251495638,0.285792605,0.310731408,0.1187436566,0.1075736763,0.1038535812,0.8227789309,0.1880440242,0.1126892727,0.01267579323,0.003816345084,0.001947993262,0.001517833307,0.003507072503,0.006222790054,0.01499366473,0.01233046362,0.01986936585,0.00539161407,0.01038911992,0.02684127582,0.02592501104,0.01356287674,0.004877315637,0.01342719553,0.01884107159,0.03970764086,0.07758693763,0.02968507118,0.0356718052,0.03583359218,0.01143427711,0.01009169493,0.0227218331,0.03189683549,0.0351501285,0.04142624567,0.0414133049,0.02350872105,0.02048105797,0.01218542209,0.01208822652,0.00863465758,0.005691180734,0.009594123641,0.0224837617,0.05420356846,0.125922505,0.5361815684,0.2932460455,0.4047132694,0.468108376,0.3809581179,0.5009214778,0.4910679343,0.6978416248,0.4202133104,0.1949071451,0.3779749556,0.5671909068,0.5733594543,0.3453253627,0.2299012333,0.279510034,0.5912292388,0.5858622074,1.001682414,1,1,1,1,1,1,1,1,1,1,1,1,1,1,1,1,1,1,1,1,1,1,1,1,1,1,1,1,1,1,1,1,1,1,1,1,1,1,1,1,1,1,1,1,1,1,1,1,1,1,1,1,1,1,1,1,1,1,1,1,1,1,1,1,1,1,1,1,1,1,1,1,1,1,1,1,1,1,1,1,1,1,1,1,1,1,1,1,1,1,1,1,1,1,1,1,1,1,1,1,1,1,1,1,1,1,1,1,1,1,1,1,1,1,1,1,1,1,1,1,1,1,1,1,1,1,1,1,1,1,1,1,1,1,1,1,NaN,NaN,NaN],
	"ap": [NaN,0.3264294808,0.2720782439,0.3085794461,0.3050928702,0.2599818586,0.2568918628,0.2909839977,0.35158853,0.3221610346,0.2778099886,0.3171204611,0.2270693534,0.4497671227,0.4227855297,0.4021922092,0.3378482993,0.5027347087,0.2824019414,0.4149439568,0.5729851862,0.4745381289,0.4873526662,0.2997844953,0.3561950687,0.2228808115,0.5266270695,0.2810117309,0.3928294142,0.04971885176,0.05259368146,0.1110322282,0.3591573171,0.08957041341,0.006982640437,0.007205104606,0.005778041219,0.006593816951,0.007550334114,0.001319702241,0.01010818983,0.02675513797,0.02626332084,0.01444087897,0.008441320619,0.007229642517,0.002600398541,0.001636983458,0.002947748373,0.002794128697,0.004019187686,0.03772516621,0.05541842503,0.2475428797,0.03572173517,0.04820380656,0.005819673076,0.002288271481,0.007370017765,0.002275824799,0.05997866261,0.02230580053,0.0205974644,0.006340739441,0.03136563296,0.0798977005,0.02374024195,0.1382875621,0.310315671,0.0453913036,0.07012852313,0.0395459401,0.1382799103,0.05045646891,0.02790840198,0.0577357166,0.01508618999,0.006800273918,0.01612563733,0.01739417375,0.02923228594,0.03375834471,0.00638060758,0.01914023123,0.002361638639,0.008474715935,0.02125366317,0.009835668598,0.02099437505,0.8101945896,0.006938634626,0.042148258,0.5626179393,0.3388330052,0.09503161027,0.01688971415,0.01569076498,0.008726333608,0.002135798723,0.001053230564,0.002866986701,0.001475429485,0.01173077942,0.02474635901,0.01281869401,0.08512284781,0.00818114793,0.03798828944,0.5321863174,0.3626447345,0.5824355131,0.2188478823,0.299118447,0.5414696575,0.05432510307,0.2800926176,0.02693161056,0.1456632192,0.0100609214,0.01160049552,0.007772409631,0.03627871041,0.08629181274,0.09914175531,0.03911261102,0.01328808014,0.005193435248,0.005252446111,0.002932240304,0.01765564034,0.002607289084,0.02079888368,0.01521565148,0.03017641264,0.1258666579,0.02777729667,0.004507094869,0.005198431063,0.0399839411,0.1016290886,0.04491579781,0.03824559791,0.212047967,0.2868856496,0.2631392197,0.1402844302,0.3427974803,0.5774314027,0.4297707699,0.7095504197,0.3612987585,0.3717457312,0.4907184752,0.06199931923,0.09951593239,0.02768995925,0.007393963965,0.00981678788,0.004917206339,0.01748286251,0.01582280693,0.03520891626,0.01372482954,0.04731584977,0.01435583382,0.006390048882,0.004156849041,0.003350033963,0.08541867165,0.02878880635,0.0397714547,0.01817041015,0.02919253037,0.05611530395,0.0253556109,0.004042655322,0.003678602139,0.008379208104,0.05685145945,0.02421161871,0.1372713973,0.0589570653,0.01029312297,0.01987486855,0.07384847972,0.06034183636,0.01264515958,0.02175994233,0.02380861119,0.05141584897,0.05116794254,0.1609666276,0.3976005449,0.5841924856,0.2854961444,0.02873747538,0.05357766591,0.01565147523,0.01654277887,0.03150233582,0.0063296433,0.001846615447,0.002600704271,0.003077761942,0.00223706768,0.0009397297619,0.001435828307,0.002656050722,0.00334619476,0.001687068823,0.000536553309,0.001534650139,0.01048645141,0.0114202409,0.002734735672,0.001116453945,0.06991787957,0.02170733595,0.006838744312,0.01832572959,0.003915565004,0.01067267442,0.07965399987,0.2271292379,0.2394687397,0.1188892469,0.008633866069,0.03856168939,0.1423344914,0.2313494978,0.02387332828,0.198874855,0.09012009466,0.1651254314,0.4421932258,0.7561229403,0.1999897364,0.03852191006,0.0118931352,0.004180494778,0.001812361511,0.003977893603,0.009491682692,0.004085454985,0.1642605073,0.09523441691,0.04228674306,0.2058009867,0.2990868757,0.009481052545,0.004736638149,0.001456914787,0.001469747348,0.01910242875,0.03625731739,0.07599101555,0.01823702174,0.01098988124,0.002680939829,0.1371653445,0.1012916565,0.09191124655,0.0345871469,0.02292422581,0.4691605827,0.0384552448,0.4457625435,0.02146723722,0.01919022716,0.002508930356,0.0004091850405,0.001363794622,0.003187944461,0.008439964362,0.008489645504,0.02051427242,0.01378776471,0.004836983172,0.03048249318,0.05549425111,0.02874197363,0.01174625368,0.001886701645,0.02155257959,0.006942220811,0.04284000966,0.04618930123,0.05540583533,0.08261394119,0.03611395332,0.002305813428,0.02122305785,0.03783057521,0.01771786243,0.01403947657,0.02393043704,0.01331195782,0.02844890786,0.01670705027,0.006903273279,0.002605679297,0.002026586929,0.002900816052,0.003884416932,0.01154096134,0.01777711785,0.1226332478,0.394969969,0.1779087149,0.1843564602,0.3999301343,0.2654714316,0.2340640568,0.2775425625,0.3078361629,0.09356675973,0.1376968031,0.4141081946,0.7913837527,0.1330101833,0.2592380757,0.05773488288,0.09279545687,0.2093407559,0.5000004792,1,1,1,1,1,1,1,1,1,1,1,1,1,1,1,1,1,1,1,1,1,1,1,1,1,1,1,1,1,1,1,1,1,1,1,1,1,1,1,1,1,1,1,1,1,1,1,1,1,1,1,1,1,1,1,1,1,1,1,1,1,1,1,1,1,1,1,1,1,1,1,1,1,1,1,1,1,1,1,1,1,1,1,1,1,1,1,1,1,1,1,1,1,1,1,1,1,1,1,1,1,1,1,1,1,1,1,1,1,1,1,1,1,1,1,1,1,1,1,1,1,1,1,1,1,1,1,1,1,1,1,1,1,1,1,1,NaN,NaN,NaN],
	"pwr": [NaN,3.876875422e-07,6.70108363e-07,5.987333959e-07,5.613280988e-07,4.119583035e-07,6.007449976e-07,5.144058492e-07,8.855825822e-07,8.845639481e-07,1.006322458e-06,6.021085292e-07,9.647760724e-07,1.069794704e-06,1.736314375e-06,3.174866422e-06,5.584944235e-06,2.454461502e-06,2.90150782e-06,1.576468818e-06,1.150584711e-06,1.534205185e-06,1.727149024e-06,7.039907216e-07,1.026614245e-06,5.92070452e-07,9.761381007e-07,9.302827728e-07,3.013844988e-06,0.003796424177,0.005593027813,0.004384861524,0.002255008195,0.003202017354,0.01827978752,0.01286123601,0.01080412131,0.008270084677,0.005224709692,0.004414763197,0.003923644664,0.004060995572,0.006223916005,0.005575612921,0.01850088311,0.0199294335,0.01583772109,0.01688921838,0.01562044928,0.01817920408,0.01622104232,0.007878554332,0.000625158745,0.000289518693,0.01413216423,0.05389488867,0.03256309561,0.02762211593,0.02072856884,0.02313655198,0.01517624525,0.007719564862,0.009789113084,0.01029215127,0.006525287922,0.001170785772,0.002645057302,0.0001753836673,9.20238977e-05,0.0002270742225,0.0001407972615,0.0001898589614,0.0004171917487,0.005094905019,0.01739439288,0.09873600375,0.01974093265,0.01455977871,0.01738237377,0.01867891934,0.01478693095,0.01797151457,0.0230624005,0.03352683382,0.02152034704,0.01811973457,0.01374894932,0.008313238094,0.003857766355,0.0003585406913,0.001531035524,0.000319175248,0.000116345131,8.744483701e-05,0.009441712122,0.08023830351,0.07205235556,0.05597216928,0.05177533915,0.04410578162,0.03027755776,0.0222670997,0.01810768124,0.003822840769,0.003320471994,0.002914195745,0.00157089494,0.0002882936536,2.015828952e-05,0.0001137879838,0.000124484547,0.001018995869,0.0003513234784,0.0001097471273,0.005841628986,0.02471195266,0.05268835638,0.04481782942,0.02130336404,0.02696565132,0.01738020571,0.01347696944,0.01463350461,0.01457443236,0.01229428809,0.01116716797,0.01471918483,0.01573012415,0.02090195209,0.01617926707,0.01248519193,0.00654997436,0.0008342006661,0.0009764948929,0.0001200459476,0.01280081251,0.03259601312,0.02799002454,0.007638881311,0.001629730982,0.005846386724,0.002881970061,0.000489485634,0.0002138889753,0.0001756328029,0.0002714988302,0.0001897865673,0.0002983817863,0.0002326015181,0.000390094871,4.542834583e-05,0.0001626179874,8.488631244e-05,0.003834179657,0.06519701729,0.03099690974,0.03915903829,0.03146120133,0.03057777169,0.02941088878,0.02681992662,0.03726599223,0.02376841668,0.04724206122,0.04032573819,0.02719375358,0.03158274736,0.03563445839,0.005833854814,0.002805071953,0.002396644151,0.004269208774,0.005052686226,0.006887009212,0.04100974094,0.03995828029,0.03550725137,0.02977716215,0.02651283843,0.01249916352,0.004298936856,0.01052442286,0.05854500365,0.07492679963,0.02725266999,0.007800706793,0.003679966448,0.001612615357,0.0008410981194,8.373524809e-05,0.0002251553453,0.00014113669,4.194876267e-05,0.0001581644671,0.001535731706,0.1278482016,0.232601552,0.07871309767,0.08780222843,0.02879203195,0.03288102839,0.03896314995,0.02221437423,0.02125956872,0.02337890206,0.02072038516,0.01960747348,0.01917550023,0.01244096949,0.01428224841,0.01342862574,0.01160328589,0.008447757289,0.0116361176,0.02038423945,0.01593984366,0.0234065232,0.06048505407,0.1810011153,0.2280348382,0.1780508299,0.1479216323,0.09693770455,0.1102629069,0.02781918565,0.03184682099,0.07250006733,0.1305845593,0.04186216296,0.06590069396,0.01878790427,0.01322359014,0.003781103074,0.001406445055,0.0003891214521,0.0002095476977,0.03655781365,0.04678704563,0.06010729782,0.02534577385,0.0335317431,0.03969919598,0.03671288558,0.0384012774,0.006588379388,0.001372276237,0.001104585413,0.0007365191956,0.00094638631,0.02320554205,0.02433997748,0.02847876965,0.02796672444,0.02941976841,0.02423874342,0.03220161923,0.02997540945,0.02626640558,0.03614245827,0.01305986533,0.001710930743,0.00028230914,0.0001779850976,0.0001073491463,8.117990839e-05,1.266772493e-05,0.001030683231,0.09687111748,0.109073625,0.1192412204,0.1392698044,0.126188423,0.1204024025,0.08764880685,0.0483837114,0.022540437,0.01565273634,0.01721909665,0.01755533015,0.02180350518,0.03609361376,0.04132920909,0.05140832202,0.05751107125,0.04306962316,0.01630201445,0.001983863541,0.002241278183,0.001786879511,0.003977872235,0.006037283226,0.006396542208,0.009432601403,0.003538280332,0.001863108661,0.001161681972,0.0007532316407,0.0005794364433,0.001151810625,0.001615050149,0.002117602447,0.002163476455,0.002189853495,0.001808131237,0.001070264096,0.000618219228,0.0001320857547,1.127144254e-05,3.697147317e-05,7.922045916e-06,3.225647053e-06,1.465703178e-06,1.831055577e-06,1.156913927e-06,7.813164073e-07,1.835693746e-07,6.911144484e-08,2.734239322e-08,8.159068191e-09,3.425691153e-09,1.154308425e-09,2.029883578e-09,8.517150384e-10,2.478197409e-10,1.15852929e-10,0,0,0,0,0,0,0,0,0,0,0,0,0,0,0,0,0,0,0,0,0,0,0,0,0,0,0,0,0,0,0,0,0,0,0,0,0,0,0,0,0,0,0,0,0,0,0,0,0,0,0,0,0,0,0,0,0,0,0,0,0,0,0,0,0,0,0,0,0,0,0,0,0,0,0,0,0,0,0,0,0,0,0,0,0,0,0,0,0,0,0,0,0,0,0,0,0,0,0,0,0,0,0,0,0,0,0,0,0,0,0,0,0,0,0,0,0,0,0,0,0,0,0,0,0,0,0,0,0,0,0,0,0,0,0,0,NaN,NaN,NaN],
	"sr": 16000,
	"range": [1,148328],
	"minf0": 63.1883,
	"maxf0": 706.3069,
	"thresh": 0.1,
	"relflag": 1,
	"hop": 320,
	"bufsize": 10000,
	"wsize": 640,
	"lpf": 4000,
	"shift": 0,
	"plotthreshold": 0.2
}
