{
    "DU": 125,
    "DV": 230,
    "F-measure": 0.8986384266263238,
    "F-measure Chroma": 0.8986384266263238,
    "FN": 24,
    "FNC": 10,
    "FNCch": 18,
    "FNI": 14,
    "FNIch": 6,
    "FP": 25,
    "GU": 126,
    "GV": 229,
    "Overall Accuracy": 0.8366197183098592,
    "Overall Chroma Accuracy": 0.8366197183098592,
    "Precision": 0.8972809667673716,
    "Precision Chroma": 0.8972809667673716,
    "Raw Chroma Accuracy": 0.9344978165938864,
    "Raw Pitch Accuracy": 0.8995633187772926,
    "Recall": 0.9,
    "Recall Chroma": 0.9,
    "TN": 101,
    "TO": 355,
    "TP": 205,
    "TPC": 196,
    "TPCch": 196,
    "TPI": 9,
    "TPIch": 9,
    "Voiced Chroma Accuracy": 0.8558951965065502,
    "Voiced Pitch Accuracy": 0.8558951965065502,
    "Voicing Accuracy": 0.8619718309859155,
    "Voicing Detection": 0.8951965065502183,
    "Voicing False Alarm": 0.1984126984126984
}