{
    "DU": 123,
    "DV": 184,
    "F-measure": 0.9563758389261745,
    "F-measure Chroma": 0.9630872483221478,
    "FN": 18,
    "FNC": 2,
    "FNCch": 8,
    "FNI": 16,
    "FNIch": 10,
    "FP": 0,
    "GU": 105,
    "GV": 202,
    "Overall Accuracy": 0.9283387622149837,
    "Overall Chroma Accuracy": 0.9348534201954397,
    "Precision": 0.986159169550173,
    "Precision Chroma": 0.9930795847750865,
    "Raw Chroma Accuracy": 0.9405940594059405,
    "Raw Pitch Accuracy": 0.900990099009901,
    "Recall": 0.9283387622149837,
    "Recall Chroma": 0.9348534201954397,
    "TN": 105,
    "TO": 307,
    "TP": 184,
    "TPC": 180,
    "TPCch": 182,
    "TPI": 4,
    "TPIch": 2,
    "Voiced Chroma Accuracy": 0.900990099009901,
    "Voiced Pitch Accuracy": 0.8910891089108911,
    "Voicing Accuracy": 0.9413680781758957,
    "Voicing Detection": 0.9108910891089109,
    "Voicing False Alarm": 0.0
}