{
    "f0": [
        0.0,
        0.0,
        0.0,
        0.0,
        0.0,
        0.0,
        0.0,
        0.0,
        0.0,
        0.0,
        0.0,
        0.0,
        0.0,
        0.0,
        0.0,
        0.0,
        0.0,
        0.0,
        0.0,
        38.358733556822564,
        38.742450433331818,
        39.554810090452939,
        41.217586935884199,
        0.0,
        0.0,
        0.0,
        0.0,
        0.0,
        0.0,
        0.0,
        40.310963571995394,
        42.579762910825124,
        0.0,
        0.0,
        0.0,
        0.0,
        0.0,
        0.0,
        0.0,
        0.0,
        0.0,
        0.0,
        0.0,
        0.0,
        0.0,
        0.0,
        0.0,
        40.986019120944469,
        42.690800419672023,
        44.245637708043851,
        41.246029520471318,
        41.650327394620732,
        44.329724895582913,
        40.124115314499647,
        0.0,
        0.0,
        0.0,
        0.0,
        0.0,
        0.0,
        0.0,
        0.0,
        0.0,
        0.0,
        0.0,
        61.721032868164151,
        59.0050570173549,
        0.0,
        0.0,
        0.0,
        0.0,
        0.0,
        0.0,
        0.0,
        0.0,
        0.0,
        0.0,
        0.0,
        0.0,
        0.0,
        50.174739026823794,
        49.97151644706296,
        50.207535833474097,
        50.401018650964218,
        50.650942451004489,
        50.827943495182609,
        51.037216737797166,
        51.273452368721308,
        51.444557108402577,
        51.41782191195697,
        51.495856017260877,
        51.289698543351349,
        51.074556519861169,
        51.072383626855441,
        51.122006855678336,
        51.226052071919483,
        51.406193166959937,
        51.59643819634519,
        51.68918748331987,
        51.833016540673292,
        51.664171094396238,
        52.121164553448445,
        51.743328938181648,
        51.346480046177717,
        51.323143508411739,
        51.540432353039272,
        51.607090714439209,
        51.109748903655088,
        0.0,
        0.0,
        39.846619845864794,
        38.458259500594828,
        41.468797491150539,
        41.807502108556108,
        54.729276117768904,
        54.922530136177471,
        55.103959005543523,
        55.19884742666423,
        55.104283249666089,
        55.62200342179888,
        55.673685908697692,
        55.927653962280502,
        56.30104609697068,
        56.526690712874114,
        56.325556821239786,
        56.410467746621762,
        56.533540721338056,
        56.515854958639963,
        56.582726166850286,
        56.616955231764749,
        56.539863962454547,
        56.515784635388215,
        56.568065227391081,
        56.595276724582327,
        56.506086192585755,
        56.472575338031106,
        56.335638928065649,
        56.302528802591212,
        56.468743622900419,
        55.88536634468683,
        56.515545016271545,
        56.664725716997822,
        56.753389813281544,
        55.710582352905575,
        57.126374211728987,
        56.846528545576476,
        56.66112488348125,
        56.377112265515755,
        56.280845731223451,
        56.38080503090589,
        56.395529595198951,
        56.355659599740285,
        56.189687755125163,
        56.022070037656825,
        55.77571778747334,
        55.792234114621508,
        55.759501694340898,
        55.724075832183274,
        55.84010833515724,
        55.778983165995434,
        56.132185489086346,
        56.384501982759318,
        56.179689085146208,
        55.990891091679643,
        55.928371937681042,
        55.82930567132528,
        55.94052745575059,
        55.945349538023031,
        56.100760462941736,
        56.180371436782949,
        56.348819886985595,
        56.465961272440602,
        56.591485609737028,
        56.743734634672997,
        56.770540209891763,
        56.699303900641695,
        56.582556477340738,
        56.463182127428539,
        56.457115822981876,
        56.44839721754029,
        56.283240026734234,
        56.240628873835121,
        56.182892934176294,
        56.287898808142394,
        56.231037361925758,
        56.274283221237454,
        56.296954868517759,
        56.371812566654285,
        56.323852619447933,
        56.323090960142366,
        56.291739438889479,
        56.267044230886349,
        56.184786022759837,
        56.178966357150067,
        56.15306182604153,
        56.107137514259776,
        56.121346283200701,
        56.251873871034697,
        56.109363832310223,
        56.43252277280321,
        56.60282570650638,
        56.627370838521259,
        56.713243806731491,
        56.751479900301803,
        56.61361578948511,
        56.59925497976225,
        56.565415719283322,
        56.38622264647735,
        56.292396156866545,
        56.346018112802881,
        56.394756169813974,
        56.425806425885348,
        56.476345535804739,
        56.482532565378165,
        56.54828269000474,
        56.585429608285708,
        56.652042925120902,
        56.665668328683566,
        56.668634224118122,
        56.59644680924886,
        56.537121308271402,
        56.529831071148728,
        56.485402643619537,
        56.338594532818327,
        56.311189896304548,
        56.310262752161826,
        56.217928411549629,
        56.171129434699452,
        56.179108611283439,
        56.053127021226537,
        56.132809153931802,
        56.633052821688104,
        56.703953410951499,
        56.576094946750914,
        56.575402208819696,
        57.004275384064769,
        56.914431013589052,
        56.849074814386569,
        56.781957071128375,
        56.616419969856025,
        56.510959486842154,
        56.673993158558808,
        56.732902220467238,
        56.735039760287478,
        56.669654986851498,
        56.642391133758053,
        56.659634614491004,
        56.676224816770741,
        56.671570258514265,
        56.631994369186501,
        56.572358752864545,
        56.545718934997794,
        56.523024003468265,
        56.379840500110284,
        56.397417012279817,
        56.492864922329325,
        56.607990047319781,
        56.662005261602744,
        56.711326978940193,
        56.567921212110605,
        57.441359712204353,
        57.308670779211319,
        56.879004719732045,
        56.542482801349792,
        56.741575004194829,
        56.413182101248282,
        56.262833445718591,
        57.483380938102442,
        57.46880554277179,
        56.606118123598883,
        56.433367692608215,
        51.265005895583926,
        50.969345560740805,
        50.551958182453639,
        50.636300102499121,
        50.687031731624536,
        50.676942917673138,
        50.592270803862476,
        50.603086600127185,
        50.709006697390208,
        50.706744307996871,
        50.727795545596074,
        50.758565127669911,
        50.753498400412262,
        50.774910958643076,
        50.841137648862997,
        50.950072987372614,
        51.032534280540034,
        51.048527043453603,
        51.054210656206664,
        50.75998055756952,
        50.785896998662544,
        50.914765664890844,
        50.876574784970742,
        51.195958589966821,
        51.67414345471618,
        51.184309077717806,
        51.183653804037348,
        50.994458102029419,
        50.9892526086429,
        51.516854899362706,
        52.911105872347655,
        52.080330898983959,
        51.50510108466672,
        51.221673675019254,
        51.157742529506926,
        51.463241023830903,
        52.083768657873442,
        52.411595875165219,
        52.650309470393751,
        52.670875084600596,
        52.957647801887127,
        53.281888376358935,
        53.405900238127714,
        53.651360385416837,
        53.576270555187207,
        53.433657589897408,
        53.234294798227239,
        53.241435083023248,
        53.456404025931306,
        53.76206766787606,
        53.926595137362149,
        53.93174528055475,
        53.903835322499972,
        53.874769937826599,
        53.848813440272473,
        53.86651202354426,
        53.944012383503782,
        54.019056450982539,
        54.073862065495724,
        54.165809677090124,
        54.354177137959951,
        55.027199503836641,
        56.110765708182988,
        56.474247684871592,
        56.482387836817992,
        56.551495531416137,
        56.507526667286982,
        56.290315904239677,
        56.23725871963957,
        56.281167450617524,
        56.08772466248643,
        55.781468480993205,
        56.112494824773918,
        55.974784969069304,
        56.060548547000479,
        56.061936603303749,
        56.023780144074792,
        55.979063804384573,
        56.713730880965898,
        56.78312552365324,
        56.494377070081597,
        56.071500598595314,
        56.093038559580151,
        55.827680324139308,
        56.010735720337152,
        56.064835394538953,
        56.071859110371989,
        56.155147315655704,
        56.203703224787617,
        56.330055687212322,
        56.455814800348477,
        56.563260844213453,
        56.738403399772281,
        56.744772861064078,
        56.747001563103666,
        56.622428306431793,
        56.47104895237554,
        56.438070550892689,
        56.428579132836362,
        56.24706623606847,
        56.216253761854105,
        55.774685500443987,
        56.213451860532786,
        56.21217892768783,
        56.150239511838336,
        56.244402240367222,
        56.229738077883312,
        56.362695903723989,
        56.71080935023636,
        56.689420454534414,
        56.60748896089035,
        56.491936355049283,
        56.364340284437553,
        56.317922116700359,
        56.307567266561151,
        56.371106628141412,
        56.542231269734479,
        56.884931025045518,
        57.174390029283316,
        57.430103761390697,
        57.863531734584981,
        58.207589742767368,
        58.914005830312377,
        58.788526340279951,
        58.860091878143265,
        58.876411581373802,
        58.844849148959781,
        58.847706025979576,
        0.0,
        0.0,
        0.0,
        0.0,
        0.0,
        0.0,
        0.0,
        0.0,
        0.0,
        0.0,
        0.0,
        0.0,
        0.0,
        0.0,
        0.0,
        0.0,
        0.0,
        0.0,
        0.0,
        0.0,
        0.0,
        0.0,
        0.0,
        0.0,
        0.0,
        0.0,
        0.0,
        0.0,
        0.0,
        0.0,
        0.0,
        0.0,
        0.0,
        0.0,
        0.0,
        0.0,
        0.0,
        0.0,
        0.0,
        0.0,
        0.0,
        0.0,
        0.0,
        0.0,
        0.0,
        0.0,
        0.0,
        0.0,
        0.0,
        0.0,
        0.0,
        0.0,
        0.0,
        0.0,
        0.0,
        0.0,
        0.0,
        0.0,
        0.0,
        0.0,
        0.0,
        0.0,
        0.0,
        0.0,
        0.0,
        0.0,
        0.0,
        0.0,
        0.0,
        0.0,
        0.0,
        0.0,
        0.0,
        0.0,
        0.0,
        0.0,
        0.0,
        0.0,
        0.0,
        0.0,
        0.0,
        0.0,
        0.0,
        0.0,
        0.0,
        0.0,
        0.0,
        0.0,
        0.0,
        0.0,
        0.0,
        0.0,
        0.0,
        0.0,
        0.0,
        0.0,
        0.0,
        0.0,
        0.0,
        0.0,
        0.0,
        0.0,
        0.0,
        0.0,
        0.0,
        0.0,
        0.0,
        0.0,
        0.0,
        0.0,
        0.0,
        0.0,
        0.0,
        0.0,
        0.0,
        0.0,
        0.0,
        0.0,
        0.0,
        0.0,
        0.0,
        0.0,
        0.0,
        0.0,
        0.0,
        0.0,
        0.0,
        0.0,
        0.0,
        0.0,
        0.0,
        0.0,
        0.0,
        0.0,
        0.0,
        0.0,
        0.0,
        0.0,
        0.0,
        0.0,
        0.0,
        0.0,
        0.0,
        0.0,
        0.0,
        0.0,
        0.0,
        0.0,
        0.0,
        0.0,
        0.0,
        0.0
    ],
    "time": [
        0.02,
        0.040000000000000001,
        0.059999999999999998,
        0.080000000000000002,
        0.10000000000000001,
        0.12,
        0.14000000000000001,
        0.16,
        0.17999999999999999,
        0.20000000000000001,
        0.22,
        0.23999999999999999,
        0.26000000000000001,
        0.28000000000000003,
        0.29999999999999999,
        0.32000000000000001,
        0.34000000000000002,
        0.35999999999999999,
        0.38,
        0.40000000000000002,
        0.41999999999999998,
        0.44,
        0.46000000000000002,
        0.47999999999999998,
        0.5,
        0.52000000000000002,
        0.54000000000000004,
        0.56000000000000005,
        0.57999999999999996,
        0.59999999999999998,
        0.62,
        0.64000000000000001,
        0.66000000000000003,
        0.68000000000000005,
        0.69999999999999996,
        0.71999999999999997,
        0.73999999999999999,
        0.76000000000000001,
        0.78000000000000003,
        0.80000000000000004,
        0.81999999999999995,
        0.83999999999999997,
        0.85999999999999999,
        0.88,
        0.90000000000000002,
        0.92000000000000004,
        0.93999999999999995,
        0.95999999999999996,
        0.97999999999999998,
        1.0,
        1.02,
        1.04,
        1.0600000000000001,
        1.0800000000000001,
        1.1000000000000001,
        1.1200000000000001,
        1.1399999999999999,
        1.1599999999999999,
        1.1799999999999999,
        1.2,
        1.22,
        1.24,
        1.26,
        1.28,
        1.3,
        1.3200000000000001,
        1.3400000000000001,
        1.3600000000000001,
        1.3799999999999999,
        1.3999999999999999,
        1.4199999999999999,
        1.4399999999999999,
        1.46,
        1.48,
        1.5,
        1.52,
        1.54,
        1.5600000000000001,
        1.5800000000000001,
        1.6000000000000001,
        1.6200000000000001,
        1.6399999999999999,
        1.6599999999999999,
        1.6799999999999999,
        1.7,
        1.72,
        1.74,
        1.76,
        1.78,
        1.8,
        1.8200000000000001,
        1.8400000000000001,
        1.8600000000000001,
        1.8799999999999999,
        1.8999999999999999,
        1.9199999999999999,
        1.9399999999999999,
        1.96,
        1.98,
        2.0,
        2.02,
        2.04,
        2.0600000000000001,
        2.0800000000000001,
        2.1000000000000001,
        2.1200000000000001,
        2.1400000000000001,
        2.1600000000000001,
        2.1800000000000002,
        2.2000000000000002,
        2.2200000000000002,
        2.2400000000000002,
        2.2599999999999998,
        2.2799999999999998,
        2.2999999999999998,
        2.3199999999999998,
        2.3399999999999999,
        2.3599999999999999,
        2.3799999999999999,
        2.3999999999999999,
        2.4199999999999999,
        2.4399999999999999,
        2.46,
        2.48,
        2.5,
        2.52,
        2.54,
        2.5600000000000001,
        2.5800000000000001,
        2.6000000000000001,
        2.6200000000000001,
        2.6400000000000001,
        2.6600000000000001,
        2.6800000000000002,
        2.7000000000000002,
        2.7200000000000002,
        2.7400000000000002,
        2.7599999999999998,
        2.7799999999999998,
        2.7999999999999998,
        2.8199999999999998,
        2.8399999999999999,
        2.8599999999999999,
        2.8799999999999999,
        2.8999999999999999,
        2.9199999999999999,
        2.9399999999999999,
        2.96,
        2.98,
        3.0,
        3.02,
        3.04,
        3.0600000000000001,
        3.0800000000000001,
        3.1000000000000001,
        3.1200000000000001,
        3.1400000000000001,
        3.1600000000000001,
        3.1800000000000002,
        3.2000000000000002,
        3.2200000000000002,
        3.2400000000000002,
        3.2599999999999998,
        3.2799999999999998,
        3.2999999999999998,
        3.3199999999999998,
        3.3399999999999999,
        3.3599999999999999,
        3.3799999999999999,
        3.3999999999999999,
        3.4199999999999999,
        3.4399999999999999,
        3.46,
        3.48,
        3.5,
        3.52,
        3.54,
        3.5600000000000001,
        3.5800000000000001,
        3.6000000000000001,
        3.6200000000000001,
        3.6400000000000001,
        3.6600000000000001,
        3.6800000000000002,
        3.7000000000000002,
        3.7200000000000002,
        3.7400000000000002,
        3.7599999999999998,
        3.7799999999999998,
        3.7999999999999998,
        3.8199999999999998,
        3.8399999999999999,
        3.8599999999999999,
        3.8799999999999999,
        3.8999999999999999,
        3.9199999999999999,
        3.9399999999999999,
        3.96,
        3.98,
        4.0,
        4.0199999999999996,
        4.04,
        4.0599999999999996,
        4.0800000000000001,
        4.0999999999999996,
        4.1200000000000001,
        4.1399999999999997,
        4.1600000000000001,
        4.1799999999999997,
        4.2000000000000002,
        4.2199999999999998,
        4.2400000000000002,
        4.2599999999999998,
        4.2800000000000002,
        4.2999999999999998,
        4.3200000000000003,
        4.3399999999999999,
        4.3600000000000003,
        4.3799999999999999,
        4.4000000000000004,
        4.4199999999999999,
        4.4400000000000004,
        4.46,
        4.4800000000000004,
        4.5,
        4.5199999999999996,
        4.54,
        4.5599999999999996,
        4.5800000000000001,
        4.5999999999999996,
        4.6200000000000001,
        4.6399999999999997,
        4.6600000000000001,
        4.6799999999999997,
        4.7000000000000002,
        4.7199999999999998,
        4.7400000000000002,
        4.7599999999999998,
        4.7800000000000002,
        4.7999999999999998,
        4.8200000000000003,
        4.8399999999999999,
        4.8600000000000003,
        4.8799999999999999,
        4.9000000000000004,
        4.9199999999999999,
        4.9400000000000004,
        4.96,
        4.9800000000000004,
        5.0,
        5.0199999999999996,
        5.04,
        5.0599999999999996,
        5.0800000000000001,
        5.0999999999999996,
        5.1200000000000001,
        5.1399999999999997,
        5.1600000000000001,
        5.1799999999999997,
        5.2000000000000002,
        5.2199999999999998,
        5.2400000000000002,
        5.2599999999999998,
        5.2800000000000002,
        5.2999999999999998,
        5.3200000000000003,
        5.3399999999999999,
        5.3600000000000003,
        5.3799999999999999,
        5.4000000000000004,
        5.4199999999999999,
        5.4400000000000004,
        5.46,
        5.4800000000000004,
        5.5,
        5.5199999999999996,
        5.54,
        5.5599999999999996,
        5.5800000000000001,
        5.5999999999999996,
        5.6200000000000001,
        5.6399999999999997,
        5.6600000000000001,
        5.6799999999999997,
        5.7000000000000002,
        5.7199999999999998,
        5.7400000000000002,
        5.7599999999999998,
        5.7800000000000002,
        5.7999999999999998,
        5.8200000000000003,
        5.8399999999999999,
        5.8600000000000003,
        5.8799999999999999,
        5.9000000000000004,
        5.9199999999999999,
        5.9400000000000004,
        5.96,
        5.9800000000000004,
        6.0,
        6.0199999999999996,
        6.04,
        6.0599999999999996,
        6.0800000000000001,
        6.0999999999999996,
        6.1200000000000001,
        6.1399999999999997,
        6.1600000000000001,
        6.1799999999999997,
        6.2000000000000002,
        6.2199999999999998,
        6.2400000000000002,
        6.2599999999999998,
        6.2800000000000002,
        6.2999999999999998,
        6.3200000000000003,
        6.3399999999999999,
        6.3600000000000003,
        6.3799999999999999,
        6.4000000000000004,
        6.4199999999999999,
        6.4400000000000004,
        6.46,
        6.4800000000000004,
        6.5,
        6.5199999999999996,
        6.54,
        6.5599999999999996,
        6.5800000000000001,
        6.5999999999999996,
        6.6200000000000001,
        6.6399999999999997,
        6.6600000000000001,
        6.6799999999999997,
        6.7000000000000002,
        6.7199999999999998,
        6.7400000000000002,
        6.7599999999999998,
        6.7800000000000002,
        6.7999999999999998,
        6.8200000000000003,
        6.8399999999999999,
        6.8600000000000003,
        6.8799999999999999,
        6.9000000000000004,
        6.9199999999999999,
        6.9400000000000004,
        6.96,
        6.9800000000000004,
        7.0,
        7.0199999999999996,
        7.04,
        7.0599999999999996,
        7.0800000000000001,
        7.0999999999999996,
        7.1200000000000001,
        7.1399999999999997,
        7.1600000000000001,
        7.1799999999999997,
        7.2000000000000002,
        7.2199999999999998,
        7.2400000000000002,
        7.2599999999999998,
        7.2800000000000002,
        7.2999999999999998,
        7.3200000000000003,
        7.3399999999999999,
        7.3600000000000003,
        7.3799999999999999,
        7.4000000000000004,
        7.4199999999999999,
        7.4400000000000004,
        7.46,
        7.4800000000000004,
        7.5,
        7.5199999999999996,
        7.54,
        7.5599999999999996,
        7.5800000000000001,
        7.5999999999999996,
        7.6200000000000001,
        7.6399999999999997,
        7.6600000000000001,
        7.6799999999999997,
        7.7000000000000002,
        7.7199999999999998,
        7.7400000000000002,
        7.7599999999999998,
        7.7800000000000002,
        7.7999999999999998,
        7.8200000000000003,
        7.8399999999999999,
        7.8600000000000003,
        7.8799999999999999,
        7.9000000000000004,
        7.9199999999999999,
        7.9400000000000004,
        7.96,
        7.9800000000000004,
        8.0,
        8.0199999999999996,
        8.0399999999999991,
        8.0600000000000005,
        8.0800000000000001,
        8.0999999999999996,
        8.1199999999999992,
        8.1400000000000006,
        8.1600000000000001,
        8.1799999999999997,
        8.1999999999999993,
        8.2200000000000006,
        8.2400000000000002,
        8.2599999999999998,
        8.2799999999999994,
        8.3000000000000007,
        8.3200000000000003,
        8.3399999999999999,
        8.3599999999999994,
        8.3800000000000008,
        8.4000000000000004,
        8.4199999999999999,
        8.4399999999999995,
        8.4600000000000009,
        8.4800000000000004,
        8.5,
        8.5199999999999996,
        8.5399999999999991,
        8.5600000000000005,
        8.5800000000000001,
        8.5999999999999996,
        8.6199999999999992,
        8.6400000000000006,
        8.6600000000000001,
        8.6799999999999997,
        8.6999999999999993,
        8.7200000000000006,
        8.7400000000000002,
        8.7599999999999998,
        8.7799999999999994,
        8.8000000000000007,
        8.8200000000000003,
        8.8399999999999999,
        8.8599999999999994,
        8.8800000000000008,
        8.9000000000000004,
        8.9199999999999999,
        8.9399999999999995,
        8.9600000000000009,
        8.9800000000000004,
        9.0,
        9.0199999999999996,
        9.0399999999999991,
        9.0600000000000005,
        9.0800000000000001,
        9.0999999999999996,
        9.1199999999999992,
        9.1400000000000006,
        9.1600000000000001,
        9.1799999999999997,
        9.1999999999999993,
        9.2200000000000006,
        9.2400000000000002,
        9.2599999999999998,
        9.2799999999999994,
        9.3000000000000007,
        9.3200000000000003,
        9.3399999999999999,
        9.3599999999999994,
        9.3800000000000008,
        9.4000000000000004,
        9.4199999999999999,
        9.4399999999999995,
        9.4600000000000009,
        9.4800000000000004,
        9.5,
        9.5199999999999996,
        9.5399999999999991,
        9.5600000000000005,
        9.5800000000000001,
        9.5999999999999996,
        9.6199999999999992,
        9.6400000000000006,
        9.6600000000000001,
        9.6799999999999997,
        9.6999999999999993,
        9.7200000000000006,
        9.7400000000000002,
        9.7599999999999998,
        9.7799999999999994,
        9.8000000000000007,
        9.8200000000000003,
        9.8399999999999999,
        9.8599999999999994,
        9.8800000000000008,
        9.9000000000000004,
        9.9199999999999999,
        9.9399999999999995,
        9.9600000000000009,
        9.9800000000000004,
        10.0,
        10.02,
        10.039999999999999,
        10.06,
        10.08,
        10.1,
        10.119999999999999,
        10.140000000000001,
        10.16,
        10.18,
        10.199999999999999,
        10.220000000000001,
        10.24,
        10.26,
        10.279999999999999,
        10.300000000000001,
        10.32,
        10.34,
        10.359999999999999,
        10.380000000000001,
        10.4,
        10.42,
        10.44,
        10.460000000000001,
        10.48,
        10.5,
        10.52,
        10.539999999999999,
        10.56,
        10.58,
        10.6,
        10.619999999999999,
        10.640000000000001,
        10.66,
        10.68,
        10.699999999999999,
        10.720000000000001,
        10.74,
        10.76,
        10.779999999999999,
        10.800000000000001,
        10.82,
        10.84,
        10.859999999999999,
        10.880000000000001,
        10.9,
        10.92,
        10.94,
        10.960000000000001,
        10.98,
        11.0,
        11.02
    ]
}