{
	"f0": [NaN,48.55691,45.78765736,55.78826823,55.46636057,58.8571881,44.3617411,55.13489482,54.93630871,59.76178945,60.02333697,60.22302769,60.40520339,60.32035374,60.29416536,60.37114721,60.24912744,59.92998001,59.87263319,59.77633886,59.67844789,59.4700868,59.64527543,59.80257981,59.76296361,60.08647464,60.22284151,60.17044379,60.02483243,59.87583398,59.89509086,59.95965873,59.93107451,59.81220047,59.85462776,59.92749563,59.79464986,59.6834738,59.68627334,59.65919814,59.67470857,59.78587918,59.74871495,59.60631943,59.67114516,59.79351723,59.79602499,59.71787758,59.72848941,59.72872058,59.68967446,59.72367118,59.60426199,59.68463635,59.64915102,59.44534569,59.5428605,59.56228691,59.43361259,59.31354183,59.4060371,59.38288709,59.35606313,59.35554407,59.17746479,59.01981911,59.02876419,58.69432046,58.94526817,59.40559576,59.87684852,60.13339045,60.24423461,60.32386525,60.2624748,60.48183756,60.72755384,61.09348947,61.76214141,61.93465469,62.18694974,61.80109901,61.52949139,61.68415874,61.88726691,61.81645549,61.68122248,61.1344865,60.772651,60.72550431,61.48320902,60.55481404,60.60972904,60.52231061,60.41719161,60.41702965,60.36355259,60.26686637,60.27749112,60.15633777,60.0926324,60.02014807,60.08711994,59.98783981,59.93197244,59.78517055,59.76512325,59.93397421,59.83270014,59.71855179,59.83258736,59.98924977,59.88554144,59.81903682,59.819421,59.68668807,59.53070597,59.8670902,60.30179536,60.2822919,60.01472592,59.64139829,59.48573577,57.66169865,57.34388658,56.01165637,55.3453986,54.67961537,53.69141043,53.69991543,53.8977729,59.96388411,60.2970456,57.88259221,36.53822747,41.60182825,53.6093952,54.9224708,53.7256106,53.50429368,53.5153851,53.50694174,62.4780494,59.41503216,59.18304269,58.59579631,55.24868124,53.96244946,53.98687069,55.60247088,56.09629105,50.28994404,64.19417098,59.35801322,59.5289462,55.47249821,59.40878637,61.72269136,60.69254169,60.49695865,60.49167423,60.4976287,60.46126322,60.4503092,60.42678348,60.34309447,60.20833656,59.77057023,59.4903355,59.47773566,59.56976712,59.57447047,59.55181191,59.54228666,59.48946613,59.56840434,59.70228703,59.60549463,59.49148689,59.79803137,59.9187849,59.73943829,59.67381463,59.89630085,59.96176792,59.91207569,59.68420325,59.67140623,59.77739582,59.77943243,59.72178061,59.90115792,60.04187524,59.76273913,49.83677829,49.18088959,41.61813919,59.83343484,59.6193308,59.23242156,58.42002457,40.4231511,59.76273913,59.36385972,59.50657535,59.80923717,59.97360756,59.98019484,59.94131128,60.21803024,60.59627257,60.92082085,61.53676699,61.61873215,61.58844417,62.16159348,61.95448443,61.65540377,61.73365481,61.84653197,61.46576419,61.39768355,61.56761395,60.62137826,60.37268703,60.40876189,60.4034558,60.3703813,60.28960173,59.89721966,59.94137903,60.04149349,59.97582547,59.81972376,59.75333214,59.8596051,59.79038202,59.76993141,59.72174415,59.72117256,59.80600613,59.83894862,59.80719455,59.553195,59.54579273,59.71191141,59.77876103,59.73299625,59.70763726,59.67675831,59.74056323,59.92991219,59.80008251,59.68225027,60.3539511,60.69653066,60.33040771,61.93311059,61.94626494,61.90658139,61.99045457,62.2953085,62.67084596,62.90807563,62.82837953,62.90284958,63.54904593,63.83346192,63.81539246,63.6089708,63.64756939,63.7282379,63.72036962,63.79094867,63.46464683,63.04926368,63.38537477,63.08669033,63.14399075,64.19354484,64.17685683,64.20107153,63.96892393,63.88760104,63.75737796,63.76862616,63.70365404,63.24747826,53.3108577,44.35785207,37.44772056,51.14854902,49.92711242,48.91732291,48.91854431,50.0171591,60.62137826,60.36494637,60.39136321,60.41152139,60.42676059,60.37228916,60.04788989,60.022568,60.06716099,60.03578612,59.95830512,59.88362444,59.89291953,59.91776721,59.84743599,59.40933436,59.36623034,58.7426691,57.89198426,57.70865693,57.70898095,57.66928878,57.68476805,57.675711,57.90028825,57.91080137,57.17399484,57.62310482,46.9392644,46.54970563,57.81886978,57.66169865,57.17612481,55.68716075,55.13489482,56.01165637,57.91080137,58.11399177,57.70789074,57.95368095,58.16354076,59.20667277,43.7448516,48.76871822,47.61387883,38.81435722,56.91181842,56.92979635,56.13810658,56.01165637,46.02332449,46.54970563,55.56772588,56.23796469,57.17399484,57.66169865,66.50528578,76.93035138,NaN,NaN],
	"ap0": [NaN,0.5804229364,0.7978461287,0.7102927729,0.7203460088,0.8271764899,0.7135821864,0.6525862755,0.5424809148,0.1190862346,0.04217009744,0.02593609636,0.0227625698,0.01178773962,0.007658420027,0.01566862689,0.05801452882,0.1810797964,0.1718308243,0.07914469267,0.06788215319,0.02388952678,0.01155335897,0.005995027803,0.01255859156,0.04777034515,0.04084251909,0.03093431621,0.03446993703,0.07759108417,0.09976888802,0.04738238695,0.03243649646,0.02947446859,0.02016237014,0.01853724893,0.02335708461,0.01890278931,0.01083605223,0.007606458316,0.01761055085,0.03090778874,0.03821003918,0.03183969368,0.01436663,0.007240530292,0.01122722069,0.01614807469,0.01537034919,0.0170017438,0.0145430769,0.01721322352,0.02727965405,0.01997798548,0.01306237943,0.01146705039,0.009385361592,0.007033971791,0.007934100961,0.01256161883,0.0192973486,0.01584108357,0.0132555023,0.03142008215,0.05995875658,0.07625489972,0.08398838367,0.02462904565,0.01298375147,0.01633010471,0.02723133083,0.02144929433,0.01640086156,0.01889567267,0.01371085696,0.01485111905,0.01663490773,0.05881097983,0.05511714889,0.0454773723,0.08462782691,0.1908644172,0.05019888806,0.0339054584,0.04220051609,0.1550431565,0.4236720313,0.1847882252,0.09095655146,0.1117923564,0.2319148111,0.07083303914,0.02743482831,0.01067953578,0.005851953082,0.005378683018,0.01026057538,0.0195256693,0.0251440317,0.02636529569,0.03558130351,0.112401114,0.05852732405,0.01941090595,0.01549226978,0.033584693,0.03669785795,0.02679317765,0.03742513886,0.05433501881,0.03748992479,0.02616017694,0.03121130762,0.02769891404,0.0383233469,0.1066918394,0.1234659846,0.09745739564,0.0677185359,0.06573343777,0.09924943082,0.1578032381,0.210437638,0.1728755881,0.3249821206,0.1475777904,0.1047641667,0.1163154994,0.1541950496,0.2193163139,0.2672466515,0.6066991102,0.3387349387,0.4217583714,0.3267966261,0.7680757061,0.3273262588,0.2246745262,0.1542155364,0.2531322106,0.582783331,0.5788681587,0.7645938755,0.7045913048,0.6647608436,0.5427538219,0.4753509106,0.2699305514,0.172227241,0.3434709112,0.5895965055,0.7008151949,0.8042869041,0.6660730683,0.560584463,0.591854411,0.7096247815,0.2998187758,0.1237092982,0.04649516716,0.01127465302,0.008141774541,0.006437943461,0.003582723604,0.005405863189,0.01426029171,0.03302157123,0.1442674028,0.05910763973,0.025391118,0.02145299693,0.04140632659,0.02446572668,0.0132405487,0.0133898598,0.01259733543,0.008774029366,0.01250579748,0.02099068642,0.02616734987,0.0240633018,0.02983049865,0.03842436516,0.02393487903,0.01259319279,0.01193335855,0.01158890221,0.008695060698,0.006158125643,0.004839963688,0.006399232341,0.02347810535,0.06445864973,0.5279022996,0.5779525032,0.4114082157,0.5178931889,0.1106126501,0.07512369292,0.1429155985,0.7974189844,0.4250074844,0.2561594074,0.2047447273,0.0821665307,0.04188555992,0.02146798443,0.04806538216,0.05837649126,0.04778386908,0.02163014708,0.02298818781,0.05399876072,0.03912084978,0.03468822227,0.104171644,0.09672143986,0.04117011379,0.03136802342,0.03770459179,0.07494262112,0.06206093149,0.05572153089,0.3475997731,0.1123711634,0.05040908641,0.0153949206,0.01893466449,0.03949477616,0.1601665914,0.1401755965,0.05986899654,0.05937365362,0.1691415242,0.1896026256,0.03891630433,0.01716131432,0.02321993988,0.04953700503,0.06267339486,0.05445599514,0.04382144821,0.05061564943,0.06262036802,0.02913359128,0.01189960503,0.01194729878,0.03480947696,0.02589435906,0.0172237199,0.01969151934,0.08274076821,0.1729048552,0.09480444338,0.05066616133,0.07607221879,0.1648731461,0.1318653556,0.06680647225,0.02928144294,0.02614172698,0.03777460176,0.07022907402,0.04744112083,0.01935643107,0.02610361952,0.0753440755,0.09056515661,0.04218860958,0.02729853867,0.01345676893,0.006752855715,0.0103425833,0.01445326065,0.04237694537,0.05174234524,0.2680594202,0.2544315668,0.2864577089,0.2981579267,0.07433504332,0.02933600885,0.03054974917,0.02706794957,0.02078525502,0.02260428756,0.04859910656,0.1041423609,0.58804205,0.7169209056,0.5581990499,0.5121233128,0.5579010656,0.5136201744,0.6404893298,0.7563216678,0.4107495964,0.07944815306,0.04409985465,0.01784879052,0.02136576882,0.04326034936,0.1623371437,0.06137816622,0.03422916626,0.03910334023,0.1894350954,0.07385817537,0.02149159804,0.01804208151,0.03126109606,0.07933974717,0.03618345972,0.06211510538,0.02645413633,0.01112408621,0.02441090248,0.02608182773,0.02722289559,0.07937123132,0.149169322,0.3864459062,0.5420537751,0.8241291118,0.5266039622,0.4840768003,0.3850577033,0.2237763082,0.164816646,0.1494107216,0.2565810937,0.5923967937,0.3175052175,0.04764241156,0.1096571553,0.1558111989,0.1765471364,0.8177967725,0.8174234836,0.3114805554,0.4595852093,0.3478028894,0.1835521073,0.2174099403,0.5020092246,0.6320140101,0.5130948335,0.6893923255,0.4412360798,0.3870408944,0.5899486769,0.405826052,1,1,NaN,NaN],
	"ap": [NaN,0.1554038522,0.4208672482,0.3893226127,0.4915178323,0.7547080813,0.3769830975,0.4275401665,0.7803842174,0.3983463153,0.3832794053,0.01481185474,0.005417058131,0.01017954068,0.005396892985,0.006460581535,0.002403106134,0.05482592321,0.1541803271,0.042048314,0.103601366,0.02731821436,0.0247374603,0.007356317483,0.002581772867,0.004805272794,0.06425289911,0.02488759574,0.0429406056,0.009147760658,0.0395287261,0.06839073473,0.04653944678,0.03446100349,0.02460959587,0.01913562233,0.01264254735,0.01003948677,0.008342033616,0.009871589301,0.001370958249,0.008492616958,0.01651428967,0.03119403046,0.02577782478,0.01914610196,0.002599233499,0.002429477519,0.003035106814,0.004900938436,0.007120586914,0.01342679464,0.008737194707,0.02199397722,0.002494073226,0.009707568471,0.001034827561,0.007177463569,0.00867958473,0.005388887094,0.006612794806,0.01287126575,0.006149979756,0.003840195537,0.01584391579,0.05747155608,0.01587525956,0.0502457493,0.08038402244,0.02049814903,0.02305794374,0.01473099927,0.03357898963,0.003128242151,0.01883183074,0.01099353363,0.01079278657,0.0212432567,0.04165261645,0.1689078736,0.01045676072,0.2111893938,0.3076353642,0.06958668994,0.03435133282,0.02607221339,0.1345881751,0.4397534087,0.536246551,0.02404908583,0.04750603709,0.07081173672,0.4454080488,0.004226694663,0.003217300392,0.002967224253,0.0004300613128,0.0156937745,0.007972178241,0.0545627338,0.007373505086,0.007590202065,0.01561668956,0.2185172395,0.02395069557,0.005522276001,0.02266547283,0.03105043829,0.01030988286,0.01950748064,0.07444770936,0.02346917366,0.008919333609,0.03722501374,0.02503852398,0.02854627816,0.01569501465,0.3034910123,0.02042336797,0.009132796807,0.03586004713,0.008225117256,0.03186091134,0.1050281371,0.07411496442,0.1212528825,0.3472102991,0.0214303628,0.1572511875,0.1223558146,0.08560906785,0.7473602008,0.3497974754,0.08294385569,0.08495074639,0.7467446695,0.1541190603,0.1000803788,0.1803250215,0.07409628866,0.09385691195,0.4184356249,0.6712680662,0.3358561666,0.5169099426,0.5927705902,0.5742615959,0.3574170586,0.1321532784,0.06496142579,0.2020737858,0.2146042727,0.4683374116,0.2925722186,0.3401783361,0.5085831548,0.315423165,0.5284772538,0.5968371476,0.2966319903,0.01999109569,0.004256903047,0.003083987517,0.001175419385,0.001613117661,0.00106723698,0.007381326471,0.02604499309,0.1994116141,0.01812296089,0.009750719959,0.004921966851,0.05075166676,0.03453899478,0.006839758282,0.01217974083,0.004413343062,0.005299244695,0.002108672215,0.01449432629,0.02240606951,0.01507202775,0.02337190292,0.01627922444,0.02129641853,0.006321959603,0.01417994718,0.00219139203,0.00256143448,0.005588225284,0.001816144726,0.0007593139114,0.01493194772,0.04553510676,0.2919117659,0.1198528243,0.2737520195,0.6845167145,0.1331016794,0.0834376494,0.06050349452,0.2262277848,0.2564165774,0.04455723028,0.0514477782,0.05658221235,0.01582953403,0.005245634212,0.009417255992,0.0306425415,0.05498267823,0.009152342932,0.03966805569,0.009131081522,0.05682793385,0.02417995863,0.0293939107,0.1192951548,0.01051812924,0.02007706439,0.07490836394,0.01723419425,0.01349342683,0.23089305,0.02621570961,0.2149521519,0.02015453974,0.007878599289,0.004041566571,0.04229193573,0.1260129697,0.3194103304,0.04826203352,0.0188051144,0.05820193451,0.1412929627,0.03917992107,0.003737030888,0.02773079326,0.03319678057,0.07654391093,0.04925730142,0.01819445538,0.0176063677,0.03272934864,0.03637755166,0.01056084364,0.001232043039,0.0101464215,0.02749141843,0.003745365688,0.01763343446,0.0123527898,0.1463518508,0.08740057351,0.01829996638,0.08714461876,0.02400390956,0.132820217,0.04090206872,0.01744084346,0.01184257285,0.01567035189,0.03009590998,0.07254251046,0.01291266714,0.02338186745,0.04784814981,0.09582709716,0.03280446422,0.01351376115,0.01129116297,0.001977776909,0.003180324644,0.01021638831,0.06832289186,0.03411007289,0.30680901,0.1696983909,0.1977153745,0.4139226965,0.138774506,0.02766115278,0.006146368963,0.01969694002,0.01554256917,0.002488860896,0.04028355697,0.2952590938,0.3469887441,0.2448114417,0.7412941304,0.1165924602,0.6151284868,0.2979471274,0.5099882566,0.4027954186,0.133277856,0.2864110121,0.01593735677,0.01024541549,0.005157693557,0.02253414715,0.2970244952,0.1102632476,0.02015213315,0.04216838712,0.09048853234,0.06967806489,0.01649142501,0.002511889481,0.02237315261,0.01788168323,0.04702422071,0.1119427861,0.0104398651,0.005932962291,0.008977890603,0.008795326808,0.01226984015,0.09103961736,0.04074984209,0.1819379103,0.8080561821,0.5600674026,0.384664333,0.8935421175,0.08038996619,0.2791051161,0.2434018538,0.02653121287,0.2709243356,0.2998640284,0.02763510237,0.0008325459358,0.144753785,0.3047023183,0.2402200748,0.2882155589,0.2939818292,0.2421879324,0.3206423137,0.1774339207,0.04033871378,0.2525935334,0.6365997122,0.3885676645,0.236249011,0.1970135229,0.3314754749,0.2276319505,0.4055212442,0.7593856984,1,NaN,NaN],
	"pwr": [NaN,2.346780185e-05,2.749089614e-06,1.142729068e-06,2.516975834e-06,2.953730689e-06,3.683242049e-05,2.530499873e-05,0.008557526452,0.009277988138,0.006323559943,0.06804551163,0.04327179737,0.0330698417,0.06099906697,0.07849002241,0.04539946942,0.02308921776,0.00276631232,0.002810761211,0.000880841021,0.001768853174,0.002580822626,0.01316876937,0.02699101724,0.03921263433,0.01479870163,0.02871707419,0.01667005839,0.01404391434,0.002291498806,0.00176855165,0.008359318059,0.01691234863,0.009021637644,0.007290590461,0.01046744852,0.007688371262,0.006588467428,0.01058136535,0.01124364688,0.007381053467,0.004713231642,0.003806984522,0.002315119371,0.005409556499,0.01067673,0.008962838112,0.005571275447,0.002880755979,0.00258189843,0.001951241242,0.001250945799,0.0004320063809,0.0003347389629,0.0006081456985,0.001024516759,0.001300694775,0.003970720416,0.005848646788,0.002675404592,0.001299371195,0.0005119833735,0.0003994801329,0.000338696795,0.0002098617149,0.0002618288606,0.0004266194635,0.002451229403,0.03052692841,0.05122549683,0.07616075083,0.126026036,0.2162089041,0.07440354019,0.08120855008,0.1649344988,0.2121299538,0.1806941554,0.03027324399,0.3462041512,0.03136093588,0.001847114174,0.0100735528,0.09676010932,0.08635138959,0.008255077348,0.001429245438,0.0004159819868,0.002182855471,0.004222754857,0.0006625682939,0.00370324957,0.1219781284,0.1117339642,0.1700860944,0.3184099706,0.1966206708,0.04764268851,0.01773511541,0.00653959397,0.003721996171,0.0009767352483,0.000655264988,0.01679404564,0.05246911418,0.0135934706,0.008071246828,0.01619085669,0.00412005011,0.001844049009,0.005738048128,0.007374522285,0.002564572513,0.001750029623,0.003445591497,0.001541165892,0.000388469604,0.004091158479,0.001665526428,0.0003531849432,0.00170731016,0.0003393506853,8.006759204e-05,0.0002047982266,0.000531274529,0.001411457139,0.01908952221,0.005499613721,0.001866354478,0.001290902667,0.001021425575,0.0003701951058,0.0002084452414,0.0001677513868,0.0002438528236,0.000158638488,0.0001159676645,1.331912738e-05,8.680402456e-05,4.133766623e-05,2.189292055e-05,7.639659946e-06,5.509265433e-06,6.090314969e-06,1.380259464e-05,3.05258821e-06,1.602348052e-05,1.805287639e-05,1.821055851e-05,8.599149574e-07,1.125088489e-06,2.094802503e-06,4.538036057e-06,1.392794637e-06,7.323854187e-07,1.581306501e-06,4.559926402e-06,4.099634786e-06,0.0003799286024,0.0108900316,0.02099139437,0.02807818312,0.04941396896,0.0574955267,0.05633712824,0.03287676539,0.008641034017,0.0005961369758,0.001270527439,0.006821734519,0.01189581083,0.00284321552,0.004625607486,0.01091198176,0.0083719509,0.006084407431,0.01188755487,0.00959887128,0.003401271754,0.002069674695,0.002628877585,0.001515771954,0.001100674118,0.002581667691,0.007288998827,0.005865389657,0.003201494881,0.004474901944,0.006993750071,0.01096654864,0.008050531742,0.006949838972,0.005605314599,0.001223991,0.001627624435,0.0005863092848,0.001461163999,0.0001639604211,0.002137279949,0.0005907287071,9.71470715e-05,0.0002811213978,9.167716491e-05,0.0001324059827,0.001930226464,0.04095770104,0.04245068642,0.0171612447,0.00181733841,0.005809584653,0.02547999089,0.07207184842,0.06265240287,0.06578052476,0.1858730897,0.01273860043,0.008625271502,0.0213224859,0.02635475857,0.00745428195,0.004005343636,0.00957022271,0.001502661575,0.00440728882,0.004339853258,0.1492372618,0.1353290099,0.0920756183,0.03620276777,0.00546230829,0.0008514969285,0.01797887881,0.0148141481,0.005568723095,0.003169785033,0.003577384064,0.01066505661,0.009684665677,0.004939843366,0.001879264005,0.001648008026,0.001851711256,0.001801107402,0.0008794882655,0.001901645127,0.009719494549,0.01132185792,0.003082669286,0.001267192838,0.002132549184,0.004040677233,0.004652535175,0.004595576901,0.001530090496,0.002078265971,0.0001153963502,0.0006207909169,0.002162175084,0.06359633086,0.04018086661,0.04218519855,0.03881060936,0.009766349185,0.002955345006,0.04082790679,0.1338751114,0.009617577669,0.003934153156,0.007611792354,0.01503284066,0.03950512477,0.04536608492,0.02034568098,0.01177002803,0.005121880387,0.00610442347,7.14118012e-05,0.0001088608474,0.000298438692,2.975777686e-05,1.398496447e-05,0.0001987913579,0.0004173458256,0.0002293178723,0.0006553165681,0.002126019236,0.001015614665,0.0001755905971,6.038617424e-05,0.0001581580774,0.001139951923,0.001023590853,6.386397932e-05,0.0003142649696,0.0002709444235,6.30330395e-05,0.000128321167,0.001088905401,0.2278576684,0.1737573344,0.1166830033,0.03183385767,0.005286062778,0.002280807668,0.03113253419,0.01208969381,0.00207289901,0.001763967871,0.007929378447,0.01028094188,0.005416367328,0.002021184249,0.004440401888,0.03326730913,0.02521413662,0.04632578658,0.06056829547,0.04656305389,0.0374245618,0.00518958898,0.01390344393,0.005873405565,0.01044575886,0.0005366778051,7.664895821e-05,0.0001494805351,0.000310953571,0.0007432191473,0.0002747874225,0.0003094786101,0.0004072333323,6.472078182e-05,0.0002323018272,0.0002522227271,5.6465703e-05,1.042356427e-05,6.755950947e-05,6.74322663e-06,1.062001758e-06,8.295519456e-07,3.421063489e-06,3.736054207e-06,9.285749723e-06,6.100893397e-06,9.483388661e-07,1.25717846e-07,3.079587902e-07,2.923196099e-07,9.707276293e-08,3.063905751e-07,2.405223703e-08,3.714203125e-10,0,NaN,NaN],
	"sr": 16000,
	"range": [1,113920],
	"minf0": 63.1883,
	"maxf0": 706.3069,
	"thresh": 0.1,
	"relflag": 1,
	"hop": 320,
	"bufsize": 10000,
	"wsize": 640,
	"lpf": 4000,
	"shift": 0,
	"plotthreshold": 0.2
}
