{
    "DU": 111,
    "DV": 209,
    "F-measure": 0.5938069216757742,
    "F-measure Chroma": 0.7795992714025501,
    "FN": 84,
    "FNC": 20,
    "FNCch": 50,
    "FNI": 64,
    "FNIch": 34,
    "FP": 7,
    "GU": 34,
    "GV": 286,
    "Overall Accuracy": 0.509375,
    "Overall Chroma Accuracy": 0.66875,
    "Precision": 0.690677966101695,
    "Precision Chroma": 0.9067796610169492,
    "Raw Chroma Accuracy": 0.8286713286713286,
    "Raw Pitch Accuracy": 0.5454545454545454,
    "Recall": 0.5207667731629393,
    "Recall Chroma": 0.6837060702875399,
    "TN": 27,
    "TO": 320,
    "TP": 202,
    "TPC": 136,
    "TPCch": 187,
    "TPI": 66,
    "TPIch": 15,
    "Voiced Chroma Accuracy": 0.6538461538461539,
    "Voiced Pitch Accuracy": 0.4755244755244755,
    "Voicing Accuracy": 0.715625,
    "Voicing Detection": 0.7062937062937062,
    "Voicing False Alarm": 0.20588235294117646
}