{
	"f0": [NaN,56.69965447,50.64214864,50.30309282,41.84788744,42.35407387,59.41068905,59.66463996,49.91882994,48.80933122,48.57984663,48.317505,48.29771164,48.41705484,48.54599531,48.58361301,48.86535195,49.73665334,50.31549102,50.72743391,51.13933718,51.26643234,51.30481007,51.46451778,51.58695748,51.59992318,52.19354484,52.59506429,53.69991543,54.3513413,54.75626788,55.16646036,55.51912409,55.80574331,56.09461224,56.30158294,56.53534446,56.77585889,57.01625893,57.0004438,56.72627989,56.61362512,56.89624992,46.9446811,59.35106906,58.9448103,58.67679159,58.71750268,59.06857184,59.25232648,59.2244886,58.72083624,58.05744211,58.02015409,57.78991024,57.31412435,56.97766943,56.85865179,56.76934811,56.86843527,56.83792104,56.55608046,56.49761466,56.46481753,56.28922189,56.31333751,56.30403368,56.32119125,56.3479676,56.30816194,56.34657874,56.26371639,56.13786698,55.9856151,55.79512586,55.63788924,55.78826823,56.00498273,55.64293927,55.68971689,55.9180376,55.84931195,55.42080513,55.69125201,56.91960709,48.88480957,48.78989618,48.7621879,48.73239066,48.69888719,48.74740778,48.66333631,48.59958856,48.57969542,48.52001615,48.58509817,49.99488296,50.27047359,49.15723046,48.14302837,47.73324918,47.86814694,48.12298658,49.3709473,53.88164759,53.63543573,53.93539507,54.57937368,54.83865873,55.45663525,55.92827354,56.06799636,56.30173275,56.85108269,56.91040891,56.92860283,56.9028612,56.71064303,56.8291989,56.73690564,56.71518783,56.61444184,56.52341825,56.46371284,71.13469344,61.93318605,54.00598116,53.60966204,53.3959101,53.39572856,53.41759767,53.50027723,72.91732291,54.24225701,54.32603627,54.26622511,54.32700688,54.17899214,54.13451418,54.14519925,54.06817158,53.91773366,54.28391325,56.46727057,55.92001826,55.4129186,54.50144361,54.50528578,54.77446973,71.08812324,72.91732291,55.13489482,57.11423516,56.93520015,56.58901676,56.24515775,46.68363685,53.49092341,53.87382328,40.56811373,50.83836936,50.82304019,50.84061315,50.98166246,51.08039159,51.16251709,51.28884775,51.12155277,50.46779466,49.81723236,49.22115987,49.27473667,49.19213374,49.12911102,49.13780898,49.28085952,49.6893505,49.84488004,49.92086954,50.1097875,50.35191908,50.06939095,49.9955755,49.91529126,49.77460371,49.61403714,49.61430679,49.96276764,49.96190162,49.92049947,49.92283359,50.014493,50.07310505,50.06940098,50.48624404,50.71793227,50.72663146,50.56020932,49.77074969,49.48511737,49.1939391,47.90292079,47.21309485,46.4312019,46.31137768,46.11442127,45.962191,57.90855965,57.96635997,57.91080137,47.90292079,46.9446811,46.42322349,46.1211124,46.06930983,46.20571342,46.29740575,46.33730086,46.3928405,46.46010747,46.38028337,46.37408804,46.82963712,47.09474196,47.01716998,46.75167911,46.68036542,46.83326213,46.8420796,46.71068955,46.67423323,46.42002457,47.34887861,46.54970563,47.18296127,47.76150499,47.62368344,46.79577925,46.74912209,59.11296507,57.15180323,71.17443124,71.16626002,46.85681397,46.94645376,47.06298313,48.79523469,75.66107665,75.56861767,75.10666721,69.86385564,70.11870614,70.37364536,61.54268398,61.83677829,53.51677307,70.49119291,70.11249623,69.5325482,72.66321885,71.76273913,60.0679103,60.86986631,73.45238563,70.16354076,69.98385071,63.57560014,56.99521185,56.90755162,46.9446811,58.20064407,53.61317088,58.66509663,68.23796469,49.01095027,48.368258,47.79026968,47.1004321,46.59652344,46.36130382,46.34044898,46.31656961,46.17819264,46.05306743,46.27858001,58.68036542,53.47490513,46.34051071,46.51106592,46.61831717,53.60990296,51.83657672,51.61683896,51.95443074,53.10162857,53.59226191,54.10751396,54.38300626,54.67105552,55.03532646,55.29357019,55.4196248,55.37278348,54.9556217,63.83657672,65.3108577,60.67221437,61.37293751,49.21150811,55.13489482,55.09432227,54.72636027,53.7259252,58.68036542,57.43669612,57.24032112,57.06055802,56.90955235,56.82076956,56.80347398,56.96321609,57.0209973,57.0947768,57.22029554,57.3610307,57.46815633,57.56459448,57.58600669,57.59509246,57.58128554,57.59542563,57.65781428,57.93471052,57.98392565,57.76935752,57.79518344,57.92036271,58.1010943,58.15336285,58.30841586,58.2313121,58.20979477,58.17180885,58.01395299,57.73560572,57.16931323,56.24091541,54.83447247,52.93035138,50.01799093,49.87863865,49.17633799,48.92367084,49.0414951,48.91945306,60.43198906,60.38023058,48.82354938,48.767325,48.89440026,49.10111447,49.12967506,49.16525107,49.46974581,50.61655511,51.54720132,52.16915725,52.58729228,52.24375652,52.19820092,54.48561086,68.36761338,58.42002457,52.8898965,52.67056946,52.70080633,52.75842378,52.86640934,53.1666603,53.11955917,52.37482755,52.61349092,53.05574243,53.303558,53.39612992,53.42725482,53.55897327,53.78674104,54.06774673,54.17243533,54.29487295,54.37147294,54.45348782,66.4366785,66.54384199,66.79520427,54.7388952,54.68997569,54.73348353,54.83067141,54.78084121,54.80242207,54.91055824,55.05515164,55.203787,55.27282014,55.31371892,55.37078296,56.16660342,56.87004484,56.93520015,55.2927455,55.43761594,55.47430066,55.50396315,55.37246338,58.1844371,58.42002457,59.09227369,58.89664507,58.38628979,38.54621786,37.29451301,56.23796469,54.61357714,47.28341673,46.93392676,46.78027055,48.55696822,65.69991543,63.83657672,66.9224708,47.7627259,47.53210329,46.99722617,46.46274916,46.25160364,46.25261512,46.12614924,58.9446811,58.9446811,57.91080137,47.90292079,46.68036542,46.98321577,47.29247908,47.87951827,48.50601545,48.46027696,48.56503958,48.75172159,48.80645831,48.81341057,48.82109932,48.79273311,48.71652473,48.67890212,48.7981294,48.57716931,60.1101664,60.33040771,47.90872771,47.84700389,71.67887425,72.54875379,72.79804791,73.23798621,49.6769022,49.84679357,49.97533996,49.91922935,69.53577329,49.75440466,49.57230686,49.41184849,49.33824126,49.34277295,49.68105418,49.9573621,49.68010446,63.32872694,61.56263829,61.83677829,62.4585863,62.80781824,62.87799151,51.08871065,51.27365141,51.75380252,52.18713767,51.54532252,51.62111102,51.72098434,63.45292342,62.80297889,50.74567951,50.89099271,50.32911454,50.18884589,50.54213355,50.17172,50.04321823,49.97150383,49.71763312,49.79082072,49.79081836,49.68010446,49.31685282,49.04250099,49.03279086,49.25053889,49.99488296,51.65866697,51.88731163,52.31148328,52.73116188,52.68776027,53.02402697,52.78755948,52.94793355,53.09893192,53.31128336,53.48253453,53.56113066,53.75404208,54.3077088,54.26730584,54.32194444,54.5886005,54.48207825,53.89240157,53.95947588,54.05435249,54.0318493,54.12422085,54.17124408,53.97613334,53.79543944,53.89555051,53.94753285,53.85349809,53.89527794,54.01670828,54.04294128,54.0714242,54.37040361,54.70656993,54.88473863,54.93053765,54.88309147,54.7422762,54.73866079,55.02113279,55.39226087,55.59801593,55.14192944,55.47397386,59.96733608,56.72404872,55.50669515,55.40386222,55.43848662,55.40942716,54.88515516,54.88992386,54.9224708,72.24571252,72.21505332,65.29963292,54.90547382,55.31024476,55.17732353,54.9224708,54.47572862,55.98761227,76.58536284,71.39390727,71.21705305,71.05271299,70.88945724,60.89234042,54.67117436,52.50559254,60.00990934,71.39709137,54.94883197,45.11976974,52.05131815,73.39417864,74.15444483,74.72841339,55.10013757,55.90030209,70.46467007,70.93065091,54.9224708,51.06707133,50.64214864,50.96163054,61.26300785,69.49564868,53.69991543,53.3567974,53.47724708,54.20149209,51.66081541,51.14399075,50.4780494,43.38164584,54.46778121,52.84406576,53.12717066,54.0979178,55.56772588,52.01414075,52.19354484,53.8977729,53.68204001,53.24795784,62.15444483,76.93035138,76.93035138,76.93035138,76.93035138,76.93035138,76.93035138,NaN,NaN],
	"ap0": [NaN,0.5375752063,0.6906956813,0.597320633,0.5701996104,0.4540975036,0.6162203994,0.5434447619,0.6289463502,0.2277004645,0.06067840766,0.05433547681,0.04269976963,0.04893547963,0.06872025555,0.1146538027,0.1911773635,0.2838490397,0.3714590408,0.3055340371,0.2404271722,0.1714698291,0.1033442303,0.09310782437,0.09938676857,0.2302662918,0.4594250006,0.2847062083,0.2545735805,0.07492668807,0.03453936465,0.02819666089,0.01760284938,0.02992224578,0.04159712084,0.05368441925,0.05470453196,0.03131345971,0.03128303811,0.03090160618,0.03436156922,0.05910043874,0.436658093,0.5448869558,0.4309148929,0.234327746,0.1122905489,0.08905733313,0.1131446842,0.09872219136,0.1147665346,0.1792744526,0.1638507022,0.08555109007,0.04978798074,0.02590636677,0.03183053303,0.06362102884,0.1048630732,0.1024653466,0.07078577064,0.02273815284,0.01644835943,0.01290167801,0.01213161894,0.008715169196,0.005669199091,0.006843678774,0.008152570868,0.005870594653,0.005616343846,0.005462439322,0.005029367631,0.01604478937,0.03109024054,0.07639084152,0.2941435975,0.2609853258,0.07600031959,0.03158332531,0.02355702738,0.05078756428,0.08375880384,0.3419615162,0.7224916642,0.2199555203,0.09784230747,0.03872848997,0.04491825007,0.05774219622,0.05671010376,0.03927084081,0.03589934215,0.04287417722,0.09461385627,0.2052248098,0.4951040424,0.4907210876,0.2922695364,0.2073772172,0.3403639857,0.4855297835,0.5533999158,0.743885912,0.2713365644,0.2134755637,0.2209001337,0.1019738841,0.125099944,0.1893098535,0.06572820401,0.05058008546,0.1156597121,0.2093655917,0.1913095339,0.154681853,0.0807801635,0.04396302194,0.0740011409,0.06263605233,0.07283021502,0.08694924444,0.1225128008,0.481606051,0.5884651311,0.9261566483,0.4218647744,0.2198398037,0.1498907465,0.1312760259,0.09149821002,0.1838345621,0.2894604081,0.1000448947,0.1065275544,0.1461893405,0.2364134939,0.08943137276,0.06165563398,0.0815139639,0.1169428284,0.1873034141,0.4122327662,0.3379138668,0.06145167344,0.05174552578,0.06159941165,0.2722599555,0.7650193043,0.5014080412,0.8095320444,0.532708123,0.3031368848,0.3222097497,0.4228680125,0.7292947436,0.4473226993,0.5144661116,0.6505605002,0.6012561225,0.2977401916,0.08185476018,0.06064817314,0.0733313281,0.08896710425,0.1391625057,0.3105025283,0.3326420669,0.2937922699,0.2974928944,0.1963481897,0.2664736122,0.1695971189,0.09001444017,0.07186997931,0.1114413398,0.1441524452,0.1058123137,0.09252316226,0.1728117305,0.2827582307,0.3844245167,0.1794990019,0.1133161486,0.07316317406,0.07153729362,0.0873655319,0.09543473729,0.102315067,0.08521944183,0.09907806444,0.1377956962,0.1442173898,0.2555881784,0.3865102289,0.1194585149,0.0774173205,0.09123085455,0.2064972556,0.273077093,0.241964428,0.2429734341,0.2412950464,0.2441406183,0.1855109098,0.114320248,0.08648392792,0.0331671573,0.06486429034,0.1903007658,0.728569803,0.2173852517,0.2295087715,0.2111143667,0.2159072705,0.1027272861,0.0639353556,0.03244701827,0.03021282796,0.04448536746,0.07216623011,0.1293518954,0.0702653837,0.04880704328,0.04562635613,0.07147294623,0.1393634058,0.1517998433,0.1423995085,0.24149301,0.5449898605,0.3791759516,0.2069398348,0.2083688537,0.1107013547,0.08630031697,0.2095413019,0.1047864444,0.1218702617,0.3150813012,0.7060897848,0.5080522293,0.8199130966,0.3740686093,0.3353697067,0.425594245,0.5483903387,0.4090764267,0.5676724608,0.8133268366,0.659367961,0.5096595797,0.407686852,0.4712423263,0.6871411689,0.6412392932,0.6278999997,0.6855345307,0.7527466053,0.7262698221,0.6336065406,0.5385604476,0.6829047846,0.324675319,0.4752273391,0.4300618558,0.7694641661,0.506140025,0.6130520044,0.6513231915,0.5054835037,0.6381927688,0.8723829863,0.4420662024,0.4380546858,0.3112024946,0.1577791984,0.2341369013,0.1573539602,0.152018088,0.08884064775,0.10201161,0.2581619569,0.4241185226,0.4933030748,0.5044500469,0.5794317481,0.2617543402,0.2356526807,0.3847028809,0.6312696792,0.4670128541,0.2395783281,0.1641772121,0.1019176141,0.1719134905,0.1587699357,0.1032018814,0.0774817314,0.08208295892,0.07333988684,0.06431488191,0.118171793,0.2706965296,0.5547085249,0.4449850423,0.76704996,0.6810433612,0.6460229164,0.5985766911,0.3827918853,0.3180932199,0.4828319069,0.2744920042,0.1287324245,0.07306523135,0.05675524928,0.07755787125,0.08926029149,0.1118106684,0.08372290417,0.08093038582,0.07001655134,0.04684905957,0.04381241987,0.03054915363,0.01975341993,0.02367408773,0.02029627087,0.02338316639,0.03047507348,0.03938639243,0.08868860413,0.1121451562,0.03359364633,0.02442609391,0.03381300626,0.03410324068,0.0599173446,0.06661868226,0.04862491029,0.02740837779,0.01990187046,0.02511064669,0.04841504443,0.09359662515,0.1544961427,0.2549504288,0.4093189668,0.4360976848,0.3070018317,0.2926921213,0.2253119399,0.2862747766,0.3219226242,0.2315749413,0.2324148761,0.1860032046,0.1567089842,0.1579537579,0.1124619259,0.1103889461,0.1361610241,0.1979171111,0.1767720334,0.1342823191,0.1493735071,0.1916439316,0.1591961576,0.2208603616,0.5138796883,0.2892803217,0.885414109,0.1344991577,0.06166845892,0.05137206864,0.04055737692,0.06650078409,0.1752322529,0.2185290605,0.09961843081,0.08991168266,0.03393321184,0.05576270189,0.05296225933,0.0251372333,0.0229959046,0.04032431067,0.06344940955,0.05539520756,0.05020036564,0.09156035051,0.1120613243,0.08290594558,0.06680442323,0.09720804425,0.02438057615,0.02045207274,0.01387001043,0.008261220179,0.01017908629,0.01143857274,0.01591104803,0.0122683314,0.004820832632,0.01024765855,0.03973196685,0.05461943007,0.07758007868,0.0691416857,0.391163275,0.1055243644,0.03776708731,0.03169735676,0.06071778792,0.2357319168,0.3238588026,0.29098046,0.3290700799,0.3482105727,0.239242111,0.433480526,0.6662557962,0.613439755,0.5862335085,0.4541604738,0.285944744,0.311659026,0.8516111569,0.6797345977,0.43524415,0.5398399044,0.4557861665,0.3140439494,0.1794478998,0.2571667452,0.1500046414,0.2044204932,0.3788711239,0.2955209562,0.2996618679,0.5329679245,0.8295716634,0.229427657,0.1149769509,0.1238360323,0.2462244737,0.2427477517,0.2157973199,0.1696049624,0.09244862007,0.05318190962,0.05907247668,0.09886742264,0.1704756588,0.2154192674,0.2093885059,0.1231769708,0.07622400653,0.1406408339,0.303606297,0.5359507092,0.5264886651,0.3691829961,0.2029199183,0.2388257271,0.3749383194,0.3061054298,0.3194204409,0.368307493,0.6560313228,0.7265522995,0.3803658158,0.5459367872,0.4486237104,0.1603702393,0.07840019777,0.1177647282,0.258729193,0.5289390766,0.5285150949,0.4822696938,0.6892971966,0.1709033675,0.147937045,0.1269507277,0.03615138701,0.06657948896,0.1278462683,0.08501335231,0.07753213895,0.06103290912,0.05949579335,0.08747351676,0.1361611042,0.05954722675,0.1257110413,0.3102518743,0.3053386592,0.1619782676,0.1742922254,0.1325460363,0.1128153823,0.08000771064,0.05340792722,0.05924608899,0.156752436,0.2904644339,0.2196563469,0.3887209236,0.1786401064,0.3432295263,0.1661720396,0.07787609468,0.1281255602,0.1687494615,0.1702821584,0.4402273519,0.2155869524,0.07205199478,0.02524525717,0.03353175134,0.03089533924,0.02938236497,0.04307419333,0.03431099516,0.03471135358,0.04481685916,0.05406757717,0.110658142,0.129473634,0.0368787367,0.01365613372,0.01108048218,0.02503989486,0.03395174266,0.06357448495,0.109839822,0.08511333025,0.05912470903,0.04702328264,0.02183577288,0.01078619813,0.01050434467,0.01763072915,0.03408071219,0.03216152644,0.03731750791,0.03843158584,0.01549011951,0.01288125937,0.01598935291,0.03301166041,0.0297913451,0.02740123453,0.1163554176,0.3741791011,0.4169249157,0.127624827,0.06812604147,0.03132403513,0.02925369556,0.08936738489,0.4033871674,0.2485384452,0.3417731946,0.5977452285,0.5665132757,0.6931652035,0.2226177323,0.1135493733,0.1015487898,0.1607092214,0.5238061575,0.7966594901,0.6164939923,0.5397711844,0.5640598042,0.5995675988,0.6749726235,0.7465987277,0.6296777681,0.6846226608,0.7152096107,0.6543980361,0.6029615844,0.7656534951,0.7893898955,0.6307586755,0.4183026784,0.7867210007,0.6262229304,0.7554157237,0.6618753865,0.8448053115,0.5564730698,0.689036363,0.4718968092,0.5537900996,0.7450067235,0.7668071239,0.5007368618,0.3051319336,0.336770136,0.7149720032,0.6952611111,0.4004701646,0.3120086748,0.8716395295,0.5854277201,0.4790072235,0.605922757,0.7504551536,0.6123716531,0.3398202211,0.3805254548,0.6775800958,0.6316050011,0.4898124821,1,1,1,1,1,1,1,NaN,NaN],
	"ap": [NaN,0.2044111422,0.637934615,0.2918828791,0.4042676923,0.3102623232,0.3846923737,0.1830256674,0.4018483096,0.4385155453,0.06339941655,0.02012848539,0.02519019809,0.02745922025,0.01889350588,0.02546814121,0.1043488792,0.1024233753,0.09053334485,0.2891981538,0.2119360945,0.1563798766,0.08060586513,0.03161557728,0.04998800282,0.03367300717,0.07717193039,0.346756006,0.2245133608,0.1300054678,0.1461126024,0.01866908107,0.01795201212,0.01125096574,0.01872079864,0.01024426785,0.04241299842,0.02895814477,0.009639926483,0.006918833076,0.01221400071,0.005498125158,0.08260383821,0.3689345072,0.2657747339,0.3584629282,0.2046839704,0.03103234546,0.1748931408,0.08314379911,0.0732427994,0.08624271058,0.08829980254,0.1007162139,0.03635845022,0.04402579259,0.005528675274,0.01240936269,0.03912048209,0.04775609083,0.08034762975,0.02144124929,0.00847230098,0.006533555861,0.008319141492,0.003860791414,0.004932137164,0.002409801,0.002832171904,0.003471309343,0.001018301131,0.001546365269,0.002268655596,0.003882964186,0.007974919879,0.01002089877,0.06201300587,0.1328788289,0.1550161534,0.1875090714,0.01867584683,0.01822190023,0.001958289497,0.03509648601,0.2521599528,0.6403969225,0.3209321526,0.03305981582,0.01822977524,0.02616630433,0.03596931797,0.02772749701,0.02806307011,0.02281902314,0.01592464487,0.02216637228,0.2252371911,0.3605204995,0.6712163829,0.1544350485,0.06538969399,0.156339346,0.1814432372,0.3390653233,0.6402369374,0.3882304237,0.1071766345,0.1873368,0.08642621657,0.08160309588,0.2669835633,0.07686627245,0.01225172892,0.07276802442,0.1011090259,0.1011757337,0.03392465241,0.02428523204,0.03161696094,0.06509930352,0.0404388005,0.03733774318,0.1061741027,0.02248222704,0.9205276645,0.582903685,0.6520598165,0.5030319057,0.1452883281,0.06545232206,0.06677232154,0.07152520067,0.164901109,0.1457890257,0.02272902641,0.05715045722,0.1000065027,0.05777502017,0.0856794409,0.01866248138,0.05037808371,0.06017202721,0.1079352294,0.3811648098,0.5144998,0.1338374245,0.02760163012,0.02406742029,0.2346070279,0.2066608643,0.4531379297,0.2868090664,0.1542339987,0.3039813933,0.03069415843,0.4125880586,0.5031393884,0.1908358266,0.2352896975,0.4345180246,0.3512347753,0.1535471907,0.02571687005,0.01645953353,0.05426873533,0.06602642447,0.0401095868,0.1896922524,0.2511708589,0.1636729605,0.253131846,0.05228100884,0.1500025607,0.1553998229,0.03704090869,0.01920461206,0.1831459361,0.0608846616,0.08638693858,0.03218671689,0.1519607332,0.2658132584,0.2693042542,0.05589360622,0.178009788,0.05298167409,0.03562480532,0.05088790671,0.05730655824,0.03978379072,0.040394409,0.09908047102,0.050673709,0.08913085699,0.1144910142,0.295084511,0.1165156455,0.04011679606,0.07655814057,0.1101836168,0.2135563632,0.2630160109,0.1418556894,0.1404149157,0.1336435921,0.1174394864,0.03723489351,0.04543437547,0.01588222852,0.00540284832,0.5002804958,0.4391870552,0.1843023403,0.07022362042,0.1137303328,0.05717560091,0.05913543588,0.03785928343,0.01770360368,0.01564356545,0.01344088233,0.03809317405,0.155100123,0.01517779774,0.02426129972,0.05650309021,0.01898696919,0.06622292826,0.1647711682,0.05183575738,0.181845333,0.3591064542,0.144341753,0.1484854874,0.2385815998,0.007866325092,0.03314456355,0.1003254546,0.01600223379,0.01348429555,0.1159766396,0.4765296313,0.2774961093,0.3876538082,0.4068948717,0.1162901068,0.3560280693,0.1665514522,0.44031045,0.3838868632,0.4903883043,0.5307738347,0.1575607203,0.2761403547,0.3813429532,0.3696609535,0.6847708894,0.2264255325,0.3689306764,0.3944874479,0.4276501006,0.5958600522,0.4871738657,0.0681137774,0.3736842221,1,0.5472512511,0.6537398306,0.6398112064,0.5468728636,0.4580000586,0.3460295114,0.1759952291,0.534613821,0.4755352962,0.23572362,0.3185984082,0.07329192205,0.1421456148,0.1106407243,0.05822574091,0.04886310401,0.05151515075,0.1361418613,0.2772243608,0.1817715128,0.7911253925,0.6718221339,0.04000253715,0.1128851435,0.3657744351,0.4457345249,0.3459192313,0.05111551414,0.2437749972,0.1112260406,0.1208223022,0.09383884598,0.0786708941,0.0351974157,0.03623211787,0.0563439343,0.03518612462,0.07675374177,0.07978510665,0.07561265438,0.5543879928,0.07895761043,0.3454528028,0.4291450591,0.3873535952,0.3331092721,0.4233460905,0.8395091305,0.5874545385,0.2372680696,0.03083482143,0.04581298895,0.0300030622,0.02549766953,0.03072374384,0.06276318958,0.02169587075,0.1101928357,0.01687235513,0.0239725014,0.01344598698,0.0116313882,0.006776653486,0.01041968886,0.004006561363,0.00599738176,0.03903258368,0.05004510184,0.1358840622,0.03671539951,0.01290561442,0.02155899276,0.01352728485,0.02461401281,0.06390745909,0.03636874372,0.01412358315,0.003934128272,0.03998108523,0.06666974136,0.1082216894,0.07804754011,0.2337728689,0.4063930714,0.3887461991,0.2885384659,0.2633364586,0.1001818368,0.1650517694,0.5632256687,0.07720290738,0.103155341,0.1961196144,0.08515266762,0.1076898787,0.05408099439,0.05405110226,0.05337898517,0.3164458747,0.2041958075,0.03603971575,0.05530611535,0.03370777697,0.04886967586,0.606484207,0.312333384,0.2080808669,0.3370883135,0.07664314081,0.03980142496,0.05790258444,0.008921963847,0.02448045329,0.1515854312,0.1063311933,0.05712864144,0.07368809464,0.01524788122,0.01997787884,0.05079567524,0.008736169296,0.01931645584,0.01822981445,0.03651204035,0.02507497889,0.02823493123,0.03856632177,0.2525552918,0.1104505979,0.03185783028,0.001057632,0.02585937049,0.006990975746,0.006739265056,0.001646563097,0.004818258032,0.007755154105,0.01074895993,0.002758227393,0.003666940608,0.0009808369039,0.01033274308,0.06030557745,0.06153831407,0.1030311073,0.4066154715,0.05128526946,0.02904172509,0.01064515218,0.07800222908,0.5439056258,0.1640549737,0.1020903139,0.1837189272,0.5576466841,0.4013557733,0.2479446706,0.176632174,0.1645358008,0.638727777,0.2158582144,0.232948442,0.5864638583,0.4077409147,0.7182222262,0.347017345,0.3835999777,0.5616806143,0.1769522866,0.09686781812,0.2272232415,0.02900260049,0.1425200601,0.1368121046,0.04085477523,0.2796714505,0.4908523764,0.4018163269,0.06317617005,0.05652854344,0.05398224548,0.2117196554,0.2294671341,0.04045022885,0.1197138291,0.06485361028,0.02020827997,0.02621879509,0.01576437778,0.1031154435,0.03005224916,0.1313774606,0.06531267138,0.07822465384,0.0691284053,0.1169224256,0.151380142,0.1009556459,0.5239001633,0.05148015705,0.0969370269,0.2507641261,0.178755575,0.2646232664,0.2635178805,0.5176944792,0.2602796746,0.2274740159,0.09025582008,0.2343081401,0.1254283188,0.02114240999,0.01989959553,0.2562969248,0.6323084971,0.2406809573,0.1068756033,0.07139154007,0.6414585639,0.08246342536,0.02434563199,0.00769165727,0.05929083505,0.01716401994,0.1683618773,0.05176316158,0.0129359713,0.06981889126,0.05075407249,0.05417905072,0.01880475225,0.1774618703,0.5769974096,0.2061896246,0.1177611205,0.04801361857,0.1327560985,0.05718223348,0.04333059542,0.02729541894,0.02585637669,0.1120072735,0.07549655831,0.2401887131,0.5985714137,0.1389752258,0.5172375559,0.07047902824,0.02658072669,0.1009391942,0.04209451181,0.1855210231,0.1811275989,0.1597567223,0.0988914108,0.008326259667,0.01052286291,0.03022400758,0.01845872338,0.04073311982,0.00736462582,0.0179413717,0.01366717801,0.07301270397,0.1009487943,0.04385873531,0.0397398765,0.00196432299,0.007971618196,0.02045139107,0.02900595333,0.06173308004,0.06966169932,0.02636343538,0.08379758442,0.02234329517,0.01871567784,0.003306506673,0.004530384586,0.007193718119,0.004564721428,0.01149011204,0.004050559691,0.02053747453,0.003062150897,0.007533746167,0.01118257529,0.04226036237,0.007143651878,0.03495626301,0.1402785505,0.9036513661,0.6895133103,0.171818766,0.08103705107,0.01741836746,0.002629485125,0.08506560153,0.1682307368,0.2672428626,0.5971482946,0.02841040886,0.5421323314,0.4246828349,0.1906212707,0.03558313712,0.0403048849,0.08988081979,0.2782535269,0.3706212968,0.3845399276,0.5155219051,0.314489174,0.4281779266,0.3654798777,0.5125477477,0.2265651605,0.749591977,0.2346627427,0.5559123393,0.5358516815,0.4414775469,0.5496227318,0.3004865813,0.08592822738,0.4180937929,0.4511607453,0.4404750454,0.1144390615,0.5724558762,0.4649043625,0.2629346168,0.1751474922,0.1653721086,0.9431718093,0.5487395878,0.1048507664,0.1094524132,0.1253054638,0.6277157855,0.3367431857,0.02321391431,0.3781463501,0.4262871989,0.4443190106,0.2130674226,0.317621244,0.5000002865,0.655339909,0.3159157481,0.3475580209,0.5483452502,0.2135777899,0.5888893594,1,1,1,1,1,1,NaN,NaN],
	"pwr": [NaN,3.704650177e-07,5.625493248e-07,5.833692905e-07,1.310697681e-06,5.307193748e-06,4.762913614e-06,4.723337794e-06,1.498320104e-05,0.0001500177417,0.007461440439,0.011880989,0.02351332206,0.03994169583,0.02739006458,0.02826133632,0.02146614763,0.008449548569,0.01042262261,0.02328055289,0.0112934382,0.01829103676,0.0248274168,0.02219025066,0.01091954725,0.009972488201,0.008628862803,0.00306668362,0.00845017196,0.009670765754,0.01507332823,0.04784860698,0.03835037704,0.06200673139,0.1272747539,0.05881571226,0.02044656722,0.01365423018,0.03115104697,0.04324452503,0.03132883021,0.06337127052,0.01048919484,0.0004368032517,0.0005980319246,0.0005135099583,0.006156429173,0.05728793307,0.1118379698,0.04343441944,0.0605521989,0.07531143112,0.01274131981,0.007060763419,0.04861018927,0.1207466596,0.06202083472,0.0670680578,0.02571208452,0.0155624783,0.005075037111,0.00870095095,0.01078480266,0.01231324867,0.008221872082,0.01536124501,0.03166188299,0.05353497155,0.05397871486,0.06974909971,0.04039974349,0.04206170427,0.04640501556,0.05000901313,0.04831596408,0.0346371364,0.01196291947,0.001977195122,0.001095554134,0.0006644393792,0.01390084426,0.009616779436,0.004754894181,0.005466796317,0.0002478978044,0.0002339845522,0.0009604977111,0.03938258463,0.02830294231,0.02352702452,0.02153504384,0.02095645088,0.01927701082,0.02154628643,0.01906800804,0.009465084089,0.003311397415,0.0006680777508,0.0003480332267,0.0002390840591,0.0006186915067,0.0005387008098,0.0003856793892,0.0003662312865,0.001076613148,0.003859634177,0.1013300146,0.04922733875,0.05972188536,0.106038668,0.02530731161,0.07105650233,0.1459374836,0.02567164599,0.02878922734,0.08287755004,0.07362614969,0.0678219411,0.04514621016,0.003804842274,0.01642131238,0.01642899149,0.002430912401,0.003216281837,0.000496052704,0.0006189861608,0.002375526256,0.02753317496,0.06069870833,0.02898876528,0.02395002272,0.05467873834,0.0376777997,0.09093012976,0.01770526581,0.01420157472,0.007705555978,0.002472959283,0.005537576692,0.02362561319,0.01866967208,0.008212428957,0.008443336457,0.0009996847413,0.0005535788324,0.003171755499,0.01529950546,0.006646657487,0.001482972052,0.0004744709366,0.0004158344537,8.826776204e-05,0.0001391729444,6.482564072e-05,0.0001087039536,4.619357963e-05,1.961445612e-05,4.631611155e-05,3.356678319e-05,0.0002143960925,0.005259040123,0.04799730833,0.08599438916,0.09391364508,0.07238435407,0.07373363291,0.02017988804,0.009076506251,0.01405793536,0.01865743555,0.01068716387,0.02087298435,0.01663828264,0.02971525791,0.08089060866,0.06286254311,0.02991312835,0.03705995954,0.0279819745,0.04852533731,0.01515818798,0.008168602947,0.002330053803,0.01330104514,0.02108882965,0.02911910335,0.0227878573,0.0249210219,0.02908304492,0.01710762241,0.0109865867,0.01179111947,0.008706342217,0.00662973903,0.006668369617,0.00422724751,0.01017811218,0.02748430994,0.01190133871,0.004116575401,0.003551034482,0.005441673244,0.01859583162,0.01422376846,0.008314619505,0.004498191506,0.003713069478,0.00318584384,0.00264937806,0.008257201257,0.005237021237,0.0007076205587,0.001934126803,0.000866713505,0.0008191246071,0.0003959535705,0.0002498216014,0.0006278136336,0.001596109299,0.002039631053,0.00116851609,0.00126439405,0.0007317810087,0.0007436938637,0.0009926204465,0.001514526393,0.002326094018,0.001233055466,0.0005126646504,0.0006350431202,6.44850182e-05,1.755688312e-05,3.426537416e-06,6.052563002e-06,1.122958556e-05,0.0001593749627,0.0002639039345,2.774950191e-05,2.712254918e-05,2.725424364e-05,3.17343675e-06,8.589450955e-07,1.621385401e-06,9.710045766e-07,1.793390248e-06,1.297087504e-05,9.535384005e-06,5.399892935e-06,1.025736431e-05,6.424814303e-06,7.855267217e-06,3.163202411e-06,3.570328682e-06,1.491929143e-06,4.546758084e-06,2.653664997e-06,3.36706747e-06,8.248901995e-06,2.098723598e-06,2.458200492e-05,5.369756236e-06,9.337207771e-07,2.577640654e-07,9.210367411e-08,3.245933091e-09,0,7.759348743e-09,9.188034048e-07,2.38833481e-06,1.084889339e-05,4.836772879e-06,4.363874926e-06,1.11039581e-06,6.42826413e-06,9.353700865e-05,0.003934433465,0.03289069787,0.02758103605,0.01126678703,0.01274256931,0.01046888441,0.027209917,0.04068673682,0.01039153163,0.009138596996,0.01493517533,0.004389349822,0.0007782860177,0.001964650494,0.003130329301,0.004188166765,0.008694247327,0.005053306711,0.04236420191,0.01777505062,0.01823028167,0.05691398875,0.03462551025,0.0778667157,0.1330767585,0.2156131338,0.07400085124,0.0911493517,0.1227174236,0.03677024648,0.0322020695,0.002362374708,0.001870450911,0.004709344518,0.008790879608,0.002258972726,0.004464778488,0.005467984646,0.0006849072022,0.001582585784,0.02640795659,0.1862231655,0.08101858304,0.05712350868,0.03104701642,0.01142929416,0.009243319594,0.01656721608,0.008207387294,0.03709729446,0.04478993963,0.09008080396,0.07726521058,0.1518508175,0.06569922184,0.08412769975,0.1186780474,0.08482061515,0.01730177616,0.01203102459,0.02362135533,0.1275511641,0.05427842105,0.03093377442,0.0233040404,0.005595262911,0.007871295557,0.02087489855,0.05308218204,0.0474089306,0.12678837,0.1218485618,0.05484617458,0.00767688194,0.004973089615,0.003694968104,0.02432427351,0.03864875286,0.09695670823,0.05887638601,0.05327765493,0.04102913679,0.009870683005,0.0122147071,0.01269602029,0.02306641797,0.0210317736,0.02116633878,0.0189496868,0.02489213342,0.007121649729,0.01326986721,0.01957494358,0.02080035477,0.01496802016,0.02545490575,0.007749493432,0.00100854017,0.0004856871142,0.002439937983,0.008163835907,0.008384030262,0.00978421539,0.010817511,0.005108742325,0.001649091267,0.002680785576,0.002155693588,0.001218904808,0.0007677423897,0.001585138058,0.02718694138,0.03677056781,0.02494532538,0.009044388006,0.02521401434,0.01537957102,0.004595668697,0.0005659832896,0.004363632,0.01305567728,0.01101279143,0.008950793012,0.01716534966,0.01928184024,0.02294701196,0.02896154097,0.03637776354,0.03254451634,0.02857574238,0.033853627,0.02964606487,0.01896087366,0.01422897539,0.006322637454,0.01102829572,0.0001613458656,0.0002568371372,0.003462495329,0.01229796831,0.002126709011,0.0002795787942,0.0001702070525,0.0002867636621,0.0002033393111,1.866599336e-05,6.731736613e-05,0.0003094507262,0.000484739912,0.0003702463563,1.468062007e-06,1.287520009e-05,3.194268362e-05,3.706390879e-05,6.072065761e-06,9.188193315e-06,0.0001212220963,0.00296962415,0.0220217355,0.0485240017,0.02454862572,0.0148482668,0.03196772582,0.03333170624,0.006805378729,0.002864014592,0.001556044866,0.003125691313,0.001076708766,0.001849284504,0.003125254264,0.002063646405,0.002298875264,0.001859252596,0.01261172123,0.006054697441,0.02204012784,0.02312371816,0.01094879404,0.01043985336,0.01093729295,0.006425366704,0.002857915494,0.003724353735,0.005946187428,0.006880204228,0.004421234284,0.00166092508,0.003457461204,0.002850112334,0.04185283196,0.1205892366,0.03259903873,0.03326566978,0.02139567183,0.01036643763,0.001396658246,0.0003810330922,0.0003405313569,0.003251700184,0.004066777921,0.006607047907,0.01052302008,0.003992478763,0.0006592249469,0.0003105242743,8.855601534e-05,0.0002945267818,0.000205965025,0.001715326365,0.03713928436,0.02724425406,0.06079578624,0.02616846326,0.006005836736,0.003703932972,0.006465077121,0.01658651471,0.0375593602,0.02012199201,0.01599642941,0.03326164671,0.01204249574,0.0001393143207,0.0002554840453,0.0007988609716,0.009861652869,0.005834062789,0.01337747059,0.01611516838,0.0173480761,0.01627433322,0.004131076868,0.002943076153,0.0008193136577,0.001048538744,0.001548140288,0.004381537861,0.003567382688,0.008763915373,0.01457953411,0.004025490817,0.003196708342,0.0003659891744,0.0004429012344,0.003313531726,0.007268712607,0.006986536408,0.005003430282,0.01209209772,0.0150253276,0.008260161889,0.01182033801,0.01648199455,0.0074082629,0.001615873099,0.001929248034,0.005043828658,0.03196033724,0.02699660885,0.01600422555,0.01300423305,0.002720645263,0.0009877246664,0.0009885139014,0.001011827479,0.001101146667,0.003297727434,0.00705096302,0.01007116792,0.005992952521,0.004422978224,0.005744000665,0.009179170007,0.008538315013,0.005720245872,0.009306902017,0.00981910142,0.006055542052,0.01703849257,0.01165581088,0.0005183278359,2.587689032e-06,3.771509655e-06,7.650370967e-06,0.0001043440811,0.001079047085,0.001577931481,0.0007216501934,1.912645004e-05,6.169624479e-06,5.416765374e-07,5.628245285e-07,2.132728449e-07,1.913487771e-07,7.098238198e-07,7.404161512e-06,7.784887779e-06,6.365304455e-06,1.807923556e-06,1.034246631e-06,1.743822786e-07,5.01398774e-07,1.902838538e-06,1.351021267e-06,1.090057056e-06,5.9747899e-06,3.140390505e-06,1.584138732e-06,6.793254966e-06,9.721843356e-07,3.247900932e-06,1.704569789e-06,3.210350367e-06,2.741720959e-06,4.176793145e-06,1.015736864e-06,1.248723135e-06,7.790570916e-07,2.202252805e-07,4.551640326e-07,4.804044907e-07,2.426638578e-07,1.746783634e-07,6.95007718e-08,3.19265333e-08,7.357316049e-09,1.164340306e-08,3.457412621e-08,1.896182115e-08,1.008403629e-08,5.026402719e-09,1.27562638e-08,1.115260997e-09,3.351034255e-10,3.477990241e-10,6.369566553e-10,4.568624548e-10,9.136392346e-11,9.601263656e-11,2.655724529e-10,7.48670949e-10,5.024240205e-10,2.122207542e-10,1.832463399e-11,0,0,0,0,0,0,NaN,NaN],
	"sr": 16000,
	"range": [1,200960],
	"minf0": 63.1883,
	"maxf0": 706.3069,
	"thresh": 0.1,
	"relflag": 1,
	"hop": 320,
	"bufsize": 10000,
	"wsize": 640,
	"lpf": 4000,
	"shift": 0,
	"plotthreshold": 0.2
}
