{
    "DU": 204,
    "DV": 215,
    "F-measure": 0.6114285714285714,
    "F-measure Chroma": 0.7314285714285714,
    "FN": 76,
    "FNC": 34,
    "FNCch": 51,
    "FNI": 42,
    "FNIch": 25,
    "FP": 62,
    "GU": 190,
    "GV": 229,
    "Overall Accuracy": 0.5107398568019093,
    "Overall Chroma Accuracy": 0.6109785202863962,
    "Precision": 0.6239067055393586,
    "Precision Chroma": 0.7463556851311953,
    "Raw Chroma Accuracy": 0.7816593886462883,
    "Raw Pitch Accuracy": 0.5240174672489083,
    "Recall": 0.5994397759103641,
    "Recall Chroma": 0.7170868347338936,
    "TN": 128,
    "TO": 419,
    "TP": 153,
    "TPC": 86,
    "TPCch": 128,
    "TPI": 67,
    "TPIch": 25,
    "Voiced Chroma Accuracy": 0.5589519650655022,
    "Voiced Pitch Accuracy": 0.37554585152838427,
    "Voicing Accuracy": 0.6706443914081146,
    "Voicing Detection": 0.6681222707423581,
    "Voicing False Alarm": 0.3263157894736842
}