{
    "DU": 123,
    "DV": 381,
    "F-measure": 0.6090808416389811,
    "F-measure Chroma": 0.8682170542635659,
    "FN": 73,
    "FNC": 35,
    "FNCch": 66,
    "FNI": 38,
    "FNIch": 7,
    "FP": 32,
    "GU": 82,
    "GV": 422,
    "Overall Accuracy": 0.5456349206349206,
    "Overall Chroma Accuracy": 0.7777777777777778,
    "Precision": 0.6380510440835266,
    "Precision Chroma": 0.9095127610208816,
    "Raw Chroma Accuracy": 0.966824644549763,
    "Raw Pitch Accuracy": 0.6161137440758294,
    "Recall": 0.5826271186440678,
    "Recall Chroma": 0.8305084745762712,
    "TN": 50,
    "TO": 504,
    "TP": 349,
    "TPC": 225,
    "TPCch": 342,
    "TPI": 124,
    "TPIch": 7,
    "Voiced Chroma Accuracy": 0.8104265402843602,
    "Voiced Pitch Accuracy": 0.533175355450237,
    "Voicing Accuracy": 0.7916666666666666,
    "Voicing Detection": 0.8270142180094787,
    "Voicing False Alarm": 0.3902439024390244
}