{
	"f0": [NaN,37.12381471,77.2037566,75.26190954,55.13489482,55.10849769,54.26337138,40.01414075,52.85064572,52.01414075,52.19354484,53.69991543,59.21309485,59.33483707,59.68958865,59.93839269,59.89624103,60.04084362,60.19415163,60.3467899,60.45550052,60.61101672,60.489204,60.27970363,60.32837067,60.62137826,59.76273913,57.41612942,57.91080137,75.23043769,75.70861123,59.74166594,59.81105498,59.79577642,59.49875829,59.63006665,59.76294596,59.54040323,59.43406711,59.20736961,58.99976967,58.37350219,57.73230148,57.52475782,57.15622824,56.78938153,56.7099368,57.18430019,57.56244964,57.73535193,57.86673707,58.15996285,58.17277882,58.07429946,58.05766107,57.98364042,57.94395613,57.90877537,57.91354768,57.89095775,57.81109844,57.74857011,57.72694468,57.76592419,57.8903801,58.05813032,58.04333276,57.97707765,57.88618301,57.83440558,57.82018455,57.80601869,57.81251312,57.83240697,57.79654281,57.77914492,57.81252912,57.82249333,57.79751989,57.80039219,57.81016745,57.79968347,57.69000797,57.51336088,57.55597031,57.83672717,58.12061785,58.34911344,58.34816867,66.50528578,60.07658981,60.07713946,58.95250741,58.37303456,57.70993865,58.05899978,58.83694746,58.08363022,58.16354076,60.91732291,60.91732291,59.09360378,59.51830072,58.9446811,58.42002457,58.9446811,57.17474803,57.30243479,57.80930157,57.925075,49.14323272,48.80416577,60.21140225,50.96751362,36.91202909,37.00200313,54.4209516,53.86742988,52.8633585,52.74318912,52.8959224,49.99488296,49.21841468,51.07492853,52.32064998,50.47090331,46.42002457,68.69965447,46.76558641,41.39223442,57.41612942,57.41089666,57.61008046,57.91627802,57.84254482,57.65181498,57.4150553,57.39403543,57.49105875,57.9527055,58.04526309,58.1184264,57.90686511,57.59296209,57.55097851,57.45910463,57.01831091,55.49131982,54.21116404,53.69295547,53.69991543,54.0979178,54.9224708,55.59679471,55.79549419,55.67364295,55.43138051,55.49838052,55.93155089,55.98947304,55.89948417,55.97635387,56.07537281,55.96293812,55.95047901,56.46722433,57.26137398,57.88427643,58.69681983,59.25151811,59.64399235,59.78194151,59.91133996,58.61199073,59.10266756,58.42002457,58.19147852,58.42002457,47.48573577,47.03643682,59.5051534,59.65633553,59.68201103,59.51740249,59.54240735,59.55002929,59.45215794,59.2366875,59.31703601,59.37437992,59.36828097,59.32734099,59.33801374,59.33967597,59.45798923,59.69935122,59.74014121,59.77098345,59.25488603,58.92143983,58.42002457,54.9224708,40.88367584,41.37232822,52.19354484,51.23287104,50.79687536,50.53541971,59.08558452,58.8734517,50.31549102,51.060756,51.35244766,51.64223904,51.96795534,52.16799339,52.12238671,52.15932111,52.22771824,52.22703468,52.25853479,52.25627681,52.19531742,52.17734859,52.28299898,52.315385,52.2462083,52.29776357,52.38991892,52.38748261,52.35562846,52.32641607,52.31217397,52.27234238,52.26691341,52.29615337,52.30570627,52.29145811,52.27431406,52.25217051,52.21753823,52.23560841,52.24721215,52.23516241,52.26184966,52.27933143,52.27048912,52.26425646,52.2627938,52.2708976,52.27123378,52.28618261,52.25738079,52.2061412,52.31941696,52.3926446,52.26198635,52.15332286,52.17275875,52.01986167,52.11113843,52.24551617,52.32066284,52.39034908,52.37477224,52.42496092,52.57468929,52.66089586,52.74318912,52.79053843,55.07175019,53.8977729,53.88759065,55.59888242,66.0979178,65.3108577,67.68992417,70.12799837,71.25597897,53.8977729,55.13489482,46.53453962,66.75984156,66.79202854,57.17399484,53.60202132,53.8977729,53.92089357,45.86259919,46.71205919,48.7139913,49.78064687,50.86013633,51.66081541,53.1208318,53.69700534,54.04504966,54.46231099,54.70076322,54.94839566,55.3695417,55.46768694,55.38161797,54.95862105,54.71262168,54.94453339,55.09230973,53.24586921,53.07962602,52.7692465,52.16191822,52.02869745,52.07745526,52.20552248,52.17585271,52.43532098,54.07586529,54.65381325,55.27189451,56.18907409,56.57005003,57.03049322,57.1825427,69.66169865,56.93520015,56.93520015,56.79589066,56.99530736,56.99755928,57.05449988,57.24052881,57.39433029,57.61680632,57.59737063,57.42737497,57.17399484,56.23796469,52.74318912,50.29542675,48.91732291,44.12444074,56.87084463,57.13792215,57.41612942,47.48573577,47.82693671,48.29129524,48.74158153,48.99392542,49.21556497,49.43056156,49.60156112,56.79353832,68.72704222,68.71934749,50.79711669,50.777359,50.35351028,50.29240875,50.40036801,50.54434597,50.54758266,50.26611559,50.26545601,50.03936939,50.4780494,50.51459728,50.45958747,50.54477698,50.53190774,50.42448445,50.53432469,50.54504736,50.55601024,50.5611619,50.43923616,50.58813052,50.85217175,50.8481793,50.66293829,50.320836,49.8244119,50.44988894,50.67621886,50.64214864,50.49613903,50.46045641,50.64214864,51.09208941,54.82312112,54.71262168,59.21290269,58.89227264,55.34995772,53.85074506,50.64214864,52.19354484,52.32032788,46.23289449,45.84953788,55.34995772,54.50669164,55.78826823,56.38126534,55.34995772,56.01165637,54.9224708,53.50429368,52.01414075,52.19354484,52.90282423,56.90356284,46.9446811,47.25066649,47.37169519,47.68256286,48.24387627,49.06721424,48.71903108,48.47857516,49.68102185,51.83657672,52.58757514,52.4164896,52.53295591,52.61048473,52.68908306,52.6646458,52.42884408,51.3691766,51.14240386,50.4645807,49.83677829,48.90636939,48.62137826,48.69992326,48.71626435,48.7640998,49.02865563,49.1543278,49.05193055,48.84018251,48.19666471,47.48573577,48.33040771,48.76871822,48.5866966,51.26384791,49.16765057,48.62137826,47.70227351,47.95469406,48.09598975,48.74502855,50.15444483,47.60726501,47.02268082,50.64214864,50.15444483,46.63992851,46.1374878,45.76506653,45.65189322,45.59948642,45.49554549,45.54275786,45.50372762,45.20859194,45.07792624,45.16579428,45.24111165,45.13252228,45.00716775,45.1125578,45.28774381,45.32244981,45.51385404,45.57766103,45.63966713,45.78361351,45.81055219,45.91761832,45.96948193,46.08010446,46.11375717,45.99501565,45.91198176,45.94973283,46.05352146,46.09597877,46.05942074,45.95331251,45.96907518,45.94154187,45.67784239,45.67713916,45.75082413,45.73968553,45.70347934,45.77504425,45.74067734,45.62864354,57.91421836,57.61150251,45.64480993,45.51408272,45.42670235,45.78580198,47.90292079,47.21309485,46.68036542,45.66169865,55.68587007,55.56772588,45.56342572,45.61421411,45.42810418,44.35223798,48.43331227,48.47528169,43.13024458,55.78826823,55.78826823,55.34995772,55.17070149,45.19614686,47.07836779,50.74995138,41.47306195,51.14399075,50.44116374,51.79514585,53.8977729,45.43492358,46.15740034,52.93035138,46.21928424,35.83769526,52.55802863,51.31455706,50.31549102,50.4780494,53.49449503,53.06457551,52.37482755,52.49343954,44.69965447,42.06592138,50.97508853,50.4780494,40.74087126,54.0979178,62.80781824,76.93035138,NaN,NaN],
	"ap0": [NaN,0.6870375529,0.6278614212,0.6070621691,0.4069627841,0.2848446299,0.5631008877,0.4649249949,0.3987883904,0.3326417545,0.4765517937,0.5820374793,0.1723278058,0.07717874432,0.05845184859,0.05935321011,0.04461016994,0.04091843397,0.03838073729,0.03476435272,0.03109724611,0.02154045685,0.01670022368,0.01326705622,0.03349338747,0.1345110731,0.3996385285,0.3637499281,0.3693927813,0.4948503394,1.211238823,0.06306388466,0.02877311826,0.03966375221,0.06138744959,0.04165457336,0.03736198396,0.0917114063,0.1662361104,0.05177133524,0.04822559475,0.1058882707,0.06810195727,0.05721186562,0.05451189034,0.09808849991,0.1448646418,0.240229938,0.1238692872,0.09056680312,0.09694063076,0.1022192423,0.09897866568,0.1032282041,0.09179912728,0.0438066002,0.03281515461,0.03510448033,0.02986449844,0.02667950703,0.02320843465,0.0194941478,0.01885586496,0.02218894048,0.03444571195,0.04931628323,0.04053995091,0.02670989181,0.03687250395,0.02857650101,0.02810041848,0.02810067636,0.01841709811,0.01437965775,0.01793707902,0.03132044025,0.03778048222,0.02350004402,0.01288456635,0.03896436499,0.04576963161,0.03370292258,0.01604350382,0.03257373335,0.09851836406,0.2083800336,0.3415117809,0.396116964,0.3517725845,0.6909323261,0.2360551846,0.2520357962,0.1167102266,0.10045981,0.1063802486,0.1419398305,0.1730604863,0.7084435452,0.7272596209,0.6103412614,0.5220819437,0.6361020131,0.3245522014,0.2295105362,0.1865314798,0.3613393998,0.6109954579,0.3888106527,0.4615847837,0.7927523525,0.615442886,0.7585782814,0.6387305563,0.6953425754,0.5609993173,0.5443348705,0.5098509007,0.6383791989,0.4386862859,0.2181311819,0.2400688578,0.6709902394,0.4414574874,0.4115263483,0.4873234707,0.4398579118,0.6490239222,0.7284825375,0.5129046796,0.7173694796,0.4972081996,0.3364507475,0.09222633666,0.06649316164,0.05516422331,0.07255134086,0.1709009523,0.07522721461,0.07336905596,0.1130296206,0.1767716214,0.2500272689,0.1624392754,0.07799382586,0.06167785188,0.07260463322,0.1079407623,0.1873920238,0.4364947391,0.5561576441,0.3100219785,0.5362927823,0.4955827792,0.3096899927,0.06447833326,0.04927583788,0.06579264286,0.07127769045,0.07530821084,0.08136523241,0.1246509715,0.1076072449,0.09201489837,0.04884507139,0.0398969455,0.1099140605,0.1415805504,0.2057088101,0.1629071501,0.2478928319,0.2200547605,0.2059584659,0.2899886552,0.2622899717,0.2952433155,0.3372015429,0.3328823339,0.5914202538,0.522951759,0.5614614198,0.1021561214,0.05345691512,0.03496899317,0.04309859511,0.02141044408,0.02103544915,0.02252858808,0.02774916763,0.03248295509,0.01887633496,0.01413281218,0.01130465752,0.00970827735,0.01222586682,0.02251748233,0.03015093974,0.02727981889,0.04783251636,0.07855018129,0.09333897246,0.3709167633,0.3933984694,0.2960973293,0.5257537565,0.4731151532,0.3936516244,0.3206172407,0.215127118,0.4794993779,0.6271427888,0.5234802816,0.5672278232,0.2589142385,0.1141006925,0.1573586209,0.1783829313,0.109530825,0.08905956418,0.04127062359,0.0326768913,0.04831446767,0.03619092584,0.01678945522,0.01043211601,0.0139494278,0.01198000739,0.0141857422,0.01548484157,0.01072221425,0.009832175052,0.01731444811,0.01625774155,0.008454961189,0.00481070089,0.003780462023,0.003844284572,0.003685944149,0.003615237948,0.004431562509,0.003204664526,0.001686117826,0.001372730564,0.001589317462,0.002469674228,0.003392900212,0.005683860966,0.006665667738,0.007004183834,0.01287194689,0.01662849068,0.01334385532,0.01025691427,0.00704468919,0.005939676491,0.009484619941,0.01253444088,0.02520225505,0.04143298087,0.04726075335,0.08320773798,0.1042196106,0.0512007261,0.02847233231,0.03165914278,0.03924730534,0.06042893933,0.1028723391,0.13838215,0.1981414661,0.3675185761,0.5841933867,0.501632122,0.4890093849,0.7590846561,0.671257617,0.6107780167,0.7634775549,0.7224062555,0.4887401848,0.4418633219,0.5818349992,0.5409817652,0.4115569698,0.2495665398,0.9177076722,0.5688602668,0.539800134,0.4079933124,0.3653958634,0.3254220737,0.3702112028,0.2652057444,0.269652082,0.3503348172,0.4416282894,0.148956806,0.1447857197,0.1005867922,0.08239800726,0.1043372637,0.07528289457,0.06079630783,0.1009509229,0.1986355804,0.1923673496,0.1588708371,0.1755944801,0.338092909,0.1932409253,0.1296432466,0.1629907636,0.1269449237,0.07047149658,0.09818986599,0.1218370694,0.1484317634,0.1366349195,0.06532086349,0.1094204859,0.1172054205,0.1378579384,0.1340034844,0.1387702407,0.4780775074,0.2552321548,0.2580756799,0.2726624701,0.158550761,0.1134238184,0.09181952192,0.09627824227,0.08004533889,0.02524538904,0.05404231086,0.147160844,0.2528134685,0.2781311338,0.6038920005,0.3146958642,0.496862985,0.570973187,0.2131020535,0.1674297085,0.2261794818,0.3338527698,0.1551178793,0.1729947576,0.1306344676,0.1665791831,0.1770844577,0.1751230927,0.1460440248,0.2139016278,0.2645554647,0.4268351981,0.3018703325,0.1491356795,0.08710103719,0.0683387104,0.07149591086,0.07237209659,0.05059975293,0.0577241784,0.06541545146,0.1072286353,0.08918693367,0.07434871915,0.03799091019,0.01438731918,0.01011641531,0.01328234773,0.0107351854,0.006912055518,0.004955601768,0.005921705195,0.009092418222,0.01302219737,0.01007573543,0.05303149604,0.1381830179,0.0865582375,0.2085006122,0.399301203,0.1280070742,0.1037025697,0.053762007,0.02787567016,0.06856242615,0.2378655086,0.5947103257,0.6757850827,0.5978407628,0.5668233831,0.6044288342,0.5577644336,0.4302353555,0.2957504672,0.4165790492,0.6579839888,0.5811426572,0.5751727233,0.5805504378,0.598580914,0.6618656707,0.6396765027,0.7386464493,0.3859937649,0.3709422209,0.3151530743,0.4535753173,0.645981229,0.5324175432,0.2931075264,0.08558715086,0.06264335985,0.09253077947,0.1929675364,0.2941683661,0.3161616608,0.3626888761,0.2482035909,0.2407812479,0.06734508906,0.066652843,0.1292711839,0.2143213752,0.3219653175,0.3015639755,0.3905716757,0.1690237636,0.118119203,0.2366441087,0.32150718,0.2280651896,0.1925212247,0.1340675112,0.07732063687,0.07709462796,0.04988669561,0.02990088109,0.06256374932,0.1976477594,0.4877856645,0.6033423277,0.5352371361,0.2877880311,0.3614234624,0.5073345955,0.3183429207,0.2982877225,0.3419730643,0.3233426803,0.2731316777,0.305535896,0.7955120543,0.447207748,0.5708416119,0.450424951,0.3798884201,0.2571188485,0.2260618748,0.3361919851,0.1460758982,0.08811876317,0.09480948405,0.1170203829,0.1831568045,0.242043507,0.2527679221,0.1087755329,0.1672232415,0.1328411196,0.08573946296,0.09727858405,0.0609228305,0.09885121491,0.0912951752,0.08676969758,0.09259718481,0.1035079501,0.1320182497,0.08328078173,0.0905659771,0.1081047449,0.09136160993,0.08804908279,0.06708753461,0.05602200299,0.05087954016,0.04553160579,0.03623972445,0.02781119122,0.03263986122,0.05646440033,0.05782905572,0.03777373167,0.04374373131,0.1034470998,0.1306484735,0.0975877472,0.09758054046,0.09485554612,0.1009266383,0.1463471758,0.0589000281,0.1118470467,0.3023299331,0.4326664975,0.6479604461,0.3171343371,0.1761621207,0.5666662319,0.4224762065,0.399613282,0.3283638928,0.2286545944,0.5496803721,0.6352196799,0.5032675982,0.4031559378,0.7341005865,0.4924082724,0.386678962,0.5060147789,0.8166066129,0.7117843228,0.4536855878,0.8351169131,0.6069519527,0.5021334316,0.3810372453,0.283688403,0.4636675452,0.5614854906,0.5876971468,0.5717265412,0.9342201189,0.6721087758,0.6090551651,0.5357453142,0.6129020172,0.6243733776,0.4032372119,0.5162400904,0.5085207928,0.580679335,0.5009464334,0.621086382,0.5751552507,0.6520374598,0.7439923391,0.3466272702,1,1,NaN,NaN],
	"ap": [NaN,0.4488132755,0.6597831864,0.2572308858,0.8435520786,0.3441017996,0.1158365168,0.3245196581,0.5918440114,0.3499066152,0.06028115975,0.1785331104,0.6348619709,0.6129279577,0.02076580583,0.01944327237,0.1403902508,0.02098855652,0.04326212899,0.02726273476,0.0192377372,0.01431218995,0.007395941231,0.009521191659,0.002914303387,0.01421911945,0.030754721,0.04926333959,0.1208335546,0.4284458109,0.4180687016,0.5150113711,0.158717035,0.007586445217,0.02764910286,0.0716923359,0.02395401749,0.02978628348,0.04264914777,0.1336932857,0.0453051245,0.08563867386,0.1097141232,0.02649988051,0.0405931514,0.03370859636,0.05590430961,0.1677455529,0.4251201745,0.09156876184,0.1129572813,0.06034681753,0.03513544861,0.04120317251,0.01560255463,0.04520844874,0.01269349715,0.0150959573,0.01625499636,0.01762335504,0.01499637028,0.007731865805,0.01628850398,0.008284285461,0.001982315852,0.01462247784,0.01346619886,0.02645184327,0.01356620501,0.006759429076,0.008336196216,0.0103504775,0.01508605932,0.006700354065,0.009666921302,0.003858160197,0.004307247331,0.02902650272,0.01042571582,0.003205489914,0.005411877955,0.04240961162,0.01321976505,0.01496051783,0.002633779256,0.1317441,0.1825080583,0.2454994844,0.3325922139,0.7346568576,0.3419253011,0.2947948147,0.08443492533,0.1077295971,0.05919708156,0.1336550447,0.08404957317,0.3038672233,0.3950200986,0.6925479912,0.675966857,0.5741436511,0.221308624,0.4056373821,0.1357681446,0.2474297222,0.3187246278,0.2865580765,0.2246546494,0.1449089562,0.2454561692,0.2472208895,0.2316128952,0.690848307,0.3752540121,0.2683659729,0.548410448,0.2810024391,0.3362942542,0.3855008666,0.0607516448,0.7256670354,0.3230927081,0.2583024171,0.2628405814,0.1483204622,0.3420971243,0.3737580441,0.1449786865,0.5324058854,0.2681529649,0.791790602,0.2891665836,0.1141089266,0.02138505264,0.03098233063,0.04286870629,0.1095336887,0.03790883797,0.09728673118,0.03611287622,0.04879438848,0.5233816951,0.1689433076,0.02673995223,0.02140558545,0.05454135008,0.2495392556,0.221231576,0.2445924725,0.4852553151,0.3597168891,0.4397761116,0.4508253166,0.2280785041,0.03338666819,0.02465367386,0.01826853321,0.02149046462,0.02720353784,0.0333857202,0.05014258945,0.04473783802,0.02514073258,0.01320783716,0.0259776943,0.1119943954,0.04207515668,0.2433844524,0.08933528958,0.06485373495,0.3011959208,0.07875940032,0.3706917166,0.1557488,0.2148423556,0.1851361252,0.08886966294,0.4522744416,0.2625438315,0.617096618,0.1045528358,0.01368505753,0.003913375928,0.03179011019,0.01020946508,0.005895644725,0.01730398414,0.009268831643,0.04211798098,0.0159319064,0.005739528517,0.007458115693,0.004919699372,0.008123571265,0.009342238895,0.007405310026,0.02716325722,0.02833296104,0.04872413568,0.07697564486,0.4144988516,0.2114462653,0.3650868221,0.6935949733,0.4111550555,0.2826088986,0.1819798864,0.3899280065,0.2421024514,0.201639715,0.2034019777,0.3755300804,0.2399487994,0.03499375481,0.04197611569,0.1509184967,0.04765336087,0.05061898495,0.01514971528,0.009521619632,0.01551872653,0.02865562192,0.00741759958,0.005128523186,0.005483486439,0.005243528506,0.002957034482,0.01192418978,0.007411233234,0.007415163541,0.01130139697,0.006639372303,0.004509281213,0.001668164259,0.002556307045,0.002608345071,0.002104676502,0.001967137808,0.001824277163,0.001534857947,0.0006588807415,0.000767756718,0.001369116417,0.0003522375306,0.0006398406122,0.004981993999,0.003587682653,0.002830180165,0.002937470072,0.006554479591,0.01250809293,0.006715214424,0.002172337007,0.00349964594,0.001698646009,0.008741612366,0.01578460124,0.01429834915,0.01950601309,0.04032405858,0.06469808785,0.0298317046,0.01444846099,0.01407503324,0.0118993735,0.03435747175,0.04804184318,0.06498513723,0.08862237652,0.3124413126,0.192134265,0.3653013198,0.5046922148,0.282494929,0.6189118863,0.3225450673,0.2976088197,0.1228722031,0.690339278,0.6282605151,0.6336432446,0.6717340604,0.5521423728,0.825663639,0.2853103252,0.06494297032,0.2949398087,0.3643643737,0.1713442612,0.7420997251,0.5315301181,0.2452325749,0.1733602178,0.2920708856,0.2489332822,0.05221039439,0.1467466285,0.09193298978,0.05172823353,0.08050046232,0.06780036962,0.01934019208,0.02604495661,0.1845897908,0.1331890569,0.09211509093,0.4250227582,0.2229670767,0.06014564031,0.07365274421,0.08669456092,0.05394479542,0.04610440285,0.0342467938,0.07050164294,0.2225935873,0.1852878235,0.03723635751,0.01156937108,0.0521351619,0.175325289,0.0755225381,0.1568631015,0.1477555026,0.06259783911,0.1193974296,0.2094037107,0.07305902155,0.07496590268,0.1610013685,0.03514598023,0.0810384812,0.009215654839,0.01053663661,0.09501149133,0.02769543158,0.2955829033,0.2347304975,0.2199464938,0.4378767219,0.4641852677,0.118861763,0.1008307819,0.2857486273,0.1992139171,0.2078583928,0.1229043251,0.06431269539,0.07786786767,0.1019602332,0.07612372079,0.145653753,0.1782668721,0.1285330342,0.2040856211,0.2696671034,0.0609772362,0.02318289507,0.06255146106,0.02179868063,0.02127708167,0.01731546385,0.02814167222,0.04580703418,0.1379997596,0.0224388438,0.01277236406,0.05723783688,0.008904414159,0.00553171872,0.009076628376,0.005635435857,0.003973479504,0.001693533977,0.003017571801,0.008524813801,0.01344870133,0.003934558613,0.01248389174,0.05445711021,0.05461186948,0.3107951228,0.3457530995,0.1154291778,0.03875852331,0.01629660881,0.006606677191,0.06312107793,0.3363906697,0.2914411175,0.4800601483,0.2949834402,0.5234491399,0.4543180628,0.5964823441,0.515402805,0.2348878336,0.3214833334,0.3003043507,0.4711820447,0.1695724719,0.3907787083,0.6208110423,0.3731846309,0.2766829788,0.4067515104,0.393428457,0.4126404976,0.07638191271,0.4794109298,0.653346615,0.9005628661,0.1322947327,0.01808734677,0.04119677583,0.1246416387,0.1488394489,0.08746066195,0.3059186499,0.1203891758,0.6148233659,0.1440956485,0.006846661905,0.04176653028,0.03241270479,0.1012053879,0.3675423708,0.0954265341,0.474695131,0.3400525922,0.05477969271,0.04942038433,0.2760041626,0.1685916672,0.0645495528,0.06398079183,0.07720729464,0.05422033294,0.02657589283,0.01412215563,0.04714650416,0.1565860686,0.25498093,0.3200478921,0.4669505355,0.1250690263,0.5394513562,0.4322847009,0.1013286019,0.1257081743,0.05472456368,0.2614479425,0.1589398152,0.3133381472,0.2751627973,0.08127617073,0.1058309522,0.527698899,0.2478509917,0.1468071363,0.1528810984,0.2365622529,0.01665347911,0.04598906905,0.02767740577,0.05355038457,0.02718586286,0.2321900384,0.05477070088,0.08209114624,0.08248170849,0.03835174454,0.076053255,0.02079685791,0.03584970087,0.09906686367,0.03403728858,0.03141248876,0.04774942023,0.08172647619,0.07796639109,0.03109821187,0.04180353584,0.05239955772,0.04611266154,0.02898814874,0.05999744801,0.01688547088,0.04275374795,0.01461652517,0.01176441245,0.008058297643,0.01921340325,0.02642331247,0.04049857443,0.01218414207,0.02563522487,0.06730654589,0.09379465112,0.02110622443,0.09816975153,0.07555717021,0.0692670188,0.02692424773,0.03576056123,0.08012387677,0.1120766168,0.5716967223,0.407534589,0.1303586794,0.2075934052,0.9482830391,0.6168502887,0.6038348135,0.03427441896,0.217678121,0.1609357134,0.3669061821,0.3593020134,0.1922339019,0.6235751971,0.427041645,0.1473776683,0.211413908,0.4576329806,0.3276014697,0.3844402291,0.2367817024,0.8136241382,0.5300299292,0.1266546398,0.4772760702,0.8143965779,0.3459418322,0.231805369,0.4663080989,0.3128762496,0.6349926931,0.3795645067,0.05500051629,0.1418922619,0.4369149836,0.1119436791,0.2532531124,0.2109127351,0.1871810956,0.1532523068,0.476351401,0.3880326943,0.4205405876,0.07048228735,0.0850144746,5.960464122e-08,NaN,NaN],
	"pwr": [NaN,3.230822426e-07,1.922510955e-07,4.864583432e-07,4.857831727e-07,6.313980933e-07,5.79160625e-06,6.073863802e-05,0.000133776558,0.0001315714488,0.0007108069403,0.001484257702,9.338748259e-05,0.0003106189707,0.03503929971,0.01351489563,0.003961723799,0.003094595293,0.002306248718,0.0146960811,0.01321712828,0.01497460738,0.03247657095,0.04569787166,0.0942973401,0.08625644162,0.03252786939,0.01207605944,0.004394341115,0.004014182838,3.227024963e-05,0.00033225082,0.001466005892,0.03701548587,0.02605417799,0.009080627903,0.01079228468,0.01533723651,0.003341211574,0.0007238795157,0.004614251642,0.03337648987,0.02201384361,0.04084581591,0.08440964797,0.05114265632,0.0300927781,0.0153094383,0.003803989791,0.01075647913,0.02080567193,0.03377971238,0.0110662546,0.004458037993,0.002567513806,0.002394778295,0.009261983544,0.009907128131,0.01596799463,0.01578189578,0.01488135647,0.02220135636,0.0181898956,0.01619260156,0.01281072323,0.008445547879,0.00367218152,0.004510070597,0.003104354572,0.003772492237,0.006609147192,0.009991126578,0.007986623934,0.007769955682,0.005623528969,0.004893568037,0.005611811887,0.004253361617,0.002899765603,0.002773844504,0.002407030644,0.003444957316,0.005787411123,0.004337025012,0.003961475955,0.004150628114,0.001274675744,0.0003681196332,0.0002710782136,0.0002741254395,5.309689786e-05,5.935402727e-06,1.758830531e-05,1.918032159e-05,7.630464568e-05,7.90507275e-05,9.810918045e-05,7.006452822e-06,6.490565069e-07,1.251137542e-06,5.663655586e-07,7.647528125e-07,4.979788369e-07,7.210048632e-08,4.63745039e-06,4.754007722e-07,5.012720112e-07,1.286920876e-07,1.864047076e-07,6.185982711e-07,5.360128545e-07,4.915494261e-07,7.803743647e-07,3.104608918e-07,1.990484393e-07,3.316136529e-07,4.807958634e-07,6.548062948e-07,3.816456466e-06,5.665822305e-06,1.506927859e-05,4.175793029e-06,1.329023865e-06,8.26772095e-07,1.170468185e-07,7.682375713e-07,2.247692736e-06,2.359907376e-05,3.23962589e-05,3.623828591e-05,4.367627331e-05,4.371485989e-05,0.001631142971,0.009530987264,0.06584862828,0.1471342121,0.0658241776,0.02383879105,0.007463985808,0.006890727988,0.009385121193,0.008431933485,0.001156885119,0.002032199149,0.006833220992,0.01974846132,0.03275571318,0.007848756665,0.0006447107542,7.809322032e-05,0.0001857881011,0.0001912076239,0.0004487477162,0.01217372219,0.02980643098,0.02631256705,0.1375265795,0.03989316954,0.01018998133,0.006855603307,0.004841666687,0.006979458096,0.006864256411,0.01997082949,0.07095004904,0.06224761577,0.07029259404,0.02928206397,0.00914123043,0.02006868539,0.01111616907,0.01540766386,0.0692567803,0.009440551981,0.009354063719,0.008688727791,0.0006491481803,0.002573160754,0.0009479508075,0.001073273071,0.001845039435,0.001367082368,0.02665284654,0.01924474076,0.006503911989,0.003834675103,0.02693030176,0.009605306342,0.002651559176,0.002435649519,0.006974361809,0.01066552818,0.008766968123,0.01076763798,0.01280756422,0.00769369956,0.005204173558,0.003576616713,0.002112421075,0.002946631011,0.008167958689,0.009954042577,0.004642172721,0.001748831838,0.00264009851,0.01018292212,0.0389462726,0.01911976349,0.01413861973,0.003775222095,0.00144227268,0.001901599238,0.003328743246,0.002701081423,0.01217985768,0.006124191129,0.001255881611,0.002551054936,0.001619584672,0.004796969591,0.006119275768,0.00309745224,0.002663024449,0.006489223844,0.007240905131,0.004642179734,0.00367978908,0.003270894274,0.002690089458,0.002872268082,0.002558588506,0.002619418865,0.002817431873,0.003817145975,0.004062570142,0.004254008457,0.004127943141,0.004177094982,0.004139902922,0.004007727554,0.004043760555,0.004382167704,0.004536455046,0.004494731836,0.003684453838,0.003302485844,0.003022842463,0.002440275994,0.001853158468,0.001448880806,0.0009868892822,0.0004787147034,0.0004998813203,0.0008255823479,0.000645170213,0.0003935956201,0.0002483157441,0.0001955165929,6.801771641e-05,4.479095351e-05,4.695186266e-05,3.209583711e-05,2.87397559e-05,3.163688604e-05,3.547571831e-05,2.187550475e-05,2.433637589e-05,9.738317058e-06,7.510461259e-06,6.268639322e-06,1.749386361e-06,2.702370944e-06,1.265273271e-06,2.021907914e-06,7.585007806e-06,2.802974389e-06,1.96777299e-06,9.183657003e-06,2.864717518e-06,5.492941883e-06,5.547287816e-06,2.723376689e-05,1.151116166e-05,1.282083509e-05,6.893174901e-05,1.19357481e-05,2.654809866e-05,2.944495509e-05,0.0004716044925,0.002251339047,0.01521184073,0.02121593279,0.03979090153,0.03132571514,0.02300901512,0.01114813816,0.02577017314,0.01792844139,0.01787961114,0.03558507853,0.03587257359,0.01175875187,0.04166231007,0.04473010698,0.014218731,0.01504116504,0.01930877599,0.005384965474,0.003864075755,0.01371120865,0.008519776415,0.01701408546,0.04436892431,0.03049612765,0.01495909766,0.0239684382,0.01747190044,0.005096134858,0.03521350532,0.02178021181,0.05723925677,0.0532031103,0.02851720454,0.05759035502,0.003495830062,0.01324003718,0.03318891318,0.002181529471,0.001243418738,0.01044419602,0.02082206444,0.009697664198,0.008077131588,0.01007980132,0.02343048179,0.0197596339,0.01336809084,0.006004516641,0.002131480393,0.004224451081,0.00339063382,0.001856550261,0.004948030932,0.004215588883,0.005328392098,0.01016352823,0.008328348371,0.01593078312,0.008866646768,0.01496294222,0.018079105,0.02726095232,0.0199394851,0.01809914663,0.004440821111,0.0006300815348,0.0004717766095,0.003767279675,0.003371280632,0.005585035469,0.009654532079,0.008022493991,0.004041164013,0.001363098635,0.00106429204,0.0005803037877,0.0002315783292,0.000350006856,0.000989017514,0.003656102985,0.005178612162,0.003352499585,0.001658371541,0.001801904122,0.001559100045,0.001718829165,0.001494517394,0.0008675498868,0.001252897455,0.001459770379,0.0003053025795,8.973889303e-05,5.229418078e-06,2.097396632e-07,4.01586017e-06,7.021568728e-05,0.0002774607759,0.0002163514356,0.0002249993151,8.170280588e-05,9.241119779e-06,1.481875595e-06,3.235797431e-07,8.118833648e-07,9.727786547e-07,1.291436742e-06,1.709246741e-06,3.901734456e-06,2.850744991e-06,2.70661445e-06,4.788124352e-06,2.849681839e-05,1.638229841e-05,1.738462704e-06,2.421857789e-06,6.109612915e-06,0.0001788226612,0.000162178519,0.001038149368,0.0005871086141,0.0002036006277,0.0001946952213,0.0002951518592,0.0003617830609,0.007195630704,0.02027605629,0.01361605241,0.01262744676,0.01237726747,0.005370001558,0.02558599355,0.008280500445,0.05804582896,0.0244453105,0.02824569333,0.0134176179,0.02220628001,0.009208782492,0.003078911845,0.0008766073018,0.003861578663,0.05133088553,0.02906732684,0.02191388792,0.04681288058,0.0553480884,0.02663188488,0.02986153028,0.03633333426,0.03217275409,0.04547797073,0.02711414505,0.02631517017,0.004020051841,0.0008544413926,0.006662535631,0.004201505701,0.00215798455,0.005005106622,0.02256399092,0.0230670467,0.006698788256,0.001940284645,0.00451342944,0.001220904671,0.0002623813915,0.001268852905,0.00359461775,0.001904726933,0.01534451616,0.002317955722,0.003001474708,0.002010682082,0.002804096603,0.005102364452,0.003464852546,0.00369317547,0.004484509703,0.008857626376,0.002344272391,0.001366840771,0.001159906597,0.001241520748,0.001509230781,0.001582646153,0.001054561335,0.0006936461732,0.001650961018,0.002161918084,0.001760670755,0.00124165302,0.0008319399836,0.000568402026,0.0003956017896,0.0002410582378,0.0002311176645,0.0004246374262,0.0004603282987,0.0005987923944,0.0005649765134,0.0004705606325,0.0005179688946,0.0003181518177,0.0002700096307,0.0002877033296,0.0002131437232,0.0004016486091,0.0002227131049,0.0001207976759,4.694089717e-05,5.531486237e-05,6.014399749e-05,2.577258376e-05,3.969155071e-05,0.0001395187432,0.0002318878412,0.0001982317022,2.27557708e-05,2.587015496e-05,3.325245643e-05,3.721953412e-05,4.508530089e-05,1.053213222e-05,1.184739868e-05,1.975056031e-05,1.918499799e-05,1.010193212e-05,1.201737635e-06,3.156357035e-06,1.647481754e-06,7.924309283e-06,8.2838158e-07,3.351164289e-07,8.708426321e-07,1.310337205e-06,2.223264231e-07,6.114750877e-07,1.301329713e-06,9.536450668e-08,1.17874508e-07,8.568424121e-08,1.342439612e-08,1.961263646e-08,3.684206136e-08,3.153044946e-08,6.661740253e-08,9.015719808e-09,2.746788706e-09,5.217635647e-09,6.916338006e-09,8.792076782e-09,6.811943714e-09,3.675613005e-09,6.08688702e-10,2.011534219e-09,1.153282008e-09,6.866930808e-10,6.853794692e-10,5.54385586e-10,2.778592115e-10,5.051881284e-09,1.477527021e-09,8.216235214e-10,9.313225746e-10,NaN,NaN],
	"sr": 16000,
	"range": [1,177920],
	"minf0": 63.1883,
	"maxf0": 706.3069,
	"thresh": 0.1,
	"relflag": 1,
	"hop": 320,
	"bufsize": 10000,
	"wsize": 640,
	"lpf": 4000,
	"shift": 0,
	"plotthreshold": 0.2
}
