{
    "f0": [
        45.668733107632221,
        65.060362306540156,
        36.144547490830035,
        53.582237022349993,
        40.73648592365906,
        40.27025362993551,
        38.903111438551612,
        40.647221710571394,
        36.765963417839309,
        38.699784381926321,
        39.029325355234803,
        37.297396700020073,
        38.824801082681823,
        35.793230974113477,
        66.603575620005714,
        66.624960639779729,
        66.646319231278611,
        66.661793503844962,
        66.677253957408112,
        66.518704593277207,
        66.609355506522249,
        66.602639262134559,
        66.550318948075187,
        66.49783998981674,
        66.445201513703722,
        66.626286923212902,
        66.805497787475957,
        66.808877779736719,
        66.549699228490724,
        66.635053416966358,
        66.604536779061362,
        66.597273783414408,
        66.605268988208579,
        66.602651689396083,
        66.427831463579281,
        66.58608089397903,
        66.716006440422674,
        66.684318777296212,
        66.652573008247145,
        66.850630060606832,
        66.74155480331585,
        66.631788010125135,
        66.693582712607409,
        38.543220158794682,
        47.872600914739152,
        35.818582550561842,
        51.681196121619536,
        66.16984852714171,
        65.871684499935384,
        65.740560246412301,
        65.694119707996848,
        65.693202619070348,
        65.692286910457852,
        65.709026590017629,
        65.699259621794525,
        65.350345132598093,
        65.340441885707676,
        65.536875597924492,
        65.594501343969881,
        65.462040717462273,
        65.524319368567291,
        65.526767386849542,
        65.529215010942735,
        65.531663779329449,
        65.390335021467067,
        65.380419131450822,
        65.400572009792853,
        65.563719507245381,
        65.480651002229635,
        65.481667746068879,
        65.506020455370319,
        65.530340398943977,
        65.554632083627013,
        65.578885368555873,
        65.603104723986633,
        65.551768953831456,
        65.575317950765537,
        65.598836443358891,
        65.601496018618136,
        65.440572992533745,
        65.571812724661626,
        65.681389137377423,
        65.790276311647588,
        65.724487968369559,
        65.696475502758787,
        65.821646571276275,
        65.755033270207548,
        65.594347824720458,
        65.479569489218747,
        65.166181406065732,
        65.370541909142588,
        65.57251675225622,
        65.598170025068271,
        65.710873650401538,
        65.497828787824133,
        65.242312281963109,
        65.346015576587632,
        65.536976762694863,
        65.660346227540046,
        65.734545189189433,
        65.832488141153604,
        65.568163351121896,
        66.209465902513685,
        66.585086954130233,
        65.96845196396103,
        65.329038235187426,
        65.852607247637664,
        66.075171612933616,
        66.086763552318914,
        66.790403879706716,
        66.963242341277919,
        67.385380370639979,
        67.325616252991793,
        67.74749072158788,
        68.358048512277989,
        67.064218613651107,
        66.777743457166636,
        66.838028554891281,
        66.88820187814359,
        66.769171887994375,
        39.007089831049001,
        52.337982185631255,
        47.520077117511761,
        37.023121648896819,
        66.503099063307445,
        66.221838174173485,
        44.654288493051055,
        46.913500441244423,
        40.670591336167995,
        48.090108592296176,
        47.934261416432577,
        66.925470380684715,
        67.051129359701932,
        67.175882830758582,
        67.155666299955826,
        67.130450650734304,
        67.107689772569927,
        67.083650218261567,
        66.886210413401585,
        66.488045906528754,
        66.080509458445547,
        65.610186468607537,
        65.665707264256426,
        65.946941762637749,
        66.112893717128571,
        66.207500634726287,
        66.377398008966821,
        66.334153912589471,
        66.290800100877263,
        66.073341722577965,
        66.113709446253239,
        66.153983262174791,
        66.171625854567438,
        66.189250486117785,
        66.0328611114724,
        66.075608091205467,
        66.118251175796729,
        66.05548189255741,
        66.127002207509577,
        66.102951730868369,
        66.078867750001137,
        66.135240220753857,
        65.934662363812976,
        66.210577560008943,
        65.217581061404459,
        65.561997337624121,
        66.169424334154073,
        66.099094597114288,
        66.303860852135259,
        40.090736172106922,
        44.998377757692786,
        48.467930029762883,
        35.420196175272281,
        35.784880553134641,
        47.445940194104352,
        47.021852954639847,
        48.497341371922005,
        49.856892868303319,
        48.872437095949138,
        47.254938723635561,
        45.470593523284727,
        41.670801730621029,
        39.006085060772079,
        53.771813689451093,
        54.771451368883803,
        54.652867337043403,
        54.244934384680533,
        52.913547886734094,
        50.792097173374188,
        50.300670488972671,
        48.302411239033844,
        46.381690062919787,
        45.439702124597943,
        46.868549006763629,
        48.188409277891587,
        61.140114173233137,
        61.361307260019103,
        61.579709924026858,
        61.876650891406939,
        62.038042996521014,
        62.262738160676498,
        62.278606209075832,
        62.397644868312092,
        62.290711318160085,
        62.319238083262817,
        61.627532908491268,
        61.330453000848586,
        60.986306175772015,
        40.186503384564453,
        41.542908358034346,
        41.396340659938232,
        41.248518573189088,
        41.022265856277585,
        40.565160294479298,
        37.946409996353132,
        37.341807955052687,
        37.984140824962061,
        39.489912717013986,
        40.875131325439931,
        62.548962366067649,
        62.412852281575731,
        62.447931374408107,
        62.482939474680983,
        62.343884107483142,
        62.067168031597618,
        62.198303738065505,
        61.496243245191941,
        62.889786709075892,
        63.118600436843664,
        63.169388105687496,
        63.479775833898174,
        63.4835825953894,
        63.4466522308851,
        63.467679483791002,
        63.569923670891995,
        63.671570880751759,
        63.422867019496302,
        63.541912017167853,
        63.546705549446813,
        63.608295812117987,
        63.669667738220298,
        63.730822870286886,
        64.636435170447896,
        64.57298036411288,
        63.816623058122204,
        63.734516274996196,
        64.144213591684334,
        64.768668610531279,
        64.736144911010854,
        64.920882371652027,
        65.103667793507,
        65.110552417566623,
        64.99372858397038,
        65.061847224816518,
        65.05608324141059,
        65.211394960315943,
        65.1858127976502,
        65.160194250187715,
        65.30680148218589,
        65.452177560376967,
        64.35857970383654,
        63.740651148327004,
        65.098842885290168,
        65.157585915904136,
        65.216133333003242,
        66.982625657472539,
        67.300407381161051,
        67.164801609304021,
        67.151268500902717,
        66.726458411811052,
        67.511818874615713,
        67.7737910468514,
        67.067704208000137,
        67.065599005964472,
        67.212067818745666,
        67.297230675409494,
        67.381976648886507,
        67.11655462490485,
        67.250758654504679,
        66.543445491624738,
        66.580728198136967,
        0.0,
        0.0,
        40.753492496869974,
        41.481442542071093,
        64.81806532536838,
        64.81806532536838,
        64.940488613844153,
        65.06205221849882,
        65.111494935854139,
        65.160796801509861,
        65.114950315225414,
        65.036474724347585,
        65.085826325168767,
        65.135037641153033,
        65.184109467576164,
        65.344053556289779,
        65.273624196022155,
        65.342727614909336,
        65.255784196280331,
        65.113265509936568,
        65.098072697604238,
        65.361509545507175,
        65.328316842517012,
        65.3480247950788,
        65.346160915177265,
        65.345591458876754,
        65.516635611984839,
        65.75720991871782,
        65.785412023159125,
        65.326746222299604,
        66.174965083530935,
        66.983560608222817,
        66.484622114197506,
        65.970876557233694,
        65.953145477492882,
        39.829193613978248,
        40.729275662182687,
        49.044857621048308,
        68.065711116630183,
        68.169891156216039,
        68.445714461153074,
        68.458637226334147,
        68.471551569508151,
        68.484456326792639,
        68.147593432665701,
        67.80404562396339,
        68.29822162443952,
        68.448839767400074,
        68.499275977004174,
        68.071612105022112,
        67.682831865713993,
        66.371696681550119,
        66.133753898394374,
        65.476194956169138,
        65.182714317903688,
        65.064239374674116,
        65.197360456094202,
        65.325395213420876,
        65.555982892423103,
        65.406683484802755,
        65.49662777514655,
        65.433715122499692,
        65.365667873994411,
        65.29735210569693,
        65.496964392726298,
        65.909636781761748,
        65.858087553676086,
        65.416361343911532,
        65.507184084409417,
        65.46352102166675,
        65.537560479082686,
        65.678527924161031,
        64.897028178377326,
        64.977465480123982,
        51.065929386651774,
        44.639475857724889,
        44.46548324679015,
        46.638793049714437,
        42.658295301190464,
        46.675041274454799,
        46.561923365806898,
        46.448060329006964,
        46.159453369265819,
        46.297480282742058,
        36.773120083300839,
        51.731027976387182,
        0.0,
        0.0,
        0.0,
        0.0,
        0.0,
        0.0,
        0.0,
        0.0,
        0.0,
        0.0,
        0.0,
        0.0,
        0.0,
        0.0,
        0.0,
        0.0,
        0.0,
        0.0,
        0.0,
        0.0,
        0.0,
        0.0,
        0.0,
        0.0,
        0.0,
        0.0,
        0.0,
        0.0
    ],
    "time": [
        0.02,
        0.040000000000000001,
        0.059999999999999998,
        0.080000000000000002,
        0.10000000000000001,
        0.12,
        0.14000000000000001,
        0.16,
        0.17999999999999999,
        0.20000000000000001,
        0.22,
        0.23999999999999999,
        0.26000000000000001,
        0.28000000000000003,
        0.29999999999999999,
        0.32000000000000001,
        0.34000000000000002,
        0.35999999999999999,
        0.38,
        0.40000000000000002,
        0.41999999999999998,
        0.44,
        0.46000000000000002,
        0.47999999999999998,
        0.5,
        0.52000000000000002,
        0.54000000000000004,
        0.56000000000000005,
        0.57999999999999996,
        0.59999999999999998,
        0.62,
        0.64000000000000001,
        0.66000000000000003,
        0.68000000000000005,
        0.69999999999999996,
        0.71999999999999997,
        0.73999999999999999,
        0.76000000000000001,
        0.78000000000000003,
        0.80000000000000004,
        0.81999999999999995,
        0.83999999999999997,
        0.85999999999999999,
        0.88,
        0.90000000000000002,
        0.92000000000000004,
        0.93999999999999995,
        0.95999999999999996,
        0.97999999999999998,
        1.0,
        1.02,
        1.04,
        1.0600000000000001,
        1.0800000000000001,
        1.1000000000000001,
        1.1200000000000001,
        1.1399999999999999,
        1.1599999999999999,
        1.1799999999999999,
        1.2,
        1.22,
        1.24,
        1.26,
        1.28,
        1.3,
        1.3200000000000001,
        1.3400000000000001,
        1.3600000000000001,
        1.3799999999999999,
        1.3999999999999999,
        1.4199999999999999,
        1.4399999999999999,
        1.46,
        1.48,
        1.5,
        1.52,
        1.54,
        1.5600000000000001,
        1.5800000000000001,
        1.6000000000000001,
        1.6200000000000001,
        1.6399999999999999,
        1.6599999999999999,
        1.6799999999999999,
        1.7,
        1.72,
        1.74,
        1.76,
        1.78,
        1.8,
        1.8200000000000001,
        1.8400000000000001,
        1.8600000000000001,
        1.8799999999999999,
        1.8999999999999999,
        1.9199999999999999,
        1.9399999999999999,
        1.96,
        1.98,
        2.0,
        2.02,
        2.04,
        2.0600000000000001,
        2.0800000000000001,
        2.1000000000000001,
        2.1200000000000001,
        2.1400000000000001,
        2.1600000000000001,
        2.1800000000000002,
        2.2000000000000002,
        2.2200000000000002,
        2.2400000000000002,
        2.2599999999999998,
        2.2799999999999998,
        2.2999999999999998,
        2.3199999999999998,
        2.3399999999999999,
        2.3599999999999999,
        2.3799999999999999,
        2.3999999999999999,
        2.4199999999999999,
        2.4399999999999999,
        2.46,
        2.48,
        2.5,
        2.52,
        2.54,
        2.5600000000000001,
        2.5800000000000001,
        2.6000000000000001,
        2.6200000000000001,
        2.6400000000000001,
        2.6600000000000001,
        2.6800000000000002,
        2.7000000000000002,
        2.7200000000000002,
        2.7400000000000002,
        2.7599999999999998,
        2.7799999999999998,
        2.7999999999999998,
        2.8199999999999998,
        2.8399999999999999,
        2.8599999999999999,
        2.8799999999999999,
        2.8999999999999999,
        2.9199999999999999,
        2.9399999999999999,
        2.96,
        2.98,
        3.0,
        3.02,
        3.04,
        3.0600000000000001,
        3.0800000000000001,
        3.1000000000000001,
        3.1200000000000001,
        3.1400000000000001,
        3.1600000000000001,
        3.1800000000000002,
        3.2000000000000002,
        3.2200000000000002,
        3.2400000000000002,
        3.2599999999999998,
        3.2799999999999998,
        3.2999999999999998,
        3.3199999999999998,
        3.3399999999999999,
        3.3599999999999999,
        3.3799999999999999,
        3.3999999999999999,
        3.4199999999999999,
        3.4399999999999999,
        3.46,
        3.48,
        3.5,
        3.52,
        3.54,
        3.5600000000000001,
        3.5800000000000001,
        3.6000000000000001,
        3.6200000000000001,
        3.6400000000000001,
        3.6600000000000001,
        3.6800000000000002,
        3.7000000000000002,
        3.7200000000000002,
        3.7400000000000002,
        3.7599999999999998,
        3.7799999999999998,
        3.7999999999999998,
        3.8199999999999998,
        3.8399999999999999,
        3.8599999999999999,
        3.8799999999999999,
        3.8999999999999999,
        3.9199999999999999,
        3.9399999999999999,
        3.96,
        3.98,
        4.0,
        4.0199999999999996,
        4.04,
        4.0599999999999996,
        4.0800000000000001,
        4.0999999999999996,
        4.1200000000000001,
        4.1399999999999997,
        4.1600000000000001,
        4.1799999999999997,
        4.2000000000000002,
        4.2199999999999998,
        4.2400000000000002,
        4.2599999999999998,
        4.2800000000000002,
        4.2999999999999998,
        4.3200000000000003,
        4.3399999999999999,
        4.3600000000000003,
        4.3799999999999999,
        4.4000000000000004,
        4.4199999999999999,
        4.4400000000000004,
        4.46,
        4.4800000000000004,
        4.5,
        4.5199999999999996,
        4.54,
        4.5599999999999996,
        4.5800000000000001,
        4.5999999999999996,
        4.6200000000000001,
        4.6399999999999997,
        4.6600000000000001,
        4.6799999999999997,
        4.7000000000000002,
        4.7199999999999998,
        4.7400000000000002,
        4.7599999999999998,
        4.7800000000000002,
        4.7999999999999998,
        4.8200000000000003,
        4.8399999999999999,
        4.8600000000000003,
        4.8799999999999999,
        4.9000000000000004,
        4.9199999999999999,
        4.9400000000000004,
        4.96,
        4.9800000000000004,
        5.0,
        5.0199999999999996,
        5.04,
        5.0599999999999996,
        5.0800000000000001,
        5.0999999999999996,
        5.1200000000000001,
        5.1399999999999997,
        5.1600000000000001,
        5.1799999999999997,
        5.2000000000000002,
        5.2199999999999998,
        5.2400000000000002,
        5.2599999999999998,
        5.2800000000000002,
        5.2999999999999998,
        5.3200000000000003,
        5.3399999999999999,
        5.3600000000000003,
        5.3799999999999999,
        5.4000000000000004,
        5.4199999999999999,
        5.4400000000000004,
        5.46,
        5.4800000000000004,
        5.5,
        5.5199999999999996,
        5.54,
        5.5599999999999996,
        5.5800000000000001,
        5.5999999999999996,
        5.6200000000000001,
        5.6399999999999997,
        5.6600000000000001,
        5.6799999999999997,
        5.7000000000000002,
        5.7199999999999998,
        5.7400000000000002,
        5.7599999999999998,
        5.7800000000000002,
        5.7999999999999998,
        5.8200000000000003,
        5.8399999999999999,
        5.8600000000000003,
        5.8799999999999999,
        5.9000000000000004,
        5.9199999999999999,
        5.9400000000000004,
        5.96,
        5.9800000000000004,
        6.0,
        6.0199999999999996,
        6.04,
        6.0599999999999996,
        6.0800000000000001,
        6.0999999999999996,
        6.1200000000000001,
        6.1399999999999997,
        6.1600000000000001,
        6.1799999999999997,
        6.2000000000000002,
        6.2199999999999998,
        6.2400000000000002,
        6.2599999999999998,
        6.2800000000000002,
        6.2999999999999998,
        6.3200000000000003,
        6.3399999999999999,
        6.3600000000000003,
        6.3799999999999999,
        6.4000000000000004,
        6.4199999999999999,
        6.4400000000000004,
        6.46,
        6.4800000000000004,
        6.5,
        6.5199999999999996,
        6.54,
        6.5599999999999996,
        6.5800000000000001,
        6.5999999999999996,
        6.6200000000000001,
        6.6399999999999997,
        6.6600000000000001,
        6.6799999999999997,
        6.7000000000000002,
        6.7199999999999998,
        6.7400000000000002,
        6.7599999999999998,
        6.7800000000000002,
        6.7999999999999998,
        6.8200000000000003,
        6.8399999999999999,
        6.8600000000000003,
        6.8799999999999999,
        6.9000000000000004,
        6.9199999999999999,
        6.9400000000000004,
        6.96,
        6.9800000000000004,
        7.0,
        7.0199999999999996,
        7.04,
        7.0599999999999996,
        7.0800000000000001,
        7.0999999999999996,
        7.1200000000000001,
        7.1399999999999997,
        7.1600000000000001,
        7.1799999999999997,
        7.2000000000000002,
        7.2199999999999998,
        7.2400000000000002,
        7.2599999999999998,
        7.2800000000000002,
        7.2999999999999998,
        7.3200000000000003,
        7.3399999999999999,
        7.3600000000000003,
        7.3799999999999999,
        7.4000000000000004,
        7.4199999999999999,
        7.4400000000000004,
        7.46,
        7.4800000000000004,
        7.5,
        7.5199999999999996,
        7.54,
        7.5599999999999996,
        7.5800000000000001,
        7.5999999999999996,
        7.6200000000000001,
        7.6399999999999997,
        7.6600000000000001,
        7.6799999999999997,
        7.7000000000000002,
        7.7199999999999998,
        7.7400000000000002,
        7.7599999999999998,
        7.7800000000000002,
        7.7999999999999998,
        7.8200000000000003,
        7.8399999999999999,
        7.8600000000000003,
        7.8799999999999999,
        7.9000000000000004
    ]
}