{
    "DU": 149,
    "DV": 237,
    "F-measure": 0.5170278637770898,
    "F-measure Chroma": 0.6873065015479876,
    "FN": 87,
    "FNC": 13,
    "FNCch": 16,
    "FNI": 74,
    "FNIch": 71,
    "FP": 39,
    "GU": 101,
    "GV": 285,
    "Overall Accuracy": 0.4326424870466321,
    "Overall Chroma Accuracy": 0.5751295336787565,
    "Precision": 0.5585284280936454,
    "Precision Chroma": 0.7424749163879598,
    "Raw Chroma Accuracy": 0.6175438596491228,
    "Raw Pitch Accuracy": 0.41403508771929826,
    "Recall": 0.4812680115273775,
    "Recall Chroma": 0.6397694524495677,
    "TN": 62,
    "TO": 386,
    "TP": 198,
    "TPC": 105,
    "TPCch": 160,
    "TPI": 93,
    "TPIch": 38,
    "Voiced Chroma Accuracy": 0.5614035087719298,
    "Voiced Pitch Accuracy": 0.3684210526315789,
    "Voicing Accuracy": 0.6735751295336787,
    "Voicing Detection": 0.6947368421052632,
    "Voicing False Alarm": 0.38613861386138615
}