{
	"f0": [NaN,69.50409462,69.58871626,68.85928413,69.1441612,69.10371441,73.19320237,72.64253283,68.05320002,61.33862161,61.97723608,62.11357187,54.20158697,72.47738069,72.7038923,72.85319625,73.6811327,54.40938419,50.31283367,50.15132534,67.91576489,68.24081352,67.68699593,68.10502717,68.65073288,62.44014601,53.34892571,61.07325553,56.6493079,57.03642264,52.56410538,66.79823658,54.09418268,66.50528578,66.38840065,66.77474648,67.09094008,67.47790551,67.63438441,67.6815136,68.01340534,68.09926458,67.98390226,67.79413293,67.88951803,67.99607031,68.00158641,68.38707055,68.13860615,67.83565058,69.66169865,69.06118668,68.74404686,68.74270036,68.95905118,69.04753517,69.08655463,69.2138194,69.36379182,69.33806856,68.40949261,68.13600825,67.27328106,66.15609526,72.98263643,56.70420692,52.63608517,57.98495109,67.80747385,67.95686937,68.28956677,68.72526658,69.12576865,69.37694003,69.69493105,69.74564016,69.79948843,69.87264803,70.21975419,70.15113362,70.44218671,70.91412046,71.24654112,71.5519603,71.9592385,72.20705378,72.32757564,72.23999701,72.25066715,72.45939416,72.74259902,72.95484024,72.94869521,73.01858924,72.65102907,72.32157942,72.41264464,72.30898566,72.22673524,72.05149125,72.65188773,72.33040771,72.33040771,71.01443683,70.47371673,69.09317797,69.04344585,69.45176121,69.69776568,69.69378642,69.73473884,69.52382493,69.14744468,68.83384296,68.40330182,67.76695989,67.90971596,67.6944915,67.48650315,67.26011141,67.2701604,67.43730522,67.55978601,67.24687128,66.01549369,65.68134896,65.32005203,65.26034954,65.31345045,65.32828693,65.58985957,65.77610945,65.87847054,65.96179563,65.83833071,65.53373973,65.39933412,65.55085709,65.71393953,65.76933624,65.7400606,65.70115419,65.65401053,65.57703295,65.57119601,65.69941443,65.84292678,65.94584655,65.97770331,65.76611588,64.74386774,66.0979178,65.71026636,65.75622784,65.82735302,65.95088873,66.02817762,68.11145561,68.02315797,68.43345911,68.85150444,68.91933884,69.45789025,53.69660242,65.27274166,65.50816167,65.61394955,65.97095597,46.58498308,64.19354484,62.49074251,63.40740224,61.21841468,61.2013473,61.43262794,61.49547506,61.26088113,60.96382966,60.7398366,60.72896137,60.71430451,60.89700006,60.9652737,60.96860654,61.02800104,61.00420992,60.97631968,61.10424579,61.11807323,61.38716377,61.32047511,61.18019687,61.09838256,60.99878128,60.72553697,60.94114845,61.0873028,61.50395719,61.27992134,61.36429857,61.50333352,68.70423962,60.78090196,66.83233086,66.23625835,66.5822825,66.86587014,66.96721779,66.89531457,66.77254846,66.80367419,67.07675312,67.18215815,67.39513443,67.44872457,68.23796469,68.2126865,67.90748297,68.28915636,68.71909245,68.91830677,69.09289353,69.36180888,69.48734667,69.09767122,68.95853287,69.0407115,69.14479012,69.73807539,69.71093901,69.10271395,68.98336651,69.35643804,69.83122804,69.60769233,70.16354076,68.69965447,68.5540603,69.15909046,69.23297252,69.09716578,69.07312118,69.17624461,69.31930629,69.40065297,69.25762285,69.25200846,69.20115149,68.65047022,67.74354492,67.34342011,67.12562527,67.29842019,67.44708153,67.49667234,67.46346458,67.33934511,66.80390184,66.23393672,65.45366951,65.29069898,65.50778716,65.52833261,65.47897465,65.49715044,65.5681048,65.60671895,65.57043325,65.51792623,65.47806781,65.49328394,65.52132963,65.50407126,65.51638985,65.5339096,65.63223816,65.9049191,65.73542017,65.43962094,65.48109049,65.44323359,65.45615145,65.54530269,65.54622398,65.43512618,65.34408783,65.38198717,65.41637734,65.53845572,65.86046494,65.94761456,69.17399484,67.29252205,65.47290865,65.29630378,65.40889396,65.46216153,65.69907652,66.33497152,66.35012772,56.69965447,52.76526395,52.01414075,51.53104658,60.51587511,52.52083664,53.93156924,52.39532777,61.75217074,63.14399075,62.68429978,62.05756999,61.89689189,61.91839733,61.90431167,61.9187382,62.01221718,62.03796219,62.01030215,73.98301835,73.81233086,74.15444483,61.76665135,61.85171814,61.92928046,62.12182942,62.26626878,63.48682058,63.42161203,75.61261969,75.43582357,74.0660565,61.41583529,61.79963513,61.51015774,61.52483579,61.73042656,62.74661007,68.3545005,66.0979178,60.613912,61.13057246,61.82932394,61.83677829,52.19354484,64.93035138,64.47297802,63.05398686,62.73781484,63.11544595,62.76120005,62.15444483,62.14196593,63.32699616,61.39193805,66.14776544,66.32771132,64.55802863,64.1099838,65.69991543,65.3108577,74.15444483,76.93035138,76.93035138,76.93035138,76.93035138,76.93035138,76.93035138,76.93035138,76.93035138,76.93035138,76.93035138,76.93035138,76.93035138,76.93035138,76.93035138,76.93035138,76.93035138,76.93035138,76.93035138,76.93035138,76.93035138,76.93035138,76.93035138,76.93035138,76.93035138,76.93035138,76.93035138,76.93035138,76.93035138,76.93035138,76.93035138,76.93035138,76.93035138,76.93035138,76.93035138,76.93035138,76.93035138,76.93035138,76.93035138,76.93035138,76.93035138,76.93035138,76.93035138,76.93035138,76.93035138,76.93035138,76.93035138,76.93035138,76.93035138,76.93035138,76.93035138,76.93035138,76.93035138,76.93035138,76.93035138,76.93035138,76.93035138,76.93035138,76.93035138,76.93035138,76.93035138,76.93035138,76.93035138,76.93035138,76.93035138,76.93035138,76.93035138,76.93035138,76.93035138,76.93035138,76.93035138,76.93035138,76.93035138,76.93035138,76.93035138,76.93035138,76.93035138,76.93035138,76.93035138,76.93035138,76.93035138,76.93035138,76.93035138,76.93035138,76.93035138,76.93035138,76.93035138,76.93035138,76.93035138,76.93035138,76.93035138,76.93035138,76.93035138,76.93035138,76.93035138,76.93035138,76.93035138,76.93035138,76.93035138,76.93035138,76.93035138,76.93035138,76.93035138,76.93035138,76.93035138,76.93035138,76.93035138,76.93035138,76.93035138,76.93035138,76.93035138,76.93035138,76.93035138,76.93035138,76.93035138,76.93035138,76.93035138,76.93035138,76.93035138,76.93035138,76.93035138,76.93035138,76.93035138,76.93035138,76.93035138,76.93035138,76.93035138,NaN,NaN],
	"ap0": [NaN,0.6430477408,0.8646088351,0.7493772609,0.5473080702,0.6138258731,0.6876477659,0.6404459854,0.6384330023,0.6028036663,0.5519093654,0.6246968433,0.7920957837,0.7089065751,0.582561067,0.6252780223,0.7709975577,0.5344422718,0.5851704383,0.7128067414,0.611569996,0.5836337362,0.696817066,0.7052777254,0.6929605392,0.5286778529,0.596127248,0.7457075586,0.6839270588,0.7683325516,0.7303799769,0.5565032626,0.4929381025,0.3040300543,0.05932686242,0.04110816615,0.03606399086,0.04773517471,0.0284393613,0.01565949982,0.05236761214,0.04149864019,0.05623111689,0.1026728808,0.1310355972,0.1078406901,0.141271516,0.1551722741,0.1450472812,0.1530993496,0.3372460164,0.207509448,0.05911420452,0.03801136151,0.06953626622,0.07914113857,0.06550703101,0.06016717113,0.058150716,0.2109019074,0.1561444083,0.1979601441,0.454754083,0.5244388388,0.6262843646,0.5215872829,0.4567054454,0.7068985615,0.163661137,0.0968331246,0.0903591242,0.1217335652,0.1246408693,0.1298625784,0.1575032964,0.1193921823,0.1157631934,0.1664425744,0.3260277134,0.3033633084,0.1889502188,0.1624189949,0.113220589,0.08610786898,0.05323234421,0.03492350518,0.02450510885,0.02367874404,0.02880518109,0.04811532995,0.06860641829,0.04842286936,0.02461214546,0.03052672119,0.04448428905,0.02398809042,0.09293913702,0.09079782806,0.1039895442,0.1810162328,0.168575642,0.2689856495,0.3159637625,0.3136720352,0.2234046889,0.107488266,0.07960776849,0.07591581774,0.03361675597,0.04307870792,0.119109493,0.07123721425,0.04307651832,0.05139058147,0.1024764353,0.2692094138,0.3015682124,0.1372947792,0.06503478394,0.07167993506,0.05358132426,0.05260295477,0.06456179954,0.1425353753,0.2323087272,0.2870129763,0.1633987436,0.06835706742,0.03919412152,0.03417254351,0.0405052248,0.04298514364,0.05838234315,0.06882413946,0.08294499236,0.04291592512,0.01330534967,0.01300680239,0.01524618261,0.01444339463,0.01153695,0.01732278105,0.04385044356,0.1753567041,0.08584439626,0.04853345413,0.04097912674,0.03948608966,0.05753519413,0.1203864957,0.1310396791,0.3034247328,0.03607031145,0.01461029488,0.01780369457,0.0395955916,0.1817203118,0.6646126249,0.5916264595,0.5472387558,0.5819166511,0.6734505751,0.6712568641,0.5960460867,0.1348994226,0.1102153535,0.1872046941,0.3856948696,0.6899210612,0.6587472266,0.2851878889,0.3487644205,0.5989535727,0.0830226162,0.04319893762,0.06059661413,0.1344695265,0.09756567592,0.4205424087,0.3100061448,0.2252380727,0.1703004961,0.1013422741,0.04639208631,0.02280216967,0.03326241902,0.05129596298,0.05898193459,0.0858196213,0.08559912594,0.0770756472,0.09367228014,0.130076993,0.1289142492,0.2484590024,0.2536585245,0.06039951877,0.08791457056,0.06374103533,0.06564352473,0.1312143035,0.6274352762,0.5861685255,0.4830488365,0.07697711392,0.05685942978,0.03461896542,0.02860859533,0.03313211028,0.03867602692,0.09900101797,0.1854252566,0.1488574854,0.2997725385,0.1930533542,0.2005663565,0.1138992208,0.1270599125,0.2452706505,0.1459256167,0.07145527606,0.07114445038,0.08015741374,0.0852267853,0.229145759,0.1233509883,0.07240140049,0.06925074553,0.1062919684,0.1179795165,0.105471056,0.1298167214,0.2519014038,0.1521760848,0.1094684553,0.2740329262,0.5862813587,0.3036505565,0.3273305086,0.0713800952,0.08959786973,0.08203822123,0.05432869048,0.05629382808,0.07467303313,0.06205260228,0.02900198489,0.03010813801,0.09120891705,0.1090169382,0.08872784833,0.05369267665,0.035105885,0.03892569908,0.1754403836,0.06718922327,0.03650528272,0.04441853529,0.06603575831,0.04785291743,0.03351597673,0.01717389055,0.006300093946,0.008681195805,0.01101467263,0.01208313589,0.01260851449,0.009608735578,0.005186598985,0.004579903645,0.003927534234,0.001732261275,0.002373993134,0.005401126504,0.01875843466,0.06842123257,0.1050922891,0.2640127805,0.1092945917,0.03261525042,0.02193114316,0.02353979174,0.02774326596,0.0182936894,0.01048536275,0.007858711334,0.008155995197,0.01065526649,0.03725548597,0.1430007863,0.5368815753,0.6392372639,0.5334896859,0.2967970908,0.1206536985,0.07496365386,0.06563041171,0.1192360686,0.2252060652,0.4654010245,0.671334514,0.5348499242,0.4890249989,0.5408442242,0.7158202565,0.7358581956,0.7731303317,0.7498733402,0.2817163843,0.1998225199,0.2171588085,0.2277678188,0.1334896095,0.02528535003,0.01402752554,0.03413476609,0.04178008545,0.02727559682,0.01946359596,0.05422299384,0.1439660485,0.751621505,0.0736060983,0.07881955441,0.16025666,0.1627382003,0.1640247313,0.3707648214,0.4466728448,0.4199277726,0.5793439151,0.2668732771,0.2517447218,0.2961002418,0.4798949401,0.6467468818,0.422135031,0.818453428,0.756956703,0.507401922,0.6044658555,0.3109037141,0.2632176529,0.3108216748,0.532272785,0.4046384483,0.3084836478,0.2928834044,0.3364319322,0.2217828199,0.2880168781,0.138357523,0.1245201473,0.2895337811,0.6609299475,0.2951197888,0.308075081,0.3515255771,0.2312571097,0.3445321869,0.303457737,1,1,1,1,1,1,1,1,1,1,1,1,1,1,1,1,1,1,1,1,1,1,1,1,1,1,1,1,1,1,1,1,1,1,1,1,1,1,1,1,1,1,1,1,1,1,1,1,1,1,1,1,1,1,1,1,1,1,1,1,1,1,1,1,1,1,1,1,1,1,1,1,1,1,1,1,1,1,1,1,1,1,1,1,1,1,1,1,1,1,1,1,1,1,1,1,1,1,1,1,1,1,1,1,1,1,1,1,1,1,1,1,1,1,1,1,1,1,1,1,1,1,1,1,1,1,1,NaN,NaN],
	"ap": [NaN,0.683047933,0.4519582696,0.4887596185,0.608520426,0.3658707095,0.3635653197,0.2528510893,0.7723423901,0.6043101477,0.5125957988,0.5150650776,0.4478359074,0.3726879002,0.3391879392,0.423324728,0.2591493318,0.2158465219,0.4691162888,0.4254934445,0.5023060516,0.4887645539,0.1643862797,0.08720915948,0.3729737687,0.5956312386,0.5144338939,0.6472536905,0.4248778088,0.4914307422,0.4515535437,0.6454964157,0.3343446203,0.3696596008,0.587166223,0.06066703541,0.02731034249,0.01905345016,0.02232585497,0.0120857118,0.008345374945,0.03460123155,0.01642258448,0.02086743058,0.05102734944,0.196685004,0.02943018716,0.1626885137,0.02758098997,0.2036586946,0.1610311533,0.06064884045,0.3995060721,0.1009275089,0.01577391566,0.02183297661,0.03441502813,0.01943893095,0.005821408248,0.06558025771,0.05200820545,0.2441717671,0.1109067596,0.2360450062,0.3209231401,0.2200537883,0.4750794066,0.8905947609,0.4429143061,0.3725079399,0.04242319067,0.1046621737,0.07058070052,0.1100049391,0.03701766826,0.01935039986,0.09750888156,0.03161507248,0.07049639351,0.2045510778,0.07936515747,0.2037104665,0.08157341753,0.09755548054,0.0189862679,0.05686972321,0.02398428013,0.01174654614,0.006328506938,0.007526207631,0.01301262826,0.06950495772,0.01357088807,0.004104068538,0.01557102888,0.03198897811,0.007981183851,0.04159027258,0.1031853712,0.08292173036,0.03354127855,0.1037247041,0.2341003237,0.124390587,0.04429463022,0.3504031409,0.03303758636,0.01799085817,0.0567380398,0.04175324267,0.007519129106,0.05976040116,0.2596688411,0.07107730231,0.009378251088,0.0203035793,0.09049177824,0.08659354612,0.267576716,0.03399975253,0.08183149339,0.04890012735,0.05573006946,0.03170255622,0.1516129425,0.0740221363,0.01876991062,0.190045408,0.00698377579,0.2002592973,0.002819900375,0.03820596902,0.002582740066,0.0686089001,0.03374586142,0.04652713618,0.06266683001,0.01885916478,0.007375308705,0.009347262459,0.006187121627,0.002177488395,0.02410241951,0.007383267202,0.05754889959,0.068333295,0.008533534315,0.01164008169,0.006591300439,0.07394594733,0.1926376081,0.06535011439,0.0585055668,0.08940580025,0.0211233097,0.006230221094,0.100759798,0.1685774147,0.246037562,0.6425892067,0.2706774053,0.1781193195,0.2103658096,0.2800790437,0.3412246736,0.3602687198,0.007314104526,0.2290019098,0.2961814868,0.925481226,0.7886004161,0.3185713042,0.1065736833,0.2562276441,0.3353442678,0.01385453477,0.01833893106,0.1125636186,0.07865519894,0.1772489953,0.120227023,0.1679437084,0.138599101,0.04569554128,0.02436157437,0.02261142444,0.01779852669,0.02234264894,0.01321421224,0.03881080673,0.03847092635,0.04869376261,0.04037900838,0.03389155579,0.06255604039,0.4517304205,0.4976225548,0.09598253583,0.02471597992,0.1687058488,0.01909867954,0.5735134524,0.5274231528,0.5050316418,0.458111808,0.1813698536,0.02770320792,0.04098536405,0.0038259829,0.007186898495,0.01783441627,0.007717241118,0.2019366124,0.01294595779,0.2115788174,0.6075115667,0.09428788019,0.03202066768,0.03732375649,0.06457116589,0.02848585275,0.1157677602,0.05700881175,0.0431440061,0.06343007434,0.2404890183,0.1127613461,0.03559109412,0.04538938358,0.03715253741,0.1436891888,0.2607848732,0.01590158738,0.0482970895,0.3257244544,0.0568740933,0.2400492842,0.5459284542,0.4404170974,0.1759951962,0.1959289196,0.006018425853,0.04522320631,0.02383477058,0.01718912116,0.00733305881,0.06952643863,0.009542225307,0.0109269844,0.181395741,0.09174316983,0.08195480809,0.02392103881,0.01986770867,0.009627683997,0.3088254653,0.05131792827,0.04566561574,0.02184290545,0.08446341474,0.01581611898,0.005894359152,0.01182442857,0.001353898812,0.008175466084,0.004383894771,0.003885402017,0.00510475803,0.005160629626,0.002996585433,0.0006037957929,0.001123396503,0.001288088304,0.0006088022454,0.001121644097,0.005072259629,0.04499166989,0.1836068103,0.1886695007,0.1326187569,0.0153162057,0.002998090726,0.003727940569,0.01410915677,0.02959050518,0.01383742347,0.003935508786,0.004096500917,0.006126483311,0.01297528563,0.07135015108,0.2691447262,0.2629058617,0.5271698634,0.1870321044,0.152006629,0.09292101134,0.02009380419,0.07898721465,0.0692131,0.4879746772,0.1731632602,0.227811477,0.2300509827,0.1452766911,0.6714421315,0.2131347244,0.4912086458,0.2691302803,0.5295023343,0.09054078461,0.08990802886,0.03354852594,0.2144774531,0.01764357562,0.008179008246,0.004130242859,0.01332125555,0.01244676019,0.02988673794,0.04702145836,0.0242551618,0.09546349233,0.05966182411,0.01675425408,0.07555281779,0.2342764257,0.1523955877,0.1174847486,0.460234942,0.4623930286,0.4705916563,0.3422877801,0.09629759704,0.1756657676,0.2634962042,0.3044349882,0.3706416261,0.6276011409,0.5207757777,0.7126909713,0.4880542019,0.4208205279,0.01828653058,0.7144689796,0.582936748,0.2209735196,0.3809145888,0.1640264294,0.2361669167,0.05923520355,0.0958636196,0.04255071314,0.106039403,0.6913608424,0.2859233894,0.9232623771,0.2036502275,0.5283431889,0.1489472388,0.03306548843,1,1,1,1,1,1,1,1,1,1,1,1,1,1,1,1,1,1,1,1,1,1,1,1,1,1,1,1,1,1,1,1,1,1,1,1,1,1,1,1,1,1,1,1,1,1,1,1,1,1,1,1,1,1,1,1,1,1,1,1,1,1,1,1,1,1,1,1,1,1,1,1,1,1,1,1,1,1,1,1,1,1,1,1,1,1,1,1,1,1,1,1,1,1,1,1,1,1,1,1,1,1,1,1,1,1,1,1,1,1,1,1,1,1,1,1,1,1,1,1,1,1,1,1,1,1,1,NaN,NaN],
	"pwr": [NaN,6.152169832e-07,2.22960237e-07,1.067002947e-06,3.883873097e-06,1.424177868e-06,6.392905985e-06,1.359099827e-05,6.584706489e-06,1.423161493e-05,2.503461768e-05,6.065342499e-06,1.233998305e-05,9.977750639e-06,1.033847413e-05,1.423726151e-05,1.674765103e-05,1.873032055e-05,3.633659539e-05,1.645286277e-05,1.744937906e-05,6.949822704e-06,4.220343821e-05,3.651962578e-05,3.271217756e-05,2.900931643e-05,2.546368381e-05,2.34957523e-06,2.385595643e-06,5.189730228e-06,1.365471331e-05,1.417288321e-05,0.0001188990851,0.000417405246,0.0007613343621,0.00381264944,0.03401523896,0.03219119374,0.01900529176,0.08882180597,0.0785322511,0.006274122224,0.01339770695,0.04520852796,0.02926308927,0.004506779562,0.01117604018,0.005411360839,0.01601214754,0.005236761564,0.01035798831,0.001524229835,0.0006142451463,0.00850293127,0.02881545424,0.006408299698,0.004241450062,0.005132886704,0.03039849572,0.01116015539,0.0003612439182,0.001607231459,0.01492322179,0.02982975807,0.001776393522,0.003756964131,0.002313501456,0.0008078661485,0.0001877525368,0.0002195466844,0.008837488825,0.01639317505,0.01034358433,0.008319420413,0.01220305323,0.01033565065,0.01314364296,0.01147018486,0.01452189115,0.00304261236,0.001358841092,0.001854029852,0.003102230249,0.003141697523,0.005365950962,0.007336599373,0.02169089448,0.01227356341,0.01533346614,0.04127470334,0.0141377569,0.001745147185,0.005849207267,0.008249157608,0.01450399005,0.002752544483,0.01928051324,0.00158145373,0.001936316663,0.01034392932,0.001998635423,0.0001231802841,0.0002724920652,8.827862807e-05,0.0001116164731,0.0001395306737,0.005092989781,0.04013523719,0.007243024371,0.008592342122,0.02514347647,0.004553194018,0.001787519613,0.04304966929,0.05226263282,0.04013427759,0.009604339693,0.004484164444,0.009577135747,0.02915942916,0.01723969109,0.0390204319,0.08196003772,0.03452023593,0.001783279197,0.002276187688,0.01076909167,0.001803258031,0.006736554077,0.001833513492,0.01710841653,0.01502746984,0.05622737598,0.006476408032,0.005442536,0.001344466049,0.002407489327,0.008435124477,0.03882189437,0.04546876219,0.01459765207,0.01288403645,0.007769831183,0.001635617134,0.000424749876,0.0002512134039,0.001458376415,0.002643034536,0.002324111066,0.0009763452567,0.0001701450801,6.779134788e-05,3.027408403e-06,1.126170257e-05,0.00114861758,0.003622043588,0.001464188211,1.630399708e-05,1.536334348e-05,4.48911778e-05,2.316503201e-05,3.807255906e-05,3.745950634e-05,1.91294916e-05,1.693465506e-05,1.18083023e-05,6.972932629e-05,8.509781141e-06,0.0001044991028,0.0001118000328,2.628301808e-05,0.0002268741697,8.009823056e-05,0.0004817776715,0.00346146643,0.07822517119,0.1148009682,0.02020890751,0.01475167244,0.002270310432,0.00220842744,0.004274261441,0.010221301,0.009336352198,0.01908743582,0.02462047074,0.01617423095,0.007421727519,0.005686287141,0.005102768252,0.003893591456,0.01625535976,0.002736752129,0.003374700025,0.004456213376,0.0009205051124,7.059481573e-05,0.0004789341202,0.0004459311558,0.0002858916072,0.004744931959,0.001198217098,0.0001016437344,0.0003336412221,0.00029971887,0.00156736957,0.05909567762,0.09913190149,0.1717292622,0.1130463609,0.06259008847,0.01098420785,0.0005193861316,0.004224544494,0.002804165828,0.004337876259,0.1046210721,0.02985649082,0.05971955498,0.01592907322,0.02015181102,0.004711457887,0.05820925618,0.02849556939,0.03509593982,0.0004525972955,0.0008890049437,0.004339760791,0.005093401981,0.004218915065,0.002769116995,0.001223610495,0.001612521798,0.001212551058,0.0004764646972,0.001280732681,3.994481537e-05,3.024590114e-05,2.332459632e-05,0.0001275898602,0.0005628910435,0.01752504622,0.006326476069,0.0157836541,0.007772979434,0.003870305185,0.001989543788,0.00877314291,0.008296720791,0.001531823078,0.003043152194,0.006147510424,0.009943800961,0.01272208239,0.01065691881,0.0003371112228,0.0004230558969,0.003154397399,0.008302787229,0.03466880656,0.03863131945,0.04184031094,0.02810382577,0.07025986028,0.05142459746,0.02259288924,0.06754883257,0.04043333961,0.01619103854,0.02548364547,0.0348367697,0.05216750983,0.05494146878,0.04817453636,0.02514215891,0.01817061852,0.008743415022,0.001017559941,0.0003803274997,0.0002474989721,0.0006558264393,0.001252006639,0.0004969211163,0.0005319171252,0.0005452571174,0.0007281182693,0.001065596095,0.001975492017,0.002260629343,0.0007700737705,0.0001492672192,8.784441484e-06,4.038456119e-06,4.139194259e-06,8.858570679e-06,1.274940794e-05,5.947221324e-05,0.0001583366157,8.227864231e-05,6.801081869e-05,4.562841905e-06,7.432630054e-07,2.402392187e-07,2.528859336e-07,1.784234367e-06,6.0300233e-07,2.668526089e-07,1.284544306e-06,2.808862289e-06,1.118565207e-05,0.0002630473137,0.007713552818,0.0102757175,0.002752512839,0.003834711517,0.01783186968,0.02645778173,0.02850944379,0.0287572266,0.05941974716,0.07177850189,0.01847420541,0.002080839448,0.001184712939,0.008563137851,0.006574260571,0.003548213834,0.007491527006,0.001995449112,0.0009937641676,2.34992038e-05,5.898134546e-06,2.943839636e-05,0.0002232240771,3.601659639e-05,8.555979626e-05,6.788211457e-05,1.57302594e-05,1.328255714e-05,7.392169886e-07,6.412562859e-07,1.038853517e-06,8.101659067e-07,5.629603666e-06,4.808509402e-06,3.311459137e-07,1.411502873e-06,4.333191158e-07,2.949772651e-07,8.127555016e-08,3.577010506e-07,1.611403638e-07,2.758805062e-07,1.059785621e-06,7.132381847e-08,6.667837648e-09,5.362432955e-09,3.069029883e-08,1.169452677e-08,1.342877195e-08,4.53243653e-09,0,0,0,0,0,0,0,0,0,0,0,0,0,0,0,0,0,0,0,0,0,0,0,0,0,0,0,0,0,0,0,0,0,0,0,0,0,0,0,0,0,0,0,0,0,0,0,0,0,0,0,0,0,0,0,0,0,0,0,0,0,0,0,0,0,0,0,0,0,0,0,0,0,0,0,0,0,0,0,0,0,0,0,0,0,0,0,0,0,0,0,0,0,0,0,0,0,0,0,0,0,0,0,0,0,0,0,0,0,0,0,0,0,0,0,0,0,0,0,0,0,0,0,0,0,0,0,NaN,NaN],
	"sr": 16000,
	"range": [1,156928],
	"minf0": 63.1883,
	"maxf0": 706.3069,
	"thresh": 0.1,
	"relflag": 1,
	"hop": 320,
	"bufsize": 10000,
	"wsize": 640,
	"lpf": 4000,
	"shift": 0,
	"plotthreshold": 0.2
}
