{
    "f0": [
        0.0,
        53.950308840273976,
        53.950308840273976,
        53.243581756112313,
        49.14713290952632,
        44.113526049523387,
        40.951562428301003,
        52.836351184993575,
        49.321452019009776,
        47.591402499012773,
        44.732170574471532,
        41.022006028865199,
        52.791556481004733,
        54.586533673398499,
        54.797439039775028,
        52.401752954253865,
        53.105386594778345,
        53.254742179948963,
        53.838238647828682,
        54.872347653412959,
        54.739787199192016,
        49.820023450814745,
        41.84048126934487,
        42.793679062621948,
        52.985071284593737,
        53.591621325997281,
        53.358332760674379,
        52.790645404474859,
        49.068049315380335,
        47.641987779391684,
        42.531580714451472,
        62.364908897553718,
        41.587062214314287,
        49.32310030057161,
        53.066682453219393,
        44.44636292683267,
        50.058470458827145,
        0.0,
        42.061414929854003,
        41.425678141681296,
        60.44086270848743,
        44.398841789095023,
        60.000408853334413,
        56.937631198141261,
        58.006318323152996,
        59.012854630633335,
        58.40909960256382,
        56.794694469098559,
        56.577816349031671,
        57.045605661548002,
        56.959895346181611,
        57.38381591628773,
        58.000884991297362,
        58.149053726809299,
        57.812626831329666,
        56.732843721891925,
        56.987552123839251,
        58.008978226470695,
        58.439427303076329,
        57.835227988237477,
        58.070468983869404,
        58.143952808953372,
        58.217124869434727,
        58.115992711812027,
        57.838270206579182,
        57.817953450318669,
        57.926621652522144,
        58.210417100173103,
        58.40336057087157,
        58.809161580126371,
        59.612677880288054,
        61.031742393174255,
        61.156444071326426,
        61.280252093167896,
        61.053425833265948,
        61.324905591448498,
        61.573286670678961,
        61.653483810091053,
        61.987731014113621,
        62.069368649294411,
        62.150623122229966,
        62.231492661220479,
        62.311986255400207,
        62.392102024414037,
        62.297858890952227,
        62.261540242410931,
        62.368149863540793,
        62.657972320634002,
        62.146112035665702,
        61.618655695380525,
        60.367901010670799,
        59.055499310123068,
        59.34922579652919,
        59.747406288786934,
        60.321112531371668,
        60.080609804646258,
        60.054236161836634,
        59.745242279348204,
        59.844700033598841,
        60.220986803206301,
        60.45404365577685,
        60.223534664327978,
        60.060197929760086,
        59.487005207657546,
        58.218640215491483,
        56.512055070665241,
        54.091340747664589,
        54.56450682338015,
        55.02508526894723,
        55.249317287218801,
        55.581822523946187,
        54.61585551668523,
        54.750837455445009,
        55.973318514638706,
        55.198788747147859,
        55.129448728287613,
        55.203301075570437,
        55.344178150810521,
        54.92323273868665,
        54.960481363270723,
        55.065394855811377,
        55.136038602175461,
        55.206393858290326,
        55.188454208675829,
        55.520968354732183,
        55.499837680240859,
        55.239392969133711,
        55.269130174450979,
        55.672612429807089,
        55.815624011519617,
        55.295439367732946,
        55.566129420180829,
        55.733206813666392,
        55.060000371796662,
        55.242334462286721,
        54.809711734780308,
        55.015532538962361,
        55.534369887371952,
        55.250880841550497,
        50.231260155406275,
        53.445405357681523,
        53.305746167132185,
        53.162514409542979,
        53.362148094880688,
        54.29430876030645,
        55.093951073528679,
        54.408147116836219,
        59.567556497422721,
        43.476356534550078,
        55.381184283452967,
        54.85761229544029,
        54.829437816284184,
        54.995196517327805,
        54.904354685772127,
        55.252085689361529,
        55.07137167490432,
        55.418833745341132,
        55.091177299623268,
        55.695950743131291,
        56.077859302844345,
        57.395556180680643,
        56.739039716399446,
        56.745159145252558,
        56.767047698777489,
        55.36570668364439,
        56.477720523235526,
        57.428016412938973,
        56.958483505670387,
        56.071017866285764,
        56.768969213364436,
        56.79254007168457,
        56.816081188219194,
        58.030214874606827,
        58.443380378606349,
        58.187938641958276,
        58.115396044254815,
        58.291874658906153,
        58.604667608819881,
        58.316892935703194,
        57.868944424802834,
        58.000748998746367,
        58.399809226632399,
        57.952535545910962,
        59.289807292578899,
        56.246259847309751,
        56.604804903129825,
        56.646531418465855,
        57.015512774115294,
        57.560099475530194,
        57.609088694832067,
        57.657941951768933,
        57.35690187761297,
        57.363881526641208,
        57.370858362885755,
        56.671106458190451,
        57.435045884019473,
        58.198668960652327,
        57.727321930129499,
        57.783629126949457,
        57.728307418936978,
        57.744627242082743,
        58.094273887293724,
        58.617227426741849,
        57.652768200235911,
        40.371917613246666,
        40.390216835815295,
        40.770186394702968,
        51.904464530099929,
        52.52689163328057,
        64.51291023034274,
        64.586648437064198,
        64.393425883541553,
        64.487434964817069,
        65.000893015644166,
        65.296815250454614,
        65.337989641792376,
        64.967927051757755,
        65.00447188974114,
        64.206304634156339,
        63.790445467285984,
        63.492771536101749,
        62.950670756708824,
        63.026733207781795,
        63.824272080730381,
        65.493334521917788,
        62.792227826519131,
        62.511029297753552,
        63.647387884310703,
        63.568895042973104,
        62.394272214442843,
        60.669970092955076,
        62.732024796736013,
        62.713632419397769,
        63.139945401602134,
        63.233720194518206,
        62.960700013002885,
        62.683305092438808,
        62.744220361918067,
        62.084541162183157,
        61.576819353196846,
        58.846952702171762,
        58.502611307088472,
        58.32354733750303,
        57.528469633739981,
        57.864709448637242,
        57.764428146026134,
        57.896510209474656,
        57.949115546883803,
        58.383555917084358,
        58.405889357349963,
        58.455839156779447,
        58.491866219108772,
        57.827969988024392,
        58.014603829964727,
        57.983967892637793,
        57.772544300095717,
        57.99306230919926,
        61.58655827340754,
        41.33358128215702,
        41.671194684068361,
        47.344077435935063,
        47.834150205592088,
        47.960978291351061,
        48.217116441331839,
        48.469522112698904,
        48.890563583238148,
        49.389980343741918,
        49.658486575986934,
        49.929067514516071,
        50.018450510353212,
        49.938427938777096,
        50.028360851982811,
        50.170711670370636,
        50.285693254139829,
        50.238941606937644,
        50.232557773657952,
        50.378196568636596,
        49.943112641573009,
        49.987478987663536,
        50.264676603559174,
        59.304945147407246,
        58.731820903157278,
        59.395083184522889,
        59.514286740387746,
        60.064910331596671,
        59.979841525102586,
        59.935052042682031,
        59.890148380682767,
        59.845123874667671,
        59.799983975474497,
        59.754726138649403,
        60.052176670992964,
        60.06007718859874,
        60.036765761190566,
        59.693328194971372,
        59.507000598678374,
        58.886155107927088,
        58.640265420954243,
        59.377568737941544,
        59.354659733954037,
        58.443655415243235,
        58.974042384613,
        58.582983785673413,
        59.840870972490194,
        60.066517761573436,
        60.235864094019,
        60.080278172153243,
        61.084940485742187,
        62.034484642978036,
        62.04663783339511,
        61.62016004294253,
        61.1668999157922,
        61.052509941453621,
        61.894203473247195,
        60.539832209098059,
        37.253917340062308,
        54.366094124640263,
        0.0,
        47.847328375258932,
        0.0,
        0.0,
        0.0,
        0.0,
        0.0,
        0.0,
        0.0,
        0.0,
        0.0,
        0.0,
        0.0,
        0.0,
        0.0,
        0.0,
        0.0,
        0.0,
        0.0,
        0.0,
        0.0,
        0.0,
        0.0,
        0.0,
        0.0,
        0.0,
        0.0
    ],
    "time": [
        0.02,
        0.040000000000000001,
        0.059999999999999998,
        0.080000000000000002,
        0.10000000000000001,
        0.12,
        0.14000000000000001,
        0.16,
        0.17999999999999999,
        0.20000000000000001,
        0.22,
        0.23999999999999999,
        0.26000000000000001,
        0.28000000000000003,
        0.29999999999999999,
        0.32000000000000001,
        0.34000000000000002,
        0.35999999999999999,
        0.38,
        0.40000000000000002,
        0.41999999999999998,
        0.44,
        0.46000000000000002,
        0.47999999999999998,
        0.5,
        0.52000000000000002,
        0.54000000000000004,
        0.56000000000000005,
        0.57999999999999996,
        0.59999999999999998,
        0.62,
        0.64000000000000001,
        0.66000000000000003,
        0.68000000000000005,
        0.69999999999999996,
        0.71999999999999997,
        0.73999999999999999,
        0.76000000000000001,
        0.78000000000000003,
        0.80000000000000004,
        0.81999999999999995,
        0.83999999999999997,
        0.85999999999999999,
        0.88,
        0.90000000000000002,
        0.92000000000000004,
        0.93999999999999995,
        0.95999999999999996,
        0.97999999999999998,
        1.0,
        1.02,
        1.04,
        1.0600000000000001,
        1.0800000000000001,
        1.1000000000000001,
        1.1200000000000001,
        1.1399999999999999,
        1.1599999999999999,
        1.1799999999999999,
        1.2,
        1.22,
        1.24,
        1.26,
        1.28,
        1.3,
        1.3200000000000001,
        1.3400000000000001,
        1.3600000000000001,
        1.3799999999999999,
        1.3999999999999999,
        1.4199999999999999,
        1.4399999999999999,
        1.46,
        1.48,
        1.5,
        1.52,
        1.54,
        1.5600000000000001,
        1.5800000000000001,
        1.6000000000000001,
        1.6200000000000001,
        1.6399999999999999,
        1.6599999999999999,
        1.6799999999999999,
        1.7,
        1.72,
        1.74,
        1.76,
        1.78,
        1.8,
        1.8200000000000001,
        1.8400000000000001,
        1.8600000000000001,
        1.8799999999999999,
        1.8999999999999999,
        1.9199999999999999,
        1.9399999999999999,
        1.96,
        1.98,
        2.0,
        2.02,
        2.04,
        2.0600000000000001,
        2.0800000000000001,
        2.1000000000000001,
        2.1200000000000001,
        2.1400000000000001,
        2.1600000000000001,
        2.1800000000000002,
        2.2000000000000002,
        2.2200000000000002,
        2.2400000000000002,
        2.2599999999999998,
        2.2799999999999998,
        2.2999999999999998,
        2.3199999999999998,
        2.3399999999999999,
        2.3599999999999999,
        2.3799999999999999,
        2.3999999999999999,
        2.4199999999999999,
        2.4399999999999999,
        2.46,
        2.48,
        2.5,
        2.52,
        2.54,
        2.5600000000000001,
        2.5800000000000001,
        2.6000000000000001,
        2.6200000000000001,
        2.6400000000000001,
        2.6600000000000001,
        2.6800000000000002,
        2.7000000000000002,
        2.7200000000000002,
        2.7400000000000002,
        2.7599999999999998,
        2.7799999999999998,
        2.7999999999999998,
        2.8199999999999998,
        2.8399999999999999,
        2.8599999999999999,
        2.8799999999999999,
        2.8999999999999999,
        2.9199999999999999,
        2.9399999999999999,
        2.96,
        2.98,
        3.0,
        3.02,
        3.04,
        3.0600000000000001,
        3.0800000000000001,
        3.1000000000000001,
        3.1200000000000001,
        3.1400000000000001,
        3.1600000000000001,
        3.1800000000000002,
        3.2000000000000002,
        3.2200000000000002,
        3.2400000000000002,
        3.2599999999999998,
        3.2799999999999998,
        3.2999999999999998,
        3.3199999999999998,
        3.3399999999999999,
        3.3599999999999999,
        3.3799999999999999,
        3.3999999999999999,
        3.4199999999999999,
        3.4399999999999999,
        3.46,
        3.48,
        3.5,
        3.52,
        3.54,
        3.5600000000000001,
        3.5800000000000001,
        3.6000000000000001,
        3.6200000000000001,
        3.6400000000000001,
        3.6600000000000001,
        3.6800000000000002,
        3.7000000000000002,
        3.7200000000000002,
        3.7400000000000002,
        3.7599999999999998,
        3.7799999999999998,
        3.7999999999999998,
        3.8199999999999998,
        3.8399999999999999,
        3.8599999999999999,
        3.8799999999999999,
        3.8999999999999999,
        3.9199999999999999,
        3.9399999999999999,
        3.96,
        3.98,
        4.0,
        4.0199999999999996,
        4.04,
        4.0599999999999996,
        4.0800000000000001,
        4.0999999999999996,
        4.1200000000000001,
        4.1399999999999997,
        4.1600000000000001,
        4.1799999999999997,
        4.2000000000000002,
        4.2199999999999998,
        4.2400000000000002,
        4.2599999999999998,
        4.2800000000000002,
        4.2999999999999998,
        4.3200000000000003,
        4.3399999999999999,
        4.3600000000000003,
        4.3799999999999999,
        4.4000000000000004,
        4.4199999999999999,
        4.4400000000000004,
        4.46,
        4.4800000000000004,
        4.5,
        4.5199999999999996,
        4.54,
        4.5599999999999996,
        4.5800000000000001,
        4.5999999999999996,
        4.6200000000000001,
        4.6399999999999997,
        4.6600000000000001,
        4.6799999999999997,
        4.7000000000000002,
        4.7199999999999998,
        4.7400000000000002,
        4.7599999999999998,
        4.7800000000000002,
        4.7999999999999998,
        4.8200000000000003,
        4.8399999999999999,
        4.8600000000000003,
        4.8799999999999999,
        4.9000000000000004,
        4.9199999999999999,
        4.9400000000000004,
        4.96,
        4.9800000000000004,
        5.0,
        5.0199999999999996,
        5.04,
        5.0599999999999996,
        5.0800000000000001,
        5.0999999999999996,
        5.1200000000000001,
        5.1399999999999997,
        5.1600000000000001,
        5.1799999999999997,
        5.2000000000000002,
        5.2199999999999998,
        5.2400000000000002,
        5.2599999999999998,
        5.2800000000000002,
        5.2999999999999998,
        5.3200000000000003,
        5.3399999999999999,
        5.3600000000000003,
        5.3799999999999999,
        5.4000000000000004,
        5.4199999999999999,
        5.4400000000000004,
        5.46,
        5.4800000000000004,
        5.5,
        5.5199999999999996,
        5.54,
        5.5599999999999996,
        5.5800000000000001,
        5.5999999999999996,
        5.6200000000000001,
        5.6399999999999997,
        5.6600000000000001,
        5.6799999999999997,
        5.7000000000000002,
        5.7199999999999998,
        5.7400000000000002,
        5.7599999999999998,
        5.7800000000000002,
        5.7999999999999998,
        5.8200000000000003,
        5.8399999999999999,
        5.8600000000000003,
        5.8799999999999999,
        5.9000000000000004,
        5.9199999999999999,
        5.9400000000000004,
        5.96,
        5.9800000000000004,
        6.0,
        6.0199999999999996,
        6.04,
        6.0599999999999996,
        6.0800000000000001,
        6.0999999999999996,
        6.1200000000000001,
        6.1399999999999997,
        6.1600000000000001,
        6.1799999999999997,
        6.2000000000000002,
        6.2199999999999998,
        6.2400000000000002,
        6.2599999999999998,
        6.2800000000000002,
        6.2999999999999998,
        6.3200000000000003,
        6.3399999999999999,
        6.3600000000000003,
        6.3799999999999999,
        6.4000000000000004,
        6.4199999999999999,
        6.4400000000000004,
        6.46,
        6.4800000000000004,
        6.5,
        6.5199999999999996,
        6.54,
        6.5599999999999996,
        6.5800000000000001,
        6.5999999999999996,
        6.6200000000000001,
        6.6399999999999997,
        6.6600000000000001,
        6.6799999999999997,
        6.7000000000000002,
        6.7199999999999998,
        6.7400000000000002,
        6.7599999999999998,
        6.7800000000000002,
        6.7999999999999998,
        6.8200000000000003,
        6.8399999999999999,
        6.8600000000000003,
        6.8799999999999999
    ]
}