{
    "DU": 302,
    "DV": 218,
    "F-measure": 0.7858627858627858,
    "F-measure Chroma": 0.9043659043659045,
    "FN": 48,
    "FNC": 16,
    "FNCch": 34,
    "FNI": 32,
    "FNIch": 14,
    "FP": 30,
    "GU": 284,
    "GV": 236,
    "Overall Accuracy": 0.7269230769230769,
    "Overall Chroma Accuracy": 0.8365384615384616,
    "Precision": 0.8008474576271186,
    "Precision Chroma": 0.9216101694915254,
    "Raw Chroma Accuracy": 0.9110169491525424,
    "Raw Pitch Accuracy": 0.5932203389830508,
    "Recall": 0.7714285714285715,
    "Recall Chroma": 0.8877551020408163,
    "TN": 254,
    "TO": 520,
    "TP": 188,
    "TPC": 124,
    "TPCch": 181,
    "TPI": 64,
    "TPIch": 7,
    "Voiced Chroma Accuracy": 0.7669491525423728,
    "Voiced Pitch Accuracy": 0.5254237288135594,
    "Voicing Accuracy": 0.85,
    "Voicing Detection": 0.7966101694915254,
    "Voicing False Alarm": 0.1056338028169014
}