{
    "f0": [
        50.782680004264712,
        43.121092426162527,
        54.633296918632816,
        41.163695267505418,
        51.362737640616402,
        45.552978689713186,
        45.038694189312906,
        35.996297050747941,
        39.568556461118021,
        53.374985256034577,
        64.701580734870703,
        43.898655147154926,
        43.32482793533719,
        50.793934336359499,
        35.281162071221544,
        41.650284996565766,
        42.849787159737183,
        49.7910273035844,
        49.603752080774015,
        49.919062128338169,
        50.465553742460379,
        50.706894509301264,
        51.260019921229883,
        51.469994978773883,
        51.677452101099597,
        51.882457603975404,
        51.735303978484879,
        51.934575131530195,
        52.131578679415057,
        52.013897498654643,
        52.197840161646326,
        52.379850514485874,
        53.404636703021254,
        53.977889546336172,
        54.550794737327678,
        55.105348304534047,
        55.468693484560646,
        55.494358177650909,
        55.685631568185535,
        55.619097104218248,
        55.601801568507291,
        55.587013911340222,
        55.572217457810247,
        55.729669254741786,
        55.812062041473723,
        55.93075160895404,
        56.030419224448082,
        55.964584848078204,
        55.80023934500003,
        55.856259392561952,
        55.940881077255327,
        55.836783855216183,
        55.873914010417018,
        55.910965875381507,
        55.94793994924509,
        55.810837721559267,
        55.882112074261613,
        55.880555730587773,
        55.686143249908667,
        56.2663176695321,
        56.490053055676725,
        55.99042395784133,
        56.050345477041077,
        55.815860624354031,
        55.764883815645625,
        55.886232015932443,
        55.904546905802206,
        55.796464411504232,
        55.855889998869102,
        56.195537864232463,
        56.041923392279628,
        56.206727983988898,
        55.8043325230405,
        55.665463750480619,
        55.757348715426133,
        55.216645905663427,
        56.523999113059709,
        56.25334321142816,
        56.031887258105854,
        56.123310516446125,
        55.961113310055282,
        56.031135447349797,
        56.210159353736685,
        56.333351642915758,
        56.455674801823271,
        56.749401634741901,
        56.779738922034774,
        56.810023220311166,
        57.177475677781075,
        57.198974259566626,
        57.390220005361428,
        57.579377379917226,
        57.938753773891193,
        57.856884442748473,
        57.946886306799584,
        57.743494250453857,
        57.132015127700882,
        56.921736050457071,
        56.495750545188983,
        56.340892324662413,
        54.829211861527398,
        53.716944783903998,
        52.750734599107368,
        55.428910817755479,
        54.321624772921844,
        54.892808054594987,
        54.713604475487188,
        56.681876043145174,
        57.408013212600494,
        53.137987044961818,
        55.58866841311103,
        55.478293161865096,
        55.44003711017065,
        55.365239496210307,
        55.290117404765247,
        55.214669142102586,
        55.311157217443039,
        55.275949723039204,
        54.380165529019152,
        54.40692951864817,
        55.681283488628758,
        56.122926495618387,
        55.8090318475777,
        55.691787809698027,
        55.644388053717201,
        55.733736479260372,
        55.938467071560204,
        55.909662878706236,
        55.829822133167767,
        55.85987388989362,
        55.932718502255021,
        55.851173777999307,
        55.865247924603565,
        55.844221711019628,
        55.886019441632314,
        55.867258147379715,
        55.960350815267745,
        55.845338438717491,
        55.886488142257669,
        55.722369495534657,
        55.101923846486557,
        54.695890011358699,
        53.573378822127189,
        53.434324472880306,
        55.541354759780845,
        55.705163900979898,
        56.210528842767197,
        55.128846679009797,
        54.293811746518941,
        53.421774799511809,
        51.395711705306312,
        46.48494788585743,
        46.43659169198807,
        59.96195988839942,
        0.0,
        36.476835569079647,
        50.252723499589578,
        48.347265092033354,
        46.378107745134258,
        50.860235739350202,
        50.541230720245139,
        46.166019137089314,
        41.149260745694193,
        53.515104023632851,
        43.715777993473829,
        47.995963733030564,
        51.424930019729295,
        40.84147883094699,
        53.077154710264793,
        46.41230932513669,
        34.313721127148398,
        0.0,
        0.0,
        40.230230754063115,
        45.98711439071942,
        52.274867073684803,
        48.542697584491947,
        47.431503281933189,
        46.120284762507495,
        44.701559199188324,
        42.989982327429331,
        0.0,
        0.0,
        40.591692613233292,
        51.8565329187266,
        53.037567703147644,
        53.716574651462203,
        52.132956137946636,
        50.389760890129253,
        48.62344852897278,
        46.032629131238103,
        44.540240057542746,
        43.283296831751926,
        41.725427979145167,
        41.602105333363369,
        0.0,
        52.545164460810547,
        41.072780422375786,
        51.321524972425706,
        47.216352175682303,
        52.872633547120934,
        53.241454442106317,
        45.276101653221218,
        48.751577337700681,
        42.979871837114352,
        62.294452597648075,
        46.348537607820049,
        50.408867565350718,
        39.614356024249261,
        51.260398027376539,
        44.55575982298889,
        45.857184908239546,
        39.749877012448906,
        51.586074654151687,
        53.23835553993559,
        55.258327617361886,
        58.912438251765408,
        46.529709193973389,
        62.097149487302083,
        0.0,
        44.909036281049055,
        55.20112564483194,
        52.305788107944238,
        52.131793425885768,
        48.417922654306125,
        45.564744372545228,
        46.353101277608708,
        53.357367991059782,
        52.583309109509962,
        52.666418444128496,
        51.989773000771763,
        50.758277581407299,
        47.298066577869236,
        44.369230051225436,
        44.402017803766803,
        48.46910542876175,
        50.5472715759783,
        51.164732887615131,
        51.48190804382709,
        52.939723437143179,
        54.60800858996727,
        55.094055616196655,
        46.20113700371904,
        37.121637638742754,
        46.400760508220785,
        45.888241014979087,
        38.831851745750242,
        45.90446087808246,
        46.652565839693146,
        40.632447115874378,
        50.383003087093194,
        46.026984539306881,
        53.099092591267109,
        44.766963633128128,
        38.584675034805784,
        53.409787892140443,
        53.520969710590897,
        49.043543860086579,
        50.941608586278015,
        51.234232877599041,
        56.093406825170391,
        56.783418600580745,
        56.946261095243273,
        57.558813691029286,
        57.227140946768706,
        56.89425167171558,
        58.141889080239487,
        58.013508705945242,
        57.017891554423343,
        56.253294325801065,
        41.704072541356012,
        59.940068154340423,
        59.92349014586334,
        59.606489699565536,
        59.437259886368487,
        59.531750645513249,
        59.868782087541206,
        60.252838374163346,
        60.367195209150786,
        59.716589109611171,
        59.725380888583025,
        59.734168137868778,
        60.08578086887541,
        60.263209843104953,
        59.63378278303572,
        59.610615737527098,
        59.447120318063909,
        59.282066137380951,
        59.287686401172003,
        59.333989162326219,
        59.185896171889041,
        59.603809099174384,
        59.910138435590213,
        60.172749386274091,
        60.450356836231919,
        60.638945589654583,
        61.039678128336128,
        60.953938595349925,
        60.867772385126713,
        60.607177162098331,
        60.60341551629363,
        60.64196785491086,
        60.680434533185476,
        60.891083443446135,
        60.975712073332545,
        60.947491127319253,
        60.919222157795822,
        61.06317490758282,
        60.8930340214023,
        60.952090443499308,
        60.967829053859425,
        60.983553369278269,
        60.825265322558238,
        60.565922537125267,
        60.302635513457219,
        39.350990142394998,
        46.851468829978209,
        47.319566744288451,
        48.768196538032328,
        48.945716783245324,
        48.576252774093916,
        48.19873161595708,
        48.49179514240754,
        48.255910798907799,
        48.135952024281252,
        48.127510724862361,
        48.235216732036612,
        48.199148840203407,
        48.188531156461451,
        60.420426004607812,
        60.522363218874503,
        47.995579840495594,
        41.179827914653572,
        41.23190358122509,
        60.203055201493513,
        59.986475717502593,
        60.195367418971649,
        60.168008254114213,
        60.307901388362929,
        60.575109975522508,
        60.068402596892128,
        60.227112639090109,
        59.935321576672322,
        59.713452286975027,
        60.12978773305052,
        59.94740624187061,
        59.76308292919866,
        59.570005697994404,
        59.550441570650193,
        59.530854357631775,
        59.337250083657807,
        54.066994591227278,
        47.297536649491718,
        47.193243534467101,
        47.26057726069871,
        47.46020260027592,
        48.436822592767243,
        60.316560585965959,
        60.883370927480982,
        61.082453645663925,
        61.453058794122555,
        61.381271399824129,
        61.309181349316454,
        61.062795109200295,
        60.727339833405367,
        60.77174680612319,
        60.672340131918233,
        60.827979951240792,
        60.994213214949355,
        61.094825388472543,
        61.052724643943449,
        61.010519395134089,
        60.968210941310204,
        60.576043729651111,
        60.866383684986928,
        59.922551032278356,
        60.232531066927272,
        60.845476093235796,
        60.587806586348833,
        61.071903057782706,
        60.908590679065426,
        60.862405157418209,
        60.582705219659211,
        60.929165734095911,
        46.388454915760263,
        49.130306120562231,
        50.724823051738412,
        52.184787641429772,
        41.753499514902977,
        60.716669316043181,
        60.456250665766738,
        61.036530485357751,
        61.111012485519318,
        61.941069236793858,
        61.112805898379044,
        0.0,
        0.0,
        0.0,
        0.0,
        0.0,
        0.0,
        0.0,
        0.0,
        0.0,
        0.0,
        0.0,
        0.0,
        0.0,
        0.0,
        0.0,
        0.0
    ],
    "time": [
        0.02,
        0.040000000000000001,
        0.059999999999999998,
        0.080000000000000002,
        0.10000000000000001,
        0.12,
        0.14000000000000001,
        0.16,
        0.17999999999999999,
        0.20000000000000001,
        0.22,
        0.23999999999999999,
        0.26000000000000001,
        0.28000000000000003,
        0.29999999999999999,
        0.32000000000000001,
        0.34000000000000002,
        0.35999999999999999,
        0.38,
        0.40000000000000002,
        0.41999999999999998,
        0.44,
        0.46000000000000002,
        0.47999999999999998,
        0.5,
        0.52000000000000002,
        0.54000000000000004,
        0.56000000000000005,
        0.57999999999999996,
        0.59999999999999998,
        0.62,
        0.64000000000000001,
        0.66000000000000003,
        0.68000000000000005,
        0.69999999999999996,
        0.71999999999999997,
        0.73999999999999999,
        0.76000000000000001,
        0.78000000000000003,
        0.80000000000000004,
        0.81999999999999995,
        0.83999999999999997,
        0.85999999999999999,
        0.88,
        0.90000000000000002,
        0.92000000000000004,
        0.93999999999999995,
        0.95999999999999996,
        0.97999999999999998,
        1.0,
        1.02,
        1.04,
        1.0600000000000001,
        1.0800000000000001,
        1.1000000000000001,
        1.1200000000000001,
        1.1399999999999999,
        1.1599999999999999,
        1.1799999999999999,
        1.2,
        1.22,
        1.24,
        1.26,
        1.28,
        1.3,
        1.3200000000000001,
        1.3400000000000001,
        1.3600000000000001,
        1.3799999999999999,
        1.3999999999999999,
        1.4199999999999999,
        1.4399999999999999,
        1.46,
        1.48,
        1.5,
        1.52,
        1.54,
        1.5600000000000001,
        1.5800000000000001,
        1.6000000000000001,
        1.6200000000000001,
        1.6399999999999999,
        1.6599999999999999,
        1.6799999999999999,
        1.7,
        1.72,
        1.74,
        1.76,
        1.78,
        1.8,
        1.8200000000000001,
        1.8400000000000001,
        1.8600000000000001,
        1.8799999999999999,
        1.8999999999999999,
        1.9199999999999999,
        1.9399999999999999,
        1.96,
        1.98,
        2.0,
        2.02,
        2.04,
        2.0600000000000001,
        2.0800000000000001,
        2.1000000000000001,
        2.1200000000000001,
        2.1400000000000001,
        2.1600000000000001,
        2.1800000000000002,
        2.2000000000000002,
        2.2200000000000002,
        2.2400000000000002,
        2.2599999999999998,
        2.2799999999999998,
        2.2999999999999998,
        2.3199999999999998,
        2.3399999999999999,
        2.3599999999999999,
        2.3799999999999999,
        2.3999999999999999,
        2.4199999999999999,
        2.4399999999999999,
        2.46,
        2.48,
        2.5,
        2.52,
        2.54,
        2.5600000000000001,
        2.5800000000000001,
        2.6000000000000001,
        2.6200000000000001,
        2.6400000000000001,
        2.6600000000000001,
        2.6800000000000002,
        2.7000000000000002,
        2.7200000000000002,
        2.7400000000000002,
        2.7599999999999998,
        2.7799999999999998,
        2.7999999999999998,
        2.8199999999999998,
        2.8399999999999999,
        2.8599999999999999,
        2.8799999999999999,
        2.8999999999999999,
        2.9199999999999999,
        2.9399999999999999,
        2.96,
        2.98,
        3.0,
        3.02,
        3.04,
        3.0600000000000001,
        3.0800000000000001,
        3.1000000000000001,
        3.1200000000000001,
        3.1400000000000001,
        3.1600000000000001,
        3.1800000000000002,
        3.2000000000000002,
        3.2200000000000002,
        3.2400000000000002,
        3.2599999999999998,
        3.2799999999999998,
        3.2999999999999998,
        3.3199999999999998,
        3.3399999999999999,
        3.3599999999999999,
        3.3799999999999999,
        3.3999999999999999,
        3.4199999999999999,
        3.4399999999999999,
        3.46,
        3.48,
        3.5,
        3.52,
        3.54,
        3.5600000000000001,
        3.5800000000000001,
        3.6000000000000001,
        3.6200000000000001,
        3.6400000000000001,
        3.6600000000000001,
        3.6800000000000002,
        3.7000000000000002,
        3.7200000000000002,
        3.7400000000000002,
        3.7599999999999998,
        3.7799999999999998,
        3.7999999999999998,
        3.8199999999999998,
        3.8399999999999999,
        3.8599999999999999,
        3.8799999999999999,
        3.8999999999999999,
        3.9199999999999999,
        3.9399999999999999,
        3.96,
        3.98,
        4.0,
        4.0199999999999996,
        4.04,
        4.0599999999999996,
        4.0800000000000001,
        4.0999999999999996,
        4.1200000000000001,
        4.1399999999999997,
        4.1600000000000001,
        4.1799999999999997,
        4.2000000000000002,
        4.2199999999999998,
        4.2400000000000002,
        4.2599999999999998,
        4.2800000000000002,
        4.2999999999999998,
        4.3200000000000003,
        4.3399999999999999,
        4.3600000000000003,
        4.3799999999999999,
        4.4000000000000004,
        4.4199999999999999,
        4.4400000000000004,
        4.46,
        4.4800000000000004,
        4.5,
        4.5199999999999996,
        4.54,
        4.5599999999999996,
        4.5800000000000001,
        4.5999999999999996,
        4.6200000000000001,
        4.6399999999999997,
        4.6600000000000001,
        4.6799999999999997,
        4.7000000000000002,
        4.7199999999999998,
        4.7400000000000002,
        4.7599999999999998,
        4.7800000000000002,
        4.7999999999999998,
        4.8200000000000003,
        4.8399999999999999,
        4.8600000000000003,
        4.8799999999999999,
        4.9000000000000004,
        4.9199999999999999,
        4.9400000000000004,
        4.96,
        4.9800000000000004,
        5.0,
        5.0199999999999996,
        5.04,
        5.0599999999999996,
        5.0800000000000001,
        5.0999999999999996,
        5.1200000000000001,
        5.1399999999999997,
        5.1600000000000001,
        5.1799999999999997,
        5.2000000000000002,
        5.2199999999999998,
        5.2400000000000002,
        5.2599999999999998,
        5.2800000000000002,
        5.2999999999999998,
        5.3200000000000003,
        5.3399999999999999,
        5.3600000000000003,
        5.3799999999999999,
        5.4000000000000004,
        5.4199999999999999,
        5.4400000000000004,
        5.46,
        5.4800000000000004,
        5.5,
        5.5199999999999996,
        5.54,
        5.5599999999999996,
        5.5800000000000001,
        5.5999999999999996,
        5.6200000000000001,
        5.6399999999999997,
        5.6600000000000001,
        5.6799999999999997,
        5.7000000000000002,
        5.7199999999999998,
        5.7400000000000002,
        5.7599999999999998,
        5.7800000000000002,
        5.7999999999999998,
        5.8200000000000003,
        5.8399999999999999,
        5.8600000000000003,
        5.8799999999999999,
        5.9000000000000004,
        5.9199999999999999,
        5.9400000000000004,
        5.96,
        5.9800000000000004,
        6.0,
        6.0199999999999996,
        6.04,
        6.0599999999999996,
        6.0800000000000001,
        6.0999999999999996,
        6.1200000000000001,
        6.1399999999999997,
        6.1600000000000001,
        6.1799999999999997,
        6.2000000000000002,
        6.2199999999999998,
        6.2400000000000002,
        6.2599999999999998,
        6.2800000000000002,
        6.2999999999999998,
        6.3200000000000003,
        6.3399999999999999,
        6.3600000000000003,
        6.3799999999999999,
        6.4000000000000004,
        6.4199999999999999,
        6.4400000000000004,
        6.46,
        6.4800000000000004,
        6.5,
        6.5199999999999996,
        6.54,
        6.5599999999999996,
        6.5800000000000001,
        6.5999999999999996,
        6.6200000000000001,
        6.6399999999999997,
        6.6600000000000001,
        6.6799999999999997,
        6.7000000000000002,
        6.7199999999999998,
        6.7400000000000002,
        6.7599999999999998,
        6.7800000000000002,
        6.7999999999999998,
        6.8200000000000003,
        6.8399999999999999,
        6.8600000000000003,
        6.8799999999999999,
        6.9000000000000004,
        6.9199999999999999,
        6.9400000000000004,
        6.96,
        6.9800000000000004,
        7.0,
        7.0199999999999996,
        7.04,
        7.0599999999999996,
        7.0800000000000001,
        7.0999999999999996,
        7.1200000000000001,
        7.1399999999999997,
        7.1600000000000001,
        7.1799999999999997,
        7.2000000000000002,
        7.2199999999999998,
        7.2400000000000002,
        7.2599999999999998,
        7.2800000000000002,
        7.2999999999999998,
        7.3200000000000003,
        7.3399999999999999,
        7.3600000000000003,
        7.3799999999999999,
        7.4000000000000004,
        7.4199999999999999,
        7.4400000000000004,
        7.46,
        7.4800000000000004,
        7.5,
        7.5199999999999996,
        7.54,
        7.5599999999999996,
        7.5800000000000001,
        7.5999999999999996,
        7.6200000000000001,
        7.6399999999999997,
        7.6600000000000001,
        7.6799999999999997,
        7.7000000000000002,
        7.7199999999999998,
        7.7400000000000002,
        7.7599999999999998,
        7.7800000000000002,
        7.7999999999999998,
        7.8200000000000003,
        7.8399999999999999,
        7.8600000000000003,
        7.8799999999999999,
        7.9000000000000004,
        7.9199999999999999,
        7.9400000000000004,
        7.96,
        7.9800000000000004,
        8.0,
        8.0199999999999996,
        8.0399999999999991,
        8.0600000000000005,
        8.0800000000000001,
        8.0999999999999996,
        8.1199999999999992,
        8.1400000000000006,
        8.1600000000000001,
        8.1799999999999997,
        8.1999999999999993,
        8.2200000000000006
    ]
}