{
    "f0": [
        0.0,
        0.0,
        0.0,
        0.0,
        0.0,
        41.307103239422418,
        42.908975569257755,
        52.879641094663256,
        0.0,
        0.0,
        53.540626853498139,
        54.052357309785521,
        54.478008684538636,
        54.128253864964599,
        53.600931978783123,
        52.795391628587545,
        54.334345804134159,
        54.343359326708423,
        51.490988886098229,
        53.427518681330582,
        53.330201953166529,
        53.340550183598936,
        53.875323712422045,
        53.434857032577,
        53.882987924414948,
        54.426448116760454,
        54.374407784411162,
        41.098254637511168,
        35.062004858599046,
        47.525413153413957,
        47.703520492176423,
        47.705821172305448,
        47.418008735023335,
        46.883852764495828,
        46.800583401648012,
        46.826239268372333,
        47.178691680862173,
        47.014937940171706,
        47.007995636451241,
        47.001046201356694,
        46.64434329783105,
        46.636517639478257,
        47.140825025228494,
        47.230542161197675,
        47.319792488099438,
        47.058833368490866,
        44.284933304903895,
        42.07226101056937,
        54.36007726412813,
        56.064717531845631,
        56.471532990377511,
        56.910617478988968,
        57.490821000569824,
        58.204710321527386,
        58.643206495747869,
        59.017859825229465,
        59.236550543447535,
        59.351772095822085,
        59.46623186324598,
        59.222318073357009,
        59.160632526348721,
        59.435174622013669,
        59.581006341002073,
        59.959686896793286,
        60.118046375340406,
        60.030689040515625,
        59.94288866779435,
        59.945682435289143,
        59.948475685644851,
        59.777272687860197,
        59.87935768343479,
        60.041857254761311,
        60.236933816925749,
        60.429838779722402,
        60.446618093304515,
        60.376514458726525,
        60.05046122014916,
        60.360663868272631,
        59.923212252246117,
        59.743838385743743,
        59.93871443683534,
        59.694767036340536,
        59.95525147548274,
        60.384270381189872,
        60.802914247001937,
        61.554508358731503,
        61.583921385095685,
        61.073592310403853,
        60.484660708087823,
        60.079964580947276,
        59.560912020263515,
        59.924544851457881,
        59.156597152006178,
        58.65515017415629,
        58.495483543256476,
        58.155211359310194,
        57.725727192164591,
        57.499885316560189,
        57.695972220793578,
        57.989172867949378,
        58.089064285263191,
        58.108318797020466,
        57.817828623507701,
        56.209851467642999,
        56.935711410825022,
        56.993852240769669,
        57.372929124156826,
        57.930300998270766,
        58.723018378132146,
        58.8332073289275,
        58.795730428273671,
        58.894109784901602,
        59.028376405909469,
        59.161608613600592,
        59.026487003583988,
        58.893705108659709,
        58.930446634716866,
        58.774323738182247,
        58.989634266267281,
        59.250347465288748,
        59.309546122588223,
        59.117554701588666,
        59.215189035436836,
        59.386631550924726,
        59.420565876418934,
        59.522348293416783,
        59.762073621190687,
        59.423619526285336,
        59.381360368367318,
        59.36008049945972,
        59.584162167782765,
        59.628677124781177,
        59.587432151147951,
        59.823373472347058,
        59.738373566802061,
        59.747059952648172,
        59.939652674064057,
        59.689664917240741,
        59.756233573961261,
        59.963847984806023,
        60.047964239688426,
        60.534838138007373,
        59.897044487176082,
        59.96177565667152,
        60.45932264712382,
        60.121993155218163,
        60.348519985781508,
        59.96456233342338,
        59.777951812626043,
        59.930602132748128,
        60.238001515677126,
        59.756798836753845,
        60.126716818211342,
        37.117513002569069,
        41.697170098382863,
        45.31530092525351,
        47.418420158578229,
        47.907277986709147,
        47.440715199508318,
        47.74764196529204,
        46.474411233041849,
        43.659782031163139,
        54.796206331309669,
        55.194419271353929,
        55.409681440614939,
        55.622298594015852,
        56.175163596345421,
        56.401590225205638,
        56.604469577990223,
        56.641199566165881,
        56.232452041618473,
        57.312416575799773,
        57.472102050439965,
        57.886156744041607,
        56.523351122256109,
        56.699476132927884,
        57.524282230894798,
        57.29712754475193,
        57.066950345965708,
        56.659681162259218,
        55.982177721502822,
        41.543126854716895,
        38.81245455236526,
        41.976997393999,
        40.679829565961228,
        37.705377320641489,
        36.1590402117629,
        37.265116102940539,
        38.304743610590933,
        39.90688017280484,
        40.131619960982263,
        39.624158735959803,
        39.978037537274915,
        40.801966784487803,
        40.293631509196139,
        40.354465988579747,
        40.305585003717596,
        40.964819726383944,
        41.013619946222228,
        41.062279832736408,
        41.229915230155328,
        53.127116024674805,
        53.164222860949522,
        53.118102944176073,
        52.960661017979305,
        52.922230361049422,
        52.883714204309982,
        52.917623687057485,
        53.081103364569088,
        53.016153234839862,
        52.93888847944767,
        53.039606954280515,
        52.907332758240777,
        53.003786704509807,
        53.19892639168507,
        53.168906757472087,
        52.891971783324323,
        52.908690922883281,
        53.325003283875361,
        53.709786059783333,
        53.922853324665915,
        53.79797253040887,
        54.152011592865392,
        54.14997605583379,
        54.557475890305014,
        54.826467520222174,
        55.155054525422742,
        54.134723065805687,
        54.126565676030104,
        54.605401374461664,
        55.258071338421153,
        53.247231574510089,
        54.958386058174938,
        54.545501712425313,
        54.700468097737669,
        54.904377778602779,
        54.193055104992659,
        53.673419757780252,
        54.20451342577482,
        0.0,
        42.790489753165467,
        54.038308892955413,
        54.381135006295594,
        54.207135202539888,
        53.997184989600228,
        53.784658801183156,
        54.414164108839515,
        0.0,
        0.0,
        0.0,
        0.0,
        0.0,
        35.403934106129078,
        34.801931807244095,
        53.648740547986364,
        0.0,
        0.0,
        0.0,
        0.0,
        0.0,
        0.0,
        0.0,
        0.0,
        0.0,
        0.0,
        0.0,
        0.0,
        0.0,
        0.0,
        0.0,
        0.0,
        0.0,
        0.0,
        0.0,
        0.0,
        0.0,
        0.0,
        0.0,
        0.0,
        0.0,
        0.0,
        0.0,
        0.0,
        43.016095477090502,
        53.473552912427799,
        53.473558797160322,
        49.591685439610551,
        53.209422128910134,
        53.637230530652971,
        57.919439410085928,
        58.536318604155014,
        54.788372430219418,
        53.840804089225514,
        0.0,
        0.0,
        0.0,
        0.0,
        41.170773422985278,
        35.617632258302592,
        61.407050175177659,
        61.407050175177659,
        61.579313625667453,
        61.98789307131841,
        62.271165492338504,
        60.058986457476898,
        59.730495009719263,
        59.395655155097437,
        59.397036317256202,
        56.764108349020589,
        46.78036373334205,
        47.454552641962991,
        47.753714329700543,
        48.047788971680149,
        47.98719509298067,
        47.761760317870731,
        47.26720006135826,
        45.165367748389457,
        40.728118478437189,
        52.384285882254261,
        52.289820645968902,
        53.778430518872661,
        51.660784710312754,
        55.785164298702099,
        56.861744859012184,
        57.330103742982885,
        58.053770090088292,
        58.446357260431128,
        59.150869459816263,
        59.399013208067295,
        59.428099340673185,
        59.713312620235655,
        59.868350757330866,
        59.734588511713014,
        59.41870107340241,
        59.361683452849661,
        59.17217590712341,
        59.19097959272149,
        59.579576725859269,
        59.605738758990526,
        59.459696317743173,
        59.312408244317794,
        59.424730165367606,
        59.410034206530142,
        59.38522130994572,
        59.537698025711549,
        59.453795013519439,
        59.36948339030981,
        59.284761225592391,
        59.71135797498232,
        59.77811133471392,
        59.844610363309371,
        59.843291962811705,
        59.474403267029537,
        58.108857103324198,
        56.822043697823091,
        59.028820640650054,
        59.15707840364292,
        59.110397221345977,
        59.272262842990571,
        59.18929092498653,
        59.869634648198186,
        60.168188207181686,
        59.930910335857099,
        59.810158650617581,
        53.982837294572917,
        54.621941327832545,
        54.780249794079047,
        55.508424226929122,
        55.761212152002997,
        55.765028245599858,
        56.403648435584373,
        56.387571139834549,
        56.550852203223975,
        56.283879515822299,
        55.68870932595248,
        53.499385360866142,
        48.880820435098144,
        55.43411534815904,
        37.348411003847211,
        57.027360274586542,
        56.701378340973555,
        56.449155821095857,
        56.193205609906208,
        55.759421721195594,
        55.576234520038049,
        56.268071380630658,
        57.41711398659838,
        57.562274409931248,
        58.036550551937708,
        58.164153379598659,
        58.410962432601565,
        58.550335666341908,
        58.566248980561326,
        58.815638111266402,
        58.772784730449061,
        58.896261174746144,
        59.01886115272751,
        59.140596796576816,
        59.261483576380201,
        59.324807371059535,
        59.58844342474373,
        59.575642996986609,
        58.977310735031907,
        58.489463467911882,
        58.598706195281579,
        56.707262028947682,
        58.00488957098726,
        57.635979591890163,
        57.475828963347013,
        55.403389783378707,
        55.9817396468844,
        56.102720734313124,
        56.092314775871891,
        56.062344741133444,
        56.266591960288295,
        56.49611528530972,
        56.534994999712431,
        56.839916373757958,
        56.659535419174304,
        57.019528790526245,
        57.030558568728431,
        43.51412436143562,
        43.347720123519494,
        56.733793580042807,
        56.838782010393132,
        56.943132771996375,
        57.219125437108573,
        56.69948470045852,
        56.929813290651133,
        57.074560766857644,
        56.909337992580447,
        56.61544393714334,
        56.316474455889406,
        56.5239792959499,
        56.139823050096702,
        55.959039997794164,
        54.607502610871478,
        53.141447663661069,
        52.051393458375202,
        50.088977058796928,
        43.277570504273413,
        38.225962108978393,
        44.327113513856816,
        53.165235869928843,
        49.276144363136112,
        49.118951675319494,
        48.960322626698847,
        48.800226518187131,
        48.810895874361094,
        48.821560426157397,
        49.343947572630213,
        49.947267203370416,
        40.385765626602321,
        36.91795066351542,
        38.796984281166068,
        39.461600858233538,
        40.879103259167671,
        40.522727576897971,
        40.578726044170935,
        40.798018439655181,
        40.934040213071441,
        41.615244765950109,
        41.702679591913423,
        40.907287205150709,
        40.955780875254234,
        41.109572262337082,
        40.673283323333258,
        52.98486378962491,
        53.085620083615908,
        53.18579327815921,
        53.285388815104852,
        53.455219305746184,
        53.41438220869945,
        53.373444092134946,
        53.158419430995032,
        53.029003272954938,
        53.197006003342452,
        53.448874342466212,
        53.69713086235344,
        53.767880637984376,
        53.751210850176157,
        54.082843157006295,
        54.568596000693212,
        54.789262003842261,
        55.007152047993827,
        55.7340633635744,
        53.165044075492162,
        53.996880703575783,
        55.307545538707174,
        42.971248626006137,
        35.506265007168778,
        37.054115662270299,
        45.030942063530588,
        43.829948004724827,
        55.085644678506661,
        39.742074723663407,
        39.360688905232351,
        37.773665167720026,
        34.611013222794405,
        55.277272177175149,
        37.829533855218976,
        54.443070724401366,
        54.252847697167802,
        53.886511160504874,
        53.773641026726665,
        52.822244651587887,
        0.0,
        0.0,
        43.349959099987963,
        55.673241232284667,
        44.581775319857229,
        53.985828623308379,
        54.158094234752667,
        43.295115992201197,
        0.0,
        0.0,
        0.0,
        0.0,
        0.0,
        0.0,
        0.0,
        0.0,
        0.0,
        0.0,
        0.0,
        0.0,
        0.0,
        0.0,
        0.0,
        0.0,
        0.0,
        0.0,
        0.0,
        0.0,
        0.0,
        0.0,
        0.0,
        0.0,
        0.0,
        0.0,
        0.0,
        0.0,
        0.0,
        0.0,
        0.0,
        0.0,
        0.0,
        0.0,
        0.0,
        0.0,
        0.0,
        0.0,
        0.0,
        0.0,
        0.0,
        0.0,
        0.0,
        0.0,
        0.0
    ],
    "time": [
        0.02,
        0.040000000000000001,
        0.059999999999999998,
        0.080000000000000002,
        0.10000000000000001,
        0.12,
        0.14000000000000001,
        0.16,
        0.17999999999999999,
        0.20000000000000001,
        0.22,
        0.23999999999999999,
        0.26000000000000001,
        0.28000000000000003,
        0.29999999999999999,
        0.32000000000000001,
        0.34000000000000002,
        0.35999999999999999,
        0.38,
        0.40000000000000002,
        0.41999999999999998,
        0.44,
        0.46000000000000002,
        0.47999999999999998,
        0.5,
        0.52000000000000002,
        0.54000000000000004,
        0.56000000000000005,
        0.57999999999999996,
        0.59999999999999998,
        0.62,
        0.64000000000000001,
        0.66000000000000003,
        0.68000000000000005,
        0.69999999999999996,
        0.71999999999999997,
        0.73999999999999999,
        0.76000000000000001,
        0.78000000000000003,
        0.80000000000000004,
        0.81999999999999995,
        0.83999999999999997,
        0.85999999999999999,
        0.88,
        0.90000000000000002,
        0.92000000000000004,
        0.93999999999999995,
        0.95999999999999996,
        0.97999999999999998,
        1.0,
        1.02,
        1.04,
        1.0600000000000001,
        1.0800000000000001,
        1.1000000000000001,
        1.1200000000000001,
        1.1399999999999999,
        1.1599999999999999,
        1.1799999999999999,
        1.2,
        1.22,
        1.24,
        1.26,
        1.28,
        1.3,
        1.3200000000000001,
        1.3400000000000001,
        1.3600000000000001,
        1.3799999999999999,
        1.3999999999999999,
        1.4199999999999999,
        1.4399999999999999,
        1.46,
        1.48,
        1.5,
        1.52,
        1.54,
        1.5600000000000001,
        1.5800000000000001,
        1.6000000000000001,
        1.6200000000000001,
        1.6399999999999999,
        1.6599999999999999,
        1.6799999999999999,
        1.7,
        1.72,
        1.74,
        1.76,
        1.78,
        1.8,
        1.8200000000000001,
        1.8400000000000001,
        1.8600000000000001,
        1.8799999999999999,
        1.8999999999999999,
        1.9199999999999999,
        1.9399999999999999,
        1.96,
        1.98,
        2.0,
        2.02,
        2.04,
        2.0600000000000001,
        2.0800000000000001,
        2.1000000000000001,
        2.1200000000000001,
        2.1400000000000001,
        2.1600000000000001,
        2.1800000000000002,
        2.2000000000000002,
        2.2200000000000002,
        2.2400000000000002,
        2.2599999999999998,
        2.2799999999999998,
        2.2999999999999998,
        2.3199999999999998,
        2.3399999999999999,
        2.3599999999999999,
        2.3799999999999999,
        2.3999999999999999,
        2.4199999999999999,
        2.4399999999999999,
        2.46,
        2.48,
        2.5,
        2.52,
        2.54,
        2.5600000000000001,
        2.5800000000000001,
        2.6000000000000001,
        2.6200000000000001,
        2.6400000000000001,
        2.6600000000000001,
        2.6800000000000002,
        2.7000000000000002,
        2.7200000000000002,
        2.7400000000000002,
        2.7599999999999998,
        2.7799999999999998,
        2.7999999999999998,
        2.8199999999999998,
        2.8399999999999999,
        2.8599999999999999,
        2.8799999999999999,
        2.8999999999999999,
        2.9199999999999999,
        2.9399999999999999,
        2.96,
        2.98,
        3.0,
        3.02,
        3.04,
        3.0600000000000001,
        3.0800000000000001,
        3.1000000000000001,
        3.1200000000000001,
        3.1400000000000001,
        3.1600000000000001,
        3.1800000000000002,
        3.2000000000000002,
        3.2200000000000002,
        3.2400000000000002,
        3.2599999999999998,
        3.2799999999999998,
        3.2999999999999998,
        3.3199999999999998,
        3.3399999999999999,
        3.3599999999999999,
        3.3799999999999999,
        3.3999999999999999,
        3.4199999999999999,
        3.4399999999999999,
        3.46,
        3.48,
        3.5,
        3.52,
        3.54,
        3.5600000000000001,
        3.5800000000000001,
        3.6000000000000001,
        3.6200000000000001,
        3.6400000000000001,
        3.6600000000000001,
        3.6800000000000002,
        3.7000000000000002,
        3.7200000000000002,
        3.7400000000000002,
        3.7599999999999998,
        3.7799999999999998,
        3.7999999999999998,
        3.8199999999999998,
        3.8399999999999999,
        3.8599999999999999,
        3.8799999999999999,
        3.8999999999999999,
        3.9199999999999999,
        3.9399999999999999,
        3.96,
        3.98,
        4.0,
        4.0199999999999996,
        4.04,
        4.0599999999999996,
        4.0800000000000001,
        4.0999999999999996,
        4.1200000000000001,
        4.1399999999999997,
        4.1600000000000001,
        4.1799999999999997,
        4.2000000000000002,
        4.2199999999999998,
        4.2400000000000002,
        4.2599999999999998,
        4.2800000000000002,
        4.2999999999999998,
        4.3200000000000003,
        4.3399999999999999,
        4.3600000000000003,
        4.3799999999999999,
        4.4000000000000004,
        4.4199999999999999,
        4.4400000000000004,
        4.46,
        4.4800000000000004,
        4.5,
        4.5199999999999996,
        4.54,
        4.5599999999999996,
        4.5800000000000001,
        4.5999999999999996,
        4.6200000000000001,
        4.6399999999999997,
        4.6600000000000001,
        4.6799999999999997,
        4.7000000000000002,
        4.7199999999999998,
        4.7400000000000002,
        4.7599999999999998,
        4.7800000000000002,
        4.7999999999999998,
        4.8200000000000003,
        4.8399999999999999,
        4.8600000000000003,
        4.8799999999999999,
        4.9000000000000004,
        4.9199999999999999,
        4.9400000000000004,
        4.96,
        4.9800000000000004,
        5.0,
        5.0199999999999996,
        5.04,
        5.0599999999999996,
        5.0800000000000001,
        5.0999999999999996,
        5.1200000000000001,
        5.1399999999999997,
        5.1600000000000001,
        5.1799999999999997,
        5.2000000000000002,
        5.2199999999999998,
        5.2400000000000002,
        5.2599999999999998,
        5.2800000000000002,
        5.2999999999999998,
        5.3200000000000003,
        5.3399999999999999,
        5.3600000000000003,
        5.3799999999999999,
        5.4000000000000004,
        5.4199999999999999,
        5.4400000000000004,
        5.46,
        5.4800000000000004,
        5.5,
        5.5199999999999996,
        5.54,
        5.5599999999999996,
        5.5800000000000001,
        5.5999999999999996,
        5.6200000000000001,
        5.6399999999999997,
        5.6600000000000001,
        5.6799999999999997,
        5.7000000000000002,
        5.7199999999999998,
        5.7400000000000002,
        5.7599999999999998,
        5.7800000000000002,
        5.7999999999999998,
        5.8200000000000003,
        5.8399999999999999,
        5.8600000000000003,
        5.8799999999999999,
        5.9000000000000004,
        5.9199999999999999,
        5.9400000000000004,
        5.96,
        5.9800000000000004,
        6.0,
        6.0199999999999996,
        6.04,
        6.0599999999999996,
        6.0800000000000001,
        6.0999999999999996,
        6.1200000000000001,
        6.1399999999999997,
        6.1600000000000001,
        6.1799999999999997,
        6.2000000000000002,
        6.2199999999999998,
        6.2400000000000002,
        6.2599999999999998,
        6.2800000000000002,
        6.2999999999999998,
        6.3200000000000003,
        6.3399999999999999,
        6.3600000000000003,
        6.3799999999999999,
        6.4000000000000004,
        6.4199999999999999,
        6.4400000000000004,
        6.46,
        6.4800000000000004,
        6.5,
        6.5199999999999996,
        6.54,
        6.5599999999999996,
        6.5800000000000001,
        6.5999999999999996,
        6.6200000000000001,
        6.6399999999999997,
        6.6600000000000001,
        6.6799999999999997,
        6.7000000000000002,
        6.7199999999999998,
        6.7400000000000002,
        6.7599999999999998,
        6.7800000000000002,
        6.7999999999999998,
        6.8200000000000003,
        6.8399999999999999,
        6.8600000000000003,
        6.8799999999999999,
        6.9000000000000004,
        6.9199999999999999,
        6.9400000000000004,
        6.96,
        6.9800000000000004,
        7.0,
        7.0199999999999996,
        7.04,
        7.0599999999999996,
        7.0800000000000001,
        7.0999999999999996,
        7.1200000000000001,
        7.1399999999999997,
        7.1600000000000001,
        7.1799999999999997,
        7.2000000000000002,
        7.2199999999999998,
        7.2400000000000002,
        7.2599999999999998,
        7.2800000000000002,
        7.2999999999999998,
        7.3200000000000003,
        7.3399999999999999,
        7.3600000000000003,
        7.3799999999999999,
        7.4000000000000004,
        7.4199999999999999,
        7.4400000000000004,
        7.46,
        7.4800000000000004,
        7.5,
        7.5199999999999996,
        7.54,
        7.5599999999999996,
        7.5800000000000001,
        7.5999999999999996,
        7.6200000000000001,
        7.6399999999999997,
        7.6600000000000001,
        7.6799999999999997,
        7.7000000000000002,
        7.7199999999999998,
        7.7400000000000002,
        7.7599999999999998,
        7.7800000000000002,
        7.7999999999999998,
        7.8200000000000003,
        7.8399999999999999,
        7.8600000000000003,
        7.8799999999999999,
        7.9000000000000004,
        7.9199999999999999,
        7.9400000000000004,
        7.96,
        7.9800000000000004,
        8.0,
        8.0199999999999996,
        8.0399999999999991,
        8.0600000000000005,
        8.0800000000000001,
        8.0999999999999996,
        8.1199999999999992,
        8.1400000000000006,
        8.1600000000000001,
        8.1799999999999997,
        8.1999999999999993,
        8.2200000000000006,
        8.2400000000000002,
        8.2599999999999998,
        8.2799999999999994,
        8.3000000000000007,
        8.3200000000000003,
        8.3399999999999999,
        8.3599999999999994,
        8.3800000000000008,
        8.4000000000000004,
        8.4199999999999999,
        8.4399999999999995,
        8.4600000000000009,
        8.4800000000000004,
        8.5,
        8.5199999999999996,
        8.5399999999999991,
        8.5600000000000005,
        8.5800000000000001,
        8.5999999999999996,
        8.6199999999999992,
        8.6400000000000006,
        8.6600000000000001,
        8.6799999999999997,
        8.6999999999999993,
        8.7200000000000006,
        8.7400000000000002,
        8.7599999999999998,
        8.7799999999999994,
        8.8000000000000007,
        8.8200000000000003,
        8.8399999999999999,
        8.8599999999999994,
        8.8800000000000008,
        8.9000000000000004,
        8.9199999999999999,
        8.9399999999999995,
        8.9600000000000009,
        8.9800000000000004,
        9.0,
        9.0199999999999996,
        9.0399999999999991,
        9.0600000000000005,
        9.0800000000000001,
        9.0999999999999996,
        9.1199999999999992,
        9.1400000000000006,
        9.1600000000000001,
        9.1799999999999997,
        9.1999999999999993,
        9.2200000000000006,
        9.2400000000000002,
        9.2599999999999998,
        9.2799999999999994,
        9.3000000000000007,
        9.3200000000000003,
        9.3399999999999999,
        9.3599999999999994,
        9.3800000000000008,
        9.4000000000000004,
        9.4199999999999999,
        9.4399999999999995,
        9.4600000000000009,
        9.4800000000000004,
        9.5,
        9.5199999999999996,
        9.5399999999999991,
        9.5600000000000005,
        9.5800000000000001,
        9.5999999999999996,
        9.6199999999999992,
        9.6400000000000006,
        9.6600000000000001,
        9.6799999999999997,
        9.6999999999999993,
        9.7200000000000006,
        9.7400000000000002,
        9.7599999999999998,
        9.7799999999999994,
        9.8000000000000007,
        9.8200000000000003,
        9.8399999999999999,
        9.8599999999999994,
        9.8800000000000008,
        9.9000000000000004,
        9.9199999999999999,
        9.9399999999999995,
        9.9600000000000009,
        9.9800000000000004,
        10.0,
        10.02,
        10.039999999999999,
        10.06,
        10.08,
        10.1,
        10.119999999999999,
        10.140000000000001,
        10.16,
        10.18,
        10.199999999999999,
        10.220000000000001,
        10.24,
        10.26,
        10.279999999999999,
        10.300000000000001,
        10.32,
        10.34,
        10.359999999999999,
        10.380000000000001,
        10.4,
        10.42,
        10.44,
        10.460000000000001,
        10.48,
        10.5,
        10.52,
        10.539999999999999,
        10.56,
        10.58,
        10.6,
        10.619999999999999,
        10.640000000000001,
        10.66,
        10.68,
        10.699999999999999,
        10.720000000000001,
        10.74,
        10.76,
        10.779999999999999,
        10.800000000000001,
        10.82,
        10.84,
        10.859999999999999,
        10.880000000000001,
        10.9,
        10.92,
        10.94,
        10.960000000000001,
        10.98,
        11.0,
        11.02,
        11.039999999999999,
        11.06,
        11.08,
        11.1,
        11.119999999999999,
        11.140000000000001,
        11.16,
        11.18
    ]
}