{
	"f0": [NaN,52.01414075,52.55802863,52.8828321,51.83657672,50.90580009,51.61534218,52.19354484,52.93035138,53.05163093,52.70361253,52.93035138,53.8977729,54.45231475,51.07741954,52.19354484,52.69545601,53.69991543,43.67764587,51.92777525,52.74318912,52.33060116,43.13489482,54.30040362,53.80046068,52.93035138,52.47250823,53.22938742,53.50429368,53.50429368,52.19354484,52.66255976,52.55802863,52.06469991,42.9224708,53.43426913,52.88558864,52.97976129,53.73470686,43.67764587,41.88045249,41.81135983,54.2154005,36.15478158,41.83256696,53.44795961,53.22266987,56.45728508,41.87627207,50.25666777,37.09693415,37.13456682,45.24907295,52.84125624,52.91280101,71.76273913,61.17754088,74.15444483,71.90333083,59.15112411,59.32617661,59.42115044,59.42889337,59.75259687,60.22284915,60.33475569,62.23775418,74.102432,74.80781824,62.93651317,63.14399075,63.49497114,63.42273386,63.32360632,70.97744764,60.23518651,65.37492255,64.586765,64.41745626,64.62643107,64.91039158,64.96969368,65.01470426,65.33333906,65.45389274,65.47645825,65.48203051,65.47641958,65.55697292,65.65963234,65.55652857,65.44842255,65.25022398,64.73502828,64.51118099,64.81219669,65.47590653,64.93035138,64.51902982,65.00355462,64.82293287,64.70026498,64.5969107,64.70068494,64.74777594,76.75503235,76.89363951,65.06610236,65.22573329,65.33575512,65.42780757,65.48146538,65.48745568,65.45601848,65.45524473,65.11179645,65.1784312,65.35508948,65.69991543,65.46810443,65.32137992,65.3898202,65.30978077,65.35959981,65.2694345,65.36788385,65.53960567,65.69433079,65.76937097,67.34995772,65.81413247,65.85303077,65.75852222,65.19822675,65.08865363,65.054514,64.99204035,63.49908999,64.93035138,64.55802863,63.14399075,63.27091261,63.62446935,63.67098548,63.51092487,63.18164982,63.24540311,63.40730429,63.53959435,63.6993495,63.81716585,63.74254183,63.73652689,63.77834586,63.78155918,63.7407157,63.65308382,63.57220527,63.47481911,62.96764686,63.07942948,63.21095212,63.3844487,63.41827605,63.2748273,63.49764283,63.65829824,63.68011899,63.76156439,63.83553542,63.88909103,63.89741657,63.94897196,63.9646959,63.94705962,63.96250971,64.01604383,64.01508881,63.99040736,63.96098799,63.94001459,63.98093375,64.00286644,64.06134521,64.43513482,65.84921674,66.05906812,66.2650557,66.34000918,66.34919565,66.43930614,66.20205674,66.06285992,65.95271331,65.82763659,64.76071625,61.95362911,62.19898923,62.55737306,63.04538067,63.50328191,63.29651096,63.10705245,63.1598187,63.11734001,64.19354484,62.9712313,75.18312945,75.24252698,62.93168008,62.9770108,63.14247229,73.06454646,72.99352272,61.09242106,61.19943742,61.29875282,73.30907041,73.3429584,61.17229516,61.14559068,61.01404956,61.08553534,61.16443316,60.70966326,73.08390461,73.09891021,73.04139788,57.31813157,58.03697981,58.15845704,58.22674686,58.46222565,58.67754138,59.11747943,58.93953117,58.68507973,58.63982342,58.72202065,71.27815952,71.3108187,71.12869279,52.58685914,74.15444483,61.7131752,61.62880746,61.32685105,61.19652681,61.10179414,60.99136191,67.82299919,60.53306722,60.64849855,60.55758844,72.76421046,73.03339268,61.03638319,61.00378817,60.96830694,60.9084029,60.82449495,60.85614619,60.88861541,60.70794667,60.70120338,61.02990435,60.98243545,60.81455942,60.94591011,60.88243996,60.62566928,72.37982573,72.78117738,63.14399075,60.74301414,60.89874399,60.95904782,60.72464166,61.07230351,61.05489634,60.25584656,72.19680042,72.10976995,60.66428814,60.64824898,60.91732291,61.83677829,52.6809211,70.46971806,70.6311381,74.80781824,72.827278,72.84935581,71.66574641,72.27661284,72.38403607,72.1290389,62.74843194,52.63079254,56.46727057,55.56772588,53.70346358,53.19175195,52.7483817,52.32794814,52.44829884,52.30725943,52.29549515,59.21309485,57.18523272,56.79698634,56.48695437,56.01343271,56.69965447,56.59150207,56.93520015,56.01165637,53.11205266,59.65477188,59.53716327,59.49346244,59.39503676,59.32882842,59.47990716,59.62583931,59.86550605,60.12657587,60.25874437,60.30362286,60.21460004,60.30968516,60.14952479,59.98933824,59.88700222,59.77040235,59.48532325,59.13739245,58.83495685,58.83269856,58.96749045,60.03903672,59.54475275,59.31082523,59.09516363,58.88734254,58.92583319,58.8822778,58.87180947,59.05839333,58.94470778,58.87049341,59.14609385,58.82768456,58.94959497,59.03812759,58.8877313,58.5537154,58.18166888,58.18588043,58.68239528,58.77705055,58.58450158,58.16354076,57.06688375,57.00285737,56.94657543,56.75649841,56.69945411,56.81454097,56.91790988,56.82922481,56.83417554,56.84105493,56.7936268,56.95988642,56.88463292,56.96436645,57.21903658,57.66169865,57.48485498,61.73649026,61.7730217,61.68356252,61.33346902,61.08091734,60.95730527,60.91272294,60.73719522,60.38440657,60.4383024,60.70877547,60.91133957,60.9021545,61.007485,61.21472401,61.25667035,61.18369842,61.17158425,60.72759938,60.32166569,60.481655,60.37894101,60.85744256,61.54432665,61.60113107,61.51977613,61.1940896,61.08934368,61.04357255,61.0779787,61.08425808,61.10235609,61.06270927,61.02563493,61.13197302,61.07187009,60.82928574,60.61645155,60.56788644,60.77601242,72.94235492,72.87740431,73.52483579,68.7422933,61.07485437,60.82719232,59.47670713,59.07816258,59.22745486,59.60973685,59.54538068,59.59252159,59.49102317,59.11908074,58.42002457,58.44771262,59.13887357,59.22946867,58.90016103,58.97720748,56.50510499,56.28916004,56.06164234,55.53578991,55.77218298,55.69883896,55.49595006,56.23796469,56.01165637,55.98788973,55.7976813,55.68438093,55.78826823,55.60609806,55.02005429,54.37724886,54.10648181,54.10153483,54.2334526,54.21428433,54.16468052,54.06973029,53.90930998,54.00035874,53.83752461,53.66785404,53.66789704,53.93126868,54.42890485,53.60444612,52.59874684,51.89581471,51.50295405,50.96172655,50.78019445,50.74556131,50.63177239,50.75618298,50.99786264,51.22768971,52.00553499,52.0644638,52.19354484,52.8555572,52.88658532,61.83677829,53.9543079,53.56666899,53.25865119,52.95920069,53.0275028,53.23451704,53.31349106,53.19600914,53.21964057,53.46774974,53.46234294,53.41575492,53.36066814,53.39939071,53.39630514,53.44299275,53.42799609,53.2033233,53.32753539,53.36995165,53.35946079,53.39239492,53.48406095,53.49330973,53.44983599,53.49878315,53.38999594,53.11849086,52.93425696,53.50429368,53.54817777,53.25536003,53.09632889,53.36110619,53.54943834,53.81773067,53.74388584,53.46348499,53.03603311,52.86269578,52.71424694,53.05716669,53.2739714,53.40776804,53.37314161,53.41004599,53.25820629,53.29663944,53.37280959,53.71800712,52.85758385,52.23708972,52.55802863,52.8661673,52.55802863,52.57979527,53.15597353,53.62038919,52.19354484,52.74318912,52.29603854,51.82533859,52.49952682,60.18673601,69.17399484,76.93035138,NaN,NaN],
	"ap0": [NaN,0.5171620277,0.4331472083,0.50547156,0.472067911,0.4025637932,0.5180256973,0.4686722517,0.4485823422,0.4357427764,0.4053889098,0.3681984541,0.455112352,0.645896825,0.5071167312,0.3774573838,0.2750133679,0.3961088357,0.5571258482,0.4678988553,0.3215545531,0.3993022808,0.5885662006,0.4516784661,0.3856437338,0.4486114294,0.3903056652,0.3699988302,0.3592507727,0.5355225788,0.6201852343,0.5464870187,0.692375364,0.7661817688,0.6570489723,0.5730609988,0.4989894287,0.5149215794,0.5022371531,0.6080018365,0.5394588721,0.6562172617,0.6458557516,0.5740379318,0.6507736042,0.5987458046,0.6695606446,0.7792958435,0.6220063309,0.7008743469,0.6268417814,0.6390613917,0.8463181501,0.7537043268,0.7668590991,0.6919454321,0.6584806517,0.4492905199,0.8960881131,0.2176487831,0.1333193779,0.1431585312,0.1441171307,0.1871583687,0.2076963725,0.2458655187,0.4880386046,0.4620640941,0.4824100616,0.3355361729,0.5501312108,0.5937667163,0.447997713,0.3698068315,0.4989246377,0.4427856739,0.2114247241,0.07415792077,0.04023985031,0.0462314244,0.05095171545,0.05107150711,0.03448125007,0.02416017888,0.02038540989,0.00978208021,0.008444972759,0.01942932207,0.04550602493,0.04996649088,0.02313621361,0.01080401876,0.01980818812,0.08755569506,0.18003155,0.1398391222,0.1379553377,0.33138765,0.4374835202,0.471762236,0.1621279087,0.07610552263,0.02720077622,0.01520554397,0.01482096148,0.03162323542,0.1657803846,0.08584863286,0.05593682202,0.06173589193,0.05975050077,0.05767433359,0.05099566862,0.063216545,0.1444594907,0.1463901793,0.482892093,0.5734605347,0.5051263142,0.2626960975,0.1199237505,0.2226150577,0.2636777008,0.1299514468,0.06327332787,0.04305299225,0.03784154817,0.03254670382,0.03438578757,0.4684937928,0.08613850165,0.06393493347,0.05063719206,0.01951918778,0.05184940783,0.1483201506,0.2457583716,0.3582909703,0.2454453355,0.1895495639,0.1786816547,0.1557309384,0.09256223182,0.07179259601,0.09137585779,0.2036254979,0.2782370174,0.07889892654,0.04586160268,0.03609061504,0.04365098956,0.03510533437,0.03116484152,0.02865682681,0.02218893492,0.02318992979,0.06722824332,0.1631364496,0.2789250061,0.07800700021,0.06935004733,0.05700247958,0.042622064,0.05709453821,0.1026058826,0.0910498653,0.05967063152,0.03784529683,0.03152418604,0.06318018278,0.096002306,0.04197375593,0.01475164063,0.01640022024,0.01759722708,0.01921654641,0.0299556229,0.04382847167,0.03098274513,0.01906502122,0.02178397671,0.01710060206,0.009780838913,0.00550351944,0.04909708912,0.06006314578,0.0318964934,0.04394033055,0.04905117774,0.05183429085,0.1134164266,0.19757255,0.1725392396,0.06871948391,0.06550519964,0.2927730017,0.2708643198,0.1604437653,0.09431118165,0.1404659985,0.1168879021,0.1504227889,0.2344222392,0.2891426776,0.3717499073,0.4971398608,0.1890374201,0.1410456478,0.4573241577,0.2476021805,0.3336465845,0.5703092526,0.2474987795,0.1712223471,0.03710731084,0.0292421043,0.03679789812,0.06240767758,0.2368349293,0.09323267688,0.2471640341,0.3704089906,0.4011191813,0.4713283258,0.2217933449,0.1662808245,0.1368749115,0.5160356523,0.54130428,0.2782856936,0.127331642,0.1268182267,0.1445183979,0.2016741919,0.1909550799,0.2013052034,0.1472431614,0.1900650383,0.4024522377,0.1876028658,0.1602808049,0.461258563,0.4163674131,0.2087884991,0.05143498283,0.06850418208,0.1756487104,0.1587254168,0.2020413204,0.1631320451,0.2467314547,0.3300889401,0.2913463136,0.1859354215,0.08676544557,0.1532411681,0.150313989,0.1203418268,0.1059668806,0.1060376957,0.09867942849,0.07480271238,0.1071352722,0.1907068213,0.1209894387,0.1078953329,0.1455802035,0.1574137169,0.09879962809,0.0949162601,0.1353906385,0.07754036492,0.1319471704,0.6142222002,0.1231155969,0.09813478786,0.1209347215,0.2098763159,0.2311800321,0.2800619835,0.3618777212,0.1609856157,0.3029091293,0.2450701797,0.2065802845,0.311727789,0.7451318395,0.7975094953,0.576516687,0.6516951243,0.6418984274,0.2950659742,0.5702917709,0.512739611,0.5332942603,0.4096339886,0.5198280853,0.7265109775,0.4436772426,0.6447749287,0.5148052136,0.1963927695,0.1358184667,0.09112700998,0.05335853907,0.07058901121,0.1381391887,0.3526987525,0.6677393384,0.4617324244,0.3207644991,0.2602744637,0.4633366786,0.338050249,0.2391427054,0.2768967014,0.4927784232,0.568985353,0.354545135,0.1076025411,0.0986428456,0.3497751399,0.2459895069,0.1268929131,0.0949042635,0.1870152367,0.1092260065,0.07749632899,0.08100942311,0.2042376465,0.2977891382,0.05234410988,0.02577696491,0.04271851555,0.2867929157,0.3879658173,0.231312993,0.05959650115,0.01916857228,0.05324512129,0.2975140634,0.1603717216,0.09556343442,0.06636130519,0.1273979504,0.1129726138,0.07750674877,0.1130123108,0.3229749515,0.4615253667,0.1641526016,0.1410368524,0.2217739732,0.2142403543,0.2338176258,0.2965125886,0.3151828623,0.3435374436,0.4153303558,0.331872313,0.2867516903,0.2110885922,0.2417270526,0.08566823286,0.06886476548,0.08874009691,0.09288486185,0.1021544718,0.1122661192,0.1001841386,0.1319022546,0.1540948321,0.1735721574,0.2082784739,0.2045365157,0.2834529861,0.33499998,0.2526549326,0.2575105693,0.8031188848,0.2350816895,0.1157449686,0.1089438869,0.1220692692,0.1200632352,0.1944644632,0.1423097802,0.1055686283,0.09259060969,0.1069866352,0.1069182547,0.05164165044,0.05406870839,0.05384939008,0.0550144036,0.09562567178,0.1605710885,0.2493960828,0.3839998505,0.2940742305,0.2656764419,0.1496394761,0.1316526897,0.09739437672,0.08235997272,0.09228727845,0.07647658584,0.09240500281,0.09579957505,0.06244005012,0.05516563263,0.03842446658,0.04125734096,0.03371807808,0.04935500309,0.1145042563,0.1428608537,0.0613012914,0.06309792262,0.1617459061,0.1314553856,0.1357902066,0.1975353212,0.7368124476,0.271173867,0.2713782186,0.2683721715,0.1812729291,0.1754148158,0.2417535189,0.3173167682,0.2595697231,0.1207551643,0.0947332052,0.177663277,0.3529182066,0.287482605,0.286150265,0.4137643366,0.3177039672,0.2776746156,0.1675083079,0.200390251,0.2371587094,0.3147258451,0.3653145998,0.3860283001,0.316439301,0.2000278416,0.2208216459,0.2828106634,0.369355554,0.3189182589,0.2485584449,0.1517825485,0.1148240357,0.05545653865,0.07447398407,0.1081251869,0.09083756266,0.04878685051,0.06971374014,0.07438232888,0.1289543307,0.1141256509,0.08612889527,0.1055879352,0.1771693101,0.421815693,0.2027978985,0.5470233727,0.2865488527,0.2429841306,0.209373747,0.2894170568,0.3541531924,0.2410419522,0.1235026927,0.1081207461,0.172664681,0.1396318482,0.08684696963,0.1844750953,0.3073932221,0.5060678401,0.6816979207,0.2227926983,0.2265971864,0.2065638059,0.1900440618,0.1583448019,0.2661499835,0.2790191068,0.2070532481,0.1884299322,0.2300786395,0.2378806176,0.1749865124,0.08030638899,0.09513252812,0.1654642198,0.183803031,0.1694190954,0.1399290259,0.1514707275,0.1399039111,0.1184323305,0.09516780334,0.06780263041,0.07359280651,0.07469587728,0.03810506943,0.04463270871,0.09757902914,0.1569901427,0.3523684945,0.4011260393,0.2888563287,0.271685509,0.2080977503,0.2558865569,0.140082077,0.1348016817,0.2049621058,0.06720718387,0.039677639,0.07571964285,0.3162255179,0.2079126481,0.1641228118,0.1724837429,0.1368894592,0.1576726206,0.06627507292,0.05924852573,0.254593872,0.1551296668,0.07289306713,0.1203865734,0.1785287832,0.1381048588,0.05214481197,0.07236689638,0.097119587,0.6095179776,0.1608758095,0.1099717189,0.2003059852,0.5532499366,0.572164313,1,1,NaN,NaN],
	"ap": [NaN,0.5172237839,0.4228632795,0.08531917178,0.2091043898,0.3607082791,0.131179883,0.1368301931,0.2683369274,0.24982746,0.2565575804,0.2818732474,0.2409822057,0.1870821686,0.6288158011,0.277100427,0.2531504039,0.08959892797,0.2273246185,0.6522346839,0.1890171474,0.1147427672,0.1378595804,0.2435006711,0.4278640254,0.2200690379,0.2969513349,0.1286988645,0.2327058253,0.1879512545,0.1422362485,0.3251631929,0.1523107484,0.467733984,0.2857765038,0.6014696006,0.2751413126,0.2203215725,0.6240486323,0.3672771398,0.2552904241,0.2195485286,0.359018179,0.2483222477,0.4862995765,0.3895755568,0.2332070462,0.3951612603,0.3643132861,0.3490171079,0.3524840204,0.2970396836,0.5811069424,0.3669276295,0.4558468942,0.6070255149,0.4425503664,0.5541488166,0.6511032514,0.2626727596,0.3569610141,0.03471435298,0.1461357223,0.3062793976,0.1095189917,0.07591001741,0.07498360862,0.6338538143,0.07806386939,0.2747891419,0.0407489233,0.264395877,0.4368944081,0.05677900548,0.4122944083,0.3637042608,0.756171801,0.4845171433,0.1934011295,0.04817882409,0.02043548076,0.01513537257,0.02986729479,0.02551154736,0.01548506453,0.004940226473,0.008568808754,0.003071153367,0.009140252893,0.03147397169,0.06011230044,0.08278200318,0.00471461321,0.02351934449,0.03146553065,0.0604214479,0.1805899016,0.03737604254,0.584575722,0.5599865314,0.1848685733,0.2180709835,0.03184329169,0.02428371944,0.004142066455,0.02379768317,0.01689390758,0.1235525972,0.08755870857,0.0142069335,0.02392468206,0.02743597344,0.05566201169,0.03518315982,0.03060510211,0.01336767965,0.06431764962,0.09397741736,0.5263766986,0.1362733286,0.1151018292,0.03134463636,0.05146242868,0.6390069851,0.04753641304,0.07517925773,0.01766323446,0.01173366265,0.01780013776,0.3098044226,0.1452924327,0.03218720555,0.07802402708,0.0624754108,0.0120349162,0.002467748881,0.1733042719,0.4710687522,0.2234112718,0.1573387256,0.2888608975,0.1103302478,0.265778054,0.1536103916,0.04640606248,0.150449158,0.1959875056,0.2734999955,0.07666525985,0.01722918765,0.005194132867,0.01594873701,0.02977885097,0.01272155811,0.0105664067,0.007835303692,0.003249752752,0.04094623152,0.1230567009,0.154987834,0.1502609204,0.02466244621,0.01664557826,0.02852320176,0.01461461433,0.1280471419,0.0907725262,0.01139081075,0.05754015721,0.03077391835,0.03865887224,0.02062511035,0.02839297778,0.004375399138,0.01453475463,0.006520282237,0.01099989862,0.004985168423,0.009442123583,0.01971240939,0.004517119782,0.0213934023,0.00638580021,0.005584609597,0.00700304542,0.1004199541,0.07552014778,0.009544667275,0.009464041903,0.03628885455,0.01899047114,0.1025630486,0.2865672194,0.05193237636,0.1856416862,0.09067266968,0.3597004568,0.1276386533,0.4329472563,0.1023521317,0.1016557561,0.02927120548,0.05193989139,0.09822926614,0.02488727337,0.495032409,0.2282433785,0.8523762952,0.05818316278,0.1040798456,0.1638370713,0.1382828489,0.2560542766,0.6371173492,0.05201966672,0.03251207672,0.03183106707,0.06793413591,0.02606804239,0.009369747694,0.02341566518,0.06686856991,0.3319323662,0.1032694913,0.1358187646,0.3775145018,0.018315263,0.09438108951,0.9022243606,0.2737809886,0.1542537104,0.07084804743,0.03048673688,0.04025625048,0.1723075133,0.142664996,0.0922012913,0.06046910877,0.1537899841,0.3751592145,0.0921129528,0.1940287202,0.4747483257,0.1490312307,0.4663573736,0.02001890211,0.03198020237,0.06230612474,0.06083021496,0.1483224286,0.0730050574,0.05708962648,0.1362447103,0.04021451229,0.05433062806,0.008247471299,0.02341858454,0.08672226904,0.1147912517,0.02532014591,0.08519352827,0.117284213,0.01588035422,0.06823331969,0.03381336365,0.08715860074,0.007511447937,0.08884683546,0.1101852536,0.05780101499,0.04279442881,0.584930454,0.01827828914,0.5151551349,0.1426429485,0.07224732834,0.04164116167,0.05248709382,0.192693988,0.1408094133,0.3306662504,0.2030560841,0.3327626367,0.1136678726,0.200760469,0.08418157797,0.2203502805,0.5871970607,0.6183063095,0.2204748418,0.4173262662,0.6461703591,0.1623062019,0.4784138741,0.7661379452,0.09606052027,0.6287601013,0.5926041973,0.3065030679,0.5260850038,0.4685947654,0.4081506075,0.3325792689,0.1734893591,0.0257087359,0.01615044776,0.04250496731,0.06788996658,0.683718449,0.3031578361,0.1394067153,0.3480831288,0.3245365244,0.2158425295,0.5472896497,0.1468765846,0.1295323056,0.1774834657,0.5813454097,0.3408308052,0.05256871631,0.03393241635,0.1770230186,0.05501955234,0.06237574477,0.02483636845,0.358344843,0.09342501671,0.05631808282,0.009932257988,0.05302810556,0.2324264644,0.04960624396,0.005634268525,0.06920309836,0.07646661952,0.5552444013,0.03978076643,0.1159070133,0.01370097199,0.04161242463,0.5426525761,0.257704999,0.02448637347,0.01053781012,0.05845601097,0.1235841639,0.04549759841,0.09615148437,0.1468728474,0.1768329077,0.05270621263,0.05520801872,0.02337541778,0.1985231936,0.1601639659,0.1013689682,0.06624885101,0.1394468032,0.303005259,0.2341180188,0.120247173,0.2391713087,0.1299656314,0.08749107673,0.02026980929,0.05079822815,0.05520799959,0.02814327199,0.07218636742,0.03382972175,0.01617482002,0.1082474844,0.07139128537,0.1419487338,0.04631422768,0.128344189,0.1640954296,0.04217134779,0.03102073502,0.3305071341,0.3779012506,0.09871023858,0.04225995399,0.1275866893,0.03392383925,0.1805115845,0.1052823423,0.1264467317,0.01517939808,0.0395217552,0.07557077822,0.03348196283,0.03134592493,0.07633224497,0.01439067648,0.04313254985,0.08265924337,0.1070383362,0.3279129527,0.09681042508,0.1183893771,0.08209457355,0.1614204966,0.05090311905,0.1060749456,0.07334459429,0.02804859464,0.03021689848,0.09648517125,0.007356874214,0.05194414329,0.0284831937,0.02766179784,0.01494428113,0.0118921394,0.06462381278,0.08369549343,0.039310284,0.03285726083,0.2424285389,0.06604832358,0.05533675274,0.5662559361,0.1575886662,0.3999103661,0.3037976228,0.1555729554,0.05503345478,0.2004378016,0.05160737011,0.1343648542,0.3006695207,0.04906219759,0.1032986998,0.1492548065,0.1250629409,0.1815547537,0.06064164146,0.417476949,0.3473517166,0.4116994009,0.1051521245,0.1316923875,0.09822489305,0.1076236006,0.3108339411,0.2109861932,0.1092397592,0.1407744775,0.4822451266,0.06230561232,0.1625503451,0.08855265282,0.1229582073,0.2258006722,0.06301516084,0.008652328568,0.06753319187,0.04070107665,0.03642689194,0.02328249536,0.06803677128,0.01911972872,0.05673609881,0.1180621701,0.05715992265,0.05627216871,0.1323508076,0.1637199716,0.09399372057,0.1863003076,0.4449458865,0.1331979652,0.09861391424,0.1217560844,0.2122822694,0.1302608704,0.08460819419,0.05407870013,0.07721868095,0.2141502445,0.01595565463,0.115295646,0.1939670755,0.6723214341,0.4188065083,0.3577443797,0.1220826534,0.2137429403,0.1050924161,0.02722257767,0.2145357784,0.1342685621,0.05924547679,0.06476509282,0.1643221458,0.07703129257,0.1622426932,0.02695625004,0.06985278698,0.06046555153,0.05512760355,0.1812782461,0.0997579616,0.06613717104,0.05956269271,0.08445762247,0.07677698667,0.01868428903,0.03572156849,0.04869395246,0.008303083897,0.01529019017,0.04437072636,0.08135176057,0.1019757625,0.3894062123,0.1879790896,0.1018027812,0.06300544726,0.2323458163,0.1067483834,0.02015466921,0.2446111019,0.02698260994,0.01409222542,0.04943367365,0.1481231431,0.1857185203,0.07201664045,0.06766024096,0.05806984886,0.07103762535,0.04195556699,0.04436862718,0.1925475277,0.1048279975,0.04096271501,0.02996006429,0.220188669,0.09301492374,0.09951899441,0.02308970999,0.4524137447,0.3213729488,0.1061258523,0.08176399351,0.07943556288,0.5000003912,1,1,NaN,NaN],
	"pwr": [NaN,5.386188895e-08,7.467423665e-08,7.966496839e-08,8.734950454e-08,1.734563574e-08,2.045089536e-08,4.770360344e-08,8.950693249e-08,7.602408925e-08,6.813892853e-08,3.327580128e-08,1.676614803e-07,1.693846111e-07,5.202739759e-08,3.506950937e-08,8.414733891e-08,1.375910043e-07,9.46753166e-08,5.084496106e-08,4.31900844e-08,6.954183098e-08,5.396712502e-08,3.349885125e-08,1.315636819e-07,1.338130855e-07,9.504426122e-08,9.317154685e-08,7.829322804e-08,1.048071446e-07,8.307930936e-08,8.448806743e-08,1.135371388e-07,1.346112338e-07,1.107131006e-07,1.624717099e-07,2.338771999e-07,4.613027656e-07,6.774969815e-07,1.598512131e-07,1.115694895e-06,1.848346704e-06,1.10645338e-06,1.798200156e-06,5.750352072e-06,5.350083919e-06,1.874236305e-05,2.374470708e-05,1.320914273e-05,1.272959799e-05,2.404588766e-05,9.750422078e-06,2.463205591e-05,7.452539346e-06,1.102625149e-05,2.03883204e-05,1.077243977e-05,2.130931157e-05,2.55371841e-05,0.002825973912,0.002798371068,0.02476742693,0.02531665796,0.005121854502,0.01131661124,0.01574674721,0.005528087392,0.003577211536,0.04962107183,0.02763977543,0.02801285604,0.0055969545,0.0007221422452,0.002606887023,0.002604663434,0.0006123523916,0.0001563360711,0.0005943680832,0.005598758427,0.05679070011,0.01231690941,0.01317734555,0.02330606615,0.01004293068,0.01269100502,0.01712273096,0.03053067516,0.0559098066,0.0477000605,0.01187931958,0.002946105827,0.006664070434,0.02674207326,0.03078208127,0.01668840924,0.007664280161,0.001126732343,0.002042818355,0.0006751168818,0.0006120054312,0.0002178770231,0.001665222355,0.02169050039,0.03841841148,0.108735494,0.1893617662,0.1987053641,0.1169935682,0.02204525955,0.005331332853,0.009888124886,0.03765457838,0.07721161431,0.1227871258,0.1096427,0.01763904248,0.003208119221,0.00401340447,0.03186387026,0.003828821615,0.0009608529886,0.003958880304,0.003248056786,0.0003731411584,0.003167277305,0.002775074345,0.06362415109,0.07094864919,0.08043742809,0.05668967705,0.001116958546,0.004280766261,0.008704689433,0.01678473946,0.01583588984,0.07131684459,0.002544762862,0.000746987877,0.0003944263179,0.001060710858,0.001210646295,0.0009064612677,0.005195705485,0.004891982587,0.01770620301,0.004284535712,0.002057058092,0.0001109993878,0.0005535632782,0.002264012837,0.002800508892,0.002281380698,0.008083753316,0.01818036858,0.009822549454,0.01128851139,0.007394902004,0.004453994802,0.004634587993,9.755513572e-05,0.0005274344171,0.01043316978,0.009165022136,0.006699063555,0.008018682239,0.006269765928,0.005246216143,0.003210751696,0.009723779853,0.02657841191,0.0194084325,0.005934589539,0.01649495798,0.013195263,0.012037507,0.01467410825,0.008784019531,0.006581634212,0.01021081945,0.01246261251,0.01229190688,0.007081221546,0.007880862251,0.009687096708,0.01764870558,0.01567621789,0.01023983444,0.04707037435,0.01745323041,0.01429099165,0.06171121316,0.00170109992,0.0006556129589,0.002865446368,0.002412385099,0.01438770047,0.0005494286131,0.006828018656,0.002154783063,0.0118857527,0.02571751159,0.01632913439,0.04453108043,0.06946295501,0.02521225666,0.004971937672,0.0006541361632,0.0006641520123,0.00462268741,0.005067467505,0.0005546037984,0.001207924601,0.0001972962047,0.002084658535,0.02949585268,0.06337673262,0.07079583111,0.04589642419,0.09989253296,0.05675779803,0.01263521756,0.002562700652,0.001597773225,0.00583648778,0.002709753515,0.0001601128811,0.005733096467,0.01797045217,0.01175086826,0.006203766843,0.01404353552,0.04072998813,0.0642154514,0.03548669462,0.04354078897,0.01302721936,0.01203449818,0.01042229982,0.03659288636,0.0007523056163,0.002717369283,0.003024518378,0.0007739041992,0.0006472196934,0.02312905987,0.1651116268,0.1144534076,0.02435717751,0.02207757583,0.02131922071,0.02174952283,0.022986411,0.03424571747,0.05888701462,0.01218128997,0.01607472836,0.008645766725,0.003633389049,0.006031813959,0.003888061928,0.002340002763,0.003030141704,0.01233826701,0.009176232007,0.003971005754,0.004887336666,0.003119357866,0.001815034413,0.0009765701902,0.0006260208887,0.001282008022,0.0009225176327,0.001174485677,0.0004581444333,6.215509775e-05,0.0002292600123,0.0006582442622,0.0002716331521,1.061379484e-05,1.165044365e-05,3.646127132e-05,3.339109488e-05,2.285921858e-05,2.174713762e-05,1.849985115e-05,2.093806136e-05,7.793822707e-06,4.017334051e-06,4.509960733e-06,4.909786686e-06,1.5807797e-05,2.09114865e-05,7.77044917e-07,2.83568751e-07,6.3133455e-08,6.194500526e-06,4.67224791e-06,1.953311139e-05,1.478185477e-05,1.866708277e-05,5.508825342e-06,2.692017693e-05,0.0001025214708,0.02732348538,0.02790651215,0.01874126702,0.01471744628,0.003782794786,0.001534296714,0.0008710978165,0.002057555905,0.009683724208,0.008076387357,0.0008202119419,0.001141403607,0.004429321059,0.001909782591,0.0005378093225,5.093052595e-05,0.0002946304254,0.002747747349,0.006782297969,0.001575711432,0.0004034444573,0.002827927636,0.002354535738,0.0001399026623,0.0003679903417,0.0008252223119,0.0007387763424,0.0003692742098,0.0001807139723,0.0003022917087,0.00194998456,0.001174848726,9.789526179e-05,7.40483845e-06,0.0001668756995,0.000115200315,0.0005338756281,0.000600455984,0.0001053102042,0.002648516646,0.04417306308,0.03583897099,0.009402219909,0.01024412504,0.0317754132,0.0256423912,0.003279857007,0.003542014514,0.002485005651,0.001701874691,0.001268535607,0.003634563615,0.004983585185,0.005186447673,0.002703550773,0.0001977282624,0.0002532077232,5.921949369e-05,8.542071233e-05,0.0001379586962,0.0003325804877,0.0009719814698,0.005170515734,0.002104092158,0.002746162117,0.002481618969,0.001618813674,0.001697674525,0.00233601102,0.001712180173,0.0008764280508,0.0004780320152,0.0009732457022,0.001680807701,0.0006296537183,0.0003714122103,0.0009343090615,0.001295402249,0.002253987536,0.02910907934,0.04447254441,0.01653413571,0.01479718445,0.009768816931,0.004501553941,0.0393868854,0.0265653915,0.06503278199,0.02296508805,0.01085317175,0.02331414626,0.039717537,0.05547119048,0.03669241935,0.0193991656,0.02217825629,0.006039803413,0.007820458607,0.005725505548,0.003810742412,0.004285562265,0.006474282529,0.05522786664,0.02917104725,0.02652753343,0.02937098852,0.03073478327,0.03147810475,0.03057128915,0.02304309015,0.02519458559,0.02538726493,0.02369350134,0.03311237164,0.01926941329,0.01673178646,0.02785721896,0.00375946883,0.02741397561,0.01950820331,0.002027203619,0.0001077908201,0.0001190201503,0.0006062219879,0.000986456789,0.01812118885,0.008887991644,0.003895754098,0.00250136549,0.0006317745142,0.0009673554053,0.0005997576466,0.0003684043181,0.0001829928152,6.640260073e-05,0.0001248781644,9.443126907e-05,0.0003138016333,0.0005020654673,0.005830354955,0.01541865875,0.004945822906,0.00316100666,0.01086468388,0.00391704551,0.001375727777,0.0003489710581,7.464799679e-05,0.000455512556,0.0002557180885,0.0008545405103,0.0001930298505,0.0002523903737,0.005515923931,0.009088868062,0.003434760559,0.004448759499,0.003043411727,0.002644658434,0.001331733046,0.000362406508,0.0005326126279,0.001184649089,0.00186495999,0.001841305058,0.0005947675827,5.045815436e-05,4.662563597e-05,9.27530608e-05,0.0004402151542,0.003160233538,0.002242267545,0.001014961322,0.001447910585,0.002817556453,0.003193884615,0.004509096985,0.00775044609,0.0009121843399,0.004723100246,0.00107061176,0.0002437617374,7.35111016e-05,8.472473973e-05,0.0007824517361,0.03812380181,0.03035018459,0.0129084543,0.01178101241,0.005479404767,0.007462204653,0.01189322213,0.005011080929,0.003302188642,0.007135469159,0.007028432181,0.005860623935,0.003367451961,0.002440256101,0.00409847418,0.001341024229,0.001132162988,0.001123680804,0.001071924826,0.001425994282,0.001475640371,0.001410957281,0.0009684003779,0.0007062449573,0.0007346458446,0.0008620235118,0.0004685206674,0.0002198373242,9.115869429e-05,6.859437824e-05,5.302698869e-05,5.504546554e-05,8.480476168e-06,5.746198152e-06,1.1578722e-05,3.384472699e-05,4.875076219e-06,7.088073809e-06,1.603144349e-05,1.206318511e-05,3.56363459e-07,2.959495617e-07,3.16863754e-07,1.078870884e-07,1.151441821e-07,2.485111894e-07,1.015670895e-06,2.058728138e-06,5.069221271e-08,5.610475919e-08,1.267595662e-07,1.248798499e-07,2.386142559e-08,1.36609174e-08,3.292945283e-08,1.139820119e-07,2.388939417e-08,1.915219811e-10,7.952878351e-10,2.574314341e-09,1.149173512e-09,1.385438541e-10,0,0,NaN,NaN],
	"sr": 16000,
	"range": [1,177408],
	"minf0": 63.1883,
	"maxf0": 706.3069,
	"thresh": 0.1,
	"relflag": 1,
	"hop": 320,
	"bufsize": 10000,
	"wsize": 640,
	"lpf": 4000,
	"shift": 0,
	"plotthreshold": 0.2
}
