{
    "f0": [
        46.365797088719034,
        46.191800436509794,
        50.27387512249328,
        52.59681417214086,
        52.59681417214086,
        52.776729850596979,
        52.669004664226762,
        51.528083476972974,
        49.599911835620773,
        50.464031731619031,
        50.36622476180991,
        50.642600882773351,
        50.678781910525899,
        47.543817560024479,
        49.823235340449813,
        47.595572436936955,
        49.288344664727404,
        49.136772938760856,
        48.735454989784024,
        48.9639711615756,
        45.712585197167762,
        46.428374306507735,
        45.96476183820208,
        45.121813036443115,
        41.799633896788713,
        42.472332112980055,
        46.329507462475142,
        46.572938664135719,
        46.679982753800488,
        46.852599463216279,
        47.333582054121649,
        47.674082107551641,
        47.896658527989779,
        47.864282696176787,
        47.467435580499668,
        46.721450864549418,
        46.799442841131224,
        47.988245990997285,
        48.760767304333285,
        52.684120999620859,
        52.546751734561624,
        52.684809715244121,
        52.711782354961464,
        52.738714546457615,
        52.937865223277747,
        52.875815380188783,
        53.025746712032415,
        52.066510877420498,
        53.021131162089937,
        53.92585653859544,
        54.258316778153095,
        54.584515389127063,
        54.699936054218419,
        54.916592498822851,
        54.906280433205005,
        54.847736869614963,
        54.285886304078133,
        53.260422488856406,
        55.163238267345847,
        55.026062336499109,
        54.207767306585026,
        54.554169533079808,
        54.603614210185057,
        56.092955053998516,
        55.648002809213494,
        55.478337755532081,
        55.458610646012509,
        55.705963582037199,
        55.71117485082371,
        55.66209646402924,
        55.822884563836411,
        55.741275514317223,
        55.74211998715819,
        55.938399383524278,
        55.686366103074327,
        55.951294238077566,
        55.82444087870752,
        55.821380756869985,
        56.098884690431589,
        56.106095716819482,
        55.896958383489014,
        56.363402266913937,
        56.45754698541991,
        56.3814234735448,
        56.224901659723059,
        56.153404769915113,
        56.038259195038421,
        56.116441556921565,
        56.104135827580784,
        56.088095446638434,
        55.724148175378744,
        56.375657063881519,
        56.438863096470946,
        56.078726772500239,
        56.276612045929468,
        56.165243406189603,
        56.172868876700647,
        56.374033747289218,
        56.303500107889455,
        56.457914967165735,
        55.859228715420606,
        55.467379038493902,
        55.794686650145394,
        56.228374683237178,
        55.889963096539724,
        58.882227537701795,
        57.244643073311593,
        57.018794773245524,
        56.743958816980516,
        56.488081688985524,
        56.559329683115919,
        56.593643097403628,
        56.472190387399692,
        56.707105721063698,
        56.775124392109504,
        56.84287925155644,
        57.25320181352906,
        57.487376264447732,
        57.45108869248466,
        57.914623442662979,
        58.082033776754585,
        58.215091119384233,
        58.18939718297203,
        58.337248530413071,
        57.906619267221011,
        58.464445276449062,
        58.432816215555377,
        57.93645722341887,
        58.346057145387277,
        58.250449232242836,
        58.185740018439688,
        59.180448126484983,
        58.43550099322978,
        58.061472731800592,
        57.816470182394468,
        57.670721156990865,
        57.644249808590942,
        58.402167992644216,
        58.13147666684948,
        58.069077179822628,
        58.24293079143915,
        57.807740873376886,
        57.843677008619295,
        56.715963502523749,
        56.293430574467678,
        56.141939159569461,
        56.1904603361019,
        56.20690016177528,
        56.107692567087042,
        55.988346561103597,
        55.878027003382684,
        55.934304559971636,
        55.406367997531376,
        55.001263593603021,
        54.858013144315606,
        54.403188348696752,
        54.050147660906262,
        54.310623902185178,
        54.08684311788118,
        54.079012747144532,
        54.071181722256213,
        54.406173561063781,
        53.837664981977952,
        54.079871246948755,
        54.278777744322795,
        54.321195877281937,
        53.913288105917516,
        54.146348844804677,
        54.472443300496053,
        53.857384948084793,
        54.216158713926717,
        54.355397076613308,
        54.29552722096588,
        54.289763800641474,
        54.22821898538956,
        54.366728880537394,
        54.504137942734694,
        54.450092644613527,
        54.441387871318895,
        54.38262115807612,
        54.38343544374851,
        54.400597468520019,
        54.40957520166755,
        54.338565411781531,
        54.378507313244299,
        54.332461861236567,
        54.348119721310496,
        54.52481075540431,
        54.620191714841923,
        54.524147178024606,
        54.725483447402702,
        54.633698844992303,
        54.62853985577506,
        54.610811175280688,
        54.573189942619038,
        54.54544775839635,
        54.55899672583849,
        54.559193072785646,
        54.566061639681557,
        54.569592291316582,
        54.553083890859547,
        54.547121887177752,
        54.590439659350736,
        54.633654818497121,
        54.653868341930107,
        54.685499212680284,
        54.711359802085823,
        54.629960885494185,
        54.548176079974965,
        54.638270044325083,
        54.594990556319885,
        54.551602511141269,
        54.634278396450256,
        54.582136553193926,
        54.414654847133185,
        54.47605418447921,
        54.489581222699734,
        54.503099063307438,
        54.516603632223259,
        54.493238558572578,
        54.469839176057931,
        54.531665204212025,
        54.501607945585775,
        54.471501143535946,
        54.441339156635003,
        54.411124437665322,
        54.464963369487393,
        54.518635297962184,
        54.198488058266847,
        54.272393020284795,
        54.302530694467073,
        54.180325922030974,
        54.05725108569758,
        54.276130323587182,
        54.181965168353791,
        54.226812529717577,
        54.400453814008799,
        54.33467771962259,
        54.833914020593305,
        54.205877953335708,
        54.435011377139872,
        54.406590575847289,
        54.52744674668449,
        54.463542579756457,
        54.632067444207152,
        54.893098238496322,
        54.92995167048943,
        54.903000770322386,
        55.916891730904446,
        54.796288109439097,
        54.283593856943909,
        54.53324520475477,
        54.53840073328783,
        54.836674836815362,
        54.812421945200917,
        54.563992596442482,
        54.93775139026836,
        55.300455083085396,
        55.307504494545498,
        55.139702268855125,
        54.531733086126934,
        54.302668174882839,
        54.547466431319336,
        54.788852675109631,
        54.499597828731538,
        55.62302014278557,
        54.515444870181398,
        55.193387720989193,
        0.0,
        0.0,
        0.0,
        0.0,
        0.0,
        0.0,
        0.0,
        0.0,
        0.0,
        0.0,
        0.0,
        0.0,
        0.0,
        0.0,
        0.0,
        0.0,
        0.0,
        0.0,
        0.0,
        0.0,
        0.0,
        0.0,
        0.0,
        0.0,
        0.0,
        0.0,
        0.0,
        0.0,
        0.0,
        0.0,
        0.0,
        0.0,
        0.0,
        0.0,
        0.0,
        0.0,
        0.0,
        0.0,
        0.0,
        0.0,
        0.0,
        0.0,
        0.0,
        0.0,
        0.0,
        0.0,
        0.0,
        0.0,
        0.0,
        0.0,
        0.0,
        0.0,
        0.0,
        0.0,
        0.0,
        0.0,
        0.0,
        0.0,
        0.0,
        0.0,
        0.0,
        0.0,
        0.0,
        0.0,
        0.0,
        0.0,
        0.0,
        0.0,
        0.0,
        0.0
    ],
    "time": [
        0.02,
        0.040000000000000001,
        0.059999999999999998,
        0.080000000000000002,
        0.10000000000000001,
        0.12,
        0.14000000000000001,
        0.16,
        0.17999999999999999,
        0.20000000000000001,
        0.22,
        0.23999999999999999,
        0.26000000000000001,
        0.28000000000000003,
        0.29999999999999999,
        0.32000000000000001,
        0.34000000000000002,
        0.35999999999999999,
        0.38,
        0.40000000000000002,
        0.41999999999999998,
        0.44,
        0.46000000000000002,
        0.47999999999999998,
        0.5,
        0.52000000000000002,
        0.54000000000000004,
        0.56000000000000005,
        0.57999999999999996,
        0.59999999999999998,
        0.62,
        0.64000000000000001,
        0.66000000000000003,
        0.68000000000000005,
        0.69999999999999996,
        0.71999999999999997,
        0.73999999999999999,
        0.76000000000000001,
        0.78000000000000003,
        0.80000000000000004,
        0.81999999999999995,
        0.83999999999999997,
        0.85999999999999999,
        0.88,
        0.90000000000000002,
        0.92000000000000004,
        0.93999999999999995,
        0.95999999999999996,
        0.97999999999999998,
        1.0,
        1.02,
        1.04,
        1.0600000000000001,
        1.0800000000000001,
        1.1000000000000001,
        1.1200000000000001,
        1.1399999999999999,
        1.1599999999999999,
        1.1799999999999999,
        1.2,
        1.22,
        1.24,
        1.26,
        1.28,
        1.3,
        1.3200000000000001,
        1.3400000000000001,
        1.3600000000000001,
        1.3799999999999999,
        1.3999999999999999,
        1.4199999999999999,
        1.4399999999999999,
        1.46,
        1.48,
        1.5,
        1.52,
        1.54,
        1.5600000000000001,
        1.5800000000000001,
        1.6000000000000001,
        1.6200000000000001,
        1.6399999999999999,
        1.6599999999999999,
        1.6799999999999999,
        1.7,
        1.72,
        1.74,
        1.76,
        1.78,
        1.8,
        1.8200000000000001,
        1.8400000000000001,
        1.8600000000000001,
        1.8799999999999999,
        1.8999999999999999,
        1.9199999999999999,
        1.9399999999999999,
        1.96,
        1.98,
        2.0,
        2.02,
        2.04,
        2.0600000000000001,
        2.0800000000000001,
        2.1000000000000001,
        2.1200000000000001,
        2.1400000000000001,
        2.1600000000000001,
        2.1800000000000002,
        2.2000000000000002,
        2.2200000000000002,
        2.2400000000000002,
        2.2599999999999998,
        2.2799999999999998,
        2.2999999999999998,
        2.3199999999999998,
        2.3399999999999999,
        2.3599999999999999,
        2.3799999999999999,
        2.3999999999999999,
        2.4199999999999999,
        2.4399999999999999,
        2.46,
        2.48,
        2.5,
        2.52,
        2.54,
        2.5600000000000001,
        2.5800000000000001,
        2.6000000000000001,
        2.6200000000000001,
        2.6400000000000001,
        2.6600000000000001,
        2.6800000000000002,
        2.7000000000000002,
        2.7200000000000002,
        2.7400000000000002,
        2.7599999999999998,
        2.7799999999999998,
        2.7999999999999998,
        2.8199999999999998,
        2.8399999999999999,
        2.8599999999999999,
        2.8799999999999999,
        2.8999999999999999,
        2.9199999999999999,
        2.9399999999999999,
        2.96,
        2.98,
        3.0,
        3.02,
        3.04,
        3.0600000000000001,
        3.0800000000000001,
        3.1000000000000001,
        3.1200000000000001,
        3.1400000000000001,
        3.1600000000000001,
        3.1800000000000002,
        3.2000000000000002,
        3.2200000000000002,
        3.2400000000000002,
        3.2599999999999998,
        3.2799999999999998,
        3.2999999999999998,
        3.3199999999999998,
        3.3399999999999999,
        3.3599999999999999,
        3.3799999999999999,
        3.3999999999999999,
        3.4199999999999999,
        3.4399999999999999,
        3.46,
        3.48,
        3.5,
        3.52,
        3.54,
        3.5600000000000001,
        3.5800000000000001,
        3.6000000000000001,
        3.6200000000000001,
        3.6400000000000001,
        3.6600000000000001,
        3.6800000000000002,
        3.7000000000000002,
        3.7200000000000002,
        3.7400000000000002,
        3.7599999999999998,
        3.7799999999999998,
        3.7999999999999998,
        3.8199999999999998,
        3.8399999999999999,
        3.8599999999999999,
        3.8799999999999999,
        3.8999999999999999,
        3.9199999999999999,
        3.9399999999999999,
        3.96,
        3.98,
        4.0,
        4.0199999999999996,
        4.04,
        4.0599999999999996,
        4.0800000000000001,
        4.0999999999999996,
        4.1200000000000001,
        4.1399999999999997,
        4.1600000000000001,
        4.1799999999999997,
        4.2000000000000002,
        4.2199999999999998,
        4.2400000000000002,
        4.2599999999999998,
        4.2800000000000002,
        4.2999999999999998,
        4.3200000000000003,
        4.3399999999999999,
        4.3600000000000003,
        4.3799999999999999,
        4.4000000000000004,
        4.4199999999999999,
        4.4400000000000004,
        4.46,
        4.4800000000000004,
        4.5,
        4.5199999999999996,
        4.54,
        4.5599999999999996,
        4.5800000000000001,
        4.5999999999999996,
        4.6200000000000001,
        4.6399999999999997,
        4.6600000000000001,
        4.6799999999999997,
        4.7000000000000002,
        4.7199999999999998,
        4.7400000000000002,
        4.7599999999999998,
        4.7800000000000002,
        4.7999999999999998,
        4.8200000000000003,
        4.8399999999999999,
        4.8600000000000003,
        4.8799999999999999,
        4.9000000000000004,
        4.9199999999999999,
        4.9400000000000004,
        4.96,
        4.9800000000000004,
        5.0,
        5.0199999999999996,
        5.04,
        5.0599999999999996,
        5.0800000000000001,
        5.0999999999999996,
        5.1200000000000001,
        5.1399999999999997,
        5.1600000000000001,
        5.1799999999999997,
        5.2000000000000002,
        5.2199999999999998,
        5.2400000000000002,
        5.2599999999999998,
        5.2800000000000002,
        5.2999999999999998,
        5.3200000000000003,
        5.3399999999999999,
        5.3600000000000003,
        5.3799999999999999,
        5.4000000000000004,
        5.4199999999999999,
        5.4400000000000004,
        5.46,
        5.4800000000000004,
        5.5,
        5.5199999999999996,
        5.54,
        5.5599999999999996,
        5.5800000000000001,
        5.5999999999999996,
        5.6200000000000001,
        5.6399999999999997,
        5.6600000000000001,
        5.6799999999999997,
        5.7000000000000002,
        5.7199999999999998,
        5.7400000000000002,
        5.7599999999999998,
        5.7800000000000002,
        5.7999999999999998,
        5.8200000000000003,
        5.8399999999999999,
        5.8600000000000003,
        5.8799999999999999,
        5.9000000000000004,
        5.9199999999999999,
        5.9400000000000004,
        5.96,
        5.9800000000000004,
        6.0,
        6.0199999999999996,
        6.04,
        6.0599999999999996,
        6.0800000000000001,
        6.0999999999999996,
        6.1200000000000001,
        6.1399999999999997,
        6.1600000000000001,
        6.1799999999999997,
        6.2000000000000002,
        6.2199999999999998,
        6.2400000000000002,
        6.2599999999999998,
        6.2800000000000002,
        6.2999999999999998,
        6.3200000000000003,
        6.3399999999999999,
        6.3600000000000003,
        6.3799999999999999,
        6.4000000000000004,
        6.4199999999999999,
        6.4400000000000004,
        6.46,
        6.4800000000000004,
        6.5,
        6.5199999999999996,
        6.54,
        6.5599999999999996,
        6.5800000000000001,
        6.5999999999999996,
        6.6200000000000001,
        6.6399999999999997,
        6.6600000000000001,
        6.6799999999999997,
        6.7000000000000002,
        6.7199999999999998,
        6.7400000000000002,
        6.7599999999999998
    ]
}