{
    "DU": 109,
    "DV": 256,
    "F-measure": 0.8971428571428571,
    "F-measure Chroma": 0.9114285714285715,
    "FN": 2,
    "FNC": 0,
    "FNCch": 0,
    "FNI": 2,
    "FNIch": 2,
    "FP": 28,
    "GU": 135,
    "GV": 230,
    "Overall Accuracy": 0.8602739726027397,
    "Overall Chroma Accuracy": 0.873972602739726,
    "Precision": 0.8650137741046832,
    "Precision Chroma": 0.8787878787878788,
    "Raw Chroma Accuracy": 0.9217391304347826,
    "Raw Pitch Accuracy": 0.9,
    "Recall": 0.9317507418397626,
    "Recall Chroma": 0.9465875370919882,
    "TN": 107,
    "TO": 365,
    "TP": 228,
    "TPC": 207,
    "TPCch": 212,
    "TPI": 21,
    "TPIch": 16,
    "Voiced Chroma Accuracy": 0.9217391304347826,
    "Voiced Pitch Accuracy": 0.9,
    "Voicing Accuracy": 0.9178082191780822,
    "Voicing Detection": 0.991304347826087,
    "Voicing False Alarm": 0.2074074074074074
}