{
    "DU": 17,
    "DV": 350,
    "F-measure": 0.5368916797488226,
    "F-measure Chroma": 0.7566718995290425,
    "FN": 0,
    "FNC": 0,
    "FNCch": 0,
    "FNI": 0,
    "FNIch": 0,
    "FP": 97,
    "GU": 114,
    "GV": 253,
    "Overall Accuracy": 0.4659400544959128,
    "Overall Chroma Accuracy": 0.6566757493188011,
    "Precision": 0.4659400544959128,
    "Precision Chroma": 0.6566757493188011,
    "Raw Chroma Accuracy": 0.8853754940711462,
    "Raw Pitch Accuracy": 0.6086956521739131,
    "Recall": 0.6333333333333333,
    "Recall Chroma": 0.8925925925925926,
    "TN": 17,
    "TO": 367,
    "TP": 253,
    "TPC": 154,
    "TPCch": 224,
    "TPI": 99,
    "TPIch": 29,
    "Voiced Chroma Accuracy": 0.8853754940711462,
    "Voiced Pitch Accuracy": 0.6086956521739131,
    "Voicing Accuracy": 0.7356948228882834,
    "Voicing Detection": 1.0,
    "Voicing False Alarm": 0.8508771929824561
}