{
	"f0": [NaN,52.68147502,54.30040362,53.50429368,53.8977729,54.71262168,51.83657672,56.8426292,55.42923246,55.16211549,54.85622577,54.69208969,54.7294254,55.34995772,54.9224708,55.12688172,55.32625926,55.84090711,56.20166823,55.83809878,55.74977526,55.83615782,56.04442183,55.75935621,55.89201712,56.32850099,56.30345588,56.16338003,56.88954771,57.82899507,57.69441925,57.78298556,57.44635452,57.40131359,57.54978892,57.3492137,57.21487291,57.37350536,57.75166409,57.96383543,57.77266147,57.68356993,58.45065241,50.65662613,50.8147459,50.64422198,59.46645118,59.96918103,59.69264225,58.36195864,58.16354076,58.47023873,58.45662042,58.45724606,59.21309485,59.2342623,58.75708893,58.25105432,58.28989119,58.51718543,58.79989946,58.78689301,58.83352937,59.00151521,59.0158274,58.93004029,59.00056724,59.23520541,60.10119045,59.71212904,59.08473976,58.97163762,59.39723012,61.21841468,61.71532494,60.91732291,60.68708282,61.12504205,63.04991618,63.14399075,63.89321879,65.15424568,65.77190864,65.34507197,60.33040771,65.3108577,48.4344459,66.8898517,67.3056313,68.03873167,68.19467297,68.19286169,68.26934948,68.41030517,68.29999684,68.31326841,68.389117,68.37702405,68.38689693,68.42767985,68.3756947,68.33423941,68.33498998,68.25856913,68.20779214,68.25146342,68.27792895,68.27554791,68.29518336,68.30943265,68.31107399,68.30265468,68.32343003,68.33462413,68.29818398,68.24226092,68.19707378,68.20630073,68.22477671,68.23796403,68.25227653,68.2587617,68.28232908,68.22723158,68.19329058,68.25048251,68.28185115,68.27675997,68.2649611,68.23690976,68.25772005,68.23198252,68.16282094,68.13460159,68.15236284,68.11654055,68.06435237,68.05274905,68.09418637,68.088555,68.10288032,68.15740816,68.21395608,68.28630669,68.34948077,68.30453659,68.27626243,68.29283354,68.36560824,68.61090248,68.62391311,68.45318383,68.46198206,68.55773119,68.5565314,68.40365428,68.33208485,68.36469577,68.17983286,67.69456232,57.83960092,55.87956259,49.33487526,56.38081472,56.44037956,54.91208632,51.82184837,51.62908564,50.31549102,55.73088104,49.6499685,49.72188755,49.51975537,49.59444407,49.65146313,54.63751056,67.67843863,67.69105108,67.64412364,67.45592323,67.49666994,67.46136235,67.36422872,67.3509493,67.66685914,67.97138153,68.09144477,68.08683619,68.13007626,68.09326864,68.01831385,67.87603151,67.78433704,67.90483179,67.81223059,54.33258895,66.53949359,66.81294504,66.9650934,67.17624789,67.11882411,66.58293879,66.55616043,66.60631844,66.52800108,66.44356456,66.57034654,66.57996902,66.49269101,66.40040404,65.96788694,65.55915653,65.85832781,65.97233311,65.98018569,47.22673551,47.01204022,53.26971639,64.31928285,64.16283948,64.14702424,64.14508475,64.09654102,64.09389485,63.99364232,64.01131267,63.98511981,64.09208347,64.58945267,64.56401516,63.78915568,64.38517662,64.32451153,64.39191379,64.39480471,64.2357121,54.30040362,67.34995772,66.92695955,66.90988918,66.97237306,66.98099494,66.98043156,66.3989013,67.3070617,67.6731837,67.64613065,67.70144251,67.90175018,67.90269869,68.0909254,68.0315855,68.02992387,68.12797345,68.14493762,68.22857795,68.31946842,68.39490741,68.32241254,68.27288155,68.28264189,68.34751141,68.32486743,68.22982269,68.20073918,68.20512644,68.11569436,67.92888343,67.06430812,53.30634478,53.34225294,49.52483579,49.38851895,49.05874659,49.41474335,40.14301172,55.0598289,66.20301812,66.05575061,65.85640288,65.61979334,65.58790347,65.45189758,65.82860104,66.35024496,66.33108088,66.3019123,66.2464766,66.07693586,66.02323117,66.0263634,66.0515865,66.23879692,66.34822013,66.16542188,66.09870953,66.09942153,66.17473904,66.23327125,66.28025282,66.29034326,66.27050314,65.97505488,65.80544329,66.18119614,66.41574489,65.82108902,65.35190075,65.90867206,66.45944009,65.94623126,65.16230245,65.24455758,65.84548305,66.23863277,66.26383364,65.93781257,65.85263074,66.24614355,66.27122293,66.13692267,65.93908732,65.44884461,65.08565861,65.23074671,65.75476636,66.26841444,66.30404024,66.42526458,66.28010614,65.68304571,65.52274327,66.0979178,65.3108577,74.15444483,NaN,NaN,NaN],
	"ap0": [NaN,0.5198307186,0.4287936482,0.5529357417,0.5442621103,0.545785642,0.490361647,0.5971752763,0.07368912958,0.02579125419,0.02205206653,0.03977640748,0.1204810646,0.3712985463,0.2897924121,0.06790573218,0.04574939843,0.05808203068,0.04797322672,0.01757962511,0.01467325777,0.03570582081,0.06511915899,0.04422537819,0.03597671258,0.02745839064,0.03558371045,0.06525594797,0.1945534854,0.06042185687,0.02420268225,0.01738607978,0.0125911783,0.009117821146,0.02175879383,0.02882212645,0.01286296461,0.02725498776,0.0745020771,0.07126136369,0.06583634326,0.09290888133,0.2099618597,0.7177265934,0.3355643123,0.5613001157,0.6076235447,0.542272446,0.4456472322,0.3598905414,0.2844974189,0.05211724764,0.0199472172,0.04639797939,0.1430859489,0.1810960753,0.1000386831,0.04839607198,0.04083233724,0.06726286368,0.02926954526,0.02127728576,0.05164985513,0.1053071933,0.1085861594,0.04527650443,0.0422794151,0.08161793043,0.1454609454,0.1438774002,0.04161340317,0.04842348394,0.203130477,0.2979307086,0.2535964559,0.1438659559,0.05660560697,0.09354194182,0.1233206186,0.1550079569,0.219326081,0.1527894042,0.2172065534,0.5827808473,0.5544582296,0.5439530042,0.386920877,0.1650985203,0.09913424016,0.05267396377,0.02893392641,0.02207280442,0.04472391307,0.05263682348,0.02779976872,0.02120348223,0.01296466452,0.01262279784,0.0097943103,0.007209995783,0.005962204708,0.005103498858,0.004455137126,0.004662620826,0.004044030508,0.002907442217,0.002505412071,0.001980671184,0.003168828775,0.003799475162,0.004004715091,0.003580813466,0.002575008168,0.002732977192,0.002829154892,0.002579373675,0.003963904712,0.003753059289,0.003074193705,0.002702534299,0.002193399763,0.003727062885,0.003417667442,0.003454631742,0.002556652428,0.002020299464,0.002801917913,0.003594630561,0.004404150351,0.006173950031,0.005685511986,0.003356168136,0.004121635363,0.005297082974,0.003780387167,0.003413054266,0.003819091398,0.003707718572,0.004543884257,0.00450099187,0.00399033064,0.003997000383,0.004916277545,0.005248747735,0.002864540438,0.001704258884,0.00164937725,0.003223877108,0.008130427617,0.02978082132,0.05394525051,0.01577002907,0.007989613463,0.008438534026,0.006685895551,0.008372180762,0.01950940626,0.1175335819,0.1194654488,0.1849162295,0.6264126176,0.3916107895,0.3440637668,0.4312933992,0.5453713242,0.625568697,0.3787999769,0.1610751805,0.4449693052,0.5296492334,0.5161566223,0.4211850513,0.1907427639,0.1771054567,0.257145511,0.691023405,0.04678042871,0.022153001,0.01255842834,0.00849713465,0.005645600266,0.00776895998,0.01280116286,0.02013947583,0.02519512406,0.01440745537,0.01723973925,0.031555435,0.01233809317,0.00395607742,0.008628587249,0.04830579585,0.2169105316,0.1740166802,0.2665407783,0.2453528212,0.1732449048,0.05963478066,0.03630740009,0.07668406098,0.07794709175,0.02239094279,0.03547783581,0.03376709856,0.03367941608,0.0432059097,0.03260576731,0.04220412317,0.05699671478,0.06535523457,0.09481192879,0.1189085627,0.107654384,0.107664766,0.4473846883,0.4450411834,0.2930497299,0.4753700138,0.04841918694,0.02506162876,0.01761442638,0.01459943116,0.02233555612,0.0513642503,0.08638017311,0.07133870548,0.04816567369,0.04724558884,0.07422966805,0.3739239155,0.3771845666,0.08102393726,0.02651826122,0.02144077317,0.05236672733,0.1430798381,0.7466119153,0.288183352,0.1092943544,0.0525770312,0.0195596355,0.00838492715,0.03619623802,0.1891715035,0.1067132126,0.02454160186,0.01293576597,0.01349317098,0.04067055713,0.03124526198,0.01108900327,0.005038166258,0.00407698062,0.00644160901,0.01259828175,0.02590127334,0.06724605,0.0208901737,0.008149125988,0.006808117075,0.009967894628,0.01848957623,0.01017412777,0.006492512903,0.009831732624,0.01593209978,0.02240890356,0.05017373984,0.4792523851,0.4246925315,0.4568503272,0.7323678916,0.5559168097,0.5520784228,0.3719299534,0.2605751186,0.3449743521,0.05189012104,0.01664219391,0.009757408559,0.01370073799,0.04960314138,0.09165006267,0.1095313709,0.1250822977,0.1765708813,0.080450318,0.0404403845,0.02325306702,0.01401135986,0.0147883894,0.02606496812,0.02339402003,0.05767469783,0.05583519297,0.02324908884,0.01355143577,0.01147115771,0.0109869543,0.01381561727,0.01963295849,0.03438366464,0.06421892305,0.02982158987,0.01866834306,0.02504578897,0.04460163668,0.05658522535,0.2314370252,0.5203640351,0.331410051,0.1813020863,0.1383230195,0.08317922299,0.0370904456,0.009974244719,0.01040876709,0.01543058649,0.0295491632,0.02773537764,0.03621731785,0.04692614406,0.09051321915,0.05678216342,0.08150094954,0.1406088614,0.07705219727,0.04137977757,0.04211433537,0.03380927978,0.0371349706,0.0486061641,0.2573418211,0.9340896275,1,NaN,NaN,NaN],
	"ap": [NaN,0.6481951428,0.310360475,0.2283353567,0.4560825937,0.5718281603,0.5417393479,0.6307062978,0.3744274694,0.2835018233,0.003161449665,0.002218118885,0.02416906351,0.09409366801,0.4152760299,0.1037750654,0.06648170152,0.04758338875,0.01995248733,0.01547161676,0.01430990135,0.004432506627,0.02849054868,0.1260762472,0.00568391386,0.04928026254,0.004502477429,0.007968903096,0.06048283851,0.06830262587,0.01031609664,0.01886079399,0.009576859231,0.01024627939,0.004482875931,0.01195546219,0.01904609477,0.01230868816,0.007555599653,0.03519169997,0.01667019019,0.0249507576,0.1551747125,0.4963491956,0.1199743976,0.2466148473,0.3745672598,0.2836702056,0.2434081064,0.7920097549,0.1184865498,0.1153567031,0.1824800291,0.004652818252,0.02019861902,0.08757005279,0.1778454328,0.08208543076,0.03161296146,0.03874342218,0.009747185335,0.05532338723,0.009261948263,0.007090240467,0.001893496808,0.05074473775,0.01058920173,0.005091303523,0.03005618117,0.07740161727,0.09311378921,0.005883986729,0.0122179712,0.1653705241,0.5224546681,0.211428105,0.4860099618,0.0178497618,0.2214325803,0.1156865606,0.06485616986,0.09064675784,0.1161819528,0.09098364681,0.271166314,0.5463497656,0.2654971645,0.7715095043,0.5756157755,0.01094221052,0.0295496961,0.003579153825,0.004351282891,0.01020547319,0.05382927373,0.01556279212,0.003608807484,0.007971045015,0.00901844645,0.001437574979,0.003437513342,0.001479746038,0.001698235709,0.00585775891,0.002108918452,0.002173328387,0.002135793269,0.001058026429,0.001055693723,0.001142721554,0.001737981758,0.001773769594,0.003609778342,0.0009494070451,0.0005360831345,0.002254764558,0.0006392754779,0.001518948659,0.003280150982,0.001328175999,0.002261607899,0.001408170197,0.001413275922,0.002074848935,0.001686148579,0.0007456252978,0.001501918253,0.0009780490308,0.0002841992845,0.0004027343464,0.0007159102532,0.01030974164,0.002519526921,0.001750839962,0.001709601853,0.001312020663,0.0023512065,0.0009567669457,0.004811746716,0.004968259152,0.002449479024,0.0006259776531,0.003107543805,0.003146289597,0.005474168034,0.003066958754,0.001860407348,0.000371846983,0.001618754049,0.004642138714,0.02147500654,0.09286806378,0.01814057359,0.003428783257,0.005051185016,0.00401376131,0.00266792928,0.01273123607,0.09683496412,0.0738179663,0.6078299325,0.3895492856,0.3505171286,0.1466011908,0.07134647409,0.52390057,0.700531746,0.4754209886,0.186726073,0.2480059199,0.2685896619,0.1933508921,0.1638579604,0.05483333879,0.04126255412,0.6090676697,0.5852573886,0.04087887616,0.008093316152,0.02900565339,0.008083066307,0.002834576469,0.004982724267,0.002464431256,0.01191179863,0.03944408537,0.005105031196,0.002157950481,0.009728477791,0.01025214532,0.0004994143926,0.0008680991327,0.01876823736,0.1852902769,0.2698883825,0.4891373348,0.08550880905,0.1560080795,0.04615483602,0.02158840446,0.02003988071,0.0728723238,0.01293887511,0.01099018735,0.02049581265,0.0130513293,0.007064146374,0.02075152797,0.01269118337,0.02271350694,0.04211124082,0.08063170558,0.03098704773,0.07941638316,0.07828675009,0.2023988753,0.09879754463,0.5858818367,0.2199129174,0.2530944006,0.0168912231,0.004860700614,0.003830888273,0.0137771474,0.01604195795,0.01628696776,0.086623691,0.05835161172,0.02525368317,0.01483501054,0.02820172054,0.6848751999,0.2552461575,0.01683744845,0.03123043793,0.01054208088,0.4414627433,0.1052615715,0.6028592628,0.007143644796,0.09905792545,0.01442960228,0.003801430717,0.08016577322,0.3784277281,0.0678089363,0.02304850309,0.008809776391,0.004947606561,0.02087128226,0.06213743887,0.004750428401,0.004386814086,0.002006336309,0.001221994011,0.006119658478,0.01202999359,0.01857781273,0.08784745456,0.01363821595,0.00348985097,0.004375292106,0.01211752296,0.00375501543,0.001097846689,0.002410332288,0.01600639705,0.007808549659,0.03123023807,0.5901683057,0.3362283152,0.2393152229,0.4293304107,0.3128707443,0.4857476003,0.2545926359,0.1587841418,0.3851871164,0.0536828498,0.004084670271,0.003565361857,0.004108501794,0.01424215853,0.1089955361,0.1732798928,0.1333437302,0.1650282841,0.05903403061,0.03445750535,0.01645267391,0.003315221342,0.002893665766,0.013097906,0.02743281065,0.006158350625,0.008936227581,0.04061310429,0.004951668724,0.003495195544,0.006502678979,0.005333880634,0.008031490898,0.03142572083,0.08582925782,0.05324296048,0.006664257586,0.02388768158,0.06022942781,0.02402892699,0.3445006403,0.2851779454,0.2870480575,0.07728890186,0.05770526734,0.1250709079,0.003648921113,0.008096596015,0.005464668285,0.02738967768,0.005429403733,0.005272234793,0.01459411846,0.01101618351,0.1766102183,0.06354760768,0.08509870238,0.03440282924,0.1317402196,0.00945105128,0.008106399172,0.02400994522,0.01882210982,0.03164165602,0.1253716923,1,NaN,NaN,NaN],
	"pwr": [NaN,5.592633385e-06,1.617255826e-05,5.970571224e-05,0.001430093956,0.001002001875,0.001765161357,0.0004727242225,0.005900312313,0.01003548033,0.1244772173,0.1020808123,0.09269832726,0.006015295823,0.0003121131151,0.0009575704044,0.005193952357,0.04449300546,0.01225302701,0.0192108585,0.1371054462,0.3865611884,0.07903649759,0.00897224102,0.05968942413,0.05393825281,0.07220047995,0.1229917135,0.02150519787,0.002032823169,0.002380963254,0.02609219128,0.03146389186,0.1216504343,0.2757334448,0.1504836755,0.08834914077,0.06689184447,0.02844919886,0.03570581137,0.04949383118,0.1385775931,0.06353882962,0.006651716348,0.0004065921908,0.0001134950616,5.283843178e-05,0.0003054151816,0.001259976339,0.004314663593,0.008819683184,0.005193745277,0.01356764835,0.2113484805,0.04429695848,0.01115798202,0.005714234531,0.007037913459,0.006352243686,0.003486709142,0.005738880954,0.00905823767,0.0406819655,0.09713564855,0.1284408173,0.1120516786,0.05779314098,0.05861645577,0.02460118071,0.01950432992,0.1172240061,0.1056536272,0.1261055195,0.09630213324,0.008032111029,0.03201225445,0.004911528756,0.02862258448,0.09441944172,0.0120897387,0.1705001936,0.1832860602,0.1887926501,0.0639653289,0.004195665208,0.007261520957,0.007782854089,0.00326540338,0.003407279951,0.04532611698,0.05219781021,0.06352742825,0.0561702928,0.03484044041,0.01336214214,0.004808270487,0.01503828072,0.01112991051,0.01965900952,0.02219093462,0.02621916863,0.02700382751,0.03486552392,0.04456155975,0.02881452668,0.03798129207,0.03041402238,0.02401460816,0.01935247677,0.01542164204,0.01437440433,0.01845971782,0.0224919363,0.02297673589,0.02485264106,0.02174991259,0.01718270986,0.01716859245,0.0148648075,0.01945324813,0.02846214876,0.02326581832,0.01583135227,0.01667857417,0.02461824682,0.03756883272,0.03448561595,0.02970916066,0.02572025224,0.01959084976,0.01708942764,0.02001010232,0.01929353502,0.03069174821,0.0234681704,0.01703191981,0.01898957677,0.01623472718,0.008349459333,0.004220861574,0.008805298681,0.01545594871,0.01425799921,0.005128237193,0.002200753901,0.004295160514,0.01193139109,0.02431222001,0.02003487397,0.007732550248,0.0006759569458,7.247308409e-05,0.001382966083,0.005078307589,0.002655933898,0.00207487839,0.002429566403,0.002195038698,4.114687188e-05,3.134398973e-05,0.0001175636898,6.581773036e-05,0.0002780556257,0.0001531859345,0.000186674613,0.0002131807635,0.0002962234313,0.0002149872501,0.0005458259708,0.0003045238965,7.870284507e-05,6.160022513e-05,6.443885857e-05,4.668318327e-05,0.0001774866713,0.0002338018048,0.0001750471676,0.0005543316686,0.1056643171,0.1281122399,0.05706476786,0.1304361994,0.2678380086,0.1127925039,0.02343734705,0.007735149179,0.02043463314,0.01311615365,0.02452163191,0.05694257732,0.1523707679,0.1874407441,0.01464268911,0.00434944448,0.002090913995,0.0007667231894,0.001720130878,0.01171634417,0.03925242008,0.1199822633,0.09158858068,0.006798030772,0.01560805024,0.01146597995,0.00654196886,0.01182549262,0.009536349611,0.00731755767,0.02050209108,0.01539711325,0.00888047595,0.001405591479,0.0003778924604,0.0001826566186,0.0002917000029,0.0007029185848,0.0001804340624,0.0003238712773,0.001570564874,0.00160338478,0.05859872563,0.06322294352,0.07780664511,0.06143224395,0.04912743641,0.02160663245,0.02390656237,0.00350667453,0.003308731014,0.0007161413548,0.0003379500198,0.0001329883893,0.0002220818383,0.002806641869,0.005943931616,0.0100045403,0.003140505392,0.0005466302304,0.006802145302,0.03688846396,0.007860431775,0.03211325841,0.02846499284,0.003496333631,0.0001413067282,0.001247048145,0.003283977028,0.01607516962,0.02470799979,0.007926737003,0.00101542703,0.01300835121,0.0412675055,0.09048997341,0.02818811143,0.006206889938,0.001613468219,0.0003974555907,0.0002062963559,0.003188614715,0.01000449261,0.007185658903,0.001973107029,0.002010733735,0.005794160911,0.01138695879,0.005314131115,0.007143197059,0.002729467975,9.642270176e-05,0.0001054885129,0.0004963387198,0.000253156012,0.0007130361091,0.001823532428,0.002975321542,0.005547789414,0.003633878119,0.005161733125,0.0935746173,0.07477058464,0.03051837383,0.01380734023,0.007606005271,0.005077924304,0.001418512018,0.0003779314667,0.003680091941,0.003899105998,0.02085599182,0.04316014935,0.03118641764,0.008526119528,0.001923994001,0.001089969186,0.0006302990724,0.002855673533,0.008768615632,0.004982850678,0.005646717886,0.009799472269,0.005099707856,0.002303581773,0.0005163818332,0.001517428493,0.002174707427,0.0005479527689,0.0001996501766,3.053398638e-05,5.372246449e-06,3.816818203e-06,4.736976966e-06,9.436235577e-06,2.311639321e-05,1.643220603e-05,4.270419463e-05,5.300953854e-05,4.17386563e-05,2.529755818e-05,4.474771812e-06,3.00685533e-06,1.119070459e-05,1.62581686e-06,1.239249884e-07,2.767140543e-07,4.484851515e-07,9.868352529e-07,1.728150146e-07,6.343574906e-07,8.948796152e-07,8.869994247e-08,3.27318029e-08,6.776860764e-08,1.503051155e-09,0,NaN,NaN,NaN],
	"sr": 16000,
	"range": [1,108032],
	"minf0": 63.1883,
	"maxf0": 706.3069,
	"thresh": 0.1,
	"relflag": 1,
	"hop": 320,
	"bufsize": 10000,
	"wsize": 640,
	"lpf": 4000,
	"shift": 0,
	"plotthreshold": 0.2
}
