{
    "DU": 142,
    "DV": 133,
    "F-measure": 0.7937743190661478,
    "F-measure Chroma": 0.8715953307392996,
    "FN": 21,
    "FNC": 0,
    "FNCch": 0,
    "FNI": 21,
    "FNIch": 21,
    "FP": 15,
    "GU": 136,
    "GV": 139,
    "Overall Accuracy": 0.7418181818181818,
    "Overall Chroma Accuracy": 0.8145454545454546,
    "Precision": 0.8031496062992126,
    "Precision Chroma": 0.8818897637795275,
    "Raw Chroma Accuracy": 0.7410071942446043,
    "Raw Pitch Accuracy": 0.5971223021582733,
    "Recall": 0.7846153846153846,
    "Recall Chroma": 0.8615384615384616,
    "TN": 121,
    "TO": 275,
    "TP": 118,
    "TPC": 83,
    "TPCch": 103,
    "TPI": 35,
    "TPIch": 15,
    "Voiced Chroma Accuracy": 0.7410071942446043,
    "Voiced Pitch Accuracy": 0.5971223021582733,
    "Voicing Accuracy": 0.8690909090909091,
    "Voicing Detection": 0.8489208633093526,
    "Voicing False Alarm": 0.11029411764705882
}