{
    "DU": 94,
    "DV": 490,
    "F-measure": 0.7246653919694073,
    "F-measure Chroma": 0.8546845124282983,
    "FN": 8,
    "FNC": 1,
    "FNCch": 4,
    "FNI": 7,
    "FNIch": 4,
    "FP": 114,
    "GU": 200,
    "GV": 384,
    "Overall Accuracy": 0.648972602739726,
    "Overall Chroma Accuracy": 0.7654109589041096,
    "Precision": 0.6579861111111112,
    "Precision Chroma": 0.7760416666666666,
    "Raw Chroma Accuracy": 0.9505208333333334,
    "Raw Pitch Accuracy": 0.765625,
    "Recall": 0.8063829787234043,
    "Recall Chroma": 0.951063829787234,
    "TN": 86,
    "TO": 584,
    "TP": 376,
    "TPC": 293,
    "TPCch": 361,
    "TPI": 83,
    "TPIch": 15,
    "Voiced Chroma Accuracy": 0.9401041666666666,
    "Voiced Pitch Accuracy": 0.7630208333333334,
    "Voicing Accuracy": 0.791095890410959,
    "Voicing Detection": 0.9791666666666666,
    "Voicing False Alarm": 0.57
}