{
    "DU": 150,
    "DV": 176,
    "F-measure": 0.8736,
    "F-measure Chroma": 0.9344,
    "FN": 21,
    "FNC": 4,
    "FNCch": 13,
    "FNI": 17,
    "FNIch": 8,
    "FP": 6,
    "GU": 135,
    "GV": 191,
    "Overall Accuracy": 0.8374233128834356,
    "Overall Chroma Accuracy": 0.8957055214723927,
    "Precision": 0.8950819672131147,
    "Precision Chroma": 0.9573770491803278,
    "Raw Chroma Accuracy": 0.9214659685863874,
    "Raw Pitch Accuracy": 0.774869109947644,
    "Recall": 0.853125,
    "Recall Chroma": 0.9125,
    "TN": 129,
    "TO": 326,
    "TP": 170,
    "TPC": 144,
    "TPCch": 163,
    "TPI": 26,
    "TPIch": 7,
    "Voiced Chroma Accuracy": 0.8534031413612565,
    "Voiced Pitch Accuracy": 0.7539267015706806,
    "Voicing Accuracy": 0.9171779141104295,
    "Voicing Detection": 0.8900523560209425,
    "Voicing False Alarm": 0.044444444444444446
}