{
    "DU": 10,
    "DV": 461,
    "F-measure": 0.6025,
    "F-measure Chroma": 0.7525,
    "FN": 0,
    "FNC": 0,
    "FNCch": 0,
    "FNI": 0,
    "FNIch": 0,
    "FP": 142,
    "GU": 152,
    "GV": 319,
    "Overall Accuracy": 0.5116772823779193,
    "Overall Chroma Accuracy": 0.6390658174097664,
    "Precision": 0.5116772823779193,
    "Precision Chroma": 0.6390658174097664,
    "Raw Chroma Accuracy": 0.9122257053291536,
    "Raw Pitch Accuracy": 0.7241379310344828,
    "Recall": 0.7325227963525835,
    "Recall Chroma": 0.9148936170212766,
    "TN": 10,
    "TO": 471,
    "TP": 319,
    "TPC": 231,
    "TPCch": 291,
    "TPI": 88,
    "TPIch": 28,
    "Voiced Chroma Accuracy": 0.9122257053291536,
    "Voiced Pitch Accuracy": 0.7241379310344828,
    "Voicing Accuracy": 0.6985138004246284,
    "Voicing Detection": 1.0,
    "Voicing False Alarm": 0.9342105263157895
}