{
    "DU": 87,
    "DV": 315,
    "F-measure": 0.8069241011984022,
    "F-measure Chroma": 0.8948069241011984,
    "FN": 23,
    "FNC": 3,
    "FNCch": 3,
    "FNI": 20,
    "FNIch": 20,
    "FP": 30,
    "GU": 94,
    "GV": 308,
    "Overall Accuracy": 0.753731343283582,
    "Overall Chroma Accuracy": 0.835820895522388,
    "Precision": 0.7994722955145118,
    "Precision Chroma": 0.8865435356200527,
    "Raw Chroma Accuracy": 0.8928571428571429,
    "Raw Pitch Accuracy": 0.7857142857142857,
    "Recall": 0.8145161290322581,
    "Recall Chroma": 0.9032258064516129,
    "TN": 64,
    "TO": 402,
    "TP": 285,
    "TPC": 239,
    "TPCch": 272,
    "TPI": 46,
    "TPIch": 13,
    "Voiced Chroma Accuracy": 0.8831168831168831,
    "Voiced Pitch Accuracy": 0.775974025974026,
    "Voicing Accuracy": 0.8681592039800995,
    "Voicing Detection": 0.9253246753246753,
    "Voicing False Alarm": 0.3191489361702128
}