{
    "f0": [
        0.0,
        56.303121374122028,
        43.003423835717506,
        41.908206979099774,
        42.80968306768424,
        52.199861969483592,
        52.334786385706884,
        52.118909136595398,
        51.85843347566118,
        51.999054654839377,
        51.980452611380713,
        51.949529698061312,
        52.07971662421501,
        52.353811140842247,
        52.20270580796641,
        52.211468724302982,
        52.423935839807456,
        52.359507476372748,
        52.334627615685292,
        52.108222973408942,
        51.807200884774318,
        51.880169179066833,
        52.099393319765497,
        52.069663992674926,
        53.636384775103124,
        53.233800832827121,
        52.667126360352043,
        52.840359742875421,
        52.733903623840128,
        52.745940799891727,
        53.282453933054882,
        53.730509419332122,
        53.779808856810249,
        53.849236924462474,
        53.559905867032597,
        53.885408736661262,
        53.949761776365051,
        53.967449113251817,
        54.008324016387078,
        54.209794673591183,
        54.408947590030706,
        53.899113442386451,
        54.146606531483414,
        53.445462851256778,
        53.858451795308056,
        53.995423875347043,
        54.436254834130594,
        56.400467750686573,
        56.600284753651081,
        56.625136572543425,
        56.649947789260281,
        56.500735606772807,
        56.582948816310939,
        56.578480769205726,
        56.709389292568467,
        56.71367839793578,
        56.717968840494748,
        56.701401558822631,
        56.536065622975613,
        56.616648300949208,
        56.696862597962372,
        56.592482571804986,
        56.457105916675374,
        56.507188157194541,
        56.517831823387468,
        56.491522093767031,
        56.465171183875484,
        56.522378483869687,
        56.4959743160275,
        56.469532331334705,
        56.615315039747912,
        56.535905255990798,
        56.712171843125212,
        56.886665558047575,
        56.532094890712457,
        56.519123177601486,
        56.675214223633787,
        56.581664632875707,
        56.417080743015617,
        0.0,
        49.213147412228693,
        55.004247147323923,
        55.176515203459253,
        55.176515203459253,
        55.176511181528198,
        55.176511181528198,
        55.348772904437581,
        55.071623959268337,
        55.28858379844025,
        55.330525396760535,
        55.45853976527286,
        55.503234097650463,
        55.439481331334719,
        55.976078064561932,
        56.186760804407697,
        56.198889774934969,
        55.959476140164227,
        56.099861188468587,
        56.087704339635565,
        56.225251988931419,
        56.146487228966791,
        56.261985171041459,
        56.042392964328677,
        56.312003338004388,
        56.04250973159624,
        56.250662678608023,
        56.206973069077847,
        56.262011449293254,
        56.242112980831578,
        56.222189063569957,
        56.202242190435101,
        56.354531611046454,
        55.919527362176083,
        55.961840093003744,
        55.54067157859869,
        55.432041098382342,
        54.819320217400538,
        54.046646186713502,
        53.919204064563587,
        53.966391868599104,
        54.1486439492149,
        54.08823827248353,
        54.115889664173402,
        54.14349556914776,
        54.171057431719731,
        54.075036506958156,
        54.223997797487797,
        54.251831626762879,
        54.219177734376075,
        54.184708968055645,
        54.191589333137003,
        54.150362549825253,
        54.173183883321748,
        54.195976560988086,
        54.179738104074829,
        54.199587747148456,
        54.219414657470459,
        54.239218887050541,
        54.259000487720115,
        54.451024752802766,
        54.381963275886477,
        54.191964996432887,
        54.403792398876313,
        54.333945220662088,
        54.48477066834463,
        54.587610254790334,
        53.825055402957986,
        54.598111123276681,
        54.192613109829303,
        54.378849552983439,
        54.732300093317683,
        54.289238586879719,
        54.450077326364408,
        54.137613252708746,
        53.750006922801745,
        53.731892908275256,
        53.868235851143076,
        54.134810907559341,
        56.4004155313254,
        57.365934323188824,
        57.892302525274815,
        40.945134662219736,
        51.647965271235194,
        52.020035062162314,
        56.371073007417834,
        55.771116363786874,
        55.38770668577564,
        54.167528057470001,
        53.468332270239742,
        51.715736777307171,
        53.847895824186246,
        53.962956315330523,
        53.549937110944832,
        54.275889938696707,
        54.811503646631095,
        54.521401173512913,
        53.120699166499953,
        52.035053557788224,
        53.904156963199661,
        53.468417672650546,
        53.697546455002154,
        52.984892567172281,
        54.025448277590129,
        55.085737142124486,
        56.047696763617346,
        56.269901332663991,
        41.479797610670659,
        42.086013271589465,
        53.682791187522426,
        36.85250195515912,
        56.585658348471661,
        56.399109018442076,
        56.416380310584358,
        56.433633169915119,
        55.744144557060388,
        55.44914317586634,
        56.936241709476093,
        56.488175711489141,
        56.493269265846052,
        57.470516328248735,
        58.113811938577442,
        58.163809855246178,
        56.272891980370993,
        56.889081431644016,
        56.396274384795504,
        56.334993824856177,
        56.223419862408726,
        58.13660602199846,
        56.518971391838619,
        56.584953661038284,
        56.518678739305926,
        42.005590659855216,
        42.134826414461116,
        41.803138073116493,
        41.705827277264042,
        41.635237061750473,
        42.064462452453299,
        41.719310552780527,
        41.925496672912736,
        41.980993308532504,
        41.417020037507775,
        41.634764536115739,
        0.0,
        0.0,
        0.0,
        0.0,
        0.0,
        0.0,
        0.0,
        0.0,
        0.0,
        0.0,
        0.0,
        0.0,
        0.0,
        0.0,
        0.0,
        0.0,
        0.0,
        0.0,
        0.0,
        0.0,
        0.0,
        0.0,
        0.0,
        0.0,
        0.0,
        0.0,
        0.0,
        52.217079199113051,
        37.99769314866812,
        44.431551116904359,
        42.587233490579692,
        45.070037332260505,
        44.337092427829035,
        42.64486920491759,
        41.593331928868359,
        41.494987176556847,
        41.796321041631025,
        41.600752229120459,
        41.718383193165593,
        41.471066385719261,
        41.584476433703742,
        41.550302083177542,
        41.516061486729456,
        41.064641746544282,
        41.730098894575775,
        0.0,
        0.0,
        0.0,
        41.732803673326856,
        0.0,
        0.0,
        0.0,
        0.0,
        0.0,
        0.0,
        0.0,
        0.0,
        0.0,
        0.0,
        0.0,
        0.0,
        0.0,
        0.0,
        0.0,
        0.0,
        0.0,
        0.0,
        0.0,
        0.0,
        0.0,
        0.0,
        0.0,
        0.0,
        0.0,
        0.0,
        0.0,
        0.0,
        0.0,
        0.0,
        0.0,
        0.0,
        0.0,
        0.0,
        49.224368747755072,
        49.050373855364597,
        43.835872109924765,
        42.4205455446358,
        37.178454971060333,
        41.25932703204073,
        41.835770890079786,
        41.886583126945091,
        41.981349305692326,
        42.05367977316962,
        41.825302129940141,
        41.826124149714921,
        41.454488327328654,
        41.954398367252182,
        38.046804572753317,
        41.622553534190573,
        0.0,
        0.0,
        0.0,
        0.0,
        0.0,
        0.0,
        0.0,
        0.0,
        0.0,
        0.0,
        0.0,
        0.0,
        0.0,
        0.0,
        0.0,
        0.0,
        0.0,
        0.0,
        0.0,
        0.0,
        0.0,
        0.0,
        0.0,
        0.0,
        0.0,
        0.0,
        0.0,
        0.0,
        0.0,
        0.0,
        0.0,
        0.0,
        0.0,
        0.0,
        0.0,
        0.0,
        0.0,
        0.0,
        0.0,
        0.0,
        0.0,
        0.0,
        0.0,
        0.0,
        0.0,
        0.0,
        0.0,
        0.0,
        0.0,
        0.0,
        0.0,
        0.0,
        0.0,
        0.0,
        0.0,
        0.0,
        0.0,
        0.0,
        0.0,
        0.0,
        0.0,
        0.0,
        0.0,
        0.0
    ],
    "time": [
        0.02,
        0.040000000000000001,
        0.059999999999999998,
        0.080000000000000002,
        0.10000000000000001,
        0.12,
        0.14000000000000001,
        0.16,
        0.17999999999999999,
        0.20000000000000001,
        0.22,
        0.23999999999999999,
        0.26000000000000001,
        0.28000000000000003,
        0.29999999999999999,
        0.32000000000000001,
        0.34000000000000002,
        0.35999999999999999,
        0.38,
        0.40000000000000002,
        0.41999999999999998,
        0.44,
        0.46000000000000002,
        0.47999999999999998,
        0.5,
        0.52000000000000002,
        0.54000000000000004,
        0.56000000000000005,
        0.57999999999999996,
        0.59999999999999998,
        0.62,
        0.64000000000000001,
        0.66000000000000003,
        0.68000000000000005,
        0.69999999999999996,
        0.71999999999999997,
        0.73999999999999999,
        0.76000000000000001,
        0.78000000000000003,
        0.80000000000000004,
        0.81999999999999995,
        0.83999999999999997,
        0.85999999999999999,
        0.88,
        0.90000000000000002,
        0.92000000000000004,
        0.93999999999999995,
        0.95999999999999996,
        0.97999999999999998,
        1.0,
        1.02,
        1.04,
        1.0600000000000001,
        1.0800000000000001,
        1.1000000000000001,
        1.1200000000000001,
        1.1399999999999999,
        1.1599999999999999,
        1.1799999999999999,
        1.2,
        1.22,
        1.24,
        1.26,
        1.28,
        1.3,
        1.3200000000000001,
        1.3400000000000001,
        1.3600000000000001,
        1.3799999999999999,
        1.3999999999999999,
        1.4199999999999999,
        1.4399999999999999,
        1.46,
        1.48,
        1.5,
        1.52,
        1.54,
        1.5600000000000001,
        1.5800000000000001,
        1.6000000000000001,
        1.6200000000000001,
        1.6399999999999999,
        1.6599999999999999,
        1.6799999999999999,
        1.7,
        1.72,
        1.74,
        1.76,
        1.78,
        1.8,
        1.8200000000000001,
        1.8400000000000001,
        1.8600000000000001,
        1.8799999999999999,
        1.8999999999999999,
        1.9199999999999999,
        1.9399999999999999,
        1.96,
        1.98,
        2.0,
        2.02,
        2.04,
        2.0600000000000001,
        2.0800000000000001,
        2.1000000000000001,
        2.1200000000000001,
        2.1400000000000001,
        2.1600000000000001,
        2.1800000000000002,
        2.2000000000000002,
        2.2200000000000002,
        2.2400000000000002,
        2.2599999999999998,
        2.2799999999999998,
        2.2999999999999998,
        2.3199999999999998,
        2.3399999999999999,
        2.3599999999999999,
        2.3799999999999999,
        2.3999999999999999,
        2.4199999999999999,
        2.4399999999999999,
        2.46,
        2.48,
        2.5,
        2.52,
        2.54,
        2.5600000000000001,
        2.5800000000000001,
        2.6000000000000001,
        2.6200000000000001,
        2.6400000000000001,
        2.6600000000000001,
        2.6800000000000002,
        2.7000000000000002,
        2.7200000000000002,
        2.7400000000000002,
        2.7599999999999998,
        2.7799999999999998,
        2.7999999999999998,
        2.8199999999999998,
        2.8399999999999999,
        2.8599999999999999,
        2.8799999999999999,
        2.8999999999999999,
        2.9199999999999999,
        2.9399999999999999,
        2.96,
        2.98,
        3.0,
        3.02,
        3.04,
        3.0600000000000001,
        3.0800000000000001,
        3.1000000000000001,
        3.1200000000000001,
        3.1400000000000001,
        3.1600000000000001,
        3.1800000000000002,
        3.2000000000000002,
        3.2200000000000002,
        3.2400000000000002,
        3.2599999999999998,
        3.2799999999999998,
        3.2999999999999998,
        3.3199999999999998,
        3.3399999999999999,
        3.3599999999999999,
        3.3799999999999999,
        3.3999999999999999,
        3.4199999999999999,
        3.4399999999999999,
        3.46,
        3.48,
        3.5,
        3.52,
        3.54,
        3.5600000000000001,
        3.5800000000000001,
        3.6000000000000001,
        3.6200000000000001,
        3.6400000000000001,
        3.6600000000000001,
        3.6800000000000002,
        3.7000000000000002,
        3.7200000000000002,
        3.7400000000000002,
        3.7599999999999998,
        3.7799999999999998,
        3.7999999999999998,
        3.8199999999999998,
        3.8399999999999999,
        3.8599999999999999,
        3.8799999999999999,
        3.8999999999999999,
        3.9199999999999999,
        3.9399999999999999,
        3.96,
        3.98,
        4.0,
        4.0199999999999996,
        4.04,
        4.0599999999999996,
        4.0800000000000001,
        4.0999999999999996,
        4.1200000000000001,
        4.1399999999999997,
        4.1600000000000001,
        4.1799999999999997,
        4.2000000000000002,
        4.2199999999999998,
        4.2400000000000002,
        4.2599999999999998,
        4.2800000000000002,
        4.2999999999999998,
        4.3200000000000003,
        4.3399999999999999,
        4.3600000000000003,
        4.3799999999999999,
        4.4000000000000004,
        4.4199999999999999,
        4.4400000000000004,
        4.46,
        4.4800000000000004,
        4.5,
        4.5199999999999996,
        4.54,
        4.5599999999999996,
        4.5800000000000001,
        4.5999999999999996,
        4.6200000000000001,
        4.6399999999999997,
        4.6600000000000001,
        4.6799999999999997,
        4.7000000000000002,
        4.7199999999999998,
        4.7400000000000002,
        4.7599999999999998,
        4.7800000000000002,
        4.7999999999999998,
        4.8200000000000003,
        4.8399999999999999,
        4.8600000000000003,
        4.8799999999999999,
        4.9000000000000004,
        4.9199999999999999,
        4.9400000000000004,
        4.96,
        4.9800000000000004,
        5.0,
        5.0199999999999996,
        5.04,
        5.0599999999999996,
        5.0800000000000001,
        5.0999999999999996,
        5.1200000000000001,
        5.1399999999999997,
        5.1600000000000001,
        5.1799999999999997,
        5.2000000000000002,
        5.2199999999999998,
        5.2400000000000002,
        5.2599999999999998,
        5.2800000000000002,
        5.2999999999999998,
        5.3200000000000003,
        5.3399999999999999,
        5.3600000000000003,
        5.3799999999999999,
        5.4000000000000004,
        5.4199999999999999,
        5.4400000000000004,
        5.46,
        5.4800000000000004,
        5.5,
        5.5199999999999996,
        5.54,
        5.5599999999999996,
        5.5800000000000001,
        5.5999999999999996,
        5.6200000000000001,
        5.6399999999999997,
        5.6600000000000001,
        5.6799999999999997,
        5.7000000000000002,
        5.7199999999999998,
        5.7400000000000002,
        5.7599999999999998,
        5.7800000000000002,
        5.7999999999999998,
        5.8200000000000003,
        5.8399999999999999,
        5.8600000000000003,
        5.8799999999999999,
        5.9000000000000004,
        5.9199999999999999,
        5.9400000000000004,
        5.96,
        5.9800000000000004,
        6.0,
        6.0199999999999996,
        6.04,
        6.0599999999999996,
        6.0800000000000001,
        6.0999999999999996,
        6.1200000000000001,
        6.1399999999999997,
        6.1600000000000001,
        6.1799999999999997,
        6.2000000000000002,
        6.2199999999999998,
        6.2400000000000002,
        6.2599999999999998,
        6.2800000000000002,
        6.2999999999999998,
        6.3200000000000003,
        6.3399999999999999,
        6.3600000000000003,
        6.3799999999999999,
        6.4000000000000004,
        6.4199999999999999,
        6.4400000000000004,
        6.46,
        6.4800000000000004,
        6.5,
        6.5199999999999996,
        6.54,
        6.5599999999999996,
        6.5800000000000001,
        6.5999999999999996,
        6.6200000000000001,
        6.6399999999999997,
        6.6600000000000001,
        6.6799999999999997,
        6.7000000000000002,
        6.7199999999999998,
        6.7400000000000002,
        6.7599999999999998,
        6.7800000000000002,
        6.7999999999999998,
        6.8200000000000003,
        6.8399999999999999,
        6.8600000000000003,
        6.8799999999999999,
        6.9000000000000004,
        6.9199999999999999,
        6.9400000000000004,
        6.96,
        6.9800000000000004,
        7.0,
        7.0199999999999996,
        7.04,
        7.0599999999999996,
        7.0800000000000001,
        7.0999999999999996,
        7.1200000000000001,
        7.1399999999999997,
        7.1600000000000001,
        7.1799999999999997,
        7.2000000000000002,
        7.2199999999999998,
        7.2400000000000002,
        7.2599999999999998,
        7.2800000000000002,
        7.2999999999999998,
        7.3200000000000003,
        7.3399999999999999,
        7.3600000000000003,
        7.3799999999999999,
        7.4000000000000004,
        7.4199999999999999,
        7.4400000000000004,
        7.46,
        7.4800000000000004,
        7.5,
        7.5199999999999996,
        7.54,
        7.5599999999999996,
        7.5800000000000001,
        7.5999999999999996,
        7.6200000000000001,
        7.6399999999999997,
        7.6600000000000001,
        7.6799999999999997,
        7.7000000000000002
    ]
}