{
    "f0": [
        0.0,
        0.0,
        0.0,
        0.0,
        0.0,
        0.0,
        48.695830282474205,
        47.953548686680115,
        49.05142106990975,
        50.225644165317732,
        51.646771133189695,
        51.381363924844813,
        51.277253016366572,
        51.924278429477496,
        52.65912959023013,
        52.707931663813213,
        53.467647588227067,
        54.551014655691858,
        54.061210057864429,
        55.486647957963612,
        53.851057524155124,
        54.532475323014523,
        57.156878539423886,
        56.476437188809285,
        56.26013680655538,
        56.313742438874421,
        56.815976840729739,
        57.558518364630331,
        57.594976157935641,
        57.330333507109032,
        57.496899808943525,
        57.373334528747407,
        57.306473180285742,
        57.244932009591643,
        57.266808181439643,
        58.039838016588718,
        56.307031116843135,
        57.359463513153415,
        57.58200621737906,
        57.355422056477934,
        57.233134073078666,
        57.274513211546285,
        55.912257377828496,
        57.240033561716309,
        56.981053792077887,
        57.182963317646497,
        57.402425237549629,
        57.468022467717148,
        57.362138901087349,
        57.39311480784054,
        57.452298326380344,
        57.462983408722948,
        57.513528894082008,
        57.495309397541263,
        57.475709837054673,
        57.521437226815998,
        57.571244526313762,
        57.567562469121782,
        57.632552012926595,
        57.616576927509207,
        57.634124101317568,
        57.570925047218324,
        57.582267435631934,
        57.598046897384194,
        57.605360194973287,
        57.562840477329878,
        57.51977216871488,
        57.530718451392097,
        57.536503893197185,
        57.526360371896871,
        57.635290898871304,
        57.771130594430602,
        57.734209067077394,
        58.908176860460308,
        58.967020372215003,
        58.984485967384288,
        59.467115875791073,
        59.212718687028257,
        59.687059828385649,
        59.369926300880316,
        59.591855283350554,
        59.643455684407336,
        59.633213489292864,
        59.771846977616413,
        60.219794436635382,
        59.846488935596639,
        60.042632817181328,
        59.902873834119077,
        59.914278996094403,
        59.986445386921453,
        59.986851600382181,
        60.12093634836075,
        60.035189839943996,
        59.958476462703047,
        59.531651045154128,
        59.807273536839936,
        59.650498140913697,
        59.546623554117396,
        59.069972867715812,
        59.763654139926082,
        59.485834070840369,
        59.210294459969262,
        59.599449969449189,
        60.044024768539849,
        59.983739062687761,
        57.090509795627611,
        57.468028365421823,
        58.026169723048255,
        57.538222038386799,
        57.457145213963244,
        58.056427229439905,
        57.927369413900678,
        58.213578764059775,
        57.897300292615817,
        58.063599202862349,
        58.043445890417317,
        58.083118882956263,
        58.15294673253635,
        58.264678362978039,
        58.411508020114724,
        58.400471435045944,
        58.399888919428413,
        58.466160882565703,
        58.62189014534097,
        58.554598285480267,
        58.500240859299609,
        58.517576409534058,
        58.462546248513732,
        58.446839918493104,
        58.520892503869284,
        58.581650106807515,
        58.411720534926403,
        58.464070129907213,
        58.469760376879989,
        58.703977834321407,
        57.926537438768328,
        59.417157662187357,
        59.710446243058151,
        59.36419023316698,
        59.459881737929472,
        59.595553809464278,
        59.540453232234576,
        59.538202032324534,
        59.562348403173559,
        59.60375019658656,
        59.501471799189979,
        59.496843622438035,
        59.506935102071807,
        59.458809809768894,
        59.437624916813803,
        59.504918543189959,
        59.44672829599746,
        59.500870145559247,
        59.531392761416711,
        59.596096436465373,
        59.654066765794269,
        59.705194674492994,
        59.652125944233724,
        59.662935552063857,
        59.49959491672,
        59.251765626104572,
        59.335641772034286,
        59.624847382968632,
        59.61715646951447,
        59.703543110063649,
        59.726618015235914,
        59.772552933049262,
        59.172190761548542,
        58.958542563618096,
        57.330873008467243,
        58.985922776018242,
        59.130121744351271,
        59.155824286824455,
        59.140857847626847,
        58.885788989243807,
        59.722436424349972,
        59.665550479891941,
        59.417954466349485,
        59.883387695388265,
        59.830443102270081,
        60.930572421828643,
        61.172411356439248,
        61.393019688295524,
        61.600510188083746,
        61.673984822092962,
        61.713948514394637,
        62.197579810745204,
        61.946765574476103,
        62.015283532094777,
        62.120714597058885,
        62.123324602948173,
        61.980576685737951,
        61.92116776859428,
        62.149795563039405,
        61.53517924560478,
        61.969074565393115,
        61.968135515576307,
        61.927353089886722,
        61.877140069074073,
        61.880307010122593,
        61.862968802224735,
        58.766296479678942,
        59.107694985116275,
        59.177057953626388,
        59.280245265297545,
        59.695180151582242,
        59.891993586036264,
        59.809407259969461,
        60.064799709822481,
        59.975516429292199,
        60.440134328943572,
        60.031039789051462,
        60.148466059221789,
        60.290985070890422,
        60.136847595465397,
        60.248736197802188,
        60.239132846816254,
        60.352032607907589,
        60.228942196214973,
        60.406619808691445,
        60.404692511173444,
        60.48607644197952,
        60.449459606404488,
        60.382374187062013,
        60.455442237035911,
        60.431656849431633,
        60.436060554111172,
        60.44534668645489,
        60.327214994740949,
        60.22718441440189,
        60.358681993594274,
        60.336585443226141,
        60.08754305849537,
        60.281611711610637,
        60.198044855249329,
        59.863702590832602,
        60.148808459581815,
        60.117705403465386,
        59.981301200653448,
        60.058382635051167,
        60.04435907630458,
        60.030775704468333,
        60.297939775041478,
        60.844377965922739,
        60.129220528743581,
        60.045807316705762,
        60.194942120970161,
        60.158718143191493,
        59.898098808194639,
        59.985772405204621,
        60.253588631336882,
        60.176545772132719,
        60.315870556572449,
        60.463959102804367,
        60.536055900405536,
        60.843854810590287,
        59.856363493618829,
        59.818692817644774,
        59.020795151782657,
        59.744344619867334,
        59.716749265381289,
        59.98718906685346,
        59.676641821206061,
        59.818019368369463,
        60.127001514722046,
        59.892237423435589,
        60.402989981364414,
        61.181014777800115,
        59.120856642110184,
        59.705847892861883,
        53.801687851577846,
        54.05834970962551,
        54.077733395389373,
        54.666218437275376,
        54.401532336740267,
        54.759666781169706,
        54.870052896755695,
        54.880045907370082,
        54.906177414737542,
        55.07759185767717,
        55.447719565962224,
        55.3914558251806,
        55.073356687573806,
        55.153837565137074,
        55.056580401368912,
        57.581959725747566,
        57.184309398623967,
        57.431798572897947,
        57.471438357569809,
        55.776884040663148,
        57.953632150378013,
        58.300290881991323,
        58.374896108466359,
        58.596861234120944,
        58.507046402307189,
        58.37427057308696,
        58.396639289712283,
        58.397608529894889,
        58.469328020206987,
        58.365197841986706,
        58.71766304111523,
        58.568596176749764,
        58.608145413235277,
        58.472854075846456,
        58.211741604666344,
        58.413472413441923,
        58.135002483317919,
        58.095496875897112,
        58.122079950940787,
        58.129106604485109,
        58.278168632376904,
        58.284434323773873,
        58.291275112052801,
        58.310803714302459,
        58.228947722916715,
        58.22734941611548,
        58.281480766790736,
        58.267804463225573,
        58.259697379150943,
        58.308391241523793,
        58.303403844194413,
        58.263264118200802,
        58.211637488238821,
        58.196936700309152,
        58.204271294505816,
        58.408215157801529,
        57.954333318199588,
        58.434243189349687,
        58.247451869057429,
        58.156111032253605,
        58.310603307862038,
        58.297714279494144,
        59.436718478725751,
        60.387625702855445,
        59.559539730266707,
        59.521650836152965,
        59.642012572009932,
        59.517487956420368,
        59.572907900112611,
        59.58489025475351,
        59.78323650647279,
        59.767950596853801,
        59.554232876171653,
        58.670015638277007,
        59.184473714622044,
        59.585792085808706,
        59.983924981615118,
        60.05437706298315,
        59.621495655322974,
        59.726431329196821,
        59.961182693081383,
        59.933590455089586,
        59.840681373831721,
        59.722516441757477,
        59.67795032221558,
        60.071224423774396,
        59.846185368064525,
        59.745502563016345,
        59.551965879573842,
        59.584010134587125,
        58.794731293075131,
        59.747240306143361,
        59.934788482470054,
        59.734732038552501,
        59.630137776249747,
        58.888672493495918,
        54.723867584019082,
        55.195174945620415,
        56.682207467840314,
        56.642924307988189,
        57.999573669621512,
        57.402521419600937,
        57.598632625263441,
        57.83516507479284,
        57.895625414030462,
        57.873569903797993,
        57.824971802687656,
        57.658911777585203,
        57.876794803037086,
        57.929277942382591,
        58.032549879747108,
        58.143428999485792,
        58.077718625741426,
        58.102236832390304,
        57.996865815865306,
        58.055193629469926,
        58.21586122171955,
        58.254526128071994,
        58.098687423433176,
        58.367593541027659,
        57.931603856470744,
        58.140094839671256,
        58.120801454209065,
        58.066949161881354,
        57.980525692688708,
        57.990233191092088,
        58.749382023110485,
        60.077869941093127,
        59.465295664263607,
        59.674263155474364,
        59.611432584414018,
        59.670583498813457,
        59.645793132100493,
        59.664366598961813,
        59.750637395990246,
        59.796312533491772,
        59.710674146896963,
        60.029880706520125,
        59.868157458700836,
        0.0,
        0.0,
        0.0,
        0.0,
        0.0,
        0.0,
        0.0,
        0.0,
        0.0,
        0.0,
        0.0,
        0.0,
        0.0,
        0.0,
        0.0,
        0.0,
        0.0,
        0.0,
        0.0,
        0.0,
        0.0,
        0.0,
        0.0,
        0.0,
        0.0,
        0.0,
        0.0,
        0.0,
        0.0,
        0.0,
        0.0,
        0.0,
        0.0,
        0.0,
        0.0,
        0.0,
        0.0,
        0.0,
        0.0,
        0.0,
        0.0,
        0.0,
        0.0,
        0.0,
        0.0,
        0.0,
        0.0,
        0.0,
        0.0,
        0.0,
        0.0,
        0.0,
        0.0,
        0.0,
        0.0,
        0.0,
        0.0,
        0.0,
        0.0,
        0.0,
        0.0
    ],
    "time": [
        0.02,
        0.040000000000000001,
        0.059999999999999998,
        0.080000000000000002,
        0.10000000000000001,
        0.12,
        0.14000000000000001,
        0.16,
        0.17999999999999999,
        0.20000000000000001,
        0.22,
        0.23999999999999999,
        0.26000000000000001,
        0.28000000000000003,
        0.29999999999999999,
        0.32000000000000001,
        0.34000000000000002,
        0.35999999999999999,
        0.38,
        0.40000000000000002,
        0.41999999999999998,
        0.44,
        0.46000000000000002,
        0.47999999999999998,
        0.5,
        0.52000000000000002,
        0.54000000000000004,
        0.56000000000000005,
        0.57999999999999996,
        0.59999999999999998,
        0.62,
        0.64000000000000001,
        0.66000000000000003,
        0.68000000000000005,
        0.69999999999999996,
        0.71999999999999997,
        0.73999999999999999,
        0.76000000000000001,
        0.78000000000000003,
        0.80000000000000004,
        0.81999999999999995,
        0.83999999999999997,
        0.85999999999999999,
        0.88,
        0.90000000000000002,
        0.92000000000000004,
        0.93999999999999995,
        0.95999999999999996,
        0.97999999999999998,
        1.0,
        1.02,
        1.04,
        1.0600000000000001,
        1.0800000000000001,
        1.1000000000000001,
        1.1200000000000001,
        1.1399999999999999,
        1.1599999999999999,
        1.1799999999999999,
        1.2,
        1.22,
        1.24,
        1.26,
        1.28,
        1.3,
        1.3200000000000001,
        1.3400000000000001,
        1.3600000000000001,
        1.3799999999999999,
        1.3999999999999999,
        1.4199999999999999,
        1.4399999999999999,
        1.46,
        1.48,
        1.5,
        1.52,
        1.54,
        1.5600000000000001,
        1.5800000000000001,
        1.6000000000000001,
        1.6200000000000001,
        1.6399999999999999,
        1.6599999999999999,
        1.6799999999999999,
        1.7,
        1.72,
        1.74,
        1.76,
        1.78,
        1.8,
        1.8200000000000001,
        1.8400000000000001,
        1.8600000000000001,
        1.8799999999999999,
        1.8999999999999999,
        1.9199999999999999,
        1.9399999999999999,
        1.96,
        1.98,
        2.0,
        2.02,
        2.04,
        2.0600000000000001,
        2.0800000000000001,
        2.1000000000000001,
        2.1200000000000001,
        2.1400000000000001,
        2.1600000000000001,
        2.1800000000000002,
        2.2000000000000002,
        2.2200000000000002,
        2.2400000000000002,
        2.2599999999999998,
        2.2799999999999998,
        2.2999999999999998,
        2.3199999999999998,
        2.3399999999999999,
        2.3599999999999999,
        2.3799999999999999,
        2.3999999999999999,
        2.4199999999999999,
        2.4399999999999999,
        2.46,
        2.48,
        2.5,
        2.52,
        2.54,
        2.5600000000000001,
        2.5800000000000001,
        2.6000000000000001,
        2.6200000000000001,
        2.6400000000000001,
        2.6600000000000001,
        2.6800000000000002,
        2.7000000000000002,
        2.7200000000000002,
        2.7400000000000002,
        2.7599999999999998,
        2.7799999999999998,
        2.7999999999999998,
        2.8199999999999998,
        2.8399999999999999,
        2.8599999999999999,
        2.8799999999999999,
        2.8999999999999999,
        2.9199999999999999,
        2.9399999999999999,
        2.96,
        2.98,
        3.0,
        3.02,
        3.04,
        3.0600000000000001,
        3.0800000000000001,
        3.1000000000000001,
        3.1200000000000001,
        3.1400000000000001,
        3.1600000000000001,
        3.1800000000000002,
        3.2000000000000002,
        3.2200000000000002,
        3.2400000000000002,
        3.2599999999999998,
        3.2799999999999998,
        3.2999999999999998,
        3.3199999999999998,
        3.3399999999999999,
        3.3599999999999999,
        3.3799999999999999,
        3.3999999999999999,
        3.4199999999999999,
        3.4399999999999999,
        3.46,
        3.48,
        3.5,
        3.52,
        3.54,
        3.5600000000000001,
        3.5800000000000001,
        3.6000000000000001,
        3.6200000000000001,
        3.6400000000000001,
        3.6600000000000001,
        3.6800000000000002,
        3.7000000000000002,
        3.7200000000000002,
        3.7400000000000002,
        3.7599999999999998,
        3.7799999999999998,
        3.7999999999999998,
        3.8199999999999998,
        3.8399999999999999,
        3.8599999999999999,
        3.8799999999999999,
        3.8999999999999999,
        3.9199999999999999,
        3.9399999999999999,
        3.96,
        3.98,
        4.0,
        4.0199999999999996,
        4.04,
        4.0599999999999996,
        4.0800000000000001,
        4.0999999999999996,
        4.1200000000000001,
        4.1399999999999997,
        4.1600000000000001,
        4.1799999999999997,
        4.2000000000000002,
        4.2199999999999998,
        4.2400000000000002,
        4.2599999999999998,
        4.2800000000000002,
        4.2999999999999998,
        4.3200000000000003,
        4.3399999999999999,
        4.3600000000000003,
        4.3799999999999999,
        4.4000000000000004,
        4.4199999999999999,
        4.4400000000000004,
        4.46,
        4.4800000000000004,
        4.5,
        4.5199999999999996,
        4.54,
        4.5599999999999996,
        4.5800000000000001,
        4.5999999999999996,
        4.6200000000000001,
        4.6399999999999997,
        4.6600000000000001,
        4.6799999999999997,
        4.7000000000000002,
        4.7199999999999998,
        4.7400000000000002,
        4.7599999999999998,
        4.7800000000000002,
        4.7999999999999998,
        4.8200000000000003,
        4.8399999999999999,
        4.8600000000000003,
        4.8799999999999999,
        4.9000000000000004,
        4.9199999999999999,
        4.9400000000000004,
        4.96,
        4.9800000000000004,
        5.0,
        5.0199999999999996,
        5.04,
        5.0599999999999996,
        5.0800000000000001,
        5.0999999999999996,
        5.1200000000000001,
        5.1399999999999997,
        5.1600000000000001,
        5.1799999999999997,
        5.2000000000000002,
        5.2199999999999998,
        5.2400000000000002,
        5.2599999999999998,
        5.2800000000000002,
        5.2999999999999998,
        5.3200000000000003,
        5.3399999999999999,
        5.3600000000000003,
        5.3799999999999999,
        5.4000000000000004,
        5.4199999999999999,
        5.4400000000000004,
        5.46,
        5.4800000000000004,
        5.5,
        5.5199999999999996,
        5.54,
        5.5599999999999996,
        5.5800000000000001,
        5.5999999999999996,
        5.6200000000000001,
        5.6399999999999997,
        5.6600000000000001,
        5.6799999999999997,
        5.7000000000000002,
        5.7199999999999998,
        5.7400000000000002,
        5.7599999999999998,
        5.7800000000000002,
        5.7999999999999998,
        5.8200000000000003,
        5.8399999999999999,
        5.8600000000000003,
        5.8799999999999999,
        5.9000000000000004,
        5.9199999999999999,
        5.9400000000000004,
        5.96,
        5.9800000000000004,
        6.0,
        6.0199999999999996,
        6.04,
        6.0599999999999996,
        6.0800000000000001,
        6.0999999999999996,
        6.1200000000000001,
        6.1399999999999997,
        6.1600000000000001,
        6.1799999999999997,
        6.2000000000000002,
        6.2199999999999998,
        6.2400000000000002,
        6.2599999999999998,
        6.2800000000000002,
        6.2999999999999998,
        6.3200000000000003,
        6.3399999999999999,
        6.3600000000000003,
        6.3799999999999999,
        6.4000000000000004,
        6.4199999999999999,
        6.4400000000000004,
        6.46,
        6.4800000000000004,
        6.5,
        6.5199999999999996,
        6.54,
        6.5599999999999996,
        6.5800000000000001,
        6.5999999999999996,
        6.6200000000000001,
        6.6399999999999997,
        6.6600000000000001,
        6.6799999999999997,
        6.7000000000000002,
        6.7199999999999998,
        6.7400000000000002,
        6.7599999999999998,
        6.7800000000000002,
        6.7999999999999998,
        6.8200000000000003,
        6.8399999999999999,
        6.8600000000000003,
        6.8799999999999999,
        6.9000000000000004,
        6.9199999999999999,
        6.9400000000000004,
        6.96,
        6.9800000000000004,
        7.0,
        7.0199999999999996,
        7.04,
        7.0599999999999996,
        7.0800000000000001,
        7.0999999999999996,
        7.1200000000000001,
        7.1399999999999997,
        7.1600000000000001,
        7.1799999999999997,
        7.2000000000000002,
        7.2199999999999998,
        7.2400000000000002,
        7.2599999999999998,
        7.2800000000000002,
        7.2999999999999998,
        7.3200000000000003,
        7.3399999999999999,
        7.3600000000000003,
        7.3799999999999999,
        7.4000000000000004,
        7.4199999999999999,
        7.4400000000000004,
        7.46,
        7.4800000000000004,
        7.5,
        7.5199999999999996,
        7.54,
        7.5599999999999996,
        7.5800000000000001,
        7.5999999999999996,
        7.6200000000000001,
        7.6399999999999997,
        7.6600000000000001,
        7.6799999999999997,
        7.7000000000000002,
        7.7199999999999998,
        7.7400000000000002,
        7.7599999999999998,
        7.7800000000000002,
        7.7999999999999998,
        7.8200000000000003,
        7.8399999999999999,
        7.8600000000000003,
        7.8799999999999999,
        7.9000000000000004,
        7.9199999999999999,
        7.9400000000000004,
        7.96,
        7.9800000000000004,
        8.0,
        8.0199999999999996,
        8.0399999999999991,
        8.0600000000000005,
        8.0800000000000001,
        8.0999999999999996,
        8.1199999999999992,
        8.1400000000000006,
        8.1600000000000001,
        8.1799999999999997,
        8.1999999999999993,
        8.2200000000000006,
        8.2400000000000002,
        8.2599999999999998,
        8.2799999999999994,
        8.3000000000000007,
        8.3200000000000003,
        8.3399999999999999,
        8.3599999999999994,
        8.3800000000000008,
        8.4000000000000004,
        8.4199999999999999,
        8.4399999999999995,
        8.4600000000000009,
        8.4800000000000004,
        8.5,
        8.5199999999999996,
        8.5399999999999991,
        8.5600000000000005,
        8.5800000000000001,
        8.5999999999999996,
        8.6199999999999992,
        8.6400000000000006,
        8.6600000000000001,
        8.6799999999999997,
        8.6999999999999993,
        8.7200000000000006,
        8.7400000000000002,
        8.7599999999999998,
        8.7799999999999994,
        8.8000000000000007,
        8.8200000000000003,
        8.8399999999999999,
        8.8599999999999994,
        8.8800000000000008,
        8.9000000000000004,
        8.9199999999999999,
        8.9399999999999995,
        8.9600000000000009,
        8.9800000000000004,
        9.0,
        9.0199999999999996,
        9.0399999999999991,
        9.0600000000000005,
        9.0800000000000001,
        9.0999999999999996,
        9.1199999999999992,
        9.1400000000000006,
        9.1600000000000001,
        9.1799999999999997,
        9.1999999999999993,
        9.2200000000000006,
        9.2400000000000002,
        9.2599999999999998,
        9.2799999999999994,
        9.3000000000000007,
        9.3200000000000003,
        9.3399999999999999,
        9.3599999999999994,
        9.3800000000000008,
        9.4000000000000004
    ]
}