{
    "f0": [
        0.0,
        0.0,
        0.0,
        0.0,
        0.0,
        0.0,
        0.0,
        0.0,
        60.228188910994206,
        60.597497492108218,
        60.490798042322027,
        60.316804428759554,
        60.142813014292784,
        60.217898110625896,
        60.026759708853611,
        60.047561437371819,
        59.984531406533094,
        60.016130606486968,
        60.123065929225589,
        60.092814466261146,
        60.156002615136615,
        60.140165092284747,
        60.13072979233084,
        60.136158375447742,
        60.307992656167855,
        60.22195376852352,
        59.985681409605156,
        59.994513368837346,
        59.710663919212962,
        60.557870196264069,
        60.310765758913426,
        60.380444188356989,
        60.413053073317187,
        62.445359282025578,
        62.199415360134203,
        63.061190426197577,
        62.794221347311222,
        63.543926316526296,
        63.856145050267145,
        63.836317658301134,
        63.927361036876675,
        64.00174093280927,
        63.936222545971972,
        63.976573857760648,
        64.016829711483297,
        63.96638241491695,
        63.984585661661768,
        64.158997710700206,
        65.099182841396356,
        65.103356506761614,
        65.029575666697795,
        65.244889945439851,
        65.337393226271558,
        65.370207240122838,
        65.4029591755518,
        65.410835383564915,
        65.418708009945377,
        65.598842285659344,
        65.342325676616369,
        65.614792123550046,
        65.700963859563274,
        65.350213188745286,
        65.707761716504663,
        65.425223466230364,
        65.619219961056089,
        65.410452742106102,
        65.558996231969445,
        65.358710583368875,
        64.546517189549988,
        63.694336799814515,
        63.642705632893282,
        63.590919970142238,
        63.538978992228991,
        63.659148477580288,
        63.602705860060794,
        63.668512678725342,
        63.686262940482621,
        63.611520382992218,
        63.580109731748493,
        63.615732563645537,
        63.60478859480677,
        63.593837649611302,
        63.582879826797125,
        63.571915063850639,
        63.560946584170452,
        63.524838413899957,
        63.501251212912535,
        63.121575212271722,
        63.259191873908769,
        63.463431122161602,
        63.10454090904728,
        60.707577994722143,
        60.726057911341528,
        60.611204997747201,
        60.535266908438743,
        60.781912487391466,
        60.690368716574213,
        60.671572794754773,
        60.788394970060047,
        60.550029303108694,
        60.484295415412731,
        56.309421793904086,
        54.234662301828095,
        53.772110294043372,
        53.987277736977916,
        54.201980140958547,
        55.09198572958762,
        55.09166134292277,
        55.838391601422806,
        55.737151908239724,
        55.22703677682054,
        56.431026356129053,
        56.211859712148687,
        56.332237248580483,
        56.151976095313088,
        56.224183368038616,
        56.101862008443341,
        56.496491035754431,
        56.469512532920668,
        56.507196820415047,
        56.492688110232692,
        56.478167230739984,
        56.289639102155348,
        56.359481472944061,
        56.396893578799407,
        56.276741028437506,
        56.509954095133963,
        56.578606312726244,
        56.553591471947335,
        56.451359709739961,
        56.387382079896057,
        56.53573753187456,
        56.638291482016072,
        56.588401947379197,
        56.237858463478943,
        56.37694177226696,
        56.514916536462032,
        56.477802193387937,
        56.728833780780846,
        56.239976438196457,
        56.285176055225591,
        56.406027111771678,
        56.488457694883898,
        56.570497654071332,
        56.652148265386984,
        56.383659567330227,
        56.692911517824399,
        56.996732459547857,
        57.121322931006901,
        56.80429946999152,
        57.300484047535882,
        56.749346864535745,
        56.405563553735213,
        56.619135289632048,
        56.420658236152505,
        56.648191945128943,
        56.397504032376517,
        56.478281095515285,
        56.505309026506268,
        56.901793468139054,
        56.221718087436166,
        57.19211776469956,
        56.644642773346249,
        56.146687783491245,
        56.44396995897673,
        56.927804606645815,
        56.598806473025931,
        56.478130167756262,
        56.591665041363711,
        56.03251196687016,
        54.07368007771138,
        50.047298078918459,
        62.215199344578188,
        37.736895498545017,
        37.842541648812471,
        62.166775979714792,
        45.025980326467966,
        62.557979713184103,
        62.475139793942631,
        62.388323684113445,
        62.301070022851079,
        62.38563369638927,
        61.833793970938665,
        62.141357110691175,
        61.776475524731929,
        61.90385415239998,
        61.937490893410356,
        62.017440400678915,
        62.416785091262852,
        62.124226709681011,
        62.180711505577072,
        62.010501547582493,
        61.83860144449099,
        61.693183487511469,
        61.670136331870552,
        61.64706031883766,
        61.623947963453425,
        61.600804771641783,
        61.227877429890938,
        60.481106096473845,
        59.004865609974438,
        58.455261756859507,
        58.414450574253522,
        58.373539687118353,
        58.675364016448142,
        58.507099202803964,
        58.517907434815299,
        58.734322741883311,
        58.948069320953373,
        58.985210806881682,
        58.402580984947093,
        58.743224831595739,
        58.71510975968436,
        58.630427240809581,
        58.39975827530828,
        58.065907067911219,
        58.119422690219359,
        58.379864118099469,
        58.534730781165941,
        58.738709769423437,
        58.741390938641111,
        58.744066214053817,
        58.746745486807626,
        58.921684407068611,
        58.83581884137709,
        58.637782668177437,
        58.43745926231162,
        58.746516414134604,
        58.094334758061613,
        58.567319469155379,
        58.653434599046761,
        58.752363221220122,
        58.850727479149612,
        58.917540323080637,
        58.825546620798043,
        58.767955362690095,
        58.710176159222158,
        58.652203474192028,
        58.420041086284847,
        58.445395233843087,
        57.972803979361366,
        56.621007093403051,
        56.14298632679801,
        56.15880949445738,
        56.120065235037558,
        56.138573639284786,
        55.965104892196209,
        56.063826517081317,
        56.056765221176576,
        56.049703621075352,
        56.042641717580793,
        55.861578157775142,
        56.890803432762297,
        56.506119552132482,
        56.432855265172932,
        56.71098514888989,
        57.078246394575956,
        57.042383848772602,
        56.427135734321539,
        57.443755634264441,
        57.271800619554867,
        57.247479467839355,
        56.798746268394453,
        56.72954118872461,
        56.998668315030393,
        57.030616069924292,
        56.651891015620762,
        56.343136111386514,
        56.500616948866693,
        56.325173578649817,
        56.726195333838731,
        56.881862907153064,
        56.77828680611637,
        56.793841518099555,
        56.963559725705508,
        56.80611976891776,
        56.750917087957738,
        56.770065656374435,
        56.601160903115741,
        56.43059201164769,
        56.601155991004291,
        56.376166210733821,
        56.803081347316223,
        56.088014488628772,
        54.18035000111837,
        53.990991233573084,
        54.173988253263929,
        53.947215341312443,
        54.028651901423103,
        53.876165038869573,
        53.975504498511285,
        53.961752861813522,
        54.006292842529383,
        54.15597019493466,
        53.988766714699281,
        54.387175302015848,
        54.541928776496221,
        54.638023631758017,
        54.238347115896048,
        54.622484079105909,
        54.512833397282421,
        54.402479589117839,
        54.463684436205583,
        54.632382783354913,
        54.57220354670924,
        54.557829833572228,
        54.692700616627654,
        54.616205559149265,
        54.44772864135733,
        54.666763944347622,
        54.88306393989992,
        54.982222289919726,
        55.164126110655474,
        54.019786784479116,
        53.734340736102098,
        53.651584774418325,
        53.807334521590988,
        53.911099388575103,
        54.039414508423363,
        53.804538863635976,
        57.365211225982669,
        57.408259545657785,
        57.451201011525079,
        57.494038599857333,
        57.574480937442551,
        57.635793217377646,
        57.573941970921197,
        57.59268692807467,
        57.531334468844442,
        57.212786921657305,
        57.531396206748809,
        57.608674870357078,
        59.627067737085248,
        59.698854584606522,
        59.76834151507137,
        59.728484832132267,
        59.688536178872191,
        59.631540577908126,
        59.560627227109947,
        59.496316610111265,
        59.530103188726649,
        59.489857907456681,
        59.449519944572621,
        59.411961624453667,
        59.374320617002788,
        59.336598622346983,
        59.471059806990027,
        59.401797833579856,
        59.332257717173093,
        59.434704184247764,
        59.590581589713963,
        59.544315138306501,
        59.175668706213635,
        59.307252089793465,
        59.339505566184506,
        59.312792785424065,
        59.319150831138913,
        59.325507643504828,
        59.33089132329718,
        59.33626913516531,
        59.513911821256585,
        59.541734763874111,
        59.643558696537511,
        59.534025524870508,
        59.395275602275298,
        59.388318834995658,
        59.260775460881796,
        59.193132538682015,
        59.266970386115652,
        60.279902959159436,
        60.65238505868026,
        62.630690876654768,
        63.346541677861978,
        63.385491254861307,
        63.401141511875807,
        62.901057050648816,
        62.848334066506922,
        62.907991255267667,
        63.230866865175578,
        63.547832536178966,
        63.685104120575964,
        64.419565369270501,
        64.312185084366632,
        65.003732285019424,
        65.302899544576476,
        65.428019047543245,
        65.265114705521142,
        65.282126530848387,
        65.299120145614552,
        65.142104854228776,
        65.15538954310118,
        65.16866257295834,
        65.007933581035502,
        65.100554624867513,
        65.09331994316571,
        65.086085245849816,
        65.078847523944148,
        65.010851805793465,
        64.488999458085232,
        65.03102997438576,
        64.514330791589344,
        65.017839890610958,
        65.044573693157304,
        64.776404946106311,
        58.826166896105711,
        58.620890815550283,
        58.585415240844398,
        58.861932674605001,
        58.555974617512334,
        58.50630674563304,
        58.151724408882927,
        59.619003130699426,
        59.701803062004601,
        59.720997863444914,
        59.771771277960525,
        59.806650699708385,
        58.475791786612078,
        59.787474984312794,
        59.751264265404672,
        59.714977648904828,
        59.850876951427956,
        59.857013034747112,
        60.270428221839047,
        62.059399216547789,
        61.94217579059243,
        62.005360277489636,
        62.002676664660534,
        61.971952583434231,
        61.781235177180378,
        62.01226884902826,
        62.103415310876116,
        62.088289719694956,
        62.070058501440961,
        61.953134762125671,
        62.057425076771196,
        61.949028436635004,
        61.982854901858069,
        62.016611868874421,
        61.958405142891962,
        61.995100162620368,
        62.017648881965926,
        61.999283714352181,
        61.980899044026835,
        61.959716223879113,
        61.938511003111941,
        61.743282040560686,
        61.71116077773172,
        61.717931749070637,
        61.746526443784276,
        61.764182221772941,
        61.832091871980069,
        61.874715597786057,
        61.917234639831705,
        61.609893495801039,
        61.782117018967121,
        62.114229851502685,
        62.014240958113426,
        62.147371451933559,
        61.923587579375351,
        62.018168307473005,
        62.02877395897378,
        61.731372587768661,
        61.733230756372556,
        61.647875561305284,
        61.348821988660383,
        61.665094738625712,
        61.565626857555593,
        61.652147526109559,
        61.618800995398068,
        61.785148347044,
        61.949912592617416,
        62.113123464122012,
        62.100816602461322,
        61.885393147522592,
        61.72820391318394,
        61.881685572015229,
        61.95187195407258,
        62.021776706699676,
        62.09139499227603,
        62.133757183502709,
        62.015483086554426,
        62.075798609327478,
        62.075151952408916,
        61.530149982969249,
        61.929735869766418,
        61.680885821482633,
        61.906243843441139,
        62.048243603077317,
        0.0,
        0.0,
        0.0,
        0.0,
        0.0,
        0.0,
        0.0,
        0.0,
        0.0,
        0.0,
        0.0,
        0.0,
        0.0,
        0.0,
        0.0,
        0.0,
        0.0,
        0.0,
        0.0,
        0.0,
        0.0,
        0.0,
        0.0,
        0.0,
        0.0,
        0.0,
        0.0,
        0.0,
        0.0,
        0.0,
        0.0,
        0.0,
        0.0,
        0.0,
        0.0,
        0.0,
        0.0,
        0.0,
        0.0,
        0.0,
        0.0,
        0.0,
        0.0,
        0.0,
        0.0,
        0.0,
        0.0,
        0.0,
        0.0,
        0.0,
        0.0,
        0.0,
        0.0,
        0.0,
        0.0,
        0.0,
        0.0,
        0.0,
        0.0,
        0.0,
        0.0,
        0.0,
        0.0,
        0.0,
        0.0,
        0.0,
        0.0,
        0.0,
        0.0,
        0.0,
        0.0,
        0.0,
        0.0,
        0.0,
        0.0,
        0.0,
        0.0,
        0.0,
        0.0
    ],
    "time": [
        0.02,
        0.040000000000000001,
        0.059999999999999998,
        0.080000000000000002,
        0.10000000000000001,
        0.12,
        0.14000000000000001,
        0.16,
        0.17999999999999999,
        0.20000000000000001,
        0.22,
        0.23999999999999999,
        0.26000000000000001,
        0.28000000000000003,
        0.29999999999999999,
        0.32000000000000001,
        0.34000000000000002,
        0.35999999999999999,
        0.38,
        0.40000000000000002,
        0.41999999999999998,
        0.44,
        0.46000000000000002,
        0.47999999999999998,
        0.5,
        0.52000000000000002,
        0.54000000000000004,
        0.56000000000000005,
        0.57999999999999996,
        0.59999999999999998,
        0.62,
        0.64000000000000001,
        0.66000000000000003,
        0.68000000000000005,
        0.69999999999999996,
        0.71999999999999997,
        0.73999999999999999,
        0.76000000000000001,
        0.78000000000000003,
        0.80000000000000004,
        0.81999999999999995,
        0.83999999999999997,
        0.85999999999999999,
        0.88,
        0.90000000000000002,
        0.92000000000000004,
        0.93999999999999995,
        0.95999999999999996,
        0.97999999999999998,
        1.0,
        1.02,
        1.04,
        1.0600000000000001,
        1.0800000000000001,
        1.1000000000000001,
        1.1200000000000001,
        1.1399999999999999,
        1.1599999999999999,
        1.1799999999999999,
        1.2,
        1.22,
        1.24,
        1.26,
        1.28,
        1.3,
        1.3200000000000001,
        1.3400000000000001,
        1.3600000000000001,
        1.3799999999999999,
        1.3999999999999999,
        1.4199999999999999,
        1.4399999999999999,
        1.46,
        1.48,
        1.5,
        1.52,
        1.54,
        1.5600000000000001,
        1.5800000000000001,
        1.6000000000000001,
        1.6200000000000001,
        1.6399999999999999,
        1.6599999999999999,
        1.6799999999999999,
        1.7,
        1.72,
        1.74,
        1.76,
        1.78,
        1.8,
        1.8200000000000001,
        1.8400000000000001,
        1.8600000000000001,
        1.8799999999999999,
        1.8999999999999999,
        1.9199999999999999,
        1.9399999999999999,
        1.96,
        1.98,
        2.0,
        2.02,
        2.04,
        2.0600000000000001,
        2.0800000000000001,
        2.1000000000000001,
        2.1200000000000001,
        2.1400000000000001,
        2.1600000000000001,
        2.1800000000000002,
        2.2000000000000002,
        2.2200000000000002,
        2.2400000000000002,
        2.2599999999999998,
        2.2799999999999998,
        2.2999999999999998,
        2.3199999999999998,
        2.3399999999999999,
        2.3599999999999999,
        2.3799999999999999,
        2.3999999999999999,
        2.4199999999999999,
        2.4399999999999999,
        2.46,
        2.48,
        2.5,
        2.52,
        2.54,
        2.5600000000000001,
        2.5800000000000001,
        2.6000000000000001,
        2.6200000000000001,
        2.6400000000000001,
        2.6600000000000001,
        2.6800000000000002,
        2.7000000000000002,
        2.7200000000000002,
        2.7400000000000002,
        2.7599999999999998,
        2.7799999999999998,
        2.7999999999999998,
        2.8199999999999998,
        2.8399999999999999,
        2.8599999999999999,
        2.8799999999999999,
        2.8999999999999999,
        2.9199999999999999,
        2.9399999999999999,
        2.96,
        2.98,
        3.0,
        3.02,
        3.04,
        3.0600000000000001,
        3.0800000000000001,
        3.1000000000000001,
        3.1200000000000001,
        3.1400000000000001,
        3.1600000000000001,
        3.1800000000000002,
        3.2000000000000002,
        3.2200000000000002,
        3.2400000000000002,
        3.2599999999999998,
        3.2799999999999998,
        3.2999999999999998,
        3.3199999999999998,
        3.3399999999999999,
        3.3599999999999999,
        3.3799999999999999,
        3.3999999999999999,
        3.4199999999999999,
        3.4399999999999999,
        3.46,
        3.48,
        3.5,
        3.52,
        3.54,
        3.5600000000000001,
        3.5800000000000001,
        3.6000000000000001,
        3.6200000000000001,
        3.6400000000000001,
        3.6600000000000001,
        3.6800000000000002,
        3.7000000000000002,
        3.7200000000000002,
        3.7400000000000002,
        3.7599999999999998,
        3.7799999999999998,
        3.7999999999999998,
        3.8199999999999998,
        3.8399999999999999,
        3.8599999999999999,
        3.8799999999999999,
        3.8999999999999999,
        3.9199999999999999,
        3.9399999999999999,
        3.96,
        3.98,
        4.0,
        4.0199999999999996,
        4.04,
        4.0599999999999996,
        4.0800000000000001,
        4.0999999999999996,
        4.1200000000000001,
        4.1399999999999997,
        4.1600000000000001,
        4.1799999999999997,
        4.2000000000000002,
        4.2199999999999998,
        4.2400000000000002,
        4.2599999999999998,
        4.2800000000000002,
        4.2999999999999998,
        4.3200000000000003,
        4.3399999999999999,
        4.3600000000000003,
        4.3799999999999999,
        4.4000000000000004,
        4.4199999999999999,
        4.4400000000000004,
        4.46,
        4.4800000000000004,
        4.5,
        4.5199999999999996,
        4.54,
        4.5599999999999996,
        4.5800000000000001,
        4.5999999999999996,
        4.6200000000000001,
        4.6399999999999997,
        4.6600000000000001,
        4.6799999999999997,
        4.7000000000000002,
        4.7199999999999998,
        4.7400000000000002,
        4.7599999999999998,
        4.7800000000000002,
        4.7999999999999998,
        4.8200000000000003,
        4.8399999999999999,
        4.8600000000000003,
        4.8799999999999999,
        4.9000000000000004,
        4.9199999999999999,
        4.9400000000000004,
        4.96,
        4.9800000000000004,
        5.0,
        5.0199999999999996,
        5.04,
        5.0599999999999996,
        5.0800000000000001,
        5.0999999999999996,
        5.1200000000000001,
        5.1399999999999997,
        5.1600000000000001,
        5.1799999999999997,
        5.2000000000000002,
        5.2199999999999998,
        5.2400000000000002,
        5.2599999999999998,
        5.2800000000000002,
        5.2999999999999998,
        5.3200000000000003,
        5.3399999999999999,
        5.3600000000000003,
        5.3799999999999999,
        5.4000000000000004,
        5.4199999999999999,
        5.4400000000000004,
        5.46,
        5.4800000000000004,
        5.5,
        5.5199999999999996,
        5.54,
        5.5599999999999996,
        5.5800000000000001,
        5.5999999999999996,
        5.6200000000000001,
        5.6399999999999997,
        5.6600000000000001,
        5.6799999999999997,
        5.7000000000000002,
        5.7199999999999998,
        5.7400000000000002,
        5.7599999999999998,
        5.7800000000000002,
        5.7999999999999998,
        5.8200000000000003,
        5.8399999999999999,
        5.8600000000000003,
        5.8799999999999999,
        5.9000000000000004,
        5.9199999999999999,
        5.9400000000000004,
        5.96,
        5.9800000000000004,
        6.0,
        6.0199999999999996,
        6.04,
        6.0599999999999996,
        6.0800000000000001,
        6.0999999999999996,
        6.1200000000000001,
        6.1399999999999997,
        6.1600000000000001,
        6.1799999999999997,
        6.2000000000000002,
        6.2199999999999998,
        6.2400000000000002,
        6.2599999999999998,
        6.2800000000000002,
        6.2999999999999998,
        6.3200000000000003,
        6.3399999999999999,
        6.3600000000000003,
        6.3799999999999999,
        6.4000000000000004,
        6.4199999999999999,
        6.4400000000000004,
        6.46,
        6.4800000000000004,
        6.5,
        6.5199999999999996,
        6.54,
        6.5599999999999996,
        6.5800000000000001,
        6.5999999999999996,
        6.6200000000000001,
        6.6399999999999997,
        6.6600000000000001,
        6.6799999999999997,
        6.7000000000000002,
        6.7199999999999998,
        6.7400000000000002,
        6.7599999999999998,
        6.7800000000000002,
        6.7999999999999998,
        6.8200000000000003,
        6.8399999999999999,
        6.8600000000000003,
        6.8799999999999999,
        6.9000000000000004,
        6.9199999999999999,
        6.9400000000000004,
        6.96,
        6.9800000000000004,
        7.0,
        7.0199999999999996,
        7.04,
        7.0599999999999996,
        7.0800000000000001,
        7.0999999999999996,
        7.1200000000000001,
        7.1399999999999997,
        7.1600000000000001,
        7.1799999999999997,
        7.2000000000000002,
        7.2199999999999998,
        7.2400000000000002,
        7.2599999999999998,
        7.2800000000000002,
        7.2999999999999998,
        7.3200000000000003,
        7.3399999999999999,
        7.3600000000000003,
        7.3799999999999999,
        7.4000000000000004,
        7.4199999999999999,
        7.4400000000000004,
        7.46,
        7.4800000000000004,
        7.5,
        7.5199999999999996,
        7.54,
        7.5599999999999996,
        7.5800000000000001,
        7.5999999999999996,
        7.6200000000000001,
        7.6399999999999997,
        7.6600000000000001,
        7.6799999999999997,
        7.7000000000000002,
        7.7199999999999998,
        7.7400000000000002,
        7.7599999999999998,
        7.7800000000000002,
        7.7999999999999998,
        7.8200000000000003,
        7.8399999999999999,
        7.8600000000000003,
        7.8799999999999999,
        7.9000000000000004,
        7.9199999999999999,
        7.9400000000000004,
        7.96,
        7.9800000000000004,
        8.0,
        8.0199999999999996,
        8.0399999999999991,
        8.0600000000000005,
        8.0800000000000001,
        8.0999999999999996,
        8.1199999999999992,
        8.1400000000000006,
        8.1600000000000001,
        8.1799999999999997,
        8.1999999999999993,
        8.2200000000000006,
        8.2400000000000002,
        8.2599999999999998,
        8.2799999999999994,
        8.3000000000000007,
        8.3200000000000003,
        8.3399999999999999,
        8.3599999999999994,
        8.3800000000000008,
        8.4000000000000004,
        8.4199999999999999,
        8.4399999999999995,
        8.4600000000000009,
        8.4800000000000004,
        8.5,
        8.5199999999999996,
        8.5399999999999991,
        8.5600000000000005,
        8.5800000000000001,
        8.5999999999999996,
        8.6199999999999992,
        8.6400000000000006,
        8.6600000000000001,
        8.6799999999999997,
        8.6999999999999993,
        8.7200000000000006,
        8.7400000000000002,
        8.7599999999999998,
        8.7799999999999994,
        8.8000000000000007,
        8.8200000000000003,
        8.8399999999999999,
        8.8599999999999994,
        8.8800000000000008,
        8.9000000000000004,
        8.9199999999999999,
        8.9399999999999995,
        8.9600000000000009,
        8.9800000000000004,
        9.0,
        9.0199999999999996,
        9.0399999999999991,
        9.0600000000000005,
        9.0800000000000001,
        9.0999999999999996,
        9.1199999999999992,
        9.1400000000000006,
        9.1600000000000001,
        9.1799999999999997,
        9.1999999999999993,
        9.2200000000000006,
        9.2400000000000002,
        9.2599999999999998,
        9.2799999999999994,
        9.3000000000000007,
        9.3200000000000003,
        9.3399999999999999,
        9.3599999999999994,
        9.3800000000000008,
        9.4000000000000004,
        9.4199999999999999,
        9.4399999999999995,
        9.4600000000000009,
        9.4800000000000004,
        9.5,
        9.5199999999999996,
        9.5399999999999991,
        9.5600000000000005,
        9.5800000000000001,
        9.5999999999999996,
        9.6199999999999992,
        9.6400000000000006,
        9.6600000000000001,
        9.6799999999999997,
        9.6999999999999993,
        9.7200000000000006,
        9.7400000000000002,
        9.7599999999999998,
        9.7799999999999994,
        9.8000000000000007,
        9.8200000000000003,
        9.8399999999999999,
        9.8599999999999994,
        9.8800000000000008,
        9.9000000000000004,
        9.9199999999999999,
        9.9399999999999995,
        9.9600000000000009,
        9.9800000000000004,
        10.0,
        10.02,
        10.039999999999999,
        10.06,
        10.08,
        10.1,
        10.119999999999999,
        10.140000000000001,
        10.16,
        10.18,
        10.199999999999999,
        10.220000000000001,
        10.24,
        10.26,
        10.279999999999999,
        10.300000000000001,
        10.32,
        10.34,
        10.359999999999999,
        10.380000000000001,
        10.4,
        10.42,
        10.44,
        10.460000000000001,
        10.48,
        10.5,
        10.52,
        10.539999999999999,
        10.56,
        10.58,
        10.6,
        10.619999999999999,
        10.640000000000001,
        10.66,
        10.68,
        10.699999999999999,
        10.720000000000001,
        10.74,
        10.76,
        10.779999999999999,
        10.800000000000001,
        10.82,
        10.84,
        10.859999999999999,
        10.880000000000001,
        10.9,
        10.92,
        10.94,
        10.960000000000001,
        10.98,
        11.0,
        11.02,
        11.039999999999999,
        11.06,
        11.08,
        11.1,
        11.119999999999999,
        11.140000000000001,
        11.16,
        11.18,
        11.199999999999999,
        11.220000000000001,
        11.24,
        11.26,
        11.279999999999999,
        11.300000000000001,
        11.32,
        11.34
    ]
}