{
	"f0": [NaN,53.87776338,53.88859071,53.87302426,54.25843734,42.75156344,42.0979178,41.72261641,41.41059748,40.88957296,40.84821718,40.66792989,40.66917257,40.76053754,40.64384538,40.65657917,40.78694359,40.78598867,40.74922687,40.72871517,40.71759374,40.70333918,40.70467643,40.82619366,40.8180398,40.66064064,44.23796469,43.34995772,43.08522515,43.076198,43.07252592,43.0660948,43.06575962,43.089932,43.09136212,43.09797466,43.15874625,43.17319496,43.20124712,43.31008364,43.34010667,43.34570167,43.40611054,43.39713099,43.4279473,43.53046431,43.6062645,43.74085504,44.05834002,44.11456942,44.02590379,43.8109924,43.66460456,43.72597179,43.83629868,43.84092564,43.87755045,44.10886702,44.57764102,45.05287094,44.86500302,44.79130943,45.26515865,45.47261477,45.43800964,45.36025491,45.50716669,45.51873741,45.38298033,45.30607387,45.34217321,45.32635392,45.28855928,45.18063037,45.19037322,45.41812509,45.3684592,45.18237028,45.15323274,45.38796458,45.29463881,44.94201072,57.43029262,57.33159582,45.28612081,45.48058136,45.36950834,45.19129286,45.41612942,44.90485181,56.52329381,47.12248458,45.73424951,44.46727057,44.117223,44.09361094,44.08269934,44.05550627,44.58307261,44.72437592,44.83386104,45.0543813,45.02257849,45.0436991,45.20729203,45.29952675,45.32713265,45.34722896,45.29106436,45.24929693,45.16857456,45.20683432,45.19888643,45.15305676,45.19880637,45.17422533,44.69965447,43.67576164,43.33587794,43.23273428,43.18100585,43.24932909,43.27325773,43.23089461,43.27836646,43.29067567,43.28263589,43.31369294,43.29385763,43.25518814,43.26207069,43.26971376,43.26549435,43.30286042,43.33270073,43.30633592,43.34995772,43.19443686,43.0448181,41.61063612,41.31158598,40.94912888,40.77119254,40.74393728,40.82171775,40.74130225,40.65637833,40.57039699,40.52544569,40.59875897,40.6201589,40.61831498,40.63419604,40.71904055,40.73285565,40.63917186,40.71385982,40.6952576,40.63415904,40.50832906,40.47698753,40.44372075,40.81330719,40.8296682,40.44767824,40.37673505,40.53634716,40.56957315,40.61107099,40.62945041,40.86129267,41.11955917,41.31562057,40.8769682,41.68729618,41.60873423,52.88455017,54.28454688,54.18415163,76.93035138,76.93035138,76.93035138,76.93035138,43.01868718,39.66665626,39.50104397,39.59862236,39.5730282,39.5168723,39.53364995,39.46959608,39.46621132,39.41379524,39.39620974,39.48960261,39.52411552,39.55099449,39.54642396,39.50437042,39.63708236,39.68085565,39.49191083,39.91578835,39.9378445,42.04007442,42.051487,41.87556166,41.66989235,41.63823118,41.56772072,41.38070039,41.41797111,41.59572995,41.85485555,41.93876646,41.93058722,42.06777392,42.37983883,42.8726425,42.94900925,42.64536722,42.44508766,42.63465891,42.80719664,36.98029881,45.87567083,45.31779249,45.17583912,44.99479271,44.90795395,44.8974032,44.81141648,44.78979489,44.82195734,44.84672723,44.88848437,44.95071637,45.00552279,45.00185408,44.96193651,44.9605006,44.80698411,44.79571218,45.12208288,45.12272788,46.07260407,46.28007859,45.60260984,45.43824553,45.39201306,45.30948493,45.24817162,45.31276667,45.31547622,45.23287525,45.41186199,45.6779133,45.98453459,46.04550413,46.19857434,46.36861055,46.9446811,46.20093753,46.15967333,46.37537585,46.68033225,46.70856769,46.03762205,46.30067905,46.64204848,45.71364301,45.56941891,45.59531912,45.44888792,45.31682545,45.41604797,45.36284497,45.20008631,45.12467567,45.04206679,44.94697358,44.83241682,44.85205413,45.14017363,44.84630172,45.1363678,45.16796779,45.39908575,44.12444074,43.78826823,43.36718885,43.21517394,43.04815465,42.97726411,43.21371801,43.22072944,43.04083186,43.21785365,43.51346157,43.45849939,43.67764587,44.69965447,45.11809112,45.08695591,45.12689193,45.14064786,45.11869425,45.0343349,45.01471694,44.98492601,45.23513235,45.47311309,45.40696979,45.36476909,45.32805182,45.27169546,45.34451827,45.42366957,45.40342856,45.35454641,45.27874759,45.18576027,45.11671349,45.04679639,44.95366876,44.99535164,45.10378872,45.18066406,45.24380362,45.20384631,45.13054951,45.32224065,45.37523523,45.29171513,45.18419077,45.17898738,45.16747346,45.14707082,45.41612942,45.24798856,45.30609633,45.35760967,45.37091702,45.24216968,45.4136008,45.36036406,45.19583536,56.03257588,57.33903376,73.38993991,73.39300579,47.34219089,46.47446607,45.91080137,45.38075261,45.2821056,45.12855682,45.1592869,45.26927548,45.2579706,45.2027433,45.50348793,45.8556406,46.06002179,46.26710673,46.48005433,46.43970522,47.38372423,47.90292079,37.83677829,37.05215681,46.74100487,46.75628157,45.60058729,45.63967378,45.65491135,45.53945646,45.50123042,45.48519304,45.32216892,45.08157455,44.88615969,44.82609393,44.34209656,44.46727057,44.43843955,44.01165637,43.45849939,43.35531443,42.94144569,42.94054155,43.16344903,43.4064893,43.33405946,43.43201291,43.57375696,43.44486296,43.29183857,43.22655949,43.11300054,43.10499544,43.20044357,43.07977564,42.97654336,43.0139137,43.02839994,43.01139875,42.88868623,42.6705395,42.57113921,42.72205527,43.11289189,43.1487431,43.28326489,43.27054437,42.91331983,43.13004729,43.38538186,43.32194042,43.29311918,43.35205066,43.13713771,42.93185262,42.92125882,43.2121216,42.36103096,42.34030785,42.33310853,42.52677476,42.02195878,42.12707093,42.10606057,42.00869336,45.0367011,42.71262168,42.8314139,43.91043304,42.93490041,42.9824261,42.83991368,42.8132894,43.13489482,43.36164988,43.1630883,43.18202,43.33495669,43.31222385,43.20984622,43.48747985,43.25030384,43.22951458,43.24209232,42.81722828,42.9224708,43.34995772,43.10308815,43.028357,43.13489482,43.11518826,43.04896031,43.14955824,43.19323382,35.79463395,35.73175713,36.05045651,36.00938387,35.66817393,35.34887861,43.24209232,43.13489482,36.60440571,36.02419811,42.40254162,42.0979178,42.60864334,43.24209232,43.45849939,42.58302767,41.99755612,42.46184627,35.34887861,35.52503736,35.34887861,35.34887861,35.34887861,35.34887861,35.34887861,35.41717196,35.34887861,35.34887861,35.34887861,35.34887861,35.34887861,35.34887861,35.34887861,NaN,NaN],
	"ap0": [NaN,0.271852858,0.2632707294,0.3982780042,0.6723123291,0.9592827731,0.2202285062,0.1136034889,0.2481814774,0.3353524255,0.3694450683,0.520703472,0.2754222491,0.2626206898,0.2386338663,0.1402231083,0.2169383624,0.1421720998,0.06932272749,0.03663613925,0.04084149971,0.08840928907,0.1727731913,0.1393542922,0.1580445803,0.3523179509,0.6559346973,0.3455827495,0.1234473668,0.06352668273,0.04085628564,0.03419118213,0.03133012684,0.02443233941,0.01483895381,0.01382621107,0.01333119064,0.008779732457,0.008613917065,0.01041817156,0.01090587885,0.01116615839,0.009668086682,0.01119061637,0.01192713332,0.01077713082,0.01001567165,0.04252656303,0.07047024967,0.1112109521,0.1139130715,0.06533773462,0.05707643196,0.0928767013,0.09076602034,0.06117626047,0.05641430097,0.0641439802,0.152487787,0.1714571901,0.1156687628,0.1281903801,0.1416362329,0.05373535059,0.04528662152,0.03733941322,0.02077776562,0.01489020415,0.01266273604,0.01015214632,0.007086715834,0.009788108793,0.02438165964,0.07572240333,0.1767492326,0.09775300951,0.03991725403,0.0282740593,0.04441743411,0.08412791997,0.1546790253,0.2826439897,0.2442191152,0.1568124747,0.09668186307,0.07170821065,0.1058064548,0.1375813681,0.2560917605,0.45302397,0.561567635,0.6366310594,0.6486670085,0.216964387,0.1040075622,0.1380417214,0.1253395897,0.1315500253,0.186555546,0.09677216248,0.09074041658,0.0844715135,0.05005321047,0.05055769727,0.06959789386,0.05545740259,0.04178590931,0.0286489766,0.01530314472,0.01595584431,0.02113292015,0.04856270515,0.1159020118,0.210276754,0.2132213389,0.2692287516,0.4224929244,0.2579941129,0.1120525433,0.07318201681,0.05532963383,0.03483195094,0.01823641023,0.01554403914,0.01423599108,0.01045280705,0.0108993653,0.007908111247,0.008933629751,0.01853956709,0.03980172714,0.06863158357,0.06635715462,0.08309604791,0.08554425398,0.1062770681,0.181636962,0.3296368988,0.4431796446,0.2627843635,0.2015005697,0.2228472338,0.2273612191,0.2397908776,0.1601492201,0.1024842989,0.1024709305,0.1075318396,0.119219842,0.09063940409,0.08213874465,0.07616150355,0.06985353881,0.0664706241,0.07412999097,0.120258445,0.1520840276,0.1253848958,0.1048924003,0.09211296373,0.1414415315,0.2154546544,0.196029664,0.2213030066,0.2502675602,0.2681646253,0.2705178503,0.3692246722,0.3614661568,0.3875567248,0.4909580509,0.5647849167,0.5214107131,0.4948925387,0.4544671097,0.65655182,0.5423321722,0.47049028,0.6876641076,0.601551043,0.5273570498,0.5226446121,1.415364131,0.7011468424,0.7490330445,0.4179429812,0.2575535956,0.1671509431,0.1145077976,0.07103378952,0.04471669757,0.03555152232,0.02686225223,0.02982903973,0.0301555253,0.03027804617,0.03051940366,0.02730920426,0.03706901675,0.05557280916,0.05706524746,0.1053482685,0.2746322412,0.8761056139,0.2658205729,0.08435138511,0.03191759121,0.01889881201,0.03018073157,0.09336979915,0.1514432607,0.07052383239,0.06386557324,0.04374842407,0.02735692028,0.01493330949,0.01863135004,0.03928153991,0.03479442556,0.02966835747,0.09232796905,0.1497691882,0.1493225727,0.404228268,0.6984758,0.5212820557,0.2469144719,0.08239890498,0.04299148258,0.03268150932,0.03528034102,0.03160689541,0.01708559059,0.01161847631,0.008011759694,0.0046433208,0.006533231866,0.00955234117,0.01113214107,0.01735995309,0.04856504864,0.09885254258,0.06158345014,0.04741128603,0.1592545727,0.5450283339,0.376036371,0.154166955,0.04843848272,0.0277344945,0.03357504879,0.02926180257,0.02050915183,0.02923099804,0.07854872367,0.1864701759,0.3199866817,0.171466945,0.138669288,0.1497161681,0.1414951486,0.1571352692,0.09053431597,0.1754882017,0.3636726107,0.3249899369,0.2816869359,0.3888760666,0.5678391253,0.2852864543,0.1184161344,0.03399982412,0.01638047134,0.02569951424,0.02502575613,0.01367089504,0.01410678753,0.01316878351,0.01172792906,0.0195377796,0.02353489211,0.04920983887,0.08919559229,0.07189852129,0.08175496046,0.1109165654,0.1827625554,0.3944967318,0.3131631522,0.2484684347,0.1910678236,0.1149288789,0.09659034461,0.1095095623,0.08886765172,0.08286668164,0.08868070041,0.1210224767,0.08323900062,0.0761520361,0.09930788823,0.1880251714,0.09221844363,0.04551493279,0.02121598987,0.02222075693,0.02126339911,0.01479246026,0.01501674601,0.01919092791,0.05674519238,0.04871419532,0.03509965593,0.02114687581,0.01262653638,0.01068031971,0.009844231907,0.006782701623,0.00801413099,0.007225468237,0.005811144688,0.008867871073,0.01421449854,0.02668640193,0.03913053466,0.02421926648,0.0103167008,0.01128523458,0.01594349748,0.03710699751,0.1129942805,0.2098624965,0.1378576519,0.108123068,0.07971206313,0.07712965214,0.1432069517,0.271084387,0.2844520528,0.2884516184,0.4791142058,0.4602696622,0.3806356074,0.4777532861,0.3974914671,0.3959213088,0.6848926342,0.728371459,0.8390632482,0.81520113,0.8893686326,0.6011851666,0.3398187995,0.1665481071,0.06345670396,0.03928680259,0.03810599603,0.03890053512,0.05424386592,0.1362715548,0.2023766552,0.1950030233,0.1816639851,0.1564406334,0.1512222035,0.1195394028,0.09357426788,0.2009252722,0.3588675045,0.7219632518,0.5124798738,0.4038936154,0.4650528593,0.279471475,0.0894865741,0.05081169506,0.04113214416,0.03438072376,0.02172091281,0.015927224,0.02635154689,0.0493924867,0.07504970185,0.07795710608,0.1719696725,0.297267237,0.2096027578,0.1147651,0.05063585792,0.04745891038,0.06121707387,0.08087650323,0.275701647,0.4651574863,0.4854973445,0.4307682844,0.2096931214,0.1008622632,0.07644879408,0.06937645641,0.07115630369,0.04263775839,0.0394654582,0.02851552314,0.02262670177,0.01802851445,0.02524864518,0.05753339263,0.08026397127,0.08193405109,0.1391777819,0.08737994691,0.04783596308,0.05759865385,0.1223637301,0.2157067557,0.1333298546,0.09099497134,0.09025070751,0.1312890075,0.2781948515,0.5406078717,0.3604178069,0.4594402277,0.567018915,0.4779747936,0.6026186364,0.5949655516,0.5540981846,0.5674972556,0.3047956941,0.3712813951,0.7587891131,0.5643689961,0.3451129861,0.3544522462,0.4770570123,0.5576893981,0.4329038349,0.7102400848,0.4299147303,0.4431080803,0.543591553,0.333558131,0.2852943277,0.2344645607,0.1966890599,0.1799731334,0.196535873,0.1689501118,0.09172030379,0.1853079165,0.3282690391,0.4705306705,0.4861694198,0.3523844031,0.2767481605,0.2380349887,0.2624789416,0.210513533,0.1798540719,0.2377876935,0.3022767613,0.285747305,0.1851077377,0.2091386573,0.3132481854,0.6655065861,0.6593425092,0.5749879396,0.6035517354,0.4449791953,0.9119337824,0.4340535119,0.2934154298,0.4191006752,0.6385226659,0.495436898,0.4897627671,0.6838069227,0.9012053327,0.2214978729,0.09468131317,0.1382569755,0.2180835481,0.2216244656,0.3766305091,0.2376707624,0.147871577,0.1280927713,0.05937797057,0.0831796211,0.06790500913,0.1199830371,0.388463016,NaN,NaN],
	"ap": [NaN,0.1817069022,0.1491179677,0.07621061198,0.143923872,0.4434989878,0.4828776306,0.2761710221,0.09454849744,0.08568669508,0.1548563846,0.1294037899,0.2737634593,0.09223918077,0.2238985537,0.04606826137,0.1241005055,0.1925878114,0.04692543814,0.03432892094,0.0103419968,0.03003285767,0.07232194164,0.09744789825,0.03664095921,0.05268998034,0.365166892,0.4921736692,0.2055461524,0.05454897205,0.02451709081,0.01406142726,0.01612005471,0.01799067784,0.01272125729,0.004428431663,0.009037458714,0.006947462029,0.003805620598,0.004660404202,0.0055207284,0.006411259989,0.007452083259,0.003837689566,0.008105855362,0.007361662718,0.005816296486,0.006617323146,0.0309233961,0.02211933361,0.03628462406,0.05074332372,0.02712145486,0.01601392181,0.04494494313,0.06605025947,0.02905822376,0.0392614161,0.05994970256,0.09192480957,0.1058171221,0.02336450066,0.0922557999,0.07099819383,0.02687603997,0.02314180629,0.01138088156,0.0140656885,0.01002450266,0.005980915912,0.00614119892,0.002663867483,0.004902577371,0.00690668323,0.03784242827,0.207081588,0.04276606285,0.03291078223,0.006228213048,0.04340933262,0.04527746493,0.1601400719,0.4032914892,0.2347819581,0.0803662681,0.03547292717,0.06151752853,0.04288150741,0.1310114488,0.1319339455,0.09518930021,0.5914375017,0.3866564525,0.5345402062,0.2030284453,0.04345904074,0.1077800108,0.03461349452,0.1159285996,0.06863183266,0.04082575367,0.06636942153,0.04623587986,0.0237802303,0.02979067357,0.03692895275,0.01953936271,0.01887944565,0.02490633571,0.007777659832,0.009023438077,0.009243497843,0.03228170527,0.07496389574,0.09767279892,0.07796029137,0.1985023887,0.5159007545,0.06601108159,0.06066449631,0.02864855334,0.03957209777,0.007992732024,0.01069628271,0.005666780831,0.009567295257,0.004169397147,0.008167031039,0.004479180705,0.005459726399,0.01225590289,0.02824462949,0.03524703867,0.03336752617,0.04340531105,0.05140727032,0.07427766456,0.1098729301,0.1339255062,0.5663156196,0.1228249663,0.1584874629,0.09689235593,0.07690925987,0.1587546705,0.03212638352,0.038973381,0.04549116278,0.0773310088,0.06704775117,0.04007588203,0.05476163759,0.03657407287,0.03014555914,0.02949427284,0.01474113197,0.06844294715,0.1014860201,0.04383290376,0.06315716069,0.0129724282,0.09041230788,0.09240264599,0.1456166237,0.115265286,0.1680391242,0.1428193276,0.1561355347,0.2371661925,0.1459085396,0.3043201931,0.2632115946,0.1641629759,0.2607638647,0.2154906896,0.3123865163,0.4325967198,0.3752870673,0.2283211831,0.4235309787,0.2443872087,0.2491769836,0.1448593624,0.2900586235,0.4137999745,0.3258022,0.2520097512,0.1068836034,0.08217662954,0.05295560411,0.0267454901,0.02619584096,0.01677884093,0.01328701013,0.01387960922,0.01704752507,0.0177021915,0.01881735401,0.01259109326,0.0389885096,0.01934968827,0.01745024126,0.05614717221,0.228070617,0.5451820268,0.2894029199,0.01125526003,0.01422120498,0.006572441383,0.01451608914,0.04974233427,0.06400247735,0.03811833865,0.02679514854,0.03628135202,0.01414171219,0.01565793643,0.01681251895,0.04945390106,0.01219035323,0.02319389513,0.04636865514,0.1164780035,0.06767037322,0.5287123021,0.5769090398,0.3895029514,0.08874996782,0.05356175032,0.007643473521,0.01873576848,0.01223723133,0.0188979509,0.005791636726,0.007184472971,0.00248078242,0.002682176137,0.004171144908,0.002431042784,0.004658401247,0.009400955901,0.0513113048,0.02699552556,0.02220673846,0.02135324553,0.18662363,0.2157775132,0.4324874894,0.09004982614,0.02139449086,0.007652871912,0.01463987712,0.01180602403,0.009194255266,0.03031972965,0.05981921752,0.1499623534,0.2194470401,0.0635319029,0.1884683523,0.03521138285,0.09549701551,0.02372887556,0.04685197129,0.06301405094,0.297173729,0.144976265,0.3248520123,0.1086637772,0.5949928041,0.4089913153,0.06169957461,0.01572031729,0.007450860028,0.01451332595,0.006236981675,0.008542046273,0.01053328527,0.008665897682,0.004802743429,0.005422807907,0.02268720802,0.03153793908,0.02650946339,0.02762594154,0.03255473143,0.0728311228,0.08869103676,0.2732289462,0.2513056232,0.06895654187,0.1234360368,0.04151182813,0.07053142241,0.06531267772,0.03278140355,0.0519783923,0.04786895685,0.05339493396,0.03350402528,0.04163417144,0.09246442213,0.07909527158,0.06326486338,0.01988960277,0.008184612208,0.01745957685,0.008134212572,0.006749336782,0.004221328962,0.01214921664,0.02170575654,0.05275712919,0.01202710112,0.005895660068,0.006589396651,0.00741773039,0.004872004999,0.001512278114,0.001670114319,0.00393981403,0.003942345256,0.006310861683,0.007853556898,0.01970793702,0.03092903933,0.01101670157,0.002944822516,0.01119244595,0.007665617625,0.0216131615,0.1123154091,0.1139984974,0.09485985338,0.05084540627,0.02614214914,0.0497432167,0.06918177889,0.2055739476,0.1206830963,0.2288711589,0.2420889227,0.1493684374,0.209683734,0.2731410939,0.194451448,0.1896662934,0.2656445726,0.5961483746,0.4143137755,0.2811065246,0.444037857,0.4201867524,0.4194113051,0.05863187759,0.03959270454,0.0208992606,0.02163345814,0.01709668,0.01846216051,0.1349216762,0.04315606348,0.2471663327,0.0140591453,0.09816404225,0.06902767719,0.1143596074,0.1008597996,0.0734664611,0.3054468708,0.2858772882,0.421795653,0.1098116998,0.4439659091,0.1389659937,0.03495730465,0.04053597375,0.02599606659,0.02224607502,0.01192114581,0.006331231995,0.01263769679,0.0380226764,0.04802808513,0.04516277459,0.0707713302,0.2797972149,0.09398663888,0.03008708945,0.01652482773,0.02027660581,0.01994810001,0.04452923019,0.1294771802,0.3221186353,0.191715027,0.3310644221,0.06154002993,0.06642315302,0.03167558864,0.04125993401,0.02105015133,0.02377075156,0.0177766854,0.0112957783,0.01095078994,0.006267146506,0.0146171141,0.03129497982,0.05571669779,0.07897936309,0.06263047904,0.06544577562,0.02654592796,0.01325103245,0.1081773243,0.1119098771,0.05512703779,0.03046750498,0.01333210866,0.07796641013,0.2916970277,0.183608119,0.128452041,0.3421795225,0.3241304753,0.2336719352,0.2020075514,0.3113851745,0.3836737603,0.2083009626,0.1352290189,0.2713477368,0.4371754622,0.3448267686,0.1093191534,0.2355040904,0.2938734572,0.1290541595,0.1874423086,0.3271387363,0.1812884972,0.352864853,0.2833296113,0.2529290288,0.2075694278,0.1520890773,0.09615334355,0.09445678101,0.1528512917,0.0443782457,0.02882798687,0.04859175276,0.3243097625,0.2713529166,0.2092001294,0.1676978052,0.1471934793,0.1038826386,0.09719688144,0.1009684114,0.05829310111,0.1285322827,0.1989883136,0.08324920575,0.07815833451,0.1506210376,0.1935079802,0.333162573,0.2310581532,0.4785501426,0.2144594006,0.6118877818,0.3500235007,0.2769898993,0.08679060699,0.2257027582,0.2676674353,0.2304540156,0.4368090667,0.5138382224,0.1424346617,0.05133312385,0.03767683479,0.1384907005,0.05750185007,0.1588395592,0.2296369901,0.0457846838,0.1088449983,0.03015340202,0.02004847472,0.06458643926,0.01277963761,0.112011542,NaN,NaN],
	"pwr": [NaN,3.126589404e-07,1.735633738e-06,4.424029906e-06,2.506187366e-06,3.204163264e-06,9.642232366e-06,0.000796007173,0.01905885316,0.04570418148,0.01704730147,0.01765872365,0.007798000628,0.01427353114,0.01184648225,0.01393097317,0.009658537678,0.004682559337,0.009476568025,0.01007324909,0.01931256202,0.01837293803,0.009229911201,0.002478582296,0.002363823919,0.002318266034,0.008159300431,0.005234485171,0.01303403166,0.04484710873,0.07773355148,0.06418538933,0.05340044342,0.06974305711,0.06538486508,0.05765081692,0.0501056181,0.05649594451,0.05945448689,0.0694074763,0.05714795699,0.05982513971,0.05184737517,0.04777391146,0.04185626687,0.03266289744,0.03851018256,0.03827143938,0.03824295368,0.04059032797,0.05270415366,0.05562567294,0.05350395893,0.04608742369,0.04912316093,0.01869197248,0.02145612573,0.02886201629,0.03401115713,0.04311010579,0.02999501862,0.08938048765,0.08556743167,0.05534216552,0.03491921271,0.03419580738,0.04539182795,0.04532745011,0.04781074167,0.04569633247,0.03705462391,0.03336982609,0.03370276357,0.02461849374,0.01447204693,0.003968575773,0.002854442889,0.004288065174,0.006332870988,0.005820117569,0.001923110795,0.0006540601359,5.739277362e-05,6.980785881e-05,0.0001572747827,0.0002525163862,0.0001780550048,0.0001814989875,0.0001547683021,6.332040154e-05,3.223021862e-05,8.630550357e-06,3.566623149e-05,0.001140859444,0.01241611097,0.05702419087,0.04871369481,0.06270897189,0.04842463709,0.01508609244,0.03218074104,0.03480957546,0.02621182424,0.07131073823,0.1227371581,0.05668822177,0.0457368413,0.0356697046,0.02699047614,0.03516003729,0.03458012113,0.03828671943,0.01936526544,0.008231886858,0.005631474023,0.01273382978,0.01451580022,0.009197749505,0.03040245049,0.02252216769,0.03681075157,0.02663473372,0.04238826624,0.03994234873,0.03713739557,0.03586996192,0.03074065509,0.02749458368,0.02915384832,0.02697995138,0.02625650683,0.01762130627,0.005716469398,0.002749269491,0.002176217703,0.002077361119,0.001918570291,0.0009141291763,0.0005539146749,0.000577865423,0.007456073146,0.009101450675,0.004297926782,0.003206211979,0.00397260026,0.003692762969,0.003818834923,0.002150754511,0.002113545511,0.001631625459,0.001761100412,0.001285889976,0.001384149842,0.002258984606,0.001882216974,0.001960267546,0.001153027839,0.0007838258959,0.000654967251,0.0004188698444,0.0005316680107,0.000339830074,0.0002899491586,0.0002865147741,0.0002228018883,0.0001710220275,0.0001408874814,0.000129515687,5.084314735e-05,4.831637168e-05,4.684518461e-05,3.00040372e-05,1.61476016e-05,1.37314931e-05,1.19696429e-05,1.100252966e-05,4.594289192e-06,6.585448682e-06,5.174547954e-06,9.866087171e-06,0.0001145600184,0.0004529565694,0.001468847506,0.001004598894,0.008169045785,0.003043037581,0.001732362661,0.003589980764,0.005297509934,0.006791108882,0.00938054791,0.01005293236,0.01163896117,0.01605976651,0.01178058918,0.010677135,0.008576159315,0.009725488142,0.01192451273,0.00836319517,0.005655830749,0.002904010877,0.002430789756,0.001312611915,0.0003878785931,0.001681916624,0.03431718754,0.04104295491,0.03589851358,0.02920656305,0.01453795427,0.004431090225,0.005622049527,0.00683741492,0.008316400702,0.01788920473,0.03613928553,0.04974580542,0.04413824212,0.02664510954,0.02062889991,0.01659590326,0.008242258312,0.003804917985,0.002288109393,0.005086640205,0.01979237071,0.031365609,0.08128756311,0.1455741812,0.145079091,0.1770096641,0.1196367599,0.1320796671,0.1493988349,0.1771408693,0.1698708774,0.1466899907,0.1334964496,0.1076235309,0.06534593166,0.03571836596,0.01149302193,0.00959103431,0.01329305768,0.01023572313,0.006374029425,0.0117492139,0.02234373948,0.05259035126,0.09402324006,0.06781456709,0.07727619122,0.08905763946,0.07018375647,0.0202161782,0.007182114919,0.006740490561,0.01443935852,0.01752460759,0.0227073802,0.01133114953,0.008635359978,0.008178686396,0.00534274251,0.001618754987,0.003014969667,0.001929235729,0.003376701338,0.002326755141,0.001957326861,0.01332905507,0.02623212553,0.03813396809,0.0409914668,0.03861826213,0.03677814022,0.04559885491,0.03397485515,0.03217657072,0.03136133975,0.03015026773,0.01765513896,0.01016126335,0.007613310661,0.007546695184,0.007725481611,0.004481841697,0.001823562974,0.005779115129,0.04040676213,0.04986936482,0.08580173087,0.04781962763,0.03834594583,0.04320510605,0.02825367464,0.02391614731,0.01056155643,0.01101688686,0.01206217046,0.00977131704,0.008772520089,0.00719222683,0.01510149207,0.0229116078,0.01722615195,0.01860251044,0.01929587821,0.01470702137,0.01576992206,0.0161593915,0.0169023264,0.02886552268,0.04449671092,0.05763436759,0.05096496282,0.05563902032,0.05785325645,0.04554519223,0.03322989403,0.03365255669,0.03388665878,0.03115527389,0.03054664152,0.02280164987,0.02987114245,0.04908102635,0.04533141732,0.03286652479,0.02381588982,0.006470468068,0.002070804827,0.001104892121,0.001441557384,0.001860290591,0.00187670241,0.0009053627431,0.0002407351936,0.0001740741393,0.0003395907076,0.0001272439252,6.41013423e-05,7.21356266e-05,3.716275552e-05,4.3215385e-05,5.532438593e-05,2.20662115e-05,4.803449925e-06,0.0001267730776,0.0004172269946,0.0005996880888,0.0009376766413,0.003990586037,0.02627403072,0.05130648931,0.1076614107,0.101763896,0.100936258,0.07550760294,0.02258139445,0.01446664313,0.006571923281,0.03121082459,0.01573918526,0.02293638049,0.005910631356,0.006772900371,0.01423896937,0.007756183244,0.003653253696,0.003187098164,0.004733158698,0.01580620983,0.01244645612,0.04187717269,0.06720581234,0.07062188168,0.06225250702,0.07757085086,0.06354600673,0.04727497644,0.0361819189,0.02757916837,0.03060250654,0.03055914732,0.004592224673,0.02940798362,0.0232393494,0.01535899942,0.01093923883,0.01130003338,0.004473122745,0.002046872398,0.002880480804,0.009106459617,0.0157657503,0.02957453769,0.04672799366,0.03844425427,0.03022617883,0.02446209163,0.03461886206,0.03466896342,0.02559503382,0.02120716971,0.03072319844,0.02820745229,0.0149664891,0.007325126674,0.003172569446,0.002426285688,0.003235994295,0.006836640878,0.009144359304,0.004617078512,0.0007235520713,0.001232540327,0.0009281836622,0.001088565742,0.0005683775227,0.0003873290718,0.0001057408811,0.0001220066591,7.775610798e-05,5.60427834e-05,4.478009023e-05,4.051822766e-05,2.039752166e-05,3.866338651e-05,2.209580595e-05,2.654659604e-05,2.281968729e-05,4.312707157e-06,3.959897328e-06,6.553573802e-06,6.431642507e-06,3.328980448e-06,1.791329587e-06,9.708114832e-07,3.184996686e-07,6.569959769e-07,5.909617025e-07,2.873845301e-07,3.739525236e-07,4.589895709e-07,3.26421432e-07,4.04994726e-07,2.989284322e-07,4.068014307e-07,4.128740803e-07,4.571781534e-07,3.634024214e-07,6.293916291e-08,2.495249646e-07,2.366011489e-07,9.390431245e-08,1.705739572e-07,2.94273639e-07,1.955267218e-07,2.002495887e-07,2.644852013e-07,2.930016798e-07,1.648023293e-07,1.627757408e-07,1.606856639e-07,1.190849165e-07,9.172519038e-08,1.565164233e-07,8.165780282e-08,4.88992628e-08,2.856170688e-08,3.524181108e-08,2.74851837e-08,1.034771879e-08,5.295306375e-08,8.153062864e-08,2.692072828e-08,1.248604796e-08,1.836680326e-08,2.891179101e-08,1.401124543e-08,3.990891397e-09,2.20020375e-09,1.375671608e-09,5.761183446e-10,6.797004814e-10,3.809955987e-10,6.100346195e-10,5.405979216e-10,6.829087776e-10,6.907003543e-10,6.219511485e-10,6.457842065e-10,6.187428522e-10,NaN,NaN],
	"sr": 16000,
	"range": [1,159176],
	"minf0": 63.1883,
	"maxf0": 706.3069,
	"thresh": 0.1,
	"relflag": 1,
	"hop": 320,
	"bufsize": 10000,
	"wsize": 640,
	"lpf": 4000,
	"shift": 0,
	"plotthreshold": 0.2
}
