{
    "DU": 13,
    "DV": 336,
    "F-measure": 0.07704654895666133,
    "F-measure Chroma": 0.22471910112359553,
    "FN": 5,
    "FNC": 0,
    "FNCch": 0,
    "FNI": 5,
    "FNIch": 5,
    "FP": 70,
    "GU": 78,
    "GV": 271,
    "Overall Accuracy": 0.06876790830945559,
    "Overall Chroma Accuracy": 0.20057306590257878,
    "Precision": 0.06976744186046512,
    "Precision Chroma": 0.20348837209302326,
    "Raw Chroma Accuracy": 0.22878228782287824,
    "Raw Pitch Accuracy": 0.05904059040590406,
    "Recall": 0.08602150537634409,
    "Recall Chroma": 0.25089605734767023,
    "TN": 8,
    "TO": 349,
    "TP": 266,
    "TPC": 16,
    "TPCch": 62,
    "TPI": 250,
    "TPIch": 204,
    "Voiced Chroma Accuracy": 0.22878228782287824,
    "Voiced Pitch Accuracy": 0.05904059040590406,
    "Voicing Accuracy": 0.7851002865329513,
    "Voicing Detection": 0.981549815498155,
    "Voicing False Alarm": 0.8974358974358975
}