{
    "DU": 84,
    "DV": 355,
    "F-measure": 0.6416978776529338,
    "F-measure Chroma": 0.8214731585518104,
    "FN": 29,
    "FNC": 1,
    "FNCch": 3,
    "FNI": 28,
    "FNIch": 26,
    "FP": 48,
    "GU": 103,
    "GV": 336,
    "Overall Accuracy": 0.5854214123006833,
    "Overall Chroma Accuracy": 0.7494305239179955,
    "Precision": 0.6268292682926829,
    "Precision Chroma": 0.802439024390244,
    "Raw Chroma Accuracy": 0.8244047619047619,
    "Raw Pitch Accuracy": 0.6041666666666666,
    "Recall": 0.6572890025575447,
    "Recall Chroma": 0.8414322250639387,
    "TN": 55,
    "TO": 439,
    "TP": 307,
    "TPC": 202,
    "TPCch": 274,
    "TPI": 105,
    "TPIch": 33,
    "Voiced Chroma Accuracy": 0.8154761904761905,
    "Voiced Pitch Accuracy": 0.6011904761904762,
    "Voicing Accuracy": 0.8246013667425968,
    "Voicing Detection": 0.9136904761904762,
    "Voicing False Alarm": 0.46601941747572817
}