{
    "DU": 232,
    "DV": 197,
    "F-measure": 0.8504326328800987,
    "F-measure Chroma": 0.927070457354759,
    "FN": 12,
    "FNC": 0,
    "FNCch": 0,
    "FNI": 12,
    "FNIch": 12,
    "FP": 37,
    "GU": 257,
    "GV": 172,
    "Overall Accuracy": 0.8018648018648019,
    "Overall Chroma Accuracy": 0.8741258741258742,
    "Precision": 0.8249400479616307,
    "Precision Chroma": 0.8992805755395683,
    "Raw Chroma Accuracy": 0.9011627906976745,
    "Raw Pitch Accuracy": 0.7209302325581395,
    "Recall": 0.8775510204081632,
    "Recall Chroma": 0.9566326530612245,
    "TN": 220,
    "TO": 429,
    "TP": 160,
    "TPC": 124,
    "TPCch": 155,
    "TPI": 36,
    "TPIch": 5,
    "Voiced Chroma Accuracy": 0.9011627906976745,
    "Voiced Pitch Accuracy": 0.7209302325581395,
    "Voicing Accuracy": 0.8857808857808858,
    "Voicing Detection": 0.9302325581395349,
    "Voicing False Alarm": 0.14396887159533073
}