{
    "DU": 146,
    "DV": 182,
    "F-measure": 0.7729468599033816,
    "F-measure Chroma": 0.9017713365539453,
    "FN": 9,
    "FNC": 4,
    "FNCch": 7,
    "FNI": 5,
    "FNIch": 2,
    "FP": 26,
    "GU": 163,
    "GV": 165,
    "Overall Accuracy": 0.7317073170731707,
    "Overall Chroma Accuracy": 0.8536585365853658,
    "Precision": 0.7523510971786834,
    "Precision Chroma": 0.877742946708464,
    "Raw Chroma Accuracy": 0.9090909090909091,
    "Raw Pitch Accuracy": 0.6484848484848484,
    "Recall": 0.7947019867549668,
    "Recall Chroma": 0.9271523178807947,
    "TN": 137,
    "TO": 328,
    "TP": 156,
    "TPC": 103,
    "TPCch": 143,
    "TPI": 53,
    "TPIch": 13,
    "Voiced Chroma Accuracy": 0.8666666666666667,
    "Voiced Pitch Accuracy": 0.6242424242424243,
    "Voicing Accuracy": 0.8932926829268293,
    "Voicing Detection": 0.9454545454545454,
    "Voicing False Alarm": 0.15950920245398773
}