{
    "f0": [
        0.0,
        43.692787541362037,
        50.55539440374092,
        49.155497711723953,
        50.000174268269049,
        49.293450304212271,
        48.556644099314333,
        49.489594347529675,
        50.000069922668516,
        49.801947755903555,
        50.447834920658885,
        43.203887185094644,
        43.219233153340241,
        41.630098608850027,
        42.735520588734822,
        41.862224814153933,
        41.560875445452425,
        41.843364712205911,
        43.574797911280953,
        44.672472079185994,
        46.726501906261902,
        47.222406803527591,
        49.048100603900238,
        54.683131424393785,
        55.531950774114172,
        55.401130088837135,
        55.269312021043447,
        55.308749139344656,
        55.836443587019566,
        55.585872539111534,
        55.008210911321669,
        55.587516818737875,
        56.424020215400695,
        56.740989983022295,
        57.052260574742377,
        57.008278434153297,
        57.114055130295668,
        57.406672730414456,
        57.252724874982661,
        56.20303942569322,
        56.247320777854739,
        57.559021772729352,
        57.311149980954795,
        57.417728221561561,
        57.428411163791765,
        57.312749130468305,
        57.205034145325385,
        57.26452241530955,
        57.261194433892136,
        57.58819351229063,
        57.565992473800463,
        57.824643240890282,
        57.502546049761804,
        57.444759774862362,
        57.763375738481741,
        57.590139798394809,
        57.796328551282471,
        58.143947137075237,
        61.558491552645506,
        61.380199223197202,
        61.305464387643397,
        61.21842582307773,
        61.161807799502427,
        61.261791403370466,
        61.561671123491152,
        62.101016931735046,
        62.156094069838375,
        62.957549366379368,
        62.843111845225238,
        62.846932690996539,
        62.705051595217384,
        62.261853869255042,
        61.509327912292576,
        62.069734217401539,
        61.612171397417953,
        62.231900949463608,
        62.171554224143591,
        62.110996349806726,
        62.222493623912442,
        62.393755192420294,
        62.478764419493899,
        62.546977014465213,
        62.449088375382999,
        62.659674806751546,
        62.735171945127107,
        62.526706378665814,
        62.494474283795256,
        62.198862238876089,
        62.032575916713071,
        62.308655187681019,
        62.704998051448086,
        62.143657123555194,
        42.604273483450577,
        42.663984092172797,
        50.162147914567996,
        61.777257405620318,
        61.846375561536682,
        61.741224007137468,
        61.635429939435099,
        61.701248266965273,
        61.695219699548048,
        61.679115472569698,
        61.662996251222559,
        61.650506396747097,
        61.642594214750815,
        61.634683894137183,
        61.626771824864576,
        61.618858006187558,
        61.610946054913825,
        61.603026746280008,
        61.245351989588301,
        61.295489191219396,
        61.54563791323713,
        61.519853965632429,
        62.305286408694435,
        62.524910525165943,
        62.832378098050739,
        62.916033572689223,
        62.724450365786609,
        62.696145091406748,
        62.75740622387044,
        62.729168615448891,
        62.900008442129007,
        62.806151656861772,
        62.942521861452221,
        62.888951010774207,
        62.880265155599794,
        63.021316944732185,
        62.939422403539531,
        62.817258651711832,
        62.919625147828931,
        62.967387491743892,
        62.94330897689138,
        62.769446281324633,
        62.965953236411522,
        62.900421748208394,
        63.053230528985154,
        62.98132250494438,
        62.804731443144448,
        62.851394984772888,
        62.702527839595817,
        62.603972761916289,
        62.821752605495021,
        62.546900360249836,
        62.646880526079201,
        62.841944829651524,
        42.280077500262614,
        50.831757351245741,
        50.951215717750017,
        42.240458120259937,
        43.099101816489714,
        42.08007729547117,
        42.118377394106666,
        42.617780572356999,
        42.362987351490183,
        41.538285075092944,
        40.392051794467314,
        41.108644763119216,
        41.921053233216156,
        45.292625223487313,
        45.489979406537728,
        45.450185513575498,
        45.241053157735315,
        45.287500635840843,
        45.628689616617919,
        45.292935798012067,
        45.392724020842614,
        45.606358501419066,
        45.933234248626221,
        58.194512786964232,
        58.064392945424963,
        58.167164168250316,
        58.14462156192225,
        58.127366263459656,
        58.279694285218326,
        58.365880283470268,
        58.134161338082805,
        57.897861189412168,
        57.99341941803533,
        58.007220124202362,
        58.0616399252702,
        58.095650149664081,
        58.311958030661771,
        58.261777255362155,
        58.053226587920406,
        58.094658241233567,
        57.958586188034104,
        57.853906092369833,
        58.075091745832694,
        57.974030966770457,
        57.928188818857642,
        58.36599903892165,
        62.218139837746968,
        62.213665819003992,
        62.15660398336329,
        62.125759223427536,
        62.094859351786923,
        62.406736115547972,
        62.40175514547564,
        62.82349567004384,
        62.745430179624989,
        62.838904480965937,
        62.806290757036393,
        62.823976013531023,
        62.841644963069001,
        62.860874257043719,
        62.705300350832083,
        62.815942322282652,
        62.884908647495649,
        62.953597865500299,
        62.848023981811352,
        62.848666374135512,
        62.849308742623933,
        62.849945979598552,
        62.850586560695653,
        62.851228857941472,
        62.715427809852137,
        62.578553143793101,
        62.440587633348947,
        62.127525566355843,
        62.742197014899553,
        62.469196153890138,
        62.793063082289422,
        62.507213908354522,
        62.582128367191089,
        61.916600100275843,
        61.640200954959425,
        61.828300164182664,
        61.6247201959957,
        61.567335046532484,
        61.607622711835255,
        61.647816780900129,
        61.687917807515355,
        61.553934244063612,
        61.448397444799838,
        61.578371618077512,
        61.704396332287821,
        61.656991027301345,
        61.473705644177301,
        61.529467839017364,
        61.37715585460262,
        61.277937592934585,
        61.493622125921007,
        61.566471754849381,
        62.051784788539024,
        61.617537429012145,
        61.733777044911363,
        62.138019832660127,
        62.218512872714776,
        62.106129877055366,
        62.828485420769368,
        62.774754412455437,
        62.593183553379191,
        62.646585893976344,
        62.495171866219181,
        62.220363957297437,
        62.175517307576328,
        61.839458531907162,
        62.157541745701025,
        61.718399906380164,
        61.887437734341255,
        37.84475268256611,
        37.9306209523712,
        57.30903293455134,
        57.063057751424495,
        57.189888741226966,
        57.360110394714184,
        57.156990366101979,
        57.739755455119536,
        57.96454837988837,
        57.466619982455171,
        57.871448546291099,
        57.779166648276892,
        57.007156229230105,
        57.237275276054596,
        57.333565786037724,
        57.666755203508089,
        57.87756416838544,
        56.840732033726184,
        57.405771920343319,
        57.382467632217313,
        57.401041955995524,
        57.739723258965149,
        57.565868101846839,
        57.741337366186031,
        57.860660851925047,
        57.656440288773304,
        57.216062591618112,
        57.729210011368366,
        57.897695918393488,
        57.340698441127664,
        57.452026936599722,
        57.2041145381828,
        57.998775761065311,
        57.772001078686074,
        57.322837037513089,
        57.598418101401691,
        57.911538844995974,
        58.024551397737746,
        57.527020741302941,
        57.619042572211846,
        57.187014324930672,
        57.93142518628035,
        0.0,
        0.0,
        0.0,
        57.865779742451494,
        57.691787034530826,
        57.691787034530826,
        57.862589325973211,
        38.381347161942173,
        37.011466098010814,
        0.0,
        0.0,
        0.0,
        0.0,
        0.0,
        0.0,
        0.0,
        0.0,
        0.0,
        0.0,
        0.0,
        0.0,
        0.0,
        0.0,
        0.0,
        0.0,
        0.0,
        0.0,
        0.0,
        0.0,
        0.0,
        0.0,
        0.0,
        0.0,
        0.0,
        0.0,
        0.0,
        0.0,
        0.0,
        0.0,
        0.0,
        0.0,
        0.0,
        0.0,
        0.0,
        0.0
    ],
    "time": [
        0.02,
        0.040000000000000001,
        0.059999999999999998,
        0.080000000000000002,
        0.10000000000000001,
        0.12,
        0.14000000000000001,
        0.16,
        0.17999999999999999,
        0.20000000000000001,
        0.22,
        0.23999999999999999,
        0.26000000000000001,
        0.28000000000000003,
        0.29999999999999999,
        0.32000000000000001,
        0.34000000000000002,
        0.35999999999999999,
        0.38,
        0.40000000000000002,
        0.41999999999999998,
        0.44,
        0.46000000000000002,
        0.47999999999999998,
        0.5,
        0.52000000000000002,
        0.54000000000000004,
        0.56000000000000005,
        0.57999999999999996,
        0.59999999999999998,
        0.62,
        0.64000000000000001,
        0.66000000000000003,
        0.68000000000000005,
        0.69999999999999996,
        0.71999999999999997,
        0.73999999999999999,
        0.76000000000000001,
        0.78000000000000003,
        0.80000000000000004,
        0.81999999999999995,
        0.83999999999999997,
        0.85999999999999999,
        0.88,
        0.90000000000000002,
        0.92000000000000004,
        0.93999999999999995,
        0.95999999999999996,
        0.97999999999999998,
        1.0,
        1.02,
        1.04,
        1.0600000000000001,
        1.0800000000000001,
        1.1000000000000001,
        1.1200000000000001,
        1.1399999999999999,
        1.1599999999999999,
        1.1799999999999999,
        1.2,
        1.22,
        1.24,
        1.26,
        1.28,
        1.3,
        1.3200000000000001,
        1.3400000000000001,
        1.3600000000000001,
        1.3799999999999999,
        1.3999999999999999,
        1.4199999999999999,
        1.4399999999999999,
        1.46,
        1.48,
        1.5,
        1.52,
        1.54,
        1.5600000000000001,
        1.5800000000000001,
        1.6000000000000001,
        1.6200000000000001,
        1.6399999999999999,
        1.6599999999999999,
        1.6799999999999999,
        1.7,
        1.72,
        1.74,
        1.76,
        1.78,
        1.8,
        1.8200000000000001,
        1.8400000000000001,
        1.8600000000000001,
        1.8799999999999999,
        1.8999999999999999,
        1.9199999999999999,
        1.9399999999999999,
        1.96,
        1.98,
        2.0,
        2.02,
        2.04,
        2.0600000000000001,
        2.0800000000000001,
        2.1000000000000001,
        2.1200000000000001,
        2.1400000000000001,
        2.1600000000000001,
        2.1800000000000002,
        2.2000000000000002,
        2.2200000000000002,
        2.2400000000000002,
        2.2599999999999998,
        2.2799999999999998,
        2.2999999999999998,
        2.3199999999999998,
        2.3399999999999999,
        2.3599999999999999,
        2.3799999999999999,
        2.3999999999999999,
        2.4199999999999999,
        2.4399999999999999,
        2.46,
        2.48,
        2.5,
        2.52,
        2.54,
        2.5600000000000001,
        2.5800000000000001,
        2.6000000000000001,
        2.6200000000000001,
        2.6400000000000001,
        2.6600000000000001,
        2.6800000000000002,
        2.7000000000000002,
        2.7200000000000002,
        2.7400000000000002,
        2.7599999999999998,
        2.7799999999999998,
        2.7999999999999998,
        2.8199999999999998,
        2.8399999999999999,
        2.8599999999999999,
        2.8799999999999999,
        2.8999999999999999,
        2.9199999999999999,
        2.9399999999999999,
        2.96,
        2.98,
        3.0,
        3.02,
        3.04,
        3.0600000000000001,
        3.0800000000000001,
        3.1000000000000001,
        3.1200000000000001,
        3.1400000000000001,
        3.1600000000000001,
        3.1800000000000002,
        3.2000000000000002,
        3.2200000000000002,
        3.2400000000000002,
        3.2599999999999998,
        3.2799999999999998,
        3.2999999999999998,
        3.3199999999999998,
        3.3399999999999999,
        3.3599999999999999,
        3.3799999999999999,
        3.3999999999999999,
        3.4199999999999999,
        3.4399999999999999,
        3.46,
        3.48,
        3.5,
        3.52,
        3.54,
        3.5600000000000001,
        3.5800000000000001,
        3.6000000000000001,
        3.6200000000000001,
        3.6400000000000001,
        3.6600000000000001,
        3.6800000000000002,
        3.7000000000000002,
        3.7200000000000002,
        3.7400000000000002,
        3.7599999999999998,
        3.7799999999999998,
        3.7999999999999998,
        3.8199999999999998,
        3.8399999999999999,
        3.8599999999999999,
        3.8799999999999999,
        3.8999999999999999,
        3.9199999999999999,
        3.9399999999999999,
        3.96,
        3.98,
        4.0,
        4.0199999999999996,
        4.04,
        4.0599999999999996,
        4.0800000000000001,
        4.0999999999999996,
        4.1200000000000001,
        4.1399999999999997,
        4.1600000000000001,
        4.1799999999999997,
        4.2000000000000002,
        4.2199999999999998,
        4.2400000000000002,
        4.2599999999999998,
        4.2800000000000002,
        4.2999999999999998,
        4.3200000000000003,
        4.3399999999999999,
        4.3600000000000003,
        4.3799999999999999,
        4.4000000000000004,
        4.4199999999999999,
        4.4400000000000004,
        4.46,
        4.4800000000000004,
        4.5,
        4.5199999999999996,
        4.54,
        4.5599999999999996,
        4.5800000000000001,
        4.5999999999999996,
        4.6200000000000001,
        4.6399999999999997,
        4.6600000000000001,
        4.6799999999999997,
        4.7000000000000002,
        4.7199999999999998,
        4.7400000000000002,
        4.7599999999999998,
        4.7800000000000002,
        4.7999999999999998,
        4.8200000000000003,
        4.8399999999999999,
        4.8600000000000003,
        4.8799999999999999,
        4.9000000000000004,
        4.9199999999999999,
        4.9400000000000004,
        4.96,
        4.9800000000000004,
        5.0,
        5.0199999999999996,
        5.04,
        5.0599999999999996,
        5.0800000000000001,
        5.0999999999999996,
        5.1200000000000001,
        5.1399999999999997,
        5.1600000000000001,
        5.1799999999999997,
        5.2000000000000002,
        5.2199999999999998,
        5.2400000000000002,
        5.2599999999999998,
        5.2800000000000002,
        5.2999999999999998,
        5.3200000000000003,
        5.3399999999999999,
        5.3600000000000003,
        5.3799999999999999,
        5.4000000000000004,
        5.4199999999999999,
        5.4400000000000004,
        5.46,
        5.4800000000000004,
        5.5,
        5.5199999999999996,
        5.54,
        5.5599999999999996,
        5.5800000000000001,
        5.5999999999999996,
        5.6200000000000001,
        5.6399999999999997,
        5.6600000000000001,
        5.6799999999999997,
        5.7000000000000002,
        5.7199999999999998,
        5.7400000000000002,
        5.7599999999999998,
        5.7800000000000002,
        5.7999999999999998,
        5.8200000000000003,
        5.8399999999999999,
        5.8600000000000003,
        5.8799999999999999,
        5.9000000000000004,
        5.9199999999999999,
        5.9400000000000004,
        5.96,
        5.9800000000000004,
        6.0,
        6.0199999999999996,
        6.04,
        6.0599999999999996,
        6.0800000000000001,
        6.0999999999999996,
        6.1200000000000001,
        6.1399999999999997,
        6.1600000000000001,
        6.1799999999999997,
        6.2000000000000002,
        6.2199999999999998,
        6.2400000000000002,
        6.2599999999999998,
        6.2800000000000002,
        6.2999999999999998,
        6.3200000000000003,
        6.3399999999999999,
        6.3600000000000003,
        6.3799999999999999,
        6.4000000000000004,
        6.4199999999999999,
        6.4400000000000004,
        6.46,
        6.4800000000000004,
        6.5,
        6.5199999999999996,
        6.54,
        6.5599999999999996,
        6.5800000000000001,
        6.5999999999999996,
        6.6200000000000001,
        6.6399999999999997,
        6.6600000000000001,
        6.6799999999999997,
        6.7000000000000002,
        6.7199999999999998,
        6.7400000000000002,
        6.7599999999999998,
        6.7800000000000002,
        6.7999999999999998,
        6.8200000000000003,
        6.8399999999999999,
        6.8600000000000003,
        6.8799999999999999,
        6.9000000000000004,
        6.9199999999999999,
        6.9400000000000004,
        6.96
    ]
}