{
	"f0": [NaN,42.0073147,42.10703947,42.2183666,42.3823,42.46273679,42.30040362,56.46727057,37.57314395,43.65908384,56.7708889,56.70295892,56.75744647,56.73802541,56.73169315,56.73110293,56.78767615,56.97622369,57.10194992,57.08781103,57.60888069,58.0749344,58.30349196,58.3318244,58.44296095,58.49128811,58.52554699,58.52234046,58.43618957,58.44086919,58.3728449,58.24898418,58.18007515,58.12766707,58.09575185,57.99883683,57.88430971,57.82746533,57.81099406,57.76789836,57.68744533,57.49595017,57.5261866,57.81411439,58.09635578,57.96471431,57.89198963,61.57546146,61.54709347,61.58634572,61.74011777,61.88857919,61.8787348,61.83046988,61.87147865,61.96353477,61.86673267,61.91792127,62.05868584,62.24706087,62.28652905,62.34693983,62.41390738,62.37676483,62.4015387,62.42697939,62.52834981,62.50879656,62.52602752,62.58491214,62.52081225,62.56249144,62.68768849,62.7113357,62.68269311,62.67769431,62.06356096,61.3668714,61.20107416,61.0660977,61.03702668,61.28070321,61.3989987,61.55006826,61.55050963,61.43120462,61.50639509,61.43333801,61.38087826,61.46511032,61.49613436,61.35355546,60.9908722,60.66373512,60.57185858,60.4886918,60.0369731,59.3240235,59.59887365,59.70287756,60.186129,60.33647939,60.25137003,60.12710082,59.94978107,60.04663153,60.2308502,60.22733337,59.99663416,59.69624201,59.63194867,59.22284999,59.21309485,59.19318231,60.54540348,61.09206606,61.10928102,61.09690698,61.0127231,61.05391092,61.19719797,61.24486338,61.28756106,61.46451063,61.49362831,61.40018038,61.20146913,61.06700078,61.04089035,61.12866307,61.35127551,61.42664838,61.86513169,62.2657437,62.34992321,62.36984183,62.39014256,62.46159199,62.70041688,62.73178186,62.73353356,62.7387577,62.42276399,62.00012769,61.86779922,62.13930924,62.00739357,62.22930738,62.50701676,62.91192705,63.40980881,62.86368842,62.72438836,63.02271802,62.9855452,62.82611396,62.72705083,62.7546809,62.71250605,62.74269629,62.73208779,62.55417573,62.16448085,62.15261364,62.79005995,63.01014851,63.03940696,62.96952835,62.99037007,63.0242354,62.96880441,62.92336049,63.06232879,63.1010156,62.99364658,62.89087049,63.04086781,63.14155487,62.94087417,63.46326462,63.71056398,63.85585299,64.44603021,64.60276263,64.62591867,64.82089539,64.71383721,64.67768891,64.99997159,64.98379528,64.91016789,64.76998923,64.82825554,64.91072144,64.67005457,64.52537596,64.83056862,64.93269645,64.75879249,64.73923972,64.92246676,65.2720496,65.68713557,65.72160032,65.96170226,66.24463032,66.10421454,66.18977027,66.60867961,67.06312907,66.83006191,66.63129452,66.68584902,66.55669333,66.27874865,66.27696922,66.2447518,66.0098264,65.97476546,66.0897598,66.06958702,65.98173717,66.03148427,66.06828206,66.15408934,66.3094042,65.95441625,65.71947873,65.5204989,65.2962381,65.41082092,65.25764324,64.8937367,65.43506845,65.622749,65.62795733,65.66660348,65.66361848,65.64692637,65.63025999,65.54922736,64.93181448,64.63659533,63.66995743,63.46652447,63.45149892,63.3153122,63.35280553,63.45083746,63.49565832,63.55769929,63.64004456,63.55327629,63.3951611,62.91836291,63.15618107,63.31290347,63.37559558,63.37769828,63.30293504,63.40886058,63.55322059,63.57793742,63.47539473,63.0078644,62.30076414,62.02621041,61.57074954,61.55032244,61.60228895,61.62701457,62.12048196,62.0692044,61.77629419,61.7076217,61.53323095,61.55010252,61.66070704,61.16950985,61.10738929,61.1803768,61.18547656,61.16895232,61.15515295,61.20459668,61.37483872,61.61020781,61.64255944,61.52686891,61.50444542,61.48062092,61.34203292,61.0271291,60.96878443,61.11404427,61.26423827,61.17453903,61.00574386,61.08032498,61.06765798,61.11304198,61.169587,61.1920581,61.2767525,61.43354581,61.49942741,61.50301611,61.34026923,61.08228253,60.82022639,60.77544797,61.13209142,60.94729185,60.76973747,60.98458224,61.22114475,61.21234544,61.00766393,60.77499708,58.9446811,57.91080137,57.3217057,57.06105116,56.99826472,57.08528337,57.12773901,57.21505843,57.54170238,57.24749056,56.87289238,56.60657464,56.46825271,56.60469285,56.46727057,55.13489482,54.16150087,53.91072395,54.11576688,54.12311389,53.91934546,54.07765554,54.55301801,54.5750177,54.58639058,54.47286217,54.377338,54.38722805,54.39829235,54.22084895,54.1045232,54.13202872,54.20949262,54.29907859,54.48465508,54.69832321,54.65272246,54.58076586,54.43988547,54.45527809,54.58576571,54.68825301,54.72303907,54.4874947,54.5994438,54.66822381,54.63593698,54.50359794,54.27648426,54.4590177,54.56286641,54.69274692,54.97462499,54.6700493,54.53274833,54.73921083,54.494588,54.3533832,54.31732408,54.73882049,54.83956264,54.84634715,54.71912333,54.44043236,54.62426154,54.6941985,54.6302732,54.61459228,54.59479567,54.69131451,54.91332691,54.92380688,54.73888895,54.76858323,54.84234735,54.71579998,54.83220535,54.70464502,54.56155565,54.53946119,54.44483059,54.46357504,54.44025849,54.42459606,54.48519156,54.50148775,54.29941124,54.28836002,54.22861492,54.28535404,54.50449671,54.54929206,54.63052539,54.72154559,54.77352759,54.72386122,54.6871182,54.67648328,54.78779932,54.9104401,54.71734749,54.62349237,54.9321597,54.93051557,54.97685703,55.07332223,55.1259084,35.74163728,35.48573577,36.33040771,35.90292079,41.86614393,40.09240138,35.34887861,35.34887861,37.38627474,37.18049059,NaN,NaN],
	"ap0": [NaN,0.5008352673,0.4634021527,0.4141753631,0.3685312934,0.4303526347,0.4958287988,0.4979518817,0.4229828828,0.9734011023,0.1232030886,0.05569543844,0.0140279086,0.004575819944,0.004658941701,0.004711675031,0.005064848603,0.009724436144,0.02033277359,0.06102467818,0.1029329077,0.1080941512,0.1047317176,0.03792567874,0.005431885203,0.001437906915,0.003008051854,0.004580743582,0.007403000807,0.01176215285,0.007510513448,0.002555677404,0.003117250767,0.003713860515,0.003411484525,0.004899092465,0.003527565323,0.003162326753,0.005335141814,0.02367135757,0.05026106632,0.130198271,0.02980977929,0.02076398462,0.03366369652,0.05613283671,0.1470382332,0.141345887,0.03318215544,0.02013402503,0.01414344557,0.01319391466,0.008050668777,0.007132284868,0.01177207055,0.03405583427,0.04415339817,0.01291160282,0.006232707759,0.005666888047,0.003640652901,0.004941941267,0.004718850542,0.003955505205,0.00543007076,0.005161785012,0.003625292756,0.004192587802,0.005929788042,0.004132375593,0.005178064352,0.009476651458,0.007860211753,0.007310833919,0.02538194765,0.03258043396,0.03970375517,0.02672890409,0.00971294797,0.01238511519,0.01220928917,0.00572479407,0.004700958965,0.007026568118,0.006564564138,0.00514908718,0.003164433723,0.003477140121,0.003405946625,0.002715712859,0.001149046742,0.003274978852,0.007721545882,0.01017318896,0.0405136004,0.09619766984,0.0880758199,0.0648577921,0.03940213022,0.04782193861,0.07225544753,0.03589284769,0.05318232777,0.055447015,0.02237925944,0.01735954687,0.009192663469,0.004724174144,0.006108726927,0.01631342468,0.05948718069,0.1856724202,0.2599601057,0.3785941706,0.2431866949,0.04205315129,0.01987955761,0.01243490143,0.006950255673,0.004800673545,0.004406101323,0.005666429954,0.01327144839,0.0264580145,0.009497419603,0.003778789011,0.005725974877,0.009311964579,0.03350418938,0.03687652016,0.06725904638,0.1429553765,0.08955180665,0.0392209462,0.02500888366,0.06073659775,0.02754320523,0.01456810893,0.01496586539,0.01160981703,0.01213412083,0.01551600789,0.03689954091,0.02879500768,0.03623018741,0.2157410329,0.2174409662,0.1477937365,0.1262665814,0.2470052754,0.2653205342,0.1601828948,0.09841326192,0.0965224001,0.04439205801,0.02321506081,0.02456354977,0.02583611991,0.01400334131,0.01433211406,0.02397135333,0.01094194971,0.007903934305,0.07696368399,0.2610142705,0.1781406906,0.100309421,0.09164004114,0.0748521521,0.04921988986,0.04214499377,0.04363925201,0.03738398104,0.04615461869,0.02383921173,0.02268741827,0.02577933279,0.01507109551,0.01194167173,0.09678627426,0.07438876577,0.07370824597,0.08060334029,0.01330300186,0.007460238024,0.01561200189,0.02565318722,0.02957139069,0.05019580177,0.05067304167,0.03446586451,0.01219787323,0.01004161646,0.01306398754,0.02657134887,0.04292555375,0.06155203459,0.05304765232,0.02457311798,0.0109877497,0.0128002876,0.03161399843,0.02441704754,0.01459264481,0.02733481032,0.05858318247,0.07904142547,0.08032776871,0.08799983523,0.06767644851,0.07545158132,0.1054616603,0.08463899755,0.0296070853,0.02929213889,0.03658825289,0.0147478468,0.007246599751,0.005116506263,0.002817048073,0.001611116898,0.001549629351,0.001847404819,0.002330532427,0.005534899172,0.004629380039,0.008837281822,0.01188306486,0.01989238247,0.0445691199,0.03972938494,0.02823318441,0.03757724444,0.03249268199,0.008092290952,0.01035721098,0.008562051546,0.002796809453,0.002565239117,0.007664464968,0.03858308149,0.07007438162,0.1007631363,0.1819298592,0.0890580279,0.06585492333,0.04182877335,0.03321981062,0.04228668521,0.05468666013,0.04238081276,0.017626031,0.01735268762,0.04560790408,0.06197792314,0.01930372619,0.01801103156,0.02411528478,0.01482076391,0.01780674343,0.00966638337,0.0060350226,0.005621774585,0.01393579,0.06812558805,0.02380676093,0.03399335555,0.03644574316,0.01598915605,0.01030372947,0.01984581654,0.03400714351,0.01898640997,0.0143543199,0.01162594361,0.006486948672,0.01443271007,0.03578223982,0.08352910721,0.02173546279,0.005004149859,0.001998319136,0.001282023463,0.001450327198,0.001651710115,0.003269424336,0.004806517832,0.003397561321,0.001171103552,0.0005697938179,0.001195615296,0.002860910192,0.005105323935,0.00463815567,0.004662393136,0.004807824344,0.02440585559,0.1022085244,0.02370517631,0.006160706542,0.003070520728,0.002163638102,0.002243069934,0.004226782961,0.003852990785,0.002944918752,0.002416458466,0.002715308931,0.003727219479,0.006039225167,0.01624585783,0.0279931873,0.04340563543,0.0732938163,0.03658009382,0.02872889945,0.03217439776,0.04507914742,0.1468860477,0.3558188368,0.1965671888,0.07452473152,0.03321269837,0.009474876083,0.002875392803,0.003700116945,0.01553554074,0.05164984452,0.04130515769,0.02788215443,0.06900765162,0.126805765,0.1413066316,0.2686244964,0.2772385175,0.1960571922,0.08789461029,0.06066929965,0.04042345016,0.02526496357,0.05939647472,0.05394622405,0.01196806851,0.01627989466,0.02637587301,0.02871619909,0.02518840795,0.02165513497,0.01582522419,0.01245630312,0.01591322048,0.007043446588,0.009465305025,0.02842207948,0.0240052381,0.01201603907,0.009525129174,0.006375370205,0.009167201301,0.01353601311,0.01509015719,0.04877103992,0.05975469,0.02330455945,0.02184077125,0.1004798981,0.3925045086,0.172327647,0.08067848041,0.07395467511,0.1399592946,0.3476951017,0.3355645783,0.3062313552,0.3174694381,0.1779314266,0.1910845742,0.2584182939,0.219607306,0.1433048619,0.1221348859,0.1199572561,0.1199442013,0.1266930609,0.08488387254,0.09483708684,0.1106874993,0.1032845749,0.1311228803,0.1578077741,0.1430272236,0.1189024613,0.1035536011,0.1448235733,0.2412233125,0.1354533531,0.03302722119,0.02024749723,0.02803615989,0.02631031244,0.01944347043,0.02502369841,0.03386888898,0.04077849043,0.04233533074,0.0324671298,0.03421923374,0.03188630912,0.026065136,0.0332608122,0.05643541521,0.03495734083,0.01836483338,0.01591500075,0.01517845641,0.01880157433,0.04062211125,0.1315053782,0.2161153507,0.1489174636,0.1660407633,0.1244047234,0.08215092064,0.06532504555,0.1532277451,0.3650674721,0.4741585836,0.5333122929,0.3596494476,0.6309731061,0.7114519786,0.5271144511,1.154231489,0.8496648052,0.8366204961,0.5099523822,NaN,NaN],
	"ap": [NaN,0.519561749,0.392623465,0.1406393933,0.1352940071,0.193455954,0.3556204243,0.3134887213,0.09683096933,0.5844166201,0.6078786698,0.1860360326,0.01965015168,0.00320547819,0.001150856812,0.001352226102,0.002789133227,0.003317838976,0.002615863711,0.009376204809,0.1334751278,0.05085098547,0.4532325832,0.04055448157,0.09197585733,0.001640054528,0.000251230622,0.00136779498,0.002284109462,0.002926951695,0.004441200697,0.003138744933,0.001431820943,0.0003321523585,0.002421423774,0.001827321227,0.001837732528,0.002101865738,0.0007633418495,0.002568963169,0.007210853916,0.06257747914,0.07761617499,0.05740172887,0.01119815742,0.01509621044,0.02886166794,0.4358038191,0.2005884752,0.03794335932,0.01347199603,0.001506028138,0.008413387225,0.006887856276,0.00123896268,0.0064020264,0.01501586554,0.03338858548,0.001194681366,0.006568306481,0.002409001537,0.0006034483735,0.00175523444,0.002592082764,0.0009471781238,0.001977232105,0.001595581683,0.003613650543,0.002583538072,0.00142683659,0.002841605802,0.002114280101,0.01118015455,0.001977120404,0.001970854623,0.02004151688,0.08647228078,0.1154791596,0.01768286286,0.008129226185,0.004082665822,0.02229293199,0.0007556303079,0.001841065901,0.005897517391,0.003385938939,0.003600439456,0.001678922568,0.001590304266,0.001163687715,0.001049565295,0.001695997368,0.01024250971,0.01256109294,0.001492755944,0.02202868653,0.02681677198,0.4425781846,0.05921677664,0.09712085859,0.00668679737,0.1899925293,0.0123172347,0.09069811699,0.1416529131,0.01931083154,0.002866901638,0.01386142619,0.01108777205,0.006707877402,0.000967923728,0.1084538442,0.4435743892,0.03064329646,0.5967420228,0.1762061993,0.06002924241,0.008454107452,0.007253849995,0.006715666451,0.006840808672,0.001458598847,0.001518949503,0.01052485847,0.01493408078,0.007804994019,0.003463201418,0.001377224376,0.00916636952,0.02998315086,0.01512209693,0.01946531193,0.2952597749,0.07748420256,0.02236981324,0.004057106148,0.03150625031,0.0378735086,0.001603282579,0.001358031591,0.006074792017,0.00880989703,0.01539556273,0.103902329,0.01398906477,0.02995150212,0.1276653157,0.1764692517,0.1283608176,0.09752575158,0.07395307411,0.1416321487,0.1119362844,0.2999556357,0.1056565533,0.199626499,0.005634356737,0.01290816398,0.03298949118,0.004750064527,0.008773739457,0.005763604788,0.04071372568,0.004935010621,0.02802786663,0.4675037505,0.1093105388,0.03103839881,0.02663202356,0.1913693927,0.04261382502,0.02364019958,0.02526999168,0.003979496642,0.007290593131,0.01678423804,0.01946383516,0.01729349755,0.01100189231,0.006435418394,0.04531088551,0.03166834232,0.03254019308,0.1886296918,0.007388842737,0.002944974138,0.003626436308,0.03407339818,0.01292962574,0.0351837435,0.007337992575,0.06299701275,0.002564908951,0.004946533811,0.01247803571,0.009842546939,0.03617156286,0.07592503033,0.04103966299,0.02292709631,0.005353973966,0.01593224561,0.01421054236,0.02411192228,0.004933317297,0.0210885008,0.02247676463,0.05125995211,0.2994813227,0.07919557495,0.01374467999,0.03949181814,0.03888572985,0.1326762656,0.05320353265,0.03765580373,0.1520378105,0.02421204938,0.00470209626,0.002419086695,0.002210137186,0.001545504542,0.001410098113,0.003087465249,0.0002712569793,0.004756324012,0.01295456624,0.008553033988,0.002329871505,0.03074854264,0.004370007476,0.1060462709,0.0188281077,0.09367420113,0.04452427511,0.007825675351,0.003931205934,0.002819373482,0.00235384617,0.0006160052752,0.007123828872,0.008954519808,0.07344395156,0.08032259674,0.02984978182,0.06785619511,0.05161997824,0.08509567004,0.009707280701,0.03463403388,0.02706686569,0.07007295956,0.006493602342,0.01309903145,0.0351593027,0.01481994366,0.006626200511,0.002187485135,0.03099444599,0.0007906430911,0.007002440893,0.008255004779,0.002514680859,0.005153033871,0.01200587221,0.1264454342,0.02832608962,0.02303533388,0.01838390427,0.01771737691,0.009304640964,0.003213053151,0.0340165463,0.01039539287,0.006579199469,0.009193326129,0.005787017845,0.009906935185,0.09210544101,0.01626715727,0.01377785082,0.00276433591,0.0002664394176,0.0009148695932,0.002009856588,0.002239794968,0.001896618223,0.003053006035,0.002769477754,0.001625116736,0.0001624000128,0.0008892639021,0.006296198699,0.001327077424,0.006488197365,0.002512512959,0.0004755033214,0.005606614224,0.1765649062,0.06781663424,0.002881211066,0.002675979266,0.0004453728989,0.0002717277246,0.001997080784,0.00110256555,0.0009810122476,0.0009009281456,0.006762106862,0.00372576225,0.0009787820986,0.01589915536,0.04109090811,0.008391715147,0.317127778,0.009048219405,0.01387725147,0.009323164815,0.003624726707,0.2734540143,0.103292813,0.4003762638,0.0831420101,0.01988727405,0.0008084720441,0.001201074122,0.001742886008,0.009764423833,0.07599194487,0.0689431538,0.009483031179,0.05158850709,0.02873573619,0.3054377767,0.4368574147,0.2044487663,0.08116923034,0.04537774437,0.05671326417,0.01715632837,0.01109184129,0.06645072284,0.01279719915,0.005219066228,0.004811819743,0.01051742245,0.01734669187,0.0181373915,0.02075604822,0.01065428508,0.002819701788,0.02204022475,0.001513346264,0.005887887124,0.02068416853,0.01427079619,0.00764818296,0.006015920268,0.001963199447,0.005347654554,0.009663293868,0.01376918484,0.02274586665,0.0261631849,0.01303832563,0.005373271087,0.03385484217,0.08613373235,0.03397862786,0.02505404036,0.02365907873,0.04900432972,0.2560804726,0.2158368682,0.2376139975,0.1902411308,0.1174141141,0.1249382711,0.155892823,0.08646837318,0.05233768905,0.03580622184,0.04590052737,0.03733643429,0.02860902414,0.02128361601,0.03477084596,0.1198580252,0.06787622029,0.08281687224,0.09915717329,0.05998808953,0.05309478702,0.0193155562,0.08039434663,0.1051340266,0.1011910645,0.01295908936,0.007843103267,0.007760082299,0.02099435954,0.02063320233,0.005369126777,0.02807630228,0.0182615536,0.03814947176,0.01413685757,0.00167836314,0.02814032181,0.01960232726,0.003580169463,0.05565081304,0.00537485932,0.01100400351,0.007899227506,0.005025686108,0.005763104856,0.02532675463,0.1052527561,0.07971393456,0.04826259523,0.136278719,0.1123903304,0.04629068783,0.05635667153,0.01945494281,0.09850828653,0.3993073093,0.1397363487,0.2398865758,0.6091291501,0.1040477167,0.4908152966,0.3899650489,0.4058510134,0.5000051884,NaN,NaN],
	"pwr": [NaN,1.449764282e-06,3.738601564e-06,2.116230915e-05,2.290991012e-05,3.271014626e-05,3.557580434e-05,5.874128003e-05,3.464202249e-05,1.292772917e-05,1.105519939e-05,3.100006697e-05,0.00393654541,0.006487041148,0.01121151777,0.008932696453,0.01031772899,0.01319127289,0.02078964916,0.01357699029,0.001578091081,0.002907857706,0.001063653648,0.004360108048,0.001771844168,0.01313734167,0.014295453,0.01323621349,0.008333315485,0.01111013912,0.009884026915,0.009817420638,0.01494831395,0.02099402626,0.01752110759,0.01509894777,0.0102365208,0.007738291267,0.009618243465,0.009478371644,0.007522824344,0.008887038697,0.0009362421478,0.003644822814,0.01781436898,0.01316397654,0.008597472775,0.006844141983,0.003151127828,0.01627873197,0.05309079208,0.03356360291,0.02208015451,0.02853074601,0.04407683426,0.02786564004,0.005024292192,0.00183314423,0.009495808173,0.01329844271,0.01723044399,0.01794964098,0.02524591075,0.01628799711,0.01686465119,0.01169634058,0.01041147017,0.008794678444,0.01455221349,0.00561925428,0.005090603806,0.009733383543,0.01017440278,0.007925989323,0.009666629707,0.002437023412,0.0004807874444,0.00196857823,0.01193524609,0.02385127655,0.06218092577,0.03483613314,0.05444401129,0.0495978943,0.02659362908,0.03195715478,0.0179427443,0.01976978341,0.01292580096,0.01632162856,0.02744512831,0.02970410224,0.02691716279,0.05031441905,0.08491733454,0.05500083426,0.03224718438,0.006036134894,0.00892171003,0.01245384733,0.05162376255,0.001940828785,0.0183590011,0.009535048297,0.001353078304,0.01083501012,0.01494484104,0.008209932051,0.00759575225,0.01774395078,0.01269099593,0.005226638262,0.0004757039715,0.002571044733,0.0003415002359,0.004249255253,0.006051370369,0.02787549042,0.02820424429,0.02516708123,0.02790425551,0.03289375436,0.02629256206,0.01875145564,0.00660592525,0.008876901705,0.02262591569,0.03833360763,0.03366757017,0.004435662199,0.005803980038,0.008838501016,0.002015290587,0.005979636317,0.009557418276,0.02060318371,0.004348531383,0.006823386408,0.02608621331,0.006024102624,0.007980218537,0.005883622567,0.007444842714,0.001309414875,0.01716773825,0.01695996703,0.0009214982435,0.0006630208993,0.001799410612,0.007624356384,0.001240293305,0.003151723132,0.000936784522,0.0016026641,0.001146475315,0.0001748887663,0.005028588317,0.003604647784,0.001846132191,0.001648852021,0.001929046792,0.000926443259,0.002306187526,0.004940054345,0.009937386535,0.0004182989275,0.002461366407,0.001015233397,0.00511910003,0.001539596338,0.005620467228,0.008686362337,0.001258183551,0.003526942652,0.0009886838986,0.001307819367,0.001536148394,0.0009905090898,0.001696036201,0.001953844585,0.001491535528,0.004808959816,0.006995840903,0.0005754107591,0.002159073027,0.01011846226,0.01042639437,0.002748288913,0.01398318481,0.003643684086,0.002311602844,0.001244452346,0.003116471859,0.01624484043,0.009414174422,0.01312867595,0.01893878794,0.003588581024,0.009692428309,0.005694281192,0.02438938306,0.008109176716,0.01617920893,0.003658879435,0.01775081785,0.007762833186,0.009916479231,0.003678561943,0.008933435052,0.001946491512,0.00508128922,0.001217222993,0.005554111054,0.002793789134,0.004532511333,0.004133198844,0.0007884418084,0.004045803895,0.005090225208,0.004045113042,0.01255232971,0.02212320569,0.02363145039,0.0227450621,0.02377977117,0.008813197386,0.006039391047,0.002535213376,0.008596918522,0.006390777838,0.009798030103,0.0007413491332,0.007346582379,0.003375306636,0.004505190872,0.009672760299,0.02123803089,0.03178589558,0.01962458098,0.02136427024,0.01051765953,0.007113205892,0.001045095971,0.01200612624,0.006285589409,0.002506806588,0.005901767565,0.002137704715,0.004703815741,0.003610890958,0.005337634759,0.001628555566,0.005498812568,0.006242962038,0.003208234191,0.001970525821,0.004794225629,0.01002980245,0.002875577011,0.005756523406,0.00262776951,0.004099781363,0.01300156063,0.01532438315,0.01665472169,0.003637232814,0.009686156311,0.08053983812,0.07216292144,0.07236541948,0.1341725951,0.1093968129,0.01307714867,0.05072490481,0.06011733232,0.03315255318,0.0512457875,0.09054475939,0.02575948692,0.007976348825,0.03102975992,0.1282634925,0.353330561,0.4359765363,0.3049548717,0.1923606066,0.1371893726,0.09157180452,0.0711648864,0.1228068984,0.180729667,0.1400554487,0.08892190801,0.07039964153,0.1349256455,0.1759893017,0.1028361641,0.03159747909,0.004162831135,0.01064240483,0.06844972747,0.1003660506,0.1715565076,0.1535271373,0.1069071707,0.05551946968,0.04408688744,0.04492630231,0.06493640449,0.1060689105,0.129001477,0.09240606697,0.01110432595,0.01430299193,0.002425386751,0.01326955137,0.01848336973,0.00668332341,0.008733184616,0.002496038579,0.00277610739,0.004942079713,0.01341539194,0.06382813906,0.0712589517,0.09783852013,0.08237253759,0.04728506102,0.01303350954,0.004239802686,0.04337843815,0.04411104492,0.05497555608,0.002762822409,0.003150572675,0.03946978125,0.06966956064,0.05487037371,0.0326376175,0.05577488758,0.05475398543,0.027868817,0.01175379839,0.02132536952,0.02241743804,0.02870976719,0.01390423499,0.01493391858,0.01474515371,0.03565642198,0.0380060861,0.01840587708,0.02148897761,0.0201943929,0.01299242273,0.007293839655,0.01208477825,0.01821677764,0.01927403151,0.01698916931,0.008579935753,0.003866972061,0.001488295377,0.0009274022674,0.00161833724,0.002876902597,0.001092744841,9.391103062e-05,0.0002308379394,0.0005783961309,0.0005685171902,0.0002556644653,9.676284011e-05,0.0001076144481,3.274675998e-05,8.160542947e-06,6.183372502e-05,6.864367683e-05,4.991421502e-05,1.045522204e-05,1.042157603e-05,6.047183018e-06,7.33852421e-06,6.020344154e-06,2.521765729e-06,6.531891569e-06,6.784069352e-06,1.895123203e-06,1.931187682e-06,1.467449581e-06,1.21079915e-06,4.887455654e-07,1.567333133e-06,1.133643113e-06,1.838602984e-07,3.362763396e-07,2.576889432e-07,3.421134181e-07,4.783492711e-07,6.163906942e-07,3.126439475e-07,3.112836708e-07,3.951968938e-07,1.995745952e-07,8.343942978e-08,3.340323953e-08,5.066962772e-08,7.386413645e-08,1.111466686e-07,1.169812814e-07,3.881330429e-08,3.217472585e-08,6.397375243e-08,4.902769727e-08,7.382150746e-08,1.808397578e-07,1.074679822e-07,4.152118661e-08,1.17338005e-08,5.51432455e-09,2.214080975e-09,6.985245714e-09,1.658668082e-09,7.024616823e-09,3.743672373e-09,4.852551479e-09,2.424124422e-09,1.194411963e-09,5.64129247e-10,1.254067491e-09,6.30798015e-10,5.280508578e-10,3.474126533e-10,8.2957375e-11,1.995249316e-10,0,NaN,NaN],
	"sr": 16000,
	"range": [1,140167],
	"minf0": 63.1883,
	"maxf0": 706.3069,
	"thresh": 0.1,
	"relflag": 1,
	"hop": 320,
	"bufsize": 10000,
	"wsize": 640,
	"lpf": 4000,
	"shift": 0,
	"plotthreshold": 0.2
}
