{
    "f0": [
        0.0,
        0.0,
        0.0,
        0.0,
        0.0,
        0.0,
        0.0,
        0.0,
        0.0,
        0.0,
        0.0,
        0.0,
        0.0,
        0.0,
        0.0,
        0.0,
        0.0,
        0.0,
        0.0,
        0.0,
        51.856271092582013,
        50.926510960255925,
        51.335471071686563,
        52.424223659813997,
        51.801332717559248,
        51.341179555055085,
        51.279315043475314,
        50.423982692668247,
        50.050963247724212,
        49.5054184973676,
        51.254856943073278,
        49.554679966384441,
        47.737024476625933,
        46.963622496686909,
        0.0,
        0.0,
        0.0,
        0.0,
        0.0,
        0.0,
        0.0,
        36.709291611392032,
        38.084186759962236,
        36.80836928973882,
        33.949529432940501,
        34.992351695312848,
        37.150207692682244,
        35.699394926141849,
        0.0,
        0.0,
        0.0,
        41.032706225681601,
        40.793709196763501,
        41.467338386798005,
        42.137143008118635,
        42.573946971282872,
        42.757646725276516,
        42.9946667397924,
        43.220406890692885,
        44.682028892033514,
        43.1010073409252,
        45.782391954805114,
        46.640025128554292,
        46.452821865000914,
        47.558991883457054,
        47.07121939468864,
        47.400626124541567,
        47.826527204514065,
        47.502554709416707,
        46.950960680661623,
        47.253630533887588,
        47.380799515639282,
        47.214111265946514,
        47.636034902098075,
        46.734340112521799,
        46.206806868849924,
        47.86623642376064,
        47.585078541113127,
        46.585299129910403,
        47.112150927254184,
        47.283293210783732,
        47.662198391931312,
        47.501312772331389,
        47.947975451968929,
        47.889443141992089,
        49.969606198563199,
        50.011504815814547,
        50.005149821174449,
        49.874327717377739,
        49.474098837216232,
        49.404192134540281,
        49.973271554519243,
        49.947720152963413,
        49.749228163405917,
        49.776486512991809,
        49.834894725268796,
        49.445273151479505,
        49.249715012201911,
        49.487676444800414,
        49.534502810695166,
        49.555519893861913,
        49.777911583416511,
        49.75057162832826,
        49.607479187412878,
        49.662053315700142,
        49.350398502996313,
        49.380602060965245,
        49.749432602644049,
        49.732918361381984,
        49.834618561190794,
        49.567676313531464,
        49.437582541357258,
        49.521977268251725,
        49.690425413910354,
        50.214763994801828,
        50.351501608035555,
        50.297910232029707,
        50.182474059382699,
        50.249897014185059,
        50.241269446619008,
        50.169106420155238,
        50.240953644371388,
        49.979153681320675,
        50.079464850545861,
        50.155125847142848,
        49.960751273662396,
        50.055414865650192,
        50.467473167760701,
        50.077034509700489,
        50.368591876618332,
        52.048684497761506,
        51.647023067902971,
        50.607614003645125,
        51.574221558723508,
        51.664158028271146,
        51.392851716577745,
        51.445459093129344,
        51.585741464644876,
        51.936171096295652,
        52.110280741114515,
        52.175674829903429,
        52.118363102324317,
        51.781220086842438,
        51.345336602285926,
        51.691821117020893,
        51.885644416773545,
        52.014938541182175,
        51.922177540791168,
        51.459342057832792,
        51.540593722176027,
        51.960810531916223,
        51.686595912370706,
        51.767430388386856,
        50.908158516507903,
        49.945386803658678,
        51.828379405376538,
        51.792536569060644,
        53.67499261537003,
        51.981405759890279,
        54.513067698288516,
        51.816359035263382,
        51.937652638178953,
        53.723245999573585,
        51.705612383952442,
        51.552208241156634,
        50.744839060064493,
        51.210442317582327,
        48.218931046642638,
        48.286353600899297,
        49.444738075677805,
        49.643496025062802,
        50.195142853939792,
        50.226951165044213,
        50.176174407005632,
        50.296338059780261,
        50.374594842212105,
        50.377487219655336,
        50.327457882965945,
        50.428255119088014,
        50.519455368616129,
        50.66878527581143,
        50.75444230940515,
        50.828651822183474,
        50.827070466447978,
        51.278546397893983,
        51.412153644972591,
        51.537619261806853,
        51.456568653279128,
        51.749290012441421,
        51.403392968527029,
        51.361510368469105,
        51.834647771048353,
        52.08927237606062,
        52.47711434555643,
        52.639561854921148,
        51.954468784642472,
        52.318283928521701,
        52.143145446998147,
        52.345284950862805,
        51.943916979052226,
        51.943194987390882,
        51.692760885490912,
        51.95351257203113,
        52.662147287970015,
        52.153681294481714,
        52.28467357498613,
        53.556391662099813,
        54.515959087789923,
        53.789903433760273,
        54.639032439911823,
        54.372399695819837,
        54.426580416662588,
        54.494401536255751,
        53.966437625114075,
        54.233037917219562,
        54.318786184638597,
        54.551216622775641,
        54.507807472296996,
        54.544434932991237,
        54.113947770615425,
        54.398599365919623,
        54.448454974107698,
        54.630992180243837,
        54.255058368851593,
        53.634150634945797,
        53.423307313334462,
        53.50492136312068,
        53.365350924171139,
        53.224195050604258,
        53.081976686180141,
        53.144813006768402,
        52.908435465293294,
        53.042682886350534,
        52.982333460806473,
        52.9495900406922,
        52.912913849102196,
        52.888189906025573,
        52.847937389209264,
        53.008223944115116,
        52.933911128990367,
        52.994610886384052,
        53.168634099268495,
        53.156915754029328,
        53.065317070185372,
        53.062124632554379,
        53.100959209259756,
        53.037004576636711,
        52.839364169982971,
        53.232750057963429,
        53.15155529399194,
        52.971917279263472,
        52.956326869996069,
        53.166590449706504,
        53.193062815227222,
        53.136420112255294,
        53.018134594024097,
        53.006766133563325,
        53.078766198449784,
        53.057227752479356,
        52.950114952195051,
        53.01064615540858,
        53.170401833867317,
        53.188588951337834,
        53.256448978916957,
        53.352032234685964,
        53.445297713734789,
        53.540634253042768,
        53.548741196700163,
        53.589391654879662,
        53.54379971877907,
        53.500105584361947,
        53.731138827363885,
        53.537899281230949,
        53.552711187116728,
        53.412386534311736,
        53.646513732586115,
        53.634717894536593,
        53.29064550744674,
        53.289247070497822,
        52.869050238853937,
        53.37059669195736,
        53.512269626332198,
        54.057326449851416,
        54.36684065673515,
        54.346855883680234,
        54.139569481653808,
        54.00424159590186,
        53.861015658413827,
        53.828975488242406,
        53.726656814249566,
        53.925381916573826,
        53.814479042946132,
        53.846321225145758,
        53.7763158809449,
        53.783035038948171,
        53.884251507036041,
        53.911139647670566,
        54.034715271714582,
        54.252205985137273,
        54.238075284149296,
        54.124941057939154,
        54.164672523413927,
        54.103208622406193,
        54.155452314067929,
        54.059189369829923,
        54.105466852663362,
        54.302341254781098,
        54.102916241116688,
        54.192397105575516,
        53.269364726765318,
        53.156906813122319,
        53.285714644009701,
        53.451957912808112,
        53.305126331931241,
        53.208858589426171,
        53.144421490468538,
        53.257660859357273,
        53.12530774024674,
        53.036775145809059,
        53.251544226536822,
        53.545860904807157,
        54.426531660294557,
        54.560625332384348,
        54.696964038768456,
        55.456167845811613,
        55.783650795582346,
        55.593361597333995,
        55.450753159983428,
        55.062907990484128,
        54.058406695517093,
        54.845335467105222,
        54.705567336841511,
        47.84280090057031,
        50.665229663955401,
        53.747335312019089,
        55.238337523044883,
        57.013516368423822,
        58.112452911411381,
        46.967097496319155,
        46.930603461221068,
        47.654742437671189,
        47.515571299172265,
        47.702072212719486,
        47.55859519108995,
        47.599710354960223,
        47.634859408731536,
        0.0,
        0.0,
        0.0,
        0.0,
        0.0,
        0.0,
        0.0,
        0.0,
        0.0,
        0.0,
        0.0,
        0.0,
        0.0,
        0.0,
        0.0,
        0.0,
        0.0,
        0.0,
        0.0,
        0.0,
        0.0,
        0.0,
        0.0,
        0.0,
        0.0,
        0.0,
        0.0,
        0.0,
        0.0,
        0.0,
        0.0,
        0.0,
        0.0,
        0.0,
        0.0,
        0.0,
        0.0,
        0.0,
        0.0,
        0.0,
        0.0,
        0.0,
        0.0,
        0.0,
        0.0,
        0.0,
        0.0,
        0.0,
        0.0,
        0.0,
        0.0,
        0.0,
        0.0,
        0.0,
        0.0,
        0.0,
        0.0,
        0.0
    ],
    "time": [
        0.02,
        0.040000000000000001,
        0.059999999999999998,
        0.080000000000000002,
        0.10000000000000001,
        0.12,
        0.14000000000000001,
        0.16,
        0.17999999999999999,
        0.20000000000000001,
        0.22,
        0.23999999999999999,
        0.26000000000000001,
        0.28000000000000003,
        0.29999999999999999,
        0.32000000000000001,
        0.34000000000000002,
        0.35999999999999999,
        0.38,
        0.40000000000000002,
        0.41999999999999998,
        0.44,
        0.46000000000000002,
        0.47999999999999998,
        0.5,
        0.52000000000000002,
        0.54000000000000004,
        0.56000000000000005,
        0.57999999999999996,
        0.59999999999999998,
        0.62,
        0.64000000000000001,
        0.66000000000000003,
        0.68000000000000005,
        0.69999999999999996,
        0.71999999999999997,
        0.73999999999999999,
        0.76000000000000001,
        0.78000000000000003,
        0.80000000000000004,
        0.81999999999999995,
        0.83999999999999997,
        0.85999999999999999,
        0.88,
        0.90000000000000002,
        0.92000000000000004,
        0.93999999999999995,
        0.95999999999999996,
        0.97999999999999998,
        1.0,
        1.02,
        1.04,
        1.0600000000000001,
        1.0800000000000001,
        1.1000000000000001,
        1.1200000000000001,
        1.1399999999999999,
        1.1599999999999999,
        1.1799999999999999,
        1.2,
        1.22,
        1.24,
        1.26,
        1.28,
        1.3,
        1.3200000000000001,
        1.3400000000000001,
        1.3600000000000001,
        1.3799999999999999,
        1.3999999999999999,
        1.4199999999999999,
        1.4399999999999999,
        1.46,
        1.48,
        1.5,
        1.52,
        1.54,
        1.5600000000000001,
        1.5800000000000001,
        1.6000000000000001,
        1.6200000000000001,
        1.6399999999999999,
        1.6599999999999999,
        1.6799999999999999,
        1.7,
        1.72,
        1.74,
        1.76,
        1.78,
        1.8,
        1.8200000000000001,
        1.8400000000000001,
        1.8600000000000001,
        1.8799999999999999,
        1.8999999999999999,
        1.9199999999999999,
        1.9399999999999999,
        1.96,
        1.98,
        2.0,
        2.02,
        2.04,
        2.0600000000000001,
        2.0800000000000001,
        2.1000000000000001,
        2.1200000000000001,
        2.1400000000000001,
        2.1600000000000001,
        2.1800000000000002,
        2.2000000000000002,
        2.2200000000000002,
        2.2400000000000002,
        2.2599999999999998,
        2.2799999999999998,
        2.2999999999999998,
        2.3199999999999998,
        2.3399999999999999,
        2.3599999999999999,
        2.3799999999999999,
        2.3999999999999999,
        2.4199999999999999,
        2.4399999999999999,
        2.46,
        2.48,
        2.5,
        2.52,
        2.54,
        2.5600000000000001,
        2.5800000000000001,
        2.6000000000000001,
        2.6200000000000001,
        2.6400000000000001,
        2.6600000000000001,
        2.6800000000000002,
        2.7000000000000002,
        2.7200000000000002,
        2.7400000000000002,
        2.7599999999999998,
        2.7799999999999998,
        2.7999999999999998,
        2.8199999999999998,
        2.8399999999999999,
        2.8599999999999999,
        2.8799999999999999,
        2.8999999999999999,
        2.9199999999999999,
        2.9399999999999999,
        2.96,
        2.98,
        3.0,
        3.02,
        3.04,
        3.0600000000000001,
        3.0800000000000001,
        3.1000000000000001,
        3.1200000000000001,
        3.1400000000000001,
        3.1600000000000001,
        3.1800000000000002,
        3.2000000000000002,
        3.2200000000000002,
        3.2400000000000002,
        3.2599999999999998,
        3.2799999999999998,
        3.2999999999999998,
        3.3199999999999998,
        3.3399999999999999,
        3.3599999999999999,
        3.3799999999999999,
        3.3999999999999999,
        3.4199999999999999,
        3.4399999999999999,
        3.46,
        3.48,
        3.5,
        3.52,
        3.54,
        3.5600000000000001,
        3.5800000000000001,
        3.6000000000000001,
        3.6200000000000001,
        3.6400000000000001,
        3.6600000000000001,
        3.6800000000000002,
        3.7000000000000002,
        3.7200000000000002,
        3.7400000000000002,
        3.7599999999999998,
        3.7799999999999998,
        3.7999999999999998,
        3.8199999999999998,
        3.8399999999999999,
        3.8599999999999999,
        3.8799999999999999,
        3.8999999999999999,
        3.9199999999999999,
        3.9399999999999999,
        3.96,
        3.98,
        4.0,
        4.0199999999999996,
        4.04,
        4.0599999999999996,
        4.0800000000000001,
        4.0999999999999996,
        4.1200000000000001,
        4.1399999999999997,
        4.1600000000000001,
        4.1799999999999997,
        4.2000000000000002,
        4.2199999999999998,
        4.2400000000000002,
        4.2599999999999998,
        4.2800000000000002,
        4.2999999999999998,
        4.3200000000000003,
        4.3399999999999999,
        4.3600000000000003,
        4.3799999999999999,
        4.4000000000000004,
        4.4199999999999999,
        4.4400000000000004,
        4.46,
        4.4800000000000004,
        4.5,
        4.5199999999999996,
        4.54,
        4.5599999999999996,
        4.5800000000000001,
        4.5999999999999996,
        4.6200000000000001,
        4.6399999999999997,
        4.6600000000000001,
        4.6799999999999997,
        4.7000000000000002,
        4.7199999999999998,
        4.7400000000000002,
        4.7599999999999998,
        4.7800000000000002,
        4.7999999999999998,
        4.8200000000000003,
        4.8399999999999999,
        4.8600000000000003,
        4.8799999999999999,
        4.9000000000000004,
        4.9199999999999999,
        4.9400000000000004,
        4.96,
        4.9800000000000004,
        5.0,
        5.0199999999999996,
        5.04,
        5.0599999999999996,
        5.0800000000000001,
        5.0999999999999996,
        5.1200000000000001,
        5.1399999999999997,
        5.1600000000000001,
        5.1799999999999997,
        5.2000000000000002,
        5.2199999999999998,
        5.2400000000000002,
        5.2599999999999998,
        5.2800000000000002,
        5.2999999999999998,
        5.3200000000000003,
        5.3399999999999999,
        5.3600000000000003,
        5.3799999999999999,
        5.4000000000000004,
        5.4199999999999999,
        5.4400000000000004,
        5.46,
        5.4800000000000004,
        5.5,
        5.5199999999999996,
        5.54,
        5.5599999999999996,
        5.5800000000000001,
        5.5999999999999996,
        5.6200000000000001,
        5.6399999999999997,
        5.6600000000000001,
        5.6799999999999997,
        5.7000000000000002,
        5.7199999999999998,
        5.7400000000000002,
        5.7599999999999998,
        5.7800000000000002,
        5.7999999999999998,
        5.8200000000000003,
        5.8399999999999999,
        5.8600000000000003,
        5.8799999999999999,
        5.9000000000000004,
        5.9199999999999999,
        5.9400000000000004,
        5.96,
        5.9800000000000004,
        6.0,
        6.0199999999999996,
        6.04,
        6.0599999999999996,
        6.0800000000000001,
        6.0999999999999996,
        6.1200000000000001,
        6.1399999999999997,
        6.1600000000000001,
        6.1799999999999997,
        6.2000000000000002,
        6.2199999999999998,
        6.2400000000000002,
        6.2599999999999998,
        6.2800000000000002,
        6.2999999999999998,
        6.3200000000000003,
        6.3399999999999999,
        6.3600000000000003,
        6.3799999999999999,
        6.4000000000000004,
        6.4199999999999999,
        6.4400000000000004,
        6.46,
        6.4800000000000004,
        6.5,
        6.5199999999999996,
        6.54,
        6.5599999999999996,
        6.5800000000000001,
        6.5999999999999996,
        6.6200000000000001,
        6.6399999999999997,
        6.6600000000000001,
        6.6799999999999997,
        6.7000000000000002,
        6.7199999999999998,
        6.7400000000000002,
        6.7599999999999998,
        6.7800000000000002,
        6.7999999999999998,
        6.8200000000000003,
        6.8399999999999999,
        6.8600000000000003,
        6.8799999999999999,
        6.9000000000000004,
        6.9199999999999999,
        6.9400000000000004,
        6.96,
        6.9800000000000004,
        7.0,
        7.0199999999999996,
        7.04,
        7.0599999999999996,
        7.0800000000000001,
        7.0999999999999996,
        7.1200000000000001,
        7.1399999999999997,
        7.1600000000000001,
        7.1799999999999997,
        7.2000000000000002,
        7.2199999999999998,
        7.2400000000000002,
        7.2599999999999998,
        7.2800000000000002,
        7.2999999999999998,
        7.3200000000000003,
        7.3399999999999999,
        7.3600000000000003,
        7.3799999999999999,
        7.4000000000000004,
        7.4199999999999999,
        7.4400000000000004,
        7.46,
        7.4800000000000004,
        7.5,
        7.5199999999999996,
        7.54,
        7.5599999999999996,
        7.5800000000000001,
        7.5999999999999996,
        7.6200000000000001,
        7.6399999999999997,
        7.6600000000000001,
        7.6799999999999997,
        7.7000000000000002,
        7.7199999999999998,
        7.7400000000000002,
        7.7599999999999998,
        7.7800000000000002,
        7.7999999999999998,
        7.8200000000000003,
        7.8399999999999999,
        7.8600000000000003,
        7.8799999999999999,
        7.9000000000000004,
        7.9199999999999999,
        7.9400000000000004,
        7.96,
        7.9800000000000004,
        8.0,
        8.0199999999999996,
        8.0399999999999991,
        8.0600000000000005,
        8.0800000000000001
    ]
}