{
    "f0": [
        0.0,
        0.0,
        0.0,
        0.0,
        0.0,
        46.146271346560233,
        46.146271346560233,
        45.972276156099468,
        46.416144602371162,
        46.848916820460822,
        46.438494655185202,
        46.221877594717853,
        46.002519046540584,
        45.967550844515586,
        45.932510676198753,
        46.24023612550873,
        46.066702998366601,
        47.430514051001694,
        46.675771614272449,
        46.727579909246906,
        47.268970674416188,
        47.384120612769365,
        49.739686336011317,
        0.0,
        53.688383674884008,
        0.0,
        0.0,
        0.0,
        53.417838155131818,
        42.773651483913824,
        41.742493800776863,
        45.050920899227712,
        45.895593431725146,
        46.700964325482722,
        48.149527222443744,
        50.183990693251964,
        53.337684047035708,
        52.976171773788963,
        54.678268715958978,
        54.12497506248755,
        42.434594955133555,
        42.254643313067547,
        42.355313189100592,
        42.17318953498016,
        42.252425579125791,
        42.259665916976765,
        42.539019496749773,
        42.376988668676539,
        42.46799205476492,
        43.715105559707695,
        44.519536859867564,
        44.754081611828511,
        44.901322578029337,
        43.896646050820465,
        43.998791001495192,
        44.244429860568204,
        43.898213695982186,
        43.858865773199696,
        43.835083457387555,
        43.975699697183572,
        44.070845660274756,
        45.0322041900409,
        45.061961909567245,
        45.091668410547328,
        45.121322931006901,
        45.037298418936423,
        45.0788536569532,
        45.261350624140547,
        45.37229450520401,
        45.722742417441808,
        45.421584053069566,
        45.148032819888172,
        45.365092568894795,
        45.829023052147136,
        45.809972031242005,
        45.333708356788222,
        45.403961933680741,
        47.750096570297856,
        47.529871807451862,
        47.330625831328142,
        47.282471355039306,
        47.500261183231849,
        47.727134971111447,
        47.945252950413931,
        47.989539296001695,
        47.945271139015745,
        48.637555951109611,
        48.15379509868044,
        47.656128802203391,
        48.152498002292973,
        48.684476466833608,
        48.28861196174023,
        48.193889823378697,
        47.943281697220797,
        48.255552709982453,
        48.316148195999602,
        49.178622867211452,
        49.448343643311645,
        49.281109189162322,
        48.854310757620908,
        48.549471727125365,
        47.99772701418329,
        48.232001039840213,
        48.258292436457339,
        48.122701008233825,
        48.196275951364029,
        48.192889289606427,
        48.189500001661187,
        48.186113977933928,
        48.182723363176422,
        48.179334048946913,
        48.175944071046281,
        48.172547401747281,
        49.013822175333623,
        48.797476695601766,
        48.656194312462326,
        48.124816312935124,
        47.950687305871767,
        48.191982542737421,
        48.272006716897238,
        48.179028206627919,
        48.085547775513142,
        48.334388827193159,
        48.306314200700719,
        48.295778061220183,
        48.448698059322908,
        48.360258425206823,
        48.367549117630901,
        48.395911594495409,
        48.430516342344461,
        48.461912411473719,
        48.320821070704135,
        48.424535034037149,
        48.576991002091461,
        49.10375160893652,
        48.90630268885657,
        48.64988003808233,
        48.774025627222002,
        48.54350778459586,
        48.811181031312699,
        50.555113853866189,
        50.591547497444012,
        50.28837057858172,
        50.228948655576673,
        50.161272779544632,
        50.09737483203731,
        50.033240287946263,
        50.274092956204086,
        50.283015631583822,
        50.232571966183414,
        50.260175687554757,
        50.084761449925566,
        49.293905703488512,
        49.855991227556466,
        50.270618199097825,
        50.032333545198185,
        49.524349963242379,
        49.983459991560245,
        50.430706925241175,
        50.339371887347141,
        50.603816370324317,
        49.94559792859171,
        49.783339439716087,
        49.923941790971014,
        50.231228161617253,
        50.10114393859056,
        49.97007663482961,
        50.060125361333682,
        50.045496601659494,
        50.871973566245146,
        50.896877461019848,
        50.780041981139235,
        50.842748603705815,
        50.905228805647269,
        50.965524430871568,
        50.852595596604452,
        50.728337167169919,
        49.901791701339057,
        50.593569443613347,
        50.255953585384781,
        48.849618163411321,
        48.751677827871447,
        44.728131140209527,
        40.21128028321295,
        52.233520217280407,
        52.309592259772685,
        52.385328311825525,
        52.353418508483649,
        52.000110980911209,
        52.147069761962236,
        52.370110337026048,
        52.378192983581499,
        51.965287190410322,
        52.211764767754104,
        52.188499605516718,
        51.954851191709764,
        52.336691718438871,
        52.690133336939908,
        52.872391240453048,
        52.6068285004608,
        52.537849314448529,
        52.368127133443245,
        52.759264445711473,
        52.748536696342171,
        52.638531584991732,
        52.577850227768444,
        52.834703258902032,
        53.042000744834112,
        52.742169955068718,
        52.860331850609725,
        52.879782764162229,
        52.899210352698439,
        52.744618909151093,
        52.831692566123706,
        0.0,
        0.0,
        45.479369457377551,
        75.35718932069561,
        45.299896343020336,
        41.659437512176808,
        53.423744334054803,
        45.541169005630053,
        52.885247885721867,
        51.514553927969828,
        76.768786674115177,
        41.405790895525854,
        35.114646461565059,
        46.641918888672976,
        45.856505033958236,
        42.814150810996352,
        36.805289148956746,
        43.483328341299753,
        43.253436516554729,
        43.287806997372243,
        43.168622114303759,
        43.239354463688393,
        43.30980299128413,
        43.039884693346934,
        43.363446043572068,
        43.429012064666416,
        41.406016940497118,
        45.271772266738822,
        45.418271996434491,
        45.213787914638601,
        45.118744804228719,
        45.139284917763874,
        45.07989704566085,
        45.281647857585895,
        45.178637989292667,
        44.725253613487439,
        45.119207473008956,
        45.192197378490704,
        45.264876040644907,
        45.163254079997316,
        45.417394143742555,
        45.596332398656749,
        44.928154272379714,
        45.103845888430818,
        45.027004278456971,
        45.699532525695645,
        45.833621486675199,
        45.966679867843936,
        45.036719694009165,
        45.424826369892834,
        45.3007520230355,
        48.910370715559296,
        48.226578527378393,
        48.29665740192825,
        48.288306091497148,
        48.098327195279339,
        48.170567920397794,
        48.242504537395092,
        48.486404380545395,
        48.292432541584503,
        48.161943410468638,
        48.169670094783399,
        48.762782895659264,
        48.705800171598824,
        48.405175907064077,
        48.735300244339982,
        48.43392576393029,
        48.563620063519082,
        48.57661209933508,
        48.589596439206218,
        48.428574015581972,
        48.171701701078163,
        48.470638415571784,
        49.377590418588255,
        49.42310985329658,
        48.823909804576999,
        48.644760019286032,
        48.463736972992891,
        48.453065974064714,
        48.15457359843748,
        48.340722268629492,
        48.318975537244619,
        48.297203275835507,
        48.275401775238571,
        48.425831536173604,
        48.342250835408457,
        48.374716167031281,
        48.407122799589331,
        48.089712825739724,
        48.259309014917314,
        46.249898472087764,
        46.014941199701084,
        44.945551672954252,
        44.542050112995383,
        44.267515289061841,
        44.261100473995,
        44.461726755649309,
        44.68638103245992,
        44.721173539431568,
        44.753780694431541,
        44.53674886344691,
        44.511152220724966,
        44.731381592878549,
        44.598885157845771,
        44.784791246949794,
        44.666001347404929,
        44.507663899222663,
        44.340523073312852,
        44.687188092958529,
        44.529930931568757,
        44.520803331208057,
        44.609275982041019,
        44.731244924058373,
        44.128792914825155,
        45.464534657508629,
        45.195639488226107,
        45.434757801108034,
        45.544611215310653,
        45.542494538723467,
        45.510878023680434,
        45.506014670946087,
        45.99947510294227,
        45.532539577362286,
        45.666058495561742,
        46.571713874463953,
        46.719054758716084,
        46.695152503741625,
        46.491411311099881,
        46.888193389310217,
        48.667718344509403,
        48.574940091888749,
        48.679985993286202,
        48.576268391519847,
        48.420788707833928,
        48.115723716560488,
        48.22360449478451,
        48.411682531915702,
        48.557784144840639,
        48.913045166524626,
        49.261160495282397,
        48.9336780683672,
        49.026423834518596,
        48.840388641106742,
        48.750364946883892,
        48.782921991555369,
        48.748521929939308,
        48.714047663551078,
        49.02233920067853,
        48.848299079326054,
        48.672493595269714,
        48.320884598765048,
        48.223291464009868,
        48.491569510284805,
        48.703085758310877,
        48.698974572472267,
        48.69486037590913,
        48.863004557089504,
        48.589547704239919,
        48.529554658189909,
        48.360388950913034,
        48.416931109180325,
        48.471282894113131,
        48.633061072367397,
        48.740122578437486,
        49.045254944329024,
        48.630886251254395,
        48.614851850027286,
        48.738400470456028,
        48.84144081842328,
        48.779634641012528,
        48.304262700276396,
        48.873965484922714,
        48.502497326451582,
        48.38193371630112,
        48.642300632774791,
        48.522594485251354,
        48.342607135568549,
        48.190792234501259,
        48.867152002895942,
        48.990370822227135,
        48.670001222825718,
        48.605301265705322,
        48.409517203017067,
        48.277788677638647,
        47.937686959267779,
        49.35717020145664,
        49.130591767664193,
        48.90659971704229,
        48.679671435820083,
        0.0,
        0.0,
        0.0,
        0.0,
        0.0,
        0.0,
        0.0,
        0.0,
        0.0,
        0.0,
        0.0,
        0.0,
        0.0,
        0.0,
        0.0,
        0.0,
        0.0,
        0.0,
        0.0,
        0.0,
        0.0,
        0.0,
        0.0,
        0.0,
        0.0,
        0.0,
        0.0,
        0.0,
        0.0,
        0.0,
        0.0,
        0.0,
        0.0,
        0.0,
        0.0,
        0.0,
        0.0,
        0.0,
        0.0,
        0.0,
        0.0,
        0.0,
        0.0,
        0.0,
        0.0,
        0.0,
        0.0,
        0.0,
        0.0,
        0.0,
        0.0,
        0.0,
        0.0,
        0.0,
        0.0,
        0.0
    ],
    "time": [
        0.02,
        0.040000000000000001,
        0.059999999999999998,
        0.080000000000000002,
        0.10000000000000001,
        0.12,
        0.14000000000000001,
        0.16,
        0.17999999999999999,
        0.20000000000000001,
        0.22,
        0.23999999999999999,
        0.26000000000000001,
        0.28000000000000003,
        0.29999999999999999,
        0.32000000000000001,
        0.34000000000000002,
        0.35999999999999999,
        0.38,
        0.40000000000000002,
        0.41999999999999998,
        0.44,
        0.46000000000000002,
        0.47999999999999998,
        0.5,
        0.52000000000000002,
        0.54000000000000004,
        0.56000000000000005,
        0.57999999999999996,
        0.59999999999999998,
        0.62,
        0.64000000000000001,
        0.66000000000000003,
        0.68000000000000005,
        0.69999999999999996,
        0.71999999999999997,
        0.73999999999999999,
        0.76000000000000001,
        0.78000000000000003,
        0.80000000000000004,
        0.81999999999999995,
        0.83999999999999997,
        0.85999999999999999,
        0.88,
        0.90000000000000002,
        0.92000000000000004,
        0.93999999999999995,
        0.95999999999999996,
        0.97999999999999998,
        1.0,
        1.02,
        1.04,
        1.0600000000000001,
        1.0800000000000001,
        1.1000000000000001,
        1.1200000000000001,
        1.1399999999999999,
        1.1599999999999999,
        1.1799999999999999,
        1.2,
        1.22,
        1.24,
        1.26,
        1.28,
        1.3,
        1.3200000000000001,
        1.3400000000000001,
        1.3600000000000001,
        1.3799999999999999,
        1.3999999999999999,
        1.4199999999999999,
        1.4399999999999999,
        1.46,
        1.48,
        1.5,
        1.52,
        1.54,
        1.5600000000000001,
        1.5800000000000001,
        1.6000000000000001,
        1.6200000000000001,
        1.6399999999999999,
        1.6599999999999999,
        1.6799999999999999,
        1.7,
        1.72,
        1.74,
        1.76,
        1.78,
        1.8,
        1.8200000000000001,
        1.8400000000000001,
        1.8600000000000001,
        1.8799999999999999,
        1.8999999999999999,
        1.9199999999999999,
        1.9399999999999999,
        1.96,
        1.98,
        2.0,
        2.02,
        2.04,
        2.0600000000000001,
        2.0800000000000001,
        2.1000000000000001,
        2.1200000000000001,
        2.1400000000000001,
        2.1600000000000001,
        2.1800000000000002,
        2.2000000000000002,
        2.2200000000000002,
        2.2400000000000002,
        2.2599999999999998,
        2.2799999999999998,
        2.2999999999999998,
        2.3199999999999998,
        2.3399999999999999,
        2.3599999999999999,
        2.3799999999999999,
        2.3999999999999999,
        2.4199999999999999,
        2.4399999999999999,
        2.46,
        2.48,
        2.5,
        2.52,
        2.54,
        2.5600000000000001,
        2.5800000000000001,
        2.6000000000000001,
        2.6200000000000001,
        2.6400000000000001,
        2.6600000000000001,
        2.6800000000000002,
        2.7000000000000002,
        2.7200000000000002,
        2.7400000000000002,
        2.7599999999999998,
        2.7799999999999998,
        2.7999999999999998,
        2.8199999999999998,
        2.8399999999999999,
        2.8599999999999999,
        2.8799999999999999,
        2.8999999999999999,
        2.9199999999999999,
        2.9399999999999999,
        2.96,
        2.98,
        3.0,
        3.02,
        3.04,
        3.0600000000000001,
        3.0800000000000001,
        3.1000000000000001,
        3.1200000000000001,
        3.1400000000000001,
        3.1600000000000001,
        3.1800000000000002,
        3.2000000000000002,
        3.2200000000000002,
        3.2400000000000002,
        3.2599999999999998,
        3.2799999999999998,
        3.2999999999999998,
        3.3199999999999998,
        3.3399999999999999,
        3.3599999999999999,
        3.3799999999999999,
        3.3999999999999999,
        3.4199999999999999,
        3.4399999999999999,
        3.46,
        3.48,
        3.5,
        3.52,
        3.54,
        3.5600000000000001,
        3.5800000000000001,
        3.6000000000000001,
        3.6200000000000001,
        3.6400000000000001,
        3.6600000000000001,
        3.6800000000000002,
        3.7000000000000002,
        3.7200000000000002,
        3.7400000000000002,
        3.7599999999999998,
        3.7799999999999998,
        3.7999999999999998,
        3.8199999999999998,
        3.8399999999999999,
        3.8599999999999999,
        3.8799999999999999,
        3.8999999999999999,
        3.9199999999999999,
        3.9399999999999999,
        3.96,
        3.98,
        4.0,
        4.0199999999999996,
        4.04,
        4.0599999999999996,
        4.0800000000000001,
        4.0999999999999996,
        4.1200000000000001,
        4.1399999999999997,
        4.1600000000000001,
        4.1799999999999997,
        4.2000000000000002,
        4.2199999999999998,
        4.2400000000000002,
        4.2599999999999998,
        4.2800000000000002,
        4.2999999999999998,
        4.3200000000000003,
        4.3399999999999999,
        4.3600000000000003,
        4.3799999999999999,
        4.4000000000000004,
        4.4199999999999999,
        4.4400000000000004,
        4.46,
        4.4800000000000004,
        4.5,
        4.5199999999999996,
        4.54,
        4.5599999999999996,
        4.5800000000000001,
        4.5999999999999996,
        4.6200000000000001,
        4.6399999999999997,
        4.6600000000000001,
        4.6799999999999997,
        4.7000000000000002,
        4.7199999999999998,
        4.7400000000000002,
        4.7599999999999998,
        4.7800000000000002,
        4.7999999999999998,
        4.8200000000000003,
        4.8399999999999999,
        4.8600000000000003,
        4.8799999999999999,
        4.9000000000000004,
        4.9199999999999999,
        4.9400000000000004,
        4.96,
        4.9800000000000004,
        5.0,
        5.0199999999999996,
        5.04,
        5.0599999999999996,
        5.0800000000000001,
        5.0999999999999996,
        5.1200000000000001,
        5.1399999999999997,
        5.1600000000000001,
        5.1799999999999997,
        5.2000000000000002,
        5.2199999999999998,
        5.2400000000000002,
        5.2599999999999998,
        5.2800000000000002,
        5.2999999999999998,
        5.3200000000000003,
        5.3399999999999999,
        5.3600000000000003,
        5.3799999999999999,
        5.4000000000000004,
        5.4199999999999999,
        5.4400000000000004,
        5.46,
        5.4800000000000004,
        5.5,
        5.5199999999999996,
        5.54,
        5.5599999999999996,
        5.5800000000000001,
        5.5999999999999996,
        5.6200000000000001,
        5.6399999999999997,
        5.6600000000000001,
        5.6799999999999997,
        5.7000000000000002,
        5.7199999999999998,
        5.7400000000000002,
        5.7599999999999998,
        5.7800000000000002,
        5.7999999999999998,
        5.8200000000000003,
        5.8399999999999999,
        5.8600000000000003,
        5.8799999999999999,
        5.9000000000000004,
        5.9199999999999999,
        5.9400000000000004,
        5.96,
        5.9800000000000004,
        6.0,
        6.0199999999999996,
        6.04,
        6.0599999999999996,
        6.0800000000000001,
        6.0999999999999996,
        6.1200000000000001,
        6.1399999999999997,
        6.1600000000000001,
        6.1799999999999997,
        6.2000000000000002,
        6.2199999999999998,
        6.2400000000000002,
        6.2599999999999998,
        6.2800000000000002,
        6.2999999999999998,
        6.3200000000000003,
        6.3399999999999999,
        6.3600000000000003,
        6.3799999999999999,
        6.4000000000000004,
        6.4199999999999999,
        6.4400000000000004,
        6.46,
        6.4800000000000004,
        6.5,
        6.5199999999999996,
        6.54,
        6.5599999999999996,
        6.5800000000000001,
        6.5999999999999996,
        6.6200000000000001,
        6.6399999999999997,
        6.6600000000000001,
        6.6799999999999997,
        6.7000000000000002,
        6.7199999999999998,
        6.7400000000000002,
        6.7599999999999998,
        6.7800000000000002,
        6.7999999999999998,
        6.8200000000000003,
        6.8399999999999999,
        6.8600000000000003,
        6.8799999999999999,
        6.9000000000000004,
        6.9199999999999999,
        6.9400000000000004,
        6.96,
        6.9800000000000004,
        7.0,
        7.0199999999999996,
        7.04,
        7.0599999999999996,
        7.0800000000000001,
        7.0999999999999996,
        7.1200000000000001,
        7.1399999999999997,
        7.1600000000000001,
        7.1799999999999997,
        7.2000000000000002,
        7.2199999999999998,
        7.2400000000000002,
        7.2599999999999998,
        7.2800000000000002,
        7.2999999999999998,
        7.3200000000000003,
        7.3399999999999999,
        7.3600000000000003,
        7.3799999999999999,
        7.4000000000000004,
        7.4199999999999999,
        7.4400000000000004,
        7.46,
        7.4800000000000004,
        7.5,
        7.5199999999999996,
        7.54,
        7.5599999999999996,
        7.5800000000000001,
        7.5999999999999996,
        7.6200000000000001,
        7.6399999999999997,
        7.6600000000000001,
        7.6799999999999997,
        7.7000000000000002,
        7.7199999999999998,
        7.7400000000000002,
        7.7599999999999998,
        7.7800000000000002,
        7.7999999999999998,
        7.8200000000000003,
        7.8399999999999999,
        7.8600000000000003,
        7.8799999999999999,
        7.9000000000000004,
        7.9199999999999999,
        7.9400000000000004,
        7.96,
        7.9800000000000004,
        8.0,
        8.0199999999999996,
        8.0399999999999991,
        8.0600000000000005,
        8.0800000000000001,
        8.0999999999999996,
        8.1199999999999992,
        8.1400000000000006,
        8.1600000000000001,
        8.1799999999999997,
        8.1999999999999993,
        8.2200000000000006,
        8.2400000000000002,
        8.2599999999999998,
        8.2799999999999994,
        8.3000000000000007,
        8.3200000000000003,
        8.3399999999999999,
        8.3599999999999994,
        8.3800000000000008,
        8.4000000000000004,
        8.4199999999999999,
        8.4399999999999995,
        8.4600000000000009,
        8.4800000000000004,
        8.5,
        8.5199999999999996,
        8.5399999999999991,
        8.5600000000000005,
        8.5800000000000001,
        8.5999999999999996,
        8.6199999999999992,
        8.6400000000000006,
        8.6600000000000001,
        8.6799999999999997,
        8.6999999999999993,
        8.7200000000000006,
        8.7400000000000002,
        8.7599999999999998,
        8.7799999999999994,
        8.8000000000000007,
        8.8200000000000003,
        8.8399999999999999,
        8.8599999999999994,
        8.8800000000000008,
        8.9000000000000004,
        8.9199999999999999,
        8.9399999999999995,
        8.9600000000000009,
        8.9800000000000004,
        9.0,
        9.0199999999999996,
        9.0399999999999991,
        9.0600000000000005,
        9.0800000000000001,
        9.0999999999999996,
        9.1199999999999992,
        9.1400000000000006,
        9.1600000000000001,
        9.1799999999999997
    ]
}