{
    "DU": 192,
    "DV": 378,
    "F-measure": 0.7912297426120115,
    "F-measure Chroma": 0.890371782650143,
    "FN": 55,
    "FNC": 4,
    "FNCch": 22,
    "FNI": 51,
    "FNIch": 33,
    "FP": 36,
    "GU": 173,
    "GV": 397,
    "Overall Accuracy": 0.7280701754385965,
    "Overall Chroma Accuracy": 0.8192982456140351,
    "Precision": 0.8058252427184466,
    "Precision Chroma": 0.9067961165048544,
    "Raw Chroma Accuracy": 0.8866498740554156,
    "Raw Pitch Accuracy": 0.7103274559193955,
    "Recall": 0.7771535580524345,
    "Recall Chroma": 0.8745318352059925,
    "TN": 137,
    "TO": 570,
    "TP": 342,
    "TPC": 278,
    "TPCch": 330,
    "TPI": 64,
    "TPIch": 12,
    "Voiced Chroma Accuracy": 0.8312342569269522,
    "Voiced Pitch Accuracy": 0.7002518891687658,
    "Voicing Accuracy": 0.8403508771929824,
    "Voicing Detection": 0.8614609571788413,
    "Voicing False Alarm": 0.20809248554913296
}