{
    "DU": 150,
    "DV": 172,
    "F-measure": 0.8648648648648649,
    "F-measure Chroma": 0.9054054054054054,
    "FN": 18,
    "FNC": 4,
    "FNCch": 12,
    "FNI": 14,
    "FNIch": 6,
    "FP": 34,
    "GU": 166,
    "GV": 156,
    "Overall Accuracy": 0.7950310559006211,
    "Overall Chroma Accuracy": 0.8322981366459627,
    "Precision": 0.8421052631578947,
    "Precision Chroma": 0.881578947368421,
    "Raw Chroma Accuracy": 0.9487179487179487,
    "Raw Pitch Accuracy": 0.8205128205128205,
    "Recall": 0.8888888888888888,
    "Recall Chroma": 0.9305555555555556,
    "TN": 132,
    "TO": 322,
    "TP": 138,
    "TPC": 124,
    "TPCch": 136,
    "TPI": 14,
    "TPIch": 2,
    "Voiced Chroma Accuracy": 0.8717948717948718,
    "Voiced Pitch Accuracy": 0.7948717948717948,
    "Voicing Accuracy": 0.8385093167701864,
    "Voicing Detection": 0.8846153846153846,
    "Voicing False Alarm": 0.20481927710843373
}