{
    "f0": [
        0.0,
        0.0,
        0.0,
        0.0,
        0.0,
        0.0,
        51.447438283802654,
        52.189306611551388,
        52.755835575234002,
        52.861702802045507,
        52.962550172131273,
        53.003142382626436,
        53.015725515171368,
        53.261973844184169,
        53.636896629386627,
        53.979796729688275,
        54.562497021393789,
        54.814307501294635,
        55.072360823195623,
        55.144620259914177,
        55.114557053902217,
        55.011698354299099,
        54.912348915346023,
        54.724527678618109,
        54.644285950564566,
        54.622495092844488,
        54.603168836325516,
        54.622226427845149,
        54.566082380490819,
        54.347941969623108,
        53.742483637488085,
        52.803293529510569,
        52.526896320362297,
        52.244072482113943,
        51.862586014628775,
        51.551042083945006,
        51.427811205965952,
        51.495629883185323,
        51.422963132510148,
        51.379445212717869,
        51.331954812806416,
        51.347174126255275,
        51.395563990861341,
        51.416444375114139,
        51.503298300222284,
        51.535108593449856,
        51.529042105909376,
        51.423915980008388,
        51.401898155320893,
        51.357051306694295,
        51.401395361092298,
        51.499543716303052,
        51.674290416815047,
        51.611141757485306,
        51.293420347288617,
        53.815936705803907,
        0.0,
        0.0,
        0.0,
        0.0,
        0.0,
        0.0,
        0.0,
        56.813520357331882,
        56.577459535198315,
        56.361916029612338,
        56.128840829221652,
        55.745187719766449,
        55.363711319518117,
        55.740279848318835,
        55.791335462100669,
        55.993742003212532,
        56.663947054882527,
        57.14475252340646,
        57.495305879785114,
        57.694698756329515,
        57.86182962703117,
        58.102360806704993,
        58.365815923929368,
        58.52237378295623,
        58.569537151037679,
        58.511132627011271,
        58.411330970800101,
        58.307361391341047,
        58.134737091779726,
        58.116007393986798,
        57.82683103434961,
        57.564186441345157,
        57.146702876164028,
        56.80806854119524,
        56.504787630375219,
        56.476819611817824,
        56.310022892002515,
        56.104861603309764,
        55.893777929363637,
        55.975837286277937,
        56.089581323849622,
        56.274755231315012,
        56.321854788101341,
        56.386335813077082,
        56.414783192622494,
        56.506984367850492,
        56.639664675400269,
        56.842758071636119,
        56.895433153985593,
        56.913289501034605,
        56.872362609729059,
        56.772844611834373,
        56.633733450911635,
        56.575215108372674,
        56.583921765693802,
        56.575322207496704,
        56.451265487077087,
        56.422762590539712,
        56.356589297949689,
        56.244176509334963,
        56.231815585795971,
        56.24975365343299,
        56.342917876045966,
        56.532909094797567,
        56.765274417280992,
        56.787535018269018,
        56.774168188598196,
        56.551601485260363,
        56.450813048699281,
        56.291948319060324,
        56.244142641205841,
        56.167973690978442,
        56.107751973836507,
        56.05236100445974,
        56.060978234929117,
        56.070013168680937,
        56.096349683187952,
        56.171693748912368,
        56.277006374926366,
        56.312669277070867,
        56.338044381142701,
        56.298052851928276,
        56.184358159455854,
        56.094568290658181,
        55.982261763127639,
        55.675456599847621,
        54.791346497519726,
        53.538450673557996,
        52.329312976900368,
        51.458301961262123,
        50.132825269164726,
        49.681036064606602,
        49.383102341658613,
        49.079516888222827,
        48.91931402406432,
        48.894271087786365,
        48.944615409330083,
        48.967750710512931,
        49.024975455923418,
        49.107362595856578,
        49.203810225321163,
        49.246911662014632,
        0.0,
        0.0,
        0.0,
        0.0,
        0.0,
        0.0,
        0.0,
        0.0,
        0.0,
        0.0,
        0.0,
        0.0,
        0.0,
        0.0,
        0.0,
        0.0,
        0.0,
        0.0,
        0.0,
        52.883924412335219,
        53.362962887159249,
        53.615371739084033,
        53.856529781098274,
        54.172295994136988,
        54.522666134833834,
        54.896926255363937,
        55.383607362021358,
        55.846021226486776,
        56.17685856512027,
        56.413867766467845,
        56.418630530137335,
        56.384258093397804,
        56.320650937167073,
        56.297548860128401,
        56.293649434522152,
        56.309180611756503,
        56.254166851868405,
        55.949332046294657,
        55.131804295829234,
        54.462972591194486,
        55.391227934259724,
        57.558832282099473,
        0.0,
        0.0,
        0.0,
        0.0,
        0.0,
        0.0,
        0.0,
        0.0,
        53.51323744871398,
        53.648294558404793,
        53.919763564921794,
        54.093885991325976,
        54.224103478297152,
        54.287539332510264,
        54.249496753787511,
        54.194149494203195,
        54.176368717319562,
        54.2322095091736,
        54.280961168076203,
        54.279890577148294,
        54.23850762846142,
        54.18995951344391,
        54.138158683296666,
        54.031082324528413,
        53.724982724751662,
        53.188692220963077,
        53.039767005641828,
        53.221830824478069,
        53.274723091121722,
        0.0,
        0.0,
        0.0,
        0.0,
        0.0,
        0.0,
        0.0,
        0.0,
        0.0,
        0.0,
        0.0,
        0.0,
        0.0,
        0.0,
        0.0,
        0.0,
        0.0,
        0.0,
        0.0,
        0.0,
        0.0,
        0.0,
        0.0,
        0.0,
        0.0,
        0.0,
        0.0,
        0.0,
        0.0,
        0.0,
        0.0,
        47.638169292366939,
        48.750668464415739,
        49.304670294986195,
        49.416784496786562,
        49.390802286438401,
        49.261934069696075,
        49.211742830091829,
        49.16181726671222,
        49.229954069491065,
        49.276026094656977,
        49.311521612690967,
        49.356176807844705,
        49.350809440630684,
        49.38860689178356,
        49.440918164530544,
        49.499984343097523,
        49.609588032456358,
        49.556575703405365,
        49.509531444084701,
        49.460928149210417,
        49.462277388846708,
        49.455767641969331,
        49.947485637721492,
        50.380412563430212,
        51.479073843275174,
        51.849814957125105,
        52.418495264678008,
        52.791296178317197,
        53.686668049739737,
        54.119796961411424,
        54.537960573174061,
        54.735797008200876,
        54.879664513701712,
        54.959253392607721,
        55.134332207516948,
        55.490054777357358,
        56.032183096756597,
        56.434233629602751,
        56.71572423827503,
        56.942824385201718,
        57.110832895978831,
        57.236974413320183,
        57.2958350758866,
        57.206424778500299,
        56.940061686113921,
        56.940948523535042,
        56.527250914832798,
        56.270654090853469,
        55.738961317306753,
        55.204174907501361,
        54.692541473131882,
        54.326196366130205,
        53.9046307559789,
        53.865488867668461,
        53.898524564084113,
        53.942986662118543,
        54.142582117180993,
        54.276759913557754,
        54.331897271839694,
        54.154835269952017,
        54.31794928229246,
        54.353894557613451,
        54.336037625484323,
        54.255194843585144,
        54.142490045379887,
        54.032707180719768,
        54.059772808499808,
        54.151945081286797,
        54.409555643413341,
        54.712980964334179,
        54.926592486188504,
        55.074686704315887,
        55.117704594459525,
        55.07470279898601,
        54.935206932356458,
        54.694268596359386,
        54.373464581439109,
        53.856358421803343,
        53.400282291982514,
        52.97042621614451,
        53.258957534138311,
        52.987587620542016,
        0.0,
        0.0,
        0.0,
        0.0,
        0.0,
        0.0,
        0.0,
        0.0,
        0.0,
        0.0,
        0.0,
        0.0,
        0.0,
        0.0,
        0.0,
        0.0,
        0.0,
        0.0,
        0.0,
        0.0,
        0.0,
        0.0,
        0.0,
        0.0,
        0.0,
        0.0,
        0.0,
        0.0,
        0.0,
        51.67835187847524,
        51.913630926302332,
        51.795089584242696,
        51.795125298485502,
        51.683654670891798,
        51.584610272318073,
        51.61762199224129,
        51.718879585440092,
        51.649383464469679,
        51.606989063560512,
        51.554264186139768,
        51.492211989819808,
        51.467910911825513,
        51.491340562959984,
        51.449235291417168,
        51.416550518877187,
        51.35690315299923,
        51.374247814106482,
        51.329993929874504,
        51.470885675418252,
        51.55868600106465,
        51.76765299994635,
        52.200186765904988,
        52.795569202942829,
        53.351445143754205,
        53.674735154829015,
        53.937137621550733,
        54.211298379601402,
        54.552995336140924,
        54.394797761943941,
        54.592993966367438,
        54.897787167080509,
        55.098757450795716,
        55.497432103611146,
        0.0,
        55.61105199260799,
        55.789007355408984,
        57.422155968082933,
        57.658456340451266,
        57.979339991661604,
        58.193191444194412,
        58.333885995052654,
        58.373770404729065,
        58.394821455094892,
        58.4044400902877,
        58.387267919843246,
        58.3885767846863,
        58.386212824742124,
        58.403481246444919,
        58.431266397035841,
        58.342339571964402,
        58.217009562745915,
        58.074012940594649,
        58.009327138165602,
        57.794328492221254,
        0.0,
        0.0,
        58.09305421066027,
        58.356534445959646,
        58.444679434003547,
        58.293604091731297,
        58.145577983303603,
        58.052423224924539,
        58.068914644967613,
        58.135947129209391,
        58.176718198008899,
        58.296494395233502,
        59.754212019568413,
        60.288492738066878,
        60.072672395478484,
        60.186951054042844,
        60.451228425079563,
        60.694621736747052,
        60.840352079758006,
        61.057413933938307,
        61.189621524467775,
        61.257048232316009,
        61.331324404328512,
        61.775217979811593,
        61.481031727411491,
        61.406966412574178,
        61.256436044110075,
        61.145722961068131,
        61.081156038278415,
        61.085300842491449,
        61.127042540662018,
        61.139238729911639,
        61.098529095578243,
        61.100509534188618,
        0.0,
        49.290886433272931,
        49.18486984503798,
        49.170486315131839,
        48.836355963250739,
        50.052674467921861,
        0.0,
        0.0,
        0.0,
        0.0,
        0.0,
        0.0,
        0.0,
        0.0,
        0.0,
        0.0,
        0.0,
        0.0,
        0.0,
        0.0,
        0.0,
        0.0,
        0.0,
        0.0,
        0.0,
        0.0,
        0.0,
        50.249052918477524,
        49.299551143855169,
        50.104541890515293,
        51.15224592609033,
        51.525444679491201,
        51.854095621752009,
        51.74192343136086,
        51.369386349729226,
        51.090356754893307,
        50.762063826461166,
        50.518062131361077,
        51.161531616221012,
        52.213786610208714,
        52.89816500180352,
        0.0,
        0.0,
        56.460702345373363,
        57.278467277435681,
        57.96519231934753,
        59.727643777757095,
        60.740314180893037,
        61.116662906161082,
        61.313412328189173,
        61.569880484850337,
        61.668165013129922,
        61.723414980556036,
        61.634468943315134,
        61.573791867123475,
        61.424400732111422,
        61.288933305731156,
        61.125831483311259,
        61.025588337421496,
        60.923876854952873,
        60.90365589874402,
        60.632636694911994,
        59.850573460829516,
        59.877448087249384,
        59.869127997403623,
        58.38724910795748,
        0.0,
        0.0,
        0.0,
        0.0,
        0.0,
        0.0,
        0.0,
        55.162287549912662,
        55.552889516037737,
        55.950154976538762,
        56.47632079752124,
        56.681182555516898,
        56.651850549017453,
        56.435723590320286,
        56.310728868989997,
        56.461755248958838,
        56.93387814577153,
        57.29332064272058,
        57.695897233673605,
        58.234943943125955,
        58.583379344980486,
        58.866932092019077,
        58.857915490025967,
        0.0,
        0.0,
        0.0,
        0.0,
        0.0,
        0.0,
        0.0,
        0.0,
        0.0,
        0.0,
        0.0,
        0.0,
        0.0,
        0.0,
        0.0,
        0.0,
        0.0,
        45.016065792259923,
        44.673649307515092,
        44.883141969685035,
        44.710635870343076,
        0.0,
        0.0,
        0.0,
        44.706783336598164,
        44.705552169678803,
        44.703266971211562,
        44.701812029240749,
        44.702461940847328,
        44.705057501182075,
        0.0,
        0.0,
        0.0,
        0.0,
        0.0,
        0.0,
        0.0,
        0.0,
        0.0,
        0.0,
        0.0,
        0.0,
        0.0,
        0.0,
        0.0,
        0.0,
        0.0,
        0.0,
        0.0,
        0.0,
        0.0,
        0.0,
        0.0,
        0.0,
        0.0,
        0.0,
        0.0,
        0.0,
        0.0,
        0.0,
        0.0,
        0.0,
        0.0,
        0.0,
        0.0,
        0.0,
        0.0,
        0.0,
        0.0,
        0.0,
        0.0,
        0.0,
        0.0,
        0.0,
        0.0,
        0.0,
        0.0,
        0.0
    ],
    "time": [
        0.02,
        0.040000000000000001,
        0.059999999999999998,
        0.080000000000000002,
        0.10000000000000001,
        0.12,
        0.14000000000000001,
        0.16,
        0.17999999999999999,
        0.20000000000000001,
        0.22,
        0.23999999999999999,
        0.26000000000000001,
        0.28000000000000003,
        0.29999999999999999,
        0.32000000000000001,
        0.34000000000000002,
        0.35999999999999999,
        0.38,
        0.40000000000000002,
        0.41999999999999998,
        0.44,
        0.46000000000000002,
        0.47999999999999998,
        0.5,
        0.52000000000000002,
        0.54000000000000004,
        0.56000000000000005,
        0.57999999999999996,
        0.59999999999999998,
        0.62,
        0.64000000000000001,
        0.66000000000000003,
        0.68000000000000005,
        0.69999999999999996,
        0.71999999999999997,
        0.73999999999999999,
        0.76000000000000001,
        0.78000000000000003,
        0.80000000000000004,
        0.81999999999999995,
        0.83999999999999997,
        0.85999999999999999,
        0.88,
        0.90000000000000002,
        0.92000000000000004,
        0.93999999999999995,
        0.95999999999999996,
        0.97999999999999998,
        1.0,
        1.02,
        1.04,
        1.0600000000000001,
        1.0800000000000001,
        1.1000000000000001,
        1.1200000000000001,
        1.1399999999999999,
        1.1599999999999999,
        1.1799999999999999,
        1.2,
        1.22,
        1.24,
        1.26,
        1.28,
        1.3,
        1.3200000000000001,
        1.3400000000000001,
        1.3600000000000001,
        1.3799999999999999,
        1.3999999999999999,
        1.4199999999999999,
        1.4399999999999999,
        1.46,
        1.48,
        1.5,
        1.52,
        1.54,
        1.5600000000000001,
        1.5800000000000001,
        1.6000000000000001,
        1.6200000000000001,
        1.6399999999999999,
        1.6599999999999999,
        1.6799999999999999,
        1.7,
        1.72,
        1.74,
        1.76,
        1.78,
        1.8,
        1.8200000000000001,
        1.8400000000000001,
        1.8600000000000001,
        1.8799999999999999,
        1.8999999999999999,
        1.9199999999999999,
        1.9399999999999999,
        1.96,
        1.98,
        2.0,
        2.02,
        2.04,
        2.0600000000000001,
        2.0800000000000001,
        2.1000000000000001,
        2.1200000000000001,
        2.1400000000000001,
        2.1600000000000001,
        2.1800000000000002,
        2.2000000000000002,
        2.2200000000000002,
        2.2400000000000002,
        2.2599999999999998,
        2.2799999999999998,
        2.2999999999999998,
        2.3199999999999998,
        2.3399999999999999,
        2.3599999999999999,
        2.3799999999999999,
        2.3999999999999999,
        2.4199999999999999,
        2.4399999999999999,
        2.46,
        2.48,
        2.5,
        2.52,
        2.54,
        2.5600000000000001,
        2.5800000000000001,
        2.6000000000000001,
        2.6200000000000001,
        2.6400000000000001,
        2.6600000000000001,
        2.6800000000000002,
        2.7000000000000002,
        2.7200000000000002,
        2.7400000000000002,
        2.7599999999999998,
        2.7799999999999998,
        2.7999999999999998,
        2.8199999999999998,
        2.8399999999999999,
        2.8599999999999999,
        2.8799999999999999,
        2.8999999999999999,
        2.9199999999999999,
        2.9399999999999999,
        2.96,
        2.98,
        3.0,
        3.02,
        3.04,
        3.0600000000000001,
        3.0800000000000001,
        3.1000000000000001,
        3.1200000000000001,
        3.1400000000000001,
        3.1600000000000001,
        3.1800000000000002,
        3.2000000000000002,
        3.2200000000000002,
        3.2400000000000002,
        3.2599999999999998,
        3.2799999999999998,
        3.2999999999999998,
        3.3199999999999998,
        3.3399999999999999,
        3.3599999999999999,
        3.3799999999999999,
        3.3999999999999999,
        3.4199999999999999,
        3.4399999999999999,
        3.46,
        3.48,
        3.5,
        3.52,
        3.54,
        3.5600000000000001,
        3.5800000000000001,
        3.6000000000000001,
        3.6200000000000001,
        3.6400000000000001,
        3.6600000000000001,
        3.6800000000000002,
        3.7000000000000002,
        3.7200000000000002,
        3.7400000000000002,
        3.7599999999999998,
        3.7799999999999998,
        3.7999999999999998,
        3.8199999999999998,
        3.8399999999999999,
        3.8599999999999999,
        3.8799999999999999,
        3.8999999999999999,
        3.9199999999999999,
        3.9399999999999999,
        3.96,
        3.98,
        4.0,
        4.0199999999999996,
        4.04,
        4.0599999999999996,
        4.0800000000000001,
        4.0999999999999996,
        4.1200000000000001,
        4.1399999999999997,
        4.1600000000000001,
        4.1799999999999997,
        4.2000000000000002,
        4.2199999999999998,
        4.2400000000000002,
        4.2599999999999998,
        4.2800000000000002,
        4.2999999999999998,
        4.3200000000000003,
        4.3399999999999999,
        4.3600000000000003,
        4.3799999999999999,
        4.4000000000000004,
        4.4199999999999999,
        4.4400000000000004,
        4.46,
        4.4800000000000004,
        4.5,
        4.5199999999999996,
        4.54,
        4.5599999999999996,
        4.5800000000000001,
        4.5999999999999996,
        4.6200000000000001,
        4.6399999999999997,
        4.6600000000000001,
        4.6799999999999997,
        4.7000000000000002,
        4.7199999999999998,
        4.7400000000000002,
        4.7599999999999998,
        4.7800000000000002,
        4.7999999999999998,
        4.8200000000000003,
        4.8399999999999999,
        4.8600000000000003,
        4.8799999999999999,
        4.9000000000000004,
        4.9199999999999999,
        4.9400000000000004,
        4.96,
        4.9800000000000004,
        5.0,
        5.0199999999999996,
        5.04,
        5.0599999999999996,
        5.0800000000000001,
        5.0999999999999996,
        5.1200000000000001,
        5.1399999999999997,
        5.1600000000000001,
        5.1799999999999997,
        5.2000000000000002,
        5.2199999999999998,
        5.2400000000000002,
        5.2599999999999998,
        5.2800000000000002,
        5.2999999999999998,
        5.3200000000000003,
        5.3399999999999999,
        5.3600000000000003,
        5.3799999999999999,
        5.4000000000000004,
        5.4199999999999999,
        5.4400000000000004,
        5.46,
        5.4800000000000004,
        5.5,
        5.5199999999999996,
        5.54,
        5.5599999999999996,
        5.5800000000000001,
        5.5999999999999996,
        5.6200000000000001,
        5.6399999999999997,
        5.6600000000000001,
        5.6799999999999997,
        5.7000000000000002,
        5.7199999999999998,
        5.7400000000000002,
        5.7599999999999998,
        5.7800000000000002,
        5.7999999999999998,
        5.8200000000000003,
        5.8399999999999999,
        5.8600000000000003,
        5.8799999999999999,
        5.9000000000000004,
        5.9199999999999999,
        5.9400000000000004,
        5.96,
        5.9800000000000004,
        6.0,
        6.0199999999999996,
        6.04,
        6.0599999999999996,
        6.0800000000000001,
        6.0999999999999996,
        6.1200000000000001,
        6.1399999999999997,
        6.1600000000000001,
        6.1799999999999997,
        6.2000000000000002,
        6.2199999999999998,
        6.2400000000000002,
        6.2599999999999998,
        6.2800000000000002,
        6.2999999999999998,
        6.3200000000000003,
        6.3399999999999999,
        6.3600000000000003,
        6.3799999999999999,
        6.4000000000000004,
        6.4199999999999999,
        6.4400000000000004,
        6.46,
        6.4800000000000004,
        6.5,
        6.5199999999999996,
        6.54,
        6.5599999999999996,
        6.5800000000000001,
        6.5999999999999996,
        6.6200000000000001,
        6.6399999999999997,
        6.6600000000000001,
        6.6799999999999997,
        6.7000000000000002,
        6.7199999999999998,
        6.7400000000000002,
        6.7599999999999998,
        6.7800000000000002,
        6.7999999999999998,
        6.8200000000000003,
        6.8399999999999999,
        6.8600000000000003,
        6.8799999999999999,
        6.9000000000000004,
        6.9199999999999999,
        6.9400000000000004,
        6.96,
        6.9800000000000004,
        7.0,
        7.0199999999999996,
        7.04,
        7.0599999999999996,
        7.0800000000000001,
        7.0999999999999996,
        7.1200000000000001,
        7.1399999999999997,
        7.1600000000000001,
        7.1799999999999997,
        7.2000000000000002,
        7.2199999999999998,
        7.2400000000000002,
        7.2599999999999998,
        7.2800000000000002,
        7.2999999999999998,
        7.3200000000000003,
        7.3399999999999999,
        7.3600000000000003,
        7.3799999999999999,
        7.4000000000000004,
        7.4199999999999999,
        7.4400000000000004,
        7.46,
        7.4800000000000004,
        7.5,
        7.5199999999999996,
        7.54,
        7.5599999999999996,
        7.5800000000000001,
        7.5999999999999996,
        7.6200000000000001,
        7.6399999999999997,
        7.6600000000000001,
        7.6799999999999997,
        7.7000000000000002,
        7.7199999999999998,
        7.7400000000000002,
        7.7599999999999998,
        7.7800000000000002,
        7.7999999999999998,
        7.8200000000000003,
        7.8399999999999999,
        7.8600000000000003,
        7.8799999999999999,
        7.9000000000000004,
        7.9199999999999999,
        7.9400000000000004,
        7.96,
        7.9800000000000004,
        8.0,
        8.0199999999999996,
        8.0399999999999991,
        8.0600000000000005,
        8.0800000000000001,
        8.0999999999999996,
        8.1199999999999992,
        8.1400000000000006,
        8.1600000000000001,
        8.1799999999999997,
        8.1999999999999993,
        8.2200000000000006,
        8.2400000000000002,
        8.2599999999999998,
        8.2799999999999994,
        8.3000000000000007,
        8.3200000000000003,
        8.3399999999999999,
        8.3599999999999994,
        8.3800000000000008,
        8.4000000000000004,
        8.4199999999999999,
        8.4399999999999995,
        8.4600000000000009,
        8.4800000000000004,
        8.5,
        8.5199999999999996,
        8.5399999999999991,
        8.5600000000000005,
        8.5800000000000001,
        8.5999999999999996,
        8.6199999999999992,
        8.6400000000000006,
        8.6600000000000001,
        8.6799999999999997,
        8.6999999999999993,
        8.7200000000000006,
        8.7400000000000002,
        8.7599999999999998,
        8.7799999999999994,
        8.8000000000000007,
        8.8200000000000003,
        8.8399999999999999,
        8.8599999999999994,
        8.8800000000000008,
        8.9000000000000004,
        8.9199999999999999,
        8.9399999999999995,
        8.9600000000000009,
        8.9800000000000004,
        9.0,
        9.0199999999999996,
        9.0399999999999991,
        9.0600000000000005,
        9.0800000000000001,
        9.0999999999999996,
        9.1199999999999992,
        9.1400000000000006,
        9.1600000000000001,
        9.1799999999999997,
        9.1999999999999993,
        9.2200000000000006,
        9.2400000000000002,
        9.2599999999999998,
        9.2799999999999994,
        9.3000000000000007,
        9.3200000000000003,
        9.3399999999999999,
        9.3599999999999994,
        9.3800000000000008,
        9.4000000000000004,
        9.4199999999999999,
        9.4399999999999995,
        9.4600000000000009,
        9.4800000000000004,
        9.5,
        9.5199999999999996,
        9.5399999999999991,
        9.5600000000000005,
        9.5800000000000001,
        9.5999999999999996,
        9.6199999999999992,
        9.6400000000000006,
        9.6600000000000001,
        9.6799999999999997,
        9.6999999999999993,
        9.7200000000000006,
        9.7400000000000002,
        9.7599999999999998,
        9.7799999999999994,
        9.8000000000000007,
        9.8200000000000003,
        9.8399999999999999,
        9.8599999999999994,
        9.8800000000000008,
        9.9000000000000004,
        9.9199999999999999,
        9.9399999999999995,
        9.9600000000000009,
        9.9800000000000004,
        10.0,
        10.02,
        10.039999999999999,
        10.06,
        10.08,
        10.1,
        10.119999999999999,
        10.140000000000001,
        10.16,
        10.18,
        10.199999999999999,
        10.220000000000001,
        10.24,
        10.26,
        10.279999999999999,
        10.300000000000001,
        10.32,
        10.34,
        10.359999999999999,
        10.380000000000001,
        10.4,
        10.42,
        10.44,
        10.460000000000001,
        10.48,
        10.5,
        10.52,
        10.539999999999999,
        10.56,
        10.58,
        10.6,
        10.619999999999999,
        10.640000000000001,
        10.66,
        10.68,
        10.699999999999999,
        10.720000000000001,
        10.74,
        10.76,
        10.779999999999999,
        10.800000000000001,
        10.82,
        10.84,
        10.859999999999999,
        10.880000000000001,
        10.9,
        10.92,
        10.94,
        10.960000000000001,
        10.98,
        11.0,
        11.02,
        11.039999999999999,
        11.06,
        11.08,
        11.1,
        11.119999999999999,
        11.140000000000001,
        11.16,
        11.18,
        11.199999999999999,
        11.220000000000001,
        11.24,
        11.26,
        11.279999999999999,
        11.300000000000001,
        11.32,
        11.34,
        11.359999999999999,
        11.380000000000001,
        11.4,
        11.42,
        11.44,
        11.460000000000001,
        11.48,
        11.5,
        11.52,
        11.539999999999999,
        11.56,
        11.58,
        11.6,
        11.619999999999999,
        11.640000000000001,
        11.66,
        11.68,
        11.699999999999999,
        11.720000000000001,
        11.74,
        11.76,
        11.779999999999999,
        11.800000000000001,
        11.82,
        11.84,
        11.859999999999999,
        11.880000000000001,
        11.9,
        11.92,
        11.94,
        11.960000000000001,
        11.98,
        12.0,
        12.02,
        12.039999999999999,
        12.06,
        12.08,
        12.1,
        12.119999999999999,
        12.140000000000001,
        12.16,
        12.18,
        12.199999999999999,
        12.220000000000001,
        12.24,
        12.26,
        12.279999999999999,
        12.300000000000001,
        12.32,
        12.34,
        12.359999999999999,
        12.380000000000001,
        12.4,
        12.42,
        12.44,
        12.460000000000001,
        12.48,
        12.5,
        12.52,
        12.539999999999999
    ]
}