{
    "DU": 108,
    "DV": 198,
    "F-measure": 0.9183673469387755,
    "F-measure Chroma": 0.9387755102040816,
    "FN": 14,
    "FNC": 4,
    "FNCch": 8,
    "FNI": 10,
    "FNIch": 6,
    "FP": 10,
    "GU": 104,
    "GV": 202,
    "Overall Accuracy": 0.8823529411764706,
    "Overall Chroma Accuracy": 0.9019607843137255,
    "Precision": 0.9246575342465754,
    "Precision Chroma": 0.9452054794520548,
    "Raw Chroma Accuracy": 0.9405940594059405,
    "Raw Pitch Accuracy": 0.8910891089108911,
    "Recall": 0.9121621621621622,
    "Recall Chroma": 0.9324324324324325,
    "TN": 94,
    "TO": 306,
    "TP": 188,
    "TPC": 176,
    "TPCch": 182,
    "TPI": 12,
    "TPIch": 6,
    "Voiced Chroma Accuracy": 0.900990099009901,
    "Voiced Pitch Accuracy": 0.8712871287128713,
    "Voicing Accuracy": 0.9215686274509803,
    "Voicing Detection": 0.9306930693069307,
    "Voicing False Alarm": 0.09615384615384616
}