{
    "f0": [
        0.0,
        0.0,
        0.0,
        59.19817363624113,
        57.572147198015664,
        56.850860091185297,
        57.012058566146834,
        57.283292235443,
        57.451992974245741,
        57.465376263665206,
        57.558382357357573,
        57.636618499135686,
        57.66298820934346,
        57.655735058457694,
        57.61055504443452,
        57.480092394650498,
        57.41479058938738,
        57.416648609981038,
        57.311889405983926,
        57.338400108767509,
        57.421630977384261,
        57.4275209272312,
        57.422031710458668,
        57.535274569415051,
        57.643581157911115,
        57.739628932182207,
        57.562576604317478,
        57.46467960115389,
        57.593252001954141,
        58.886600890018769,
        58.054137277603601,
        57.100480927082302,
        57.093156546693606,
        59.274896320376328,
        57.711876586126081,
        57.667779959138485,
        0.0,
        0.0,
        0.0,
        58.228620068852173,
        58.318063545666242,
        58.113807437441849,
        58.654188737799103,
        0.0,
        0.0,
        59.031057949045561,
        59.075936155851821,
        59.135296901218567,
        59.163685698026157,
        59.163554303272115,
        59.19166415207161,
        59.146846615542273,
        59.127156042495294,
        59.115231881462151,
        59.048303328978427,
        58.935808548905939,
        58.921723140703435,
        58.949173413014137,
        58.903681989160006,
        58.807759790461965,
        58.871294194564165,
        59.863761616005739,
        59.138787550383981,
        59.054338031644818,
        59.037267330373524,
        58.144482200619031,
        58.342060663515674,
        60.052349783469481,
        59.3356773901465,
        59.344828266592508,
        59.275488007532736,
        59.235094272673578,
        59.099093272743751,
        0.0,
        59.012384275156158,
        59.036128335108231,
        59.136622548842666,
        59.344479074252163,
        59.582051138937331,
        59.765148456108776,
        60.010777268146455,
        60.223229667198822,
        60.336951854102864,
        60.44465390293152,
        60.533404826951013,
        60.55473150945739,
        60.490762664861037,
        60.458372780754125,
        60.38799103508147,
        60.379187722286055,
        60.380857056317765,
        60.336684477465546,
        60.312281115450673,
        60.304808334438086,
        60.291781305361269,
        60.240851566355261,
        60.170713906032475,
        60.105650809023452,
        60.022522980206816,
        59.911096513778332,
        59.739814715118399,
        59.710610492923308,
        59.261065229609258,
        59.4117328348147,
        59.731666178217075,
        59.174140537157456,
        59.781027916854775,
        60.316013307847371,
        60.768445748938397,
        0.0,
        58.151446977547778,
        58.140923393182518,
        58.118602106821143,
        58.214354509168516,
        58.291151387654544,
        58.345150616301176,
        58.431302910973756,
        58.522580545108653,
        58.659439405048985,
        58.82621986526987,
        58.966695576224822,
        58.972939877479249,
        59.093213545268256,
        59.083023750294842,
        59.092733652963048,
        59.047239729991922,
        58.98587674834792,
        58.948415913032619,
        58.894269057007499,
        58.871680042775566,
        58.852701987281861,
        58.880952292025746,
        58.879543313740648,
        58.79240157446538,
        58.731587289571863,
        58.826840045645355,
        58.358939128497788,
        58.464152853744615,
        58.902785934618322,
        58.762553070184261,
        58.521345556798749,
        58.171858776586134,
        57.379686142276739,
        57.103226438574964,
        56.940384651488557,
        56.976273711947414,
        57.126718718030475,
        57.266832977898595,
        57.427294829335352,
        57.486947814330868,
        57.558885769411361,
        57.583002371406906,
        57.828613326447673,
        57.824936313211808,
        57.461764024091082,
        57.855329008601899,
        57.835269230538387,
        57.180460939100783,
        57.592278490833301,
        54.608113398073975,
        55.853281908935315,
        0.0,
        57.819775609121614,
        57.814495347214041,
        57.724377654727675,
        57.720338677118349,
        57.805591979034467,
        58.020451655525449,
        58.145564504647737,
        58.384807384101506,
        58.578708396371823,
        58.789281075225013,
        58.983434510247093,
        59.091951585488083,
        59.232340737572606,
        59.244966117664333,
        59.163486522078856,
        59.064028898361798,
        58.909917906833662,
        58.759597511764603,
        58.542586090706472,
        58.287108750657005,
        57.97942736970495,
        57.679156092667668,
        57.40641346118727,
        0.0,
        57.050431293554176,
        57.039172192812714,
        57.043192380289128,
        57.125576743177028,
        57.261151878587626,
        57.362034248581736,
        57.43290410236628,
        57.410587354485273,
        57.315230143734389,
        57.289028683455584,
        57.252984051998375,
        0.0,
        57.202817439674853,
        57.176723323179218,
        57.242689523399015,
        57.245181760240257,
        57.281503696110647,
        57.289472661874221,
        57.320392571787536,
        57.385846341560736,
        57.374152394371869,
        57.297656324524624,
        57.313290416574645,
        57.361097048717241,
        57.372930279388562,
        57.335632754059972,
        57.346020434306652,
        57.345959265945069,
        57.300520628562836,
        57.341779250187535,
        57.386584968780788,
        57.458815156471672,
        57.485601723397266,
        57.517579056962035,
        57.564891907113918,
        57.5442993275744,
        57.507220396892649,
        57.486869621040384,
        57.457083287343721,
        57.433254228262513,
        57.345976929970803,
        57.306519180659237,
        57.263983167329229,
        57.308451395194773,
        57.340840953151599,
        57.347360993054039,
        57.454683383569034,
        57.533942684394262,
        57.670149370142674,
        57.705915417200181,
        57.750072633080777,
        57.786533490344631,
        57.727239004961461,
        57.695163597589584,
        57.565005775216669,
        57.509949916834771,
        57.454527778055052,
        57.388477720714327,
        57.355280897936993,
        57.31458869234087,
        57.290394942858278,
        57.279470442398299,
        57.367104004773971,
        57.448264453288616,
        57.541867249319736,
        57.632693280639721,
        57.718157012364699,
        57.797236772831639,
        57.888976681246611,
        57.981057874641166,
        57.98760556361264,
        57.945176429742403,
        57.897695918393488,
        57.785208237576398,
        57.749220563645466,
        57.639305701948196,
        57.509436980260901,
        57.314068698217781,
        57.006327998961424,
        57.365793173288225,
        56.412052969695637,
        55.883412026053605,
        56.98532897393445,
        58.095898117892077,
        0.0,
        0.0,
        0.0,
        69.25930190071287,
        67.274097830611566,
        0.0,
        0.0,
        0.0,
        0.0,
        0.0,
        0.0,
        0.0,
        0.0,
        0.0,
        0.0,
        0.0,
        0.0,
        0.0,
        0.0,
        0.0,
        0.0,
        0.0,
        0.0,
        0.0,
        0.0,
        0.0,
        0.0,
        0.0,
        0.0,
        0.0,
        0.0,
        0.0,
        0.0,
        0.0,
        0.0,
        0.0,
        0.0,
        0.0,
        0.0,
        0.0,
        0.0,
        0.0,
        0.0,
        0.0,
        0.0,
        0.0,
        0.0,
        0.0,
        0.0,
        0.0,
        0.0,
        0.0,
        0.0,
        0.0,
        0.0,
        0.0,
        0.0,
        0.0,
        0.0,
        0.0,
        0.0,
        0.0,
        0.0,
        0.0,
        0.0,
        0.0,
        0.0,
        0.0,
        0.0,
        0.0,
        0.0,
        0.0,
        0.0,
        0.0,
        0.0,
        0.0,
        0.0,
        0.0
    ],
    "time": [
        0.02,
        0.040000000000000001,
        0.059999999999999998,
        0.080000000000000002,
        0.10000000000000001,
        0.12,
        0.14000000000000001,
        0.16,
        0.17999999999999999,
        0.20000000000000001,
        0.22,
        0.23999999999999999,
        0.26000000000000001,
        0.28000000000000003,
        0.29999999999999999,
        0.32000000000000001,
        0.34000000000000002,
        0.35999999999999999,
        0.38,
        0.40000000000000002,
        0.41999999999999998,
        0.44,
        0.46000000000000002,
        0.47999999999999998,
        0.5,
        0.52000000000000002,
        0.54000000000000004,
        0.56000000000000005,
        0.57999999999999996,
        0.59999999999999998,
        0.62,
        0.64000000000000001,
        0.66000000000000003,
        0.68000000000000005,
        0.69999999999999996,
        0.71999999999999997,
        0.73999999999999999,
        0.76000000000000001,
        0.78000000000000003,
        0.80000000000000004,
        0.81999999999999995,
        0.83999999999999997,
        0.85999999999999999,
        0.88,
        0.90000000000000002,
        0.92000000000000004,
        0.93999999999999995,
        0.95999999999999996,
        0.97999999999999998,
        1.0,
        1.02,
        1.04,
        1.0600000000000001,
        1.0800000000000001,
        1.1000000000000001,
        1.1200000000000001,
        1.1399999999999999,
        1.1599999999999999,
        1.1799999999999999,
        1.2,
        1.22,
        1.24,
        1.26,
        1.28,
        1.3,
        1.3200000000000001,
        1.3400000000000001,
        1.3600000000000001,
        1.3799999999999999,
        1.3999999999999999,
        1.4199999999999999,
        1.4399999999999999,
        1.46,
        1.48,
        1.5,
        1.52,
        1.54,
        1.5600000000000001,
        1.5800000000000001,
        1.6000000000000001,
        1.6200000000000001,
        1.6399999999999999,
        1.6599999999999999,
        1.6799999999999999,
        1.7,
        1.72,
        1.74,
        1.76,
        1.78,
        1.8,
        1.8200000000000001,
        1.8400000000000001,
        1.8600000000000001,
        1.8799999999999999,
        1.8999999999999999,
        1.9199999999999999,
        1.9399999999999999,
        1.96,
        1.98,
        2.0,
        2.02,
        2.04,
        2.0600000000000001,
        2.0800000000000001,
        2.1000000000000001,
        2.1200000000000001,
        2.1400000000000001,
        2.1600000000000001,
        2.1800000000000002,
        2.2000000000000002,
        2.2200000000000002,
        2.2400000000000002,
        2.2599999999999998,
        2.2799999999999998,
        2.2999999999999998,
        2.3199999999999998,
        2.3399999999999999,
        2.3599999999999999,
        2.3799999999999999,
        2.3999999999999999,
        2.4199999999999999,
        2.4399999999999999,
        2.46,
        2.48,
        2.5,
        2.52,
        2.54,
        2.5600000000000001,
        2.5800000000000001,
        2.6000000000000001,
        2.6200000000000001,
        2.6400000000000001,
        2.6600000000000001,
        2.6800000000000002,
        2.7000000000000002,
        2.7200000000000002,
        2.7400000000000002,
        2.7599999999999998,
        2.7799999999999998,
        2.7999999999999998,
        2.8199999999999998,
        2.8399999999999999,
        2.8599999999999999,
        2.8799999999999999,
        2.8999999999999999,
        2.9199999999999999,
        2.9399999999999999,
        2.96,
        2.98,
        3.0,
        3.02,
        3.04,
        3.0600000000000001,
        3.0800000000000001,
        3.1000000000000001,
        3.1200000000000001,
        3.1400000000000001,
        3.1600000000000001,
        3.1800000000000002,
        3.2000000000000002,
        3.2200000000000002,
        3.2400000000000002,
        3.2599999999999998,
        3.2799999999999998,
        3.2999999999999998,
        3.3199999999999998,
        3.3399999999999999,
        3.3599999999999999,
        3.3799999999999999,
        3.3999999999999999,
        3.4199999999999999,
        3.4399999999999999,
        3.46,
        3.48,
        3.5,
        3.52,
        3.54,
        3.5600000000000001,
        3.5800000000000001,
        3.6000000000000001,
        3.6200000000000001,
        3.6400000000000001,
        3.6600000000000001,
        3.6800000000000002,
        3.7000000000000002,
        3.7200000000000002,
        3.7400000000000002,
        3.7599999999999998,
        3.7799999999999998,
        3.7999999999999998,
        3.8199999999999998,
        3.8399999999999999,
        3.8599999999999999,
        3.8799999999999999,
        3.8999999999999999,
        3.9199999999999999,
        3.9399999999999999,
        3.96,
        3.98,
        4.0,
        4.0199999999999996,
        4.04,
        4.0599999999999996,
        4.0800000000000001,
        4.0999999999999996,
        4.1200000000000001,
        4.1399999999999997,
        4.1600000000000001,
        4.1799999999999997,
        4.2000000000000002,
        4.2199999999999998,
        4.2400000000000002,
        4.2599999999999998,
        4.2800000000000002,
        4.2999999999999998,
        4.3200000000000003,
        4.3399999999999999,
        4.3600000000000003,
        4.3799999999999999,
        4.4000000000000004,
        4.4199999999999999,
        4.4400000000000004,
        4.46,
        4.4800000000000004,
        4.5,
        4.5199999999999996,
        4.54,
        4.5599999999999996,
        4.5800000000000001,
        4.5999999999999996,
        4.6200000000000001,
        4.6399999999999997,
        4.6600000000000001,
        4.6799999999999997,
        4.7000000000000002,
        4.7199999999999998,
        4.7400000000000002,
        4.7599999999999998,
        4.7800000000000002,
        4.7999999999999998,
        4.8200000000000003,
        4.8399999999999999,
        4.8600000000000003,
        4.8799999999999999,
        4.9000000000000004,
        4.9199999999999999,
        4.9400000000000004,
        4.96,
        4.9800000000000004,
        5.0,
        5.0199999999999996,
        5.04,
        5.0599999999999996,
        5.0800000000000001,
        5.0999999999999996,
        5.1200000000000001,
        5.1399999999999997,
        5.1600000000000001,
        5.1799999999999997,
        5.2000000000000002,
        5.2199999999999998,
        5.2400000000000002,
        5.2599999999999998,
        5.2800000000000002,
        5.2999999999999998,
        5.3200000000000003,
        5.3399999999999999,
        5.3600000000000003,
        5.3799999999999999,
        5.4000000000000004,
        5.4199999999999999,
        5.4400000000000004,
        5.46,
        5.4800000000000004,
        5.5,
        5.5199999999999996,
        5.54,
        5.5599999999999996,
        5.5800000000000001,
        5.5999999999999996,
        5.6200000000000001,
        5.6399999999999997,
        5.6600000000000001,
        5.6799999999999997,
        5.7000000000000002,
        5.7199999999999998,
        5.7400000000000002,
        5.7599999999999998,
        5.7800000000000002,
        5.7999999999999998,
        5.8200000000000003,
        5.8399999999999999,
        5.8600000000000003,
        5.8799999999999999,
        5.9000000000000004,
        5.9199999999999999,
        5.9400000000000004,
        5.96,
        5.9800000000000004,
        6.0,
        6.0199999999999996,
        6.04,
        6.0599999999999996,
        6.0800000000000001,
        6.0999999999999996,
        6.1200000000000001,
        6.1399999999999997,
        6.1600000000000001,
        6.1799999999999997,
        6.2000000000000002,
        6.2199999999999998,
        6.2400000000000002,
        6.2599999999999998,
        6.2800000000000002,
        6.2999999999999998,
        6.3200000000000003,
        6.3399999999999999,
        6.3600000000000003,
        6.3799999999999999,
        6.4000000000000004,
        6.4199999999999999,
        6.4400000000000004,
        6.46,
        6.4800000000000004,
        6.5,
        6.5199999999999996,
        6.54,
        6.5599999999999996,
        6.5800000000000001,
        6.5999999999999996,
        6.6200000000000001,
        6.6399999999999997,
        6.6600000000000001,
        6.6799999999999997,
        6.7000000000000002,
        6.7199999999999998,
        6.7400000000000002,
        6.7599999999999998,
        6.7800000000000002,
        6.7999999999999998,
        6.8200000000000003,
        6.8399999999999999,
        6.8600000000000003,
        6.8799999999999999,
        6.9000000000000004,
        6.9199999999999999,
        6.9400000000000004,
        6.96
    ]
}