{
    "DU": 172,
    "DV": 427,
    "F-measure": 0.14185814185814188,
    "F-measure Chroma": 0.25374625374625376,
    "FN": 106,
    "FNC": 0,
    "FNCch": 1,
    "FNI": 106,
    "FNIch": 105,
    "FP": 91,
    "GU": 157,
    "GV": 442,
    "Overall Accuracy": 0.11853088480801335,
    "Overall Chroma Accuracy": 0.21202003338898165,
    "Precision": 0.1440162271805274,
    "Precision Chroma": 0.25760649087221094,
    "Raw Chroma Accuracy": 0.14027149321266968,
    "Raw Pitch Accuracy": 0.011312217194570135,
    "Recall": 0.13976377952755906,
    "Recall Chroma": 0.25,
    "TN": 66,
    "TO": 599,
    "TP": 336,
    "TPC": 5,
    "TPCch": 61,
    "TPI": 331,
    "TPIch": 275,
    "Voiced Chroma Accuracy": 0.13800904977375567,
    "Voiced Pitch Accuracy": 0.011312217194570135,
    "Voicing Accuracy": 0.671118530884808,
    "Voicing Detection": 0.7601809954751131,
    "Voicing False Alarm": 0.5796178343949044
}