{
    "f0": [
        0.0,
        0.0,
        35.854722151058795,
        37.434526829563964,
        35.058300398295081,
        35.614571503038803,
        0.0,
        0.0,
        0.0,
        0.0,
        0.0,
        56.727360281122102,
        56.467408822415649,
        56.517793550580471,
        56.539202988268549,
        56.48835751389916,
        56.461044201044253,
        56.464518471290859,
        56.513645749532756,
        56.660194222729437,
        56.865137188671255,
        57.042741962244577,
        57.057815571613432,
        57.11370200692933,
        57.160131433662762,
        57.185582893581326,
        57.2734625092328,
        57.327692116572706,
        57.411415142511636,
        57.353837483873789,
        57.294331148184732,
        57.264158242638217,
        57.254472654889781,
        57.2718053450197,
        57.287820589712936,
        57.269877325745206,
        57.24416838181115,
        57.280175759169381,
        57.276181965992734,
        57.289150339472883,
        57.300269277452799,
        57.318543042236982,
        57.34105282863203,
        57.348835564914644,
        57.412157366982896,
        57.454655252035344,
        57.490232684595114,
        57.519100983981708,
        57.516187531389491,
        57.472265615006776,
        57.462259680017354,
        57.463491900833858,
        57.445031278586669,
        57.464081126212967,
        57.479179016362878,
        57.528071356880886,
        57.549034535791918,
        57.547711790618138,
        57.57659713225555,
        57.516207390381858,
        57.44659349270362,
        57.552470456387546,
        57.293376117217363,
        57.6149696766349,
        57.606436156882864,
        0.0,
        0.0,
        0.0,
        0.0,
        0.0,
        0.0,
        0.0,
        57.536335059944037,
        57.53329181192484,
        57.652091769649488,
        57.737194203459858,
        57.645265510756801,
        57.558979943251202,
        57.514554662374579,
        57.544074749673541,
        57.591588057133443,
        57.590062069798215,
        57.613256853090661,
        57.59148592323276,
        57.550657219291402,
        57.501357504410862,
        57.476170107114612,
        57.511053981687461,
        57.557447573703016,
        57.599468954071526,
        57.467223042062422,
        57.218838478626083,
        57.021423744372491,
        57.85870475533882,
        59.004279529983364,
        58.915397987109159,
        58.339151300410087,
        57.268487053972493,
        57.686003645165599,
        0.0,
        0.0,
        0.0,
        0.0,
        0.0,
        0.0,
        48.854139686610836,
        48.068961779062242,
        47.660011355071759,
        47.587916144045522,
        47.607910934507906,
        47.673234225156484,
        47.74257790725774,
        48.017149472736584,
        48.355362546901645,
        48.86860596710963,
        48.995965415814453,
        49.044720692536821,
        49.372951613585599,
        49.225249267866275,
        0.0,
        0.0,
        0.0,
        0.0,
        0.0,
        53.998183171199223,
        54.33050481470201,
        54.476961316981914,
        54.855209501254798,
        54.970955590648209,
        55.135442128124652,
        55.241022576969044,
        55.309547473220235,
        55.402827562624637,
        55.500045953296876,
        55.554322811115298,
        55.4934647895914,
        55.474219187601705,
        55.464879690793246,
        55.482109242315154,
        55.488289837839325,
        55.422165750623691,
        55.401081325755094,
        55.4488804968003,
        55.49407128896091,
        55.57527237958768,
        55.570530017102172,
        55.491960940051328,
        55.480572962572374,
        55.562519673436896,
        55.58164657823108,
        55.571671119348366,
        0.0,
        55.544241459107837,
        55.516420367805402,
        55.454953457624214,
        55.448275080392904,
        55.466926365869654,
        55.522283966420062,
        55.518372063869755,
        55.506175542090745,
        55.503241905330682,
        55.52534385534647,
        55.564657945695942,
        55.552661088108593,
        55.530405804484161,
        55.549257411606,
        55.623477784077643,
        55.644430859969532,
        55.683482288841574,
        0.0,
        0.0,
        0.0,
        0.0,
        55.570310966776546,
        55.562834073903502,
        55.541271204231137,
        55.544186592168117,
        55.534082376280153,
        55.561790297090297,
        55.500917978332609,
        55.44944001907033,
        55.496858509178864,
        55.54313646877052,
        55.608195942030378,
        55.598474011107321,
        55.59834772521117,
        55.6105432880235,
        55.609122400177334,
        55.603842613479294,
        55.640703681281742,
        55.634286223098933,
        55.65361048328235,
        55.663588157863316,
        55.700894522545227,
        55.647051201016822,
        55.600143116921586,
        55.642380381164287,
        55.669107845901316,
        55.676804609589318,
        55.686144608260463,
        55.654329537488628,
        55.653771409765447,
        55.597665424125232,
        55.644352991658309,
        55.683532810241907,
        55.715362874226237,
        55.638357782312283,
        55.706655874173109,
        55.909460816605453,
        55.899375667897772,
        55.848671537144909,
        55.829828532011476,
        55.833092728491692,
        55.756568145826378,
        55.76809454130504,
        55.344750245485727,
        54.840044647401427,
        54.819518989304107,
        0.0,
        0.0,
        0.0,
        0.0,
        0.0,
        0.0,
        0.0,
        0.0,
        0.0,
        0.0,
        0.0,
        0.0,
        0.0,
        0.0,
        36.553380150093439,
        36.100013764657845,
        0.0,
        0.0,
        0.0,
        0.0,
        0.0,
        0.0,
        0.0,
        0.0,
        0.0,
        0.0,
        0.0,
        0.0,
        0.0,
        0.0,
        0.0,
        0.0,
        0.0,
        0.0,
        0.0,
        0.0,
        0.0,
        0.0,
        53.888090773924603,
        53.429832838469423,
        53.530726313208987,
        53.516438817926428,
        53.37665065326334,
        53.269583677156184,
        53.130117800736279,
        52.996549294446012,
        53.023560677357921,
        53.172847990505161,
        53.480733402747063,
        53.641196334120131,
        53.416361392306655,
        52.974606806950753,
        52.042710592215244,
        51.041835203123604,
        49.517430704254238,
        0.0,
        0.0,
        0.0,
        0.0,
        0.0,
        0.0,
        53.392658563980802,
        53.684441723833217,
        53.845708926324207,
        53.802053329078248,
        53.741637214059729,
        53.610539884008745,
        53.442903090956861,
        53.247747636503576,
        53.072470011371166,
        52.969015278481322,
        52.915883053435962,
        52.853281384795714,
        52.911232136902072,
        53.138351756973599,
        53.397257427934477,
        53.650933465375388,
        53.82722761397612,
        53.867599903217879,
        53.765097383394547,
        53.647357560854623,
        53.351590388192975,
        52.8669312500285,
        52.877959142529228,
        54.754521995084382,
        54.220077267209817,
        54.13895614151626,
        54.155660340067094,
        54.147143142170464,
        54.017146482783545,
        53.828818316265384,
        53.493165455939533,
        53.089578742593083,
        0.0,
        0.0,
        0.0,
        0.0,
        0.0,
        0.0,
        53.40633179084918,
        53.588531867423768,
        53.371932387939751,
        53.443001858784122,
        53.663511780602704,
        53.788397253101067,
        53.832475148566459,
        53.813810752735741,
        53.780435053451413,
        53.71054116647916,
        53.678792669033164,
        53.610769205349285,
        53.618304683656639,
        53.673384759263136,
        0.0,
        0.0,
        0.0,
        0.0,
        0.0,
        0.0,
        0.0,
        0.0,
        0.0,
        0.0,
        0.0,
        0.0,
        0.0,
        0.0,
        0.0,
        0.0,
        0.0,
        0.0,
        0.0,
        0.0,
        0.0,
        0.0,
        0.0,
        0.0,
        0.0,
        0.0,
        0.0,
        0.0,
        0.0,
        0.0,
        0.0,
        0.0
    ],
    "time": [
        0.02,
        0.040000000000000001,
        0.059999999999999998,
        0.080000000000000002,
        0.10000000000000001,
        0.12,
        0.14000000000000001,
        0.16,
        0.17999999999999999,
        0.20000000000000001,
        0.22,
        0.23999999999999999,
        0.26000000000000001,
        0.28000000000000003,
        0.29999999999999999,
        0.32000000000000001,
        0.34000000000000002,
        0.35999999999999999,
        0.38,
        0.40000000000000002,
        0.41999999999999998,
        0.44,
        0.46000000000000002,
        0.47999999999999998,
        0.5,
        0.52000000000000002,
        0.54000000000000004,
        0.56000000000000005,
        0.57999999999999996,
        0.59999999999999998,
        0.62,
        0.64000000000000001,
        0.66000000000000003,
        0.68000000000000005,
        0.69999999999999996,
        0.71999999999999997,
        0.73999999999999999,
        0.76000000000000001,
        0.78000000000000003,
        0.80000000000000004,
        0.81999999999999995,
        0.83999999999999997,
        0.85999999999999999,
        0.88,
        0.90000000000000002,
        0.92000000000000004,
        0.93999999999999995,
        0.95999999999999996,
        0.97999999999999998,
        1.0,
        1.02,
        1.04,
        1.0600000000000001,
        1.0800000000000001,
        1.1000000000000001,
        1.1200000000000001,
        1.1399999999999999,
        1.1599999999999999,
        1.1799999999999999,
        1.2,
        1.22,
        1.24,
        1.26,
        1.28,
        1.3,
        1.3200000000000001,
        1.3400000000000001,
        1.3600000000000001,
        1.3799999999999999,
        1.3999999999999999,
        1.4199999999999999,
        1.4399999999999999,
        1.46,
        1.48,
        1.5,
        1.52,
        1.54,
        1.5600000000000001,
        1.5800000000000001,
        1.6000000000000001,
        1.6200000000000001,
        1.6399999999999999,
        1.6599999999999999,
        1.6799999999999999,
        1.7,
        1.72,
        1.74,
        1.76,
        1.78,
        1.8,
        1.8200000000000001,
        1.8400000000000001,
        1.8600000000000001,
        1.8799999999999999,
        1.8999999999999999,
        1.9199999999999999,
        1.9399999999999999,
        1.96,
        1.98,
        2.0,
        2.02,
        2.04,
        2.0600000000000001,
        2.0800000000000001,
        2.1000000000000001,
        2.1200000000000001,
        2.1400000000000001,
        2.1600000000000001,
        2.1800000000000002,
        2.2000000000000002,
        2.2200000000000002,
        2.2400000000000002,
        2.2599999999999998,
        2.2799999999999998,
        2.2999999999999998,
        2.3199999999999998,
        2.3399999999999999,
        2.3599999999999999,
        2.3799999999999999,
        2.3999999999999999,
        2.4199999999999999,
        2.4399999999999999,
        2.46,
        2.48,
        2.5,
        2.52,
        2.54,
        2.5600000000000001,
        2.5800000000000001,
        2.6000000000000001,
        2.6200000000000001,
        2.6400000000000001,
        2.6600000000000001,
        2.6800000000000002,
        2.7000000000000002,
        2.7200000000000002,
        2.7400000000000002,
        2.7599999999999998,
        2.7799999999999998,
        2.7999999999999998,
        2.8199999999999998,
        2.8399999999999999,
        2.8599999999999999,
        2.8799999999999999,
        2.8999999999999999,
        2.9199999999999999,
        2.9399999999999999,
        2.96,
        2.98,
        3.0,
        3.02,
        3.04,
        3.0600000000000001,
        3.0800000000000001,
        3.1000000000000001,
        3.1200000000000001,
        3.1400000000000001,
        3.1600000000000001,
        3.1800000000000002,
        3.2000000000000002,
        3.2200000000000002,
        3.2400000000000002,
        3.2599999999999998,
        3.2799999999999998,
        3.2999999999999998,
        3.3199999999999998,
        3.3399999999999999,
        3.3599999999999999,
        3.3799999999999999,
        3.3999999999999999,
        3.4199999999999999,
        3.4399999999999999,
        3.46,
        3.48,
        3.5,
        3.52,
        3.54,
        3.5600000000000001,
        3.5800000000000001,
        3.6000000000000001,
        3.6200000000000001,
        3.6400000000000001,
        3.6600000000000001,
        3.6800000000000002,
        3.7000000000000002,
        3.7200000000000002,
        3.7400000000000002,
        3.7599999999999998,
        3.7799999999999998,
        3.7999999999999998,
        3.8199999999999998,
        3.8399999999999999,
        3.8599999999999999,
        3.8799999999999999,
        3.8999999999999999,
        3.9199999999999999,
        3.9399999999999999,
        3.96,
        3.98,
        4.0,
        4.0199999999999996,
        4.04,
        4.0599999999999996,
        4.0800000000000001,
        4.0999999999999996,
        4.1200000000000001,
        4.1399999999999997,
        4.1600000000000001,
        4.1799999999999997,
        4.2000000000000002,
        4.2199999999999998,
        4.2400000000000002,
        4.2599999999999998,
        4.2800000000000002,
        4.2999999999999998,
        4.3200000000000003,
        4.3399999999999999,
        4.3600000000000003,
        4.3799999999999999,
        4.4000000000000004,
        4.4199999999999999,
        4.4400000000000004,
        4.46,
        4.4800000000000004,
        4.5,
        4.5199999999999996,
        4.54,
        4.5599999999999996,
        4.5800000000000001,
        4.5999999999999996,
        4.6200000000000001,
        4.6399999999999997,
        4.6600000000000001,
        4.6799999999999997,
        4.7000000000000002,
        4.7199999999999998,
        4.7400000000000002,
        4.7599999999999998,
        4.7800000000000002,
        4.7999999999999998,
        4.8200000000000003,
        4.8399999999999999,
        4.8600000000000003,
        4.8799999999999999,
        4.9000000000000004,
        4.9199999999999999,
        4.9400000000000004,
        4.96,
        4.9800000000000004,
        5.0,
        5.0199999999999996,
        5.04,
        5.0599999999999996,
        5.0800000000000001,
        5.0999999999999996,
        5.1200000000000001,
        5.1399999999999997,
        5.1600000000000001,
        5.1799999999999997,
        5.2000000000000002,
        5.2199999999999998,
        5.2400000000000002,
        5.2599999999999998,
        5.2800000000000002,
        5.2999999999999998,
        5.3200000000000003,
        5.3399999999999999,
        5.3600000000000003,
        5.3799999999999999,
        5.4000000000000004,
        5.4199999999999999,
        5.4400000000000004,
        5.46,
        5.4800000000000004,
        5.5,
        5.5199999999999996,
        5.54,
        5.5599999999999996,
        5.5800000000000001,
        5.5999999999999996,
        5.6200000000000001,
        5.6399999999999997,
        5.6600000000000001,
        5.6799999999999997,
        5.7000000000000002,
        5.7199999999999998,
        5.7400000000000002,
        5.7599999999999998,
        5.7800000000000002,
        5.7999999999999998,
        5.8200000000000003,
        5.8399999999999999,
        5.8600000000000003,
        5.8799999999999999,
        5.9000000000000004,
        5.9199999999999999,
        5.9400000000000004,
        5.96,
        5.9800000000000004,
        6.0,
        6.0199999999999996,
        6.04,
        6.0599999999999996,
        6.0800000000000001,
        6.0999999999999996,
        6.1200000000000001,
        6.1399999999999997,
        6.1600000000000001,
        6.1799999999999997,
        6.2000000000000002,
        6.2199999999999998,
        6.2400000000000002,
        6.2599999999999998,
        6.2800000000000002,
        6.2999999999999998,
        6.3200000000000003,
        6.3399999999999999,
        6.3600000000000003,
        6.3799999999999999,
        6.4000000000000004,
        6.4199999999999999,
        6.4400000000000004,
        6.46,
        6.4800000000000004,
        6.5,
        6.5199999999999996,
        6.54,
        6.5599999999999996,
        6.5800000000000001,
        6.5999999999999996,
        6.6200000000000001,
        6.6399999999999997,
        6.6600000000000001,
        6.6799999999999997,
        6.7000000000000002,
        6.7199999999999998,
        6.7400000000000002,
        6.7599999999999998,
        6.7800000000000002,
        6.7999999999999998,
        6.8200000000000003,
        6.8399999999999999,
        6.8600000000000003,
        6.8799999999999999,
        6.9000000000000004,
        6.9199999999999999,
        6.9400000000000004,
        6.96,
        6.9800000000000004,
        7.0,
        7.0199999999999996,
        7.04,
        7.0599999999999996,
        7.0800000000000001,
        7.0999999999999996,
        7.1200000000000001,
        7.1399999999999997,
        7.1600000000000001,
        7.1799999999999997,
        7.2000000000000002,
        7.2199999999999998,
        7.2400000000000002,
        7.2599999999999998
    ]
}