{
    "f0": [
        0.0,
        0.0,
        0.0,
        0.0,
        0.0,
        0.0,
        0.0,
        0.0,
        0.0,
        0.0,
        0.0,
        0.0,
        0.0,
        0.0,
        0.0,
        0.0,
        0.0,
        0.0,
        0.0,
        0.0,
        61.436474807660794,
        53.632153848019925,
        0.0,
        0.0,
        0.0,
        0.0,
        0.0,
        0.0,
        0.0,
        0.0,
        0.0,
        0.0,
        0.0,
        0.0,
        0.0,
        0.0,
        0.0,
        0.0,
        0.0,
        0.0,
        0.0,
        0.0,
        0.0,
        0.0,
        0.0,
        0.0,
        0.0,
        0.0,
        42.021819086316221,
        43.183821946363395,
        48.750001352488674,
        41.764114605423643,
        36.465606562510843,
        36.796740100178909,
        0.0,
        0.0,
        0.0,
        0.0,
        55.660503379774838,
        56.003329731870025,
        56.275344979646675,
        44.305372600557241,
        56.511404204291154,
        56.687447222553814,
        56.86171820632751,
        57.034249962299285,
        57.143411713771997,
        57.108564681944188,
        57.073648542378656,
        57.174335340761729,
        57.20757573982393,
        57.019531227241998,
        56.415869903265772,
        56.685012821907776,
        58.489611054778585,
        59.266215135550851,
        59.857988334865141,
        60.153889084544538,
        60.407225373811151,
        60.430679903550121,
        60.13092418747496,
        59.954563081989335,
        59.521613421773097,
        59.277010430854112,
        59.151913993936944,
        59.003696654385053,
        58.959316767012659,
        59.03447249229076,
        58.929883793248415,
        58.620391057361047,
        58.409575538759725,
        59.149910768047548,
        59.283678399129016,
        59.205839324316223,
        59.312275839020074,
        59.444090627105474,
        59.561993187080006,
        59.627690848306294,
        59.757093708297312,
        59.82879321878589,
        59.811544867734071,
        59.868236805415826,
        59.868706810558692,
        59.869176869616076,
        59.519890299929756,
        59.556170174047097,
        58.446769272322882,
        0.0,
        0.0,
        0.0,
        59.45942234827335,
        59.306034014579851,
        59.287928350777705,
        59.317437862913877,
        59.451591938839059,
        59.589969541134622,
        59.724640197196557,
        59.742112659513559,
        59.614044882205491,
        59.575254959507298,
        59.518919646053931,
        58.943840254381669,
        58.288702718890967,
        58.029684275770677,
        0.0,
        0.0,
        0.0,
        0.0,
        0.0,
        0.0,
        59.405176679178169,
        59.405178802221755,
        59.498988974717129,
        59.498988974717129,
        59.498986931261726,
        59.419774461364028,
        59.469076524680744,
        59.587716503697344,
        59.583507459821995,
        59.609179225221368,
        59.549737977288288,
        59.29312286678379,
        59.148564868159134,
        59.002790761150131,
        58.855777639039147,
        58.538717093649517,
        58.301933709373067,
        58.061864623644951,
        56.756421086133628,
        55.928641505644286,
        53.537847956735902,
        52.35125120288663,
        51.984975499317088,
        51.325240050558136,
        49.900485297922842,
        49.686287389420372,
        49.564165765567338,
        49.393517229007408,
        49.407955005085498,
        49.874521658668201,
        50.162543533033322,
        50.870678489278021,
        50.998298450539579,
        51.465198357064509,
        52.097798022206696,
        52.460414540185212,
        52.76336597194225,
        52.808643602356909,
        52.853804625072243,
        52.898840567782258,
        53.116026335951041,
        53.417929807448559,
        53.672211934255294,
        54.455471885537435,
        55.294649674743816,
        55.702439874478088,
        56.466046731323161,
        56.849308591264872,
        57.221456206069341,
        57.759415968537873,
        58.197133873909642,
        58.600933993618654,
        58.995529987021342,
        59.548288118055275,
        59.79159388185856,
        59.94574722219091,
        59.961257569036022,
        59.816358134976682,
        59.552882872196761,
        58.995267857365597,
        58.569640215232795,
        57.882260333277443,
        57.211269853807423,
        57.275158550496734,
        57.612863940042118,
        57.810220670867608,
        58.13422096323437,
        58.452269835361363,
        58.674439635314627,
        58.686902125445854,
        58.559253808777243,
        58.440585240180951,
        58.489834743237651,
        58.560822917325858,
        58.44663673759262,
        58.331692422346492,
        57.79095738389897,
        0.0,
        0.0,
        0.0,
        58.756045838281217,
        58.582047923011658,
        58.264340192470684,
        58.122326360855773,
        58.160799660564379,
        58.136328348282461,
        58.073062690236995,
        58.007267715065446,
        58.020580742330971,
        57.901640100659222,
        57.741492676862435,
        57.772508702982975,
        57.802069498737829,
        57.83158223056315,
        56.973037787246412,
        55.895691405138912,
        40.340638430133069,
        45.788859111474196,
        45.426411445379415,
        45.381979000524566,
        45.000901792067268,
        56.727410324452478,
        37.537620489504022,
        37.52748970582568,
        56.654711080063365,
        56.767841197779248,
        37.734266684394221,
        37.711566957244621,
        56.516146364145136,
        56.423639064971795,
        37.503818909204711,
        45.857294698167465,
        42.60656786595181,
        46.83731559777334,
        45.732925815355195,
        57.866555211247366,
        57.912695082974153,
        57.95871566250031,
        57.996838625983401,
        58.038756938124948,
        58.193221706202252,
        58.381531599176341,
        58.453663225904791,
        58.650582607590991,
        58.845288427125169,
        59.082335997915969,
        59.055676321899831,
        58.834226967003104,
        58.51958589220763,
        58.054314611797842,
        57.650775738607443,
        57.371716242339211,
        57.316905486287965,
        57.3223597735429,
        57.507811574674925,
        57.481391080034051,
        57.441788141373699,
        57.434103265667659,
        57.678358336591813,
        57.737067661802797,
        57.708742958707575,
        57.650357149284737,
        57.606840765087533,
        57.381667710005111,
        57.04370495401335,
        56.581122151630922,
        56.338784126291209,
        56.147525358725268,
        55.219862679969175,
        0.0,
        0.0,
        0.0,
        50.001108044968063,
        49.294385407246381,
        42.789723180015827,
        52.223526452491463,
        49.469723256212077,
        48.857295662064729,
        47.736624721036208,
        47.312082496547973,
        47.559475586046318,
        47.747359153100916,
        47.759688213723777,
        47.509179002629999,
        47.656200891742536,
        48.694348130420757,
        48.908077121062988,
        49.327629048275128,
        49.635790035826062,
        49.938557978065049,
        49.886369333591759,
        49.477564748352989,
        49.585213190526531,
        49.470066452784863,
        49.332938048587536,
        0.0,
        0.0,
        0.0,
        48.824612562159871,
        48.474855296576763,
        47.947533811339298,
        48.119797266605516,
        48.290359483528086,
        48.459261687115855,
        48.969362434596718,
        49.299131498326602,
        49.463804689284949,
        49.604385283498218,
        49.565407360068065,
        49.372718473160845,
        49.35012392707646,
        48.179467910566039,
        48.395185137283178,
        48.096566103069776,
        49.220245823448138,
        44.447342282530627,
        47.272898924992319,
        44.456008149118396,
        51.575281088940407,
        51.54240082432672,
        51.380850627041582,
        51.125948722948863,
        51.013737400062993,
        51.027443559232537,
        51.199937341901659,
        51.370732778304927,
        51.53984975047598,
        51.600708224111933,
        51.343042614330173,
        50.952440059768819,
        50.791232697764208,
        50.680856041900896,
        50.604520035968321,
        50.542468746954256,
        50.815689977353998,
        50.846766465201178,
        51.062500105444741,
        51.031942663689478,
        50.86859625179234,
        50.936071850135356,
        50.934256635743822,
        50.9151309213253,
        50.904653412340387,
        50.889824340590614,
        51.041708196535716,
        51.127430544516194,
        51.071023989401908,
        51.079180212882193,
        51.194502870824678,
        51.598738201424538,
        51.837398486941481,
        51.976113250631187,
        51.968800799048829,
        51.823250336955013,
        51.715358769080041,
        51.525706590887545,
        51.523576421604943,
        51.512788321081544,
        51.501993493813984,
        51.589173751671076,
        51.831245992330203,
        51.819556445317453,
        52.089690168278835,
        52.083797300382955,
        52.349550063399811,
        52.704077090318819,
        52.7154168039146,
        52.760164910567802,
        52.870260473714154,
        53.091447964579515,
        53.254740714477741,
        53.394584023575959,
        53.450905613547789,
        53.46291564225789,
        53.493963795166252,
        53.515455006553466,
        53.367667387815779,
        53.480877662977747,
        53.457392743616481,
        0.0,
        0.0,
        0.0,
        0.0,
        36.226189787143596,
        54.585592186500058,
        54.864958441241797,
        54.966123065586352,
        55.086000027906458,
        55.236209011357012,
        55.385126008815391,
        56.044500725171787,
        56.289263754596838,
        56.374465760009798,
        55.33512108910918,
        55.412738870127782,
        55.261470359007568,
        55.155066518634861,
        58.123010625968469,
        53.248059318767737,
        56.081268261473575,
        0.0,
        64.591148853434092,
        64.763412005813464,
        65.002429932959444,
        58.308902276644098,
        60.15689918255795,
        46.736938392889385,
        55.174756743591026,
        44.680306839415479,
        45.404054647725367,
        45.548940307836418,
        45.692625755581133,
        0.0,
        37.660291981856133,
        43.838960554981277,
        41.226617178875642,
        39.429582134768999,
        39.432449413315865,
        39.356690350182753,
        51.533631692910888,
        51.879975510517959,
        52.391794759980854,
        52.455677068927308,
        52.029778999083973,
        51.917491720851302,
        51.984826314908204,
        51.978167533294894,
        52.134244474309341,
        49.591285733267661,
        50.050032156272145,
        50.221003408634758,
        52.88372488445637,
        53.436979953601025,
        53.735512305568776,
        53.776424330199092,
        53.593925340381787,
        53.526586817410887,
        53.400302927452557,
        53.304378662112235,
        53.257641420706435,
        53.158677317386818,
        53.003335979090906,
        52.962037759939015,
        53.205699960299313,
        53.445980381467081,
        53.682972946748002,
        53.916762208764027,
        54.147439138526934,
        54.34389546969696,
        54.538146091321742,
        54.561344226226666,
        54.672456794937702,
        54.718653253459799,
        54.800532981067178,
        54.690225455023871,
        54.475370708311011,
        54.482735024345686,
        54.528902420375154,
        54.545150237445107,
        54.566036732563369,
        54.560007340672556,
        54.61194839626647,
        54.754871932709456,
        54.501730036074228,
        54.119024085856609,
        54.303859472833544,
        54.48067128913673,
        54.389400913513867,
        54.227856853372018,
        54.115173320542269,
        54.009544252452763,
        54.075827001716462,
        54.240056835118196,
        54.478614317194101,
        54.554352068006381,
        54.359629705325844,
        53.926618068286622,
        53.604006108183313,
        53.385718076944755,
        48.307657420137666,
        36.878050802942184,
        39.920625344462444,
        54.17096560389615,
        54.543221350655067,
        54.587675203950539,
        54.535929722528849,
        54.351510411771173,
        54.354023287194693,
        54.252096233212889,
        54.286435459490178,
        54.259906342870252,
        54.265527927542308,
        54.096122730405845,
        54.3685349855662,
        54.768009453356662,
        54.920430143807771,
        55.189917994005157,
        55.223081559834043,
        55.073247973845291,
        55.058345535206591,
        55.0393534614591,
        55.071134077377032,
        55.131136844513037,
        55.207635058317237,
        55.301216733496453,
        55.385629459333046,
        55.469633971414069,
        54.846507648371471,
        55.308193034360471,
        55.311803276742999,
        36.329354997478063,
        36.408915660339225,
        43.577299553397282,
        0.0,
        57.165566271545742,
        57.165566271545742,
        56.991572268963282,
        56.641817453045192,
        56.610481982239151,
        56.538538271208509,
        56.537808224876713,
        56.59087946031886,
        56.736173670403822,
        56.900339523968363,
        57.395846070356924,
        57.716488872479765,
        57.862013509127465,
        58.006326193511896,
        58.149445923908431,
        58.318593182015306,
        58.410815189207042,
        58.502547453851321,
        58.419801052495018,
        58.508922885059654,
        58.13056561345843,
        57.804331210263655,
        57.26698671515139,
        57.161313933061194,
        56.830623476866869,
        55.901521370772173,
        55.235491113300398,
        55.058204507187938,
        54.446630740453919,
        0.0,
        43.692787541362037,
        51.454439932728654,
        49.381226615110862,
        48.493224120442463,
        47.204742058400896,
        47.013241609978309,
        47.337942565308978,
        47.880093850612099,
        48.640595931506219,
        48.907163114644646,
        49.570975968852494,
        49.668309898218112,
        47.371826830931084,
        48.227939833143679,
        47.720076416940131,
        48.03948387997157,
        47.986374593284026,
        46.319830395478647,
        0.0,
        0.0,
        58.331697960181515,
        58.545375750281934,
        58.756448341481622,
        57.868439620328999,
        0.0,
        61.478239644686333,
        55.699288122990247,
        71.054843519177041,
        0.0,
        0.0,
        41.333281542182718,
        0.0,
        0.0,
        0.0,
        0.0,
        0.0,
        0.0,
        0.0,
        0.0,
        0.0,
        0.0,
        0.0,
        0.0,
        0.0,
        0.0,
        0.0,
        0.0,
        0.0,
        0.0,
        0.0,
        0.0,
        0.0,
        0.0,
        0.0,
        0.0,
        0.0,
        0.0,
        0.0,
        0.0,
        0.0,
        0.0,
        0.0,
        0.0,
        0.0,
        0.0
    ],
    "time": [
        0.02,
        0.040000000000000001,
        0.059999999999999998,
        0.080000000000000002,
        0.10000000000000001,
        0.12,
        0.14000000000000001,
        0.16,
        0.17999999999999999,
        0.20000000000000001,
        0.22,
        0.23999999999999999,
        0.26000000000000001,
        0.28000000000000003,
        0.29999999999999999,
        0.32000000000000001,
        0.34000000000000002,
        0.35999999999999999,
        0.38,
        0.40000000000000002,
        0.41999999999999998,
        0.44,
        0.46000000000000002,
        0.47999999999999998,
        0.5,
        0.52000000000000002,
        0.54000000000000004,
        0.56000000000000005,
        0.57999999999999996,
        0.59999999999999998,
        0.62,
        0.64000000000000001,
        0.66000000000000003,
        0.68000000000000005,
        0.69999999999999996,
        0.71999999999999997,
        0.73999999999999999,
        0.76000000000000001,
        0.78000000000000003,
        0.80000000000000004,
        0.81999999999999995,
        0.83999999999999997,
        0.85999999999999999,
        0.88,
        0.90000000000000002,
        0.92000000000000004,
        0.93999999999999995,
        0.95999999999999996,
        0.97999999999999998,
        1.0,
        1.02,
        1.04,
        1.0600000000000001,
        1.0800000000000001,
        1.1000000000000001,
        1.1200000000000001,
        1.1399999999999999,
        1.1599999999999999,
        1.1799999999999999,
        1.2,
        1.22,
        1.24,
        1.26,
        1.28,
        1.3,
        1.3200000000000001,
        1.3400000000000001,
        1.3600000000000001,
        1.3799999999999999,
        1.3999999999999999,
        1.4199999999999999,
        1.4399999999999999,
        1.46,
        1.48,
        1.5,
        1.52,
        1.54,
        1.5600000000000001,
        1.5800000000000001,
        1.6000000000000001,
        1.6200000000000001,
        1.6399999999999999,
        1.6599999999999999,
        1.6799999999999999,
        1.7,
        1.72,
        1.74,
        1.76,
        1.78,
        1.8,
        1.8200000000000001,
        1.8400000000000001,
        1.8600000000000001,
        1.8799999999999999,
        1.8999999999999999,
        1.9199999999999999,
        1.9399999999999999,
        1.96,
        1.98,
        2.0,
        2.02,
        2.04,
        2.0600000000000001,
        2.0800000000000001,
        2.1000000000000001,
        2.1200000000000001,
        2.1400000000000001,
        2.1600000000000001,
        2.1800000000000002,
        2.2000000000000002,
        2.2200000000000002,
        2.2400000000000002,
        2.2599999999999998,
        2.2799999999999998,
        2.2999999999999998,
        2.3199999999999998,
        2.3399999999999999,
        2.3599999999999999,
        2.3799999999999999,
        2.3999999999999999,
        2.4199999999999999,
        2.4399999999999999,
        2.46,
        2.48,
        2.5,
        2.52,
        2.54,
        2.5600000000000001,
        2.5800000000000001,
        2.6000000000000001,
        2.6200000000000001,
        2.6400000000000001,
        2.6600000000000001,
        2.6800000000000002,
        2.7000000000000002,
        2.7200000000000002,
        2.7400000000000002,
        2.7599999999999998,
        2.7799999999999998,
        2.7999999999999998,
        2.8199999999999998,
        2.8399999999999999,
        2.8599999999999999,
        2.8799999999999999,
        2.8999999999999999,
        2.9199999999999999,
        2.9399999999999999,
        2.96,
        2.98,
        3.0,
        3.02,
        3.04,
        3.0600000000000001,
        3.0800000000000001,
        3.1000000000000001,
        3.1200000000000001,
        3.1400000000000001,
        3.1600000000000001,
        3.1800000000000002,
        3.2000000000000002,
        3.2200000000000002,
        3.2400000000000002,
        3.2599999999999998,
        3.2799999999999998,
        3.2999999999999998,
        3.3199999999999998,
        3.3399999999999999,
        3.3599999999999999,
        3.3799999999999999,
        3.3999999999999999,
        3.4199999999999999,
        3.4399999999999999,
        3.46,
        3.48,
        3.5,
        3.52,
        3.54,
        3.5600000000000001,
        3.5800000000000001,
        3.6000000000000001,
        3.6200000000000001,
        3.6400000000000001,
        3.6600000000000001,
        3.6800000000000002,
        3.7000000000000002,
        3.7200000000000002,
        3.7400000000000002,
        3.7599999999999998,
        3.7799999999999998,
        3.7999999999999998,
        3.8199999999999998,
        3.8399999999999999,
        3.8599999999999999,
        3.8799999999999999,
        3.8999999999999999,
        3.9199999999999999,
        3.9399999999999999,
        3.96,
        3.98,
        4.0,
        4.0199999999999996,
        4.04,
        4.0599999999999996,
        4.0800000000000001,
        4.0999999999999996,
        4.1200000000000001,
        4.1399999999999997,
        4.1600000000000001,
        4.1799999999999997,
        4.2000000000000002,
        4.2199999999999998,
        4.2400000000000002,
        4.2599999999999998,
        4.2800000000000002,
        4.2999999999999998,
        4.3200000000000003,
        4.3399999999999999,
        4.3600000000000003,
        4.3799999999999999,
        4.4000000000000004,
        4.4199999999999999,
        4.4400000000000004,
        4.46,
        4.4800000000000004,
        4.5,
        4.5199999999999996,
        4.54,
        4.5599999999999996,
        4.5800000000000001,
        4.5999999999999996,
        4.6200000000000001,
        4.6399999999999997,
        4.6600000000000001,
        4.6799999999999997,
        4.7000000000000002,
        4.7199999999999998,
        4.7400000000000002,
        4.7599999999999998,
        4.7800000000000002,
        4.7999999999999998,
        4.8200000000000003,
        4.8399999999999999,
        4.8600000000000003,
        4.8799999999999999,
        4.9000000000000004,
        4.9199999999999999,
        4.9400000000000004,
        4.96,
        4.9800000000000004,
        5.0,
        5.0199999999999996,
        5.04,
        5.0599999999999996,
        5.0800000000000001,
        5.0999999999999996,
        5.1200000000000001,
        5.1399999999999997,
        5.1600000000000001,
        5.1799999999999997,
        5.2000000000000002,
        5.2199999999999998,
        5.2400000000000002,
        5.2599999999999998,
        5.2800000000000002,
        5.2999999999999998,
        5.3200000000000003,
        5.3399999999999999,
        5.3600000000000003,
        5.3799999999999999,
        5.4000000000000004,
        5.4199999999999999,
        5.4400000000000004,
        5.46,
        5.4800000000000004,
        5.5,
        5.5199999999999996,
        5.54,
        5.5599999999999996,
        5.5800000000000001,
        5.5999999999999996,
        5.6200000000000001,
        5.6399999999999997,
        5.6600000000000001,
        5.6799999999999997,
        5.7000000000000002,
        5.7199999999999998,
        5.7400000000000002,
        5.7599999999999998,
        5.7800000000000002,
        5.7999999999999998,
        5.8200000000000003,
        5.8399999999999999,
        5.8600000000000003,
        5.8799999999999999,
        5.9000000000000004,
        5.9199999999999999,
        5.9400000000000004,
        5.96,
        5.9800000000000004,
        6.0,
        6.0199999999999996,
        6.04,
        6.0599999999999996,
        6.0800000000000001,
        6.0999999999999996,
        6.1200000000000001,
        6.1399999999999997,
        6.1600000000000001,
        6.1799999999999997,
        6.2000000000000002,
        6.2199999999999998,
        6.2400000000000002,
        6.2599999999999998,
        6.2800000000000002,
        6.2999999999999998,
        6.3200000000000003,
        6.3399999999999999,
        6.3600000000000003,
        6.3799999999999999,
        6.4000000000000004,
        6.4199999999999999,
        6.4400000000000004,
        6.46,
        6.4800000000000004,
        6.5,
        6.5199999999999996,
        6.54,
        6.5599999999999996,
        6.5800000000000001,
        6.5999999999999996,
        6.6200000000000001,
        6.6399999999999997,
        6.6600000000000001,
        6.6799999999999997,
        6.7000000000000002,
        6.7199999999999998,
        6.7400000000000002,
        6.7599999999999998,
        6.7800000000000002,
        6.7999999999999998,
        6.8200000000000003,
        6.8399999999999999,
        6.8600000000000003,
        6.8799999999999999,
        6.9000000000000004,
        6.9199999999999999,
        6.9400000000000004,
        6.96,
        6.9800000000000004,
        7.0,
        7.0199999999999996,
        7.04,
        7.0599999999999996,
        7.0800000000000001,
        7.0999999999999996,
        7.1200000000000001,
        7.1399999999999997,
        7.1600000000000001,
        7.1799999999999997,
        7.2000000000000002,
        7.2199999999999998,
        7.2400000000000002,
        7.2599999999999998,
        7.2800000000000002,
        7.2999999999999998,
        7.3200000000000003,
        7.3399999999999999,
        7.3600000000000003,
        7.3799999999999999,
        7.4000000000000004,
        7.4199999999999999,
        7.4400000000000004,
        7.46,
        7.4800000000000004,
        7.5,
        7.5199999999999996,
        7.54,
        7.5599999999999996,
        7.5800000000000001,
        7.5999999999999996,
        7.6200000000000001,
        7.6399999999999997,
        7.6600000000000001,
        7.6799999999999997,
        7.7000000000000002,
        7.7199999999999998,
        7.7400000000000002,
        7.7599999999999998,
        7.7800000000000002,
        7.7999999999999998,
        7.8200000000000003,
        7.8399999999999999,
        7.8600000000000003,
        7.8799999999999999,
        7.9000000000000004,
        7.9199999999999999,
        7.9400000000000004,
        7.96,
        7.9800000000000004,
        8.0,
        8.0199999999999996,
        8.0399999999999991,
        8.0600000000000005,
        8.0800000000000001,
        8.0999999999999996,
        8.1199999999999992,
        8.1400000000000006,
        8.1600000000000001,
        8.1799999999999997,
        8.1999999999999993,
        8.2200000000000006,
        8.2400000000000002,
        8.2599999999999998,
        8.2799999999999994,
        8.3000000000000007,
        8.3200000000000003,
        8.3399999999999999,
        8.3599999999999994,
        8.3800000000000008,
        8.4000000000000004,
        8.4199999999999999,
        8.4399999999999995,
        8.4600000000000009,
        8.4800000000000004,
        8.5,
        8.5199999999999996,
        8.5399999999999991,
        8.5600000000000005,
        8.5800000000000001,
        8.5999999999999996,
        8.6199999999999992,
        8.6400000000000006,
        8.6600000000000001,
        8.6799999999999997,
        8.6999999999999993,
        8.7200000000000006,
        8.7400000000000002,
        8.7599999999999998,
        8.7799999999999994,
        8.8000000000000007,
        8.8200000000000003,
        8.8399999999999999,
        8.8599999999999994,
        8.8800000000000008,
        8.9000000000000004,
        8.9199999999999999,
        8.9399999999999995,
        8.9600000000000009,
        8.9800000000000004,
        9.0,
        9.0199999999999996,
        9.0399999999999991,
        9.0600000000000005,
        9.0800000000000001,
        9.0999999999999996,
        9.1199999999999992,
        9.1400000000000006,
        9.1600000000000001,
        9.1799999999999997,
        9.1999999999999993,
        9.2200000000000006,
        9.2400000000000002,
        9.2599999999999998,
        9.2799999999999994,
        9.3000000000000007,
        9.3200000000000003,
        9.3399999999999999,
        9.3599999999999994,
        9.3800000000000008,
        9.4000000000000004,
        9.4199999999999999,
        9.4399999999999995,
        9.4600000000000009,
        9.4800000000000004,
        9.5,
        9.5199999999999996,
        9.5399999999999991,
        9.5600000000000005,
        9.5800000000000001,
        9.5999999999999996,
        9.6199999999999992,
        9.6400000000000006,
        9.6600000000000001,
        9.6799999999999997,
        9.6999999999999993,
        9.7200000000000006,
        9.7400000000000002,
        9.7599999999999998,
        9.7799999999999994,
        9.8000000000000007,
        9.8200000000000003,
        9.8399999999999999,
        9.8599999999999994,
        9.8800000000000008,
        9.9000000000000004,
        9.9199999999999999,
        9.9399999999999995,
        9.9600000000000009,
        9.9800000000000004,
        10.0,
        10.02,
        10.039999999999999,
        10.06,
        10.08,
        10.1,
        10.119999999999999,
        10.140000000000001,
        10.16,
        10.18,
        10.199999999999999,
        10.220000000000001,
        10.24,
        10.26,
        10.279999999999999,
        10.300000000000001,
        10.32,
        10.34,
        10.359999999999999,
        10.380000000000001,
        10.4,
        10.42,
        10.44,
        10.460000000000001,
        10.48,
        10.5,
        10.52,
        10.539999999999999,
        10.56,
        10.58,
        10.6,
        10.619999999999999,
        10.640000000000001,
        10.66,
        10.68,
        10.699999999999999,
        10.720000000000001,
        10.74,
        10.76,
        10.779999999999999,
        10.800000000000001,
        10.82,
        10.84,
        10.859999999999999,
        10.880000000000001,
        10.9,
        10.92,
        10.94,
        10.960000000000001,
        10.98,
        11.0,
        11.02,
        11.039999999999999,
        11.06,
        11.08,
        11.1,
        11.119999999999999,
        11.140000000000001,
        11.16,
        11.18,
        11.199999999999999,
        11.220000000000001,
        11.24,
        11.26,
        11.279999999999999,
        11.300000000000001,
        11.32,
        11.34,
        11.359999999999999,
        11.380000000000001,
        11.4,
        11.42,
        11.44,
        11.460000000000001,
        11.48,
        11.5,
        11.52,
        11.539999999999999,
        11.56,
        11.58,
        11.6,
        11.619999999999999,
        11.640000000000001,
        11.66,
        11.68,
        11.699999999999999,
        11.720000000000001,
        11.74,
        11.76,
        11.779999999999999,
        11.800000000000001,
        11.82,
        11.84,
        11.859999999999999,
        11.880000000000001,
        11.9,
        11.92,
        11.94,
        11.960000000000001,
        11.98,
        12.0,
        12.02,
        12.039999999999999,
        12.06,
        12.08,
        12.1,
        12.119999999999999,
        12.140000000000001,
        12.16,
        12.18,
        12.199999999999999,
        12.220000000000001,
        12.24,
        12.26,
        12.279999999999999,
        12.300000000000001,
        12.32,
        12.34,
        12.359999999999999,
        12.380000000000001
    ]
}