{
    "DU": 83,
    "DV": 300,
    "F-measure": 0.12855007473841554,
    "F-measure Chroma": 0.3408071748878924,
    "FN": 46,
    "FNC": 0,
    "FNCch": 4,
    "FNI": 46,
    "FNIch": 42,
    "FP": 51,
    "GU": 88,
    "GV": 295,
    "Overall Accuracy": 0.1122715404699739,
    "Overall Chroma Accuracy": 0.29765013054830286,
    "Precision": 0.12759643916913946,
    "Precision Chroma": 0.33827893175074186,
    "Raw Chroma Accuracy": 0.2745762711864407,
    "Raw Pitch Accuracy": 0.020338983050847456,
    "Recall": 0.12951807228915663,
    "Recall Chroma": 0.3433734939759036,
    "TN": 37,
    "TO": 383,
    "TP": 249,
    "TPC": 6,
    "TPCch": 77,
    "TPI": 243,
    "TPIch": 172,
    "Voiced Chroma Accuracy": 0.26101694915254237,
    "Voiced Pitch Accuracy": 0.020338983050847456,
    "Voicing Accuracy": 0.7467362924281984,
    "Voicing Detection": 0.8440677966101695,
    "Voicing False Alarm": 0.5795454545454546
}