{
    "DU": 144,
    "DV": 371,
    "F-measure": 0.8974619289340101,
    "F-measure Chroma": 0.950253807106599,
    "FN": 33,
    "FNC": 16,
    "FNCch": 23,
    "FNI": 17,
    "FNIch": 10,
    "FP": 12,
    "GU": 123,
    "GV": 392,
    "Overall Accuracy": 0.858252427184466,
    "Overall Chroma Accuracy": 0.9087378640776699,
    "Precision": 0.91701244813278,
    "Precision Chroma": 0.970954356846473,
    "Raw Chroma Accuracy": 0.9693877551020408,
    "Raw Pitch Accuracy": 0.8852040816326531,
    "Recall": 0.878727634194831,
    "Recall Chroma": 0.9304174950298211,
    "TN": 111,
    "TO": 515,
    "TP": 359,
    "TPC": 331,
    "TPCch": 357,
    "TPI": 28,
    "TPIch": 2,
    "Voiced Chroma Accuracy": 0.9107142857142857,
    "Voiced Pitch Accuracy": 0.8443877551020408,
    "Voicing Accuracy": 0.912621359223301,
    "Voicing Detection": 0.9158163265306123,
    "Voicing False Alarm": 0.0975609756097561
}