{
    "DU": 10,
    "DV": 301,
    "F-measure": 0.9320066334991707,
    "F-measure Chroma": 0.9452736318407959,
    "FN": 1,
    "FNC": 0,
    "FNCch": 1,
    "FNI": 1,
    "FNIch": 0,
    "FP": 18,
    "GU": 27,
    "GV": 284,
    "Overall Accuracy": 0.9035369774919614,
    "Overall Chroma Accuracy": 0.9163987138263665,
    "Precision": 0.9064516129032258,
    "Precision Chroma": 0.9193548387096774,
    "Raw Chroma Accuracy": 0.9753521126760564,
    "Raw Pitch Accuracy": 0.9577464788732394,
    "Recall": 0.9590443686006825,
    "Recall Chroma": 0.9726962457337884,
    "TN": 9,
    "TO": 311,
    "TP": 283,
    "TPC": 272,
    "TPCch": 276,
    "TPI": 11,
    "TPIch": 7,
    "Voiced Chroma Accuracy": 0.971830985915493,
    "Voiced Pitch Accuracy": 0.9577464788732394,
    "Voicing Accuracy": 0.9389067524115756,
    "Voicing Detection": 0.9964788732394366,
    "Voicing False Alarm": 0.6666666666666666
}