{
    "f0": [
        37.015442845557601,
        41.611312443615887,
        35.701143564476183,
        53.606422398247439,
        46.151850238137115,
        46.060350073535922,
        47.146322604577833,
        48.16817628027006,
        49.133062220074024,
        49.158992095831749,
        51.404680331124382,
        0.0,
        46.399738315703111,
        0.0,
        0.0,
        0.0,
        50.747696101543923,
        49.567602572383414,
        49.426355395298799,
        49.283948174047026,
        49.461432925290488,
        49.909568198293542,
        50.0401072781778,
        49.795029294523914,
        49.546430228549795,
        49.120218169166748,
        48.598933369295608,
        48.383002348238044,
        47.207765294984938,
        46.662227743275523,
        46.914175699164993,
        0.0,
        0.0,
        0.0,
        37.601813726080536,
        50.281273899167203,
        50.624097681877153,
        50.796360687502656,
        51.139190800895527,
        51.304349362035538,
        51.378028033685588,
        51.54623001925934,
        51.721474441203434,
        51.86115288442528,
        51.935905621970271,
        52.201592104748173,
        52.195334744597105,
        52.292058658884599,
        52.74770011229969,
        54.429335932618201,
        54.518530037575552,
        54.686214199133403,
        54.985503158524963,
        55.214348354726383,
        55.298499847547092,
        55.382246868268716,
        55.637849879458521,
        55.805060774232196,
        55.759780329390516,
        55.642192027575419,
        55.663751626839371,
        55.512164297015133,
        55.42279578529547,
        55.473309031336726,
        55.642114149193596,
        55.4009838854859,
        0.0,
        40.53448039400223,
        56.018603679374785,
        56.018603679374785,
        56.190865537701086,
        56.24906893580588,
        56.307077393787296,
        56.537157113634223,
        56.851686109348108,
        57.209944837055787,
        57.536780980625217,
        57.746478992319439,
        57.967114840737999,
        58.004340076646209,
        57.885887510215866,
        57.418546297069113,
        56.590725804555674,
        0.0,
        0.0,
        0.0,
        0.0,
        0.0,
        38.067902835072232,
        55.658633797117623,
        55.60421750969131,
        55.631773214923591,
        55.692238459895059,
        55.75249714849484,
        55.83648465857901,
        55.928996542013579,
        55.931920271338974,
        55.8054479482213,
        55.836261204552969,
        56.028054463132754,
        56.003871618926077,
        55.989273253332215,
        55.917856768320476,
        55.910545186120231,
        56.04330795283412,
        56.053289346599286,
        55.950225126982417,
        55.882689749399262,
        55.787844450644997,
        55.745736393555589,
        55.849111730350273,
        55.951874625632357,
        55.927817552112074,
        55.878763579480776,
        55.867987536884421,
        55.9154689565365,
        55.925011948245128,
        55.966007434495282,
        55.991222081741142,
        55.989609363056893,
        56.155282163932341,
        56.175580380272919,
        56.093830640161279,
        56.136829507180074,
        55.961590176027357,
        56.030679551514673,
        55.86793755090887,
        55.770996484383474,
        0.0,
        77.110677186587139,
        76.760922659135304,
        77.272659207992362,
        65.011770985096419,
        55.731748202226903,
        61.291463748823972,
        54.15928133558802,
        46.39083955613274,
        46.326115652135051,
        0.0,
        0.0,
        0.0,
        0.0,
        0.0,
        71.884934795934939,
        52.535914666174605,
        51.89514648914718,
        51.575336959542781,
        51.401340666116297,
        52.165995311011848,
        51.412966041367227,
        51.289137429320959,
        51.842238643247867,
        52.35217149434618,
        52.153446204602929,
        51.952416427684739,
        52.17114605915657,
        52.450499456694814,
        52.866531800073517,
        53.376293934507316,
        53.821255552441599,
        54.105578933282239,
        54.285019641385524,
        54.73971465847292,
        55.048280187201897,
        54.885361062843785,
        54.716962679745215,
        54.648811629652386,
        54.580389880856607,
        54.54701815991433,
        54.513584711895568,
        54.414204494083805,
        54.44374991289186,
        54.654668617581038,
        54.945924973090541,
        55.19165490995136,
        55.280028117130684,
        55.144554739102311,
        55.025424488213432,
        54.896705267197788,
        54.767019144822541,
        54.636354121297117,
        54.347047680349718,
        53.959182394346676,
        53.260644579977146,
        53.202488524371368,
        53.82013884744147,
        54.478180918316937,
        54.375700380809278,
        55.971158810537695,
        55.905971835406788,
        53.84185174844059,
        54.145112693437369,
        54.536293814374616,
        54.744662780968071,
        55.036827860101752,
        55.10777685165602,
        55.355901752192494,
        55.339264995503612,
        55.354138919330424,
        55.522472343546205,
        55.655019900088192,
        55.629527549258881,
        55.431149744185817,
        54.611392938775722,
        55.354148179193437,
        0.0,
        0.0,
        0.0,
        0.0,
        0.0,
        0.0,
        0.0,
        0.0,
        0.0,
        0.0,
        0.0,
        0.0,
        0.0,
        0.0,
        36.684837496426269,
        47.79211512954312,
        48.159114302422857,
        48.344501787060082,
        48.331924547168867,
        48.284051331594178,
        48.057249454906668,
        47.827445141447654,
        47.59454295113747,
        47.783169031360657,
        48.082961413818495,
        48.563573048850813,
        49.031202050756207,
        49.073398701557579,
        48.973035838870487,
        48.690632657389429,
        48.496028479778253,
        48.078507140508023,
        49.115737076825404,
        48.967002175775711,
        0.0,
        0.0,
        0.0,
        0.0,
        0.0,
        65.315822316514698,
        49.103836913593213,
        48.175100501479911,
        47.825346126246288,
        47.825346126246288,
        47.779512384895057,
        47.979287539587887,
        47.965887775513572,
        48.157539578167899,
        48.347096849324146,
        48.374544305525632,
        48.301927046071796,
        48.229001948255942,
        48.328031381251698,
        48.633370736302851,
        48.709215900277492,
        48.62368623630082,
        48.821706829915911,
        49.256432290175127,
        49.680513750963499,
        49.920462955754601,
        49.89340336688533,
        49.3106454696592,
        48.779070999989358,
        46.384653307511378,
        45.224276282684094,
        41.714133063039817,
        37.970635283437865,
        0.0,
        0.0,
        0.0,
        0.0,
        0.0,
        0.0,
        0.0,
        0.0,
        0.0,
        0.0,
        0.0,
        0.0,
        0.0,
        0.0,
        0.0,
        0.0,
        0.0,
        0.0,
        0.0,
        0.0,
        0.0,
        0.0,
        0.0,
        0.0,
        0.0,
        0.0,
        0.0,
        0.0,
        0.0,
        0.0
    ],
    "time": [
        0.02,
        0.040000000000000001,
        0.059999999999999998,
        0.080000000000000002,
        0.10000000000000001,
        0.12,
        0.14000000000000001,
        0.16,
        0.17999999999999999,
        0.20000000000000001,
        0.22,
        0.23999999999999999,
        0.26000000000000001,
        0.28000000000000003,
        0.29999999999999999,
        0.32000000000000001,
        0.34000000000000002,
        0.35999999999999999,
        0.38,
        0.40000000000000002,
        0.41999999999999998,
        0.44,
        0.46000000000000002,
        0.47999999999999998,
        0.5,
        0.52000000000000002,
        0.54000000000000004,
        0.56000000000000005,
        0.57999999999999996,
        0.59999999999999998,
        0.62,
        0.64000000000000001,
        0.66000000000000003,
        0.68000000000000005,
        0.69999999999999996,
        0.71999999999999997,
        0.73999999999999999,
        0.76000000000000001,
        0.78000000000000003,
        0.80000000000000004,
        0.81999999999999995,
        0.83999999999999997,
        0.85999999999999999,
        0.88,
        0.90000000000000002,
        0.92000000000000004,
        0.93999999999999995,
        0.95999999999999996,
        0.97999999999999998,
        1.0,
        1.02,
        1.04,
        1.0600000000000001,
        1.0800000000000001,
        1.1000000000000001,
        1.1200000000000001,
        1.1399999999999999,
        1.1599999999999999,
        1.1799999999999999,
        1.2,
        1.22,
        1.24,
        1.26,
        1.28,
        1.3,
        1.3200000000000001,
        1.3400000000000001,
        1.3600000000000001,
        1.3799999999999999,
        1.3999999999999999,
        1.4199999999999999,
        1.4399999999999999,
        1.46,
        1.48,
        1.5,
        1.52,
        1.54,
        1.5600000000000001,
        1.5800000000000001,
        1.6000000000000001,
        1.6200000000000001,
        1.6399999999999999,
        1.6599999999999999,
        1.6799999999999999,
        1.7,
        1.72,
        1.74,
        1.76,
        1.78,
        1.8,
        1.8200000000000001,
        1.8400000000000001,
        1.8600000000000001,
        1.8799999999999999,
        1.8999999999999999,
        1.9199999999999999,
        1.9399999999999999,
        1.96,
        1.98,
        2.0,
        2.02,
        2.04,
        2.0600000000000001,
        2.0800000000000001,
        2.1000000000000001,
        2.1200000000000001,
        2.1400000000000001,
        2.1600000000000001,
        2.1800000000000002,
        2.2000000000000002,
        2.2200000000000002,
        2.2400000000000002,
        2.2599999999999998,
        2.2799999999999998,
        2.2999999999999998,
        2.3199999999999998,
        2.3399999999999999,
        2.3599999999999999,
        2.3799999999999999,
        2.3999999999999999,
        2.4199999999999999,
        2.4399999999999999,
        2.46,
        2.48,
        2.5,
        2.52,
        2.54,
        2.5600000000000001,
        2.5800000000000001,
        2.6000000000000001,
        2.6200000000000001,
        2.6400000000000001,
        2.6600000000000001,
        2.6800000000000002,
        2.7000000000000002,
        2.7200000000000002,
        2.7400000000000002,
        2.7599999999999998,
        2.7799999999999998,
        2.7999999999999998,
        2.8199999999999998,
        2.8399999999999999,
        2.8599999999999999,
        2.8799999999999999,
        2.8999999999999999,
        2.9199999999999999,
        2.9399999999999999,
        2.96,
        2.98,
        3.0,
        3.02,
        3.04,
        3.0600000000000001,
        3.0800000000000001,
        3.1000000000000001,
        3.1200000000000001,
        3.1400000000000001,
        3.1600000000000001,
        3.1800000000000002,
        3.2000000000000002,
        3.2200000000000002,
        3.2400000000000002,
        3.2599999999999998,
        3.2799999999999998,
        3.2999999999999998,
        3.3199999999999998,
        3.3399999999999999,
        3.3599999999999999,
        3.3799999999999999,
        3.3999999999999999,
        3.4199999999999999,
        3.4399999999999999,
        3.46,
        3.48,
        3.5,
        3.52,
        3.54,
        3.5600000000000001,
        3.5800000000000001,
        3.6000000000000001,
        3.6200000000000001,
        3.6400000000000001,
        3.6600000000000001,
        3.6800000000000002,
        3.7000000000000002,
        3.7200000000000002,
        3.7400000000000002,
        3.7599999999999998,
        3.7799999999999998,
        3.7999999999999998,
        3.8199999999999998,
        3.8399999999999999,
        3.8599999999999999,
        3.8799999999999999,
        3.8999999999999999,
        3.9199999999999999,
        3.9399999999999999,
        3.96,
        3.98,
        4.0,
        4.0199999999999996,
        4.04,
        4.0599999999999996,
        4.0800000000000001,
        4.0999999999999996,
        4.1200000000000001,
        4.1399999999999997,
        4.1600000000000001,
        4.1799999999999997,
        4.2000000000000002,
        4.2199999999999998,
        4.2400000000000002,
        4.2599999999999998,
        4.2800000000000002,
        4.2999999999999998,
        4.3200000000000003,
        4.3399999999999999,
        4.3600000000000003,
        4.3799999999999999,
        4.4000000000000004,
        4.4199999999999999,
        4.4400000000000004,
        4.46,
        4.4800000000000004,
        4.5,
        4.5199999999999996,
        4.54,
        4.5599999999999996,
        4.5800000000000001,
        4.5999999999999996,
        4.6200000000000001,
        4.6399999999999997,
        4.6600000000000001,
        4.6799999999999997,
        4.7000000000000002,
        4.7199999999999998,
        4.7400000000000002,
        4.7599999999999998,
        4.7800000000000002,
        4.7999999999999998,
        4.8200000000000003,
        4.8399999999999999,
        4.8600000000000003,
        4.8799999999999999,
        4.9000000000000004,
        4.9199999999999999,
        4.9400000000000004,
        4.96,
        4.9800000000000004,
        5.0,
        5.0199999999999996,
        5.04,
        5.0599999999999996,
        5.0800000000000001,
        5.0999999999999996,
        5.1200000000000001,
        5.1399999999999997,
        5.1600000000000001,
        5.1799999999999997,
        5.2000000000000002,
        5.2199999999999998,
        5.2400000000000002,
        5.2599999999999998,
        5.2800000000000002,
        5.2999999999999998,
        5.3200000000000003,
        5.3399999999999999,
        5.3600000000000003,
        5.3799999999999999,
        5.4000000000000004,
        5.4199999999999999,
        5.4400000000000004,
        5.46,
        5.4800000000000004,
        5.5,
        5.5199999999999996,
        5.54,
        5.5599999999999996,
        5.5800000000000001,
        5.5999999999999996,
        5.6200000000000001,
        5.6399999999999997,
        5.6600000000000001,
        5.6799999999999997,
        5.7000000000000002,
        5.7199999999999998,
        5.7400000000000002,
        5.7599999999999998,
        5.7800000000000002,
        5.7999999999999998,
        5.8200000000000003,
        5.8399999999999999,
        5.8600000000000003,
        5.8799999999999999,
        5.9000000000000004,
        5.9199999999999999,
        5.9400000000000004,
        5.96,
        5.9800000000000004,
        6.0,
        6.0199999999999996,
        6.04
    ]
}