{
	"f0": [NaN,43.34289791,43.35998147,43.34125458,43.34708627,43.31944562,37.28787017,43.35327645,43.32677055,43.40981899,43.41197688,43.35167885,43.30084208,43.41924667,43.42323351,37.39886491,43.34168869,37.39117205,37.39067484,43.42084037,43.34800525,35.33593275,43.35068782,37.3394804,40.87081931,43.33471192,43.37685031,43.3311112,43.32726608,43.38726095,37.3354394,43.32092411,43.31485511,43.33421201,43.30665471,43.33536493,35.34147765,43.34880753,37.39617141,45.31303395,43.31541561,43.34329423,43.37012852,43.34733886,43.39784596,43.38144185,37.32960334,64.57943683,64.69684598,37.4021362,43.36346771,43.36915414,43.35414065,43.33282219,37.28843718,43.34421623,43.3504696,43.37535837,43.40084355,43.36149663,37.35403125,35.39897001,43.27922486,43.35123787,43.41505707,41.1036901,37.37541489,43.33384387,43.32143106,43.33742742,43.32920633,43.33635991,46.18982191,37.2653774,43.35180131,43.34370163,35.37937301,43.3734221,43.38060937,37.3810881,37.35200058,43.38005232,43.3436036,43.39205061,43.44824877,43.34627417,43.34433864,37.47104397,43.31098289,43.34891826,43.36430484,43.34165379,43.33740854,43.351991,43.34420729,43.29290097,43.33604099,43.39534233,37.31320592,37.28634923,43.31574412,43.31198041,43.38638143,43.34825002,41.71935802,41.63907199,43.39174965,41.67389466,43.21701624,37.33946342,37.13756892,45.75876409,45.91717468,46.13827857,43.28206103,43.45849939,37.32411749,37.40196685,46.14381403,43.35201352,46.16354076,43.46063711,44.00918464,44.12444074,37.82762327,46.29130769,46.29130769,43.56772588,43.77697103,44.4214935,58.30127681,57.18185133,57.05767078,57.4809424,57.60885742,57.71422023,57.94175443,58.2219076,58.3317783,58.28061464,58.11728256,57.99442191,57.79528871,57.498057,57.45265705,57.49198097,57.97991085,58.14763225,58.16197115,58.15390087,58.0795484,58.02056024,57.98696309,57.88988048,57.64826679,57.41575885,57.68080901,57.99583641,58.12511055,58.2413445,58.19949079,56.17403243,63.14399075,61.98124038,61.73119369,61.60682017,61.65656808,61.90663083,62.55520073,63.37392807,63.67986316,63.79669441,63.79571797,63.70436448,63.53364781,63.28977842,62.96815236,62.65879347,62.40090831,62.98568662,63.16381397,63.04271523,62.98266735,62.9863998,62.99029063,63.07759378,63.13472818,63.12642064,63.10996826,62.79050437,62.05063855,60.99259327,62.02726286,58.453168,45.16764315,44.8231571,42.38746975,61.85951799,61.50835284,61.24062309,61.17124276,61.22514383,61.32197317,61.40139807,61.45456502,61.52635446,61.52894468,61.30009158,60.99690189,60.66377676,60.6181101,50.72886116,45.7556134,46.8054367,46.1313752,62.14376778,61.59393125,61.23806855,61.25872179,61.54745223,62.12152497,62.94313348,63.24411131,63.30061071,63.18111169,62.94331878,62.81175013,62.85409407,62.87244266,62.98795857,63.20602055,63.2690903,63.23895431,63.18093938,63.0762412,63.01661514,63.06014097,63.13043834,63.17690696,63.19626424,63.25323258,63.31399436,63.31628466,63.3094296,63.19686612,62.33776492,60.85094342,61.83677829,42.71262168,41.66736121,37.41937686,36.55225147,43.40034404,37.3709473,36.50749842,36.11530043,43.34656136,37.95933371,43.42794408,43.56772588,43.19092756,43.13412827,36.17378451,37.63772,45.24503101,45.17399484,57.47987825,44.06688273,44.02427284,43.9232118,55.93582398,56.05249474,56.29865607,56.63763143,56.8626077,56.99883559,57.18743202,57.36133874,57.52755381,57.53137328,57.14697802,56.19433552,55.66231715,56.05951064,57.38677,57.84193194,57.68091259,57.62423106,57.61504881,57.57273806,57.49773002,57.55362958,57.82673642,58.09314067,58.30636425,58.33387788,58.04267277,56.88228045,46.9446811,36.90789826,42.88714791,43.80086126,62.90935501,62.47894494,61.91962385,61.93718972,62.22952312,62.86260298,63.27002161,63.41394386,63.37374188,63.28918709,63.22741377,63.14517195,62.95474864,62.47728003,62.61482613,62.93853382,63.05083961,63.07723522,63.0271135,62.9385075,62.90195518,62.88969617,62.8648237,62.8572649,62.7381595,62.29062303,61.61094203,62.17980843,62.41688936,63.48682058,37.83677829,35.54019024,38.76914693,38.78677411,35.34887861,38.60798737,38.8327905,35.34887861,63.06007084,62.98807274,63.12469988,63.0923967,63.18962422,63.13725478,62.98296068,62.84094377,62.72476822,62.63536715,62.72458073,62.88023169,62.9198839,62.94133107,62.96111811,62.90159458,62.81664251,62.73394234,62.67569931,62.67751566,62.65388858,NaN,NaN,NaN],
	"ap0": [NaN,0.5146861869,0.4712956158,0.3949674029,0.4998865217,0.5777804944,0.536750563,0.6321064667,0.569858583,0.5854025802,0.5357018346,0.5509734758,0.644292938,0.638943836,0.5266368371,0.4722683253,0.5336480407,0.6707061771,0.7153737117,0.6065839596,0.6167316871,0.619308963,0.6734328695,0.6665608429,0.6021754086,0.5402576522,0.5073530086,0.5710897114,0.7097289333,0.6613682132,0.53682489,0.5427016214,0.5118573775,0.5531358895,0.5786102519,0.6421431669,0.6806824882,0.6191432603,0.7468349584,0.7617437945,0.6897392166,0.552795229,0.454263235,0.5374089324,0.5701858857,0.5234209204,0.5533339008,0.7117106811,0.9310112679,0.7288250081,0.5458182499,0.5435596153,0.53653607,0.5330170271,0.572294862,0.5578334903,0.4817922602,0.6496569524,0.6251445239,0.5219855214,0.6106660092,0.6089034471,0.5493858749,0.5454219278,0.5979745256,0.7169994154,0.6255035629,0.4278609886,0.5496924468,0.4747216884,0.4557635125,0.5936571612,0.7020263962,0.7031203023,0.5324527358,0.5578265593,0.6532427426,0.4293913072,0.6094681521,0.6501164082,0.6962581976,0.5351038833,0.5023048437,0.6702452474,0.6926355614,0.4481610502,0.5070308383,0.698770749,0.5822242284,0.5323600055,0.5423657729,0.5973981839,0.5646815988,0.6321406004,0.7465253046,0.4785971364,0.3752484415,0.5794398847,0.6233963609,0.566577627,0.67655239,0.7089085951,0.6478402103,0.6383895441,0.7623141446,0.6834544033,0.6913972453,0.60247716,0.66617401,0.5528371338,0.5674989966,0.6671789377,0.6613793349,0.7333074661,0.7266040882,0.7020498447,0.5737107258,0.7042342697,0.7268473222,0.6915104676,0.4662202304,0.6217496039,0.540766752,0.6065261417,0.7700905695,0.3293573107,0.4422463293,0.5578006859,0.3243592606,0.6846347784,0.2856685334,0.1033135334,0.02534853434,0.01050963834,0.008501060103,0.006499678482,0.008199735134,0.005588458369,0.001967917243,0.001497343352,0.002094628626,0.001335347338,0.006854931319,0.006006792768,0.003493264896,0.007918164655,0.0215292738,0.008440191719,0.003083060383,0.001580056985,0.001610968719,0.001812539685,0.001667681655,0.004348950514,0.009587019725,0.005063777983,0.006598458361,0.01399613218,0.01438566233,0.01567998723,0.09513671767,0.504076689,0.3368595662,0.09465191337,0.0265356827,0.003617013831,0.004203755414,0.01116943161,0.02155692747,0.0113452318,0.00339825269,0.0008508139721,0.0006823675469,0.000747559824,0.00159503853,0.002732288039,0.01729778363,0.02343107827,0.009942309839,0.03883105616,0.02413642736,0.006451422599,0.002025640343,0.001397218858,0.001648299812,0.001971013178,0.0009010878333,0.001136178263,0.00131688314,0.01770580481,0.05041434418,0.05258289293,0.5907129327,1.09985638,0.4532484207,0.6523174544,1.000317876,0.1620013429,0.06096829646,0.004569105813,0.001298968705,0.001166943964,0.0009371682337,0.000683879535,0.0005269300925,0.0008651813768,0.001898230285,0.004052883062,0.01286515632,0.03326216412,0.525737044,0.8077943729,0.7144198949,0.583479302,0.7008748487,0.1941592181,0.08568345052,0.02594402305,0.002963333127,0.00707955381,0.01998569423,0.009599918906,0.003072106094,0.001781818514,0.002863492452,0.00400222249,0.001577972031,0.001252817929,0.001415999187,0.002741151916,0.002131012092,0.000840867904,0.0006590859082,0.001373733965,0.001843424112,0.001334781451,0.001360291657,0.001087996836,0.000868929063,0.001094409466,0.001140243712,0.0009122303794,0.0009920774761,0.001063980889,0.02254826821,0.1117923831,0.06444527093,0.5896854601,0.3344907596,0.4127436791,0.64423553,0.7197050974,0.7421235843,0.6548731097,0.5713916656,0.7055128499,0.7094421388,0.7770615552,0.6990217137,0.5686384935,0.5523490542,0.54472213,0.5981661207,0.8408613387,0.360187164,0.4360652994,0.2917459653,0.1581574696,0.05443843314,0.02909870116,0.01959845321,0.005357223985,0.006387624797,0.00655999495,0.002238543979,0.002711936871,0.003330125618,0.003071749407,0.003441207626,0.006551884178,0.02055501024,0.02114213809,0.01201327711,0.04346499901,0.07251616079,0.01509177338,0.004072646707,0.002320893775,0.00144235485,0.00204000147,0.00285206637,0.006580539411,0.009237568346,0.006377620596,0.006609610235,0.007330038756,0.05399272603,0.4604396012,0.8333608076,0.8839200444,0.4570934453,0.8725066108,0.1172087682,0.074687049,0.00644085298,0.002255573324,0.01030785608,0.008810573597,0.004990052666,0.001500990127,0.001002629879,0.0009601683488,0.001043467607,0.001352066526,0.01478542909,0.02347681658,0.009874468271,0.005824406067,0.002422881057,0.001165470168,0.001464833077,0.001450713373,0.0009821908901,0.0006727973951,0.0007018169139,0.0007737309249,0.003451444118,0.05295515072,0.1087036814,0.2663029046,0.2043823908,1.380555026,0.4105440268,0.1716451356,0.4083307711,0.3665658623,0.2314008339,0.2803874228,0.176781016,0.2424118222,0.1637130823,0.06674484029,0.0947165967,0.04966344374,0.1008740135,0.125250819,0.0336635838,0.01167440464,0.008427034402,0.009958235063,0.01349435064,0.01109715357,0.005914170455,0.006772327109,0.01026678703,0.01274947367,0.01475940611,0.01988543166,0.01721959202,0.01024029446,0.01024871708,NaN,NaN,NaN],
	"ap": [NaN,0.1624811802,0.2833548792,0.2410934551,0.2018851769,0.2066647527,0.3537443595,0.3701240099,0.2506747846,0.2559898897,0.2682819073,0.2935095299,0.2553584855,0.3965185262,0.201090277,0.2585580965,0.3265320393,0.2210652892,0.2368804523,0.2657359688,0.2211009955,0.2340427847,0.3727654195,0.1934744902,0.3238289998,0.249873629,0.2905473668,0.2135461284,0.2419984001,0.4892881621,0.3722157989,0.2074642241,0.3367453447,0.2643767902,0.1700152093,0.2110521573,0.3222015129,0.4150286591,0.2650632236,0.6103807674,0.5055329277,0.2178108039,0.2291053197,0.2094913644,0.3190771141,0.2919799894,0.2426583896,0.3267130129,0.1403797662,0.4506386141,0.4643693917,0.3398570457,0.2157168923,0.288613529,0.2150220607,0.3140087375,0.2003611525,0.2606022782,0.2333718193,0.3992185182,0.4153322629,0.3087322405,0.3166940104,0.3463938202,0.4100337999,0.3413504883,0.1911282248,0.1772989301,0.1619790241,0.3328911023,0.1840457669,0.2983986468,0.7016533462,0.335114874,0.2941421187,0.1762757589,0.3495928116,0.3713758346,0.1910461323,0.2223393529,0.3744018628,0.2256725376,0.2332361354,0.2154692757,0.4791041289,0.2997965205,0.389871118,0.2936852817,0.4390472714,0.3323669716,0.2291975426,0.2552177949,0.3334389996,0.2295643662,0.2859853816,0.4036451403,0.2037019348,0.2529410883,0.3929291978,0.2634263391,0.290343323,0.2563603544,0.3718090979,0.2990627728,0.3015817605,0.3329375345,0.4563459751,0.2999519716,0.2663943428,0.2726817099,0.2016545026,0.3774105637,0.2450302325,0.3914215077,0.2278470334,0.3170789149,0.3479618037,0.218830125,0.3740838216,0.279806491,0.1980993013,0.3393925302,0.4713480412,0.6852119033,0.5881903097,0.508257879,0.5490958731,0.3878057551,0.4576410668,0.2489500953,0.76500027,0.480464055,0.1071557239,0.01612411229,0.005816097275,0.005918917232,0.005452226774,0.01296975653,0.004380056829,0.00125755102,0.001759373992,0.001895983888,0.001225671428,0.01109160557,0.001030323633,0.003607281421,0.009575491444,0.01724861738,0.007638518804,0.001104479673,0.0005944341928,0.0003204864114,0.0006339144442,0.001039613068,0.006695776261,0.003431353826,0.008441248566,0.006418846502,0.0006795210579,0.02686575191,0.00468793487,0.1848097905,0.8749151955,0.7882560265,0.245904407,0.007608358967,0.002374387838,0.006015403957,0.02372409085,0.03499848525,0.01969646062,0.0008611601508,0.0006365476474,0.0009562186667,0.001798561635,0.003399467968,0.004321105188,0.007446485875,0.01336610751,0.01282389328,0.03564612602,0.008530899715,0.002190230927,0.0006157459367,0.001464892064,0.001264891228,0.0005348747765,0.0003926160075,0.0009131007733,0.00611911923,0.03486257139,0.02448897511,0.03102798925,0.8002091604,0.4140122789,0.1946549818,0.8131842265,0.830847436,0.3622707587,0.0187533929,0.001014989169,0.0004989131796,0.001580550939,0.0007429147979,0.0008097917701,0.000510770134,0.0002529328141,0.005630936172,0.007325994731,0.005562615324,0.04662780415,0.6761389004,0.320604992,0.2552770956,0.1629574818,0.5756033714,0.8276746975,0.03843938202,0.003932928733,0.005278073887,0.01717237779,0.037948873,0.006610305508,0.002941548,0.001906823598,0.005103799678,0.002963880135,0.001183605399,0.0002340983005,0.001304535263,0.00272760711,0.00264343543,0.0003870829769,0.0006611375002,0.001632510685,0.000507501772,0.0003734059998,0.0002876174304,0.0006021392302,0.0001768701471,0.001264248107,0.0002824163417,0.0003543621704,0.0002586933392,0.0007151987307,0.03851148396,0.03970541544,0.1717015703,0.2063992788,0.07176526581,0.2258140192,0.3301922276,0.516362616,0.3573541404,0.1978136066,0.2547636454,0.518201641,0.2825052084,0.4229514323,0.2737852124,0.3529831102,0.1342937473,0.1820261398,0.4419967159,0.3573250002,0.4931068405,0.969535352,0.447473654,0.1097631487,0.01195516793,0.09940858566,0.005538389876,0.003214500755,0.006850147489,0.003320528635,0.0009132034465,0.003174911008,0.003983629785,0.003460529423,0.000838184162,0.02476972447,0.0499803229,0.01511468416,0.00796235694,0.1321474852,0.01840467867,0.006650737492,0.00293442418,0.001101445481,0.000766696274,0.003808204501,0.001881160313,0.01797447925,0.0155311106,0.006694068189,0.002674004032,0.01004573979,0.05295575551,0.8882883894,0.2542428691,0.4986569507,0.1899023729,0.6250076904,0.2491056381,0.04108719946,0.003237439024,0.006089492558,0.02626979658,0.01314073341,0.007341295975,0.0004386053102,0.001437447448,0.0001935196543,0.0004826207206,0.003826483318,0.0132417219,0.0297066845,0.01384567747,0.00185673281,0.0006668150148,0.0005949888892,0.001718092223,0.0004804845155,0.000326398665,0.000214867177,0.0001543875417,0.002817623977,0.01388556879,0.0289183414,0.0656912916,0.06767175656,0.2372106822,0.4062987433,0.04909599354,0.170767144,0.1991325856,0.04837183065,0.2020579824,0.07524696463,0.08108207788,0.6112900551,0.06567034943,0.02947452654,0.04769588722,0.02088724166,0.04303428152,0.02531931442,0.01898989957,0.005943444811,0.001442753918,0.007685520732,0.003797539183,0.01388245323,0.002369801923,0.001683657614,0.003212772639,0.01522832187,0.0249724872,0.001648418741,0.02773816493,0.002617250306,NaN,NaN,NaN],
	"pwr": [NaN,4.238071067e-06,5.295332395e-06,1.060300141e-05,1.356847776e-05,1.280751825e-05,8.734317002e-06,1.253568274e-05,1.168296816e-05,9.20153798e-06,1.735671303e-05,9.916881975e-06,1.28364087e-05,6.089734241e-06,2.186716958e-05,1.396187237e-05,1.307146594e-05,5.252356125e-06,7.586637644e-06,1.163006228e-05,1.268461943e-05,1.022511058e-05,1.56881542e-05,9.936778509e-06,6.351167906e-06,2.107631548e-05,1.296477775e-05,1.520069337e-05,4.352955139e-06,9.838797929e-06,1.858178573e-05,8.84423083e-06,1.356092182e-05,1.504471285e-05,1.699535908e-05,1.199599922e-05,1.493532377e-05,1.487292575e-05,1.158370503e-05,6.222020844e-06,7.808637172e-06,1.652374979e-05,1.171528378e-05,1.400793506e-05,1.00607173e-05,8.504677865e-06,6.037329555e-06,8.053840795e-06,1.577663834e-05,6.035402699e-06,7.200576539e-06,6.872629722e-06,2.094930889e-05,9.314435501e-06,9.712548039e-06,1.566116118e-05,1.41795125e-05,1.028161291e-05,1.068144372e-05,1.335234939e-05,7.592368544e-06,6.564024438e-06,1.3517506e-05,1.173365631e-05,1.620477247e-05,1.887275528e-05,9.255697362e-06,1.276315118e-05,1.084810276e-05,1.003338952e-05,8.681521728e-06,1.237522211e-05,8.264806762e-06,1.021298499e-05,1.50753803e-05,1.337747845e-05,7.307599378e-06,1.154035974e-05,1.012694286e-05,1.090417598e-05,1.075724143e-05,1.323218029e-05,8.078953447e-06,8.404451575e-06,1.097917599e-05,1.045873888e-05,1.285730533e-05,2.13122318e-05,1.035049793e-05,1.241963718e-05,2.467202853e-05,1.523680877e-05,9.711085929e-06,9.690172799e-06,1.007739941e-05,1.429200021e-05,1.412563181e-05,9.139918871e-06,7.389802815e-06,1.610812461e-05,3.242645233e-05,1.907617242e-05,8.559913881e-06,9.891342016e-06,1.680705339e-05,1.046568103e-05,1.52291886e-05,3.015906286e-05,1.618474634e-05,4.528578618e-05,3.74660621e-05,4.250190415e-05,4.148284106e-05,4.160557182e-05,5.546122854e-05,2.361209946e-05,3.544057725e-05,3.156408566e-05,2.494365889e-05,2.275478817e-05,1.503198591e-05,1.147786741e-05,0.0001009120293,0.0002629177019,0.001170603989,0.0002478752147,0.0006641551654,0.01515880665,0.002540891003,0.005188789532,0.001662703741,0.001761162715,0.07618342658,0.0863868618,0.03359715542,0.02728158353,0.02412593432,0.02373869796,0.02827789915,0.03743927208,0.04383725007,0.0458700608,0.04715031209,0.04774097843,0.03207364174,0.03554911771,0.03486327764,0.03699704696,0.04799550851,0.09182124956,0.09719764729,0.09211864919,0.08205761152,0.07964808589,0.06865298385,0.05559382636,0.03467090909,0.04258272924,0.03732917185,0.03319456062,0.0481494534,0.03264598161,0.004990549514,0.0009190618612,0.009977105525,0.1741070707,0.2083157375,0.1834096984,0.1228429571,0.0510574643,0.03635452884,0.07952083492,0.09192317182,0.1196519404,0.1095682301,0.1090796982,0.08520823353,0.06084424277,0.02486627925,0.03982856437,0.05139969475,0.1564918858,0.06693613098,0.05019084331,0.04427733711,0.04300007182,0.03643342252,0.04457830264,0.04377674948,0.05258190133,0.05783499738,0.03718972791,0.01506387748,0.00122298634,0.0007124265311,0.001634665233,0.0016200627,0.01255582455,0.005920897633,0.05683455717,0.1084084024,0.1150833312,0.09531074855,0.1005049532,0.1024918264,0.115846893,0.1259926423,0.137313251,0.1740759886,0.2639228125,0.07423990322,0.001515831312,0.0004893556746,0.002262983742,0.002323109727,0.0047812456,0.006169766362,0.1418611742,0.1364948472,0.1152051895,0.09520235106,0.05888179109,0.02381454443,0.0430445635,0.06277708604,0.05681125021,0.03925072138,0.02811389141,0.0293605961,0.03092664463,0.02937778463,0.03356954411,0.04808970867,0.04872250404,0.04876083102,0.03454369819,0.02509617008,0.02560176293,0.02551365368,0.02585840861,0.02810350662,0.02364615796,0.02863307958,0.03009574452,0.02616952604,0.02344161806,0.007120913673,0.006926328191,0.0001630163566,0.0001621520468,3.919297997e-05,1.446070474e-05,2.968027886e-05,3.64457407e-05,6.059105751e-05,7.050686512e-05,7.830600923e-05,7.60542827e-05,9.451606842e-05,5.324590285e-05,7.791368406e-05,0.0001529363875,7.555470063e-05,3.022832532e-05,1.50994482e-05,1.362265539e-05,0.0004760005348,8.632004988e-05,0.02106349728,0.09671679349,0.07557336536,0.1862189715,0.1878943615,0.1592899809,0.1078885241,0.061599445,0.04778375474,0.04359536491,0.02998276545,0.03125462647,0.02982854134,0.02970894146,0.02954985129,0.06128493811,0.08309977422,0.06132386784,0.02474460761,0.02976607452,0.03004373662,0.0310202282,0.02941141035,0.0288094134,0.02795584535,0.02876852731,0.03847851969,0.07651544354,0.1140050239,0.09997647616,0.007100065524,0.005914138799,0.000921260791,0.002835160288,0.002149276087,0.001370955731,0.1679802967,0.07573181926,0.08593664745,0.06796553804,0.03961912646,0.07139506938,0.1250962075,0.16968392,0.1659219855,0.1540438637,0.1537859331,0.154915001,0.02809211262,0.05855433868,0.1068407753,0.2322275147,0.2291702833,0.2202786374,0.1592692778,0.1418398888,0.1336040062,0.1359200487,0.1451847915,0.1503759531,0.1488279842,0.04654176545,0.00101818635,0.0003548355773,1.476505263e-05,1.638653463e-05,1.555167308e-05,1.814448899e-06,1.824547777e-06,2.231062284e-06,6.461803735e-07,5.637652582e-07,3.398513262e-07,5.58401517e-07,6.708976639e-07,4.568113296e-07,4.027268676e-07,1.581603887e-07,9.255578393e-08,9.653497252e-08,3.060162117e-07,5.377459868e-07,3.489224602e-07,1.709798651e-07,1.249722087e-07,1.755830832e-07,2.343642929e-07,1.165172994e-07,6.633589364e-08,4.979867141e-08,1.212777889e-07,1.362092621e-07,2.640992457e-07,NaN,NaN,NaN],
	"sr": 16000,
	"range": [1,116345],
	"minf0": 63.1883,
	"maxf0": 706.3069,
	"thresh": 0.1,
	"relflag": 1,
	"hop": 320,
	"bufsize": 10000,
	"wsize": 640,
	"lpf": 4000,
	"shift": 0,
	"plotthreshold": 0.2
}
