{
    "DU": 95,
    "DV": 342,
    "F-measure": 0.9430894308943089,
    "F-measure Chroma": 0.9500580720092914,
    "FN": 6,
    "FNC": 1,
    "FNCch": 3,
    "FNI": 5,
    "FNIch": 3,
    "FP": 7,
    "GU": 96,
    "GV": 341,
    "Overall Accuracy": 0.9290617848970252,
    "Overall Chroma Accuracy": 0.9359267734553776,
    "Precision": 0.9419953596287703,
    "Precision Chroma": 0.9489559164733179,
    "Raw Chroma Accuracy": 0.9472140762463344,
    "Raw Pitch Accuracy": 0.9325513196480938,
    "Recall": 0.9441860465116279,
    "Recall Chroma": 0.9511627906976744,
    "TN": 89,
    "TO": 437,
    "TP": 335,
    "TPC": 317,
    "TPCch": 320,
    "TPI": 18,
    "TPIch": 15,
    "Voiced Chroma Accuracy": 0.9384164222873901,
    "Voiced Pitch Accuracy": 0.9296187683284457,
    "Voicing Accuracy": 0.9702517162471396,
    "Voicing Detection": 0.9824046920821115,
    "Voicing False Alarm": 0.07291666666666667
}