{
    "DU": 81,
    "DV": 367,
    "F-measure": 0.05316455696202532,
    "F-measure Chroma": 0.1544303797468354,
    "FN": 60,
    "FNC": 0,
    "FNCch": 18,
    "FNI": 60,
    "FNIch": 42,
    "FP": 46,
    "GU": 67,
    "GV": 381,
    "Overall Accuracy": 0.046875,
    "Overall Chroma Accuracy": 0.13616071428571427,
    "Precision": 0.05412371134020619,
    "Precision Chroma": 0.15721649484536082,
    "Raw Chroma Accuracy": 0.15223097112860892,
    "Raw Pitch Accuracy": 0.0,
    "Recall": 0.05223880597014925,
    "Recall Chroma": 0.1517412935323383,
    "TN": 21,
    "TO": 448,
    "TP": 321,
    "TPC": 0,
    "TPCch": 40,
    "TPI": 321,
    "TPIch": 281,
    "Voiced Chroma Accuracy": 0.10498687664041995,
    "Voiced Pitch Accuracy": 0.0,
    "Voicing Accuracy": 0.7633928571428571,
    "Voicing Detection": 0.84251968503937,
    "Voicing False Alarm": 0.6865671641791045
}