{
    "DU": 116,
    "DV": 339,
    "F-measure": 0.13164556962025317,
    "F-measure Chroma": 0.2860759493670886,
    "FN": 68,
    "FNC": 0,
    "FNCch": 12,
    "FNI": 68,
    "FNIch": 56,
    "FP": 52,
    "GU": 100,
    "GV": 355,
    "Overall Accuracy": 0.11428571428571428,
    "Overall Chroma Accuracy": 0.24835164835164836,
    "Precision": 0.1343669250645995,
    "Precision Chroma": 0.29198966408268734,
    "Raw Chroma Accuracy": 0.21690140845070421,
    "Raw Pitch Accuracy": 0.011267605633802818,
    "Recall": 0.12903225806451613,
    "Recall Chroma": 0.2803970223325062,
    "TN": 48,
    "TO": 455,
    "TP": 287,
    "TPC": 4,
    "TPCch": 65,
    "TPI": 283,
    "TPIch": 222,
    "Voiced Chroma Accuracy": 0.18309859154929578,
    "Voiced Pitch Accuracy": 0.011267605633802818,
    "Voicing Accuracy": 0.7362637362637363,
    "Voicing Detection": 0.8084507042253521,
    "Voicing False Alarm": 0.52
}