{
    "f0": [
        0.0,
        0.0,
        0.0,
        0.0,
        0.0,
        0.0,
        0.0,
        0.0,
        0.0,
        0.0,
        0.0,
        0.0,
        0.0,
        0.0,
        0.0,
        0.0,
        0.0,
        0.0,
        0.0,
        0.0,
        0.0,
        0.0,
        0.0,
        0.0,
        0.0,
        0.0,
        0.0,
        0.0,
        0.0,
        0.0,
        0.0,
        0.0,
        0.0,
        0.0,
        0.0,
        0.0,
        0.0,
        0.0,
        0.0,
        0.0,
        0.0,
        0.0,
        0.0,
        0.0,
        0.0,
        0.0,
        0.0,
        0.0,
        0.0,
        0.0,
        0.0,
        0.0,
        0.0,
        46.16031911708734,
        45.756802409816913,
        0.0,
        0.0,
        0.0,
        0.0,
        41.525029754642759,
        46.184936093996257,
        0.0,
        0.0,
        0.0,
        46.020981424612188,
        0.0,
        0.0,
        0.0,
        0.0,
        0.0,
        0.0,
        0.0,
        0.0,
        0.0,
        46.722670521057509,
        46.195352180190369,
        0.0,
        0.0,
        0.0,
        0.0,
        54.797178616980773,
        54.623181000233053,
        54.795441173177402,
        55.138267617150269,
        55.345745110075228,
        55.646060482510237,
        56.573478687504789,
        57.667903601110041,
        58.407297513110422,
        59.066813591980626,
        59.472290272099414,
        59.811071234293735,
        59.690182977717775,
        59.134274737976838,
        58.61169586556985,
        58.388992352726241,
        58.176229052796941,
        0.0,
        0.0,
        58.078368499420769,
        45.418472479823642,
        56.420382551090526,
        56.246387741051109,
        55.896633302428583,
        55.839391907101628,
        55.930298168134222,
        55.927837979802334,
        55.979392433041482,
        55.990990439411632,
        56.022482946535092,
        56.173523846225649,
        56.43634137501347,
        56.465623166020855,
        56.435847653076536,
        56.235558304527444,
        55.412645462896329,
        53.660652048706837,
        53.621463345960933,
        52.994046360839107,
        35.3652984447153,
        58.129177453044434,
        57.962128108446123,
        57.505356862631736,
        57.326649347401478,
        57.172212170768489,
        57.25674548193961,
        57.340869193077715,
        57.609662501901276,
        57.771355708293456,
        57.988644428650453,
        58.123287407137909,
        58.296605815090935,
        58.274559197991337,
        58.235949095025255,
        57.855785063072439,
        56.754529785470261,
        55.578434998512002,
        0.0,
        0.0,
        0.0,
        45.985064812511951,
        56.420192628544086,
        56.070433820244709,
        55.896438804417308,
        55.764276419144529,
        55.728911995516512,
        55.77147734868943,
        55.928825428954383,
        56.092109775720473,
        56.250227565389558,
        56.406915590460613,
        56.562198115983449,
        56.372822340810295,
        56.090300162624303,
        55.803090875604532,
        55.683298287806196,
        55.175551924285394,
        0.0,
        0.0,
        0.0,
        0.0,
        57.692526559825637,
        57.692532305936744,
        57.692532305936744,
        57.150387455286051,
        56.976393960905824,
        56.901314030661936,
        56.94768356235496,
        56.993930331236399,
        57.212316097599306,
        57.87847606702833,
        58.091071221626265,
        58.15837973473343,
        58.089183772506217,
        57.904079149553603,
        57.716971626568508,
        56.112494824773918,
        55.484840756854794,
        0.0,
        0.0,
        44.870458562859866,
        57.463811070262423,
        57.289816336844524,
        56.583093996404628,
        56.05577365748421,
        56.08312188158677,
        56.143503685396936,
        56.232340332440721,
        56.358998048267615,
        56.494400567209439,
        56.628749802645984,
        56.762064468972888,
        56.720364462914318,
        56.65293356008209,
        56.424115806774779,
        56.274067809023798,
        56.122710516376848,
        55.970018266502748,
        55.815967301305044,
        56.339537574267538,
        56.752101128087666,
        57.027850611717056,
        56.834689837331325,
        56.694219273652386,
        56.824771873805204,
        56.788692181141208,
        56.752535942344359,
        56.716304034403102,
        56.763909954845751,
        57.027606034140845,
        57.692915325305059,
        57.942359968802442,
        58.382227855236522,
        58.305801395307313,
        58.080650738814455,
        57.878857313340959,
        56.599369258935255,
        55.280998897595111,
        55.834773962472653,
        54.334746378337499,
        52.692311013207394,
        46.451279408533388,
        56.081946952255407,
        56.198172875865325,
        56.022114501396956,
        55.817933123558234,
        55.967461728450161,
        56.111459645269719,
        56.256374343623683,
        56.400089828853183,
        56.542622099650487,
        56.683989277787234,
        56.509756409798939,
        56.572048529851173,
        56.413083925898064,
        55.601899250011328,
        55.940320650330989,
        35.292517030513238,
        36.532595950579356,
        66.632824699625758,
        45.567805247828971,
        46.364892683616858,
        58.409848936824353,
        57.941609426406444,
        57.803180333063636,
        56.964364692199311,
        56.626509523176509,
        56.608461739525495,
        56.694236413913231,
        56.991056889645662,
        57.858236271734533,
        58.238151461784163,
        58.510257778898435,
        58.626687214381327,
        58.45055285205882,
        58.171705072906462,
        57.888293419432927,
        57.517252781405695,
        57.006510419116928,
        56.480243685382675,
        56.449202938232695,
        56.675408745748634,
        56.533612265960642,
        56.390644806619967,
        56.52310796778238,
        56.654566499307592,
        56.611038352703019,
        56.423799254936327,
        56.234514172151215,
        56.243065074004214,
        56.2402486799255,
        56.237428126970499,
        56.234610815641965,
        56.341557071685784,
        56.273764750274395,
        55.575683096469191,
        56.024327635510268,
        56.139005282167965,
        55.525930902093869,
        53.164179451969375,
        51.802979897670298,
        48.883952435940422,
        53.049133170234015,
        52.52028260473287,
        52.338978685597581,
        52.411289073787948,
        52.374011712049651,
        52.064514981772646,
        51.634172188342703,
        51.252045538235478,
        50.303728982563406,
        50.277097783658732,
        50.250427182405232,
        50.362470673892929,
        50.458841196495122,
        50.490349172989681,
        50.553937710079964,
        50.427298547940445,
        50.827353500285049,
        51.305166942245442,
        51.378195823459187,
        51.450916313127891,
        51.349337780217652,
        51.358044307085208,
        51.383355463334077,
        51.572600164637457,
        51.588500816281666,
        51.516169209253576,
        51.409671122651957,
        0.0,
        0.0,
        51.228824209433434,
        52.307403671797054,
        52.650229242958652,
        52.862375395078502,
        52.877872374687001,
        52.961946742341922,
        53.00969510827089,
        52.901232561512103,
        52.839802373206993,
        52.664786609202842,
        52.507083496333266,
        52.375823309225318,
        52.382605349931815,
        52.590276761663489,
        52.868781907888085,
        53.785854447030502,
        54.52630813701996,
        54.806338783215942,
        54.767555934530279,
        54.392233528699634,
        53.83165617068552,
        53.344022453744259,
        53.639790958979027,
        54.129773215014737,
        54.719257348873782,
        54.85108546214434,
        54.673455317661642,
        54.390889192183188,
        54.103633092085815,
        53.461778477569638,
        53.489564136740519,
        54.179578342318486,
        55.039352139527963,
        55.058419393991436,
        54.774930899922907,
        54.486727005253741,
        54.019644141448325,
        54.076038875012316,
        54.009501415635775,
        54.032531858650479,
        53.511378084583498,
        53.291640714693933,
        52.734963571124922,
        53.34206910193641,
        52.972897711887398,
        52.839903141368175,
        53.427920194201,
        35.595863971206882,
        0.0,
        0.0,
        0.0,
        0.0,
        0.0,
        0.0,
        0.0,
        0.0,
        0.0,
        0.0,
        0.0,
        0.0,
        0.0,
        0.0,
        0.0,
        0.0,
        0.0,
        0.0,
        0.0,
        0.0,
        0.0,
        0.0,
        0.0,
        0.0,
        0.0,
        0.0,
        0.0,
        0.0,
        0.0,
        0.0,
        0.0,
        0.0,
        0.0
    ],
    "time": [
        0.02,
        0.040000000000000001,
        0.059999999999999998,
        0.080000000000000002,
        0.10000000000000001,
        0.12,
        0.14000000000000001,
        0.16,
        0.17999999999999999,
        0.20000000000000001,
        0.22,
        0.23999999999999999,
        0.26000000000000001,
        0.28000000000000003,
        0.29999999999999999,
        0.32000000000000001,
        0.34000000000000002,
        0.35999999999999999,
        0.38,
        0.40000000000000002,
        0.41999999999999998,
        0.44,
        0.46000000000000002,
        0.47999999999999998,
        0.5,
        0.52000000000000002,
        0.54000000000000004,
        0.56000000000000005,
        0.57999999999999996,
        0.59999999999999998,
        0.62,
        0.64000000000000001,
        0.66000000000000003,
        0.68000000000000005,
        0.69999999999999996,
        0.71999999999999997,
        0.73999999999999999,
        0.76000000000000001,
        0.78000000000000003,
        0.80000000000000004,
        0.81999999999999995,
        0.83999999999999997,
        0.85999999999999999,
        0.88,
        0.90000000000000002,
        0.92000000000000004,
        0.93999999999999995,
        0.95999999999999996,
        0.97999999999999998,
        1.0,
        1.02,
        1.04,
        1.0600000000000001,
        1.0800000000000001,
        1.1000000000000001,
        1.1200000000000001,
        1.1399999999999999,
        1.1599999999999999,
        1.1799999999999999,
        1.2,
        1.22,
        1.24,
        1.26,
        1.28,
        1.3,
        1.3200000000000001,
        1.3400000000000001,
        1.3600000000000001,
        1.3799999999999999,
        1.3999999999999999,
        1.4199999999999999,
        1.4399999999999999,
        1.46,
        1.48,
        1.5,
        1.52,
        1.54,
        1.5600000000000001,
        1.5800000000000001,
        1.6000000000000001,
        1.6200000000000001,
        1.6399999999999999,
        1.6599999999999999,
        1.6799999999999999,
        1.7,
        1.72,
        1.74,
        1.76,
        1.78,
        1.8,
        1.8200000000000001,
        1.8400000000000001,
        1.8600000000000001,
        1.8799999999999999,
        1.8999999999999999,
        1.9199999999999999,
        1.9399999999999999,
        1.96,
        1.98,
        2.0,
        2.02,
        2.04,
        2.0600000000000001,
        2.0800000000000001,
        2.1000000000000001,
        2.1200000000000001,
        2.1400000000000001,
        2.1600000000000001,
        2.1800000000000002,
        2.2000000000000002,
        2.2200000000000002,
        2.2400000000000002,
        2.2599999999999998,
        2.2799999999999998,
        2.2999999999999998,
        2.3199999999999998,
        2.3399999999999999,
        2.3599999999999999,
        2.3799999999999999,
        2.3999999999999999,
        2.4199999999999999,
        2.4399999999999999,
        2.46,
        2.48,
        2.5,
        2.52,
        2.54,
        2.5600000000000001,
        2.5800000000000001,
        2.6000000000000001,
        2.6200000000000001,
        2.6400000000000001,
        2.6600000000000001,
        2.6800000000000002,
        2.7000000000000002,
        2.7200000000000002,
        2.7400000000000002,
        2.7599999999999998,
        2.7799999999999998,
        2.7999999999999998,
        2.8199999999999998,
        2.8399999999999999,
        2.8599999999999999,
        2.8799999999999999,
        2.8999999999999999,
        2.9199999999999999,
        2.9399999999999999,
        2.96,
        2.98,
        3.0,
        3.02,
        3.04,
        3.0600000000000001,
        3.0800000000000001,
        3.1000000000000001,
        3.1200000000000001,
        3.1400000000000001,
        3.1600000000000001,
        3.1800000000000002,
        3.2000000000000002,
        3.2200000000000002,
        3.2400000000000002,
        3.2599999999999998,
        3.2799999999999998,
        3.2999999999999998,
        3.3199999999999998,
        3.3399999999999999,
        3.3599999999999999,
        3.3799999999999999,
        3.3999999999999999,
        3.4199999999999999,
        3.4399999999999999,
        3.46,
        3.48,
        3.5,
        3.52,
        3.54,
        3.5600000000000001,
        3.5800000000000001,
        3.6000000000000001,
        3.6200000000000001,
        3.6400000000000001,
        3.6600000000000001,
        3.6800000000000002,
        3.7000000000000002,
        3.7200000000000002,
        3.7400000000000002,
        3.7599999999999998,
        3.7799999999999998,
        3.7999999999999998,
        3.8199999999999998,
        3.8399999999999999,
        3.8599999999999999,
        3.8799999999999999,
        3.8999999999999999,
        3.9199999999999999,
        3.9399999999999999,
        3.96,
        3.98,
        4.0,
        4.0199999999999996,
        4.04,
        4.0599999999999996,
        4.0800000000000001,
        4.0999999999999996,
        4.1200000000000001,
        4.1399999999999997,
        4.1600000000000001,
        4.1799999999999997,
        4.2000000000000002,
        4.2199999999999998,
        4.2400000000000002,
        4.2599999999999998,
        4.2800000000000002,
        4.2999999999999998,
        4.3200000000000003,
        4.3399999999999999,
        4.3600000000000003,
        4.3799999999999999,
        4.4000000000000004,
        4.4199999999999999,
        4.4400000000000004,
        4.46,
        4.4800000000000004,
        4.5,
        4.5199999999999996,
        4.54,
        4.5599999999999996,
        4.5800000000000001,
        4.5999999999999996,
        4.6200000000000001,
        4.6399999999999997,
        4.6600000000000001,
        4.6799999999999997,
        4.7000000000000002,
        4.7199999999999998,
        4.7400000000000002,
        4.7599999999999998,
        4.7800000000000002,
        4.7999999999999998,
        4.8200000000000003,
        4.8399999999999999,
        4.8600000000000003,
        4.8799999999999999,
        4.9000000000000004,
        4.9199999999999999,
        4.9400000000000004,
        4.96,
        4.9800000000000004,
        5.0,
        5.0199999999999996,
        5.04,
        5.0599999999999996,
        5.0800000000000001,
        5.0999999999999996,
        5.1200000000000001,
        5.1399999999999997,
        5.1600000000000001,
        5.1799999999999997,
        5.2000000000000002,
        5.2199999999999998,
        5.2400000000000002,
        5.2599999999999998,
        5.2800000000000002,
        5.2999999999999998,
        5.3200000000000003,
        5.3399999999999999,
        5.3600000000000003,
        5.3799999999999999,
        5.4000000000000004,
        5.4199999999999999,
        5.4400000000000004,
        5.46,
        5.4800000000000004,
        5.5,
        5.5199999999999996,
        5.54,
        5.5599999999999996,
        5.5800000000000001,
        5.5999999999999996,
        5.6200000000000001,
        5.6399999999999997,
        5.6600000000000001,
        5.6799999999999997,
        5.7000000000000002,
        5.7199999999999998,
        5.7400000000000002,
        5.7599999999999998,
        5.7800000000000002,
        5.7999999999999998,
        5.8200000000000003,
        5.8399999999999999,
        5.8600000000000003,
        5.8799999999999999,
        5.9000000000000004,
        5.9199999999999999,
        5.9400000000000004,
        5.96,
        5.9800000000000004,
        6.0,
        6.0199999999999996,
        6.04,
        6.0599999999999996,
        6.0800000000000001,
        6.0999999999999996,
        6.1200000000000001,
        6.1399999999999997,
        6.1600000000000001,
        6.1799999999999997,
        6.2000000000000002,
        6.2199999999999998,
        6.2400000000000002,
        6.2599999999999998,
        6.2800000000000002,
        6.2999999999999998,
        6.3200000000000003,
        6.3399999999999999,
        6.3600000000000003,
        6.3799999999999999,
        6.4000000000000004,
        6.4199999999999999,
        6.4400000000000004,
        6.46,
        6.4800000000000004,
        6.5,
        6.5199999999999996,
        6.54,
        6.5599999999999996,
        6.5800000000000001,
        6.5999999999999996,
        6.6200000000000001,
        6.6399999999999997,
        6.6600000000000001,
        6.6799999999999997,
        6.7000000000000002,
        6.7199999999999998,
        6.7400000000000002,
        6.7599999999999998,
        6.7800000000000002,
        6.7999999999999998,
        6.8200000000000003,
        6.8399999999999999,
        6.8600000000000003,
        6.8799999999999999,
        6.9000000000000004,
        6.9199999999999999,
        6.9400000000000004,
        6.96,
        6.9800000000000004,
        7.0,
        7.0199999999999996,
        7.04,
        7.0599999999999996,
        7.0800000000000001,
        7.0999999999999996,
        7.1200000000000001,
        7.1399999999999997,
        7.1600000000000001,
        7.1799999999999997,
        7.2000000000000002,
        7.2199999999999998,
        7.2400000000000002,
        7.2599999999999998,
        7.2800000000000002,
        7.2999999999999998,
        7.3200000000000003,
        7.3399999999999999,
        7.3600000000000003,
        7.3799999999999999,
        7.4000000000000004,
        7.4199999999999999,
        7.4400000000000004,
        7.46,
        7.4800000000000004,
        7.5,
        7.5199999999999996,
        7.54,
        7.5599999999999996,
        7.5800000000000001,
        7.5999999999999996,
        7.6200000000000001,
        7.6399999999999997,
        7.6600000000000001,
        7.6799999999999997,
        7.7000000000000002,
        7.7199999999999998,
        7.7400000000000002,
        7.7599999999999998,
        7.7800000000000002,
        7.7999999999999998,
        7.8200000000000003,
        7.8399999999999999
    ]
}