{
    "f0": [
        36.126716949590602,
        37.299470481358661,
        41.959839374792701,
        41.844227800645896,
        42.960227365525014,
        46.351103309821752,
        49.142409260214521,
        51.907072062113393,
        54.978511610289942,
        55.845487330301438,
        57.522822527796919,
        58.153292754760081,
        58.859155750964554,
        59.537360993685581,
        59.84023712114962,
        60.1190331710959,
        60.228711022441985,
        60.762552979395338,
        60.548235290565252,
        35.49749950420351,
        36.079859983415332,
        36.64326762254921,
        36.813500882613987,
        62.242103341506656,
        62.235009010898253,
        62.187347639771176,
        62.159905613761261,
        61.88629503856901,
        61.206466084009136,
        59.026259502639398,
        47.234663668316479,
        42.694547203587035,
        61.842990029402856,
        61.816685429985725,
        61.616347364796823,
        61.597148033156735,
        61.577927325468885,
        61.901512985709488,
        62.056639706078229,
        41.682113505209159,
        37.320398694349777,
        44.544413405002039,
        38.123713968562711,
        48.955352852513094,
        48.917303271256841,
        60.562105025261701,
        59.875402047999863,
        59.852923955664465,
        59.830418644859556,
        59.980146799187992,
        60.208131964179685,
        59.50593464805327,
        58.600052766514551,
        58.745059597512636,
        43.642982877594996,
        45.123665809683636,
        45.277108440196365,
        45.42920424647491,
        64.185525036911812,
        39.828228865415859,
        61.962399295954704,
        62.231334671620189,
        62.668421818034865,
        63.296704152078895,
        63.610308956343921,
        63.918333938592227,
        64.075052548338135,
        64.271208277417813,
        64.446219988878013,
        64.576641018332211,
        64.587798057393968,
        64.491791451528755,
        64.57178788818662,
        65.064372034458344,
        41.060354698846474,
        54.950121092685144,
        43.494544111946837,
        41.014005317671277,
        36.300619150170192,
        57.929209701703044,
        63.79634325887428,
        63.61070897876516,
        63.496786639822012,
        63.583603875071184,
        63.730922196353333,
        63.781578788688833,
        63.723363732324728,
        63.764130749288007,
        63.972528795132092,
        64.072987346253186,
        64.114901998347136,
        64.156715364494346,
        64.198421702214674,
        64.072829347364589,
        63.946319220888157,
        63.613208654397162,
        63.615467070242495,
        63.540720410995789,
        63.417508662320166,
        64.16234366066135,
        64.514458402881431,
        64.568534126962732,
        64.585264719732791,
        64.528911189460985,
        64.521856567129305,
        64.47861734131196,
        64.342700168673659,
        64.080795171689715,
        64.047439379536868,
        64.014020875802032,
        61.890036037653061,
        62.750464832805783,
        62.541558519116705,
        62.195390126645464,
        62.253870556365314,
        62.386771980993011,
        62.503984902307558,
        62.504332646573594,
        62.445866032261733,
        62.131109432768426,
        61.763939708948762,
        60.52462618359889,
        58.773781865662741,
        58.141737320354295,
        58.411355341480984,
        59.449716881441262,
        59.671478786461599,
        59.935564804581503,
        60.104388249552493,
        60.116475864107059,
        60.067507498728411,
        60.069293628399095,
        60.142466557540928,
        60.21349247716023,
        60.274539135014635,
        60.335373298708483,
        60.307528446470613,
        60.422406700499501,
        60.451344534757609,
        60.423023530883611,
        60.26740802308683,
        60.110380970814354,
        58.27422114732947,
        55.987522941356673,
        37.540005692386565,
        41.657277743907457,
        49.320759701311829,
        61.557033487153284,
        61.549580672722442,
        61.422097988118736,
        61.354232868510536,
        61.307089832045065,
        61.421565974801943,
        61.7099259358871,
        61.944413998960883,
        62.372295305407746,
        62.61438365846746,
        62.787053996895814,
        62.786094738282308,
        62.652822357893541,
        62.518517783544155,
        62.413365222329688,
        62.350727732577319,
        62.395650902767841,
        62.447568420579643,
        62.388413379681339,
        62.383592564215682,
        62.476636282020237,
        62.427644385107783,
        62.483476599848501,
        62.503885267392192,
        62.429006328568065,
        62.293847673917789,
        62.25455309576742,
        62.166665510124673,
        61.21471751452605,
        61.013226040056516,
        59.879024172342099,
        59.682167338489201,
        59.148445036015232,
        37.381871674872571,
        36.137396627745872,
        36.818317139204687,
        37.135159869148943,
        36.197943062146045,
        38.210721013151712,
        37.439505879552392,
        37.866702071893208,
        0.0,
        0.0,
        58.284016238282447,
        36.718327818926831,
        59.272525021749367,
        0.0,
        41.562880470023721,
        0.0,
        0.0,
        0.0,
        37.515166189733634,
        36.040960717022344,
        39.82008608772162,
        0.0,
        0.0,
        55.354660579407053,
        46.1450385342592,
        41.618072592038899,
        37.073045809192422,
        36.934996305796581,
        37.676985769589344,
        37.147972036324347,
        37.464895778895439,
        37.77611649144734,
        37.268227935824676,
        37.151753113947727,
        37.467176240569643,
        58.219065530073962,
        58.57748185966382,
        59.982977019288469,
        60.28803197510473,
        60.372083727389565,
        60.455729377609877,
        60.538966994035306,
        60.272054399787628,
        42.245812928398408,
        39.50308718121444,
        36.676451983143018,
        58.22802837000765,
        58.332290571157266,
        58.778760147639119,
        58.873695170656219,
        58.776210535357563,
        58.821980332463198,
        59.098187059677528,
        59.256958292700382,
        58.763692865387732,
        58.570759866833846,
        59.155958936260888,
        59.62372266093108,
        60.299386729437188,
        60.669975949703925,
        60.46358364506829,
        60.12708572723659,
        59.849119074996601,
        59.321490565330365,
        59.152139849648265,
        59.234448431285507,
        59.578824549171323,
        60.011881158138017,
        60.46122615391657,
        60.696305553722581,
        60.79402050497761,
        60.856102177708564,
        60.885406813243797,
        60.80523337446013,
        60.697502350591954,
        60.630195046509165,
        60.55635080994918,
        60.610920424351264,
        60.658690648025186,
        60.601233068875835,
        60.548180540930815,
        60.494964872835489,
        60.008383556381375,
        59.204719818613846,
        58.521648041948929,
        43.192034733352514,
        48.200969385006729,
        48.549272231333177,
        47.475378466198222,
        46.606025765550271,
        46.567809692304607,
        45.745785410045386,
        43.360804825545003,
        0.0,
        0.0,
        0.0,
        45.049456748745015,
        46.069541176256166,
        44.240252462172464,
        40.926383076254019,
        0.0,
        0.0,
        0.0,
        43.692787541362037,
        59.911122919375813,
        60.340076739520178,
        60.332320787389186,
        60.236601183786412,
        60.298301020904418,
        60.632870320709245,
        60.750651102596024,
        60.867635999867289,
        60.634081270973269,
        60.534932066779177,
        60.366149313215956,
        60.056621497920325,
        59.741458793022872,
        55.908887889422459,
        56.089649667483926,
        60.251447198510753,
        60.434083355832961,
        60.375180586047108,
        60.316076723602833,
        60.256764457724564,
        59.84749540380875,
        59.575120412499523,
        59.735693758627185,
        60.06421824167542,
        60.470414310697031,
        60.805140837667892,
        61.045218813081156,
        60.975864747274727,
        60.711813135888974,
        60.22968754735296,
        59.733749769749423,
        58.335177702003662,
        56.106889686001395,
        59.161943525329214,
        59.052992229299235,
        58.995277464648836,
        58.877178663550801,
        58.859324038487543,
        58.879281539924975,
        58.899215073804925,
        58.919124555522217,
        58.809488210939811,
        58.668063847522504,
        58.525473514884609,
        57.998680532508672,
        56.766020458748528,
        56.326087406765623,
        54.718284717074724,
        53.42179695753785,
        52.10665876437578,
        49.221186738749196,
        45.622561948598602,
        38.095480180042685,
        36.667479203577379,
        39.291114654320381,
        39.387160139894178,
        51.606862805031284,
        51.944428288169973,
        52.345591276705044,
        53.114294998590537,
        53.84312409738677,
        54.018638502773754,
        54.625952247962331,
        55.004480277896121,
        55.156072343134817,
        55.177204950814335,
        55.143113831715603,
        55.157234352210573,
        55.223579194027685,
        55.209050621198855,
        55.015384454689439,
        54.908930816552655,
        54.75689634340862,
        54.772972765317583,
        55.151891091282067,
        55.198065278732201,
        55.244115334951132,
        55.3165244080908,
        55.429430143512178,
        55.696393563927643,
        55.803981244928067,
        55.556587404739609,
        55.323298788006838,
        55.406045479475843,
        55.117130299166718,
        54.204108439562162,
        53.396330388295752,
        54.074253151050911,
        54.255995412214126,
        54.8425923436753,
        55.386600901226096,
        54.254582727554073,
        38.107712327938714,
        35.81524571967325,
        38.132361106799088,
        37.325148816249992,
        35.790835523172142,
        37.742889349284873,
        38.293179028058084,
        39.852948034965543,
        40.818770123611216,
        41.65025443934465,
        41.974447839412086,
        43.101854212383437,
        46.133665387424287,
        0.0,
        0.0,
        0.0,
        56.809991634667398,
        0.0,
        0.0,
        0.0,
        0.0,
        44.028960055397192,
        38.564535421192318,
        37.869644438524929,
        45.990952125625753,
        48.445665594891551,
        49.337931574572806,
        51.18819814673305,
        52.062314342932211,
        53.451225444331527,
        54.130922601072513,
        54.328272995711188,
        54.317063181966226,
        54.092269752839442,
        53.623293518442537,
        52.917708761618755,
        53.080603429794351,
        52.8472033197625,
        52.610615146028827,
        52.581086697806164,
        52.657916842419638,
        52.79296971379523,
        52.926978686439398,
        53.045898489767808,
        52.996995734231604,
        53.162990966091279,
        53.589941409654152,
        54.00661688845166,
        54.756323659321993,
        54.872620562117859,
        54.86451831589261,
        54.575304777958046,
        54.074952647546503,
        53.838509651809552,
        53.800839963287203,
        53.134822934328056,
        53.079731519265657,
        53.219328924913114,
        53.357811146895429,
        53.495198763542888,
        53.552185121591705,
        53.474561198390369,
        53.443310045573952,
        53.52217639517302,
        53.656524605967519,
        53.934420149487202,
        53.962924898304209,
        54.035768352285025,
        53.912224632657804,
        53.964574730869614,
        53.796300872837691,
        53.531955681492505,
        52.556787324500519,
        53.306117784856845,
        54.162409302315979,
        38.746407278364543,
        46.884909157733688,
        42.861135547072223,
        43.478210504321176,
        43.512810702045364,
        46.254530665961362,
        49.345262979802378,
        53.813464347856701,
        48.685883651008503,
        0.0,
        0.0,
        40.584719336254189,
        37.208788307146449,
        0.0,
        0.0,
        0.0,
        0.0,
        0.0,
        0.0,
        0.0,
        0.0,
        0.0,
        0.0,
        0.0,
        0.0,
        0.0,
        0.0,
        0.0,
        0.0,
        0.0,
        0.0,
        0.0,
        0.0,
        0.0,
        0.0,
        0.0,
        0.0,
        0.0,
        0.0,
        0.0,
        0.0,
        0.0,
        0.0,
        0.0,
        0.0
    ],
    "time": [
        0.02,
        0.040000000000000001,
        0.059999999999999998,
        0.080000000000000002,
        0.10000000000000001,
        0.12,
        0.14000000000000001,
        0.16,
        0.17999999999999999,
        0.20000000000000001,
        0.22,
        0.23999999999999999,
        0.26000000000000001,
        0.28000000000000003,
        0.29999999999999999,
        0.32000000000000001,
        0.34000000000000002,
        0.35999999999999999,
        0.38,
        0.40000000000000002,
        0.41999999999999998,
        0.44,
        0.46000000000000002,
        0.47999999999999998,
        0.5,
        0.52000000000000002,
        0.54000000000000004,
        0.56000000000000005,
        0.57999999999999996,
        0.59999999999999998,
        0.62,
        0.64000000000000001,
        0.66000000000000003,
        0.68000000000000005,
        0.69999999999999996,
        0.71999999999999997,
        0.73999999999999999,
        0.76000000000000001,
        0.78000000000000003,
        0.80000000000000004,
        0.81999999999999995,
        0.83999999999999997,
        0.85999999999999999,
        0.88,
        0.90000000000000002,
        0.92000000000000004,
        0.93999999999999995,
        0.95999999999999996,
        0.97999999999999998,
        1.0,
        1.02,
        1.04,
        1.0600000000000001,
        1.0800000000000001,
        1.1000000000000001,
        1.1200000000000001,
        1.1399999999999999,
        1.1599999999999999,
        1.1799999999999999,
        1.2,
        1.22,
        1.24,
        1.26,
        1.28,
        1.3,
        1.3200000000000001,
        1.3400000000000001,
        1.3600000000000001,
        1.3799999999999999,
        1.3999999999999999,
        1.4199999999999999,
        1.4399999999999999,
        1.46,
        1.48,
        1.5,
        1.52,
        1.54,
        1.5600000000000001,
        1.5800000000000001,
        1.6000000000000001,
        1.6200000000000001,
        1.6399999999999999,
        1.6599999999999999,
        1.6799999999999999,
        1.7,
        1.72,
        1.74,
        1.76,
        1.78,
        1.8,
        1.8200000000000001,
        1.8400000000000001,
        1.8600000000000001,
        1.8799999999999999,
        1.8999999999999999,
        1.9199999999999999,
        1.9399999999999999,
        1.96,
        1.98,
        2.0,
        2.02,
        2.04,
        2.0600000000000001,
        2.0800000000000001,
        2.1000000000000001,
        2.1200000000000001,
        2.1400000000000001,
        2.1600000000000001,
        2.1800000000000002,
        2.2000000000000002,
        2.2200000000000002,
        2.2400000000000002,
        2.2599999999999998,
        2.2799999999999998,
        2.2999999999999998,
        2.3199999999999998,
        2.3399999999999999,
        2.3599999999999999,
        2.3799999999999999,
        2.3999999999999999,
        2.4199999999999999,
        2.4399999999999999,
        2.46,
        2.48,
        2.5,
        2.52,
        2.54,
        2.5600000000000001,
        2.5800000000000001,
        2.6000000000000001,
        2.6200000000000001,
        2.6400000000000001,
        2.6600000000000001,
        2.6800000000000002,
        2.7000000000000002,
        2.7200000000000002,
        2.7400000000000002,
        2.7599999999999998,
        2.7799999999999998,
        2.7999999999999998,
        2.8199999999999998,
        2.8399999999999999,
        2.8599999999999999,
        2.8799999999999999,
        2.8999999999999999,
        2.9199999999999999,
        2.9399999999999999,
        2.96,
        2.98,
        3.0,
        3.02,
        3.04,
        3.0600000000000001,
        3.0800000000000001,
        3.1000000000000001,
        3.1200000000000001,
        3.1400000000000001,
        3.1600000000000001,
        3.1800000000000002,
        3.2000000000000002,
        3.2200000000000002,
        3.2400000000000002,
        3.2599999999999998,
        3.2799999999999998,
        3.2999999999999998,
        3.3199999999999998,
        3.3399999999999999,
        3.3599999999999999,
        3.3799999999999999,
        3.3999999999999999,
        3.4199999999999999,
        3.4399999999999999,
        3.46,
        3.48,
        3.5,
        3.52,
        3.54,
        3.5600000000000001,
        3.5800000000000001,
        3.6000000000000001,
        3.6200000000000001,
        3.6400000000000001,
        3.6600000000000001,
        3.6800000000000002,
        3.7000000000000002,
        3.7200000000000002,
        3.7400000000000002,
        3.7599999999999998,
        3.7799999999999998,
        3.7999999999999998,
        3.8199999999999998,
        3.8399999999999999,
        3.8599999999999999,
        3.8799999999999999,
        3.8999999999999999,
        3.9199999999999999,
        3.9399999999999999,
        3.96,
        3.98,
        4.0,
        4.0199999999999996,
        4.04,
        4.0599999999999996,
        4.0800000000000001,
        4.0999999999999996,
        4.1200000000000001,
        4.1399999999999997,
        4.1600000000000001,
        4.1799999999999997,
        4.2000000000000002,
        4.2199999999999998,
        4.2400000000000002,
        4.2599999999999998,
        4.2800000000000002,
        4.2999999999999998,
        4.3200000000000003,
        4.3399999999999999,
        4.3600000000000003,
        4.3799999999999999,
        4.4000000000000004,
        4.4199999999999999,
        4.4400000000000004,
        4.46,
        4.4800000000000004,
        4.5,
        4.5199999999999996,
        4.54,
        4.5599999999999996,
        4.5800000000000001,
        4.5999999999999996,
        4.6200000000000001,
        4.6399999999999997,
        4.6600000000000001,
        4.6799999999999997,
        4.7000000000000002,
        4.7199999999999998,
        4.7400000000000002,
        4.7599999999999998,
        4.7800000000000002,
        4.7999999999999998,
        4.8200000000000003,
        4.8399999999999999,
        4.8600000000000003,
        4.8799999999999999,
        4.9000000000000004,
        4.9199999999999999,
        4.9400000000000004,
        4.96,
        4.9800000000000004,
        5.0,
        5.0199999999999996,
        5.04,
        5.0599999999999996,
        5.0800000000000001,
        5.0999999999999996,
        5.1200000000000001,
        5.1399999999999997,
        5.1600000000000001,
        5.1799999999999997,
        5.2000000000000002,
        5.2199999999999998,
        5.2400000000000002,
        5.2599999999999998,
        5.2800000000000002,
        5.2999999999999998,
        5.3200000000000003,
        5.3399999999999999,
        5.3600000000000003,
        5.3799999999999999,
        5.4000000000000004,
        5.4199999999999999,
        5.4400000000000004,
        5.46,
        5.4800000000000004,
        5.5,
        5.5199999999999996,
        5.54,
        5.5599999999999996,
        5.5800000000000001,
        5.5999999999999996,
        5.6200000000000001,
        5.6399999999999997,
        5.6600000000000001,
        5.6799999999999997,
        5.7000000000000002,
        5.7199999999999998,
        5.7400000000000002,
        5.7599999999999998,
        5.7800000000000002,
        5.7999999999999998,
        5.8200000000000003,
        5.8399999999999999,
        5.8600000000000003,
        5.8799999999999999,
        5.9000000000000004,
        5.9199999999999999,
        5.9400000000000004,
        5.96,
        5.9800000000000004,
        6.0,
        6.0199999999999996,
        6.04,
        6.0599999999999996,
        6.0800000000000001,
        6.0999999999999996,
        6.1200000000000001,
        6.1399999999999997,
        6.1600000000000001,
        6.1799999999999997,
        6.2000000000000002,
        6.2199999999999998,
        6.2400000000000002,
        6.2599999999999998,
        6.2800000000000002,
        6.2999999999999998,
        6.3200000000000003,
        6.3399999999999999,
        6.3600000000000003,
        6.3799999999999999,
        6.4000000000000004,
        6.4199999999999999,
        6.4400000000000004,
        6.46,
        6.4800000000000004,
        6.5,
        6.5199999999999996,
        6.54,
        6.5599999999999996,
        6.5800000000000001,
        6.5999999999999996,
        6.6200000000000001,
        6.6399999999999997,
        6.6600000000000001,
        6.6799999999999997,
        6.7000000000000002,
        6.7199999999999998,
        6.7400000000000002,
        6.7599999999999998,
        6.7800000000000002,
        6.7999999999999998,
        6.8200000000000003,
        6.8399999999999999,
        6.8600000000000003,
        6.8799999999999999,
        6.9000000000000004,
        6.9199999999999999,
        6.9400000000000004,
        6.96,
        6.9800000000000004,
        7.0,
        7.0199999999999996,
        7.04,
        7.0599999999999996,
        7.0800000000000001,
        7.0999999999999996,
        7.1200000000000001,
        7.1399999999999997,
        7.1600000000000001,
        7.1799999999999997,
        7.2000000000000002,
        7.2199999999999998,
        7.2400000000000002,
        7.2599999999999998,
        7.2800000000000002,
        7.2999999999999998,
        7.3200000000000003,
        7.3399999999999999,
        7.3600000000000003,
        7.3799999999999999,
        7.4000000000000004,
        7.4199999999999999,
        7.4400000000000004,
        7.46,
        7.4800000000000004,
        7.5,
        7.5199999999999996,
        7.54,
        7.5599999999999996,
        7.5800000000000001,
        7.5999999999999996,
        7.6200000000000001,
        7.6399999999999997,
        7.6600000000000001,
        7.6799999999999997,
        7.7000000000000002,
        7.7199999999999998,
        7.7400000000000002,
        7.7599999999999998,
        7.7800000000000002,
        7.7999999999999998,
        7.8200000000000003,
        7.8399999999999999,
        7.8600000000000003,
        7.8799999999999999,
        7.9000000000000004,
        7.9199999999999999,
        7.9400000000000004,
        7.96,
        7.9800000000000004,
        8.0,
        8.0199999999999996,
        8.0399999999999991,
        8.0600000000000005,
        8.0800000000000001,
        8.0999999999999996,
        8.1199999999999992,
        8.1400000000000006,
        8.1600000000000001,
        8.1799999999999997,
        8.1999999999999993,
        8.2200000000000006,
        8.2400000000000002,
        8.2599999999999998,
        8.2799999999999994,
        8.3000000000000007,
        8.3200000000000003,
        8.3399999999999999,
        8.3599999999999994,
        8.3800000000000008,
        8.4000000000000004,
        8.4199999999999999,
        8.4399999999999995,
        8.4600000000000009,
        8.4800000000000004,
        8.5,
        8.5199999999999996,
        8.5399999999999991,
        8.5600000000000005,
        8.5800000000000001,
        8.5999999999999996,
        8.6199999999999992,
        8.6400000000000006,
        8.6600000000000001,
        8.6799999999999997,
        8.6999999999999993,
        8.7200000000000006,
        8.7400000000000002,
        8.7599999999999998,
        8.7799999999999994,
        8.8000000000000007,
        8.8200000000000003,
        8.8399999999999999,
        8.8599999999999994,
        8.8800000000000008,
        8.9000000000000004,
        8.9199999999999999,
        8.9399999999999995,
        8.9600000000000009,
        8.9800000000000004,
        9.0,
        9.0199999999999996,
        9.0399999999999991,
        9.0600000000000005,
        9.0800000000000001,
        9.0999999999999996,
        9.1199999999999992,
        9.1400000000000006,
        9.1600000000000001,
        9.1799999999999997,
        9.1999999999999993,
        9.2200000000000006,
        9.2400000000000002,
        9.2599999999999998,
        9.2799999999999994,
        9.3000000000000007,
        9.3200000000000003,
        9.3399999999999999,
        9.3599999999999994,
        9.3800000000000008,
        9.4000000000000004,
        9.4199999999999999,
        9.4399999999999995,
        9.4600000000000009,
        9.4800000000000004,
        9.5,
        9.5199999999999996,
        9.5399999999999991,
        9.5600000000000005,
        9.5800000000000001,
        9.5999999999999996,
        9.6199999999999992,
        9.6400000000000006,
        9.6600000000000001,
        9.6799999999999997,
        9.6999999999999993,
        9.7200000000000006,
        9.7400000000000002,
        9.7599999999999998,
        9.7799999999999994,
        9.8000000000000007,
        9.8200000000000003,
        9.8399999999999999,
        9.8599999999999994,
        9.8800000000000008,
        9.9000000000000004,
        9.9199999999999999
    ]
}