{
    "DU": 318,
    "DV": 173,
    "F-measure": 0.7946127946127945,
    "F-measure Chroma": 0.8843995510662178,
    "FN": 57,
    "FNC": 11,
    "FNCch": 21,
    "FNI": 46,
    "FNIch": 36,
    "FP": 34,
    "GU": 295,
    "GV": 196,
    "Overall Accuracy": 0.7209775967413442,
    "Overall Chroma Accuracy": 0.8024439918533605,
    "Precision": 0.815668202764977,
    "Precision Chroma": 0.9078341013824884,
    "Raw Chroma Accuracy": 0.7857142857142857,
    "Raw Pitch Accuracy": 0.5306122448979592,
    "Recall": 0.774617067833698,
    "Recall Chroma": 0.862144420131291,
    "TN": 261,
    "TO": 491,
    "TP": 139,
    "TPC": 93,
    "TPCch": 133,
    "TPI": 46,
    "TPIch": 6,
    "Voiced Chroma Accuracy": 0.6785714285714286,
    "Voiced Pitch Accuracy": 0.4744897959183674,
    "Voicing Accuracy": 0.814663951120163,
    "Voicing Detection": 0.7091836734693877,
    "Voicing False Alarm": 0.1152542372881356
}