{
    "DU": 232,
    "DV": 235,
    "F-measure": 0.6352357320099256,
    "F-measure Chroma": 0.7791563275434243,
    "FN": 86,
    "FNC": 18,
    "FNCch": 29,
    "FNI": 68,
    "FNIch": 57,
    "FP": 42,
    "GU": 188,
    "GV": 279,
    "Overall Accuracy": 0.5481798715203426,
    "Overall Chroma Accuracy": 0.6723768736616702,
    "Precision": 0.6719160104986877,
    "Precision Chroma": 0.8241469816272966,
    "Raw Chroma Accuracy": 0.7060931899641577,
    "Raw Pitch Accuracy": 0.45878136200716846,
    "Recall": 0.6023529411764705,
    "Recall Chroma": 0.7388235294117647,
    "TN": 146,
    "TO": 467,
    "TP": 193,
    "TPC": 110,
    "TPCch": 168,
    "TPI": 83,
    "TPIch": 25,
    "Voiced Chroma Accuracy": 0.6021505376344086,
    "Voiced Pitch Accuracy": 0.3942652329749104,
    "Voicing Accuracy": 0.7259100642398287,
    "Voicing Detection": 0.6917562724014337,
    "Voicing False Alarm": 0.22340425531914893
}