{
    "f0": [
        37.480078767700313,
        42.886009693907681,
        43.775408580805589,
        42.275247790737019,
        39.956549752135402,
        51.962947055182916,
        54.423368868228053,
        41.697065532262485,
        41.637749718084223,
        42.089111955941604,
        43.812694817248797,
        47.865092730279926,
        51.681498163259427,
        54.058067948475369,
        55.955860731997333,
        50.586875130596326,
        53.561146410883055,
        54.928860869623378,
        54.210622675672127,
        52.294922091958291,
        52.805322360246159,
        53.602971724193445,
        53.144690007498482,
        55.449895644982313,
        55.243987743916641,
        55.549387992334204,
        55.078630330620555,
        55.94956934720247,
        56.416662244963646,
        57.672682485392144,
        57.411919388339982,
        57.199280528709004,
        57.34087860637618,
        57.363655751935319,
        57.271263999773943,
        57.145920623351451,
        56.862019553785217,
        52.88129243575635,
        49.388953532268516,
        55.949085795084855,
        35.853266044925888,
        56.180956818597849,
        56.823227653552365,
        56.915200942418018,
        57.096971952833833,
        57.214480600854934,
        57.166723459569468,
        57.160187336587285,
        57.305240402059013,
        57.220309818987374,
        57.053849142556487,
        57.099039975400814,
        57.121995415886886,
        57.498796901115583,
        57.206341730905123,
        57.26946592726037,
        56.970848874515013,
        57.054355438985446,
        57.020064938331913,
        56.985706383770577,
        56.936506852710352,
        56.831708632308008,
        56.754198545161792,
        57.032169472581188,
        57.231890160199598,
        56.938565148595515,
        57.063495645362366,
        56.981854321936552,
        56.993425807077969,
        57.203045243899638,
        57.65541827128709,
        57.627401934371051,
        58.170334843578374,
        58.197757985150638,
        58.987772692376595,
        59.554721939754742,
        59.84554156296057,
        59.909243165903419,
        59.972711300999244,
        59.686190008202018,
        59.855282205466445,
        60.012409833892136,
        59.999249703392337,
        59.986083601241852,
        59.984456631170502,
        59.977055319076094,
        59.80861508991471,
        59.892282102171684,
        60.064998868061636,
        59.968127469086937,
        59.800572311251486,
        59.839091641957182,
        59.877525392134963,
        59.926074123578729,
        59.933199198426813,
        59.892800260551027,
        59.74091553107877,
        59.643966888742128,
        59.816623437442942,
        59.911967278644951,
        59.870434298201218,
        59.934297949567735,
        59.997926879327416,
        59.887327320135547,
        60.277492514355629,
        60.332505077547232,
        60.201117142154274,
        60.089536070787133,
        59.617002696220098,
        45.265357294289956,
        38.281682813127198,
        56.876270573362326,
        41.457544537053906,
        41.461592836547474,
        0.0,
        0.0,
        36.286089346920697,
        38.219512948651065,
        50.572171513688829,
        50.915006336867336,
        45.037307998752098,
        51.408576517504542,
        54.993544929180771,
        52.812095707405341,
        52.752901649149962,
        53.036334281833369,
        51.469168682364625,
        53.519837892349898,
        53.83921732153307,
        0.0,
        41.471182746115559,
        42.702996608768899,
        55.076416399976765,
        0.0,
        0.0,
        0.0,
        35.207236751601897,
        40.404040784415287,
        59.961878914220534,
        60.134142620363612,
        60.30470911768456,
        60.332954726913989,
        60.361156336616688,
        60.215313474937567,
        52.784571305757964,
        49.791670161656235,
        53.90768304447883,
        51.71363157224269,
        50.98093491193741,
        48.781016780662767,
        44.784118921193674,
        51.71176888129046,
        64.065388377941133,
        64.140668620775529,
        64.326810796392266,
        64.396842689087478,
        64.554539735012995,
        64.6672898420303,
        64.626949611401685,
        64.617386175988784,
        64.41838263173274,
        64.485412147311294,
        64.552183191069517,
        64.539937439000312,
        64.52727724340356,
        64.514607731880631,
        64.501928992789203,
        64.643281077751354,
        64.664058581690384,
        64.570561180320681,
        64.620476119613031,
        64.444618863650831,
        64.185569463583747,
        64.136219685098894,
        63.45261538554594,
        63.074164193663471,
        62.687253040402027,
        62.117505552368186,
        61.961420238492693,
        62.265759124753693,
        62.642176206125839,
        62.798777972992077,
        62.709502280664267,
        62.366436068849012,
        62.318411484058785,
        62.462336184839238,
        63.072540884845807,
        63.289454706681923,
        63.5036875610339,
        63.541307999849622,
        63.623030158479189,
        63.508400965035193,
        63.552736263120138,
        63.493047138177594,
        62.60871001175061,
        62.116665692658827,
        60.497133301424576,
        59.679018070434708,
        58.997098614725601,
        59.040016812615406,
        59.564311733067676,
        59.31377816314469,
        59.059564743462957,
        58.801559506317609,
        59.051387068048911,
        59.491011122158952,
        59.65316227334236,
        59.813808763615803,
        59.97297826105136,
        59.603376194329933,
        59.778080636880127,
        60.127560777991832,
        60.034061216524925,
        60.001101513759039,
        60.138818923112872,
        60.116929187625828,
        60.076277663458477,
        59.918102029681293,
        59.643832874689323,
        59.766319294890891,
        59.60144004152599,
        59.694454600447941,
        59.803280914843768,
        59.903324667163574,
        59.832828937000357,
        59.84515852662134,
        59.734192731632476,
        59.79715025854388,
        59.85987973207618,
        59.781154707801335,
        59.702070125774064,
        59.827553213388761,
        59.797487426080053,
        59.77795791202702,
        59.758406409554858,
        59.738832801840459,
        59.719236971588046,
        59.699621022928369,
        59.825837750673934,
        59.756090225268949,
        59.686060498352703,
        59.788008547748014,
        59.920165365639342,
        59.686282591652358,
        59.613242639339205,
        59.539893296797857,
        59.809062228870062,
        59.796715064367419,
        59.784359087579432,
        59.944260248616501,
        59.8346822656572,
        59.724406291608197,
        59.896837329745011,
        59.826608814246725,
        59.756094319044891,
        59.772575460927968,
        59.789040927881501,
        59.63149522117088,
        59.72124210377747,
        59.71476621595869,
        59.864034329701276,
        59.81049141707301,
        59.786567252297516,
        59.799448772701524,
        59.7988991601392,
        59.795364419795327,
        59.965588283541265,
        59.86471005958046,
        59.76324057585078,
        59.900483457593538,
        59.848674972031574,
        59.796710980185637,
        59.87607933375903,
        59.844078541510783,
        59.839497253512562,
        59.834914686061246,
        59.830330972109472,
        59.972784138820039,
        59.888825318636357,
        59.896552883642542,
        59.904275004725882,
        59.797773437555549,
        59.759819321044255,
        59.859399213611511,
        59.811089631314715,
        59.981357772693649,
        59.893848714782393,
        59.89539894178165,
        60.042981277570092,
        59.943073034229279,
        59.958840815650184,
        59.979408845513873,
        59.999952468400423,
        59.670715215222998,
        59.513047822585783,
        58.914603569647326,
        41.688830062106149,
        54.580788965138524,
        44.850789845677738,
        43.043126370397715,
        47.134855320746368,
        48.062258576575061,
        47.704732526960939,
        47.295067479334854,
        46.969936379525848,
        45.352738536576595,
        44.293230483135396,
        43.681362549736612,
        43.680667886621137,
        43.877792498111901,
        0.0,
        0.0,
        0.0,
        0.0,
        0.0,
        0.0,
        0.0,
        0.0,
        0.0,
        0.0,
        0.0,
        0.0,
        0.0,
        0.0,
        0.0,
        0.0,
        0.0,
        0.0,
        0.0,
        0.0,
        0.0,
        0.0,
        0.0,
        0.0,
        0.0,
        0.0,
        0.0,
        0.0,
        0.0,
        0.0,
        0.0,
        0.0,
        0.0,
        0.0,
        0.0,
        0.0,
        0.0,
        0.0,
        0.0,
        0.0,
        0.0,
        0.0,
        0.0,
        0.0,
        0.0,
        0.0,
        0.0,
        0.0,
        0.0,
        0.0,
        0.0,
        0.0,
        0.0,
        0.0,
        0.0,
        0.0,
        0.0,
        0.0,
        0.0,
        0.0,
        0.0,
        0.0,
        0.0,
        0.0,
        0.0,
        0.0,
        0.0,
        0.0,
        0.0,
        0.0,
        0.0,
        0.0,
        0.0,
        0.0,
        0.0,
        0.0,
        0.0,
        0.0,
        0.0,
        0.0,
        0.0,
        0.0,
        0.0,
        0.0,
        0.0,
        0.0,
        0.0,
        0.0,
        0.0,
        0.0,
        0.0,
        0.0,
        0.0,
        0.0,
        0.0,
        0.0,
        0.0,
        0.0,
        0.0,
        0.0,
        0.0,
        0.0,
        0.0,
        0.0,
        0.0,
        0.0,
        0.0,
        0.0,
        0.0,
        0.0,
        0.0,
        0.0,
        0.0,
        0.0,
        0.0,
        0.0,
        0.0,
        0.0,
        0.0,
        0.0,
        0.0,
        0.0,
        0.0,
        0.0,
        0.0,
        0.0,
        0.0,
        0.0,
        0.0,
        0.0,
        0.0,
        0.0,
        0.0,
        0.0,
        0.0,
        0.0,
        0.0,
        0.0,
        0.0,
        0.0,
        0.0,
        0.0,
        0.0,
        0.0,
        0.0,
        0.0,
        0.0,
        0.0,
        0.0,
        0.0,
        0.0,
        0.0,
        0.0,
        0.0,
        0.0,
        0.0,
        0.0,
        0.0,
        0.0,
        0.0,
        0.0,
        0.0,
        0.0,
        0.0,
        0.0,
        0.0,
        0.0,
        0.0,
        0.0,
        0.0,
        0.0,
        0.0,
        0.0,
        0.0
    ],
    "time": [
        0.02,
        0.040000000000000001,
        0.059999999999999998,
        0.080000000000000002,
        0.10000000000000001,
        0.12,
        0.14000000000000001,
        0.16,
        0.17999999999999999,
        0.20000000000000001,
        0.22,
        0.23999999999999999,
        0.26000000000000001,
        0.28000000000000003,
        0.29999999999999999,
        0.32000000000000001,
        0.34000000000000002,
        0.35999999999999999,
        0.38,
        0.40000000000000002,
        0.41999999999999998,
        0.44,
        0.46000000000000002,
        0.47999999999999998,
        0.5,
        0.52000000000000002,
        0.54000000000000004,
        0.56000000000000005,
        0.57999999999999996,
        0.59999999999999998,
        0.62,
        0.64000000000000001,
        0.66000000000000003,
        0.68000000000000005,
        0.69999999999999996,
        0.71999999999999997,
        0.73999999999999999,
        0.76000000000000001,
        0.78000000000000003,
        0.80000000000000004,
        0.81999999999999995,
        0.83999999999999997,
        0.85999999999999999,
        0.88,
        0.90000000000000002,
        0.92000000000000004,
        0.93999999999999995,
        0.95999999999999996,
        0.97999999999999998,
        1.0,
        1.02,
        1.04,
        1.0600000000000001,
        1.0800000000000001,
        1.1000000000000001,
        1.1200000000000001,
        1.1399999999999999,
        1.1599999999999999,
        1.1799999999999999,
        1.2,
        1.22,
        1.24,
        1.26,
        1.28,
        1.3,
        1.3200000000000001,
        1.3400000000000001,
        1.3600000000000001,
        1.3799999999999999,
        1.3999999999999999,
        1.4199999999999999,
        1.4399999999999999,
        1.46,
        1.48,
        1.5,
        1.52,
        1.54,
        1.5600000000000001,
        1.5800000000000001,
        1.6000000000000001,
        1.6200000000000001,
        1.6399999999999999,
        1.6599999999999999,
        1.6799999999999999,
        1.7,
        1.72,
        1.74,
        1.76,
        1.78,
        1.8,
        1.8200000000000001,
        1.8400000000000001,
        1.8600000000000001,
        1.8799999999999999,
        1.8999999999999999,
        1.9199999999999999,
        1.9399999999999999,
        1.96,
        1.98,
        2.0,
        2.02,
        2.04,
        2.0600000000000001,
        2.0800000000000001,
        2.1000000000000001,
        2.1200000000000001,
        2.1400000000000001,
        2.1600000000000001,
        2.1800000000000002,
        2.2000000000000002,
        2.2200000000000002,
        2.2400000000000002,
        2.2599999999999998,
        2.2799999999999998,
        2.2999999999999998,
        2.3199999999999998,
        2.3399999999999999,
        2.3599999999999999,
        2.3799999999999999,
        2.3999999999999999,
        2.4199999999999999,
        2.4399999999999999,
        2.46,
        2.48,
        2.5,
        2.52,
        2.54,
        2.5600000000000001,
        2.5800000000000001,
        2.6000000000000001,
        2.6200000000000001,
        2.6400000000000001,
        2.6600000000000001,
        2.6800000000000002,
        2.7000000000000002,
        2.7200000000000002,
        2.7400000000000002,
        2.7599999999999998,
        2.7799999999999998,
        2.7999999999999998,
        2.8199999999999998,
        2.8399999999999999,
        2.8599999999999999,
        2.8799999999999999,
        2.8999999999999999,
        2.9199999999999999,
        2.9399999999999999,
        2.96,
        2.98,
        3.0,
        3.02,
        3.04,
        3.0600000000000001,
        3.0800000000000001,
        3.1000000000000001,
        3.1200000000000001,
        3.1400000000000001,
        3.1600000000000001,
        3.1800000000000002,
        3.2000000000000002,
        3.2200000000000002,
        3.2400000000000002,
        3.2599999999999998,
        3.2799999999999998,
        3.2999999999999998,
        3.3199999999999998,
        3.3399999999999999,
        3.3599999999999999,
        3.3799999999999999,
        3.3999999999999999,
        3.4199999999999999,
        3.4399999999999999,
        3.46,
        3.48,
        3.5,
        3.52,
        3.54,
        3.5600000000000001,
        3.5800000000000001,
        3.6000000000000001,
        3.6200000000000001,
        3.6400000000000001,
        3.6600000000000001,
        3.6800000000000002,
        3.7000000000000002,
        3.7200000000000002,
        3.7400000000000002,
        3.7599999999999998,
        3.7799999999999998,
        3.7999999999999998,
        3.8199999999999998,
        3.8399999999999999,
        3.8599999999999999,
        3.8799999999999999,
        3.8999999999999999,
        3.9199999999999999,
        3.9399999999999999,
        3.96,
        3.98,
        4.0,
        4.0199999999999996,
        4.04,
        4.0599999999999996,
        4.0800000000000001,
        4.0999999999999996,
        4.1200000000000001,
        4.1399999999999997,
        4.1600000000000001,
        4.1799999999999997,
        4.2000000000000002,
        4.2199999999999998,
        4.2400000000000002,
        4.2599999999999998,
        4.2800000000000002,
        4.2999999999999998,
        4.3200000000000003,
        4.3399999999999999,
        4.3600000000000003,
        4.3799999999999999,
        4.4000000000000004,
        4.4199999999999999,
        4.4400000000000004,
        4.46,
        4.4800000000000004,
        4.5,
        4.5199999999999996,
        4.54,
        4.5599999999999996,
        4.5800000000000001,
        4.5999999999999996,
        4.6200000000000001,
        4.6399999999999997,
        4.6600000000000001,
        4.6799999999999997,
        4.7000000000000002,
        4.7199999999999998,
        4.7400000000000002,
        4.7599999999999998,
        4.7800000000000002,
        4.7999999999999998,
        4.8200000000000003,
        4.8399999999999999,
        4.8600000000000003,
        4.8799999999999999,
        4.9000000000000004,
        4.9199999999999999,
        4.9400000000000004,
        4.96,
        4.9800000000000004,
        5.0,
        5.0199999999999996,
        5.04,
        5.0599999999999996,
        5.0800000000000001,
        5.0999999999999996,
        5.1200000000000001,
        5.1399999999999997,
        5.1600000000000001,
        5.1799999999999997,
        5.2000000000000002,
        5.2199999999999998,
        5.2400000000000002,
        5.2599999999999998,
        5.2800000000000002,
        5.2999999999999998,
        5.3200000000000003,
        5.3399999999999999,
        5.3600000000000003,
        5.3799999999999999,
        5.4000000000000004,
        5.4199999999999999,
        5.4400000000000004,
        5.46,
        5.4800000000000004,
        5.5,
        5.5199999999999996,
        5.54,
        5.5599999999999996,
        5.5800000000000001,
        5.5999999999999996,
        5.6200000000000001,
        5.6399999999999997,
        5.6600000000000001,
        5.6799999999999997,
        5.7000000000000002,
        5.7199999999999998,
        5.7400000000000002,
        5.7599999999999998,
        5.7800000000000002,
        5.7999999999999998,
        5.8200000000000003,
        5.8399999999999999,
        5.8600000000000003,
        5.8799999999999999,
        5.9000000000000004,
        5.9199999999999999,
        5.9400000000000004,
        5.96,
        5.9800000000000004,
        6.0,
        6.0199999999999996,
        6.04,
        6.0599999999999996,
        6.0800000000000001,
        6.0999999999999996,
        6.1200000000000001,
        6.1399999999999997,
        6.1600000000000001,
        6.1799999999999997,
        6.2000000000000002,
        6.2199999999999998,
        6.2400000000000002,
        6.2599999999999998,
        6.2800000000000002,
        6.2999999999999998,
        6.3200000000000003,
        6.3399999999999999,
        6.3600000000000003,
        6.3799999999999999,
        6.4000000000000004,
        6.4199999999999999,
        6.4400000000000004,
        6.46,
        6.4800000000000004,
        6.5,
        6.5199999999999996,
        6.54,
        6.5599999999999996,
        6.5800000000000001,
        6.5999999999999996,
        6.6200000000000001,
        6.6399999999999997,
        6.6600000000000001,
        6.6799999999999997,
        6.7000000000000002,
        6.7199999999999998,
        6.7400000000000002,
        6.7599999999999998,
        6.7800000000000002,
        6.7999999999999998,
        6.8200000000000003,
        6.8399999999999999,
        6.8600000000000003,
        6.8799999999999999,
        6.9000000000000004,
        6.9199999999999999,
        6.9400000000000004,
        6.96,
        6.9800000000000004,
        7.0,
        7.0199999999999996,
        7.04,
        7.0599999999999996,
        7.0800000000000001,
        7.0999999999999996,
        7.1200000000000001,
        7.1399999999999997,
        7.1600000000000001,
        7.1799999999999997,
        7.2000000000000002,
        7.2199999999999998,
        7.2400000000000002,
        7.2599999999999998,
        7.2800000000000002,
        7.2999999999999998,
        7.3200000000000003,
        7.3399999999999999,
        7.3600000000000003,
        7.3799999999999999,
        7.4000000000000004,
        7.4199999999999999,
        7.4400000000000004,
        7.46,
        7.4800000000000004,
        7.5,
        7.5199999999999996,
        7.54,
        7.5599999999999996,
        7.5800000000000001,
        7.5999999999999996,
        7.6200000000000001,
        7.6399999999999997,
        7.6600000000000001,
        7.6799999999999997,
        7.7000000000000002,
        7.7199999999999998,
        7.7400000000000002,
        7.7599999999999998,
        7.7800000000000002,
        7.7999999999999998,
        7.8200000000000003,
        7.8399999999999999,
        7.8600000000000003,
        7.8799999999999999,
        7.9000000000000004,
        7.9199999999999999,
        7.9400000000000004,
        7.96,
        7.9800000000000004,
        8.0,
        8.0199999999999996,
        8.0399999999999991,
        8.0600000000000005,
        8.0800000000000001,
        8.0999999999999996,
        8.1199999999999992,
        8.1400000000000006,
        8.1600000000000001,
        8.1799999999999997,
        8.1999999999999993,
        8.2200000000000006,
        8.2400000000000002,
        8.2599999999999998,
        8.2799999999999994,
        8.3000000000000007,
        8.3200000000000003,
        8.3399999999999999,
        8.3599999999999994,
        8.3800000000000008,
        8.4000000000000004,
        8.4199999999999999,
        8.4399999999999995,
        8.4600000000000009,
        8.4800000000000004,
        8.5,
        8.5199999999999996,
        8.5399999999999991,
        8.5600000000000005,
        8.5800000000000001,
        8.5999999999999996,
        8.6199999999999992,
        8.6400000000000006,
        8.6600000000000001,
        8.6799999999999997,
        8.6999999999999993,
        8.7200000000000006,
        8.7400000000000002,
        8.7599999999999998,
        8.7799999999999994,
        8.8000000000000007,
        8.8200000000000003,
        8.8399999999999999,
        8.8599999999999994,
        8.8800000000000008,
        8.9000000000000004,
        8.9199999999999999,
        8.9399999999999995,
        8.9600000000000009,
        8.9800000000000004,
        9.0,
        9.0199999999999996,
        9.0399999999999991,
        9.0600000000000005,
        9.0800000000000001,
        9.0999999999999996,
        9.1199999999999992,
        9.1400000000000006,
        9.1600000000000001,
        9.1799999999999997,
        9.1999999999999993,
        9.2200000000000006,
        9.2400000000000002,
        9.2599999999999998,
        9.2799999999999994,
        9.3000000000000007,
        9.3200000000000003,
        9.3399999999999999,
        9.3599999999999994,
        9.3800000000000008,
        9.4000000000000004,
        9.4199999999999999,
        9.4399999999999995,
        9.4600000000000009,
        9.4800000000000004,
        9.5,
        9.5199999999999996,
        9.5399999999999991,
        9.5600000000000005,
        9.5800000000000001,
        9.5999999999999996,
        9.6199999999999992,
        9.6400000000000006,
        9.6600000000000001,
        9.6799999999999997
    ]
}