{
	"f0": [NaN,63.61192752,63.74514572,63.08171293,60.68627756,60.60344806,60.96323322,61.28789002,61.16124702,60.77922907,60.62625753,60.66277318,60.97668401,61.42446691,61.71069045,61.51712582,61.14670294,60.80434026,60.40540239,60.03350184,59.80858479,59.66148252,59.72576491,59.85831108,59.73962685,59.67483203,59.7127891,59.7323651,59.76464619,59.87284599,60.05699938,60.0647606,59.91447021,59.80403802,59.84644896,59.84882307,59.61293967,59.52643629,59.64933628,59.69734602,59.55994446,59.55713817,59.70388856,59.85521888,59.477321,58.300008,59.74828517,57.87302301,55.57828213,55.41806789,55.84359032,60.62137826,60.33040771,59.48573577,59.14281619,60.94097616,69.90456148,70.13428215,70.73182158,72.23610074,62.4780494,61.83677829,62.4780494,60.49567936,59.60538859,59.26903411,59.31815587,59.46614909,59.44798148,58.4873046,58.16354076,58.15406848,49.39205975,74.80781824,73.32754092,60.0442468,59.68857232,60.3004625,60.58390424,61.74694617,62.90830414,63.75463077,64.07678105,64.19459734,64.23889801,64.16066125,63.98965161,64.02389044,64.12574437,63.57406786,63.48682058,64.19354484,66.40017574,66.52125307,66.2194528,65.75055519,69.01686896,67.55529084,66.97656693,67.1139509,67.26684862,67.4811337,67.65052923,67.79770456,67.80646773,67.61785816,67.52170127,67.41562091,67.38494262,67.40205846,67.41285958,67.34840902,67.3230132,67.43576754,67.53322545,67.46052209,66.78821271,66.79041815,67.03875564,66.93230439,66.86479751,67.77897885,67.31334422,67.32788473,67.30465722,67.13001665,66.94778084,67.00861181,67.22340237,67.49641682,67.75116684,68.44994692,68.72462635,68.86658636,68.89079315,69.05424992,69.201652,69.32035042,69.38432927,69.06661417,68.64364546,67.27399711,66.63443183,66.49795938,66.71550188,66.75108562,66.83344199,67.34995772,67.45101689,67.35040704,67.20234009,67.12843476,67.10323688,67.03314631,67.08336038,67.14074373,67.11849546,67.12130452,67.10574748,67.16018166,67.21625608,67.19309057,67.15359751,67.10728937,67.14905484,67.13835386,67.11817558,67.17328826,67.18669626,67.15324225,67.1229257,67.15216473,67.1764543,67.19688079,67.17378084,67.09849331,67.07511881,67.04007222,66.95140983,66.96043018,67.03683554,67.08738625,67.13503254,67.19248627,67.21530511,67.22467925,67.20857766,67.19279948,67.24025345,67.26338461,67.2264449,67.20915488,67.18840815,67.17919837,67.2042091,67.33205661,67.38894352,67.34171062,67.27546174,67.24441216,67.22335717,67.21970101,67.24714362,67.36712953,67.38411177,67.167283,67.17578334,67.18480614,67.2111237,67.24073829,67.14249865,67.07947023,66.97255742,66.89798539,66.92223818,66.91129809,66.94783435,66.95683982,66.98577805,67.04449421,67.0632965,67.06087023,67.00639574,66.99506575,67.06225859,67.09638749,67.09372754,67.06232363,67.04573226,67.09625939,67.10079377,67.06586776,67.10752381,67.16347827,67.13695277,67.0987297,67.05056982,67.0414693,67.11330903,67.12742398,67.01697127,66.78098055,66.65547663,66.51052176,66.01927128,65.91185263,65.93603408,65.87000427,65.74990129,65.47541087,64.86627195,64.66112494,64.559046,64.21651642,63.85953434,63.66579031,63.32766408,62.49222097,62.45480293,62.47673491,62.45512213,62.68720309,62.87254706,62.83491941,62.78023925,62.65182742,62.48001606,62.43861711,62.48721945,62.59579483,62.63627927,62.58442659,62.59307494,62.41151521,62.28012618,62.24337133,62.20170673,62.12313239,62.3024476,63.3191765,63.4873689,63.0284226,62.264293,61.88627941,58.42002457,59.22427529,60.83024523,60.84327408,62.40129719,63.14399075,64.80054434,64.93035138,63.92665913,59.21309485,60.33040771,60.91732291,56.66881284,58.16354076,48.32493536,52.93035138,48.1561208,48.29805788,48.47528169,55.71934605,49.17724521,48.91732291,38.9827605,47.7548296,47.62663121,76.78337173,55.20262999,55.13489482,55.2621331,54.83598301,54.23534012,55.78826823,55.96049943,52.74318912,52.29792683,52.13799945,54.0979178,54.2627372,55.82524466,40.75269944,40.81607967,47.50286283,58.9446811,54.50528578,52.66984931,42.71262168,62.4780494,63.32419952,63.55011883,63.77573929,63.86366211,64.00761342,64.0919354,64.09200167,64.18123637,64.34290096,64.447723,64.28159219,64.13949677,64.53563487,64.11437067,64.93035138,65.18547356,65.16911358,64.93151838,64.91957392,65.25864896,64.19354484,63.48682058,53.82200678,54.69045995,54.0979178,54.67218988,65.67907099,65.86177402,65.90082647,65.69501057,65.64826627,65.62845901,65.72375803,66.48787869,66.65224546,66.74459614,66.85827808,67.02291443,66.92264302,66.73733152,66.79851099,66.88940164,66.81624885,66.86037025,66.93130088,66.89808703,66.82303188,66.71095472,66.67617296,66.70825487,66.63020903,66.54187554,66.66537772,66.62095004,66.67279467,66.48775239,65.64358588,65.62907193,76.93035138,51.8634187,51.7708544,50.15928938,61.51237618,61.21841468,60.53859309,47.76273913,58.93321168,47.66015791,61.69629175,60.78068251,60.31698594,59.40153592,58.74188411,58.75818089,58.94603607,59.12454282,59.1254939,59.25733934,60.29087354,59.75547618,59.38106507,59.04649674,58.64806852,58.07604617,57.59782545,57.99561979,57.97912178,57.66169865,57.00630745,57.17399484,57.31115183,56.86886179,56.85561547,57.3507683,58.06573826,58.222665,58.68730807,59.18573458,59.33275189,59.61243056,59.73668399,59.83937299,60.10459191,60.24012391,60.25498234,60.19243981,60.20941968,60.3042223,60.38320544,60.29443319,60.13379667,60.09617738,60.12399909,60.09786325,60.15601991,60.25650331,60.16403231,60.01590147,60.04827376,60.18525179,60.21414572,60.19035085,60.11482742,60.09606107,60.13463006,60.06342392,60.01657217,60.05242276,60.08351314,60.10003294,60.12060046,60.12817613,60.0895577,60.06354957,60.03251339,60.05598717,60.20488252,60.25569267,60.24567892,60.2230569,60.23475696,60.26477361,60.19261,60.11149509,60.02872336,60.00055226,60.04406433,60.08306056,60.03710381,59.96408707,59.82417813,59.84050288,60.11922556,60.07549427,59.78977004,59.72754074,59.70252283,59.71555073,60.01249068,60.20151954,59.99315389,60.12046508,60.42088927,60.50848344,58.86242863,57.91080137,58.1115231,58.9446811,48.91732291,46.9446811,48.0442468,50.64214864,51.83657672,54.87464368,55.54319368,55.97226272,56.19582054,55.9681582,55.13489482,52.74318912,54.71262168,55.04510988,48.42759917,54.9224708,53.47008612,45.41612942,47.21309485,48.47528169,50.27964719,50.96193612,52.01414075,52.93035138,52.55802863,46.68036542,45.65290066,45.53847862,45.66169865,44.01165637,50.98703629,56.01165637,56.20085166,55.78826823,49.06721424,52.55802863,52.19921116,50.15444483,44.44288395,52.76647405,62.15444483,61.21841468,57.67783568,54.30040362,52.37482755,38.97508853,39.31455706,69.66169865,76.93035138,76.93035138,76.93035138,76.93035138,76.93035138,76.93035138,76.93035138,76.93035138,76.93035138,76.93035138,76.93035138,76.93035138,76.93035138,76.93035138,76.93035138,76.93035138,76.93035138,76.93035138,76.93035138,76.93035138,76.93035138,76.93035138,76.93035138,76.93035138,76.93035138,76.93035138,76.93035138,76.93035138,76.93035138,76.93035138,76.93035138,76.93035138,76.93035138,76.93035138,76.93035138,76.93035138,76.93035138,76.93035138,76.93035138,76.93035138,76.93035138,76.93035138,76.93035138,76.93035138,76.93035138,76.93035138,76.93035138,76.93035138,76.93035138,76.93035138,76.93035138,76.93035138,76.93035138,76.93035138,76.93035138,76.93035138,76.93035138,76.93035138,76.93035138,76.93035138,76.93035138,76.93035138,76.93035138,76.93035138,76.93035138,76.93035138,76.93035138,76.93035138,76.93035138,76.93035138,76.93035138,76.93035138,76.93035138,76.93035138,76.93035138,76.93035138,76.93035138,76.93035138,76.93035138,76.93035138,76.93035138,76.93035138,76.93035138,76.93035138,76.93035138,76.93035138,76.93035138,76.93035138,76.93035138,76.93035138,76.93035138,76.93035138,76.93035138,76.93035138,76.93035138,76.93035138,76.93035138,76.93035138,76.93035138,76.93035138,76.93035138,76.93035138,76.93035138,76.93035138,76.93035138,76.93035138,76.93035138,76.93035138,76.93035138,76.93035138,76.93035138,76.93035138,76.93035138,76.93035138,76.93035138,76.93035138,76.93035138,76.93035138,76.93035138,76.93035138,76.93035138,76.93035138,35.38299161,42.86976957,53.13013159,53.21494421,76.93035138,76.93035138,76.93035138,NaN,NaN],
	"ap0": [NaN,0.4189328595,0.5049079275,0.2865420361,0.06598948228,0.02620021586,0.02020000358,0.009234269727,0.009961513647,0.02297646303,0.01839012319,0.01350793825,0.0279907988,0.05149342945,0.03403697055,0.05869814991,0.04037549947,0.0174857857,0.01306222904,0.006953202372,0.01291671584,0.01610710962,0.01999029206,0.01986678543,0.009716127433,0.006698337198,0.007986418243,0.01072698048,0.009983585429,0.01066046233,0.01365273358,0.01487928511,0.01195488521,0.009606897369,0.01105453808,0.01202517999,0.01091520376,0.007572901482,0.008587976097,0.006409870746,0.005076488941,0.006401449531,0.01456451276,0.02892730673,0.1148786077,0.2108999297,0.3003799889,0.2198927582,0.9095905253,0.69108673,0.6352712894,0.3853069708,0.3428978581,0.3529215085,0.4854770181,0.6781210605,0.7848111539,0.5042740107,0.5268966996,0.4041489652,0.4930150517,0.4469003056,0.3551486086,0.07642043126,0.083675549,0.03565705198,0.02061044732,0.02030096381,0.07255946219,0.1479780957,0.144928242,0.282341157,0.7578842677,0.7244430088,0.8521379436,0.5813469923,0.3175561829,0.1994529461,0.1610523258,0.1455155024,0.09010988718,0.03480908273,0.01921106081,0.02989666165,0.08206136838,0.1049248311,0.09986740801,0.1284596349,0.2474594423,0.3942803378,0.5995172788,0.2658394733,0.110551843,0.08611623173,0.1385714298,0.5620155973,0.7226765699,0.4957801989,0.02141781287,0.009262776688,0.006118956327,0.007948029032,0.01808959523,0.02890898515,0.02483458532,0.01970943277,0.0176627551,0.00850129469,0.004867736805,0.003675882474,0.003612715495,0.00787150077,0.01132892582,0.01371564764,0.01601458594,0.03210007126,0.1683262539,0.2361522669,0.1183559351,0.2239710669,0.4827528434,0.6154059891,0.1472816219,0.03564291145,0.02766427197,0.06525410986,0.05439069183,0.09729259356,0.2824253148,0.3633328606,0.2828755482,0.1389407716,0.09075137791,0.0999849817,0.09340882648,0.08790531476,0.142522257,0.2299724493,0.2063651564,0.1385025142,0.1229749643,0.1297908491,0.06344224375,0.07942259703,0.1190635466,0.1075375178,0.1184306256,0.2342755483,0.256903826,0.09401390103,0.04930919658,0.05061599348,0.07355616735,0.06512562846,0.03929525719,0.02311981136,0.01590909134,0.01322138496,0.01495577115,0.01747857383,0.0114371749,0.01094401823,0.01556965135,0.0172721685,0.01933019505,0.01613369499,0.01026162494,0.008033546404,0.006506678357,0.005541472229,0.00522810177,0.008699166561,0.01267478855,0.01637447814,0.01917146919,0.01536344949,0.0129830559,0.01188251233,0.007529123466,0.00753203182,0.006557481309,0.008111784275,0.01014842004,0.00995406563,0.009392319546,0.009446528116,0.01034370992,0.01285982431,0.01130076087,0.007703582525,0.005492642419,0.005070216243,0.005638692516,0.005763573948,0.007059635057,0.01009288832,0.007996296593,0.01155306186,0.0265474813,0.02785499788,0.02231946344,0.02936254024,0.05578231786,0.08152416086,0.06547494833,0.04053984945,0.02710667178,0.04252720474,0.04135669935,0.02322782007,0.03214635266,0.0334856248,0.03831733612,0.04269585891,0.03868296786,0.02564165565,0.0300095401,0.02875371791,0.02837040532,0.02044748009,0.00923447004,0.01267212281,0.02076319587,0.02186273387,0.01844969181,0.01348837563,0.02098445146,0.02187689504,0.01340220811,0.01091831963,0.008375769072,0.009383858157,0.01181952843,0.01116891125,0.01422505091,0.0244800986,0.02745082364,0.02669352173,0.02248995533,0.01723071043,0.06332956456,0.1708594782,0.104546933,0.07402415815,0.05514877821,0.03981203378,0.04652876736,0.09249530212,0.140003353,0.1864606064,0.1860645203,0.1328305411,0.08877812374,0.03936719681,0.06835825963,0.1736763416,0.2487523047,0.1026597984,0.08036878843,0.08699833855,0.1019891997,0.1063980724,0.13196845,0.1154507239,0.08267963687,0.04954926026,0.02696229793,0.01945321347,0.01616911952,0.02001178491,0.02571761098,0.02763230922,0.02714437393,0.03603168499,0.03431249251,0.02392453967,0.0158212392,0.03573482581,0.1573081264,0.2686568766,0.286262175,0.1954737867,0.3813567333,0.444722258,0.3711764206,0.2247149557,0.1852751788,0.3180378455,0.2697018679,0.1764087745,0.3551614643,0.4977343076,0.7355689548,0.6374970916,0.4957132819,0.4880900171,0.6468879195,0.7076548154,0.7055546734,0.9096824436,0.5372544928,0.5028429966,0.5828414188,0.6933509457,0.7111686006,0.5544463034,0.5658011289,0.6539415902,0.6555730438,0.7896191893,0.7083312782,0.5964729228,0.6047443039,0.6544611148,0.6382641903,0.7600639853,0.7317866092,0.7120285852,0.7090368316,0.5527212001,0.4553001256,0.4792066418,0.7908610902,0.5078266513,0.642125258,0.7247267185,0.9458238086,0.2923822365,0.3625463035,0.7525792383,0.4119991882,0.03915864578,0.01784035736,0.01364588435,0.01569447889,0.02495757355,0.041655947,0.07287288124,0.119176512,0.1035543722,0.08603395994,0.1502618478,0.1997849861,0.2197700548,0.5261455331,0.3892095712,0.2741192911,0.1836732733,0.09121630571,0.1669351084,0.3864040119,0.2335271569,0.3330390866,0.853733352,0.6823633893,0.5327183186,0.4479797316,0.06493958988,0.03308916755,0.03270199454,0.06928996769,0.06422931453,0.09228639077,0.1629949293,0.2013514296,0.08648922375,0.03226790186,0.02096602844,0.02252053351,0.0277049859,0.02890588477,0.03625579884,0.02659447302,0.01005531569,0.01252959055,0.01534017443,0.0163105946,0.01940358733,0.02402721268,0.01778734524,0.03900995636,0.0733302957,0.05692301332,0.04206204654,0.02496146003,0.03875343767,0.124933668,0.2872414481,0.5246597353,0.6452674017,0.5008879807,0.6525542396,0.3859615413,0.1569358227,0.2166380489,0.4010203859,0.5474780665,0.7351657061,0.9121861443,0.3945325955,0.134844285,0.1264349859,0.1089837406,0.06087031331,0.1111675772,0.1452863995,0.1702494149,0.2727267356,0.3611095889,0.2201075351,0.08483274396,0.07061749047,0.05741802722,0.04517490349,0.05836599674,0.07648291466,0.07659755257,0.07446960524,0.07337960004,0.04987824713,0.1224512428,0.1452890473,0.07682122667,0.06569068198,0.1440387362,0.05355332523,0.02188245892,0.05039545169,0.01930471863,0.01367334371,0.01177366611,0.01224723838,0.02159996834,0.01656801076,0.01886717661,0.01630135088,0.008403763055,0.004374866399,0.004404862821,0.006289095715,0.01052630804,0.009861074328,0.007763277616,0.009519907664,0.0126338085,0.01175159984,0.009336541204,0.006151710764,0.003627619563,0.009348928063,0.009700265934,0.004582083058,0.004899166836,0.006305042769,0.007785472209,0.007116153836,0.005883938513,0.004753869084,0.005947247846,0.006324994129,0.005641449313,0.005030705558,0.004043486497,0.003301658296,0.004641277477,0.009145175865,0.0101950708,0.007740330559,0.005820695888,0.004698537362,0.003133740346,0.002628681133,0.003404105113,0.004994438373,0.006614035838,0.008508243415,0.009496046411,0.010117956,0.00811962747,0.006923680549,0.004812408111,0.004254061873,0.008518791322,0.0113710936,0.01226864721,0.009810380013,0.006680548383,0.009081093455,0.02134558755,0.03333480217,0.03656931782,0.1506748217,0.178420129,0.1234163392,0.1532370923,0.2849290852,0.5045738918,0.5130308679,0.6047164942,0.8108794991,0.4742963793,0.4577642618,0.3884127645,0.1467294005,0.6078627255,0.6670125499,0.634113915,0.7005465733,0.6135000692,0.6215875885,0.5830232415,0.6222403863,0.7356512657,0.6947805528,0.6219819206,0.5365625228,0.4935121359,0.3324371476,0.3927282787,0.3647411205,0.2747711238,0.3295346383,0.2633327268,0.2803939715,0.6607274599,0.31942881,0.2148928652,0.4536462005,0.6220341959,0.5467532246,0.638649928,0.4487612112,0.6037321936,0.5353215081,0.633493352,0.9667804359,0.7739555682,0.7182902966,0.9092340216,0.7295068378,0.5586039227,0.7437690272,0.5297275925,0.4744377737,0.3146073269,0.7539194697,1,1,1,1,1,1,1,1,1,1,1,1,1,1,1,1,1,1,1,1,1,1,1,1,1,1,1,1,1,1,1,1,1,1,1,1,1,1,1,1,1,1,1,1,1,1,1,1,1,1,1,1,1,1,1,1,1,1,1,1,1,1,1,1,1,1,1,1,1,1,1,1,1,1,1,1,1,1,1,1,1,1,1,1,1,1,1,1,1,1,1,1,1,1,1,1,1,1,1,1,1,1,1,1,1,1,1,1,1,1,1,1,1,1,1,1,1,1,1,1,1,1,1,0.6635429866,1.042299461,0.3363055359,0.4892761078,1,1,1,NaN,NaN],
	"ap": [NaN,0.1429619168,0.4072185555,0.1744797596,0.4389353065,0.408650166,0.03940848455,0.01968148858,0.01039535194,0.01560221051,0.002097695553,0.006156404393,0.009592769684,0.02407422344,0.05404862276,0.02400222457,0.04770892091,0.06108011191,0.0455928946,0.003305686207,0.002539444093,0.004876065469,0.0140594254,0.007911054051,0.02116258898,0.003008664262,0.002363116941,0.005402049891,0.003892347055,0.00699767631,0.005391602618,0.002307791204,0.01255262758,0.01147164389,0.003342063554,0.004158541389,0.01856771543,0.004940556535,0.001325246572,0.005780477817,0.006077028576,0.001871180555,0.002017637091,0.007387239112,0.0378259044,0.1215321611,0.2006526606,0.3671742084,0.5062992025,0.4221930261,0.3302899955,0.6046159316,0.3672547941,0.2269501835,0.1363559286,0.3968546581,0.374367489,0.5936212081,0.8269711337,0.348758646,0.8780934943,0.6200590684,0.2292437368,0.8223128393,0.7142565175,0.03742183081,0.009622716183,0.003706969705,0.003475321853,0.0460641299,0.1161718743,0.1139214087,0.5924633323,0.5019536388,0.1577340656,0.1831843033,0.4519457963,0.2041200706,0.02268772161,0.02996879381,0.05971817565,0.03409988547,0.01693243208,0.008405896113,0.02695216021,0.0263904541,0.009280174629,0.04150788124,0.07485014319,0.2514380945,0.07847528211,0.07765043576,0.1713082346,0.3561564326,0.0141635724,0.01225003904,0.5912554753,0.4540440397,0.3207080703,0.1817695799,0.006431588532,0.01276900647,0.009193628031,0.003108925574,0.03156164202,0.02544994042,0.01275433411,0.007581889255,0.001313724673,0.002734586456,0.001751436728,0.006259338607,0.0009036542524,0.01061720103,0.003343631969,0.005155465423,0.01835431497,0.05088825164,0.06374599069,0.1339188008,0.4891073834,0.3894767591,0.2709711204,0.4444200177,0.03142642376,0.03441419996,0.01703975053,0.02091536097,0.0217974447,0.2462954704,0.4218102293,0.2278643678,0.1232292302,0.03665282714,0.02617877828,0.04159967144,0.05087464547,0.05317515379,0.05596381287,0.08995738041,0.1256344677,0.3154289731,0.1878317328,0.004488454882,0.04778358012,0.07267814169,0.03458328672,0.02069656601,0.114573741,0.1602871422,0.06027217484,0.007950220567,0.02789919357,0.03470918358,0.02976549841,0.008583570783,0.01200497867,0.006809530361,0.01556197611,0.007883566301,0.009379234605,0.006393695907,0.002757049576,0.01284094958,0.006899929212,0.006831780091,0.03017979727,0.005119999307,0.007079150287,0.001060581942,0.005413396269,0.002243058576,0.002064555044,0.002040694072,0.007827861065,0.01401637381,0.02468891629,0.0074377964,0.005527317381,0.00408052995,0.005771176701,0.004904205898,0.001922040829,0.007118738992,0.003410179412,0.005215611669,0.005964504729,0.006120750106,0.01601376174,0.01335691482,0.008578436778,0.003746582429,0.001661021993,0.001890808811,0.002895001383,0.006508558423,0.002525594795,0.008241511796,0.002623615848,0.006434806934,0.02124172499,0.009253962631,0.004877311397,0.03321014709,0.07866415632,0.03231072877,0.02513140315,0.02065317484,0.009576318025,0.02769178275,0.008711998501,0.02606607121,0.005607647105,0.01506802846,0.02317952945,0.01639969591,0.01112165051,0.01765220098,0.005991127786,0.01630393208,0.007624629563,0.004842615762,0.003583746497,0.01816019865,0.009466932335,0.004046563918,0.00112104516,0.003938268269,0.01273572639,0.003235177832,0.01044765981,0.008810291671,0.002682499158,0.006299632116,0.004222121614,0.00296503048,0.008028119827,0.007911398325,0.01368710591,0.03320185913,0.00745063374,0.0323833472,0.03091190108,0.2054077647,0.0926209575,0.02656782048,0.02144968603,0.02147328426,0.006907262048,0.1309554985,0.1607752595,0.06743242999,0.08533186846,0.06571580731,0.01419031802,0.01073178897,0.007683824842,0.2918771914,0.04919907459,0.03155509813,0.01969744618,0.1148953997,0.05099445291,0.07819034485,0.09994953494,0.04179723937,0.03792197094,0.007760518705,0.01305120715,0.02401038078,0.01785570614,0.01963805957,0.004862682088,0.01640415928,0.02995866021,0.005668876799,0.01455367507,0.01276342948,0.01386974761,0.1167854085,0.06741358765,0.2755384126,0.06566656127,0.183917397,0.4600576296,0.06572743644,0.04258960188,0.1660469162,0.2100730683,0.5111437958,0.06236841473,0.2913884122,0.2288073728,0.629548472,0.5805103546,0.2426960734,0.5670545737,0.1921068014,0.5447509511,0.7637145965,0.3045006449,0.1946391567,0.2921721161,0.6034680095,0.2589912738,0.1632091006,0.1023942716,0.4907655621,0.298306409,0.3795672537,0.5026378381,0.2227543445,0.5889881284,0.2836771155,0.5165601988,0.5369230934,0.2517586254,0.6340071025,0.123209972,0.623050923,0.4569717832,0.4973369429,0.2494500393,0.3457527636,0.1857960916,0.4012621541,0.2679974186,0.7264829226,0.2733783221,0.1618834529,0.7995453809,0.3098408235,0.3340614483,0.01161679927,0.01197738589,0.01530900477,0.005551808541,0.03544585195,0.01816646103,0.1072947228,0.1099963675,0.05604996015,0.09666168511,0.1449717613,0.06789559988,0.3612737468,0.1334183192,0.4244809821,0.1313966606,0.05130723496,0.01637554429,0.1724204956,0.4963523807,0.6767534065,0.3329116301,0.3857402141,0.5356634505,0.6822859324,0.3032610175,0.01102573186,0.0149794935,0.02665169119,0.03217095011,0.06036365657,0.1960239273,0.1135397198,0.1148818856,0.02539853521,0.01069885517,0.007848776802,0.01356455034,0.02323487642,0.03455544315,0.01564129064,0.0101814276,0.004987756679,0.009182518334,0.003259902002,0.01200171555,0.0070412755,0.0104666152,0.008973218059,0.09160379532,0.01971659219,0.03058309259,0.0236089005,0.005245625493,0.04922644401,0.2059589075,0.2692793679,0.4259839028,0.563932959,0.7174264321,0.2093516347,0.1052038721,0.2235105863,0.1698581438,0.6265467047,0.3396399505,0.6846482318,0.5654863664,0.2019795426,0.1409760503,0.0867374836,0.0416854609,0.02296038596,0.1036250693,0.03101111167,0.07724310024,0.1714734657,0.5117817429,0.04106691667,0.04260580946,0.06343838204,0.06064602436,0.01569106768,0.03575131704,0.05349577761,0.1370750955,0.02160399088,0.01587799398,0.06585119822,0.171770858,0.02154111405,0.02615174501,0.01033132311,0.06204240674,0.03188745034,0.03703260417,0.01040688224,0.003207524435,0.002945944795,0.002492329595,0.0232609668,0.01471602526,0.01012049109,0.01323375698,0.004560358656,0.003059201205,0.004660684649,0.002511799608,0.005048651635,0.002771315979,0.005730484166,0.002594564158,0.005991840127,0.01013683635,0.002733175851,0.005149068871,0.001252445888,0.002906461564,0.004422453453,0.003322554312,0.002599895817,0.002807015163,0.005739021833,0.004647139675,0.002916404543,0.003220395369,0.00289018771,0.005337960132,0.002284515287,0.00387086681,0.001049916419,0.002465286911,0.001852680842,0.003803172519,0.0111496589,0.002253197141,0.002138900865,0.001877384667,0.0008905777497,0.001229859134,0.0008812595538,0.001293848742,0.00425889507,0.005841583128,0.01289222254,0.00739719694,0.004772508767,0.008111029794,0.007046562679,0.001789103749,0.01098599945,0.004556495787,0.01888722415,0.005948633566,0.00526361108,0.001212993525,0.02633240618,0.02056203024,0.03703472325,0.03110187507,0.2074723387,0.07884326105,0.1164031403,0.105262413,0.4442661008,0.4794765526,0.3089434089,0.5139663955,0.6751650293,0.315642266,0.3632614463,0.3218418903,0.11822391,0.5781684911,0.1125372457,0.6147040025,0.4261427828,0.5107114617,0.3396219158,0.5840931417,0.3277523267,0.6417945797,0.5046208021,0.6995424994,0.3647345269,0.6893602628,0.2007404391,0.6619348842,0.2735237689,0.6204592294,0.06321354224,0.1627981309,0.8447350671,0.03381241123,0.06295587511,0.1319299294,0.3872877127,0.6904873704,0.4900978091,0.1737857094,0.1335332888,0.5117356559,0.1515487231,0.4284595789,0.1722837986,0.1841766148,0.4721826351,0.2078892176,0.1937471212,0.5873016632,0.5000000908,0.09898377176,0.2901656638,0.5000001113,1,1,1,1,1,1,1,1,1,1,1,1,1,1,1,1,1,1,1,1,1,1,1,1,1,1,1,1,1,1,1,1,1,1,1,1,1,1,1,1,1,1,1,1,1,1,1,1,1,1,1,1,1,1,1,1,1,1,1,1,1,1,1,1,1,1,1,1,1,1,1,1,1,1,1,1,1,1,1,1,1,1,1,1,1,1,1,1,1,1,1,1,1,1,1,1,1,1,1,1,1,1,1,1,1,1,1,1,1,1,1,1,1,1,1,1,1,1,1,1,1,1,1,0.50000083,0.5000004985,1,0.5000000864,1,1,NaN,NaN],
	"pwr": [NaN,2.843978519e-06,1.048870298e-06,5.827605591e-07,2.670182254e-06,5.449066696e-05,0.001912730063,0.004928837392,0.006244919656,0.003102378887,0.002084254465,0.006201548293,0.004772787267,0.001419660041,0.000422407553,0.000820442768,0.000818660955,0.00104665878,0.001527125108,0.006258012305,0.005324624691,0.005647387837,0.004283475536,0.006306762655,0.002880212253,0.002860258958,0.002825302179,0.002611064256,0.001902837883,0.002014425002,0.001483848514,0.00101001823,0.001216370728,0.001429938377,0.002347581566,0.002414720129,0.001352188226,0.001549270648,0.003017997761,0.00480040122,0.003434184313,0.002784902146,0.003863802753,0.003296019133,0.001671480491,0.0002961458147,0.0002392290319,6.997679215e-06,7.206954003e-06,1.141483699e-07,3.270617134e-07,1.901456834e-07,7.274890474e-07,1.349578896e-05,1.161789765e-05,5.480648199e-06,8.191849454e-07,4.289838152e-06,2.614936537e-07,4.462235752e-07,4.667474642e-07,1.028684942e-06,6.716222863e-06,1.064028288e-05,9.035342916e-05,0.001027155711,0.002500481893,0.01560701992,0.01268601158,0.008878020723,0.005674434055,0.005552430753,0.001005888673,1.204908655e-05,0.000248366688,0.0005458637778,5.219856428e-05,0.0004237854518,0.002090970867,0.01095842226,0.004074838722,0.009590413561,0.0352757459,0.05271971604,0.02748450138,0.008609493352,0.01287361316,0.008608376993,0.01939072112,0.004802594017,0.006521463203,0.0005000033537,1.463795211e-06,9.687096445e-06,0.0003565607907,0.0001849747466,2.2418888e-05,0.0001541657656,0.0001513989141,0.0004691287227,0.1051281166,0.2114141574,0.06693806608,0.02412579102,0.002846971551,0.003833188559,0.00329637218,0.006170399554,0.01039978123,0.03741631148,0.04771917328,0.04162531376,0.01970040674,0.01177967194,0.01083475826,0.005339663941,0.003354587278,0.0003428491531,0.0002377734397,0.0002157910187,7.791320244e-05,2.57551296e-05,0.0001793693172,5.552155114e-05,0.01999346542,0.1113494565,0.01894424701,0.004470839615,0.005271559725,0.0019601313,0.00443070876,0.003374729656,0.00899870946,0.01298115319,0.02068002554,0.01510035574,0.01702470748,0.008525648886,0.003823456751,0.004468853727,0.00387506086,0.01734437107,0.02938452968,0.06585797455,0.02342249674,0.0164475965,0.02645803264,0.02941608234,0.005679165828,0.004911270899,0.00631474291,0.01903000491,0.01632432918,0.009177330703,0.006846182677,0.006632327501,0.008240780776,0.01197336977,0.009998998192,0.009054829022,0.00641646448,0.007875612549,0.008449531155,0.00942215526,0.009365239156,0.009122326752,0.008514951193,0.009094659653,0.007728180184,0.007664121875,0.008968352406,0.008436713076,0.006913188596,0.007084308218,0.006772533482,0.007004027883,0.007434434913,0.008348604105,0.006370464803,0.005205812306,0.00485372329,0.005772716948,0.007161324855,0.009663590776,0.007064401138,0.006325330466,0.004823899357,0.00487048336,0.005560543155,0.006515393815,0.00684066369,0.006490314088,0.00623040605,0.006308034664,0.006564251772,0.007364709133,0.005132299675,0.006199635622,0.005926279017,0.004330724432,0.006499553173,0.004361144862,0.001751866621,0.0006679751909,0.0002785267155,0.0005017447691,0.0002523837672,0.0006649686014,0.001828076171,0.001857646958,0.001280830817,0.0008766095456,0.001348159366,0.001188550932,0.001222315578,0.0006626276549,0.0007570936827,0.000621945222,0.0008349989954,0.00104950153,0.001304009142,0.002083143401,0.001810020441,0.001345222475,0.0009206450104,0.001075158921,0.001250044289,0.001699326904,0.002145173262,0.001502146379,0.001173917182,0.001565103515,0.001085169295,0.001118108605,0.0009174318739,0.0008294880278,0.001116833468,0.001792722171,0.001444200294,0.0008787162482,0.001838017229,0.003062800931,0.001790233133,0.0002864057507,0.004804193371,0.001972220098,0.002422977304,0.004401648683,0.003483187371,0.001212735028,0.002488348143,0.00444767756,0.003547940682,0.007089587444,0.00954807281,0.01150430766,0.007040244578,0.004110757199,0.003388461644,0.004443724408,0.005818304258,0.003578366456,0.001904153635,0.001150205016,0.0009143353124,0.001973242203,0.002087103952,0.002717399845,0.003142579001,0.003004950672,0.001718472293,0.001385861402,0.001094879334,0.001739844725,0.0014827803,0.002719034859,0.005170469992,0.004428046029,0.001644606592,0.0008936586508,0.0004885692101,0.0005302255739,0.000288968377,2.601883498e-05,8.271959152e-05,9.129729676e-05,1.490203464e-05,2.512033661e-06,4.537216922e-05,3.228923899e-06,5.56489806e-05,3.064745966e-06,3.484808787e-06,1.489256647e-06,2.189218261e-06,2.096869766e-06,9.872500008e-07,5.79348553e-07,1.533960432e-07,4.605586266e-07,8.011228382e-08,1.9088952e-07,1.065033887e-07,1.13800563e-07,8.678675449e-08,1.226937206e-07,1.319052795e-07,1.264184189e-07,1.344460474e-07,6.412087737e-08,4.251676749e-08,1.120418425e-07,7.855546511e-08,9.159965482e-08,1.560399031e-07,8.978531696e-07,5.687493553e-07,2.847825457e-07,7.266171493e-07,3.793125362e-07,1.144862793e-06,5.06234191e-07,7.975746352e-06,1.313742371e-06,1.048283382e-06,3.299736846e-06,1.197246512e-06,1.352845824e-06,4.872047749e-06,8.956043867e-05,0.0005707592222,0.0006222959884,0.0017062801,0.02194345304,0.01757612999,0.02017651239,0.02784858072,0.01623545832,0.01216049836,0.009516297726,0.001869171308,0.002331971486,0.002714611966,0.005718516728,0.0009066549127,2.471749853e-05,0.0001361445314,0.0005293552041,0.0008367843416,0.0004550150815,0.0002295305802,3.060398861e-05,1.367186196e-05,6.71445716e-05,6.098154516e-05,0.0005458195039,8.739046451e-05,0.0001790254289,0.00316087227,0.07507198305,0.05753037935,0.02603915927,0.02641253741,0.008690082047,0.003867960329,0.002695603145,0.01124435095,0.0400394552,0.03506749321,0.01089312697,0.01267286243,0.01199882747,0.01020560517,0.007658355499,0.007543785987,0.0118294764,0.0103518679,0.009063387803,0.004544646381,0.00484127433,0.004409100559,0.004751592086,0.003621735414,0.002166024938,0.001072399672,0.001252597453,0.001156245793,0.0002532801472,6.430176438e-05,1.676547665e-05,6.384287313e-07,2.054537113e-06,1.11575362e-05,1.570751051e-06,3.97522174e-06,8.452475025e-06,8.136265434e-06,2.027213771e-06,3.888205982e-06,4.715682229e-06,2.492818681e-05,0.001451542658,0.03815167765,0.009929610884,0.01211568795,0.008991685372,0.004612048014,0.003493366872,0.004239465145,0.001017918808,5.531300579e-05,0.001806821167,0.003045412808,0.002652175765,0.002394439575,0.003501673345,0.001337371064,0.0009438713123,0.003376360204,0.002499250254,0.001360212356,0.000667200653,7.437995519e-05,0.000415274107,0.0004536038667,0.0005888516332,0.000363025727,0.001135635917,0.0001431350602,0.0008379755809,0.003689796711,0.003053316577,0.005012695179,0.002511973443,0.001173019862,0.001589746459,0.001708880864,0.004508803679,0.006155096808,0.006641458784,0.004016752887,0.004192910419,0.00357501514,0.003413454702,0.002514871629,0.001831186989,0.001871047635,0.002681278754,0.003946848032,0.005839499287,0.003944709644,0.002494016527,0.002799282983,0.003166745413,0.003366225269,0.002975116786,0.00176824442,0.001826543957,0.002298684854,0.002324209057,0.002193766988,0.00180390818,0.001752980204,0.002513477533,0.002491464682,0.002273901176,0.001754083643,0.00167717504,0.001633477394,0.002219771674,0.002620988853,0.002683678099,0.002111751511,0.001946858064,0.00162679795,0.001493484701,0.0009751711149,0.0009522174469,0.0006197871727,0.0005364700897,0.0007119283074,0.000903867448,0.00106921105,0.001071875872,0.0006503784021,0.0006770999833,0.0005500926392,0.0007311570119,0.0005128692918,0.0004038305188,0.0001258010586,5.610053257e-05,7.808637629e-06,4.784608674e-06,1.9355372e-05,8.841137563e-06,3.858572345e-06,5.24982616e-07,2.50154139e-07,3.168278109e-07,2.895133086e-06,1.309771133e-06,1.624752823e-05,3.68800057e-06,5.353935478e-06,9.664444636e-07,4.961964786e-08,9.684063979e-08,2.36535275e-07,8.297034965e-08,2.225917283e-07,1.678302188e-07,1.708218413e-07,3.15171351e-07,3.024292599e-07,8.115824034e-08,2.193723766e-07,3.568297871e-07,2.094689256e-06,8.346407925e-06,7.34992528e-07,3.402974677e-06,3.477711289e-05,2.210887218e-05,1.076118497e-05,6.204649478e-06,7.88943705e-06,1.059355771e-05,3.681040003e-06,1.534389981e-06,9.635333335e-08,1.352168389e-07,7.837288416e-08,6.060277962e-08,2.361621034e-08,1.334746071e-07,5.613266559e-09,1.626869758e-08,7.788937108e-09,6.58608904e-10,4.983392724e-10,1.408274375e-09,5.533151767e-10,6.114867957e-10,9.050443588e-10,5.05426917e-10,1.829383629e-10,0,0,0,0,0,0,0,0,0,0,0,0,0,0,0,0,0,0,0,0,0,0,0,0,0,0,0,0,0,0,0,0,0,0,0,0,0,0,0,0,0,0,0,0,0,0,0,0,0,0,0,0,0,0,0,0,0,0,0,0,0,0,0,0,0,0,0,0,0,0,0,0,0,0,0,0,0,0,0,0,0,0,0,0,0,0,0,0,0,0,0,0,0,0,0,0,0,0,0,0,0,0,0,0,0,0,0,0,0,0,0,0,0,0,0,0,0,0,0,0,0,0,0,0,1.113661539e-10,0,6.428150379e-10,0,0,NaN,NaN],
	"sr": 16000,
	"range": [1,217088],
	"minf0": 63.1883,
	"maxf0": 706.3069,
	"thresh": 0.1,
	"relflag": 1,
	"hop": 320,
	"bufsize": 10000,
	"wsize": 640,
	"lpf": 4000,
	"shift": 0,
	"plotthreshold": 0.2
}
