{
    "f0": [
        39.826655278466589,
        44.68789111519763,
        45.993826525011698,
        47.410727959299152,
        49.807790132984742,
        53.326640805464635,
        53.252541684013202,
        49.429332489900638,
        46.919149278289026,
        50.106172708075924,
        50.186633985155439,
        49.378714942057094,
        46.761711519552996,
        45.600997608849923,
        44.986052440567335,
        38.031828784888127,
        55.488179748562509,
        46.275325563055048,
        61.931215263527974,
        43.041003329090941,
        42.786847021143174,
        50.409753188284881,
        38.453459820935009,
        44.756253010808848,
        50.211558127850665,
        55.206939889038537,
        48.928235530330724,
        45.353669172818499,
        36.355590090856523,
        38.484589380275423,
        49.841662820104489,
        45.384660301047532,
        39.803088478765105,
        49.741028626650866,
        47.107173968210098,
        46.658505521279807,
        46.849829669562546,
        58.797198167095274,
        59.245917417533178,
        58.665819512831291,
        58.707022334887306,
        58.330905230222506,
        46.999775331654234,
        46.053409559015911,
        46.57279940293126,
        47.534019338920118,
        47.585525187749781,
        47.720747567326576,
        48.156186758869815,
        48.777445384331664,
        48.755231484748222,
        49.09615607143224,
        49.071287957231476,
        47.75053495190415,
        47.881029206871375,
        49.217309651485799,
        50.078841628466392,
        50.193258872043124,
        51.670118584526108,
        48.014829236954697,
        45.199437200744988,
        43.548099256065456,
        45.806230365954789,
        45.484200661578349,
        48.761283287664611,
        50.250762335174933,
        50.147491046413052,
        50.453936586928791,
        57.471767871586643,
        45.286765973369228,
        46.511643120953302,
        46.156528905674833,
        44.776536676807012,
        44.48082152883218,
        44.557199965050884,
        44.973956510580081,
        45.894355192845424,
        46.740007420635898,
        48.74080756964598,
        48.571435149860612,
        49.103389773449273,
        50.234144588796198,
        50.132136099994121,
        50.705756365210448,
        50.736961600568826,
        50.768109111102362,
        51.271514975900679,
        51.449963324082667,
        51.813460782643816,
        52.070789457983992,
        52.373047039384538,
        52.595208341804337,
        52.436310751627005,
        52.173467685732547,
        52.119907164283546,
        52.30234058605275,
        52.551962709663101,
        52.764014756802311,
        52.640558152767049,
        52.603172702748992,
        52.352037997992269,
        52.205954625406385,
        52.186549419424281,
        52.614939178154287,
        52.876674754313825,
        53.037692949807777,
        53.023568301237475,
        53.009427561110357,
        52.645521781013656,
        52.507544268214524,
        52.459236175696986,
        52.537600647165284,
        52.777908293801595,
        53.014928886360217,
        52.898986667674919,
        52.822579414875037,
        52.771619757685471,
        52.707577836772792,
        52.697267495684585,
        52.618106894577295,
        52.62944439320971,
        52.712652934247785,
        52.931994460508633,
        52.875277525689413,
        53.015997521538139,
        52.841706362000707,
        52.730233075064845,
        52.767049500766653,
        52.835705205448306,
        52.904089716703474,
        52.97220526786586,
        52.966672069383691,
        53.12183946316668,
        53.030557293250176,
        52.923169494404178,
        53.075396973843901,
        53.14850326666906,
        53.175660672862321,
        53.225576341355961,
        53.089988169967796,
        53.057292577678041,
        52.902338648386959,
        52.83868617899185,
        52.89119378367171,
        52.874951469477601,
        52.899313867125684,
        53.034471270129806,
        52.956713618277703,
        52.987200073067726,
        52.970879288868183,
        53.062680817726701,
        53.044376008237208,
        53.046569897575161,
        53.094257335677341,
        53.003128802045623,
        53.043543016917653,
        53.054088084274952,
        53.001027648827709,
        53.065775172937947,
        53.067755404370715,
        53.068564616800387,
        53.143825841707425,
        53.037717088870352,
        52.93095865259383,
        52.96652346009602,
        53.042620973498543,
        53.06525671982466,
        52.998646430142315,
        52.857850329327789,
        52.925471500090737,
        52.8552433793121,
        52.896775490941693,
        52.90120823139322,
        52.94773736068251,
        52.994141672926339,
        52.948845054669185,
        52.788120150274466,
        52.856439284016602,
        52.977845700807421,
        52.992193869687377,
        53.059673352099068,
        53.134383084448572,
        53.104299416879613,
        52.925968367325822,
        52.993076250317372,
        53.059928069842385,
        52.952524130608452,
        52.875288211041749,
        52.797712191164287,
        52.882702854427222,
        52.967279903852372,
        53.05144567288351,
        52.961206858835837,
        52.831043309046684,
        52.789210504721581,
        52.796610133264863,
        52.759120278516832,
        52.74312957337321,
        52.888587259996171,
        52.806240384924507,
        50.682186139453975,
        49.975444584959249,
        47.658404877765292,
        46.094494764423473,
        46.052653670773097,
        46.010707942893802,
        52.580372207154419,
        54.316402803752837,
        54.050883775334562,
        53.355023437036159,
        53.185522455211682,
        53.153312882324776,
        53.051560242082687,
        52.810199184705652,
        52.808325411508839,
        53.694179334240488,
        54.013352938383072,
        54.411806342698043,
        53.312825793350342,
        54.03123486853481,
        55.11632435861388,
        55.778193268745724,
        56.239975204835488,
        57.118413269434065,
        57.442148596664488,
        58.013313957200324,
        58.566235825475118,
        59.102040367889785,
        59.272003765897253,
        59.440389806667739,
        59.779379483021941,
        59.677841312331729,
        59.554811019403104,
        59.44142535617388,
        59.435771316429651,
        59.485012366881151,
        59.531988256342565,
        59.635323425248806,
        59.535999273997341,
        59.436103085489222,
        58.98587352079327,
        58.876372816838042,
        58.589571743477748,
        58.21396942877,
        58.384744184534512,
        58.34838437283257,
        58.491373840759614,
        58.242607796445654,
        58.349279668186725,
        58.186182895784391,
        57.903632357399168,
        57.848692277665599,
        57.327690881101375,
        0.0,
        0.0,
        36.819545860439753,
        56.937216645725798,
        57.44894659441681,
        57.441751857631175,
        57.603036390596579,
        57.658530353588588,
        57.569119453137588,
        57.55082934319536,
        57.322732147158462,
        57.306659577682041,
        57.426755944380048,
        57.531868963749446,
        57.469389838905698,
        57.406685643811358,
        57.49074863824778,
        57.427073411759984,
        57.440088477061245,
        57.277409767898256,
        57.49731279648995,
        57.476854594564593,
        57.440186828317081,
        57.403441157506386,
        57.3666173276021,
        57.32971384728306,
        57.459372892114317,
        57.704104354460327,
        57.888305978536671,
        58.070567221152046,
        58.175999069631267,
        58.233608901559208,
        58.261596400118286,
        58.156696214153584,
        58.211298280058898,
        58.036058616217943,
        58.124985461952441,
        57.950341979592054,
        58.028600338449877,
        58.088118260056753,
        58.180658794071142,
        58.082198406208533,
        58.209934556484129,
        58.162917351680292,
        58.170753403475352,
        58.182033792476552,
        58.227980282592597,
        58.242387629057532,
        58.098493630526626,
        58.180638580258204,
        58.170541293205552,
        58.179496792281498,
        58.223629724794876,
        58.295879382685008,
        58.367833209042104,
        58.285399783566646,
        58.324769763700544,
        58.151909802397846,
        58.06999154865585,
        58.186703135436446,
        58.273441427022632,
        58.374278350623534,
        58.323639629355853,
        58.303087595465421,
        58.310086778201466,
        58.138062188542705,
        58.243134179979066,
        58.057835892807994,
        58.210080069478266,
        58.174499030949193,
        58.263505234878096,
        58.272441812969689,
        57.971450800198255,
        58.149975147630094,
        58.149245923643981,
        58.080305553521491,
        58.145927467192294,
        58.211298280058898,
        58.248974666743976,
        58.300269712399327,
        58.258725948115234,
        58.268276547461454,
        58.233512757592059,
        58.077518904285171,
        58.235435901857421,
        58.328725709778361,
        58.278983880098778,
        58.309160561071728,
        58.352413819885363,
        58.389013414105463,
        58.347844508977474,
        58.370069829352943,
        58.423693379549277,
        58.477147951894452,
        58.394465851545441,
        58.39804602040217,
        58.246744606328932,
        58.162614199028042,
        58.078071774369434,
        58.335948090470367,
        58.357566977571125,
        58.322329199325232,
        58.306525149369705,
        58.290708923273776,
        58.246174762497787,
        58.32371413316249,
        58.2905796438274,
        58.222919288402728,
        58.154995672299869,
        58.086804513164203,
        58.190603332656934,
        58.148835753870586,
        58.106967163294016,
        58.237257067979442,
        58.171735372495803,
        58.104020308296995,
        58.036039344683282,
        58.055704271448377,
        58.236582945256757,
        58.161996619447898,
        57.97863195297024,
        58.191032642306602,
        58.118847459727036,
        58.270904333092233,
        58.201442859723763,
        58.023609703085263,
        48.512149747257382,
        48.865065940699019,
        36.324779501872698,
        43.432205476108251,
        52.610109145032688,
        46.224355822400987,
        45.012098199484228,
        49.580080422472633,
        46.791663153473841,
        55.38280716584223,
        39.829175791971863,
        42.541383493845856,
        49.907200658795674,
        0.0,
        47.166600641121967,
        40.031825246422251,
        50.975152295175221,
        46.346198242505054,
        46.636540549704975,
        49.302286079887779,
        49.90362076135947,
        48.641915377572417,
        48.51979224297979,
        48.126891288986521,
        0.0,
        0.0,
        0.0,
        0.0,
        0.0,
        0.0,
        0.0,
        0.0,
        0.0,
        0.0,
        0.0,
        0.0,
        0.0,
        0.0,
        0.0,
        0.0,
        0.0,
        0.0,
        0.0,
        0.0,
        0.0,
        0.0,
        0.0,
        0.0,
        0.0,
        0.0,
        0.0,
        0.0,
        0.0,
        0.0,
        0.0,
        0.0,
        0.0,
        0.0,
        0.0,
        0.0,
        0.0,
        0.0,
        0.0,
        0.0,
        0.0,
        0.0,
        0.0,
        0.0,
        0.0,
        0.0,
        0.0,
        0.0,
        0.0,
        0.0,
        0.0,
        0.0,
        0.0,
        0.0,
        0.0,
        0.0,
        0.0,
        0.0,
        0.0,
        0.0,
        0.0,
        0.0,
        0.0,
        0.0,
        0.0,
        0.0,
        0.0,
        0.0,
        0.0,
        0.0,
        0.0,
        0.0,
        0.0,
        0.0,
        0.0,
        0.0,
        0.0,
        0.0,
        0.0,
        0.0,
        0.0,
        0.0,
        0.0,
        0.0,
        0.0,
        0.0,
        0.0,
        0.0,
        0.0,
        0.0,
        0.0,
        0.0,
        0.0,
        0.0,
        0.0,
        0.0,
        0.0,
        0.0,
        0.0,
        0.0,
        0.0,
        0.0,
        0.0,
        0.0,
        0.0,
        0.0,
        0.0,
        0.0,
        0.0,
        0.0,
        0.0,
        0.0,
        0.0,
        0.0,
        0.0,
        0.0,
        0.0,
        0.0,
        0.0,
        0.0,
        0.0,
        0.0,
        0.0,
        0.0,
        0.0,
        0.0,
        0.0,
        0.0,
        0.0,
        0.0,
        0.0,
        0.0,
        0.0,
        0.0,
        0.0,
        0.0,
        0.0,
        0.0,
        0.0,
        0.0,
        0.0,
        0.0,
        0.0,
        0.0,
        0.0
    ],
    "time": [
        0.02,
        0.040000000000000001,
        0.059999999999999998,
        0.080000000000000002,
        0.10000000000000001,
        0.12,
        0.14000000000000001,
        0.16,
        0.17999999999999999,
        0.20000000000000001,
        0.22,
        0.23999999999999999,
        0.26000000000000001,
        0.28000000000000003,
        0.29999999999999999,
        0.32000000000000001,
        0.34000000000000002,
        0.35999999999999999,
        0.38,
        0.40000000000000002,
        0.41999999999999998,
        0.44,
        0.46000000000000002,
        0.47999999999999998,
        0.5,
        0.52000000000000002,
        0.54000000000000004,
        0.56000000000000005,
        0.57999999999999996,
        0.59999999999999998,
        0.62,
        0.64000000000000001,
        0.66000000000000003,
        0.68000000000000005,
        0.69999999999999996,
        0.71999999999999997,
        0.73999999999999999,
        0.76000000000000001,
        0.78000000000000003,
        0.80000000000000004,
        0.81999999999999995,
        0.83999999999999997,
        0.85999999999999999,
        0.88,
        0.90000000000000002,
        0.92000000000000004,
        0.93999999999999995,
        0.95999999999999996,
        0.97999999999999998,
        1.0,
        1.02,
        1.04,
        1.0600000000000001,
        1.0800000000000001,
        1.1000000000000001,
        1.1200000000000001,
        1.1399999999999999,
        1.1599999999999999,
        1.1799999999999999,
        1.2,
        1.22,
        1.24,
        1.26,
        1.28,
        1.3,
        1.3200000000000001,
        1.3400000000000001,
        1.3600000000000001,
        1.3799999999999999,
        1.3999999999999999,
        1.4199999999999999,
        1.4399999999999999,
        1.46,
        1.48,
        1.5,
        1.52,
        1.54,
        1.5600000000000001,
        1.5800000000000001,
        1.6000000000000001,
        1.6200000000000001,
        1.6399999999999999,
        1.6599999999999999,
        1.6799999999999999,
        1.7,
        1.72,
        1.74,
        1.76,
        1.78,
        1.8,
        1.8200000000000001,
        1.8400000000000001,
        1.8600000000000001,
        1.8799999999999999,
        1.8999999999999999,
        1.9199999999999999,
        1.9399999999999999,
        1.96,
        1.98,
        2.0,
        2.02,
        2.04,
        2.0600000000000001,
        2.0800000000000001,
        2.1000000000000001,
        2.1200000000000001,
        2.1400000000000001,
        2.1600000000000001,
        2.1800000000000002,
        2.2000000000000002,
        2.2200000000000002,
        2.2400000000000002,
        2.2599999999999998,
        2.2799999999999998,
        2.2999999999999998,
        2.3199999999999998,
        2.3399999999999999,
        2.3599999999999999,
        2.3799999999999999,
        2.3999999999999999,
        2.4199999999999999,
        2.4399999999999999,
        2.46,
        2.48,
        2.5,
        2.52,
        2.54,
        2.5600000000000001,
        2.5800000000000001,
        2.6000000000000001,
        2.6200000000000001,
        2.6400000000000001,
        2.6600000000000001,
        2.6800000000000002,
        2.7000000000000002,
        2.7200000000000002,
        2.7400000000000002,
        2.7599999999999998,
        2.7799999999999998,
        2.7999999999999998,
        2.8199999999999998,
        2.8399999999999999,
        2.8599999999999999,
        2.8799999999999999,
        2.8999999999999999,
        2.9199999999999999,
        2.9399999999999999,
        2.96,
        2.98,
        3.0,
        3.02,
        3.04,
        3.0600000000000001,
        3.0800000000000001,
        3.1000000000000001,
        3.1200000000000001,
        3.1400000000000001,
        3.1600000000000001,
        3.1800000000000002,
        3.2000000000000002,
        3.2200000000000002,
        3.2400000000000002,
        3.2599999999999998,
        3.2799999999999998,
        3.2999999999999998,
        3.3199999999999998,
        3.3399999999999999,
        3.3599999999999999,
        3.3799999999999999,
        3.3999999999999999,
        3.4199999999999999,
        3.4399999999999999,
        3.46,
        3.48,
        3.5,
        3.52,
        3.54,
        3.5600000000000001,
        3.5800000000000001,
        3.6000000000000001,
        3.6200000000000001,
        3.6400000000000001,
        3.6600000000000001,
        3.6800000000000002,
        3.7000000000000002,
        3.7200000000000002,
        3.7400000000000002,
        3.7599999999999998,
        3.7799999999999998,
        3.7999999999999998,
        3.8199999999999998,
        3.8399999999999999,
        3.8599999999999999,
        3.8799999999999999,
        3.8999999999999999,
        3.9199999999999999,
        3.9399999999999999,
        3.96,
        3.98,
        4.0,
        4.0199999999999996,
        4.04,
        4.0599999999999996,
        4.0800000000000001,
        4.0999999999999996,
        4.1200000000000001,
        4.1399999999999997,
        4.1600000000000001,
        4.1799999999999997,
        4.2000000000000002,
        4.2199999999999998,
        4.2400000000000002,
        4.2599999999999998,
        4.2800000000000002,
        4.2999999999999998,
        4.3200000000000003,
        4.3399999999999999,
        4.3600000000000003,
        4.3799999999999999,
        4.4000000000000004,
        4.4199999999999999,
        4.4400000000000004,
        4.46,
        4.4800000000000004,
        4.5,
        4.5199999999999996,
        4.54,
        4.5599999999999996,
        4.5800000000000001,
        4.5999999999999996,
        4.6200000000000001,
        4.6399999999999997,
        4.6600000000000001,
        4.6799999999999997,
        4.7000000000000002,
        4.7199999999999998,
        4.7400000000000002,
        4.7599999999999998,
        4.7800000000000002,
        4.7999999999999998,
        4.8200000000000003,
        4.8399999999999999,
        4.8600000000000003,
        4.8799999999999999,
        4.9000000000000004,
        4.9199999999999999,
        4.9400000000000004,
        4.96,
        4.9800000000000004,
        5.0,
        5.0199999999999996,
        5.04,
        5.0599999999999996,
        5.0800000000000001,
        5.0999999999999996,
        5.1200000000000001,
        5.1399999999999997,
        5.1600000000000001,
        5.1799999999999997,
        5.2000000000000002,
        5.2199999999999998,
        5.2400000000000002,
        5.2599999999999998,
        5.2800000000000002,
        5.2999999999999998,
        5.3200000000000003,
        5.3399999999999999,
        5.3600000000000003,
        5.3799999999999999,
        5.4000000000000004,
        5.4199999999999999,
        5.4400000000000004,
        5.46,
        5.4800000000000004,
        5.5,
        5.5199999999999996,
        5.54,
        5.5599999999999996,
        5.5800000000000001,
        5.5999999999999996,
        5.6200000000000001,
        5.6399999999999997,
        5.6600000000000001,
        5.6799999999999997,
        5.7000000000000002,
        5.7199999999999998,
        5.7400000000000002,
        5.7599999999999998,
        5.7800000000000002,
        5.7999999999999998,
        5.8200000000000003,
        5.8399999999999999,
        5.8600000000000003,
        5.8799999999999999,
        5.9000000000000004,
        5.9199999999999999,
        5.9400000000000004,
        5.96,
        5.9800000000000004,
        6.0,
        6.0199999999999996,
        6.04,
        6.0599999999999996,
        6.0800000000000001,
        6.0999999999999996,
        6.1200000000000001,
        6.1399999999999997,
        6.1600000000000001,
        6.1799999999999997,
        6.2000000000000002,
        6.2199999999999998,
        6.2400000000000002,
        6.2599999999999998,
        6.2800000000000002,
        6.2999999999999998,
        6.3200000000000003,
        6.3399999999999999,
        6.3600000000000003,
        6.3799999999999999,
        6.4000000000000004,
        6.4199999999999999,
        6.4400000000000004,
        6.46,
        6.4800000000000004,
        6.5,
        6.5199999999999996,
        6.54,
        6.5599999999999996,
        6.5800000000000001,
        6.5999999999999996,
        6.6200000000000001,
        6.6399999999999997,
        6.6600000000000001,
        6.6799999999999997,
        6.7000000000000002,
        6.7199999999999998,
        6.7400000000000002,
        6.7599999999999998,
        6.7800000000000002,
        6.7999999999999998,
        6.8200000000000003,
        6.8399999999999999,
        6.8600000000000003,
        6.8799999999999999,
        6.9000000000000004,
        6.9199999999999999,
        6.9400000000000004,
        6.96,
        6.9800000000000004,
        7.0,
        7.0199999999999996,
        7.04,
        7.0599999999999996,
        7.0800000000000001,
        7.0999999999999996,
        7.1200000000000001,
        7.1399999999999997,
        7.1600000000000001,
        7.1799999999999997,
        7.2000000000000002,
        7.2199999999999998,
        7.2400000000000002,
        7.2599999999999998,
        7.2800000000000002,
        7.2999999999999998,
        7.3200000000000003,
        7.3399999999999999,
        7.3600000000000003,
        7.3799999999999999,
        7.4000000000000004,
        7.4199999999999999,
        7.4400000000000004,
        7.46,
        7.4800000000000004,
        7.5,
        7.5199999999999996,
        7.54,
        7.5599999999999996,
        7.5800000000000001,
        7.5999999999999996,
        7.6200000000000001,
        7.6399999999999997,
        7.6600000000000001,
        7.6799999999999997,
        7.7000000000000002,
        7.7199999999999998,
        7.7400000000000002,
        7.7599999999999998,
        7.7800000000000002,
        7.7999999999999998,
        7.8200000000000003,
        7.8399999999999999,
        7.8600000000000003,
        7.8799999999999999,
        7.9000000000000004,
        7.9199999999999999,
        7.9400000000000004,
        7.96,
        7.9800000000000004,
        8.0,
        8.0199999999999996,
        8.0399999999999991,
        8.0600000000000005,
        8.0800000000000001,
        8.0999999999999996,
        8.1199999999999992,
        8.1400000000000006,
        8.1600000000000001,
        8.1799999999999997,
        8.1999999999999993,
        8.2200000000000006,
        8.2400000000000002,
        8.2599999999999998,
        8.2799999999999994,
        8.3000000000000007,
        8.3200000000000003,
        8.3399999999999999,
        8.3599999999999994,
        8.3800000000000008,
        8.4000000000000004,
        8.4199999999999999,
        8.4399999999999995,
        8.4600000000000009,
        8.4800000000000004,
        8.5,
        8.5199999999999996,
        8.5399999999999991,
        8.5600000000000005,
        8.5800000000000001,
        8.5999999999999996,
        8.6199999999999992,
        8.6400000000000006,
        8.6600000000000001,
        8.6799999999999997,
        8.6999999999999993,
        8.7200000000000006,
        8.7400000000000002,
        8.7599999999999998,
        8.7799999999999994,
        8.8000000000000007,
        8.8200000000000003,
        8.8399999999999999,
        8.8599999999999994,
        8.8800000000000008,
        8.9000000000000004,
        8.9199999999999999,
        8.9399999999999995,
        8.9600000000000009,
        8.9800000000000004,
        9.0,
        9.0199999999999996,
        9.0399999999999991,
        9.0600000000000005,
        9.0800000000000001,
        9.0999999999999996,
        9.1199999999999992,
        9.1400000000000006,
        9.1600000000000001,
        9.1799999999999997,
        9.1999999999999993,
        9.2200000000000006,
        9.2400000000000002,
        9.2599999999999998,
        9.2799999999999994,
        9.3000000000000007,
        9.3200000000000003,
        9.3399999999999999,
        9.3599999999999994,
        9.3800000000000008,
        9.4000000000000004,
        9.4199999999999999,
        9.4399999999999995,
        9.4600000000000009,
        9.4800000000000004,
        9.5,
        9.5199999999999996,
        9.5399999999999991,
        9.5600000000000005,
        9.5800000000000001,
        9.5999999999999996,
        9.6199999999999992,
        9.6400000000000006,
        9.6600000000000001,
        9.6799999999999997,
        9.6999999999999993,
        9.7200000000000006,
        9.7400000000000002,
        9.7599999999999998,
        9.7799999999999994,
        9.8000000000000007,
        9.8200000000000003,
        9.8399999999999999,
        9.8599999999999994,
        9.8800000000000008,
        9.9000000000000004,
        9.9199999999999999,
        9.9399999999999995,
        9.9600000000000009,
        9.9800000000000004,
        10.0,
        10.02,
        10.039999999999999,
        10.06,
        10.08,
        10.1,
        10.119999999999999,
        10.140000000000001,
        10.16,
        10.18,
        10.199999999999999,
        10.220000000000001,
        10.24,
        10.26,
        10.279999999999999,
        10.300000000000001,
        10.32,
        10.34,
        10.359999999999999,
        10.380000000000001,
        10.4,
        10.42,
        10.44,
        10.460000000000001,
        10.48,
        10.5,
        10.52,
        10.539999999999999,
        10.56,
        10.58,
        10.6,
        10.619999999999999,
        10.640000000000001,
        10.66,
        10.68,
        10.699999999999999,
        10.720000000000001,
        10.74,
        10.76,
        10.779999999999999,
        10.800000000000001,
        10.82,
        10.84,
        10.859999999999999,
        10.880000000000001,
        10.9,
        10.92,
        10.94,
        10.960000000000001
    ]
}