{
    "DU": 52,
    "DV": 300,
    "F-measure": 0.6231003039513677,
    "F-measure Chroma": 0.8601823708206686,
    "FN": 38,
    "FNC": 3,
    "FNCch": 11,
    "FNI": 35,
    "FNIch": 27,
    "FP": 8,
    "GU": 22,
    "GV": 330,
    "Overall Accuracy": 0.5823863636363636,
    "Overall Chroma Accuracy": 0.8039772727272727,
    "Precision": 0.6528662420382165,
    "Precision Chroma": 0.9012738853503185,
    "Raw Chroma Accuracy": 0.8484848484848485,
    "Raw Pitch Accuracy": 0.5878787878787879,
    "Recall": 0.5959302325581395,
    "Recall Chroma": 0.8226744186046512,
    "TN": 14,
    "TO": 352,
    "TP": 292,
    "TPC": 191,
    "TPCch": 269,
    "TPI": 101,
    "TPIch": 23,
    "Voiced Chroma Accuracy": 0.8151515151515152,
    "Voiced Pitch Accuracy": 0.5787878787878787,
    "Voicing Accuracy": 0.8693181818181818,
    "Voicing Detection": 0.8848484848484849,
    "Voicing False Alarm": 0.36363636363636365
}