{
    "f0": [
        35.005675029374288,
        65.462737446343127,
        65.462737446343127,
        65.462737446343127,
        65.288742677281164,
        65.219354280509691,
        65.096368205891011,
        65.349901834187378,
        65.40726274979589,
        64.322879849809439,
        64.440255148112058,
        64.351780471662664,
        62.189534784304641,
        62.131505819654208,
        64.119868984288971,
        63.815745036499465,
        63.594134659657129,
        63.369648998670023,
        63.314479350225817,
        63.259136673000299,
        63.52146256601997,
        63.553328348619445,
        63.58513563933154,
        63.733536422099924,
        63.473184281971811,
        63.411215038430498,
        63.073785433373324,
        62.520822350809887,
        62.400670553377182,
        62.226301226930701,
        62.24940401987373,
        62.201684540011414,
        62.057651056679916,
        61.86934892945925,
        61.789166257781879,
        61.910492356413663,
        62.034089617456615,
        62.327526779961367,
        62.35834228090885,
        63.029950945715477,
        64.551790402557629,
        65.724659164139808,
        63.963480276378775,
        64.156647077872364,
        64.185033478055331,
        64.213371802091331,
        64.41392937763483,
        64.527252331078842,
        64.272855557808356,
        64.042069465543946,
        64.137107031321023,
        64.492378771178934,
        65.224947659273013,
        65.216944598671091,
        65.005172163153659,
        0.0,
        0.0,
        49.976446167700047,
        41.159393779303244,
        36.640391616251776,
        36.780655853603399,
        35.365327823986824,
        35.328919157247654,
        59.029577850180715,
        58.905778476883455,
        58.781087371626498,
        58.655490665593092,
        58.614052249720388,
        58.516645799546552,
        59.125804126808617,
        58.791756318154377,
        59.153884051436044,
        59.380396592981555,
        59.603981608129203,
        59.650722716518821,
        59.697338036941261,
        59.037103981745943,
        58.894755540279121,
        59.559776892124646,
        59.511870142353111,
        59.623028193792507,
        59.636309267007327,
        59.649581172403188,
        59.54784037383466,
        59.947795186430099,
        60.082069043868664,
        59.63640205001866,
        59.514838113329979,
        59.566923958246242,
        59.68458602577698,
        59.941103591121284,
        60.125205233862459,
        59.634655172643718,
        59.746123507759293,
        59.737717476419689,
        59.535398751148627,
        59.771896125222867,
        59.690997089549853,
        59.494844555716035,
        59.296442010051571,
        59.940412642811509,
        60.460457327581643,
        62.031317066012164,
        62.989113300415454,
        63.239192696303853,
        63.741253102060575,
        64.00338354386561,
        64.023435196338752,
        64.043463651274664,
        64.235732360918178,
        64.605884473589825,
        64.968287765374299,
        65.17643040993164,
        65.280806275810974,
        65.384556630327552,
        65.487688926062106,
        38.364072180520331,
        41.395370641153143,
        43.201381458519137,
        0.0,
        0.0,
        62.213011888023772,
        59.079217290767559,
        59.015821834935728,
        59.015822885580199,
        58.459904357891951,
        58.621597145473089,
        58.781794792531613,
        59.452258962487903,
        60.025366434672236,
        60.087866519716464,
        0.0,
        0.0,
        0.0,
        48.087525018754135,
        38.180611801262103,
        63.741220581846356,
        63.741220581846356,
        63.664948993015408,
        63.510516469987209,
        63.905736079745907,
        64.227465817685172,
        64.432143546060544,
        64.68946794851135,
        64.566170185199141,
        64.73550127223028,
        64.843300196224945,
        64.630459758040374,
        64.19873068961779,
        63.693220913979061,
        65.607081223488706,
        65.639494945236876,
        65.774124235681654,
        66.029310454975288,
        66.177428778179845,
        66.214661021953788,
        66.13260186783927,
        65.996706515905259,
        66.39842629286251,
        66.449743376047039,
        66.464967514615466,
        66.148384854724796,
        67.351817350015608,
        68.649270246452332,
        46.776876895084527,
        46.180953839548771,
        68.579784901867072,
        68.50073807711648,
        68.933064571719811,
        68.343168560376384,
        68.569192861928357,
        68.26233598241474,
        68.721954469935909,
        68.711560182857852,
        68.923986706064795,
        68.27262776081524,
        68.944797578944915,
        69.082386550519317,
        50.267302149079377,
        50.11847763779268,
        47.413429174420145,
        45.214782942859884,
        42.908535140777786,
        39.140698313611715,
        69.633452707612847,
        68.995059415468774,
        68.504486113891986,
        68.422866894380874,
        68.246345082511027,
        68.288077683176454,
        68.827877982570755,
        69.029242391121798,
        68.860933837520605,
        69.244547212747335,
        69.74462038254282,
        69.803580369224747,
        69.724667825851583,
        69.656247239754862,
        69.753776993509447,
        69.850762671080332,
        70.0944508477738,
        70.088313314555364,
        69.845242558022079,
        69.832018248523596,
        69.916117693464145,
        69.999809425174774,
        69.909108836254305,
        69.764477538412265,
        69.817860712265741,
        69.2381730594267,
        68.865373167610656,
        68.880465329812807,
        68.810059619312796,
        68.917632130104636,
        69.024539171731334,
        68.781037744856988,
        68.847014305783489,
        68.648669810948761,
        68.607711251864941,
        68.312812934119094,
        68.654139011664753,
        68.710711647982606,
        68.767100020265872,
        68.733827742319392,
        68.73688928758952,
        69.256767928030456,
        68.62442609176837,
        67.962001981463388,
        66.749076176014142,
        40.143024705573268,
        43.876533016965851,
        46.596232688333451,
        48.925678341319824,
        48.478413187147389,
        48.120597404786139,
        66.79824360885614,
        66.591086908502007,
        66.570238916818468,
        66.56445704992376,
        66.55867320608732,
        66.725150729186126,
        66.799451732750427,
        66.731218701671494,
        66.575907016537656,
        66.635305284398214,
        66.622066635192809,
        66.955039161884272,
        66.932227683347691,
        67.189474083643987,
        53.042421782725029,
        51.816440036673157,
        53.1043129183291,
        53.051788093154713,
        52.179136541780586,
        50.553428974590084,
        49.999272984507627,
        49.475947757887283,
        45.776806468821114,
        43.384740981956021,
        68.929914544405833,
        0.0,
        49.731790986472134,
        50.389945568763324,
        40.149933219247032,
        47.231122706733068,
        46.703803679603205,
        0.0,
        0.0,
        0.0,
        0.0,
        0.0,
        52.696314513792643,
        40.475188534148039,
        65.412206316929357,
        64.957656945684406,
        64.346724068920835,
        63.980966102474206,
        63.643414101672235,
        63.600755789551471,
        63.579735315496819,
        63.890642087862851,
        64.222759045749655,
        64.18577715026764,
        64.400321534036934,
        64.182094797746458,
        64.421218892729087,
        64.61036442894688,
        64.979613369140907,
        64.182231170118271,
        64.025762397813864,
        64.040113874682248,
        63.551259194778865,
        63.841869906452651,
        65.516579845876109,
        65.183687348929226,
        64.844266530594922,
        64.840889527624952,
        64.837511865796984,
        64.48437731011758,
        36.515245355540181,
        43.173607890441801,
        43.173647941560134,
        44.292481247199341,
        44.47616109280095,
        44.657916432746831,
        44.646348779722999,
        44.07163228071731,
        41.966612211361394,
        40.610164917410778,
        35.699563522715295,
        36.312185970872846,
        0.0,
        0.0,
        0.0,
        0.0,
        0.0,
        0.0,
        0.0,
        0.0,
        0.0,
        0.0,
        0.0,
        0.0,
        0.0,
        0.0,
        0.0,
        0.0,
        0.0,
        0.0,
        0.0,
        0.0,
        0.0,
        0.0,
        0.0,
        0.0,
        0.0,
        0.0,
        0.0,
        0.0,
        0.0,
        0.0,
        0.0,
        0.0,
        0.0,
        0.0,
        0.0,
        0.0,
        0.0,
        0.0,
        0.0,
        0.0,
        0.0,
        0.0,
        0.0,
        0.0,
        0.0,
        0.0,
        0.0,
        0.0,
        0.0,
        0.0,
        0.0,
        0.0,
        0.0,
        0.0,
        0.0,
        0.0,
        0.0,
        0.0,
        0.0,
        0.0,
        0.0,
        0.0,
        0.0,
        0.0,
        0.0,
        0.0,
        0.0,
        0.0,
        0.0,
        0.0,
        0.0,
        0.0,
        0.0,
        0.0,
        0.0,
        0.0,
        0.0,
        0.0,
        0.0,
        0.0,
        0.0,
        0.0,
        0.0,
        0.0,
        0.0,
        0.0,
        0.0,
        0.0,
        0.0,
        0.0,
        0.0,
        0.0,
        0.0,
        0.0,
        0.0,
        0.0,
        0.0,
        0.0,
        0.0,
        0.0,
        0.0,
        0.0,
        0.0,
        0.0,
        0.0,
        0.0,
        0.0,
        0.0,
        0.0,
        0.0,
        0.0,
        0.0,
        0.0,
        0.0,
        0.0,
        0.0,
        0.0,
        0.0,
        0.0,
        0.0,
        0.0,
        0.0,
        0.0,
        0.0,
        0.0,
        0.0,
        0.0,
        0.0,
        0.0,
        0.0,
        0.0,
        0.0,
        0.0,
        0.0,
        0.0,
        0.0
    ],
    "time": [
        0.02,
        0.040000000000000001,
        0.059999999999999998,
        0.080000000000000002,
        0.10000000000000001,
        0.12,
        0.14000000000000001,
        0.16,
        0.17999999999999999,
        0.20000000000000001,
        0.22,
        0.23999999999999999,
        0.26000000000000001,
        0.28000000000000003,
        0.29999999999999999,
        0.32000000000000001,
        0.34000000000000002,
        0.35999999999999999,
        0.38,
        0.40000000000000002,
        0.41999999999999998,
        0.44,
        0.46000000000000002,
        0.47999999999999998,
        0.5,
        0.52000000000000002,
        0.54000000000000004,
        0.56000000000000005,
        0.57999999999999996,
        0.59999999999999998,
        0.62,
        0.64000000000000001,
        0.66000000000000003,
        0.68000000000000005,
        0.69999999999999996,
        0.71999999999999997,
        0.73999999999999999,
        0.76000000000000001,
        0.78000000000000003,
        0.80000000000000004,
        0.81999999999999995,
        0.83999999999999997,
        0.85999999999999999,
        0.88,
        0.90000000000000002,
        0.92000000000000004,
        0.93999999999999995,
        0.95999999999999996,
        0.97999999999999998,
        1.0,
        1.02,
        1.04,
        1.0600000000000001,
        1.0800000000000001,
        1.1000000000000001,
        1.1200000000000001,
        1.1399999999999999,
        1.1599999999999999,
        1.1799999999999999,
        1.2,
        1.22,
        1.24,
        1.26,
        1.28,
        1.3,
        1.3200000000000001,
        1.3400000000000001,
        1.3600000000000001,
        1.3799999999999999,
        1.3999999999999999,
        1.4199999999999999,
        1.4399999999999999,
        1.46,
        1.48,
        1.5,
        1.52,
        1.54,
        1.5600000000000001,
        1.5800000000000001,
        1.6000000000000001,
        1.6200000000000001,
        1.6399999999999999,
        1.6599999999999999,
        1.6799999999999999,
        1.7,
        1.72,
        1.74,
        1.76,
        1.78,
        1.8,
        1.8200000000000001,
        1.8400000000000001,
        1.8600000000000001,
        1.8799999999999999,
        1.8999999999999999,
        1.9199999999999999,
        1.9399999999999999,
        1.96,
        1.98,
        2.0,
        2.02,
        2.04,
        2.0600000000000001,
        2.0800000000000001,
        2.1000000000000001,
        2.1200000000000001,
        2.1400000000000001,
        2.1600000000000001,
        2.1800000000000002,
        2.2000000000000002,
        2.2200000000000002,
        2.2400000000000002,
        2.2599999999999998,
        2.2799999999999998,
        2.2999999999999998,
        2.3199999999999998,
        2.3399999999999999,
        2.3599999999999999,
        2.3799999999999999,
        2.3999999999999999,
        2.4199999999999999,
        2.4399999999999999,
        2.46,
        2.48,
        2.5,
        2.52,
        2.54,
        2.5600000000000001,
        2.5800000000000001,
        2.6000000000000001,
        2.6200000000000001,
        2.6400000000000001,
        2.6600000000000001,
        2.6800000000000002,
        2.7000000000000002,
        2.7200000000000002,
        2.7400000000000002,
        2.7599999999999998,
        2.7799999999999998,
        2.7999999999999998,
        2.8199999999999998,
        2.8399999999999999,
        2.8599999999999999,
        2.8799999999999999,
        2.8999999999999999,
        2.9199999999999999,
        2.9399999999999999,
        2.96,
        2.98,
        3.0,
        3.02,
        3.04,
        3.0600000000000001,
        3.0800000000000001,
        3.1000000000000001,
        3.1200000000000001,
        3.1400000000000001,
        3.1600000000000001,
        3.1800000000000002,
        3.2000000000000002,
        3.2200000000000002,
        3.2400000000000002,
        3.2599999999999998,
        3.2799999999999998,
        3.2999999999999998,
        3.3199999999999998,
        3.3399999999999999,
        3.3599999999999999,
        3.3799999999999999,
        3.3999999999999999,
        3.4199999999999999,
        3.4399999999999999,
        3.46,
        3.48,
        3.5,
        3.52,
        3.54,
        3.5600000000000001,
        3.5800000000000001,
        3.6000000000000001,
        3.6200000000000001,
        3.6400000000000001,
        3.6600000000000001,
        3.6800000000000002,
        3.7000000000000002,
        3.7200000000000002,
        3.7400000000000002,
        3.7599999999999998,
        3.7799999999999998,
        3.7999999999999998,
        3.8199999999999998,
        3.8399999999999999,
        3.8599999999999999,
        3.8799999999999999,
        3.8999999999999999,
        3.9199999999999999,
        3.9399999999999999,
        3.96,
        3.98,
        4.0,
        4.0199999999999996,
        4.04,
        4.0599999999999996,
        4.0800000000000001,
        4.0999999999999996,
        4.1200000000000001,
        4.1399999999999997,
        4.1600000000000001,
        4.1799999999999997,
        4.2000000000000002,
        4.2199999999999998,
        4.2400000000000002,
        4.2599999999999998,
        4.2800000000000002,
        4.2999999999999998,
        4.3200000000000003,
        4.3399999999999999,
        4.3600000000000003,
        4.3799999999999999,
        4.4000000000000004,
        4.4199999999999999,
        4.4400000000000004,
        4.46,
        4.4800000000000004,
        4.5,
        4.5199999999999996,
        4.54,
        4.5599999999999996,
        4.5800000000000001,
        4.5999999999999996,
        4.6200000000000001,
        4.6399999999999997,
        4.6600000000000001,
        4.6799999999999997,
        4.7000000000000002,
        4.7199999999999998,
        4.7400000000000002,
        4.7599999999999998,
        4.7800000000000002,
        4.7999999999999998,
        4.8200000000000003,
        4.8399999999999999,
        4.8600000000000003,
        4.8799999999999999,
        4.9000000000000004,
        4.9199999999999999,
        4.9400000000000004,
        4.96,
        4.9800000000000004,
        5.0,
        5.0199999999999996,
        5.04,
        5.0599999999999996,
        5.0800000000000001,
        5.0999999999999996,
        5.1200000000000001,
        5.1399999999999997,
        5.1600000000000001,
        5.1799999999999997,
        5.2000000000000002,
        5.2199999999999998,
        5.2400000000000002,
        5.2599999999999998,
        5.2800000000000002,
        5.2999999999999998,
        5.3200000000000003,
        5.3399999999999999,
        5.3600000000000003,
        5.3799999999999999,
        5.4000000000000004,
        5.4199999999999999,
        5.4400000000000004,
        5.46,
        5.4800000000000004,
        5.5,
        5.5199999999999996,
        5.54,
        5.5599999999999996,
        5.5800000000000001,
        5.5999999999999996,
        5.6200000000000001,
        5.6399999999999997,
        5.6600000000000001,
        5.6799999999999997,
        5.7000000000000002,
        5.7199999999999998,
        5.7400000000000002,
        5.7599999999999998,
        5.7800000000000002,
        5.7999999999999998,
        5.8200000000000003,
        5.8399999999999999,
        5.8600000000000003,
        5.8799999999999999,
        5.9000000000000004,
        5.9199999999999999,
        5.9400000000000004,
        5.96,
        5.9800000000000004,
        6.0,
        6.0199999999999996,
        6.04,
        6.0599999999999996,
        6.0800000000000001,
        6.0999999999999996,
        6.1200000000000001,
        6.1399999999999997,
        6.1600000000000001,
        6.1799999999999997,
        6.2000000000000002,
        6.2199999999999998,
        6.2400000000000002,
        6.2599999999999998,
        6.2800000000000002,
        6.2999999999999998,
        6.3200000000000003,
        6.3399999999999999,
        6.3600000000000003,
        6.3799999999999999,
        6.4000000000000004,
        6.4199999999999999,
        6.4400000000000004,
        6.46,
        6.4800000000000004,
        6.5,
        6.5199999999999996,
        6.54,
        6.5599999999999996,
        6.5800000000000001,
        6.5999999999999996,
        6.6200000000000001,
        6.6399999999999997,
        6.6600000000000001,
        6.6799999999999997,
        6.7000000000000002,
        6.7199999999999998,
        6.7400000000000002,
        6.7599999999999998,
        6.7800000000000002,
        6.7999999999999998,
        6.8200000000000003,
        6.8399999999999999,
        6.8600000000000003,
        6.8799999999999999,
        6.9000000000000004,
        6.9199999999999999,
        6.9400000000000004,
        6.96,
        6.9800000000000004,
        7.0,
        7.0199999999999996,
        7.04,
        7.0599999999999996,
        7.0800000000000001,
        7.0999999999999996,
        7.1200000000000001,
        7.1399999999999997,
        7.1600000000000001,
        7.1799999999999997,
        7.2000000000000002,
        7.2199999999999998,
        7.2400000000000002,
        7.2599999999999998,
        7.2800000000000002,
        7.2999999999999998,
        7.3200000000000003,
        7.3399999999999999,
        7.3600000000000003,
        7.3799999999999999,
        7.4000000000000004,
        7.4199999999999999,
        7.4400000000000004,
        7.46,
        7.4800000000000004,
        7.5,
        7.5199999999999996,
        7.54,
        7.5599999999999996,
        7.5800000000000001,
        7.5999999999999996,
        7.6200000000000001,
        7.6399999999999997,
        7.6600000000000001,
        7.6799999999999997,
        7.7000000000000002,
        7.7199999999999998,
        7.7400000000000002,
        7.7599999999999998,
        7.7800000000000002,
        7.7999999999999998,
        7.8200000000000003,
        7.8399999999999999,
        7.8600000000000003,
        7.8799999999999999,
        7.9000000000000004,
        7.9199999999999999,
        7.9400000000000004,
        7.96,
        7.9800000000000004,
        8.0,
        8.0199999999999996,
        8.0399999999999991,
        8.0600000000000005,
        8.0800000000000001,
        8.0999999999999996,
        8.1199999999999992,
        8.1400000000000006,
        8.1600000000000001,
        8.1799999999999997,
        8.1999999999999993,
        8.2200000000000006,
        8.2400000000000002,
        8.2599999999999998,
        8.2799999999999994,
        8.3000000000000007,
        8.3200000000000003,
        8.3399999999999999,
        8.3599999999999994,
        8.3800000000000008,
        8.4000000000000004,
        8.4199999999999999,
        8.4399999999999995,
        8.4600000000000009,
        8.4800000000000004,
        8.5,
        8.5199999999999996,
        8.5399999999999991,
        8.5600000000000005,
        8.5800000000000001,
        8.5999999999999996,
        8.6199999999999992,
        8.6400000000000006,
        8.6600000000000001,
        8.6799999999999997,
        8.6999999999999993,
        8.7200000000000006,
        8.7400000000000002,
        8.7599999999999998,
        8.7799999999999994,
        8.8000000000000007,
        8.8200000000000003,
        8.8399999999999999,
        8.8599999999999994,
        8.8800000000000008,
        8.9000000000000004,
        8.9199999999999999,
        8.9399999999999995
    ]
}