{
    "DU": 158,
    "DV": 402,
    "F-measure": 0.6986301369863013,
    "F-measure Chroma": 0.8454011741682974,
    "FN": 64,
    "FNC": 16,
    "FNCch": 40,
    "FNI": 48,
    "FNIch": 24,
    "FP": 34,
    "GU": 128,
    "GV": 432,
    "Overall Accuracy": 0.6375,
    "Overall Chroma Accuracy": 0.7714285714285715,
    "Precision": 0.719758064516129,
    "Precision Chroma": 0.8709677419354839,
    "Raw Chroma Accuracy": 0.875,
    "Raw Pitch Accuracy": 0.6458333333333334,
    "Recall": 0.6787072243346007,
    "Recall Chroma": 0.8212927756653993,
    "TN": 94,
    "TO": 560,
    "TP": 368,
    "TPC": 263,
    "TPCch": 338,
    "TPI": 105,
    "TPIch": 30,
    "Voiced Chroma Accuracy": 0.7824074074074074,
    "Voiced Pitch Accuracy": 0.6087962962962963,
    "Voicing Accuracy": 0.825,
    "Voicing Detection": 0.8518518518518519,
    "Voicing False Alarm": 0.265625
}