{
    "f0": [
        0.0,
        0.0,
        0.0,
        0.0,
        0.0,
        0.0,
        70.69188371855374,
        61.808277683676323,
        61.825630706249278,
        61.997896502543036,
        61.903575529254596,
        61.808739708590529,
        62.475213267804932,
        63.116976204715087,
        63.256245697423907,
        65.17328234890762,
        66.628286536202097,
        70.817712803147145,
        55.097523088098292,
        53.532995855407663,
        63.764220141323179,
        73.47160421934899,
        58.022434886480134,
        50.909116293733049,
        51.420843526634513,
        53.887642336607705,
        55.883463310327457,
        0.0,
        44.61087248164938,
        61.475137382993694,
        61.647394482644032,
        61.647394482644032,
        53.503829616381765,
        47.510333926175164,
        47.437133696150887,
        42.653094163261926,
        41.32410340808903,
        41.96986526933329,
        42.592403445235419,
        43.717280577513932,
        44.701276902626333,
        45.316843055989679,
        46.576147685021539,
        47.442562051948045,
        48.240937249874243,
        49.016909243507826,
        49.753455222116038,
        50.113128793879739,
        49.929537159453524,
        50.104617012750545,
        0.0,
        0.0,
        0.0,
        0.0,
        0.0,
        0.0,
        49.22067108551061,
        50.481672758733438,
        51.490447564534655,
        52.002184789245391,
        51.86482023284465,
        51.620954556116864,
        51.742211408031778,
        51.705931949264965,
        51.517393775696966,
        51.669938932620191,
        51.821149993757601,
        51.971055022377541,
        51.945676042432808,
        51.209321738654488,
        51.494504468051346,
        51.889530696896522,
        51.715019942826785,
        50.995173229872861,
        51.374726458151052,
        52.209874173983295,
        52.138134230579865,
        52.358713201200615,
        52.42041324459629,
        52.385847191725489,
        52.410248206269976,
        52.493361829749084,
        52.48697059355456,
        52.808746055758341,
        52.618303324593114,
        53.988089386183169,
        53.746551420768483,
        53.833540602818111,
        54.698740154831519,
        54.806132981979729,
        54.922921322226813,
        54.506613495016126,
        54.372549170256761,
        54.602393742808047,
        54.847796662042768,
        54.616935875217777,
        54.549630011797134,
        54.588213512750386,
        54.585282960165664,
        54.401482046796474,
        53.957599310491702,
        53.461010993988367,
        52.918218004818229,
        52.54641159491338,
        51.896336510183922,
        52.078350921822107,
        52.677875367045708,
        52.528480583174726,
        52.265978347568847,
        52.228557280415885,
        50.661297458026141,
        0.0,
        0.0,
        55.958574594440648,
        54.54324901134035,
        51.799278383713535,
        52.118514374529141,
        52.116042003669648,
        51.980571442334934,
        52.039643741240027,
        52.04492325825457,
        51.980159000782258,
        52.113026312068307,
        52.085621960546163,
        52.058174265555273,
        52.036043642751935,
        52.522929678330385,
        51.716527044113661,
        0.0,
        0.0,
        0.0,
        0.0,
        0.0,
        0.0,
        0.0,
        0.0,
        0.0,
        53.900733507400453,
        52.574707652045149,
        52.400714592375117,
        52.400719313742357,
        52.533796570068162,
        52.66586474533122,
        52.648446135255561,
        52.445374963329058,
        52.465303691384953,
        52.857316414903742,
        52.885675747217846,
        53.434919008775985,
        53.888917070027361,
        54.746357464128678,
        54.659885767557853,
        54.284518218314389,
        53.952741746647845,
        53.414040980657155,
        54.176830857739077,
        54.539905375855199,
        54.888669938462087,
        54.706585872480858,
        54.285640439548274,
        53.976059371002584,
        54.443568944509401,
        54.97713915948507,
        54.75005389014126,
        54.899742163556404,
        54.171563634278577,
        54.134630952198371,
        54.418015815824027,
        54.696835137423804,
        54.797241354745125,
        55.064677847319317,
        54.895951380430617,
        52.994934696752317,
        51.152484973916728,
        49.60471653254541,
        48.302038243880624,
        43.780096341440938,
        61.761154512206097,
        73.743422618641262,
        68.719771406684401,
        0.0,
        0.0,
        0.0,
        0.0,
        0.0,
        0.0,
        0.0,
        57.312822240631128,
        56.256341731544438,
        35.945044377563015,
        58.201504529506984,
        57.622658054071351,
        57.535513223595771,
        57.364922055694478,
        57.234600705542348,
        57.358869637181058,
        57.482252913107601,
        57.454054054136293,
        57.260040055122495,
        57.320119106326871,
        57.51471431253362,
        57.466670231841505,
        57.437299810001896,
        57.135302523080981,
        57.139469533134054,
        57.054120884532111,
        59.796845824628903,
        59.07252545311281,
        57.344819936783225,
        57.623326450598725,
        57.990008675854668,
        57.415796411356823,
        57.302205746834531,
        57.187867195287879,
        56.898771872160168,
        57.205206240584758,
        57.506308448762731,
        58.646939735749584,
        58.975391108516085,
        59.138365184904259,
        59.378940849577859,
        59.577243678324379,
        59.265260669860822,
        59.219449532169946,
        59.173519972759429,
        59.299734195909039,
        59.530639576149937,
        59.608838437907565,
        59.439697309884892,
        59.860696042533377,
        57.853191706424653,
        59.466143350317481,
        0.0,
        0.0,
        0.0,
        62.053585552847871,
        62.022186379318782,
        61.315461929137832,
        61.48772095498741,
        61.658281059946432,
        61.721224819952205,
        61.730003919883146,
        61.765757934528004,
        61.723444272675501,
        61.789834605575955,
        61.762717710561695,
        61.735552767677568,
        61.863625215871942,
        61.895770955276618,
        61.921417149745224,
        61.80417137312778,
        61.859225574489969,
        61.839255153020723,
        61.775919712727585,
        61.384355095517186,
        61.152342702860707,
        60.482170555163883,
        59.657966181777368,
        59.202274445578936,
        58.975125444194724,
        58.821389161621468,
        58.926087584581396,
        58.909498518415134,
        58.714103822463983,
        58.607129942464539,
        58.499493190316883,
        58.902912837372412,
        59.18436363369738,
        59.461310894996139,
        59.733899485682976,
        0.0,
        0.0,
        48.793854588954929,
        46.834247493636845,
        51.815191001634638,
        35.621893140929686,
        58.633165689805544,
        58.687961967563467,
        58.732872516866777,
        58.638278559980293,
        58.543165984193578,
        58.619790740847797,
        58.611483640471327,
        58.553745413985567,
        58.438475898881038,
        58.551661903008458,
        58.627968218745579,
        59.064769622678391,
        58.61372298603537,
        58.404761168474998,
        58.791539760943181,
        57.916178037005814,
        36.67753555145039,
        41.101312676884838,
        43.733639538799082,
        43.063188736649103,
        45.316649736979713,
        45.037928633874216,
        43.31987095790597,
        63.154397017110092,
        62.997136729522012,
        62.888559608078417,
        62.684263206462681,
        62.697944051544283,
        62.711619299291534,
        63.237010292063133,
        63.500375213479558,
        63.35435790565252,
        63.363263136285269,
        63.489427348060389,
        63.38257313552468,
        62.346919202117974,
        62.425086878695112,
        62.520920114933908,
        46.154436272203739,
        57.363606358509855,
        43.559118020333052,
        62.68623979017449,
        45.713299744977121,
        49.554896031126475,
        44.352968641233943,
        49.400653767929292,
        48.427679658664985,
        0.0,
        0.0,
        0.0,
        0.0,
        0.0,
        0.0,
        0.0,
        0.0,
        0.0,
        0.0,
        0.0,
        0.0,
        0.0,
        0.0,
        0.0,
        0.0,
        0.0,
        0.0,
        0.0,
        0.0,
        0.0,
        0.0,
        0.0,
        0.0,
        0.0,
        0.0,
        0.0,
        0.0,
        0.0,
        0.0,
        0.0,
        0.0,
        0.0,
        0.0,
        0.0,
        0.0,
        0.0,
        0.0,
        0.0,
        0.0,
        0.0,
        0.0,
        0.0,
        0.0,
        0.0,
        0.0,
        0.0,
        0.0,
        0.0,
        0.0,
        0.0,
        0.0,
        0.0,
        0.0,
        0.0,
        0.0,
        0.0,
        0.0,
        0.0,
        0.0,
        0.0,
        0.0,
        0.0,
        0.0,
        0.0,
        0.0,
        0.0,
        0.0,
        0.0,
        0.0,
        0.0,
        0.0,
        0.0,
        0.0,
        0.0,
        0.0,
        0.0,
        0.0,
        0.0,
        0.0,
        0.0,
        0.0,
        0.0,
        0.0,
        0.0,
        0.0,
        0.0,
        0.0,
        0.0,
        0.0,
        0.0,
        0.0,
        0.0,
        0.0,
        0.0,
        0.0,
        0.0,
        0.0,
        0.0,
        0.0,
        0.0,
        0.0,
        0.0,
        0.0,
        0.0,
        0.0,
        0.0,
        0.0,
        0.0,
        0.0,
        0.0,
        0.0,
        0.0,
        0.0,
        0.0,
        0.0,
        0.0,
        0.0,
        0.0,
        0.0,
        0.0,
        0.0,
        0.0,
        0.0,
        0.0,
        0.0,
        0.0,
        0.0,
        0.0,
        0.0,
        0.0,
        0.0,
        0.0,
        0.0,
        0.0,
        0.0,
        0.0,
        0.0,
        0.0,
        0.0,
        0.0,
        0.0,
        0.0,
        0.0,
        0.0,
        0.0,
        0.0,
        0.0,
        0.0,
        0.0,
        0.0,
        0.0
    ],
    "time": [
        0.02,
        0.040000000000000001,
        0.059999999999999998,
        0.080000000000000002,
        0.10000000000000001,
        0.12,
        0.14000000000000001,
        0.16,
        0.17999999999999999,
        0.20000000000000001,
        0.22,
        0.23999999999999999,
        0.26000000000000001,
        0.28000000000000003,
        0.29999999999999999,
        0.32000000000000001,
        0.34000000000000002,
        0.35999999999999999,
        0.38,
        0.40000000000000002,
        0.41999999999999998,
        0.44,
        0.46000000000000002,
        0.47999999999999998,
        0.5,
        0.52000000000000002,
        0.54000000000000004,
        0.56000000000000005,
        0.57999999999999996,
        0.59999999999999998,
        0.62,
        0.64000000000000001,
        0.66000000000000003,
        0.68000000000000005,
        0.69999999999999996,
        0.71999999999999997,
        0.73999999999999999,
        0.76000000000000001,
        0.78000000000000003,
        0.80000000000000004,
        0.81999999999999995,
        0.83999999999999997,
        0.85999999999999999,
        0.88,
        0.90000000000000002,
        0.92000000000000004,
        0.93999999999999995,
        0.95999999999999996,
        0.97999999999999998,
        1.0,
        1.02,
        1.04,
        1.0600000000000001,
        1.0800000000000001,
        1.1000000000000001,
        1.1200000000000001,
        1.1399999999999999,
        1.1599999999999999,
        1.1799999999999999,
        1.2,
        1.22,
        1.24,
        1.26,
        1.28,
        1.3,
        1.3200000000000001,
        1.3400000000000001,
        1.3600000000000001,
        1.3799999999999999,
        1.3999999999999999,
        1.4199999999999999,
        1.4399999999999999,
        1.46,
        1.48,
        1.5,
        1.52,
        1.54,
        1.5600000000000001,
        1.5800000000000001,
        1.6000000000000001,
        1.6200000000000001,
        1.6399999999999999,
        1.6599999999999999,
        1.6799999999999999,
        1.7,
        1.72,
        1.74,
        1.76,
        1.78,
        1.8,
        1.8200000000000001,
        1.8400000000000001,
        1.8600000000000001,
        1.8799999999999999,
        1.8999999999999999,
        1.9199999999999999,
        1.9399999999999999,
        1.96,
        1.98,
        2.0,
        2.02,
        2.04,
        2.0600000000000001,
        2.0800000000000001,
        2.1000000000000001,
        2.1200000000000001,
        2.1400000000000001,
        2.1600000000000001,
        2.1800000000000002,
        2.2000000000000002,
        2.2200000000000002,
        2.2400000000000002,
        2.2599999999999998,
        2.2799999999999998,
        2.2999999999999998,
        2.3199999999999998,
        2.3399999999999999,
        2.3599999999999999,
        2.3799999999999999,
        2.3999999999999999,
        2.4199999999999999,
        2.4399999999999999,
        2.46,
        2.48,
        2.5,
        2.52,
        2.54,
        2.5600000000000001,
        2.5800000000000001,
        2.6000000000000001,
        2.6200000000000001,
        2.6400000000000001,
        2.6600000000000001,
        2.6800000000000002,
        2.7000000000000002,
        2.7200000000000002,
        2.7400000000000002,
        2.7599999999999998,
        2.7799999999999998,
        2.7999999999999998,
        2.8199999999999998,
        2.8399999999999999,
        2.8599999999999999,
        2.8799999999999999,
        2.8999999999999999,
        2.9199999999999999,
        2.9399999999999999,
        2.96,
        2.98,
        3.0,
        3.02,
        3.04,
        3.0600000000000001,
        3.0800000000000001,
        3.1000000000000001,
        3.1200000000000001,
        3.1400000000000001,
        3.1600000000000001,
        3.1800000000000002,
        3.2000000000000002,
        3.2200000000000002,
        3.2400000000000002,
        3.2599999999999998,
        3.2799999999999998,
        3.2999999999999998,
        3.3199999999999998,
        3.3399999999999999,
        3.3599999999999999,
        3.3799999999999999,
        3.3999999999999999,
        3.4199999999999999,
        3.4399999999999999,
        3.46,
        3.48,
        3.5,
        3.52,
        3.54,
        3.5600000000000001,
        3.5800000000000001,
        3.6000000000000001,
        3.6200000000000001,
        3.6400000000000001,
        3.6600000000000001,
        3.6800000000000002,
        3.7000000000000002,
        3.7200000000000002,
        3.7400000000000002,
        3.7599999999999998,
        3.7799999999999998,
        3.7999999999999998,
        3.8199999999999998,
        3.8399999999999999,
        3.8599999999999999,
        3.8799999999999999,
        3.8999999999999999,
        3.9199999999999999,
        3.9399999999999999,
        3.96,
        3.98,
        4.0,
        4.0199999999999996,
        4.04,
        4.0599999999999996,
        4.0800000000000001,
        4.0999999999999996,
        4.1200000000000001,
        4.1399999999999997,
        4.1600000000000001,
        4.1799999999999997,
        4.2000000000000002,
        4.2199999999999998,
        4.2400000000000002,
        4.2599999999999998,
        4.2800000000000002,
        4.2999999999999998,
        4.3200000000000003,
        4.3399999999999999,
        4.3600000000000003,
        4.3799999999999999,
        4.4000000000000004,
        4.4199999999999999,
        4.4400000000000004,
        4.46,
        4.4800000000000004,
        4.5,
        4.5199999999999996,
        4.54,
        4.5599999999999996,
        4.5800000000000001,
        4.5999999999999996,
        4.6200000000000001,
        4.6399999999999997,
        4.6600000000000001,
        4.6799999999999997,
        4.7000000000000002,
        4.7199999999999998,
        4.7400000000000002,
        4.7599999999999998,
        4.7800000000000002,
        4.7999999999999998,
        4.8200000000000003,
        4.8399999999999999,
        4.8600000000000003,
        4.8799999999999999,
        4.9000000000000004,
        4.9199999999999999,
        4.9400000000000004,
        4.96,
        4.9800000000000004,
        5.0,
        5.0199999999999996,
        5.04,
        5.0599999999999996,
        5.0800000000000001,
        5.0999999999999996,
        5.1200000000000001,
        5.1399999999999997,
        5.1600000000000001,
        5.1799999999999997,
        5.2000000000000002,
        5.2199999999999998,
        5.2400000000000002,
        5.2599999999999998,
        5.2800000000000002,
        5.2999999999999998,
        5.3200000000000003,
        5.3399999999999999,
        5.3600000000000003,
        5.3799999999999999,
        5.4000000000000004,
        5.4199999999999999,
        5.4400000000000004,
        5.46,
        5.4800000000000004,
        5.5,
        5.5199999999999996,
        5.54,
        5.5599999999999996,
        5.5800000000000001,
        5.5999999999999996,
        5.6200000000000001,
        5.6399999999999997,
        5.6600000000000001,
        5.6799999999999997,
        5.7000000000000002,
        5.7199999999999998,
        5.7400000000000002,
        5.7599999999999998,
        5.7800000000000002,
        5.7999999999999998,
        5.8200000000000003,
        5.8399999999999999,
        5.8600000000000003,
        5.8799999999999999,
        5.9000000000000004,
        5.9199999999999999,
        5.9400000000000004,
        5.96,
        5.9800000000000004,
        6.0,
        6.0199999999999996,
        6.04,
        6.0599999999999996,
        6.0800000000000001,
        6.0999999999999996,
        6.1200000000000001,
        6.1399999999999997,
        6.1600000000000001,
        6.1799999999999997,
        6.2000000000000002,
        6.2199999999999998,
        6.2400000000000002,
        6.2599999999999998,
        6.2800000000000002,
        6.2999999999999998,
        6.3200000000000003,
        6.3399999999999999,
        6.3600000000000003,
        6.3799999999999999,
        6.4000000000000004,
        6.4199999999999999,
        6.4400000000000004,
        6.46,
        6.4800000000000004,
        6.5,
        6.5199999999999996,
        6.54,
        6.5599999999999996,
        6.5800000000000001,
        6.5999999999999996,
        6.6200000000000001,
        6.6399999999999997,
        6.6600000000000001,
        6.6799999999999997,
        6.7000000000000002,
        6.7199999999999998,
        6.7400000000000002,
        6.7599999999999998,
        6.7800000000000002,
        6.7999999999999998,
        6.8200000000000003,
        6.8399999999999999,
        6.8600000000000003,
        6.8799999999999999,
        6.9000000000000004,
        6.9199999999999999,
        6.9400000000000004,
        6.96,
        6.9800000000000004,
        7.0,
        7.0199999999999996,
        7.04,
        7.0599999999999996,
        7.0800000000000001,
        7.0999999999999996,
        7.1200000000000001,
        7.1399999999999997,
        7.1600000000000001,
        7.1799999999999997,
        7.2000000000000002,
        7.2199999999999998,
        7.2400000000000002,
        7.2599999999999998,
        7.2800000000000002,
        7.2999999999999998,
        7.3200000000000003,
        7.3399999999999999,
        7.3600000000000003,
        7.3799999999999999,
        7.4000000000000004,
        7.4199999999999999,
        7.4400000000000004,
        7.46,
        7.4800000000000004,
        7.5,
        7.5199999999999996,
        7.54,
        7.5599999999999996,
        7.5800000000000001,
        7.5999999999999996,
        7.6200000000000001,
        7.6399999999999997,
        7.6600000000000001,
        7.6799999999999997,
        7.7000000000000002,
        7.7199999999999998,
        7.7400000000000002,
        7.7599999999999998,
        7.7800000000000002,
        7.7999999999999998,
        7.8200000000000003,
        7.8399999999999999,
        7.8600000000000003,
        7.8799999999999999,
        7.9000000000000004,
        7.9199999999999999,
        7.9400000000000004,
        7.96,
        7.9800000000000004,
        8.0,
        8.0199999999999996,
        8.0399999999999991,
        8.0600000000000005,
        8.0800000000000001,
        8.0999999999999996,
        8.1199999999999992,
        8.1400000000000006,
        8.1600000000000001,
        8.1799999999999997,
        8.1999999999999993,
        8.2200000000000006,
        8.2400000000000002,
        8.2599999999999998,
        8.2799999999999994,
        8.3000000000000007,
        8.3200000000000003,
        8.3399999999999999,
        8.3599999999999994,
        8.3800000000000008,
        8.4000000000000004,
        8.4199999999999999,
        8.4399999999999995,
        8.4600000000000009,
        8.4800000000000004,
        8.5,
        8.5199999999999996,
        8.5399999999999991,
        8.5600000000000005,
        8.5800000000000001,
        8.5999999999999996,
        8.6199999999999992,
        8.6400000000000006,
        8.6600000000000001,
        8.6799999999999997,
        8.6999999999999993,
        8.7200000000000006,
        8.7400000000000002,
        8.7599999999999998,
        8.7799999999999994,
        8.8000000000000007,
        8.8200000000000003,
        8.8399999999999999,
        8.8599999999999994,
        8.8800000000000008,
        8.9000000000000004,
        8.9199999999999999,
        8.9399999999999995,
        8.9600000000000009,
        8.9800000000000004,
        9.0,
        9.0199999999999996,
        9.0399999999999991,
        9.0600000000000005,
        9.0800000000000001,
        9.0999999999999996,
        9.1199999999999992,
        9.1400000000000006,
        9.1600000000000001,
        9.1799999999999997,
        9.1999999999999993,
        9.2200000000000006,
        9.2400000000000002,
        9.2599999999999998,
        9.2799999999999994,
        9.3000000000000007,
        9.3200000000000003,
        9.3399999999999999,
        9.3599999999999994,
        9.3800000000000008,
        9.4000000000000004,
        9.4199999999999999,
        9.4399999999999995,
        9.4600000000000009,
        9.4800000000000004,
        9.5
    ]
}