{
    "DU": 9,
    "DV": 213,
    "F-measure": 0.31606217616580307,
    "F-measure Chroma": 0.5440414507772021,
    "FN": 5,
    "FNC": 0,
    "FNCch": 0,
    "FNI": 5,
    "FNIch": 5,
    "FP": 53,
    "GU": 57,
    "GV": 165,
    "Overall Accuracy": 0.2747747747747748,
    "Overall Chroma Accuracy": 0.47297297297297297,
    "Precision": 0.28110599078341014,
    "Precision Chroma": 0.4838709677419355,
    "Raw Chroma Accuracy": 0.6121212121212121,
    "Raw Pitch Accuracy": 0.34545454545454546,
    "Recall": 0.3609467455621302,
    "Recall Chroma": 0.621301775147929,
    "TN": 4,
    "TO": 222,
    "TP": 160,
    "TPC": 57,
    "TPCch": 101,
    "TPI": 103,
    "TPIch": 59,
    "Voiced Chroma Accuracy": 0.6121212121212121,
    "Voiced Pitch Accuracy": 0.34545454545454546,
    "Voicing Accuracy": 0.7387387387387387,
    "Voicing Detection": 0.9696969696969697,
    "Voicing False Alarm": 0.9298245614035088
}