{
    "DU": 73,
    "DV": 212,
    "F-measure": 0.7706766917293232,
    "F-measure Chroma": 0.9097744360902256,
    "FN": 32,
    "FNC": 6,
    "FNCch": 20,
    "FNI": 26,
    "FNIch": 12,
    "FP": 6,
    "GU": 47,
    "GV": 238,
    "Overall Accuracy": 0.7192982456140351,
    "Overall Chroma Accuracy": 0.8491228070175438,
    "Precision": 0.8102766798418972,
    "Precision Chroma": 0.9565217391304348,
    "Raw Chroma Accuracy": 0.9285714285714286,
    "Raw Pitch Accuracy": 0.7142857142857143,
    "Recall": 0.7347670250896058,
    "Recall Chroma": 0.8673835125448028,
    "TN": 41,
    "TO": 285,
    "TP": 206,
    "TPC": 164,
    "TPCch": 201,
    "TPI": 42,
    "TPIch": 5,
    "Voiced Chroma Accuracy": 0.8445378151260504,
    "Voiced Pitch Accuracy": 0.6890756302521008,
    "Voicing Accuracy": 0.8666666666666667,
    "Voicing Detection": 0.865546218487395,
    "Voicing False Alarm": 0.1276595744680851
}