{
    "DU": 252,
    "DV": 196,
    "F-measure": 0.5690376569037658,
    "F-measure Chroma": 0.7252440725244074,
    "FN": 155,
    "FNC": 46,
    "FNCch": 100,
    "FNI": 109,
    "FNIch": 55,
    "FP": 24,
    "GU": 121,
    "GV": 327,
    "Overall Accuracy": 0.45535714285714285,
    "Overall Chroma Accuracy": 0.5803571428571429,
    "Precision": 0.6962457337883959,
    "Precision Chroma": 0.8873720136518771,
    "Raw Chroma Accuracy": 0.8042813455657493,
    "Raw Pitch Accuracy": 0.46788990825688076,
    "Recall": 0.4811320754716981,
    "Recall Chroma": 0.6132075471698113,
    "TN": 97,
    "TO": 448,
    "TP": 172,
    "TPC": 107,
    "TPCch": 163,
    "TPI": 65,
    "TPIch": 9,
    "Voiced Chroma Accuracy": 0.4984709480122324,
    "Voiced Pitch Accuracy": 0.327217125382263,
    "Voicing Accuracy": 0.6004464285714286,
    "Voicing Detection": 0.5259938837920489,
    "Voicing False Alarm": 0.19834710743801653
}