{
    "f0": [
        38.097764898951368,
        43.787434938331934,
        54.276606662636368,
        54.788332908449178,
        55.457632741453786,
        55.669487789862913,
        55.594256331792323,
        55.51869781091564,
        55.365883540462576,
        55.532533656807068,
        55.700679660288941,
        56.037940583174219,
        56.11122198509706,
        56.202497474516591,
        56.395239900874728,
        56.535515486894383,
        56.871915097864658,
        56.93142395710499,
        52.7984836702,
        55.717867677005685,
        48.443951223663973,
        48.614351026578916,
        40.05875884157571,
        43.279749735572153,
        43.011243141831486,
        42.500947569301204,
        43.2401254274493,
        44.011156648210218,
        43.831560258449343,
        43.793225447218752,
        44.026056499131151,
        55.828751893279474,
        55.850287178066765,
        55.871034308629191,
        55.892142013335196,
        56.085292967725437,
        55.664114857369476,
        55.738389152445748,
        55.829197729358818,
        56.083410540228435,
        56.253374596749595,
        56.804462145160308,
        56.804272728721593,
        57.485562011628005,
        56.906077425801755,
        57.563529773276073,
        58.024289944647307,
        58.383433940160231,
        58.429513057797067,
        58.346658147057205,
        58.208587457550507,
        58.097057841116197,
        58.252949139487455,
        58.019000401356571,
        58.604208984516632,
        58.748415989437227,
        59.274173986123934,
        59.265973917870923,
        59.34969121131131,
        59.474226324256897,
        59.227665364916348,
        59.338544682817641,
        59.85798426511289,
        59.637420805863144,
        59.787370748280352,
        61.528438120859626,
        61.513732240113754,
        62.498260977456646,
        59.005368198765915,
        59.336251326727073,
        59.547205008171055,
        59.637897119200616,
        59.437015776508403,
        59.254672064333946,
        59.179545051913429,
        59.104092764205824,
        58.854320231554865,
        59.201118744069326,
        59.121644853874812,
        59.101170482644278,
        59.05097962068092,
        59.358370477702806,
        59.015559942301266,
        58.779933597273747,
        47.57067122747587,
        46.664977535332653,
        46.553950722754948,
        44.461020658599899,
        44.098817709600297,
        46.530280874716553,
        46.915017480065821,
        46.20035391136522,
        46.533637389383685,
        46.376289126379774,
        46.197198863598729,
        46.198757514959972,
        46.42400627315925,
        46.165456782459763,
        46.25338019973988,
        46.27849432676566,
        46.130268602196637,
        46.211803237774497,
        45.85768771943259,
        46.129698302698912,
        46.245597064351081,
        46.08657895577133,
        46.319612374651854,
        45.144629926478054,
        45.080960736082062,
        43.36473406857997,
        43.338412421268778,
        43.160229831350996,
        45.648587639252654,
        45.927633528181218,
        45.342663337009995,
        45.261889954124769,
        44.569409473589658,
        56.757016519346472,
        56.669000232952939,
        56.752795372856596,
        57.407975705106765,
        57.671455829569062,
        58.455957224407854,
        58.429759550346063,
        58.385966728325968,
        58.350865666442928,
        58.434659908123223,
        58.394948869452449,
        58.393671561624927,
        58.373140394460684,
        58.200944354244399,
        58.027019542841494,
        58.194156423626481,
        58.318491966793424,
        58.288411841593081,
        58.095238708098961,
        57.982524803739118,
        57.869075694006909,
        57.927138413159824,
        57.752393964765943,
        58.012249405812582,
        57.73510561988607,
        57.996139177594195,
        57.922325631813301,
        57.538868072402742,
        57.648448850961621,
        57.870689236017824,
        58.206507933339168,
        58.651196092581849,
        59.70764709428876,
        59.524060832121563,
        60.001897099446239,
        59.943711231001068,
        42.842758314238296,
        43.104950332338568,
        57.619912613198331,
        47.351955515490062,
        55.50384411568254,
        48.964664501565792,
        74.154211179845618,
        46.556465305860293,
        41.390780290705337,
        45.5926613772656,
        45.093428924690777,
        45.232626999729206,
        46.130229236211363,
        46.098919543712519,
        43.689245617334272,
        45.809116070848106,
        46.968045996367188,
        45.51185138598332,
        45.875140757487273,
        45.216202558391579,
        43.469186773707349,
        38.897217346428675,
        54.5797822777335,
        44.147443355517481,
        51.975740885144717,
        51.068820281057299,
        45.254206443527302,
        58.686902125445854,
        45.944867204782824,
        57.726542387684376,
        57.215237223168998,
        56.740406140299811,
        57.070113825845894,
        57.358606182497716,
        57.659621499295298,
        57.59725923128704,
        58.389493243482889,
        58.338037692193097,
        58.81376106310222,
        58.910335100490343,
        59.006373472741942,
        58.92788807854609,
        58.77221887080492,
        57.947222838160606,
        57.778069243598509,
        57.770463364131025,
        57.507404568971623,
        58.049476105974776,
        57.976878649876113,
        57.685364213123435,
        57.672655916970598,
        57.861350895506696,
        57.752179002048898,
        57.449914167345696,
        57.433145323136358,
        55.714809338159768,
        56.642274647824721,
        57.522569726081144,
        58.360263376551259,
        58.809531520248569,
        58.891509238311684,
        55.922709454422545,
        42.684307802818402,
        42.683381243947721,
        44.755653800218766,
        42.654535255893109,
        44.360727535797018,
        45.010998969833992,
        63.653004261214598,
        63.545805535531152,
        63.610205712854089,
        63.674367215521897,
        64.081123777860157,
        64.311867128041669,
        64.622025495367396,
        64.536512965853476,
        64.667488746868329,
        64.61464371469846,
        65.118858751195972,
        65.608803365378122,
        65.369517161974613,
        64.660421018133277,
        64.677741277965282,
        64.676523620771903,
        64.498067210892273,
        64.233529699831578,
        46.233527267157896,
        45.984248095181073,
        41.819040794272112,
        41.940553886834479,
        64.835057650319811,
        64.69496572016584,
        64.725994557977813,
        64.749500639310682,
        64.843494087703263,
        64.864500987051699,
        64.747723099787137,
        64.740746429984497,
        64.328779877290572,
        64.458273069113645,
        64.330948451895594,
        64.386527433994971,
        63.684723784827071,
        63.564967290949305,
        63.48191464602882,
        63.551871111432447,
        63.184687134353332,
        62.983760053268767,
        62.842075107147579,
        62.494203286984522,
        62.522499995867342,
        62.436556755517564,
        62.479679675005038,
        62.651886744803548,
        62.930816421982456,
        62.978053205040524,
        62.964862551933301,
        62.951661840913445,
        62.834342956568918,
        62.801488734757392,
        62.773722141780873,
        62.915596763076081,
        62.715961220694318,
        62.773095905534582,
        62.861136152992515,
        62.948732674661144,
        62.984558885312737,
        62.871949629894878,
        62.95534818059356,
        62.765153853465321,
        62.680437403895411,
        62.884147889439461,
        62.787552533500751,
        63.127401821826332,
        63.681416528011731,
        64.283880457327854,
        64.610239094395254,
        64.930559134296431,
        65.071061342896513,
        65.210432447665724,
        65.174694699126192,
        65.046886755441179,
        65.119566425674932,
        65.296221849375698,
        65.363924383986728,
        65.431363140230616,
        65.148782238273327,
        64.771230409487075,
        64.431477542264631,
        64.40419265944638,
        63.32970742147819,
        51.962588828265993,
        52.108189569460635,
        52.75388993747287,
        53.122549969224487,
        53.780539117233914,
        66.181630219446546,
        65.960131321622754,
        65.77906690721116,
        65.857481473714486,
        66.037154788891741,
        66.10962200053919,
        65.884573558883773,
        65.82413794476922,
        66.022443786823743,
        65.905845431795782,
        65.566727086747065,
        65.677119712754362,
        65.71314006143156,
        65.749085573667926,
        66.127784666587061,
        65.981686606247351,
        66.128636524866266,
        66.084421907701881,
        65.892973665453823,
        65.599933899262652,
        65.002750623198807,
        63.651856288311166,
        61.882205412831354,
        60.593772810352249,
        49.018381132538835,
        49.566667362310376,
        47.375536984403979,
        49.397036544216533,
        42.126837870817397,
        64.767100046854111,
        43.86914893509438,
        43.38858050101534,
        45.314437772784103,
        43.194893798818882,
        42.859174939121402,
        42.335631574067023,
        43.370324778393893,
        36.034377687577262,
        53.866140831204,
        48.993925308747507,
        49.099527944082837,
        50.469257431842834,
        0.0,
        0.0,
        0.0,
        0.0,
        0.0,
        0.0,
        0.0,
        0.0,
        0.0,
        0.0,
        0.0,
        0.0,
        0.0,
        0.0,
        0.0,
        0.0,
        0.0,
        0.0,
        0.0,
        0.0,
        0.0,
        0.0,
        0.0,
        0.0,
        0.0,
        0.0,
        0.0,
        0.0,
        0.0,
        0.0
    ],
    "time": [
        0.02,
        0.040000000000000001,
        0.059999999999999998,
        0.080000000000000002,
        0.10000000000000001,
        0.12,
        0.14000000000000001,
        0.16,
        0.17999999999999999,
        0.20000000000000001,
        0.22,
        0.23999999999999999,
        0.26000000000000001,
        0.28000000000000003,
        0.29999999999999999,
        0.32000000000000001,
        0.34000000000000002,
        0.35999999999999999,
        0.38,
        0.40000000000000002,
        0.41999999999999998,
        0.44,
        0.46000000000000002,
        0.47999999999999998,
        0.5,
        0.52000000000000002,
        0.54000000000000004,
        0.56000000000000005,
        0.57999999999999996,
        0.59999999999999998,
        0.62,
        0.64000000000000001,
        0.66000000000000003,
        0.68000000000000005,
        0.69999999999999996,
        0.71999999999999997,
        0.73999999999999999,
        0.76000000000000001,
        0.78000000000000003,
        0.80000000000000004,
        0.81999999999999995,
        0.83999999999999997,
        0.85999999999999999,
        0.88,
        0.90000000000000002,
        0.92000000000000004,
        0.93999999999999995,
        0.95999999999999996,
        0.97999999999999998,
        1.0,
        1.02,
        1.04,
        1.0600000000000001,
        1.0800000000000001,
        1.1000000000000001,
        1.1200000000000001,
        1.1399999999999999,
        1.1599999999999999,
        1.1799999999999999,
        1.2,
        1.22,
        1.24,
        1.26,
        1.28,
        1.3,
        1.3200000000000001,
        1.3400000000000001,
        1.3600000000000001,
        1.3799999999999999,
        1.3999999999999999,
        1.4199999999999999,
        1.4399999999999999,
        1.46,
        1.48,
        1.5,
        1.52,
        1.54,
        1.5600000000000001,
        1.5800000000000001,
        1.6000000000000001,
        1.6200000000000001,
        1.6399999999999999,
        1.6599999999999999,
        1.6799999999999999,
        1.7,
        1.72,
        1.74,
        1.76,
        1.78,
        1.8,
        1.8200000000000001,
        1.8400000000000001,
        1.8600000000000001,
        1.8799999999999999,
        1.8999999999999999,
        1.9199999999999999,
        1.9399999999999999,
        1.96,
        1.98,
        2.0,
        2.02,
        2.04,
        2.0600000000000001,
        2.0800000000000001,
        2.1000000000000001,
        2.1200000000000001,
        2.1400000000000001,
        2.1600000000000001,
        2.1800000000000002,
        2.2000000000000002,
        2.2200000000000002,
        2.2400000000000002,
        2.2599999999999998,
        2.2799999999999998,
        2.2999999999999998,
        2.3199999999999998,
        2.3399999999999999,
        2.3599999999999999,
        2.3799999999999999,
        2.3999999999999999,
        2.4199999999999999,
        2.4399999999999999,
        2.46,
        2.48,
        2.5,
        2.52,
        2.54,
        2.5600000000000001,
        2.5800000000000001,
        2.6000000000000001,
        2.6200000000000001,
        2.6400000000000001,
        2.6600000000000001,
        2.6800000000000002,
        2.7000000000000002,
        2.7200000000000002,
        2.7400000000000002,
        2.7599999999999998,
        2.7799999999999998,
        2.7999999999999998,
        2.8199999999999998,
        2.8399999999999999,
        2.8599999999999999,
        2.8799999999999999,
        2.8999999999999999,
        2.9199999999999999,
        2.9399999999999999,
        2.96,
        2.98,
        3.0,
        3.02,
        3.04,
        3.0600000000000001,
        3.0800000000000001,
        3.1000000000000001,
        3.1200000000000001,
        3.1400000000000001,
        3.1600000000000001,
        3.1800000000000002,
        3.2000000000000002,
        3.2200000000000002,
        3.2400000000000002,
        3.2599999999999998,
        3.2799999999999998,
        3.2999999999999998,
        3.3199999999999998,
        3.3399999999999999,
        3.3599999999999999,
        3.3799999999999999,
        3.3999999999999999,
        3.4199999999999999,
        3.4399999999999999,
        3.46,
        3.48,
        3.5,
        3.52,
        3.54,
        3.5600000000000001,
        3.5800000000000001,
        3.6000000000000001,
        3.6200000000000001,
        3.6400000000000001,
        3.6600000000000001,
        3.6800000000000002,
        3.7000000000000002,
        3.7200000000000002,
        3.7400000000000002,
        3.7599999999999998,
        3.7799999999999998,
        3.7999999999999998,
        3.8199999999999998,
        3.8399999999999999,
        3.8599999999999999,
        3.8799999999999999,
        3.8999999999999999,
        3.9199999999999999,
        3.9399999999999999,
        3.96,
        3.98,
        4.0,
        4.0199999999999996,
        4.04,
        4.0599999999999996,
        4.0800000000000001,
        4.0999999999999996,
        4.1200000000000001,
        4.1399999999999997,
        4.1600000000000001,
        4.1799999999999997,
        4.2000000000000002,
        4.2199999999999998,
        4.2400000000000002,
        4.2599999999999998,
        4.2800000000000002,
        4.2999999999999998,
        4.3200000000000003,
        4.3399999999999999,
        4.3600000000000003,
        4.3799999999999999,
        4.4000000000000004,
        4.4199999999999999,
        4.4400000000000004,
        4.46,
        4.4800000000000004,
        4.5,
        4.5199999999999996,
        4.54,
        4.5599999999999996,
        4.5800000000000001,
        4.5999999999999996,
        4.6200000000000001,
        4.6399999999999997,
        4.6600000000000001,
        4.6799999999999997,
        4.7000000000000002,
        4.7199999999999998,
        4.7400000000000002,
        4.7599999999999998,
        4.7800000000000002,
        4.7999999999999998,
        4.8200000000000003,
        4.8399999999999999,
        4.8600000000000003,
        4.8799999999999999,
        4.9000000000000004,
        4.9199999999999999,
        4.9400000000000004,
        4.96,
        4.9800000000000004,
        5.0,
        5.0199999999999996,
        5.04,
        5.0599999999999996,
        5.0800000000000001,
        5.0999999999999996,
        5.1200000000000001,
        5.1399999999999997,
        5.1600000000000001,
        5.1799999999999997,
        5.2000000000000002,
        5.2199999999999998,
        5.2400000000000002,
        5.2599999999999998,
        5.2800000000000002,
        5.2999999999999998,
        5.3200000000000003,
        5.3399999999999999,
        5.3600000000000003,
        5.3799999999999999,
        5.4000000000000004,
        5.4199999999999999,
        5.4400000000000004,
        5.46,
        5.4800000000000004,
        5.5,
        5.5199999999999996,
        5.54,
        5.5599999999999996,
        5.5800000000000001,
        5.5999999999999996,
        5.6200000000000001,
        5.6399999999999997,
        5.6600000000000001,
        5.6799999999999997,
        5.7000000000000002,
        5.7199999999999998,
        5.7400000000000002,
        5.7599999999999998,
        5.7800000000000002,
        5.7999999999999998,
        5.8200000000000003,
        5.8399999999999999,
        5.8600000000000003,
        5.8799999999999999,
        5.9000000000000004,
        5.9199999999999999,
        5.9400000000000004,
        5.96,
        5.9800000000000004,
        6.0,
        6.0199999999999996,
        6.04,
        6.0599999999999996,
        6.0800000000000001,
        6.0999999999999996,
        6.1200000000000001,
        6.1399999999999997,
        6.1600000000000001,
        6.1799999999999997,
        6.2000000000000002,
        6.2199999999999998,
        6.2400000000000002,
        6.2599999999999998,
        6.2800000000000002,
        6.2999999999999998,
        6.3200000000000003,
        6.3399999999999999,
        6.3600000000000003,
        6.3799999999999999,
        6.4000000000000004,
        6.4199999999999999,
        6.4400000000000004,
        6.46,
        6.4800000000000004,
        6.5,
        6.5199999999999996,
        6.54,
        6.5599999999999996,
        6.5800000000000001,
        6.5999999999999996,
        6.6200000000000001,
        6.6399999999999997,
        6.6600000000000001,
        6.6799999999999997,
        6.7000000000000002,
        6.7199999999999998,
        6.7400000000000002,
        6.7599999999999998,
        6.7800000000000002,
        6.7999999999999998,
        6.8200000000000003,
        6.8399999999999999,
        6.8600000000000003,
        6.8799999999999999,
        6.9000000000000004,
        6.9199999999999999,
        6.9400000000000004,
        6.96,
        6.9800000000000004,
        7.0,
        7.0199999999999996,
        7.04,
        7.0599999999999996,
        7.0800000000000001,
        7.0999999999999996,
        7.1200000000000001,
        7.1399999999999997,
        7.1600000000000001,
        7.1799999999999997,
        7.2000000000000002,
        7.2199999999999998,
        7.2400000000000002,
        7.2599999999999998,
        7.2800000000000002,
        7.2999999999999998,
        7.3200000000000003,
        7.3399999999999999,
        7.3600000000000003,
        7.3799999999999999,
        7.4000000000000004,
        7.4199999999999999,
        7.4400000000000004,
        7.46,
        7.4800000000000004,
        7.5,
        7.5199999999999996,
        7.54,
        7.5599999999999996,
        7.5800000000000001,
        7.5999999999999996,
        7.6200000000000001
    ]
}