{
    "DU": 40,
    "DV": 520,
    "F-measure": 0.49129989764585463,
    "F-measure Chroma": 0.6960081883316274,
    "FN": 5,
    "FNC": 0,
    "FNCch": 0,
    "FNI": 5,
    "FNIch": 5,
    "FP": 138,
    "GU": 173,
    "GV": 387,
    "Overall Accuracy": 0.42857142857142855,
    "Overall Chroma Accuracy": 0.6071428571428571,
    "Precision": 0.43243243243243246,
    "Precision Chroma": 0.6126126126126126,
    "Raw Chroma Accuracy": 0.7881136950904393,
    "Raw Pitch Accuracy": 0.5297157622739018,
    "Recall": 0.5687203791469194,
    "Recall Chroma": 0.8056872037914692,
    "TN": 35,
    "TO": 560,
    "TP": 382,
    "TPC": 205,
    "TPCch": 305,
    "TPI": 177,
    "TPIch": 77,
    "Voiced Chroma Accuracy": 0.7881136950904393,
    "Voiced Pitch Accuracy": 0.5297157622739018,
    "Voicing Accuracy": 0.7446428571428572,
    "Voicing Detection": 0.9870801033591732,
    "Voicing False Alarm": 0.7976878612716763
}