{
    "f0": [
        43.094346487474617,
        55.12491307324224,
        55.636643060902969,
        54.929919122177949,
        54.496261028631686,
        54.360870156303022,
        53.895178986200008,
        53.41262585312522,
        52.744291892138968,
        52.650558041561723,
        53.265330780518596,
        51.864860567452219,
        49.279049801187711,
        43.56477267937818,
        38.285125195738019,
        57.676290264850742,
        57.618109843356592,
        57.559733239339565,
        57.484470323139632,
        56.889938177120008,
        56.717330549101973,
        56.663457374411557,
        56.721352911461054,
        56.875058693285595,
        57.824570009550825,
        56.177673226673967,
        0.0,
        0.0,
        0.0,
        0.0,
        0.0,
        0.0,
        54.811295138565896,
        42.33125288300252,
        56.011110823225621,
        55.690710360217317,
        55.516713402010879,
        54.557392885664925,
        54.133901268825298,
        53.910469340346594,
        54.0894401344679,
        53.522016413047652,
        52.089184699025019,
        51.167398692102282,
        47.989624179834486,
        47.211599556851809,
        45.345097717852937,
        47.652591591117755,
        47.5348086755277,
        47.622206686179254,
        47.605169625473025,
        47.932037532530671,
        47.913996897975252,
        47.82563996626385,
        48.115027607525292,
        49.753015340351617,
        48.581879256036949,
        46.263737496705822,
        43.661004156927184,
        43.639846330288485,
        44.034848246085438,
        44.365559712871544,
        44.189998556335155,
        44.875596956053087,
        44.691788228328221,
        68.184789858386509,
        68.044745622939672,
        68.582561354425863,
        68.475756430618858,
        68.552191689605948,
        68.275153418265376,
        68.41886648959813,
        39.697532398546798,
        38.345757144055334,
        44.104995600822079,
        43.584199409468589,
        44.081600017548155,
        0.0,
        0.0,
        67.314348630278218,
        0.0,
        47.302361362414217,
        65.7928950398437,
        66.18228163679585,
        66.258359003717175,
        38.453650942389729,
        40.354305855227381,
        42.500783925908927,
        43.867495315756088,
        44.190779946456161,
        44.089680023914568,
        44.091053140566068,
        44.463455914246808,
        44.120037498505752,
        44.041151806014149,
        42.410742442138599,
        39.214047094779573,
        36.183894322506518,
        59.419379766705973,
        59.353246886079276,
        41.263435614227191,
        41.827800208024101,
        41.67807545560143,
        41.927322145659438,
        41.713382584758421,
        41.896905704445935,
        43.704863777845567,
        44.559713911831935,
        45.22446348949336,
        44.531648278941404,
        44.400987328823007,
        44.316904223641359,
        63.461485075329364,
        63.175702987328073,
        63.39685851607458,
        63.350296324352762,
        63.177215806051699,
        63.238608209517707,
        63.486936135839528,
        63.289985714629715,
        63.333962085782787,
        63.36684457144483,
        63.231148370364991,
        63.094378442517879,
        62.782523528312929,
        63.06550820563875,
        63.162068271215816,
        62.918016243367923,
        62.686032237389824,
        62.954740363243502,
        62.863499992734901,
        62.6639605576514,
        62.859542391175488,
        62.777372555724909,
        62.594172700306181,
        62.459950222620435,
        62.810763537311445,
        62.893648552706708,
        62.579170778152353,
        62.393781585581429,
        62.138330383152912,
        61.206903040480391,
        61.426161974291567,
        61.404238690387032,
        60.645153052646158,
        60.583853338969092,
        61.109707521268994,
        60.986565643155402,
        60.730029194500915,
        60.709279924463075,
        59.680945567069827,
        59.643290728624535,
        56.143897254542445,
        50.514471877543215,
        44.508956012072304,
        58.349839431740996,
        58.843251596240052,
        58.434982599326318,
        58.533161538578909,
        58.423542910281931,
        58.802757293941411,
        58.608896077488829,
        58.954906007813484,
        58.985875695884516,
        58.644010172815584,
        59.012842861393899,
        58.188155021032784,
        56.972450841189229,
        55.147639379146746,
        51.555153898944916,
        48.213414631804696,
        47.169035159423494,
        44.299824655905915,
        43.188091606935565,
        42.000039551686143,
        41.813223317106662,
        60.596315178833287,
        60.318237983406917,
        60.2078885473897,
        61.010193620498605,
        37.992256600583445,
        37.685855042647773,
        37.675581679964665,
        37.665301976903514,
        39.128102973257739,
        46.177441781138732,
        46.391923269381401,
        43.144961086768532,
        44.922436884770306,
        43.804736576807599,
        63.158669726623714,
        63.122541366917382,
        63.086337510203592,
        63.222317403400318,
        63.184041950154644,
        63.166298746151369,
        63.138217073961066,
        62.949371341001722,
        63.182716271393012,
        63.281647491569501,
        63.617685887804733,
        47.997571488385418,
        39.008510560349826,
        62.600405463885409,
        62.690079832695687,
        62.779297284181624,
        62.868055580355062,
        62.782363557377693,
        62.696245324831381,
        62.781956044603831,
        62.701959482501984,
        62.83792236648592,
        62.780435788557931,
        63.28594906552047,
        60.975240595691488,
        48.688963741047836,
        36.273863386431778,
        44.215953559245904,
        62.681143119924243,
        63.868854921959475,
        64.273563931694085,
        64.130008655843795,
        64.095467739983292,
        64.060859394057061,
        64.198445482654307,
        64.126385955617025,
        64.300696160543694,
        64.896880516007599,
        65.473215791091235,
        65.829230759711493,
        65.927474103076023,
        65.949237643080266,
        65.834931849779409,
        65.864713232027029,
        65.70720988463755,
        65.548260444901359,
        65.560105047310401,
        65.773084037364328,
        65.710416269251724,
        65.647519349600714,
        65.584394525490495,
        65.693307256152281,
        65.819215360256848,
        66.107707722678043,
        65.392148354471175,
        64.645733282026143,
        64.710359403907518,
        35.881657369046223,
        35.488785720966746,
        52.975541514855337,
        47.56703156549105,
        54.856873002820052,
        38.47061627782368,
        43.06291608730249,
        36.507626298914246,
        60.205478059131451,
        60.144843771657897,
        36.737485197994772,
        35.849477459718912,
        59.349137713965156,
        59.362520505474151,
        59.201898043773646,
        59.806150366199631,
        59.319806184046918,
        59.340837666408568,
        59.475492987277732,
        59.413968162143135,
        59.410565974315162,
        59.407163117764362,
        59.054002149975574,
        58.872926874759955,
        58.689936568690854,
        59.349666065216788,
        59.690117227337993,
        59.281332514100399,
        59.425367921162007,
        0.0,
        0.0,
        46.860206231319772,
        57.390133141497948,
        44.861420423244802,
        0.0,
        0.0,
        49.186772526956041,
        38.793504796463928,
        57.37936310853172,
        57.72219068717915,
        57.701115773581165,
        56.904854416452132,
        57.160246825833113,
        56.360779793354261,
        56.2434991341635,
        56.277986661195953,
        56.014081697600318,
        55.455777943139594,
        56.924716336738193,
        56.564840692539931,
        56.000566936152936,
        54.174687993215677,
        53.186106175891283,
        50.698332879607207,
        49.336673435363458,
        0.0,
        0.0,
        0.0,
        0.0,
        0.0,
        0.0,
        0.0,
        0.0,
        0.0,
        0.0,
        0.0,
        0.0,
        0.0,
        0.0,
        0.0,
        0.0,
        0.0,
        0.0,
        0.0,
        0.0,
        0.0,
        0.0,
        0.0,
        0.0,
        0.0,
        0.0,
        0.0,
        0.0,
        0.0,
        0.0,
        0.0,
        0.0,
        0.0,
        0.0,
        45.009980205207974,
        39.790440682839588,
        0.0,
        0.0,
        0.0,
        43.181206674359267,
        0.0,
        0.0,
        0.0,
        42.83895770640185,
        61.920000230907547,
        42.930502410569119,
        0.0,
        54.516453943096252,
        54.18800748928998,
        0.0,
        49.432368650244008,
        48.544361038092191,
        60.36085965187776,
        40.069999296507817,
        37.38556683343775,
        59.58927161808829,
        60.558677764506314,
        57.073410566276991,
        58.93971434545837,
        61.774986551017079,
        63.013396347324026,
        60.329275723597306,
        60.578532065194715,
        60.407598177836682,
        60.085909463954842,
        60.006506264340047,
        60.31415524005881,
        60.998584764700226,
        61.300094408870791,
        38.136074291284324,
        49.494248261278472,
        49.440137811251773,
        46.420641772388805,
        44.651590886062131,
        43.930635424769505,
        0.0,
        37.602227787584241,
        59.747748455104961,
        48.615054551038099,
        38.044075395452623,
        59.717258310086301,
        59.480026976734393,
        35.454726644607078,
        43.912075792304819,
        38.260363495895326,
        43.518183727847223,
        43.877971840774421,
        35.370666610139047,
        62.499342966926655,
        37.86061663216158,
        0.0,
        35.253788605157546,
        63.685970822704519,
        63.68424063780158,
        63.510247737280089,
        63.336255530842223,
        63.298728860973029,
        63.293740938053297,
        63.158430764181382,
        63.260118641824967,
        63.065790694061988,
        61.861146257826164,
        61.289109531728656,
        60.839091989811962,
        58.889184958010041,
        56.334482239040284,
        55.565922026108254,
        55.154228987277023,
        55.549425899923392,
        54.548788963797591,
        56.223262828079477,
        56.211588341368959,
        56.070569413013821,
        56.165983057388388,
        55.801375611380777,
        55.99225171399096,
        56.068583906629314,
        56.200661619647406,
        56.436636642132534,
        56.443775256786594,
        56.564062528128204,
        57.139164623983433,
        57.476656011013731,
        57.400225359725489,
        57.517655966058328,
        57.296202141285093,
        57.044333758415817,
        56.802732807586963,
        56.619906156237121,
        56.575989142704415,
        56.454918920158804,
        56.521287274517846,
        56.517850352897874,
        56.326032508076842,
        56.227573676865433,
        56.168077064237721,
        56.192960329836978,
        56.254456451789267,
        56.270778028928518,
        56.468902097757386,
        56.575140106332626,
        56.551345159831946,
        56.184049731672324,
        56.157402746300512,
        56.468756038033746,
        56.116560310188362,
        56.087393023758679,
        55.543764770013006,
        55.761828615847683,
        55.795381815125523,
        55.919830236378289,
        55.998292229649657,
        55.873465461189269,
        55.924900833321658,
        55.976181254229957,
        55.853317811618552,
        55.911729291339256,
        55.558692542194393,
        55.753732112635873,
        55.946601430343762,
        55.791798970113298,
        55.299686801345466,
        54.260207423655444,
        53.266418242207983,
        53.50901020326156,
        0.0,
        0.0,
        0.0,
        0.0,
        49.743838901367653,
        48.855831174573943,
        44.808256722575408,
        43.367554034783424,
        0.0,
        0.0,
        0.0,
        0.0,
        0.0,
        0.0,
        0.0,
        0.0,
        0.0,
        0.0,
        0.0,
        0.0,
        0.0,
        0.0,
        0.0,
        0.0,
        0.0,
        0.0,
        0.0,
        0.0,
        0.0,
        0.0,
        0.0,
        0.0,
        0.0,
        0.0,
        0.0,
        0.0,
        0.0,
        0.0,
        0.0,
        0.0
    ],
    "time": [
        0.02,
        0.040000000000000001,
        0.059999999999999998,
        0.080000000000000002,
        0.10000000000000001,
        0.12,
        0.14000000000000001,
        0.16,
        0.17999999999999999,
        0.20000000000000001,
        0.22,
        0.23999999999999999,
        0.26000000000000001,
        0.28000000000000003,
        0.29999999999999999,
        0.32000000000000001,
        0.34000000000000002,
        0.35999999999999999,
        0.38,
        0.40000000000000002,
        0.41999999999999998,
        0.44,
        0.46000000000000002,
        0.47999999999999998,
        0.5,
        0.52000000000000002,
        0.54000000000000004,
        0.56000000000000005,
        0.57999999999999996,
        0.59999999999999998,
        0.62,
        0.64000000000000001,
        0.66000000000000003,
        0.68000000000000005,
        0.69999999999999996,
        0.71999999999999997,
        0.73999999999999999,
        0.76000000000000001,
        0.78000000000000003,
        0.80000000000000004,
        0.81999999999999995,
        0.83999999999999997,
        0.85999999999999999,
        0.88,
        0.90000000000000002,
        0.92000000000000004,
        0.93999999999999995,
        0.95999999999999996,
        0.97999999999999998,
        1.0,
        1.02,
        1.04,
        1.0600000000000001,
        1.0800000000000001,
        1.1000000000000001,
        1.1200000000000001,
        1.1399999999999999,
        1.1599999999999999,
        1.1799999999999999,
        1.2,
        1.22,
        1.24,
        1.26,
        1.28,
        1.3,
        1.3200000000000001,
        1.3400000000000001,
        1.3600000000000001,
        1.3799999999999999,
        1.3999999999999999,
        1.4199999999999999,
        1.4399999999999999,
        1.46,
        1.48,
        1.5,
        1.52,
        1.54,
        1.5600000000000001,
        1.5800000000000001,
        1.6000000000000001,
        1.6200000000000001,
        1.6399999999999999,
        1.6599999999999999,
        1.6799999999999999,
        1.7,
        1.72,
        1.74,
        1.76,
        1.78,
        1.8,
        1.8200000000000001,
        1.8400000000000001,
        1.8600000000000001,
        1.8799999999999999,
        1.8999999999999999,
        1.9199999999999999,
        1.9399999999999999,
        1.96,
        1.98,
        2.0,
        2.02,
        2.04,
        2.0600000000000001,
        2.0800000000000001,
        2.1000000000000001,
        2.1200000000000001,
        2.1400000000000001,
        2.1600000000000001,
        2.1800000000000002,
        2.2000000000000002,
        2.2200000000000002,
        2.2400000000000002,
        2.2599999999999998,
        2.2799999999999998,
        2.2999999999999998,
        2.3199999999999998,
        2.3399999999999999,
        2.3599999999999999,
        2.3799999999999999,
        2.3999999999999999,
        2.4199999999999999,
        2.4399999999999999,
        2.46,
        2.48,
        2.5,
        2.52,
        2.54,
        2.5600000000000001,
        2.5800000000000001,
        2.6000000000000001,
        2.6200000000000001,
        2.6400000000000001,
        2.6600000000000001,
        2.6800000000000002,
        2.7000000000000002,
        2.7200000000000002,
        2.7400000000000002,
        2.7599999999999998,
        2.7799999999999998,
        2.7999999999999998,
        2.8199999999999998,
        2.8399999999999999,
        2.8599999999999999,
        2.8799999999999999,
        2.8999999999999999,
        2.9199999999999999,
        2.9399999999999999,
        2.96,
        2.98,
        3.0,
        3.02,
        3.04,
        3.0600000000000001,
        3.0800000000000001,
        3.1000000000000001,
        3.1200000000000001,
        3.1400000000000001,
        3.1600000000000001,
        3.1800000000000002,
        3.2000000000000002,
        3.2200000000000002,
        3.2400000000000002,
        3.2599999999999998,
        3.2799999999999998,
        3.2999999999999998,
        3.3199999999999998,
        3.3399999999999999,
        3.3599999999999999,
        3.3799999999999999,
        3.3999999999999999,
        3.4199999999999999,
        3.4399999999999999,
        3.46,
        3.48,
        3.5,
        3.52,
        3.54,
        3.5600000000000001,
        3.5800000000000001,
        3.6000000000000001,
        3.6200000000000001,
        3.6400000000000001,
        3.6600000000000001,
        3.6800000000000002,
        3.7000000000000002,
        3.7200000000000002,
        3.7400000000000002,
        3.7599999999999998,
        3.7799999999999998,
        3.7999999999999998,
        3.8199999999999998,
        3.8399999999999999,
        3.8599999999999999,
        3.8799999999999999,
        3.8999999999999999,
        3.9199999999999999,
        3.9399999999999999,
        3.96,
        3.98,
        4.0,
        4.0199999999999996,
        4.04,
        4.0599999999999996,
        4.0800000000000001,
        4.0999999999999996,
        4.1200000000000001,
        4.1399999999999997,
        4.1600000000000001,
        4.1799999999999997,
        4.2000000000000002,
        4.2199999999999998,
        4.2400000000000002,
        4.2599999999999998,
        4.2800000000000002,
        4.2999999999999998,
        4.3200000000000003,
        4.3399999999999999,
        4.3600000000000003,
        4.3799999999999999,
        4.4000000000000004,
        4.4199999999999999,
        4.4400000000000004,
        4.46,
        4.4800000000000004,
        4.5,
        4.5199999999999996,
        4.54,
        4.5599999999999996,
        4.5800000000000001,
        4.5999999999999996,
        4.6200000000000001,
        4.6399999999999997,
        4.6600000000000001,
        4.6799999999999997,
        4.7000000000000002,
        4.7199999999999998,
        4.7400000000000002,
        4.7599999999999998,
        4.7800000000000002,
        4.7999999999999998,
        4.8200000000000003,
        4.8399999999999999,
        4.8600000000000003,
        4.8799999999999999,
        4.9000000000000004,
        4.9199999999999999,
        4.9400000000000004,
        4.96,
        4.9800000000000004,
        5.0,
        5.0199999999999996,
        5.04,
        5.0599999999999996,
        5.0800000000000001,
        5.0999999999999996,
        5.1200000000000001,
        5.1399999999999997,
        5.1600000000000001,
        5.1799999999999997,
        5.2000000000000002,
        5.2199999999999998,
        5.2400000000000002,
        5.2599999999999998,
        5.2800000000000002,
        5.2999999999999998,
        5.3200000000000003,
        5.3399999999999999,
        5.3600000000000003,
        5.3799999999999999,
        5.4000000000000004,
        5.4199999999999999,
        5.4400000000000004,
        5.46,
        5.4800000000000004,
        5.5,
        5.5199999999999996,
        5.54,
        5.5599999999999996,
        5.5800000000000001,
        5.5999999999999996,
        5.6200000000000001,
        5.6399999999999997,
        5.6600000000000001,
        5.6799999999999997,
        5.7000000000000002,
        5.7199999999999998,
        5.7400000000000002,
        5.7599999999999998,
        5.7800000000000002,
        5.7999999999999998,
        5.8200000000000003,
        5.8399999999999999,
        5.8600000000000003,
        5.8799999999999999,
        5.9000000000000004,
        5.9199999999999999,
        5.9400000000000004,
        5.96,
        5.9800000000000004,
        6.0,
        6.0199999999999996,
        6.04,
        6.0599999999999996,
        6.0800000000000001,
        6.0999999999999996,
        6.1200000000000001,
        6.1399999999999997,
        6.1600000000000001,
        6.1799999999999997,
        6.2000000000000002,
        6.2199999999999998,
        6.2400000000000002,
        6.2599999999999998,
        6.2800000000000002,
        6.2999999999999998,
        6.3200000000000003,
        6.3399999999999999,
        6.3600000000000003,
        6.3799999999999999,
        6.4000000000000004,
        6.4199999999999999,
        6.4400000000000004,
        6.46,
        6.4800000000000004,
        6.5,
        6.5199999999999996,
        6.54,
        6.5599999999999996,
        6.5800000000000001,
        6.5999999999999996,
        6.6200000000000001,
        6.6399999999999997,
        6.6600000000000001,
        6.6799999999999997,
        6.7000000000000002,
        6.7199999999999998,
        6.7400000000000002,
        6.7599999999999998,
        6.7800000000000002,
        6.7999999999999998,
        6.8200000000000003,
        6.8399999999999999,
        6.8600000000000003,
        6.8799999999999999,
        6.9000000000000004,
        6.9199999999999999,
        6.9400000000000004,
        6.96,
        6.9800000000000004,
        7.0,
        7.0199999999999996,
        7.04,
        7.0599999999999996,
        7.0800000000000001,
        7.0999999999999996,
        7.1200000000000001,
        7.1399999999999997,
        7.1600000000000001,
        7.1799999999999997,
        7.2000000000000002,
        7.2199999999999998,
        7.2400000000000002,
        7.2599999999999998,
        7.2800000000000002,
        7.2999999999999998,
        7.3200000000000003,
        7.3399999999999999,
        7.3600000000000003,
        7.3799999999999999,
        7.4000000000000004,
        7.4199999999999999,
        7.4400000000000004,
        7.46,
        7.4800000000000004,
        7.5,
        7.5199999999999996,
        7.54,
        7.5599999999999996,
        7.5800000000000001,
        7.5999999999999996,
        7.6200000000000001,
        7.6399999999999997,
        7.6600000000000001,
        7.6799999999999997,
        7.7000000000000002,
        7.7199999999999998,
        7.7400000000000002,
        7.7599999999999998,
        7.7800000000000002,
        7.7999999999999998,
        7.8200000000000003,
        7.8399999999999999,
        7.8600000000000003,
        7.8799999999999999,
        7.9000000000000004,
        7.9199999999999999,
        7.9400000000000004,
        7.96,
        7.9800000000000004,
        8.0,
        8.0199999999999996,
        8.0399999999999991,
        8.0600000000000005,
        8.0800000000000001,
        8.0999999999999996,
        8.1199999999999992,
        8.1400000000000006,
        8.1600000000000001,
        8.1799999999999997,
        8.1999999999999993,
        8.2200000000000006,
        8.2400000000000002,
        8.2599999999999998,
        8.2799999999999994,
        8.3000000000000007,
        8.3200000000000003,
        8.3399999999999999,
        8.3599999999999994,
        8.3800000000000008,
        8.4000000000000004,
        8.4199999999999999,
        8.4399999999999995,
        8.4600000000000009,
        8.4800000000000004,
        8.5,
        8.5199999999999996,
        8.5399999999999991,
        8.5600000000000005,
        8.5800000000000001,
        8.5999999999999996,
        8.6199999999999992,
        8.6400000000000006,
        8.6600000000000001,
        8.6799999999999997,
        8.6999999999999993,
        8.7200000000000006,
        8.7400000000000002,
        8.7599999999999998,
        8.7799999999999994,
        8.8000000000000007,
        8.8200000000000003,
        8.8399999999999999,
        8.8599999999999994,
        8.8800000000000008,
        8.9000000000000004,
        8.9199999999999999,
        8.9399999999999995,
        8.9600000000000009,
        8.9800000000000004,
        9.0,
        9.0199999999999996,
        9.0399999999999991,
        9.0600000000000005,
        9.0800000000000001,
        9.0999999999999996,
        9.1199999999999992,
        9.1400000000000006,
        9.1600000000000001,
        9.1799999999999997,
        9.1999999999999993,
        9.2200000000000006,
        9.2400000000000002,
        9.2599999999999998,
        9.2799999999999994,
        9.3000000000000007,
        9.3200000000000003,
        9.3399999999999999,
        9.3599999999999994,
        9.3800000000000008,
        9.4000000000000004,
        9.4199999999999999,
        9.4399999999999995,
        9.4600000000000009,
        9.4800000000000004,
        9.5,
        9.5199999999999996,
        9.5399999999999991,
        9.5600000000000005,
        9.5800000000000001,
        9.5999999999999996,
        9.6199999999999992,
        9.6400000000000006,
        9.6600000000000001,
        9.6799999999999997,
        9.6999999999999993,
        9.7200000000000006,
        9.7400000000000002,
        9.7599999999999998,
        9.7799999999999994,
        9.8000000000000007,
        9.8200000000000003,
        9.8399999999999999,
        9.8599999999999994,
        9.8800000000000008,
        9.9000000000000004,
        9.9199999999999999,
        9.9399999999999995,
        9.9600000000000009,
        9.9800000000000004,
        10.0,
        10.02,
        10.039999999999999,
        10.06,
        10.08,
        10.1,
        10.119999999999999,
        10.140000000000001
    ]
}