{
    "f0": [
        0.0,
        0.0,
        0.0,
        0.0,
        0.0,
        0.0,
        55.142057843497554,
        54.614735170665924,
        50.127346962173789,
        49.065347433146663,
        49.886575720168779,
        49.507797223182259,
        49.317625409543879,
        49.125341381549589,
        47.4481272507565,
        48.033394045950175,
        51.647922820123114,
        53.591045370305579,
        55.644355544723247,
        55.927288600493824,
        0.0,
        0.0,
        38.16796073926497,
        36.10161188656123,
        37.051434396327963,
        49.456731248094918,
        49.642930330391877,
        49.827148080175995,
        50.352254422331015,
        51.039133003613664,
        50.907999758219205,
        51.125797031530112,
        51.20596594497848,
        51.564322982813259,
        52.291217075194027,
        52.80935334537034,
        53.312432021173571,
        53.627307742831675,
        54.701240160866469,
        55.181990895378199,
        55.382610782958764,
        54.825492773802466,
        54.573876538776105,
        54.666614197254162,
        55.029570434773163,
        54.979163393451984,
        55.244036864398922,
        54.926649345759039,
        55.038162008039656,
        54.892930083517335,
        54.772728262595137,
        54.464475421761506,
        54.757935152771353,
        54.147559484187781,
        53.628515739174532,
        53.093431277206832,
        52.71354665387075,
        52.629258927851481,
        52.421777344762404,
        52.157417420706771,
        51.426550427035551,
        50.379305466616856,
        49.759551062214285,
        49.540728042032043,
        49.601824705111852,
        49.457043070257491,
        49.175930645322076,
        50.479485400141066,
        50.134267755347807,
        49.782025977195346,
        49.422469985426403,
        49.398118787603899,
        49.764371902920303,
        49.716243808934898,
        49.74737900908822,
        49.569155663845116,
        49.666938038409683,
        49.678276114993309,
        49.377519529975018,
        49.38118005843755,
        49.62985619014411,
        49.694842536866844,
        50.192399533796049,
        50.63922715411293,
        48.62589310749096,
        48.107386842373906,
        50.417011608255301,
        49.389518182298673,
        48.629550522510407,
        56.444572579257432,
        0.0,
        0.0,
        37.645795082771443,
        54.767065519239978,
        54.939325874970336,
        54.765331944720621,
        54.591338014579385,
        54.757516931336113,
        55.221918642734366,
        55.354807087945034,
        55.988728489783,
        56.359761885734123,
        56.723011155049534,
        56.924744078141487,
        57.312363480842308,
        57.353060988036958,
        57.223035229008886,
        57.355622035531766,
        57.315180611953366,
        57.125753145634881,
        57.178706917062577,
        57.02993884768108,
        56.879881298668771,
        56.021788014982917,
        54.788083168117822,
        54.483740363360852,
        54.339250088971902,
        53.403671604586464,
        52.837261460776247,
        52.879063722058362,
        53.005140396232846,
        53.32234098339832,
        53.633835599519557,
        54.112085062362716,
        54.319855842942168,
        54.525158467421733,
        54.42657484712187,
        54.530676530218798,
        54.600017452779291,
        54.512095859882436,
        54.370093577682084,
        54.426243319265936,
        54.26124549456587,
        54.094662875123255,
        54.09872542720192,
        53.619106074196957,
        53.3799174360759,
        53.364827968546109,
        52.529551653836243,
        52.25320775466578,
        52.181171657430326,
        52.108834567431856,
        52.101077654066216,
        51.931138199437029,
        51.667605858053747,
        51.618995104303032,
        50.306380583723623,
        49.790907130511357,
        49.31071479221179,
        48.962815616672877,
        48.876255928228822,
        49.301203353215541,
        49.245506121948814,
        48.66231203589043,
        49.483028174083415,
        48.00614489764542,
        48.656904038458592,
        50.210079434651952,
        50.327039520176008,
        50.05610533279409,
        49.907464762052996,
        49.866060330502478,
        49.942506140007126,
        49.804879207214974,
        49.786997172097976,
        49.655510022979009,
        49.490993324338632,
        49.546736808292138,
        49.660222361661909,
        49.65289095469204,
        49.685893463236852,
        49.775110418065054,
        49.661901104284929,
        49.570706682140063,
        49.173822966834358,
        48.92452776531232,
        49.271168643808515,
        49.138580662301237,
        49.457503432625451,
        49.649272755498373,
        49.371759593610498,
        49.346324220860481,
        49.23116156301289,
        49.271870448628292,
        49.227792795889215,
        49.0680454581601,
        49.133972063034179,
        49.172792529797846,
        49.05093446180031,
        49.112480181248188,
        49.455010224508101,
        49.126245925947551,
        49.393686715620348,
        50.987325690410572,
        52.526848124874391,
        57.360015132844602,
        59.839381041062779,
        46.546489271651758,
        63.567207398670632,
        49.704593925646812,
        50.10179847506793,
        49.783363078979463,
        50.102070409880994,
        49.997178533004458,
        49.891647380744331,
        49.877980764513666,
        49.725791374772008,
        49.642261823967075,
        49.558329114660985,
        49.646246843070529,
        49.6138473909512,
        49.432950526264364,
        50.973143778200495,
        49.229861864605546,
        47.29117900090737,
        47.424544368313278,
        47.773553518064148,
        48.688794970985292,
        46.196696857811162,
        46.034307783859965,
        47.247170346852201,
        47.758228252534025,
        47.145710566384594,
        47.031285386943061,
        46.916098884413586,
        46.972402079607775,
        46.973237804270269,
        46.974072365198197,
        47.254639318841214,
        47.482954731958429,
        47.557900075085364,
        47.533568098467441,
        47.509200786646829,
        47.91020747965397,
        47.677966838804764,
        48.210907183602629,
        47.788259949904415,
        47.709376326653214,
        47.964788971984518,
        47.603408286802818,
        47.570279958120793,
        47.369604859009492,
        51.13022680163489,
        0.0,
        0.0,
        49.762270832176533,
        49.234951012338456,
        47.986342275792978,
        47.481838480977764,
        46.842082501424926,
        46.583108745472501,
        46.115621226513063,
        46.252359369602871,
        45.099082931062135,
        44.870226260675715,
        44.814453709365829,
        46.706039886984016,
        49.713868021637914,
        53.046358688736333,
        46.233725123660328,
        46.056228446764941,
        46.378094373634703,
        46.238742741491528,
        46.622010382051798,
        46.655908600558732,
        46.511024814880741,
        46.675995053241664,
        46.792893057171284,
        46.441586198500509,
        46.443958174922543,
        46.712056915403167,
        46.976071328202359,
        47.062126268538911,
        46.884784240194271,
        46.705602480788166,
        46.696815934467722,
        46.727645145645646,
        46.711791456233087,
        46.538062384353765,
        46.268491924761413,
        46.554241488752282,
        46.835351224441602,
        47.45480162636899,
        47.25959934783323,
        43.689153605242055,
        37.833877538824581,
        47.152602184473508,
        47.123800035100857,
        46.784798524491784,
        46.439026196052083,
        46.511374715081345,
        46.761479375161692,
        46.497518831071929,
        45.87454253909938,
        46.430370912073798,
        46.797591061033408,
        46.713971037805052,
        46.127310006348644,
        45.919973398500687,
        46.061148553938992,
        46.201181935376624,
        46.512356157502126,
        46.905889286184497,
        47.247768303880413,
        48.283083857526691,
        35.573388975891959,
        56.565679179408548,
        46.673417186576785,
        46.587437686536092,
        46.327034184244276,
        46.062656299521215,
        46.305909471414012,
        46.239659327977279,
        46.37897047571041,
        49.997293745035421,
        54.320537034667893,
        37.637474761174175,
        47.453831482062384,
        47.025480796777202,
        46.879283728449543,
        46.731843687611331,
        46.583132875536698,
        46.944863103150574,
        47.617783117081949,
        45.278489811536183,
        48.365797449357359,
        46.212845537797499,
        43.226302456790464,
        47.555479170049502,
        46.625289125937918,
        44.912042877651835,
        43.480508786873948,
        44.537828026163126,
        44.578719518819646,
        45.44559175924806,
        45.182995398072784,
        45.762939080127474,
        46.00717928950418,
        46.747837524209224,
        46.332034890390155,
        46.587520971739757,
        47.238733717320983,
        47.147560518461276,
        47.546178959543042,
        47.846992177016688,
        47.836631186820227,
        47.589964323756035,
        47.110247309421524,
        46.028570899610507,
        45.534508534408168,
        44.515377094785762,
        45.732356003898239,
        46.519619985876545,
        49.879720090765034,
        50.216645638025206,
        50.37314581825806,
        49.552682510087919,
        47.990074679575564,
        44.853205968686929,
        42.937325345301907,
        41.130906194852486,
        41.777014532500289,
        42.929352133190903,
        53.451893099822392,
        49.537243389577043,
        69.709700728062174,
        0.0,
        0.0,
        0.0,
        0.0,
        0.0,
        0.0,
        0.0,
        0.0,
        0.0,
        0.0,
        0.0,
        0.0,
        0.0,
        0.0,
        0.0,
        0.0,
        0.0,
        0.0,
        0.0,
        0.0,
        0.0,
        0.0,
        0.0,
        0.0,
        0.0,
        0.0,
        0.0,
        0.0,
        0.0,
        0.0,
        0.0,
        0.0,
        0.0
    ],
    "time": [
        0.02,
        0.040000000000000001,
        0.059999999999999998,
        0.080000000000000002,
        0.10000000000000001,
        0.12,
        0.14000000000000001,
        0.16,
        0.17999999999999999,
        0.20000000000000001,
        0.22,
        0.23999999999999999,
        0.26000000000000001,
        0.28000000000000003,
        0.29999999999999999,
        0.32000000000000001,
        0.34000000000000002,
        0.35999999999999999,
        0.38,
        0.40000000000000002,
        0.41999999999999998,
        0.44,
        0.46000000000000002,
        0.47999999999999998,
        0.5,
        0.52000000000000002,
        0.54000000000000004,
        0.56000000000000005,
        0.57999999999999996,
        0.59999999999999998,
        0.62,
        0.64000000000000001,
        0.66000000000000003,
        0.68000000000000005,
        0.69999999999999996,
        0.71999999999999997,
        0.73999999999999999,
        0.76000000000000001,
        0.78000000000000003,
        0.80000000000000004,
        0.81999999999999995,
        0.83999999999999997,
        0.85999999999999999,
        0.88,
        0.90000000000000002,
        0.92000000000000004,
        0.93999999999999995,
        0.95999999999999996,
        0.97999999999999998,
        1.0,
        1.02,
        1.04,
        1.0600000000000001,
        1.0800000000000001,
        1.1000000000000001,
        1.1200000000000001,
        1.1399999999999999,
        1.1599999999999999,
        1.1799999999999999,
        1.2,
        1.22,
        1.24,
        1.26,
        1.28,
        1.3,
        1.3200000000000001,
        1.3400000000000001,
        1.3600000000000001,
        1.3799999999999999,
        1.3999999999999999,
        1.4199999999999999,
        1.4399999999999999,
        1.46,
        1.48,
        1.5,
        1.52,
        1.54,
        1.5600000000000001,
        1.5800000000000001,
        1.6000000000000001,
        1.6200000000000001,
        1.6399999999999999,
        1.6599999999999999,
        1.6799999999999999,
        1.7,
        1.72,
        1.74,
        1.76,
        1.78,
        1.8,
        1.8200000000000001,
        1.8400000000000001,
        1.8600000000000001,
        1.8799999999999999,
        1.8999999999999999,
        1.9199999999999999,
        1.9399999999999999,
        1.96,
        1.98,
        2.0,
        2.02,
        2.04,
        2.0600000000000001,
        2.0800000000000001,
        2.1000000000000001,
        2.1200000000000001,
        2.1400000000000001,
        2.1600000000000001,
        2.1800000000000002,
        2.2000000000000002,
        2.2200000000000002,
        2.2400000000000002,
        2.2599999999999998,
        2.2799999999999998,
        2.2999999999999998,
        2.3199999999999998,
        2.3399999999999999,
        2.3599999999999999,
        2.3799999999999999,
        2.3999999999999999,
        2.4199999999999999,
        2.4399999999999999,
        2.46,
        2.48,
        2.5,
        2.52,
        2.54,
        2.5600000000000001,
        2.5800000000000001,
        2.6000000000000001,
        2.6200000000000001,
        2.6400000000000001,
        2.6600000000000001,
        2.6800000000000002,
        2.7000000000000002,
        2.7200000000000002,
        2.7400000000000002,
        2.7599999999999998,
        2.7799999999999998,
        2.7999999999999998,
        2.8199999999999998,
        2.8399999999999999,
        2.8599999999999999,
        2.8799999999999999,
        2.8999999999999999,
        2.9199999999999999,
        2.9399999999999999,
        2.96,
        2.98,
        3.0,
        3.02,
        3.04,
        3.0600000000000001,
        3.0800000000000001,
        3.1000000000000001,
        3.1200000000000001,
        3.1400000000000001,
        3.1600000000000001,
        3.1800000000000002,
        3.2000000000000002,
        3.2200000000000002,
        3.2400000000000002,
        3.2599999999999998,
        3.2799999999999998,
        3.2999999999999998,
        3.3199999999999998,
        3.3399999999999999,
        3.3599999999999999,
        3.3799999999999999,
        3.3999999999999999,
        3.4199999999999999,
        3.4399999999999999,
        3.46,
        3.48,
        3.5,
        3.52,
        3.54,
        3.5600000000000001,
        3.5800000000000001,
        3.6000000000000001,
        3.6200000000000001,
        3.6400000000000001,
        3.6600000000000001,
        3.6800000000000002,
        3.7000000000000002,
        3.7200000000000002,
        3.7400000000000002,
        3.7599999999999998,
        3.7799999999999998,
        3.7999999999999998,
        3.8199999999999998,
        3.8399999999999999,
        3.8599999999999999,
        3.8799999999999999,
        3.8999999999999999,
        3.9199999999999999,
        3.9399999999999999,
        3.96,
        3.98,
        4.0,
        4.0199999999999996,
        4.04,
        4.0599999999999996,
        4.0800000000000001,
        4.0999999999999996,
        4.1200000000000001,
        4.1399999999999997,
        4.1600000000000001,
        4.1799999999999997,
        4.2000000000000002,
        4.2199999999999998,
        4.2400000000000002,
        4.2599999999999998,
        4.2800000000000002,
        4.2999999999999998,
        4.3200000000000003,
        4.3399999999999999,
        4.3600000000000003,
        4.3799999999999999,
        4.4000000000000004,
        4.4199999999999999,
        4.4400000000000004,
        4.46,
        4.4800000000000004,
        4.5,
        4.5199999999999996,
        4.54,
        4.5599999999999996,
        4.5800000000000001,
        4.5999999999999996,
        4.6200000000000001,
        4.6399999999999997,
        4.6600000000000001,
        4.6799999999999997,
        4.7000000000000002,
        4.7199999999999998,
        4.7400000000000002,
        4.7599999999999998,
        4.7800000000000002,
        4.7999999999999998,
        4.8200000000000003,
        4.8399999999999999,
        4.8600000000000003,
        4.8799999999999999,
        4.9000000000000004,
        4.9199999999999999,
        4.9400000000000004,
        4.96,
        4.9800000000000004,
        5.0,
        5.0199999999999996,
        5.04,
        5.0599999999999996,
        5.0800000000000001,
        5.0999999999999996,
        5.1200000000000001,
        5.1399999999999997,
        5.1600000000000001,
        5.1799999999999997,
        5.2000000000000002,
        5.2199999999999998,
        5.2400000000000002,
        5.2599999999999998,
        5.2800000000000002,
        5.2999999999999998,
        5.3200000000000003,
        5.3399999999999999,
        5.3600000000000003,
        5.3799999999999999,
        5.4000000000000004,
        5.4199999999999999,
        5.4400000000000004,
        5.46,
        5.4800000000000004,
        5.5,
        5.5199999999999996,
        5.54,
        5.5599999999999996,
        5.5800000000000001,
        5.5999999999999996,
        5.6200000000000001,
        5.6399999999999997,
        5.6600000000000001,
        5.6799999999999997,
        5.7000000000000002,
        5.7199999999999998,
        5.7400000000000002,
        5.7599999999999998,
        5.7800000000000002,
        5.7999999999999998,
        5.8200000000000003,
        5.8399999999999999,
        5.8600000000000003,
        5.8799999999999999,
        5.9000000000000004,
        5.9199999999999999,
        5.9400000000000004,
        5.96,
        5.9800000000000004,
        6.0,
        6.0199999999999996,
        6.04,
        6.0599999999999996,
        6.0800000000000001,
        6.0999999999999996,
        6.1200000000000001,
        6.1399999999999997,
        6.1600000000000001,
        6.1799999999999997,
        6.2000000000000002,
        6.2199999999999998,
        6.2400000000000002,
        6.2599999999999998,
        6.2800000000000002,
        6.2999999999999998,
        6.3200000000000003,
        6.3399999999999999,
        6.3600000000000003,
        6.3799999999999999,
        6.4000000000000004,
        6.4199999999999999,
        6.4400000000000004,
        6.46,
        6.4800000000000004,
        6.5,
        6.5199999999999996,
        6.54,
        6.5599999999999996,
        6.5800000000000001,
        6.5999999999999996,
        6.6200000000000001,
        6.6399999999999997,
        6.6600000000000001,
        6.6799999999999997,
        6.7000000000000002,
        6.7199999999999998,
        6.7400000000000002,
        6.7599999999999998,
        6.7800000000000002,
        6.7999999999999998,
        6.8200000000000003,
        6.8399999999999999,
        6.8600000000000003,
        6.8799999999999999,
        6.9000000000000004,
        6.9199999999999999,
        6.9400000000000004,
        6.96,
        6.9800000000000004,
        7.0,
        7.0199999999999996,
        7.04,
        7.0599999999999996,
        7.0800000000000001,
        7.0999999999999996,
        7.1200000000000001,
        7.1399999999999997,
        7.1600000000000001,
        7.1799999999999997,
        7.2000000000000002,
        7.2199999999999998,
        7.2400000000000002,
        7.2599999999999998,
        7.2800000000000002,
        7.2999999999999998,
        7.3200000000000003,
        7.3399999999999999,
        7.3600000000000003,
        7.3799999999999999,
        7.4000000000000004,
        7.4199999999999999,
        7.4400000000000004,
        7.46,
        7.4800000000000004,
        7.5,
        7.5199999999999996,
        7.54,
        7.5599999999999996,
        7.5800000000000001,
        7.5999999999999996,
        7.6200000000000001,
        7.6399999999999997,
        7.6600000000000001,
        7.6799999999999997,
        7.7000000000000002,
        7.7199999999999998,
        7.7400000000000002,
        7.7599999999999998,
        7.7800000000000002,
        7.7999999999999998,
        7.8200000000000003,
        7.8399999999999999,
        7.8600000000000003,
        7.8799999999999999,
        7.9000000000000004,
        7.9199999999999999,
        7.9400000000000004,
        7.96,
        7.9800000000000004
    ]
}