{
	"f0": [NaN,50.16684789,50.45073615,50.79994592,51.5100891,51.51892109,51.47940231,51.44732702,51.33111913,50.96015721,50.93390156,51.29384884,51.60901514,51.83901429,52.06303683,52.03926846,51.85633003,51.80524934,51.4824121,50.74609889,50.009775,55.7572223,55.15960561,55.99529395,47.65134983,56.23796469,55.21208976,54.98315376,54.71412063,54.42133173,54.20874193,54.07962303,53.95529438,53.83790065,53.84672022,53.86764126,53.81530348,53.73929563,53.78533509,53.90092645,53.96927268,54.01428052,54.01130575,53.69657143,53.24126651,53.17977237,53.52470207,53.9039509,54.12880814,54.18908501,54.19641843,54.30914735,54.6444879,55.0199493,55.36442462,55.58702781,55.63082506,55.49092773,55.33104507,55.30992957,55.35325528,55.39817519,55.43544455,55.56772588,50.77012292,52.55802863,52.2002302,52.9489552,53.85867909,52.93035138,52.92989411,52.85360478,52.75694944,52.71180651,52.55326609,52.40545065,52.21529751,52.02013221,51.97847931,52.03402914,52.18167977,52.23273604,52.20197999,52.36861305,52.54720987,52.66782436,52.01414075,50.15444483,50.80781824,53.11955917,52.37482755,51.91326118,51.78385212,51.59756236,51.54347486,51.46072726,51.4533563,51.67576862,51.877621,52.20976726,52.55667896,52.6666918,52.64727982,52.42610065,52.13090139,52.10720368,52.36302285,52.5213669,52.7045852,53.21818251,49.98570339,49.81283714,43.35714603,50.19299787,51.38305142,51.10950088,50.50977026,50.07241221,49.79780009,49.84064009,50.03351713,49.99488296,48.91732291,48.47528169,47.9315,47.24309633,46.93542295,46.8562466,46.83679475,46.81488162,47.01144302,47.17148912,47.08976235,47.06028386,47.04669985,47.31851298,47.42423485,47.29328996,47.1545532,47.11119511,47.02501921,47.16187654,47.25366498,47.25182353,47.11190231,47.01323952,47.07315171,47.02903115,46.98398488,47.12341184,47.40875623,47.58314786,47.56437,47.74552378,48.25903865,60.0442468,55.57188084,64.55802863,71.44169325,54.74263884,58.73906746,58.62071279,58.594308,58.91062545,60.33040771,65.99921786,65.66365213,69.21236379,69.2872239,49.04642485,48.44325385,40.73112172,42.78342396,60.91732291,60.33040771,59.9468444,47.75175641,47.84687538,47.06400428,45.91080137,45.91080137,45.66169865,45.61316856,46.01860435,46.84761025,47.02035106,47.06150677,47.03243226,46.92218547,47.06066589,47.1381809,47.24362127,47.31109407,47.21309485,53.3108577,56.20786276,64.38561361,75.79459169,75.72445867,75.61083456,46.68036542,46.30001295,45.99689733,46.07838388,45.79223947,45.51475915,45.29463881,44.66137645,44.41839307,43.92338657,43.60154078,43.45545084,43.34679092,43.61319438,43.89362364,43.94086136,43.56772588,42.25574757,69.6731581,67.98712414,68.18145054,71.51921545,43.95661179,43.76628325,43.16385151,43.04845391,42.98971431,43.04676099,43.14885888,43.05523245,42.97151733,43.11143586,43.07286083,42.98256839,43.04216149,43.01304026,42.89279585,42.93179891,43.15851867,43.53830066,43.90816653,44.25663472,44.69965447,49.84635438,65.58945147,61.62409071,58.98264969,73.52054014,73.56872064,64.47123904,44.87133886,73.91646532,68.86047328,68.83698707,69.36844418,57.43288496,56.23796469,46.29130769,45.41612942,43.20126341,40.89080409,49.33660163,49.98011124,44.81702672,44.70314343,43.99631705,43.22237088,43.01178472,43.25146363,43.36835608,43.38663237,43.34909435,43.30507726,43.28142112,43.22111542,43.39538512,43.66627099,43.56772588,53.11955917,52.84008342,51.94833641,50.44315841,49.21841468,49.04850689,52.93035138,51.87416852,51.70017521,51.4464034,38.8291555,50.64214864,50.85998519,51.47096013,52.27358078,52.45276582,52.30585412,51.83657672,51.06479241,50.61383737,50.60835705,50.64900903,51.02193403,51.22081178,51.31455706,49.48125451,46.54970563,49.82978507,52.29683972,51.15408415,51.7505984,51.35785126,51.02387159,50.71811549,50.63949236,50.48501128,50.44421127,50.36006204,50.28868803,50.41000976,50.42988743,50.46339506,50.56942648,50.88748694,51.17366922,51.65262827,52.41404054,53.3108577,55.56772588,51.31455706,46.76753336,46.03670986,47.48573577,50.41182113,50.27394597,51.76848695,53.66342006,56.9355012,56.23796469,54.91017618,56.01165637,56.93520015,56.93520015,55.78826823,58.16354076,40.19354484,39.81446823,46.29096515,53.80715584,35.34887861,35.34887861,57.66169865,47.48573577,46.9446811,45.71834952,45.18397212,45.17399484,45.40980158,45.57254812,45.85599762,46.34039527,46.49450086,46.50486465,46.82920003,46.92077572,46.91935843,47.01911705,46.82782296,46.16551156,45.15339453,59.49432302,68.60911031,73.59367452,65.38126804,56.43053876,46.41872578,46.12004957,45.68615749,45.62627864,45.76135812,45.53847862,45.37710318,44.76819518,44.76518261,55.7914563,55.58785703,55.34995772,42.5798987,42.36759655,42.53230238,42.86804892,43.17993408,43.27780066,42.58781486,57.20807583,76.30677899,76.19573849,76.13930749,51.36880752,44.35223798,43.77467622,43.5405165,43.29140963,55.11570257,42.98285418,43.10721748,43.22051071,42.95558191,42.81602971,42.94717215,42.70178854,42.49642592,42.5247335,42.58094645,42.66723321,42.74770167,43.10206751,44.35223798,47.47733784,45.21669066,55.53904324,69.14504305,61.99565763,61.82817465,56.84831582,52.82128483,42.71262168,49.91261256,35.34887861,42.10942127,52.93035138,53.8977729,53.10384369,53.11955917,43.13489482,42.30040362,35.34887861,53.63146733,48.35243597,52.17199624,52.85732543,60.88059157,68.25728004,45.91080137,45.00187708,43.56772588,43.34223072,43.27707491,43.95293281,36.26241414,48.59694306,41.78698874,46.39998842,48.34314205,36.5558221,43.30364737,55.44398779,68.88783393,76.93035138,76.93035138,76.93035138,76.93035138,76.93035138,76.93035138,76.93035138,76.93035138,NaN,NaN],
	"ap0": [NaN,0.01236342984,0.01011124269,0.02144540285,0.08813868348,0.08023961775,0.0533900156,0.04778040107,0.06862399809,0.07061897274,0.0536270738,0.03788996835,0.04550176901,0.04436800611,0.03812712631,0.06316118826,0.08245314005,0.07427435717,0.1001057725,0.3323842353,0.8183541083,0.8037099558,0.6842686611,0.6153335835,0.8625664602,0.2204907769,0.05068820066,0.01263584229,0.0176613742,0.02319011122,0.01876548282,0.02635177486,0.03776961433,0.0233704944,0.005923971082,0.005163075476,0.004431994822,0.004225266587,0.004952365735,0.003540087298,0.003456694047,0.009650472954,0.02595271574,0.05149186852,0.03731827314,0.04925326224,0.03962988756,0.01789797561,0.006936761625,0.005610949002,0.006274699837,0.01077191621,0.02352880216,0.0262436379,0.02633234933,0.0165151954,0.007354913795,0.005010041318,0.005552499453,0.005447599728,0.004076415685,0.009796663093,0.04666632375,0.3085954513,0.4750250739,0.2409434465,0.4395142366,0.794390632,0.7274764819,0.3846859528,0.05467266283,0.01341189478,0.01033610813,0.01346074303,0.01523465484,0.01632988333,0.02315058059,0.0155384024,0.009154087732,0.006219986251,0.007428276601,0.009168282005,0.009929004476,0.01019788754,0.02607501232,0.07153541874,0.3363268732,0.2912823364,0.2210428236,0.4559670551,0.5926772713,0.07976241658,0.02827913427,0.01307586374,0.01014201486,0.01134831368,0.0130444478,0.009068272682,0.0104704976,0.01850776275,0.009187090178,0.008699302058,0.01815163969,0.02568023571,0.01853685014,0.02091908391,0.02464704786,0.03010531022,0.1413138638,0.446194376,0.2004728794,0.3132089488,0.5909678217,0.7664576103,0.1437947045,0.1423726512,0.1342053031,0.1518018379,0.1864158939,0.09182492018,0.1524664253,0.2400975847,0.278225251,0.2284759765,0.2307288356,0.2507854439,0.1219635569,0.08907879827,0.06928885958,0.06911453263,0.06225487775,0.04480085691,0.04734099104,0.05326539147,0.05968507322,0.05619281384,0.04966773376,0.09177012298,0.108937439,0.111037609,0.1176842887,0.09179407438,0.05699594486,0.05547374501,0.06635319657,0.05268364765,0.05646770061,0.05771900119,0.05828051828,0.06002072374,0.06063760668,0.05705374901,0.08118723697,0.1782468077,0.4322974405,0.383854714,0.427708855,0.6970564829,0.7415723808,0.6248885868,0.5683128302,0.3886020649,0.4288055826,0.5823136242,0.6509556906,0.5557856221,0.6362106965,0.4385737323,0.4272844176,0.4009025888,0.4572518417,0.5299370214,0.8138678313,0.5043664876,0.2828579732,0.2572582943,0.1269497781,0.1263239552,0.3640991764,0.2297578198,0.1804170777,0.1318954832,0.07959622842,0.08100686527,0.1103503079,0.04376405966,0.04316031515,0.06849462788,0.05142715327,0.04540526679,0.06999138395,0.06367252968,0.07082887202,0.2060437236,0.6398972758,0.5981510142,0.6389121823,0.611856252,0.5797666722,1.421685552,0.1437114624,0.06560605457,0.0637512253,0.06899499795,0.07305849603,0.07475824759,0.1131393999,0.1124592522,0.07349510873,0.102787779,0.0619305527,0.0575063912,0.03345190965,0.03573375213,0.04894116696,0.1280116588,0.4536303341,0.6097905259,0.6444939999,0.6084325094,0.6939655545,1.196505229,0.4508387081,0.2548522899,0.1357580479,0.1262249024,0.1010555787,0.04463686952,0.07395612655,0.08089505304,0.06085340364,0.05741182075,0.06086373497,0.06576672079,0.07481759776,0.06897350526,0.04758511652,0.0842325865,0.134783102,0.1109692213,0.09658638738,0.1272955715,0.4924504499,0.7239452053,0.4098399543,0.3431796369,0.5487687183,0.5383038791,0.6053921033,0.8928663368,0.8142669769,0.4547334339,0.210592951,0.2056558057,0.7115431501,0.5524950642,0.3365688356,0.686383038,0.4494095174,0.6286976894,0.350615821,0.5106735547,0.8292833959,0.3124176019,0.1171061467,0.1430516172,0.08586026562,0.04720581577,0.02957406576,0.01658188406,0.0234014721,0.02996794962,0.02411967505,0.02684040678,0.0324808989,0.07268066226,0.1243819693,0.3261957897,0.2572922323,0.182608078,0.236673911,0.4786034462,0.6912414628,0.4900732992,0.3424179406,0.2269626729,0.2252233006,0.4480708109,0.5513434635,0.5129622863,0.3981269717,0.2681024843,0.05383859339,0.05948760695,0.127729756,0.1241542461,0.05816177584,0.03957753092,0.03851324728,0.02646943976,0.03411513994,0.05430654912,0.1524801477,0.7593031047,0.3538282181,0.6510380215,0.4351375476,0.2043225898,0.123438208,0.05868949884,0.01709765621,0.01635371892,0.02235910945,0.02360210975,0.01061150999,0.01531325084,0.01161481087,0.01586757201,0.01107195492,0.003913349033,0.005228112444,0.01545776809,0.01843435239,0.05267923623,0.07868069202,0.2343708692,0.4389959408,0.4433976471,0.2677334482,0.3374261867,0.5585599388,0.3737670347,0.218348812,0.7600152345,0.8549616594,0.6702150964,0.4665358719,0.3681999943,0.402017449,0.4816010341,0.6611594167,0.6151379292,0.6865426615,0.3815566039,0.6194016065,0.7208661412,0.6246536649,0.5027995192,0.9345202737,1.207699757,0.2544189801,0.1899612926,0.09614962353,0.07043139595,0.08436968131,0.04532219021,0.02577139012,0.02946117461,0.04913910347,0.03171679447,0.04204327567,0.09686885205,0.06038354637,0.06169395573,0.08512994852,0.1830231866,0.4427898123,0.7678083866,0.8779136462,0.7994970932,0.7551008955,0.7988081448,0.8618854041,0.1770806004,0.1196634743,0.08978774403,0.1124007684,0.1224548266,0.1576060831,0.1497341337,0.378405137,0.3367961857,0.1277018718,0.06869234247,0.1849376664,0.1086278373,0.1074660126,0.09633748924,0.06730946268,0.05255517922,0.1502410922,0.8174227625,0.8263862293,0.6536532575,0.5556184603,0.6406903751,0.5956370383,0.5189434016,0.192552884,0.06526260245,0.05308360928,0.138366741,0.05106435444,0.08726760753,0.06944567368,0.03778025353,0.02693314747,0.04483775756,0.06692679741,0.04414443552,0.05776205674,0.07096879506,0.09007921819,0.104218128,0.1711381522,0.257516227,0.3818502603,0.8341805859,0.4651370752,0.4359707953,0.5420561864,0.5390681472,0.7505077194,0.5620031812,0.7237623856,0.7717906781,0.5635423099,0.4580033419,0.4065284248,0.3251103061,0.2299068069,0.3324910814,0.5475352145,0.4800839881,0.8708483127,0.7686354953,0.3872619671,0.5999735314,0.9202644098,0.8699868108,1.018500436,0.4419484192,0.6478487357,0.4945317022,0.3544910816,0.3922781629,0.6329068934,0.8055243385,0.7876452178,0.8361142433,0.8007168913,0.8301746252,0.7547065254,0.7727006757,0.7126403047,0.5254542919,1,1,1,1,1,1,1,1,NaN,NaN],
	"ap": [NaN,0.0506371789,0.01105545656,0.00736201799,0.02771673134,0.04600458676,0.01845167624,0.0213327244,0.04409132394,0.06649079867,0.06405964818,0.03891622329,0.04757002221,0.04106640925,0.02435759929,0.01139292374,0.02419438132,0.02929115276,0.05697490686,0.05682708701,0.4098129759,0.3363218498,0.3610484016,0.4628346934,0.5686001042,0.2308160637,0.5239643433,0.05675222465,0.00801308887,0.01156639682,0.009212395248,0.003265701413,0.009170680775,0.02763669077,0.01052616586,0.003047086634,0.00334558656,0.001250907339,0.002598739876,0.005164612185,0.002433005468,0.0019099397,0.004149906897,0.02715847581,0.03183330158,0.01886487364,0.03631335927,0.08627408227,0.01822141527,0.000780160396,0.002493629479,0.002980617901,0.01304953426,0.01101595719,0.01765445894,0.01168151124,0.007475577552,0.009018847927,0.004959857213,0.003090238987,0.005274880589,0.002238528195,0.003625200192,0.005635293762,0.3543874667,0.7749510224,0.03496425728,0.1925037417,0.3903287189,0.4739782288,0.1962545071,0.09156859517,0.004258573338,0.003795173836,0.006161180406,0.009838381381,0.014446221,0.01203309487,0.006766638376,0.007944989965,0.001795538854,0.003291969789,0.003301399572,0.01131106393,0.006441044086,0.01017393736,0.132147493,0.1348144638,0.08704514441,0.1256032875,0.0433987115,0.3384331455,0.2165761349,0.006392032988,0.001851112117,0.002977109851,0.005433894209,0.0120804845,0.01121510877,0.01565918594,0.02836796174,0.005129559491,0.003456517462,0.01606903339,0.01456586429,0.004166988077,0.01850280778,0.01298881755,0.02720928368,0.06401641109,0.1373153002,0.0257309706,0.5500032773,0.4131799154,0.4600910151,0.305941977,0.06186094313,0.0472076789,0.1110477111,0.125729214,0.1228995236,0.0610006557,0.2781574724,0.1729890739,0.1785026146,0.09373171317,0.07740943807,0.02883259051,0.06924985193,0.03824916114,0.05622058843,0.009986155367,0.02316679285,0.0256219872,0.03588297067,0.0388030281,0.04276630472,0.04105304595,0.03018924083,0.05439919472,0.05026541384,0.06572143406,0.04317351243,0.01707699053,0.01149749996,0.03624232233,0.02540633302,0.03465157993,0.01077531777,0.03646490888,0.05599282314,0.02797876936,0.03144198846,0.03947449668,0.09868531121,0.730446759,0.3709947993,0.7234113007,0.3713252708,0.1533898831,0.6531631827,0.3433154596,0.1877722883,0.0950337735,0.1446482973,0.6875781187,0.2534614001,0.1677991508,0.3622690391,0.3247729461,0.2066899592,0.4090222222,0.3285395876,0.7169253414,0.7584956537,0.1662274227,0.2354382158,0.05977503302,0.1240272433,0.06710508862,0.1293223892,0.1434542161,0.0509806761,0.01544268498,0.03493738963,0.02863060541,0.02179791058,0.01536236794,0.03685791224,0.007943668025,0.04057979534,0.05006042932,0.02032922344,0.04487260002,0.4168632029,0.8071458253,0.4543777505,0.4900696256,0.3629313845,0.4443953968,0.7048354407,0.1897418773,0.02056304622,0.0370202097,0.05830454027,0.0338224101,0.01440105298,0.1613051302,0.06964930156,0.08070203816,0.04609799724,0.01979803843,0.04004554683,0.01981398251,0.009596235273,0.02053706556,0.1030378466,0.1425681119,0.6872091921,0.207650802,0.5707236681,0.4918035559,0.4173758015,0.4299621545,0.1270823258,0.05101555412,0.05864222619,0.04953305344,0.01716610584,0.07134258086,0.03310545974,0.05902466484,0.02432844711,0.05679457733,0.02273473894,0.02218058639,0.01783353236,0.0121862433,0.09218188204,0.07583202627,0.06747615879,0.03246533579,0.1244139315,0.3714038807,0.5514294039,0.4094309594,0.5761851567,0.722426482,0.3927968079,0.2696807982,0.561160478,0.6365950805,0.5438114524,0.1168066517,0.3774096143,0.5879697572,0.7471640953,0.1972496801,0.4196542249,0.1799071782,0.7485120401,0.5412574338,0.3978123197,0.4491211949,0.4706455038,0.1144882277,0.1237977395,0.04980937291,0.02049069096,0.01022337154,0.01029157495,0.01131844127,0.008497722187,0.004528529924,0.02445563461,0.0201405267,0.03035609437,0.04872915894,0.4906009419,0.2066205682,0.3343542367,0.2617442322,0.09065483336,0.1801002718,0.6543553672,0.6269085424,0.2019094018,0.06497939464,0.3097213363,0.2978796566,0.06794012759,0.4073652231,0.28495113,0.02945344363,0.01478953628,0.04188680675,0.05164886975,0.01458559,0.03603894799,0.009718023664,0.01986809133,0.01891731497,0.02001691972,0.1964305761,0.2966472633,0.3494509425,0.4992704635,0.4852865199,0.1175585645,0.09261063015,0.02254195968,0.009015011024,0.004084105732,0.006907099661,0.01043590647,0.005735091675,0.009329476153,0.008822731444,0.008531826415,0.002190150498,0.005934359751,0.006830741218,0.010616913,0.0173093788,0.02592699421,0.01096654412,0.4141522634,0.2315467689,0.7280856641,0.2631643804,0.3653651328,0.3437907892,0.04142931551,0.2039738498,0.1868652897,0.8488189622,0.4823352792,0.4991362503,0.3246577358,0.144651498,0.09853642696,0.2884133246,0.5480638068,0.3850395653,0.1252596647,0.200565083,0.3777469207,0.4026567325,0.1637593583,0.5468572077,0.5289587199,0.3911738088,0.101105403,0.007851028367,0.02206947469,0.02649340434,0.01727596129,0.01404945393,0.03491068353,0.04268664735,0.01898779045,0.05821533683,0.06867897745,0.04652829605,0.009342820081,0.08968182125,0.06482562292,0.4263785777,0.4952606197,0.4204453516,0.5499079903,0.546335634,0.6146215391,0.4099273566,0.3156502383,0.03458796581,0.0542476476,0.05538035634,0.05527033848,0.07032786509,0.1121619692,0.1169096586,0.3152174681,0.1591092216,0.02262404774,0.04969655586,0.06466629941,0.02932397396,0.07260912627,0.02603819943,0.005053194696,0.1395097577,0.3162577746,0.7479040302,0.3884329311,0.1675261285,0.1803398283,0.4981293269,0.3721303262,0.04790635218,0.01503398839,0.07670692364,0.02979417068,0.0486444679,0.0477141653,0.05120557282,0.03515259666,0.008180607155,0.03379892719,0.05944047525,0.02510362725,0.03137278454,0.01978403319,0.06392471911,0.02334114255,0.2201050089,0.3916737343,0.5380886075,0.5949462155,0.3239090224,0.4743135272,0.3574492344,0.2302528003,0.4516516395,0.3265203042,0.6389035123,0.2462733979,0.2482192141,0.2508683276,0.2341389015,0.1359450497,0.1452712803,0.4076801754,0.2991025765,0.3479070472,0.4186916546,0.1009969415,0.6593544696,1,0.1408417681,0.08296567809,0.1040150289,0.3189318143,0.3873368387,0.1521872453,0.07261353276,0.1338571492,0.3055091871,0.4242846947,0.3894994379,0.3692323714,0.3914495937,0.3332445282,0.2396825134,0.2838100174,0.2976742881,0.5000054836,1,1,1,1,1,1,1,NaN,NaN],
	"pwr": [NaN,0.02692768035,0.03208210466,0.01546451003,0.01111540496,0.01422621888,0.05567935943,0.02510190973,0.01434233421,0.006293056439,0.004172885066,0.005855774017,0.005803017817,0.01561349721,0.01888019542,0.02198965398,0.01431295781,0.01164216157,0.009832658774,0.004374065264,6.879621007e-05,0.0001929660874,0.000137172901,0.0001758671438,8.016290643e-05,0.0001470832542,0.0004072494325,0.07860887732,0.2600844079,0.149129981,0.08286920729,0.0444993984,0.02706211852,0.02367865936,0.02068849456,0.02531479725,0.04501547316,0.06009520236,0.05226316488,0.04553455159,0.04968670579,0.05689173222,0.05141742335,0.02779184113,0.006844656012,0.003272324947,0.003673299312,0.01522767952,0.07073508286,0.1665589664,0.1463190686,0.09740413313,0.06723228083,0.04893038093,0.04233037514,0.06893127103,0.08195641918,0.1355760099,0.1141159827,0.1159111972,0.09200372119,0.08677734795,0.05686015045,0.02958676713,0.007603588637,0.0008530717237,0.000748873735,3.603823158e-05,2.913299098e-05,9.161212897e-05,0.0003005508721,0.02054333917,0.1026222227,0.0454047769,0.02548844873,0.01491972607,0.009113837145,0.007266601029,0.009891562992,0.01450846624,0.02320427871,0.02696031224,0.02517508368,0.0136993744,0.01230283218,0.01310815029,0.005676079912,0.0008607241568,0.0002834788544,4.697845261e-05,2.057289484e-05,8.790312675e-05,0.004578708707,0.04923470821,0.02344345944,0.01308572518,0.007968535727,0.004536428814,0.004716066964,0.00516380371,0.006321352561,0.01668125512,0.02634655598,0.01631556108,0.006789116019,0.005747944101,0.006706424158,0.009646604987,0.01462116743,0.005346411601,0.001014298814,0.0001100705999,7.787873031e-06,1.102310536e-05,0.000514963765,0.004652123357,0.1068800089,0.03283927632,0.01548345505,0.005939748895,0.00575882787,0.003249447401,0.004066659754,0.004649728816,0.006259765387,0.009427547444,0.00326988845,0.001207272871,0.001012921646,0.001466973125,0.001564895036,0.001869572677,0.00243608137,0.00171103034,0.002162479295,0.003011253929,0.008303654693,0.01653009856,0.01472698038,0.01018686873,0.003358059008,0.003256749268,0.004624492465,0.003745580589,0.004230334359,0.003088287142,0.003401395376,0.00373991585,0.002873865139,0.002161689765,0.00223191925,0.002164884568,0.002551365885,0.003310606725,0.001007152795,8.453686767e-05,4.599381715e-05,2.159079428e-06,2.139032887e-06,3.98584694e-05,2.789066886e-05,3.743379408e-05,4.978268293e-05,0.0001300083504,4.358058116e-05,8.833819271e-06,1.616478728e-06,3.003884634e-06,4.559893747e-06,2.39651288e-06,1.692634051e-06,4.034638176e-06,6.714715539e-06,2.665649939e-07,1.01502878e-05,2.948964797e-05,0.0005085625104,0.005035048807,0.02065694738,0.00919915297,0.01045557664,0.009576272101,0.007850202817,0.003321246738,0.002041452627,0.003376035675,0.003752721174,0.004888982597,0.00352595792,0.004222763701,0.003307874504,0.002618196403,0.002669242793,0.001162933757,0.0005099647989,5.183125427e-05,2.595445687e-06,7.359564826e-07,6.247515884e-05,6.917051316e-05,0.0002842469857,0.003328551362,0.01409411841,0.004226434297,0.003462323216,0.001698066627,0.000859930955,0.0005961287401,0.0008371209101,0.001453401174,0.001175576972,0.001565024193,0.001134022212,0.001971216198,0.001422911381,0.001126438242,0.0005092988457,8.927211449e-05,3.036888273e-05,4.796230709e-05,5.613526168e-05,3.526750438e-05,6.665364769e-05,0.005711683051,0.02857928451,0.01730482149,0.002970806127,0.0009222805445,0.001006958412,0.001105663704,0.001744146759,0.001811612053,0.001371856892,0.002383832319,0.002131969552,0.001000987389,0.001034155486,0.001081787179,0.0005184621983,0.0002614746842,0.0003566566055,0.0006168228686,0.0007411338372,3.250523014e-05,2.107059603e-06,7.358248796e-08,8.469876497e-08,9.714028903e-07,6.265504629e-05,1.087606721e-05,3.674775011e-05,1.237822009e-05,2.149515685e-05,3.101864671e-05,1.626564301e-05,1.879169402e-06,7.057479754e-07,9.305611322e-07,1.894948351e-06,2.146467409e-06,2.906988462e-06,8.539381362e-06,4.231711655e-05,0.0002997919401,0.002193298951,0.01897649737,0.007090722674,0.00570411561,0.004469960119,0.004435407859,0.005472939563,0.007853685755,0.005790558966,0.004757117382,0.00323790773,0.001760066141,0.001799818465,0.00250548184,0.0006468667691,0.0001205565486,4.733679216e-05,2.859542492e-05,9.56277169e-06,6.750208716e-06,0.0001322160021,0.002379389672,0.07995564575,0.09954969955,0.04737821681,0.01331580539,0.002962795813,0.008982539459,0.005077588067,0.009126323696,0.01823751365,0.03186053414,0.02226390655,0.02242984398,0.01559072899,0.005675150143,0.003274867522,0.004291596168,0.00560091401,0.0005981325372,7.271705391e-05,2.502302997e-05,4.057016612e-06,1.461206036e-05,7.739348118e-05,0.0006628628427,0.05378838495,0.0435955125,0.01607972641,0.006302216494,0.002847075582,0.00255258995,0.00227417927,0.001993760239,0.003428370533,0.009056152058,0.007956508373,0.008198499797,0.00582843899,0.005502215202,0.002740801437,0.001728122862,0.0001012362028,1.397580923e-06,2.040518247e-08,2.404340087e-06,0.0001498323206,0.001350911538,0.0001472079621,0.0003648514529,4.560274984e-05,5.498631488e-06,3.915721256e-07,7.034015175e-07,1.927885354e-06,1.358517369e-06,1.62232007e-06,3.240420483e-07,9.927658967e-08,3.576593978e-07,1.285565232e-06,2.672981243e-06,1.169226082e-06,3.492449572e-06,3.288461511e-06,9.06455264e-06,2.990247514e-05,0.0003881154712,0.01225378008,0.01065000931,0.0131669987,0.005943101795,0.004209895165,0.002890147629,0.002827620862,0.002706486379,0.002316457348,0.002130557827,0.001184318909,0.001486438793,0.004055933208,0.002226767168,0.0006682396865,7.3376711e-05,5.684768447e-05,9.022135754e-05,7.745931462e-05,9.330140324e-05,2.475038791e-05,7.460403893e-05,0.003111166563,0.02830677437,0.01362216472,0.006251245303,0.003523650641,0.001381410615,0.00032195226,0.0001775317915,5.654225486e-05,0.0005084461718,0.001991756923,0.001138625076,0.0008440638517,0.0006707166162,0.0006263027961,0.0009424213686,0.0006049537127,0.0002644481645,8.246578263e-06,3.459804244e-05,0.0004152837946,0.0005380847593,0.0001665551585,3.235509183e-05,0.0006333434561,0.00854814648,0.01609122625,0.008541443556,0.001365699534,0.0009541749751,0.0007259537418,0.0006376126641,0.0006356200834,0.0008364314243,0.0009684713726,0.0008526606411,0.001282625142,0.0004382983438,0.0002763622536,0.000246066472,0.000351156697,0.0001979163032,4.415031045e-05,1.962695338e-06,4.118129652e-08,1.979264718e-08,6.507876858e-07,9.687400615e-06,6.079609159e-06,7.67303378e-06,5.494648905e-06,1.372854084e-06,7.571973361e-07,8.139053243e-07,4.321722688e-07,3.740892628e-07,1.644720055e-07,2.204599166e-07,6.128098948e-07,5.570925115e-07,4.959746455e-07,1.439967353e-07,7.762380244e-08,1.141599478e-08,0,5.307702679e-11,1.60951525e-10,1.143063486e-10,1.384764868e-10,1.667391603e-09,3.942095004e-09,1.809101709e-09,4.728885159e-10,1.386676395e-10,9.605495525e-11,1.362811039e-10,1.09338539e-10,8.64048967e-11,1.429777635e-10,1.799617085e-10,1.094167468e-10,4.761577508e-10,1.012307146e-11,0,0,0,0,0,0,0,NaN,NaN],
	"sr": 16000,
	"range": [1,149248],
	"minf0": 63.1883,
	"maxf0": 706.3069,
	"thresh": 0.1,
	"relflag": 1,
	"hop": 320,
	"bufsize": 10000,
	"wsize": 640,
	"lpf": 4000,
	"shift": 0,
	"plotthreshold": 0.2
}
