{
	"f0": [NaN,76.93035138,76.93035138,76.93035138,76.93035138,76.93035138,76.93035138,76.93035138,76.93035138,76.93035138,76.93035138,76.93035138,76.93035138,76.93035138,76.93035138,76.93035138,76.93035138,76.93035138,76.93035138,76.93035138,76.93035138,76.93035138,76.93035138,76.93035138,76.93035138,76.93035138,76.93035138,76.93035138,76.93035138,76.93035138,47.67917176,53.83015412,48.91732291,46.81201884,45.53847862,43.78826823,53.50429368,53.48427957,53.8977729,53.11955917,52.93035138,52.76902368,53.3108577,35.34887861,42.30040362,53.3108577,53.11955917,53.11955917,53.50429368,53.8055985,53.69991543,52.91505692,52.55802863,53.05265463,54.0979178,52.58535737,52.53277449,53.11955917,53.11955917,52.53385502,52.40156955,52.39090778,52.54902383,52.7005406,35.34887861,49.68010446,49.83677829,51.14399075,52.74318912,42.71262168,54.0723695,53.69991543,54.50528578,46.68036542,49.18702501,48.30640015,48.53999732,59.36819566,49.31881898,49.37409363,49.49182247,49.59098761,49.65293256,49.86227602,50.47347311,50.80377147,51.10453991,51.24012421,51.09797691,51.1661764,51.2930689,49.39891372,48.48474745,41.21153178,73.00958141,68.79907903,54.42751158,51.30533301,49.84128221,49.70110316,49.63130577,49.72617483,49.71290393,49.53491028,49.48332452,49.78409766,50.04524068,49.89714301,49.83667867,49.86536921,49.78090963,49.09174367,46.50709255,69.71253746,73.11385321,76.77278623,55.66674155,50.64214864,50.08031882,49.66605818,49.19349531,48.9909791,48.9604795,48.98174486,49.02603177,49.21132951,49.39223105,49.54611945,49.62811274,49.53498827,49.3322512,49.22060013,49.77826577,51.95706832,52.87698233,51.62444238,70.68718353,48.57998877,48.1970139,47.86345127,47.71215622,47.73900395,48.07505199,48.44015464,48.85410431,49.27966707,49.74087849,50.12873014,49.92170488,49.81095783,50.02477786,50.10462296,50.46226147,51.40824104,53.50429368,44.77920476,72.9905535,70.11896579,76.8234082,76.82881185,50.80781824,48.7416471,48.62137826,48.29375265,48.11153199,47.96186187,48.15298665,48.23260572,48.08243596,48.1596321,48.02217272,47.77380125,47.56051446,47.50473596,47.32051585,46.66948277,45.75688775,46.29384981,47.86970303,48.0442468,43.13489482,46.29130769,46.32737072,46.07969146,46.0171266,45.29463881,45.29463881,46.11808786,46.12429768,45.86358684,45.72831264,45.66169865,45.53241687,45.45044508,45.46151388,45.30284798,45.19075676,45.13534017,45.01562888,44.78593702,44.70472553,44.8426365,45.00852939,44.96835944,44.77715481,44.81948406,44.91000477,45.05397136,45.11147411,45.06431498,44.85891811,45.02810363,45.29463881,45.40149592,45.25539548,44.81702672,44.23796469,56.20670237,56.88000077,52.35674785,47.90292079,46.52073728,46.83051236,46.43542718,46.16790742,45.95420369,45.72807199,45.68543623,45.9811832,46.59040902,46.87023217,47.1951307,47.38663867,47.68149153,47.98415485,48.06993146,48.01377334,47.79984669,47.61316885,47.83793346,47.96422976,47.96218694,47.8751456,47.6969337,47.57938131,47.53429701,47.56188364,47.54139681,47.56670193,47.71906456,47.83609037,47.9083247,47.95209767,47.99890925,48.04260289,48.02238108,47.9456752,47.63307461,42.29043314,54.0658246,53.6167921,53.69991543,55.78826823,57.66169865,45.37375593,45.32696248,45.82368512,45.88269863,45.65925867,46.76339292,47.17958579,47.69000483,48.12929142,48.28121651,48.18575063,48.00554166,47.22515829,46.28648269,38.64214864,53.3108577,50.9398461,76.43102941,76.70681089,76.99725395,56.93520015,47.90292079,46.9446811,46.66894033,46.4711102,46.48894766,46.58971841,46.49254454,46.28117089,46.11892346,46.02583828,46.29130769,46.37723798,46.53520151,46.52665112,46.340293,46.2114926,46.10834899,46.19284846,46.28569431,46.42356744,46.58541523,46.61878774,46.61744012,46.50261481,46.20460119,46.13348217,46.68036542,46.85025805,46.51861759,45.66169865,42.30040362,42.28128484,56.268127,54.88964553,52.00701626,54.25949529,44.33733177,43.6109566,56.31239089,53.94123566,54.09042748,54.34526508,54.24168247,54.20109917,54.66418781,52.0574521,52.43857041,54.2318969,56.35884408,56.59889586,56.59715916,56.15926098,55.9480722,56.69965447,56.01165637,54.0979178,52.71707681,58.64737103,71.24236435,74.24955936,73.93330418,74.29674247,55.79536976,47.28566242,42.62846632,42.4615415,42.21233206,54.13960662,53.8230348,53.87576597,53.79982093,53.53130212,53.63779905,53.71244282,53.69421685,54.0979178,54.21650001,54.52596952,57.46713832,59.47427667,74.82336466,68.70357768,61.83190567,48.01402726,47.901395,47.79885674,47.74241061,47.93295531,48.311857,48.66563853,48.91916451,49.27718462,49.5276319,49.77863824,50.02861279,50.04736523,50.15714629,50.22286554,50.10522296,50.31549102,43.77258353,48.47797562,48.4654986,49.52483579,49.15383915,48.90937148,48.61304294,48.45226435,48.32584211,48.25898804,48.08223345,47.66890498,47.07171665,46.53492765,46.01289709,45.62585096,45.62119311,45.84334959,46.30072577,46.48743749,46.58909629,55.26188756,54.68886291,54.30871003,47.07716771,46.53095273,46.16745331,45.97076004,45.7925704,45.63304916,45.66255809,45.73781092,45.70773637,45.87664348,46.13157317,46.24701144,46.29666581,45.41612942,56.23796469,56.7628019,56.23796469,56.01175766,55.69033927,76.25746391,45.71215363,35.83745067,46.7771705,45.97596461,45.65170875,45.5773634,45.61196286,45.62678056,45.59720929,45.59877271,45.63475946,45.7272737,45.98256641,45.92572493,45.14058611,42.61471785,42.50528578,55.34972902,54.82580755,76.95495594,76.94201137,77.04689852,54.30040362,47.90292079,46.54786146,45.91846009,46.00497744,46.10741522,46.01137722,45.88597192,45.9860749,46.00980991,46.03677697,46.07829061,45.99931501,45.82760158,45.85015728,45.97958665,46.02635471,46.21558072,46.40102512,46.32117676,46.02984971,45.7528405,45.72399131,45.9829738,46.02077478,46.07359189,46.14971007,46.03670986,43.55499402,55.47835239,55.34995772,55.56772588,57.91080137,52.02098377,41.99755612,45.33259314,43.75399973,54.18371177,52.39898962,52.44173154,56.55202017,52.36520474,73.12787912,68.35414999,54.31678824,52.12760053,42.67697957,52.92339887,53.69187941,53.54646894,52.55802863,52.58659211,42.50528578,53.50429368,53.09183259,53.11955917,53.43022125,54.05942586,55.34995772,54.50941986,55.80893853,73.33389487,63.83657672,43.96366177,50.3997671,51.5952619,49.2236885,49.23248175,54.11470145,54.14372979,52.44003419,52.33345993,52.46618576,52.37482755,51.31455706,60.47528169,53.02469679,74.60920412,65.3108577,69.66169865,76.93035138,76.93035138,76.93035138,76.93035138,76.93035138,76.93035138,76.93035138,NaN,NaN],
	"ap0": [NaN,1,1,1,1,1,1,1,1,1,1,1,1,1,1,1,1,1,1,1,1,1,1,1,1,1,1,1,1,1,0.9619304135,0.6390519151,0.2839608262,0.4196206086,0.555231024,0.7982676424,0.1674801821,0.1955569678,0.2226660278,0.2802224457,0.2639167207,0.3164622834,0.535313486,0.5175683521,0.3634896823,0.2548115298,0.3272731897,0.2742895792,0.2087352331,0.2639038276,0.2751720072,0.3216608182,0.3909995559,0.3748102173,0.3563420956,0.4101857462,0.3511963918,0.2622273391,0.2776158354,0.3672948893,0.3733278806,0.3666426007,0.3875321724,0.6116649068,0.5537362394,0.6495128951,0.6463729237,0.6708649727,0.6418676625,0.6934817372,0.5266596755,0.3034908671,0.642197067,0.6438208236,0.6265438236,0.7142497696,0.8606955656,0.8767322635,0.3763791411,0.09996065472,0.04017219446,0.007754395709,0.01201168507,0.02942059134,0.02977444179,0.01379552227,0.0283247672,0.02155828439,0.02509485782,0.05367768358,0.2076106316,0.6611118384,0.6901961204,0.9265396682,0.8058445103,0.8501985128,0.5547495094,0.6172859802,0.1596105395,0.06496547346,0.03876313452,0.02886160647,0.02257548101,0.03050698523,0.03049987002,0.03647745066,0.03286171134,0.03021768092,0.02371368855,0.03410809014,0.09525634382,0.4822878292,0.6715560881,0.7529023444,0.7539216833,0.7249686353,0.4999584309,0.4674655371,0.1965941323,0.1074016289,0.02815930964,0.02933421656,0.03528764648,0.03827933579,0.04462224977,0.03868040154,0.02708329413,0.02406217321,0.01665949898,0.01541740227,0.02077148222,0.09361443117,0.449516971,0.3067658526,0.5097872223,0.655120261,0.9598058013,0.231284915,0.1474540604,0.06872226363,0.06497243351,0.1027961102,0.09106221582,0.05451412142,0.03761698554,0.02345211085,0.04351456664,0.04782570499,0.03678882175,0.02403713888,0.01378999097,0.02974440369,0.1476428478,0.2015847103,0.4760996616,0.7904194438,0.7289927692,0.8257460947,0.6792541065,0.6679670351,0.5279932712,0.2770730946,0.1745368157,0.03949777323,0.06231488092,0.05743277366,0.07526982179,0.06321761011,0.03260543664,0.06838276638,0.04650440113,0.04264179194,0.07325497525,0.08989801348,0.1222916083,0.1258440001,0.5519708147,0.7466794125,0.2945621088,0.4380148562,1.222389844,0.3423887801,0.1407626125,0.1813791524,0.2568010355,0.4423572413,0.3145721927,0.1012950034,0.0627598801,0.06632372582,0.07300874975,0.08118063315,0.0949342354,0.05875952621,0.04854551169,0.04664939053,0.05405208403,0.05917299589,0.05654855562,0.06719034179,0.08324722548,0.07609565679,0.08569990522,0.07554595052,0.06384126694,0.08665859268,0.07155159774,0.05276224665,0.05735786061,0.07940190542,0.07710925995,0.1025910215,0.1830553515,0.1949134691,0.2516296886,0.3561445113,0.4594419002,0.2418186443,0.9258064113,0.5899072556,0.6245039594,0.687922308,0.1423043836,0.1228201118,0.1083942983,0.09112592144,0.1282221212,0.1122337211,0.08035563207,0.08288181545,0.07352228611,0.05797364912,0.0443024908,0.04113725773,0.03790661211,0.03148198154,0.02706055067,0.04516535783,0.05545860461,0.03954290695,0.03576302626,0.03829796684,0.04192027423,0.04619300344,0.05202668784,0.05926779591,0.04106918422,0.04011105295,0.0416833252,0.03492600425,0.02244362738,0.01659157511,0.01706280093,0.02133717203,0.02320671259,0.03847370959,0.09953098354,0.3026810557,0.586916113,0.1918027889,0.2673780533,0.3031495555,0.3595404811,0.3520473831,0.1375079631,0.06478351976,0.06518343491,0.07136940224,0.07904457643,0.07977702997,0.05014489281,0.05969975941,0.03620573707,0.02235049244,0.02542854816,0.05038719678,0.1925760437,0.2585292864,0.6432712155,0.262805459,0.847580718,0.5189374195,0.395037944,0.7983973396,0.6314687155,0.3829362389,0.1257247989,0.06028609335,0.05043751727,0.04131461493,0.05210434148,0.07228928169,0.07878838365,0.06677522543,0.0820263651,0.06689569186,0.03669329554,0.04875534316,0.06312960681,0.05280325883,0.03979016594,0.04409552151,0.05443236078,0.04932724429,0.03563871387,0.03509632528,0.03088254845,0.04659199842,0.07972082931,0.09138150457,0.09206777309,0.09021381125,0.07040080056,0.1573599575,0.6477798124,0.4679183538,0.5347924229,0.2003482435,0.284869672,0.6152171018,0.7008689618,0.8051651592,0.7762167175,0.6365487966,0.360167449,0.4749552164,0.4453554541,0.3201473016,0.3359462613,0.5203268995,0.655177588,0.5974493866,0.5587023479,0.6251173475,0.5550137624,0.5571658142,0.4261087045,0.4086527088,0.5283613403,0.6265088721,0.5045608404,0.6340989823,0.7492924332,0.6517010536,0.5736517127,0.5923297717,0.7688372167,0.7639778029,0.488605443,0.3815367067,0.1171778414,0.111428689,0.143075759,0.128141534,0.1161325023,0.1389152789,0.133785475,0.1717055424,0.1612046528,0.1603772728,0.1108611811,0.07206176744,0.2493538124,0.3788871343,0.7991313166,0.7807605192,0.9017714735,1.43830707,0.2343512813,0.1314052828,0.07713502791,0.09920179725,0.08176233871,0.07035841101,0.08501304174,0.06509462987,0.03972941617,0.02632096675,0.02964063387,0.02401567552,0.02149134152,0.0178142663,0.02781110064,0.09553057269,0.3670841149,0.9213639876,0.6509407811,0.7302390838,0.2746722699,0.1469080938,0.04543890745,0.03194011576,0.03166277173,0.03001184802,0.05665327952,0.1444220498,0.2139811678,0.2652347762,0.2127728368,0.1185209181,0.07451726207,0.06368236513,0.04892968004,0.06197734221,0.1125672993,0.3426742456,0.3784790716,0.1710138833,0.3084756903,0.6428278432,0.2677357548,0.1071209464,0.07624160133,0.07735374361,0.06826826096,0.04729506447,0.04679034624,0.06008932693,0.06278691874,0.06620445855,0.06750994824,0.1060214983,0.4168118252,0.234620606,0.1493038665,0.2824622527,0.3649751547,0.7495274256,0.7200556341,0.6505132084,0.7875945804,0.3523284739,0.1373584828,0.05363437467,0.05726257563,0.04689480761,0.04284566152,0.0435210387,0.04286732334,0.05568859797,0.05839814862,0.06507550987,0.1119407095,0.268102152,0.5373168779,0.598276433,0.4010673329,0.779487566,0.7137388328,0.6065299167,0.6752268508,0.6325405999,0.238771464,0.2082841008,0.07616773913,0.05295702701,0.05000816553,0.05025935865,0.05686920139,0.06672240136,0.06102889767,0.05661394202,0.05333497923,0.06221114201,0.05459159413,0.05241517627,0.05242471861,0.0442848056,0.049411284,0.04471935003,0.06640028908,0.09007018811,0.07855588699,0.06166598675,0.05492669422,0.05406034605,0.07340384217,0.1705459432,0.4222329508,0.742714781,0.2162266572,0.2666171118,0.1978831097,0.6975307406,0.503450649,0.665426838,0.8265370642,0.4712391766,0.4653524568,0.4775587657,0.5642713685,0.5750380122,0.7409467175,0.5453408247,0.4813648567,0.4404839202,0.5657795879,0.6828071475,0.635262936,0.5070702943,0.4790357809,0.4405249593,0.359062,0.4235135872,0.2772405386,0.2267034548,0.2680231042,0.1990090744,0.202416167,0.1644198556,0.3154595945,0.7660479232,0.7642919901,0.8984968128,0.4880577444,0.7677957858,0.5352688668,0.734157979,0.7841918058,0.6166415819,0.7145594047,0.7759957724,0.7067851368,0.6607320979,0.5952627413,0.7386611766,0.9546613157,1.053501143,0.9360437088,1.01734104,1,1,1,1,1,1,1,1,NaN,NaN],
	"ap": [NaN,1,1,1,1,1,1,1,1,1,1,1,1,1,1,1,1,1,1,1,1,1,1,1,1,1,1,1,1,1,1,1,0.5645658586,0.4928810631,0.4398160064,0.2883891767,0.0930276155,0.08266671982,0.1186328629,0.1035921252,0.1049369517,0.07384890283,0.126512563,0.2646567486,0.2727365759,0.2767712705,0.1370650558,0.1784042316,0.2434083473,0.09339081403,0.1133267234,0.1837115717,0.2880341074,0.07264188778,0.2242981275,0.4008035015,0.2854584885,0.2426424726,0.1340344233,0.1207496651,0.3401478697,0.2026570926,0.2669651035,0.1148426442,0.3415793264,0.2078894287,0.4173629631,0.1624581974,0.3550204608,0.4706417281,0.175760169,0.1606178581,0.08551315419,0.736175661,0.4158107902,0.2587698539,0.3513117269,0.5587212518,0.4165559915,0.4401058036,0.1641439236,0.01334661424,0.002173332338,0.005343383456,0.01705679163,0.005391773494,0.01475082316,0.004074628273,0.01960467283,0.008448733052,0.0439462114,0.1930856529,0.2446749525,0.4706892598,0.2834045077,0.371146301,0.390793771,0.5380125024,0.4943066364,0.1811423645,0.01121520986,0.01008366907,0.009521732804,0.01727987279,0.01548446801,0.01723235506,0.03408728,0.008716561262,0.01029736654,0.006815227411,0.005624695139,0.1715751806,0.2899913593,0.40557273,0.3647577014,0.3853437795,0.5549566226,0.5014061306,0.3883450938,0.1522715228,0.04369424655,0.02349169376,0.01767006145,0.0165568023,0.01363101204,0.0488397777,0.01199186835,0.005558147952,0.00649980201,0.007633752305,0.004159651987,0.01305868627,0.03823230107,0.09989965069,0.2055102852,0.1892744274,0.6562802676,0.4178897111,0.4572205382,0.04457009162,0.01858518142,0.04492928406,0.1095548814,0.07602895568,0.02500804917,0.02107595659,0.03740976221,0.02297306798,0.02734735458,0.01426928981,0.006060124905,0.009904924646,0.01023544825,0.05393282711,0.1954715993,0.4694646089,0.7164790823,0.5228129312,0.5038699453,0.3623562374,0.5573959625,0.7039425388,0.1846040963,0.01853060369,0.02235022129,0.0708467463,0.02435394674,0.07077018922,0.01135963235,0.02934462708,0.02808355401,0.007715666871,0.01065830012,0.01267613252,0.1024972013,0.03704875004,0.08749679596,0.05453317689,0.6405518965,0.358875247,0.4553863329,0.2025708898,0.1189509719,0.1693942522,0.03275623577,0.195820878,0.1018128254,0.1922815141,0.058843937,0.02723298171,0.03080212894,0.05416536403,0.07431242886,0.02517924704,0.02566510258,0.02229189813,0.01914595819,0.04384824709,0.0275577616,0.0287214381,0.04408873806,0.05427587876,0.07740720608,0.03669663759,0.03697116639,0.04761898305,0.02312906008,0.03028152529,0.01466376628,0.0316063702,0.02620159112,0.03503444898,0.08114535725,0.06550350776,0.0943880274,0.1181185403,0.2005257054,0.2382337806,0.1048208739,0.3514074658,0.5894222478,0.4658795713,0.413457174,0.2145140526,0.03552146036,0.03908959826,0.05014610596,0.1045801564,0.06948057738,0.08578367095,0.0650064414,0.02464959299,0.02179153741,0.01604599486,0.03193606205,0.02390051247,0.009747573139,0.01759381212,0.01613264341,0.07088486682,0.03599377907,0.003963856243,0.02344666457,0.0253400977,0.02572330689,0.03958299444,0.02089464696,0.0206736373,0.02157222696,0.02850596829,0.03131913263,0.01560908498,0.00852324622,0.01418666759,0.01458131051,0.001540589,0.01439868503,0.06202963204,0.3046615007,0.3677131076,0.1312689765,0.5144841568,0.08434259021,0.3878493744,0.3140101538,0.0168507994,0.05149407841,0.03824812916,0.03701435742,0.1079864877,0.04442364986,0.05555193517,0.02683021044,0.007421499264,0.005661038842,0.02430822319,0.0760714563,0.05784656745,0.1651333187,0.6925028414,0.3635614882,0.3896760566,0.4123370143,0.2136217006,0.5113435946,0.6377815311,0.4912212893,0.1020691511,0.02103066094,0.01549335694,0.02451791282,0.01511321433,0.06546119871,0.03501404485,0.01777984319,0.06753809694,0.03780800844,0.01540621222,0.02565478164,0.04077425797,0.02185411667,0.01031013098,0.02097714333,0.02485595024,0.02260058931,0.009103144402,0.01643778932,0.0150003695,0.02998533836,0.03363485604,0.02311772931,0.06704467128,0.04681407016,0.0306780746,0.02927782685,0.2378238117,0.3089593758,0.4405571093,0.3204916945,0.5682130342,0.2759663348,0.4161595396,0.4501815251,0.5573735305,0.5951292264,0.1582133106,0.2144887387,0.2077238106,0.1317220679,0.1946905802,0.3575479297,0.4905912138,0.4567548966,0.3577953504,0.3516112185,0.3970585304,0.1885491188,0.4212600844,0.3900304383,0.2515354513,0.2528955608,0.3121823969,0.2081452737,0.7845619104,0.4457527272,0.4174517059,0.1798036666,0.4257803174,0.4413582035,0.4371229883,0.1212393238,0.0754960732,0.06925745194,0.09008083361,0.06047059479,0.06740930898,0.05846553578,0.06850038201,0.03767720779,0.02808269318,0.07183425689,0.1454013755,0.05150330321,0.3535661862,0.5150471295,0.3143943394,0.5416569488,0.5012776531,0.7560399855,0.434570222,0.03381994641,0.04376553774,0.08570006146,0.0631027641,0.04127998334,0.05637535277,0.02230003444,0.0252091801,0.01297214323,0.01034006234,0.01858263175,0.005103163074,0.01109890583,0.01189983939,0.1222290931,0.549504468,0.07444510064,0.439313627,0.5239852885,0.3659663279,0.02312322631,0.0283993732,0.01757823614,0.01296022395,0.008829875912,0.03404976275,0.08951478878,0.1340110622,0.2660275434,0.0813949261,0.08451526393,0.03383879904,0.0295487208,0.05820925919,0.02113526025,0.06780077132,0.5842509102,0.321578857,0.1190556713,0.5711355228,0.262939347,0.3236822093,0.02915328251,0.04378153488,0.03965241128,0.03040580217,0.01889464963,0.02903619737,0.03975079624,0.02684311593,0.0168688877,0.04021148128,0.1495015053,0.2915679654,0.1171082045,0.1613511315,0.1606244845,0.1527674987,0.1918585771,0.6348662488,0.400032472,0.4829718406,0.4986273173,0.09842070155,0.0225742559,0.04693579366,0.01832439874,0.01967994941,0.01790527457,0.01570099377,0.03231798126,0.04223689789,0.01728626068,0.1037857427,0.171915499,0.1629976589,0.394229112,0.1587973993,0.2691530088,0.17309187,0.3205108789,0.3457222046,0.526336189,0.1640977843,0.04942931555,0.01884309354,0.048031105,0.03192108877,0.02748602617,0.02004597126,0.04594962241,0.0288261624,0.01393714944,0.02410886274,0.0361684368,0.03081204933,0.02800719281,0.03710549658,0.01594912448,0.02915092307,0.01374754325,0.04168584537,0.05282564169,0.05017632748,0.03744624901,0.0304728208,0.02512586272,0.04623987898,0.06615943296,0.3999712487,0.1891284823,0.583358276,0.2093206405,0.2125418699,0.3038855406,0.395368018,0.6216156358,0.5412501929,0.8427260829,0.4538868109,0.113619615,0.4139667071,0.3462902271,0.542266419,0.5905413755,0.2274448595,0.3950235596,0.2779911799,0.3271588891,0.4947737791,0.2502650508,0.3636566691,0.0901395993,0.2080055134,0.3898176026,0.2454206355,0.09123005149,0.1275439156,0.1231731484,0.2038543501,0.1672203826,0.3972630161,0.5356266778,0.5000058412,0.5836901834,0.6482178428,0.7087988862,0.3586510102,0.1969601282,0.5200567796,0.3485226795,0.5092632581,0.5201209022,0.5000022252,0.5000113246,0.5000240791,0.5000043649,0.3509020726,0.5000062703,0.5000026822,1,1,1,1,1,1,1,1,NaN,NaN],
	"pwr": [NaN,0,0,0,0,0,0,0,0,0,0,0,0,0,0,0,0,0,0,0,0,0,0,0,0,0,0,0,0,0,0,0,8.816453468e-10,3.615042323e-07,3.406017976e-06,0.0002065288375,6.938382612e-06,1.448846396e-06,8.691205301e-06,6.294930814e-06,3.253531126e-06,1.943929319e-06,4.419474863e-07,1.396479243e-06,1.001071103e-06,1.387519296e-06,5.601636636e-07,3.97171339e-07,1.516873331e-06,1.404214257e-06,1.485060652e-06,9.294862796e-07,8.430153607e-07,1.131264357e-06,1.58630834e-06,1.317204058e-06,1.685866283e-06,1.148646953e-06,1.852778631e-06,2.865207046e-06,1.494546811e-06,1.545012294e-06,8.92555004e-07,3.637690513e-06,9.042351584e-07,6.698867986e-07,9.711374084e-06,4.353590068e-06,1.41188471e-05,8.837784871e-06,1.043145768e-05,6.158251464e-07,1.799387974e-06,2.863991981e-06,1.879664279e-06,5.621887299e-06,7.85621519e-06,2.269188579e-05,2.071635621e-05,3.167589943e-05,0.00413322232,0.02074323166,0.01709941503,0.01080673939,0.008354620841,0.007554867789,0.008918669692,0.009817132948,0.01200986726,0.006159071501,0.00626132954,0.001327189199,6.495933978e-05,6.004026987e-05,5.392866584e-05,5.118175001e-05,4.11207472e-05,4.801673632e-05,0.000215246891,0.01210558764,0.0318892489,0.01543584563,0.01111829706,0.006019284018,0.003995723698,0.003746023303,0.002214578487,0.003189636749,0.006563141608,0.008035639436,0.005250345556,0.002303398309,9.402805256e-05,3.689232016e-05,7.698893528e-05,1.323760252e-05,3.412929187e-05,9.059918146e-05,0.0003931277194,0.0224506101,0.03318546249,0.01882377531,0.01250886501,0.006175152214,0.00710366249,0.005953856987,0.007871752624,0.009075429349,0.009767039137,0.008093153536,0.006982950762,0.006018184955,0.004273281483,9.584760334e-05,5.371431518e-05,8.375279963e-06,9.035963549e-06,0.0004783611784,0.0002581454611,0.02856907599,0.01711643473,0.01309618113,0.003997627028,0.003325855221,0.009288326589,0.01306483261,0.01882412983,0.0211779726,0.01028863851,0.01003841896,0.01076394244,0.008507658844,0.009902281864,0.003031670366,0.002002543245,2.121899e-05,8.611278021e-06,5.164413295e-05,8.708120425e-05,7.103571102e-05,9.012210481e-05,6.478886718e-05,0.00536308988,0.03186259792,0.02302142908,0.01843485306,0.008784021222,0.006369926911,0.003597196829,0.002342532532,0.001609573593,0.004452587344,0.006404690866,0.002583750239,0.001896140319,0.0009961913251,0.0003028554109,0.000256077443,0.0001840943118,0.002502362872,0.3700383744,0.002749635746,0.005855637487,0.003255756584,0.003677296913,0.002030505476,0.002057779473,0.002551677938,0.004027708593,0.006203003955,0.003313977663,0.00346591754,0.002631763445,0.002193782381,0.002265330652,0.002470693701,0.002382377134,0.002950277225,0.003481154665,0.001888945299,0.0009578804543,0.0005368382764,0.001234011118,0.004570293229,0.007429261395,0.008610494147,0.006136707976,0.005369912066,0.004706492022,0.004213287856,0.002885479588,0.0016198942,0.001263193623,0.001521121349,0.002493292295,0.00236640867,0.001517161364,0.0006333226429,0.0002715835042,1.393565246e-06,1.65613866e-05,0.0001658195214,0.0003866349025,0.00167098923,0.01513647488,0.004489000041,0.003400314683,0.004831251529,0.002679117982,0.001397878624,0.00148762908,0.001497672368,0.002694093989,0.003247965718,0.005125667594,0.004607589444,0.005221850856,0.007126392894,0.00478022982,0.003161689534,0.002655905891,0.003142861196,0.004213578143,0.005395724347,0.009051695041,0.01005359214,0.004518346534,0.003035372487,0.002876762927,0.002716235346,0.003306406629,0.005437086671,0.007934673598,0.00738335303,0.007412410289,0.00925638833,0.006352041445,0.002985057658,0.0006766724159,8.230740681e-05,5.723306363e-05,1.635914338e-05,2.961607429e-05,0.0001218661475,0.003005394949,0.004740553623,0.004108581994,0.003948242378,0.003105477821,0.0022455497,0.002512890409,0.002903797875,0.002685226396,0.007192779847,0.01066666888,0.007635751445,0.004599759255,0.001434850464,0.0009692925162,0.0004066738087,0.0003921656911,3.208568755e-06,7.245432504e-06,1.231775977e-05,1.438678249e-05,2.356486422e-05,0.0001665031533,0.01145339885,0.01925847302,0.007030535315,0.005367825561,0.003815801738,0.002713262402,0.002421331342,0.00211595618,0.00277959773,0.003745191309,0.004747592249,0.005452582943,0.004623791096,0.003388748587,0.002358266261,0.002537905423,0.002561012816,0.001766107831,0.001568544588,0.002143223346,0.002471284583,0.002190272243,0.002303265171,0.0009245941596,0.0009698534444,0.0009549759723,0.0005838862562,0.0004738236441,5.261567079e-05,3.497655481e-05,8.116155858e-05,6.447453435e-06,7.190160072e-06,1.855732962e-06,4.060933392e-06,6.823874759e-06,1.390456381e-05,3.97974197e-06,6.364379941e-06,9.914522731e-07,2.391734046e-06,2.441952598e-06,1.343721812e-06,1.637466098e-06,1.042302964e-06,7.093436136e-07,1.911240803e-06,6.622351958e-06,3.781513364e-06,2.456951762e-06,2.184956376e-06,6.796291092e-06,8.655472374e-06,7.437151548e-06,4.431026382e-07,5.844675956e-07,1.360443163e-06,8.215343454e-06,0.0001163626883,6.084541303e-05,0.0001165675795,4.648019235e-05,7.126196536e-05,0.004692677819,0.007388360543,0.01349690962,0.004349368816,0.004317160233,0.002221453229,0.001269588765,0.0009198733191,0.00130229166,0.002275560265,0.002543093542,0.00194182889,0.002487962888,0.0003015495276,1.019136243e-05,5.638001069e-06,1.777530133e-05,9.79845808e-05,0.0001629337834,0.001629307284,0.0342048487,0.02192758403,0.004744068048,0.003908449661,0.004736929966,0.006637613123,0.008559120173,0.009693124817,0.01208696858,0.007504584398,0.006170027295,0.007505357622,0.006061393611,0.006801256562,0.004436129868,0.0006255382956,4.374232347e-05,1.715132695e-05,7.534434449e-05,0.0008003715205,0.04002264058,0.02555910417,0.0165998075,0.008154232136,0.006082005463,0.004175641456,0.00272384513,0.002243289337,0.001859696275,0.002208415444,0.002205517601,0.002606273175,0.00239002434,0.003506098792,0.004262132616,0.002620058613,0.000800210138,3.79846105e-06,1.428283931e-05,1.176028993e-05,0.0002195280069,0.006487655536,0.01068328766,0.00647099605,0.004284212498,0.00335482184,0.002788061377,0.00264601234,0.001914164013,0.002300743695,0.003135425976,0.003426103541,0.002563674202,0.001961860976,0.002756258925,0.0001776584977,1.728847214e-06,2.315796398e-05,2.712621176e-06,7.608585701e-06,6.870574658e-06,4.143290217e-06,1.577662782e-05,0.002416749422,0.003781543602,0.003082869351,0.002180361381,0.001683728763,0.001648966603,0.0009467561721,0.0008578447526,0.0009905158379,0.001241626952,0.001597266815,0.0003369887148,6.054473141e-05,8.190689222e-05,0.0001246230785,3.323169614e-05,5.649831747e-05,1.442846351e-05,2.481338417e-05,6.555233669e-06,0.0002100899331,0.02134498736,0.004728922747,0.002395329553,0.002034243922,0.001620900242,0.0008477230834,0.0009035001819,0.0009635955475,0.001564613845,0.001652882871,0.001473751324,0.001348779369,0.001245559438,0.001165981939,0.001390724465,0.001865051189,0.001505716023,0.001132115416,0.00106011284,0.00097674985,0.0009808723025,0.0009934346435,0.001052420628,0.000954621184,0.0004509705753,0.0002923328382,0.00014233447,5.95356687e-06,3.224445796e-06,2.463295907e-06,6.377016305e-08,1.08290138e-07,1.692085593e-07,9.615157394e-07,2.285271781e-06,8.515772545e-06,7.256786258e-06,3.002880868e-06,3.546717004e-06,1.276760207e-05,1.371312921e-05,4.890993804e-06,1.056806748e-05,9.263137098e-06,1.969831946e-06,4.125115366e-06,1.728989065e-06,2.324585481e-06,2.712311019e-06,1.270601864e-06,1.10688342e-06,4.734512945e-07,1.480660893e-06,1.983757634e-06,7.259730361e-07,4.339242878e-07,4.67616707e-07,1.956021926e-09,1.393888976e-10,9.503291578e-12,8.873862097e-11,2.346903305e-10,9.772271208e-10,5.085464758e-10,1.001330748e-09,3.238400999e-10,1.545418024e-11,1.968077894e-11,4.889999198e-12,2.463816335e-12,2.450848881e-12,2.305253898e-12,0,1.176876204e-11,8.852876185e-12,0,0,0,0,0,0,0,0,0,NaN,NaN],
	"sr": 16000,
	"range": [1,172800],
	"minf0": 63.1883,
	"maxf0": 706.3069,
	"thresh": 0.1,
	"relflag": 1,
	"hop": 320,
	"bufsize": 10000,
	"wsize": 640,
	"lpf": 4000,
	"shift": 0,
	"plotthreshold": 0.2
}
