{
	"f0": [NaN,51.80801884,51.15306933,50.97508853,52.94335168,52.75022862,45.42344381,45.40724733,46.44382613,44.44074969,53.06392045,52.72036593,52.85307697,53.26581863,51.99498362,49.68010446,54.22194968,54.14218781,54.31258866,54.70680108,55.16996542,55.669505,56.02354315,56.13095156,56.20726097,56.25311895,56.11792917,55.86184641,55.7082381,55.76865802,56.02466705,56.26084081,56.35045383,56.22011381,53.50394714,54.71262168,55.78826823,45.73669475,72.293835,65.25029025,55.34995772,56.01165637,56.75145247,56.68138797,56.42461032,55.99230917,55.75218101,55.67937927,55.56851896,55.53208498,55.54803026,55.75717787,55.94135761,55.95744938,55.97343796,56.93520015,56.69965447,76.15085963,76.65710565,68.44252468,58.49280107,58.50323919,58.72855961,58.73127856,58.63286776,70.55305931,58.49607517,58.71293563,58.99389597,59.07619996,59.10376642,59.13353382,59.01082714,58.86399321,58.71772029,58.20505838,58.43551045,42.32884994,50.15555759,61.7689969,64.01804079,59.0928569,58.49258838,58.33781109,58.30134356,70.35744444,70.45815741,70.53968211,70.48209049,58.57717587,58.85476901,59.05310021,59.03678545,58.82797256,58.72019015,58.68088737,58.69903359,58.7358674,58.16354076,57.47407977,57.22615759,56.93520015,57.00452119,56.93267155,57.23542519,57.39500799,57.15320191,57.18077945,57.25799503,57.24741791,57.20248567,57.39177587,57.49430793,57.61221456,57.76169168,57.95751136,58.42002457,56.44946738,56.69965447,61.75105405,76.77774912,76.72580606,71.26585885,71.0213033,51.74772965,54.90130637,56.39668208,56.93520015,56.47221785,56.68832551,57.23105879,57.1895495,56.97953043,56.76829219,56.58444652,56.51346687,56.45387128,56.34804373,56.40175613,56.5236774,56.79778218,57.35639613,57.94969473,58.06222486,57.8386248,57.61742168,57.60478364,57.71368233,57.82220284,58.02563199,58.1272217,58.05714589,57.75623663,57.60209065,57.49834643,57.40472596,57.27543781,57.1813119,57.50777538,57.86559918,57.96067057,57.62181245,57.43771616,57.17762977,56.85132113,57.69974264,57.9187484,58.01141185,57.66169865,56.4017014,56.71238541,56.63870874,47.24000621,47.21579218,68.69965447,72.41705785,45.85045048,46.01278926,54.2384525,47.89817477,49.30009372,48.01657068,43.89219597,47.69102279,59.48573577,54.94829592,54.87633922,54.71262168,52.01414075,48.620723,48.0442468,46.91928164,44.02440757,41.59694789,43.62974262,43.34995772,61.25497827,59.76117626,59.07097096,58.35652951,57.48940858,57.03701845,56.84371309,56.82715695,56.87203671,57.19837283,57.8181615,57.86325449,57.7081587,57.67361224,57.69644157,59.3827961,59.46382831,76.93035138,76.93035138,76.93035138,58.94791393,58.52420283,58.10980542,57.83140022,57.64626364,57.41885304,75.34420524,76.19354484,76.28282292,57.4761253,57.78504238,57.66048358,57.34464735,75.74767885,77.01078452,76.19354484,74.80781824,74.80781824,73.87244898,51.50758143,50.99548012,51.41401131,51.4646914,51.56827878,51.96370138,52.33403129,52.11269081,52.34180167,52.45971235,52.39981365,52.52380924,52.67734299,52.84683123,53.11955917,52.37482755,43.56772588,47.37042634,50.78731575,51.5966215,52.19354484,52.36590039,54.30040362,54.96196954,54.98333833,54.4983252,54.03708246,53.88764308,53.96179929,53.98766041,54.02744987,54.17287895,54.33944125,54.69410319,54.92420317,55.23320906,55.52577727,55.32427973,54.82763639,53.48245154,74.62285292,72.99140985,72.78364041,74.92165487,38.46449188,47.32309719,53.76299576,53.73633236,53.99701506,54.22758225,54.08660366,53.93008916,53.85106699,53.83690818,53.90087981,53.94053013,53.91423699,53.99815089,54.19714609,54.41115766,55.34995772,46.09389462,51.31455706,47.50482426,37.99488296,37.99488296,54.42103456,54.44536104,54.44016639,54.39435189,54.31028059,54.21311916,54.10662618,53.98948491,53.92069122,53.89241876,53.88196475,53.88989545,53.95173249,54.05707057,53.96283152,53.71355956,53.2338673,52.53130412,51.98770794,51.79610417,51.73044581,51.60475862,51.61613364,52.49690893,52.94466103,53.00897479,52.9923565,53.02798202,53.24955469,53.3108577,54.50528578,53.50429368,51.31455706,51.27204656,46.80923143,54.84586938,54.93584382,54.69972508,54.13766349,53.80143976,53.60813296,53.92840628,54.16127203,54.24887158,54.24131007,54.08922677,53.91995107,53.8571949,53.36212899,48.34513092,53.1617278,69.85535702,69.61991849,77.31059404,44.04559736,47.73107346,48.55548133,46.54687073,47.95832551,47.40043112,52.01414075,52.74318912,54.85886674,51.64326227,68.00575702,76.93035138,69.64095652,69.74361711,63.83657672,63.83657672,44.32039487,44.615715,53.97709062,54.02894713,54.46478229,54.17505946,54.13587611,53.98041098,54.27718653,49.68010446,49.47677618,50.31549102,51.10974167,51.31455706,50.60710341,43.87443472,49.21841468,49.06721424,49.68010446,50.12641513,58.81201884,76.93035138,76.93035138,NaN,NaN],
	"ap0": [NaN,0.7369507118,0.553974897,0.6512073931,0.7508946063,0.748721461,0.5919737807,0.3567974837,0.3770754039,0.7008466106,0.4763060506,0.3894108078,0.3656416833,0.5143306935,0.6446775994,0.7369452342,0.4544004271,0.05296856905,0.01613250169,0.01141103709,0.01180713839,0.01261236593,0.01141753865,0.0109039554,0.01179318896,0.008895215768,0.0147659562,0.01339529016,0.006039058235,0.008714273346,0.01293934848,0.0409964368,0.1183547046,0.3938914651,0.6268859735,0.4445039075,0.3490719179,0.7424092687,0.6920968604,0.4894920462,1.024797528,0.6355130503,0.09782542096,0.04737367147,0.02582790657,0.02184345219,0.01876291046,0.0142631773,0.01599992796,0.01950617088,0.01799868043,0.0191366647,0.0141774633,0.03522861036,0.1382239126,0.4504142261,0.470327697,0.7631386329,0.7090620764,1.025270577,0.1269757799,0.06232000921,0.0399207142,0.02175603714,0.02125871335,0.08043130458,0.06147536912,0.09219530755,0.0857204891,0.0824529967,0.06131570937,0.04352007957,0.04573584278,0.04773060679,0.09727614184,0.206323321,0.4578607203,0.3374896378,0.831127376,0.7696311889,0.5901113267,0.3420200361,0.1670520235,0.0484669277,0.02951316683,0.09875014046,0.039466738,0.04595432283,0.1349489414,0.05309990605,0.04262679061,0.03169184647,0.02602830628,0.01824379373,0.01421962315,0.02496699734,0.06309737381,0.1887701949,0.4084988425,0.3288531883,0.2840594295,0.2949950719,0.2383885812,0.2512296952,0.2631463561,0.08551015093,0.08031711174,0.05668730581,0.051432649,0.07692848218,0.1243787879,0.1320931358,0.1005912894,0.1140660163,0.1751381227,0.2759551188,0.61066206,0.4659347629,0.3348759108,0.7752185267,0.7400988763,0.7187033308,0.7892379308,0.7806618404,0.6853140685,0.8098713996,0.5310029111,0.1920030032,0.04874008849,0.03476020381,0.02079666476,0.03602935184,0.04799801752,0.04677635278,0.03559522798,0.03076410211,0.05021997024,0.05032798696,0.03882882332,0.04791870064,0.1617740421,0.2365906228,0.150157144,0.1364080137,0.1842435218,0.1273985974,0.08920455435,0.07811661577,0.03725167858,0.02496406991,0.01998617239,0.03610158339,0.05523806545,0.03574556172,0.05453912557,0.1054889959,0.1035679852,0.07139164114,0.09550039599,0.09837499267,0.1041800212,0.1223267383,0.1038129687,0.1054462735,0.1458586788,0.2227399473,0.1505953508,0.1712411152,0.5487381786,0.4593822995,0.3013220154,0.4298641219,0.5323073104,0.6556625529,0.7033348297,0.6891879023,0.5877221725,0.7266177245,0.7091192974,0.6625015128,0.3787959852,0.6611448025,0.4838057355,0.7607117658,0.5813749933,0.4198190212,0.3728746939,0.5834975021,0.5069070906,0.4909836261,0.6962381297,0.6481985301,0.5713072185,0.7118224741,0.7085166912,0.6540307437,0.5156298838,0.4049818566,0.3217821267,0.3762201119,0.460917019,0.3328858324,0.264787442,0.3779166348,0.2496326559,0.2137539165,0.3321511074,0.293214333,0.1865022495,0.1024046972,0.1775214959,0.5089162711,0.4837698443,0.4855342025,0.5275801401,0.5462361123,0.2682699863,0.07058918225,0.08688594862,0.0959519972,0.13716785,0.3870018376,0.3950500724,0.4320261938,0.4658941712,0.4996378806,0.3532199589,0.2128075076,0.4687011206,0.3497325514,0.5417585355,0.6631998169,0.4966929259,0.5143149455,0.7828398052,0.2438331061,0.174140307,0.5295411454,0.1579172535,0.09795592904,0.07218843956,0.0235734991,0.02735892596,0.0649868529,0.05684860742,0.06803959998,0.06481837805,0.05195398935,0.07883350681,0.1736486552,0.5687097346,0.6467261941,0.8647809953,0.4946763057,0.2536516981,0.1916529184,0.3943538534,0.6250084324,0.2197145354,0.1891449942,0.2477459798,0.1868355346,0.1444324179,0.2293999204,0.1776923732,0.05844426529,0.08069735669,0.08170910494,0.08404447754,0.09926380125,0.09252791375,0.06911834888,0.1228333774,0.4231765014,0.6824099473,0.5942840319,0.6153544312,0.6256326105,0.8024335763,0.7799040261,0.9067848915,0.09130773524,0.02667036401,0.02060924187,0.009819909321,0.0116035947,0.0137744133,0.01475725438,0.01134074463,0.01243176961,0.02120952129,0.02620172872,0.02597077285,0.0350422063,0.1021790133,0.3913101333,0.8697981903,0.4847238318,0.4612984336,0.6865669101,0.5128479055,0.2306347035,0.04700765377,0.03024678428,0.02586297852,0.01620552605,0.02817919487,0.04818178852,0.04184441779,0.07605425142,0.06839231299,0.04200787014,0.04027364394,0.02906013013,0.02131868136,0.03471396242,0.07480404596,0.1970854419,0.2442737086,0.1655418194,0.0558668945,0.02528266758,0.02264233658,0.03961431157,0.1199441494,0.07957251395,0.06216656874,0.08119772283,0.1265508766,0.2801559069,0.3284399182,0.4060522277,0.3953175491,0.3721136524,0.5670187573,0.5796144484,0.2496586192,0.1279118837,0.09636981617,0.1027177121,0.07776018262,0.07993926746,0.1360866654,0.07447512686,0.0488196522,0.04525580287,0.06528225471,0.0948370957,0.1795670769,0.4300966233,0.6697758922,0.7003815498,0.6114976778,0.7515214783,0.740785987,0.6287982081,0.6568741429,0.6875068029,0.7217823726,0.4894017118,0.6868177335,0.5505542064,0.5601419043,0.4057315254,0.6544818928,0.3751370164,0.8067291982,0.3800229293,0.6126837004,0.5228079898,0.5890249829,0.5668784986,0.6199769313,0.3612631558,0.2870587984,0.4454545784,0.1902883939,0.1864308813,0.2966030777,0.5913300814,0.5089090916,0.2883485158,0.6542550308,0.6812178696,0.5081816113,0.6841472476,0.7492423526,0.6224846896,0.4473958724,0.4801926714,0.4131231638,2.08,1,1,NaN,NaN],
	"ap": [NaN,0.3563554856,0.2685977672,0.3719195939,0.5594275226,0.4126779128,0.596132599,0.5236836345,0.2136088878,0.3229779221,0.7041510684,0.1770800709,0.04923875556,0.5492809052,0.1141034838,0.5452482591,0.3895605504,0.4858627273,0.1607740466,0.02094868979,0.007464769571,0.01971932457,0.01336984616,0.004360538222,0.006966484667,0.008637694601,0.00657096554,0.01381223818,0.0353603724,0.001110384942,0.00177991942,0.006589292472,0.005768460078,0.06578904148,0.1954437383,0.444107147,0.5442603273,0.4310877019,0.4157001957,0.7446584837,0.5232020704,0.7266264321,0.7133972246,0.08797051168,0.005427355012,0.03898436577,0.002378800113,0.004676455041,0.00483478646,0.002746959543,0.01050766022,0.01290161573,0.01235292234,0.005075782688,0.004320733331,0.06533912764,0.331358265,0.34428772,0.6399980557,0.5145024105,0.448820553,0.3813503532,0.03834116471,0.01228919605,0.01466127181,0.02597680495,0.02368933267,0.007224987698,0.08608920108,0.01274694717,0.02371859178,0.03998235908,0.009714175127,0.04308771363,0.04843998196,0.05780112186,0.1210123649,0.06332688748,0.7073381102,0.8749934283,0.3146080733,0.4374368329,0.8226428158,0.1107860878,0.01415903436,0.3238620935,0.09369727972,0.01548892158,0.02000286963,0.02878529102,0.04093553982,0.03234353081,0.02019890238,0.02612053599,0.005365742829,0.005028212098,0.002969671999,0.009341576385,0.1833813261,0.3618688891,0.1141018741,0.02231715675,0.09170217509,0.2350291623,0.06749347364,0.1226930779,0.02671376118,0.09883539222,0.04227432717,0.03930809826,0.03515523077,0.06745123885,0.06453305222,0.01742989484,0.03280896735,0.046491355,0.3798852798,0.1995285822,0.5675009819,0.5495291303,0.1100507421,0.4699607407,0.3516510153,0.3107524855,0.3075821582,0.4813637279,0.4624149261,0.3051026986,0.1820564613,0.07028465922,0.02114175705,0.009065252379,0.03564445689,0.04122741192,0.05944188666,0.01111268957,0.008006940927,0.02949810101,0.03311729559,0.03148894529,0.01920879198,0.1415301184,0.1189249826,0.2265568535,0.04756294866,0.1186790675,0.07288988684,0.04476673238,0.04233026429,0.02380108071,0.004788919097,0.01133453798,0.01189992675,0.04946101976,0.01982279859,0.01281553305,0.04435383457,0.01282526029,0.02439032492,0.03018604862,0.01922684792,0.03363454465,0.06453738874,0.03528755709,0.06728929531,0.0568305681,0.2460437709,0.06632352117,0.07062074511,0.2189120534,0.3475499311,0.1354460425,0.3632032005,0.339461097,0.3915129522,0.6418026734,0.5180129523,0.2813037623,0.8419023075,0.4915491801,0.1931385629,0.2799562049,0.1981741698,0.2995455764,0.318598727,0.4908123304,0.250024102,0.1197126808,0.5581143342,0.3969520848,0.4179655412,0.2917655235,0.3983801614,0.3589698841,0.5895920777,0.3835036745,0.4709921875,0.3310078225,0.2703518123,0.1319723968,0.3930011833,0.5168326148,0.06912015918,0.04991904746,0.1585704481,0.120185576,0.08026540623,0.2831636205,0.1229999254,0.06886881596,0.02296421564,0.1136514934,0.3341596145,0.2389832532,0.04738238629,0.3853333689,0.3493296386,0.4058879742,0.1648376737,0.05602323548,0.08396025321,0.03829347401,0.2046126016,0.2268888062,0.1545082452,0.06408330314,0.260920518,0.3253301541,0.09770496494,0.2045149717,0.1662355934,0.6990472398,0.7181543912,0.5153014959,0.3007413576,0.3018713149,0.07748338974,0.05633147951,0.5281156122,0.2270408499,0.07180998233,0.02105292539,0.0188869373,0.01181989681,0.04604063542,0.0375228176,0.02045539388,0.02679401712,0.01562420947,0.03805506289,0.09020811381,0.3197153882,0.3718705445,0.435818285,0.3582522413,0.1385141138,0.1227328238,0.1732061164,0.4070748974,0.3798700081,0.1272242909,0.2590561499,0.07566118085,0.06360661521,0.1076624522,0.2168451669,0.01970365544,0.03762527241,0.06838911187,0.04588947097,0.0724612983,0.0571665527,0.03535601465,0.2605451266,0.1096648555,0.37806447,0.2440939605,0.2002408593,0.5942552468,0.4483733826,0.6204785185,0.4961433058,0.5175621391,0.005665329025,0.003334426644,0.004714011442,0.01254878557,0.009398406128,0.01108993894,0.006138556313,0.002796421278,0.009416335966,0.006169485031,0.01347613323,0.003318384625,0.07504366803,0.6224163942,0.2421700651,0.3979575462,0.4193847064,0.2428030347,0.3663535679,0.4176559479,0.05986328395,0.01339905901,0.01471608173,0.01927389876,0.01542162599,0.02229401434,0.03651500706,0.02759204484,0.02565222806,0.01444442699,0.02318983856,0.0129064847,0.007316482384,0.01947795053,0.04497719037,0.2130184271,0.1560910557,0.1250561241,0.04826510866,0.01472327317,0.01164313055,0.09229158507,0.08810321994,0.03187712828,0.01604040657,0.05593687433,0.1476206373,0.1359490143,0.0766886004,0.2208986823,0.3769157969,0.08979738499,0.5738140219,0.7575937587,0.5802393626,0.06974289739,0.1014963091,0.03669306693,0.02867153425,0.02563830811,0.135557097,0.0477598743,0.04684428158,0.03216365139,0.06351163531,0.03353931506,0.09069751355,0.451515767,0.6251612238,0.2300895759,0.6864640316,0.7372554357,0.3721525432,0.3688141364,0.3755980578,0.174730419,0.4281354118,0.3710292606,0.4951012641,0.3325521834,0.3947568672,0.3650215799,0.6114917247,0.2474507186,0.7012397547,1,0.5128467739,0.2388111988,0.1863232118,0.1760346754,0.3160187685,0.144202218,0.1397311536,0.3065290039,0.1007824436,0.05647737412,0.1858231756,0.5364737846,0.1488381622,0.1719932145,0.3853611729,0.1019743291,0.4329299067,0.2811339767,0.3275262598,0.5092422437,0.1325944925,0.3219758965,0.4539238826,1,1,NaN,NaN],
	"pwr": [NaN,8.880828821e-05,1.742617874e-05,1.414209769e-05,1.790078134e-05,1.008181903e-05,1.725472217e-05,8.834212247e-06,4.437692078e-05,2.962676827e-05,1.469219628e-05,3.424619295e-05,4.126337351e-05,4.968775283e-06,1.098292056e-05,1.178654005e-05,1.911972358e-05,3.152219164e-05,0.00161487824,0.0302120389,0.02560541167,0.01716618886,0.01318262388,0.01495048484,0.02216146423,0.02785230592,0.0126082195,0.01344781967,0.01120416111,0.01727621953,0.01766142556,0.01006141907,0.01183757796,0.01318706735,0.0008210796445,0.0007369561354,0.0005081002436,0.000118935413,0.0003548143951,0.001570538953,0.002446184929,0.0002013448499,0.0004522767007,0.002997662702,0.04368497371,0.02448066689,0.01922685555,0.01508402162,0.01403477926,0.01228991413,0.009506098884,0.009062466318,0.01196919482,0.01553887608,0.01231078918,0.007818763405,0.0003826220094,3.536638972e-05,3.922878967e-05,6.789284781e-05,0.0003205451317,0.0002040477094,0.01600063384,0.06454078849,0.1144097241,0.3056295007,0.09693291716,0.01341959272,0.02630155371,0.02219205038,0.03698086967,0.03570979325,0.03099866757,0.06230042417,0.08425138662,0.05539943849,0.008795815527,0.0004182289991,7.049209891e-05,6.072975016e-06,3.817010933e-06,2.974172777e-05,0.002510469012,0.07207928345,0.07297362862,0.0644463283,0.04074702896,0.1282025096,0.03393985656,0.007472016944,0.01665042483,0.02512190202,0.05695427971,0.08882402109,0.08137291426,0.1105055617,0.0970176993,0.1173895491,0.0622160561,0.01115133071,0.01128820157,0.009334959982,0.02266139541,0.01961356011,0.01734919041,0.007808937816,0.01108218503,0.01031012647,0.03542575422,0.04174010355,0.02115513893,0.01514534671,0.007830893218,0.01446494452,0.01549434708,0.01803347628,0.01381220452,0.002968453763,0.001188582004,0.0008950114439,0.0002148623011,9.801382927e-05,0.0003303574819,9.074340189e-05,0.0001000922672,8.830527342e-05,3.372806588e-05,9.212538214e-05,0.0006372517348,0.004980160851,0.03003223933,0.01025642673,0.007757915144,0.01230500695,0.01881113441,0.02636341285,0.01434652042,0.008378049758,0.01004126061,0.007733699981,0.00569386857,0.003188751605,0.001957646841,0.009464729423,0.02196466301,0.01359824961,0.007308957624,0.0124621274,0.006855354009,0.006291015363,0.006741916834,0.01164234532,0.01030440377,0.006855315323,0.007428401641,0.006739199017,0.006733122426,0.004838354288,0.005171881485,0.003025713279,0.005916538636,0.008291519168,0.003986837821,0.006823074456,0.004088900077,0.002606832233,0.002192235515,0.006598543837,0.002941040273,0.0004930698865,0.0004345324323,0.0001358650793,6.498585679e-06,2.698898999e-05,6.571991174e-05,1.589600375e-05,4.056776058e-05,3.772427884e-05,4.183544284e-05,3.638138594e-05,7.463012574e-05,6.73076117e-05,0.0006695335929,5.96253067e-05,2.195572551e-05,3.655542212e-05,1.991479796e-05,7.289192493e-05,3.264320009e-05,5.127821316e-06,1.345932308e-05,7.315773994e-05,1.599486722e-05,2.816308822e-05,8.778685174e-05,0.0001762895816,0.0003656268731,4.409091895e-05,0.003603206334,0.03382319279,0.02999743977,0.02621684969,0.02622142329,0.01389194219,0.004721089715,0.006187732722,0.0020047849,0.002696632617,0.00606499405,0.00524900799,0.005162887858,0.002163585781,0.001722619066,0.02750233168,0.003582795839,0.001933743145,0.001884371556,0.0005558697623,0.009204163477,0.09449473483,0.05716122134,0.04165065443,0.0324397941,0.008375179294,0.06856473635,0.01268798896,0.003667843544,0.005569034635,0.01307338948,0.02192539546,0.04234699238,0.05113293769,0.02178025138,0.1070603057,0.03535214041,0.00653420051,0.001840138124,0.001495800158,0.0007903349017,0.005404942367,0.04086629589,0.03461340987,0.01751087689,0.01130140578,0.007063764296,0.007875932839,0.01390235179,0.0144441471,0.008267145063,0.00512319284,0.001457652271,0.0001828223154,2.3651531e-05,4.213712625e-06,1.012692041e-05,5.297239659e-05,0.0001410558961,0.0003245235434,0.0007789576766,0.003546194343,0.05294825817,0.05622679359,0.02754441562,0.01825930782,0.01669357821,0.01355747284,0.01123200687,0.01567399642,0.0177092282,0.01635917662,0.01851182677,0.02852509499,0.02100065689,0.003678260565,0.0006722253269,0.0001264916253,0.0002663943093,0.0008195871947,0.0003717521657,0.0001441608562,0.0001007315511,0.0001128885137,0.0004032511941,0.01587331991,0.0154840555,0.02413513777,0.02376361953,0.02574188621,0.01387362724,0.006910630718,0.004713489041,0.005536605547,0.009235142514,0.009021635894,0.004979148576,0.001492051716,3.37110057e-05,5.646002488e-06,1.680926133e-05,0.0009670192798,0.008274798261,0.001705651955,0.0005756740233,0.00502147271,0.03704729286,0.02058446542,0.01947460781,0.01232542485,0.008916969124,0.006662974056,0.007346046428,0.007973328603,0.009944144353,0.01482040394,0.01988373339,0.02227347125,0.03214521727,0.03042426506,0.01306253018,0.003683126813,0.001629560605,0.00235424394,0.005430398534,0.008837953003,0.009649452518,0.0190135912,0.08609963806,0.1139918291,0.1036619948,0.03241464922,0.01043581565,0.007481373894,0.0005045849765,0.0001662074799,0.0002811462236,0.0002736722667,0.000578272247,0.02322030722,0.1359896328,0.07295982722,0.04771239306,0.02814944162,0.0174114246,0.008567783109,0.01491155918,0.02626632578,0.02885640542,0.0311956024,0.0175347952,0.003296357007,0.0001041767128,4.534835884e-06,6.72634515e-07,1.864873009e-06,3.973644991e-05,4.062071298e-05,7.14151694e-05,5.042174309e-05,6.189443909e-05,3.238846794e-05,4.309519122e-05,0.0001022253682,5.553050845e-05,0.002134520472,6.409566018e-05,5.215569686e-06,1.389740804e-06,2.3073163e-09,0,6.285239467e-09,1.11932144e-07,6.635459457e-07,4.821636249e-07,1.131125289e-07,9.263720288e-08,8.433942852e-08,2.648034659e-08,7.189030367e-09,7.210259407e-09,5.78021711e-09,9.930436709e-09,6.106895161e-09,3.942889031e-09,1.98275868e-09,1.828066341e-09,4.835296855e-10,4.972337873e-10,3.35970534e-10,3.209013654e-10,6.145889963e-10,1.018264131e-09,1.15082322e-10,0,0,NaN,NaN],
	"sr": 16000,
	"range": [1,126720],
	"minf0": 63.1883,
	"maxf0": 706.3069,
	"thresh": 0.1,
	"relflag": 1,
	"hop": 320,
	"bufsize": 10000,
	"wsize": 640,
	"lpf": 4000,
	"shift": 0,
	"plotthreshold": 0.2
}
