{
	"f0": [NaN,47.1851779,47.3384789,47.8845561,44.01165637,50.87671905,44.48878696,44.9965302,45.32219123,46.43265156,44.73612308,49.51074426,48.46160497,47.9203397,47.8108424,46.03293472,54.90967781,53.89322095,53.17058582,52.87526969,51.61352433,51.31455706,51.58910953,50.64214864,50.80781824,51.03888766,51.00882142,51.48682058,45.91080137,45.30358745,46.19686116,68.61257992,68.8535121,58.9446811,56.93520015,54.68555403,53.49115389,53.81366201,54.04966649,54.24164086,54.34241994,54.32859503,54.41124117,54.42502528,54.36707806,54.39256183,54.3363301,54.71262168,50.80781824,68.76579348,45.71824064,44.13610513,70.28021873,73.13345082,71.37599437,71.09482909,71.31323271,55.90244869,53.00403961,53.17034851,53.2527464,53.33805529,53.32226331,53.20972331,53.24186213,53.27216362,53.22379399,53.23427679,53.30559788,53.26788993,53.07871293,53.006871,52.92699994,51.86644314,51.73833707,70.68036542,68.66325295,52.04759997,53.28449759,53.48676031,53.53819077,53.30042532,52.68837514,71.76273913,72.91732291,53.64132375,53.8977729,54.03462582,54.52699356,54.55154567,54.55981126,54.71055176,54.03083384,53.62637918,52.55999503,49.99488296,43.34995772,42.88597547,48.60604665,48.28867732,49.09825147,49.43004034,50.24489241,50.23976774,69.44568437,70.68036542,72.33040771,50.51510548,50.56987143,50.66320757,50.76284941,50.74742643,50.59175919,50.12758981,50.19078836,50.57491047,50.62425126,39.01352368,51.07272084,50.88715743,51.11654662,44.33650531,45.76774884,65.0945992,65.35992031,72.91732291,71.22144373,70.67300175,50.10588149,49.55111838,47.25557706,47.08426785,44.48104187,64.6273039,60.08130074,60.33040771,52.22708661,42.74622891,56.21341826,56.42859917,48.89688651,45.03031806,45.2113258,45.54723683,72.33040771,69.66169865,69.14631425,63.7940083,51.18829623,51.3227093,51.25759474,50.96710193,51.17285734,69.64016715,69.48811524,69.78512779,50.79516266,50.97508853,70.68036542,69.95019437,69.21660328,69.10909301,67.35030382,46.80612793,56.63083084,40.89462269,73.16734731,44.89175252,51.98335941,52.37482755,51.47400596,51.39409143,51.27346146,50.99285156,50.77992373,50.72188476,51.00980305,51.22897665,51.31881398,51.31233835,51.09083806,51.14965179,70.24230096,51.00631874,50.80781824,51.25194316,51.2742872,51.3194328,52.61213347,53.11955917,53.34446614,53.26507657,52.93968997,52.65680354,73.33376202,73.32920849,73.52483579,52.41034646,54.64945061,54.84779242,76.9077493,77.03490441,74.87971088,74.82200099,74.21832648,74.05957214,72.74775114,61.5877983,61.53891511,60.35750151,60.48100173,61.17746647,61.51396445,61.23812518,61.10366225,61.50721911,61.83677829,74.25652537,74.15444483,73.68863371,62.26163476,62.40421094,62.42217911,62.01011232,62.29130578,62.44935511,62.4151385,62.56084164,62.72825409,62.73347362,62.76392495,63.10633553,61.28655545,60.83712282,60.15017908,59.38489158,58.98854318,59.19368617,59.73642916,73.51518451,61.27938256,61.10511882,60.9000946,60.6644806,72.98242729,60.23712708,60.19936036,61.63398639,62.04691322,61.85092053,74.80781824,61.88281975,61.27402653,61.0111937,60.83007066,60.73781905,60.67438076,60.88121866,61.78552957,61.5466404,61.22796011,61.30570296,61.11254595,60.97912469,61.3498407,61.41948444,61.25153775,60.93462978,61.15385193,61.59643086,62.15444483,61.50977738,61.14157464,61.12824421,61.04518798,60.94528199,61.00965139,61.16538945,61.11192876,61.14981522,61.22477647,61.13298592,61.12401333,61.21355973,61.13190934,60.97876222,61.05403484,61.2265895,61.18605761,61.17281194,61.16659373,61.25857701,61.32627331,61.29357422,61.34317614,61.34067796,61.30731355,61.30014489,61.22754359,61.12714533,61.11466915,61.13211404,61.22559237,61.31874611,61.27160135,61.1909675,61.14315737,61.1434604,61.19532251,61.20556008,61.24315833,61.24382458,61.15542738,61.08560817,61.09736015,61.15418274,61.27331799,61.3462545,61.33111754,61.19205468,61.01070317,60.81903079,60.89070855,61.04002855,61.04725367,61.28473459,61.3381195,61.26929428,61.25009752,61.14138302,61.06434793,61.00063149,61.02273585,61.18346469,61.3107952,61.34818165,61.33509305,60.64656952,59.95120431,45.20800549,44.09580628,47.62368344,53.77692387,76.13766942,76.29204796,74.92363358,74.02266645,74.15444483,53.09956382,52.88760587,51.42511445,53.50429368,53.27374079,53.09038767,76.02227889,74.02113923,73.31409348,54.30040362,54.08830392,54.002477,53.50429368,48.79433513,61.20240748,60.95843361,61.18316937,61.30801036,61.158215,73.24894519,73.84460043,74.69827434,74.80781824,72.48901184,76.93035138,76.93035138,NaN,NaN,NaN],
	"ap0": [NaN,0.5259173669,0.4180422966,0.6245735125,0.6393410321,0.7069488786,0.5010147928,0.552263463,0.8248081136,0.794395076,0.8141218669,0.8470516197,0.7742664722,0.718637387,0.7478524472,0.7827724669,0.8169123276,0.2323675256,0.062371899,0.04501742755,0.1878473277,0.1686023159,0.3355718991,0.3790050126,0.2464722288,0.05057263726,0.1358068564,0.3505263783,0.8118364256,0.5133745902,0.5591301096,0.5407684457,0.6980933151,0.8928968886,0.3852705684,0.6262367053,0.461907205,0.328360581,0.188813433,0.08322895117,0.07805368776,0.175169631,0.2123794806,0.1352345547,0.07820512758,0.1182953855,0.1813382649,0.6172541158,0.6469350305,0.6134664461,0.6021522188,0.8922867365,0.7754797509,0.8228696555,0.6776768328,0.5872813059,0.7028252199,0.6389591112,0.09877677293,0.03370652557,0.04887442064,0.0471909972,0.0270049341,0.01301677303,0.01130035551,0.02489751056,0.03918167685,0.03927925322,0.02550168899,0.02095278123,0.0535028783,0.125126835,0.2775606342,0.429834343,0.4552233902,0.4476210923,0.9477152943,0.3307916022,0.166198579,0.1541383758,0.250206392,0.4592832796,0.4846549157,0.4421810846,0.7361277215,0.6353747882,0.459393008,0.3452647772,0.2725327251,0.3671564927,0.3436305034,0.2078223229,0.2370903805,0.3155500877,0.5990082792,0.5986275335,0.6621701076,0.6574994644,0.6475731811,0.4240392762,0.1388670731,0.1613547424,0.3074158849,0.3269543075,0.3141147457,0.3819053605,0.6731634878,0.3855126427,0.2765542019,0.1790576302,0.1263084968,0.1682639211,0.2601815516,0.3692378039,0.6513402588,0.5124277725,0.458146984,0.4120068002,0.3240097733,0.1754205555,0.5764336526,0.2490035366,0.5095925637,0.4926497133,0.7100050079,0.6109770645,0.51808072,0.7299699343,0.619497561,0.6058727515,0.5889280363,0.5601579667,0.6600330494,0.7656049419,0.710653772,0.7389893814,0.7236956081,0.7088730558,0.526718388,0.6575949365,0.8187129965,0.6813930622,0.6317429515,0.7017793601,0.605582895,0.7136253239,0.778293751,0.6526092125,0.2287784269,0.1494656396,0.1311735121,0.1798414775,0.4885595383,0.3474691812,0.2577377181,0.4444008385,0.3836806489,0.6882352878,0.4759122169,0.4408001622,0.3417325018,0.2755609789,0.8363755258,0.6579926913,0.8585029939,0.7630166621,0.8877417316,0.6843413263,0.4766506663,0.5203201527,0.3552644454,0.1545973025,0.141471836,0.2173871132,0.3203653003,0.4247010029,0.3306057785,0.1027561253,0.09172859607,0.242934267,0.3454059438,0.3575507842,0.4634649982,0.4130964093,0.3155173788,0.09768773172,0.1187607255,0.2489696302,0.2516679409,0.3293105178,0.4686584744,0.5243438512,0.4309074548,0.3616149314,0.3840180808,0.3196601255,0.3987558476,0.4330230656,0.4897095706,0.7769216281,0.6563391838,0.6677289816,0.5489826765,0.5561190176,0.4589718656,0.34844002,0.8626671275,0.6568925518,0.5566370487,0.1880558372,0.05586072323,0.06007471366,0.088684419,0.2841910698,0.3807173205,0.3068685375,0.5432949013,0.2831264804,0.2374178064,0.2873365566,0.1629820562,0.1503463181,0.4137198689,0.4922338055,0.3451333685,0.3265142795,0.3007983596,0.1554000092,0.123801652,0.1646901644,0.2328344587,0.2801146519,0.1282450333,0.05692262178,0.1212788789,0.2250536612,0.2126868406,0.2854092217,0.6591462796,0.3439907274,0.2489123104,0.2647655618,0.3857458078,0.410884063,0.3610926669,0.2156207234,0.6000985346,0.3856084568,0.4338743699,0.5088779925,0.5584141721,0.4283224382,0.2953377705,0.2425587388,0.2092756623,0.1401601998,0.1567902681,0.2642894148,0.4609526271,0.4008679046,0.2314617218,0.2963360813,0.3111589623,0.2067881168,0.2380659111,0.180215438,0.1777985233,0.170718577,0.09952674637,0.1960949266,0.198511212,0.1332579632,0.05979494932,0.03750948407,0.02649354299,0.0260753192,0.03484675935,0.02633107838,0.01414741568,0.01935143507,0.02156235468,0.01629323404,0.0168551475,0.01421839421,0.009907237115,0.009231928206,0.01306675608,0.01510865709,0.01728778548,0.01619800979,0.02040661852,0.02837729455,0.0325756649,0.03079805938,0.03827032003,0.03423687682,0.01403926019,0.008495694921,0.01317539817,0.01709482094,0.01596747045,0.01423828911,0.02300928284,0.04000476961,0.04253172943,0.0322520952,0.02569831178,0.02274560774,0.02034269715,0.01601486789,0.01461654543,0.01355144875,0.009247246944,0.01081255463,0.03035050768,0.05360067257,0.04020434112,0.02361468051,0.04042213039,0.05115396034,0.0685590069,0.0868399687,0.04759127281,0.01595664855,0.02150117281,0.03933560294,0.04569814469,0.04559431266,0.05365121427,0.06662796627,0.04620892113,0.02241589339,0.02037764315,0.03281254497,0.05419137452,0.04894672372,0.06872293828,0.3190829298,0.610692072,0.6100452686,0.6084422552,0.6371527374,0.8105852696,0.6008621471,0.4011446403,0.2827701815,0.1962680038,0.7727688302,0.2433634272,0.2160345676,0.3781833802,0.2316020099,0.2330747089,0.7880771782,0.641806071,0.6500470335,0.5038269306,0.4418890809,0.2952096617,0.2590561318,0.4286863105,0.6840731089,0.4136779873,0.2900770457,0.2875379223,0.2048209238,0.2764539843,0.2407860018,0.3952018837,0.6517626698,0.4425469758,0.7572705619,1,1,NaN,NaN,NaN],
	"ap": [NaN,0.3615317221,0.2742179158,0.3681367071,0.465091528,0.6773099391,0.5943415721,0.4353591373,0.2717640962,0.3353865602,0.3592055396,0.4517181893,0.5271475342,0.3084658026,0.294337779,0.3435126263,0.6064778211,0.6040153773,0.5634028436,0.06510063189,0.05774428729,0.297502199,0.08749835428,0.09830940648,0.4175349498,0.04562980248,0.02998967559,0.05207705702,0.6200788489,0.4247916357,0.2155242611,0.537029109,0.3702427548,0.6617792665,0.5429172812,0.510128933,0.4651456995,0.3515562636,0.3011931934,0.1198983027,0.07092449589,0.05180426492,0.06260362494,0.07164529025,0.02787046215,0.04723786372,0.03395988936,0.07680580147,0.506971987,0.1704089163,0.2084918491,0.4498203515,0.7366498594,0.5037285631,0.6551826374,0.505157614,0.3696617754,0.3373272574,0.6626970021,0.3538409827,0.01385133781,0.002264462033,0.05697361318,0.01338781298,0.004977995425,0.004844911801,0.01359201346,0.03096816039,0.02049921183,0.01703924566,0.00580676976,0.02213344414,0.06325114358,0.4034899044,0.2088637954,0.3412906379,0.2394429206,0.2433357872,0.3316049392,0.3428456685,0.03168264172,0.08371100603,0.2669697526,0.2568472782,0.6657001326,0.2705340893,0.4747889242,0.3082362525,0.1764217721,0.09003808753,0.104844869,0.2165778492,0.08340568583,0.296383302,0.1240724116,0.4307545428,0.422999848,0.3359571534,0.4506082897,0.2366680687,0.2667749989,0.1780960171,0.1411079708,0.154236148,0.1331516809,0.3259880118,0.1800270856,0.2524497613,0.3205340247,0.05980933006,0.08586460077,0.04165500834,0.09481797324,0.225146354,0.225256723,0.3376895358,0.2686814628,0.2749639553,0.2928836708,0.3168184524,0.09235100085,0.09057793393,0.2570924587,0.7041485894,0.3152409076,0.1028653618,0.1825979665,0.2091438495,0.4888763681,0.2945122911,0.2077115616,0.5055248984,0.2941611265,0.4926209416,0.6646666752,0.6864063432,0.328866499,0.4235867415,0.5960143612,0.3691082035,0.4264296249,0.4650923484,0.3782645214,0.3632188663,0.5642958264,0.3208093221,0.659062375,0.4791193763,0.4994141902,0.3154443105,0.03373717646,0.08002364772,0.1605947175,0.1158805274,0.4753301926,0.1330789589,0.1539185169,0.2115604181,0.4261029351,0.07008438819,0.5913969842,0.1716333668,0.301984546,0.17389322,0.6536359522,0.494005915,0.4132156633,0.5909303983,0.371551624,0.5007353234,0.3972651772,0.03169870089,0.1716452929,0.1360404715,0.08980536464,0.2960094157,0.1381675248,0.159949577,0.05529048689,0.06335592926,0.0894401171,0.3166857151,0.146596609,0.1410083685,0.09912431891,0.2263873359,0.05821010709,0.02307283185,0.114068975,0.346490525,0.08396395317,0.1998927272,0.3823265604,0.3817553466,0.5277246682,0.1791898644,0.3830723033,0.2949177552,0.5135897234,0.2837203699,0.267230235,0.3190286656,0.3541043583,0.6507230048,0.3879026127,0.3625565484,0.1469553962,0.5352707739,0.5796889267,0.4345229697,0.2826673435,0.05267026153,0.02918136348,0.01868134723,0.136051131,0.1135821743,0.08600330198,0.2460567749,0.1650204123,0.09783464991,0.1236167206,0.06697937179,0.04046165993,0.1612734259,0.1830135881,0.51585557,0.1009424042,0.1239420709,0.1503103848,0.1467190086,0.01803524651,0.255925569,0.4437811753,0.08668174503,0.04840094562,0.1449053772,0.1771288101,0.3725567098,0.1487377708,0.3610764859,0.5703047741,0.1361004186,0.1012121389,0.047391792,0.2877959957,0.2355806345,0.03092815695,0.5110483824,0.4017082495,0.08605438993,0.3676354924,0.1315540329,0.2261086671,0.3354312636,0.1137563318,0.1217650779,0.1022513598,0.09889710104,0.3876912255,0.0660373358,0.587695314,0.2771169908,0.1057148118,0.168078466,0.06619630906,0.4563530923,0.150598377,0.05994629006,0.03706087639,0.06224485872,0.08132360552,0.1145183647,0.06374828772,0.03763170794,0.01817298014,0.00443874609,0.0144363315,0.02364260471,0.02027621133,0.008483266682,0.002598418608,0.01546549979,0.01267515003,0.01036990977,0.01079030676,0.01016282163,0.003533245619,0.004286417314,0.008589501138,0.01745519263,0.006139362571,0.01399954724,0.02420461,0.01726185253,0.01247500425,0.01605266529,0.04146637769,0.01204817316,0.004412478082,0.005121335681,0.007450157245,0.01131836577,0.007010597416,0.003493631144,0.01142596274,0.03157193792,0.02065588423,0.009741860879,0.0142197819,0.008031113555,0.01036160543,0.003287437265,0.01151128717,0.002048031024,0.003016686697,0.01588338295,0.0310245823,0.04348991084,0.009980113522,0.003405678049,0.04896916748,0.01187126067,0.0698555776,0.02713642108,0.004917108334,0.01421669079,0.01646732745,0.01903971193,0.008276067461,0.02118992647,0.0536334746,0.03479870545,0.004620085909,0.008947265071,0.007079064947,0.01576379633,0.05096112588,0.05160844284,0.1274582678,0.3484427352,0.2855874735,0.2613687437,0.6880974496,0.4340209025,0.4176871201,0.09110788221,0.3609662273,0.1241120469,0.4551580076,0.2184383309,0.2166297337,0.1770739499,0.09354964533,0.08943706263,0.8562825448,0.4957029967,0.3094421936,0.7120179089,0.1506694414,0.1841960044,0.1056582316,0.5902505811,0.6184139121,0.4050376986,0.1648224592,0.23002849,0.1834393457,0.2560115249,0.01871671107,0.1533843894,0.5000002101,0.533364633,0.5117647899,1,NaN,NaN,NaN],
	"pwr": [NaN,5.299587717e-06,1.781643396e-06,2.249172739e-06,1.241776574e-05,1.038676848e-05,1.019015879e-06,1.779919183e-06,9.239385104e-06,1.000245409e-05,2.568168173e-05,2.605572076e-05,9.284915484e-06,1.286381337e-05,6.846274324e-06,1.452279342e-05,1.324302092e-05,5.373582354e-06,4.109237451e-05,0.0003883060186,0.000743544848,0.0002904685985,0.0007136313423,0.0001625675531,0.0001053010984,0.0004075276837,0.0001649762328,0.0002267227729,0.0001770316883,4.677062551e-05,0.0001062757517,2.918139493e-05,2.95690532e-05,1.343009599e-05,9.760143369e-06,1.365387536e-05,8.067949435e-05,0.0006382848685,0.007656812624,0.004949198268,0.002750437128,0.002550767818,0.002262074178,0.002238611265,0.002007689469,0.002213395466,0.00282903961,0.003217327807,0.0009363373588,0.00307064651,0.0002989785848,6.001694132e-05,3.686918314e-05,0.0001212928355,4.389824223e-05,3.634355144e-05,2.280376259e-05,4.208384113e-05,8.109207324e-05,7.8823915e-05,0.003329836464,0.005099694362,0.005742833029,0.006296002083,0.005391412586,0.004011570356,0.004766043838,0.004633777022,0.002510499591,0.003742016251,0.00520070658,0.003931393363,0.002769454186,0.0005317722629,0.0002521946562,5.179149395e-05,1.199531559e-05,0.0001193037616,0.0004088451007,0.003081249148,0.0381853287,0.02960214538,0.01234009264,0.004137321141,0.004320742364,0.002716134047,0.007710869116,0.006053835951,0.00709039362,0.005183324507,0.02082543505,0.0166184232,0.006681219092,0.007588126797,0.003483839781,0.001380405834,0.0002083311934,0.0004666326394,0.0005922334228,0.0001673886218,0.0006279240364,0.001083550772,0.01199500359,0.005117704739,0.01871564969,0.003379941756,0.001292225651,0.001599272041,0.003532972634,0.005287119236,0.00240771972,0.007711907943,0.01011001918,0.005240366658,0.001636381351,0.002514946424,0.001316729832,0.002243255194,0.001993146164,0.003426496562,0.001454022282,5.482024495e-05,5.853969468e-05,3.772320092e-06,4.599551863e-07,9.720579015e-06,1.926234538e-05,8.129420008e-05,4.392631386e-05,2.48656999e-05,9.632004393e-06,7.710404495e-06,1.170074057e-05,1.260981869e-05,9.835406712e-06,6.003830155e-06,1.863186379e-05,1.33449555e-05,1.437337652e-05,1.691289582e-05,6.82208545e-06,3.196837549e-06,2.004541267e-06,1.208752604e-05,3.322749399e-05,4.497416584e-05,3.700067274e-05,8.046697111e-05,4.302368089e-05,0.0003153510013,0.004124558274,0.004419810432,0.004123946514,0.005814587678,0.007729123604,0.0153510945,0.006872190629,0.002101526118,0.002837657692,0.007638404782,0.001642306587,0.005551702433,0.0002395747444,1.52130646e-05,1.58784032e-06,1.173155757e-05,2.248482209e-05,4.197180983e-05,8.664593332e-05,0.0002096335924,0.004522520169,0.003774007265,0.002522601517,0.003164365418,0.001748081474,0.001980983669,0.002337497145,0.003572114266,0.004645780352,0.004861475649,0.004511547765,0.001792796056,0.008056802083,0.004253403892,0.003647141246,0.0007213488503,0.0001836221729,0.0003418815651,0.0007705303662,0.001312271693,0.006720858201,0.009040313249,0.01611332072,0.01824679078,0.008634243045,0.01113511971,0.00212669463,0.03676955972,0.005702129177,0.001402286894,0.000490797319,0.0001600458884,0.0002074156883,0.0001360349053,0.0001042117028,0.0004350794746,0.000153116887,9.602457105e-05,0.0002986012013,0.000236606195,0.0004098893198,0.003509455693,0.02676967576,0.02695094336,0.01624226986,0.02795535758,0.003200617034,0.0004918028351,0.002242385425,0.005335180349,0.01833079955,0.003737211506,0.005330047878,0.003010585437,0.007077655199,0.00910904538,0.01457914446,0.004843276667,0.006010718047,0.0237258398,0.05592514918,0.04612283038,0.007411021922,0.002222449398,0.005528340657,0.009494218786,0.001671920316,0.0004413350791,0.000709758994,0.004424551676,0.002965098052,0.1594269683,0.1302435663,0.01995269704,0.02926754321,0.04118542958,0.05959312076,0.003381954622,0.00211702418,0.01688140982,0.01001003137,0.03797966971,0.008553925743,0.005302799939,0.007176850296,0.01097278233,0.01588219018,0.01282520813,0.001697920133,0.005401597206,0.004439887671,0.004775819775,0.008286336747,0.004666626117,0.002909338615,0.005338232758,0.004548554956,0.01501066474,0.005021971971,0.002386663468,0.001652705024,0.00166126688,0.002494522016,0.002116461083,0.001792745439,0.001781527475,0.002105032006,0.002470548781,0.001527137302,0.001401501126,0.001729061628,0.001807571926,0.001426952824,0.001978319028,0.001671661409,0.001633221879,0.001699578618,0.00154533797,0.001194365738,0.001441349248,0.001232161313,0.00109773914,0.0009031041925,0.000766434181,0.0009107313789,0.0008740056811,0.001128854305,0.001569039209,0.00145174876,0.001176082258,0.001087225787,0.001279871892,0.00121796731,0.0009809010884,0.0009494154496,0.001345872758,0.001351159292,0.001139228402,0.001069451585,0.0009794455989,0.001361985394,0.001331009364,0.001167845962,0.001413639334,0.001108532439,0.0008647481256,0.0006072495071,0.000606938892,0.0006503476531,0.0008116035386,0.0007820502876,0.0003857636607,0.0008822299288,0.0009476546181,0.000855204577,0.0009139780189,0.0007077284605,0.0007919385443,0.0006513650083,0.0005379591559,0.0003104533803,0.0004137427164,0.0008936371458,0.001089380601,0.0005982583585,0.0005891121457,0.0006404651692,0.001020656833,0.0005472107818,0.001070700304,0.0005113954343,0.0001419280171,4.78576925e-05,6.366331602e-06,2.52745281e-05,8.67311872e-05,9.687287331e-06,1.799903543e-05,2.109736395e-06,1.587337121e-06,5.618900478e-06,3.297522852e-07,1.016848086e-07,1.343515512e-07,3.327583136e-08,1.481645543e-08,4.444895373e-09,1.153881278e-09,1.954516266e-09,1.466356604e-08,1.908884269e-08,1.384517399e-09,5.037323141e-09,1.080269464e-09,1.268977449e-09,5.508576831e-10,4.967893309e-10,1.117202856e-09,3.874975596e-09,2.526040605e-09,5.373014854e-11,5.122865289e-10,4.808458945e-10,0,NaN,NaN,NaN],
	"sr": 16000,
	"range": [1,120576],
	"minf0": 63.1883,
	"maxf0": 706.3069,
	"thresh": 0.1,
	"relflag": 1,
	"hop": 320,
	"bufsize": 10000,
	"wsize": 640,
	"lpf": 4000,
	"shift": 0,
	"plotthreshold": 0.2
}
