{
    "DU": 15,
    "DV": 344,
    "F-measure": 0.45128205128205123,
    "F-measure Chroma": 0.6393162393162393,
    "FN": 6,
    "FNC": 0,
    "FNCch": 0,
    "FNI": 6,
    "FNIch": 6,
    "FP": 127,
    "GU": 136,
    "GV": 223,
    "Overall Accuracy": 0.36768802228412256,
    "Overall Chroma Accuracy": 0.520891364902507,
    "Precision": 0.37393767705382436,
    "Precision Chroma": 0.5297450424929179,
    "Raw Chroma Accuracy": 0.7982062780269058,
    "Raw Pitch Accuracy": 0.5515695067264574,
    "Recall": 0.5689655172413793,
    "Recall Chroma": 0.8060344827586207,
    "TN": 9,
    "TO": 359,
    "TP": 217,
    "TPC": 123,
    "TPCch": 178,
    "TPI": 94,
    "TPIch": 39,
    "Voiced Chroma Accuracy": 0.7982062780269058,
    "Voiced Pitch Accuracy": 0.5515695067264574,
    "Voicing Accuracy": 0.6295264623955432,
    "Voicing Detection": 0.9730941704035875,
    "Voicing False Alarm": 0.9338235294117647
}