{
    "DU": 151,
    "DV": 231,
    "F-measure": 0.6361031518624641,
    "F-measure Chroma": 0.7621776504297995,
    "FN": 49,
    "FNC": 2,
    "FNCch": 4,
    "FNI": 47,
    "FNIch": 45,
    "FP": 17,
    "GU": 119,
    "GV": 263,
    "Overall Accuracy": 0.581151832460733,
    "Overall Chroma Accuracy": 0.6963350785340314,
    "Precision": 0.6666666666666666,
    "Precision Chroma": 0.7987987987987988,
    "Raw Chroma Accuracy": 0.6387832699619772,
    "Raw Pitch Accuracy": 0.46387832699619774,
    "Recall": 0.6082191780821918,
    "Recall Chroma": 0.7287671232876712,
    "TN": 102,
    "TO": 382,
    "TP": 214,
    "TPC": 120,
    "TPCch": 164,
    "TPI": 94,
    "TPIch": 50,
    "Voiced Chroma Accuracy": 0.623574144486692,
    "Voiced Pitch Accuracy": 0.45627376425855515,
    "Voicing Accuracy": 0.8272251308900523,
    "Voicing Detection": 0.8136882129277566,
    "Voicing False Alarm": 0.14285714285714285
}