{
    "DU": 30,
    "DV": 570,
    "F-measure": 0.37277486910994767,
    "F-measure Chroma": 0.5780104712041885,
    "FN": 20,
    "FNC": 0,
    "FNCch": 0,
    "FNI": 20,
    "FNIch": 20,
    "FP": 225,
    "GU": 235,
    "GV": 365,
    "Overall Accuracy": 0.2966666666666667,
    "Overall Chroma Accuracy": 0.46,
    "Precision": 0.30689655172413793,
    "Precision Chroma": 0.47586206896551725,
    "Raw Chroma Accuracy": 0.7287671232876712,
    "Raw Pitch Accuracy": 0.4602739726027397,
    "Recall": 0.4746666666666667,
    "Recall Chroma": 0.736,
    "TN": 10,
    "TO": 600,
    "TP": 345,
    "TPC": 168,
    "TPCch": 266,
    "TPI": 177,
    "TPIch": 79,
    "Voiced Chroma Accuracy": 0.7287671232876712,
    "Voiced Pitch Accuracy": 0.4602739726027397,
    "Voicing Accuracy": 0.5916666666666667,
    "Voicing Detection": 0.9452054794520548,
    "Voicing False Alarm": 0.9574468085106383
}