{
    "DU": 235,
    "DV": 266,
    "F-measure": 0.746335963923337,
    "F-measure Chroma": 0.8500563697857948,
    "FN": 88,
    "FNC": 5,
    "FNCch": 20,
    "FNI": 83,
    "FNIch": 68,
    "FP": 27,
    "GU": 174,
    "GV": 327,
    "Overall Accuracy": 0.6606786427145709,
    "Overall Chroma Accuracy": 0.7524950099800399,
    "Precision": 0.801452784503632,
    "Precision Chroma": 0.9128329297820823,
    "Raw Chroma Accuracy": 0.764525993883792,
    "Raw Pitch Accuracy": 0.5779816513761468,
    "Recall": 0.6983122362869199,
    "Recall Chroma": 0.7953586497890295,
    "TN": 147,
    "TO": 501,
    "TP": 239,
    "TPC": 184,
    "TPCch": 230,
    "TPI": 55,
    "TPIch": 9,
    "Voiced Chroma Accuracy": 0.7033639143730887,
    "Voiced Pitch Accuracy": 0.5626911314984709,
    "Voicing Accuracy": 0.7704590818363274,
    "Voicing Detection": 0.7308868501529052,
    "Voicing False Alarm": 0.15517241379310345
}