{
    "f0": [
        40.423890431869417,
        52.080193721555531,
        51.552872779805256,
        42.82567104274041,
        55.090391677941966,
        55.462480947578314,
        45.459816125104062,
        61.405272100324559,
        55.97191055808856,
        56.028716182729347,
        50.204620163379687,
        50.153922329038807,
        49.753321991026937,
        49.714116750839196,
        49.67482264570112,
        49.807702743183746,
        49.739859768449726,
        49.740780283799275,
        49.858940764141757,
        50.261003213654703,
        50.515369510801762,
        50.766054093294528,
        50.950663948772458,
        50.943365194065791,
        51.23556965793162,
        51.522927277876818,
        51.631596940117404,
        51.453836216447726,
        51.354056807865916,
        51.512516382388306,
        51.230079263241272,
        51.087141699543878,
        51.213297420984915,
        51.338538741030426,
        51.274438564642224,
        51.210103468849624,
        51.295268531684137,
        51.283964627059078,
        51.223199181239707,
        51.136021902668297,
        51.15679179212696,
        51.247091046569388,
        51.149885827315209,
        51.052131848523018,
        51.161620811804269,
        51.240226064561,
        51.053763784097697,
        50.859780354091356,
        50.666377396032104,
        50.445781862189676,
        50.333803354855554,
        50.369604557074993,
        50.439356380742858,
        50.410986605563942,
        50.369042823362591,
        50.057710165862545,
        50.050593638626317,
        49.889148877682672,
        49.630253200215492,
        49.759022025627729,
        49.521940300261861,
        49.276084245475857,
        49.365118723630445,
        49.278534024724138,
        49.303820072255405,
        48.607931769854744,
        47.882895637274814,
        45.389765754084564,
        43.696704269899278,
        41.706891797635969,
        37.907101322685818,
        44.172397877627617,
        46.50607006902105,
        46.653807810285628,
        46.765454968872533,
        46.59441272619091,
        46.796643957977025,
        46.870718690533856,
        46.657474408178153,
        46.646263919409613,
        46.719738640996717,
        46.672322659439082,
        46.851016697433018,
        46.930467047582844,
        47.009554446661411,
        46.979774191911609,
        47.016133873541548,
        47.090546983097383,
        46.976445230540683,
        46.86287727271457,
        46.92017238952198,
        46.91992418882699,
        46.902905364235998,
        46.882973893314478,
        47.036733625872699,
        47.293435323602658,
        47.495071227680306,
        47.19244914670503,
        47.313993517715964,
        46.804937436224776,
        49.870222611924717,
        49.08479249988207,
        55.80769544361651,
        36.1471005236357,
        39.600208053510073,
        39.146341710070224,
        45.419223849402478,
        44.857343278349731,
        44.611398177167494,
        44.535730095394193,
        46.763920644856832,
        46.53229990348342,
        46.541023031298764,
        46.431589223944485,
        0.0,
        0.0,
        0.0,
        53.449189766861075,
        53.449189766861075,
        53.792017833461294,
        53.264697584296599,
        53.64403310731285,
        44.994078009422239,
        44.059112188674085,
        53.437446017769958,
        54.702681295192306,
        57.551223666662466,
        0.0,
        0.0,
        0.0,
        46.489192407346046,
        50.296935768624763,
        50.122942369916963,
        47.714419293500384,
        47.540425167940512,
        46.431511850359584,
        46.095381938148279,
        46.71307922308867,
        47.90370841498644,
        47.6796393146791,
        47.52182940367026,
        47.252168306215978,
        46.684653663333627,
        46.076381608982729,
        46.889306668748844,
        46.587411408535232,
        47.039331686350423,
        46.728353614197133,
        46.874370853032879,
        47.217959076414985,
        47.283667847082612,
        47.827573597940244,
        47.950523260803237,
        48.27455899999557,
        48.493797144933353,
        48.504829473590448,
        48.9616522326412,
        49.36318135385774,
        49.249587328396757,
        49.519890938077623,
        49.545414470374993,
        49.502667415133047,
        49.459816373601299,
        49.928594186662153,
        50.004405217862171,
        49.743088478322164,
        49.423108024788064,
        49.636701291276289,
        49.7772628397869,
        49.8544908855324,
        49.92212375951415,
        49.821185003312394,
        49.861503532056034,
        49.750069590641665,
        49.804904605710234,
        50.148318715768113,
        49.816741852418694,
        50.59236115807029,
        51.004765933137087,
        53.483422944742628,
        54.592003181633451,
        56.312884127637673,
        58.415872463916045,
        60.896280747292955,
        63.645655500775099,
        44.214552599803483,
        58.441150965416469,
        42.181397131188149,
        52.232547684122324,
        52.067791402756022,
        51.934682890405654,
        51.733459938759978,
        51.736104658082397,
        51.870586069537275,
        51.769308177766817,
        51.596910736702554,
        51.630698055896829,
        51.83455879495277,
        51.952167318229378,
        52.029446166117992,
        52.042726624007187,
        52.354076458531985,
        52.686399583480124,
        52.825486234318582,
        52.882469872246133,
        53.322511677176792,
        53.565773957040747,
        53.190851425175985,
        52.993774009360735,
        52.408902073896613,
        52.516003276312816,
        52.147455957972639,
        51.987434596440714,
        52.22870593421267,
        51.604918092460245,
        51.519218204991702,
        51.730676333959295,
        51.760862964574855,
        51.530675894874342,
        51.348350824561557,
        51.306046150525184,
        51.179857881961809,
        51.267255016698357,
        51.354211527969284,
        51.318814402302976,
        51.140007717752944,
        50.959333304713553,
        50.949017130763885,
        51.220880600387218,
        51.301352404142392,
        51.256001443954275,
        51.038167290784507,
        50.923720836875816,
        51.09798212410427,
        51.070645160403231,
        51.034925646193301,
        51.346143849658489,
        51.651866148459483,
        53.3251546857148,
        52.31431014541937,
        52.257224046556658,
        52.209220164565025,
        53.449645262392167,
        53.072934046119478,
        52.933873110210918,
        51.963382328281753,
        52.389519381391544,
        40.254068474476846,
        42.650474441293198,
        45.102103174504578,
        46.93130268742199,
        52.209880504325035,
        51.620687532254017,
        51.551688557393405,
        51.21296357486132,
        52.014211423807367,
        52.647110606517117,
        53.147963299344674,
        47.197968480170772,
        50.664322407097295,
        50.522520988281826,
        49.10812407972621,
        48.617042351257837,
        48.193162822567984,
        48.214747039796528,
        48.236298375024091,
        48.083831611329387,
        47.930008034015636,
        47.947074105503958,
        47.809117292467675,
        47.537132835794914,
        46.804712393752517,
        45.391769632683335,
        43.683062573424124,
        43.688819505563174,
        44.388104882645479,
        42.190633247621761,
        41.65622887820858,
        37.405577407249936,
        75.273422298886132,
        51.217433193266622,
        51.339596097116029,
        49.835352409913114,
        49.069881397844185,
        48.821483437477312,
        48.634209748451354,
        48.730240194188937,
        48.901215745536362,
        48.8760313513569,
        48.754991775864909,
        48.781814006827503,
        48.47927158580918,
        48.283667915759402,
        48.274380149214856,
        48.171023826571094,
        48.354765083922949,
        48.618525261984153,
        48.664012562444768,
        48.466835194572951,
        48.705449362521392,
        48.793999331021318,
        48.781296737479614,
        48.762392587089792,
        48.746566662552866,
        48.823896301862526,
        48.95454441554331,
        49.057603924331787,
        48.954101042910921,
        48.985350532176028,
        49.02737920911791,
        49.183764670981525,
        48.932367380287545,
        48.832060745579518,
        48.731171454933502,
        48.801952216665207,
        48.82765457153846,
        48.701697382722791,
        48.943208044981901,
        49.008648619947159,
        49.073842885423062,
        48.964792426581695,
        48.939021368284237,
        48.873506579734112,
        48.827685356076216,
        49.045321475464036,
        49.271585278522473,
        49.832164554639043,
        48.797245280615215,
        49.934348894988005,
        50.248797578100856,
        49.941157612267752,
        49.627951957033147,
        49.651806115685154,
        47.376084424754424,
        48.41980120206464,
        48.498826727157621,
        51.642895379266164,
        51.992196106655442,
        53.84862472875583,
        0.0,
        0.0,
        0.0,
        0.0,
        0.0,
        0.0,
        0.0,
        0.0,
        0.0,
        0.0,
        0.0,
        0.0,
        0.0,
        0.0,
        0.0,
        0.0,
        0.0,
        0.0,
        0.0,
        0.0,
        0.0,
        0.0,
        0.0,
        0.0,
        0.0,
        0.0,
        0.0,
        0.0,
        0.0,
        0.0,
        0.0,
        0.0,
        0.0,
        0.0,
        0.0,
        0.0,
        0.0,
        0.0,
        0.0,
        0.0,
        0.0,
        0.0,
        0.0,
        0.0,
        0.0,
        0.0,
        0.0,
        0.0
    ],
    "time": [
        0.02,
        0.040000000000000001,
        0.059999999999999998,
        0.080000000000000002,
        0.10000000000000001,
        0.12,
        0.14000000000000001,
        0.16,
        0.17999999999999999,
        0.20000000000000001,
        0.22,
        0.23999999999999999,
        0.26000000000000001,
        0.28000000000000003,
        0.29999999999999999,
        0.32000000000000001,
        0.34000000000000002,
        0.35999999999999999,
        0.38,
        0.40000000000000002,
        0.41999999999999998,
        0.44,
        0.46000000000000002,
        0.47999999999999998,
        0.5,
        0.52000000000000002,
        0.54000000000000004,
        0.56000000000000005,
        0.57999999999999996,
        0.59999999999999998,
        0.62,
        0.64000000000000001,
        0.66000000000000003,
        0.68000000000000005,
        0.69999999999999996,
        0.71999999999999997,
        0.73999999999999999,
        0.76000000000000001,
        0.78000000000000003,
        0.80000000000000004,
        0.81999999999999995,
        0.83999999999999997,
        0.85999999999999999,
        0.88,
        0.90000000000000002,
        0.92000000000000004,
        0.93999999999999995,
        0.95999999999999996,
        0.97999999999999998,
        1.0,
        1.02,
        1.04,
        1.0600000000000001,
        1.0800000000000001,
        1.1000000000000001,
        1.1200000000000001,
        1.1399999999999999,
        1.1599999999999999,
        1.1799999999999999,
        1.2,
        1.22,
        1.24,
        1.26,
        1.28,
        1.3,
        1.3200000000000001,
        1.3400000000000001,
        1.3600000000000001,
        1.3799999999999999,
        1.3999999999999999,
        1.4199999999999999,
        1.4399999999999999,
        1.46,
        1.48,
        1.5,
        1.52,
        1.54,
        1.5600000000000001,
        1.5800000000000001,
        1.6000000000000001,
        1.6200000000000001,
        1.6399999999999999,
        1.6599999999999999,
        1.6799999999999999,
        1.7,
        1.72,
        1.74,
        1.76,
        1.78,
        1.8,
        1.8200000000000001,
        1.8400000000000001,
        1.8600000000000001,
        1.8799999999999999,
        1.8999999999999999,
        1.9199999999999999,
        1.9399999999999999,
        1.96,
        1.98,
        2.0,
        2.02,
        2.04,
        2.0600000000000001,
        2.0800000000000001,
        2.1000000000000001,
        2.1200000000000001,
        2.1400000000000001,
        2.1600000000000001,
        2.1800000000000002,
        2.2000000000000002,
        2.2200000000000002,
        2.2400000000000002,
        2.2599999999999998,
        2.2799999999999998,
        2.2999999999999998,
        2.3199999999999998,
        2.3399999999999999,
        2.3599999999999999,
        2.3799999999999999,
        2.3999999999999999,
        2.4199999999999999,
        2.4399999999999999,
        2.46,
        2.48,
        2.5,
        2.52,
        2.54,
        2.5600000000000001,
        2.5800000000000001,
        2.6000000000000001,
        2.6200000000000001,
        2.6400000000000001,
        2.6600000000000001,
        2.6800000000000002,
        2.7000000000000002,
        2.7200000000000002,
        2.7400000000000002,
        2.7599999999999998,
        2.7799999999999998,
        2.7999999999999998,
        2.8199999999999998,
        2.8399999999999999,
        2.8599999999999999,
        2.8799999999999999,
        2.8999999999999999,
        2.9199999999999999,
        2.9399999999999999,
        2.96,
        2.98,
        3.0,
        3.02,
        3.04,
        3.0600000000000001,
        3.0800000000000001,
        3.1000000000000001,
        3.1200000000000001,
        3.1400000000000001,
        3.1600000000000001,
        3.1800000000000002,
        3.2000000000000002,
        3.2200000000000002,
        3.2400000000000002,
        3.2599999999999998,
        3.2799999999999998,
        3.2999999999999998,
        3.3199999999999998,
        3.3399999999999999,
        3.3599999999999999,
        3.3799999999999999,
        3.3999999999999999,
        3.4199999999999999,
        3.4399999999999999,
        3.46,
        3.48,
        3.5,
        3.52,
        3.54,
        3.5600000000000001,
        3.5800000000000001,
        3.6000000000000001,
        3.6200000000000001,
        3.6400000000000001,
        3.6600000000000001,
        3.6800000000000002,
        3.7000000000000002,
        3.7200000000000002,
        3.7400000000000002,
        3.7599999999999998,
        3.7799999999999998,
        3.7999999999999998,
        3.8199999999999998,
        3.8399999999999999,
        3.8599999999999999,
        3.8799999999999999,
        3.8999999999999999,
        3.9199999999999999,
        3.9399999999999999,
        3.96,
        3.98,
        4.0,
        4.0199999999999996,
        4.04,
        4.0599999999999996,
        4.0800000000000001,
        4.0999999999999996,
        4.1200000000000001,
        4.1399999999999997,
        4.1600000000000001,
        4.1799999999999997,
        4.2000000000000002,
        4.2199999999999998,
        4.2400000000000002,
        4.2599999999999998,
        4.2800000000000002,
        4.2999999999999998,
        4.3200000000000003,
        4.3399999999999999,
        4.3600000000000003,
        4.3799999999999999,
        4.4000000000000004,
        4.4199999999999999,
        4.4400000000000004,
        4.46,
        4.4800000000000004,
        4.5,
        4.5199999999999996,
        4.54,
        4.5599999999999996,
        4.5800000000000001,
        4.5999999999999996,
        4.6200000000000001,
        4.6399999999999997,
        4.6600000000000001,
        4.6799999999999997,
        4.7000000000000002,
        4.7199999999999998,
        4.7400000000000002,
        4.7599999999999998,
        4.7800000000000002,
        4.7999999999999998,
        4.8200000000000003,
        4.8399999999999999,
        4.8600000000000003,
        4.8799999999999999,
        4.9000000000000004,
        4.9199999999999999,
        4.9400000000000004,
        4.96,
        4.9800000000000004,
        5.0,
        5.0199999999999996,
        5.04,
        5.0599999999999996,
        5.0800000000000001,
        5.0999999999999996,
        5.1200000000000001,
        5.1399999999999997,
        5.1600000000000001,
        5.1799999999999997,
        5.2000000000000002,
        5.2199999999999998,
        5.2400000000000002,
        5.2599999999999998,
        5.2800000000000002,
        5.2999999999999998,
        5.3200000000000003,
        5.3399999999999999,
        5.3600000000000003,
        5.3799999999999999,
        5.4000000000000004,
        5.4199999999999999,
        5.4400000000000004,
        5.46,
        5.4800000000000004,
        5.5,
        5.5199999999999996,
        5.54,
        5.5599999999999996,
        5.5800000000000001,
        5.5999999999999996,
        5.6200000000000001,
        5.6399999999999997,
        5.6600000000000001,
        5.6799999999999997,
        5.7000000000000002,
        5.7199999999999998,
        5.7400000000000002,
        5.7599999999999998,
        5.7800000000000002,
        5.7999999999999998,
        5.8200000000000003,
        5.8399999999999999,
        5.8600000000000003,
        5.8799999999999999,
        5.9000000000000004,
        5.9199999999999999,
        5.9400000000000004,
        5.96,
        5.9800000000000004,
        6.0,
        6.0199999999999996,
        6.04,
        6.0599999999999996,
        6.0800000000000001,
        6.0999999999999996,
        6.1200000000000001,
        6.1399999999999997,
        6.1600000000000001,
        6.1799999999999997,
        6.2000000000000002,
        6.2199999999999998,
        6.2400000000000002,
        6.2599999999999998,
        6.2800000000000002,
        6.2999999999999998,
        6.3200000000000003,
        6.3399999999999999,
        6.3600000000000003,
        6.3799999999999999,
        6.4000000000000004,
        6.4199999999999999,
        6.4400000000000004,
        6.46,
        6.4800000000000004,
        6.5,
        6.5199999999999996,
        6.54,
        6.5599999999999996,
        6.5800000000000001,
        6.5999999999999996,
        6.6200000000000001,
        6.6399999999999997,
        6.6600000000000001,
        6.6799999999999997,
        6.7000000000000002,
        6.7199999999999998,
        6.7400000000000002,
        6.7599999999999998,
        6.7800000000000002,
        6.7999999999999998,
        6.8200000000000003,
        6.8399999999999999,
        6.8600000000000003,
        6.8799999999999999,
        6.9000000000000004,
        6.9199999999999999,
        6.9400000000000004,
        6.96,
        6.9800000000000004,
        7.0,
        7.0199999999999996,
        7.04,
        7.0599999999999996,
        7.0800000000000001,
        7.0999999999999996,
        7.1200000000000001,
        7.1399999999999997,
        7.1600000000000001,
        7.1799999999999997,
        7.2000000000000002,
        7.2199999999999998,
        7.2400000000000002,
        7.2599999999999998,
        7.2800000000000002,
        7.2999999999999998,
        7.3200000000000003,
        7.3399999999999999,
        7.3600000000000003,
        7.3799999999999999,
        7.4000000000000004,
        7.4199999999999999,
        7.4400000000000004,
        7.46,
        7.4800000000000004,
        7.5,
        7.5199999999999996,
        7.54,
        7.5599999999999996,
        7.5800000000000001,
        7.5999999999999996,
        7.6200000000000001,
        7.6399999999999997,
        7.6600000000000001,
        7.6799999999999997,
        7.7000000000000002,
        7.7199999999999998,
        7.7400000000000002
    ]
}