{
	"f0": [NaN,68.63959725,68.95807706,65.39980661,59.05101901,51.90311975,52.01592608,51.17571713,51.83657672,52.68501955,56.37949615,55.65694558,55.37201712,55.16247594,54.83492367,55.25715569,55.5253172,55.52462408,55.50676188,55.59863003,55.5673591,55.17403122,54.88543769,53.82477953,55.50173506,47.45453247,58.16354076,57.35791018,57.16529467,56.99146844,56.69965447,56.01165637,54.0979178,52.57662221,60.19097922,58.6436697,58.14138218,57.17011438,57.01911409,57.16940926,57.19011463,56.97618115,56.88321608,56.92592173,57.16362436,56.81538563,57.02790401,57.47021217,57.87329805,57.91250124,58.18496846,58.35609299,58.9446811,59.17483784,43.66638112,71.61977962,69.86029399,74.76899158,65.69818008,60.53880659,58.72875574,58.34663079,57.99387832,58.02253896,58.08558506,57.94899958,57.89971572,57.83484819,57.89852508,58.00192797,57.89420172,57.89369408,57.97686314,57.95372959,57.91989995,57.86664719,57.71978643,57.56295197,58.36849955,58.40910135,58.41689955,58.40813016,57.91080137,53.81692978,55.57926746,55.74521032,57.87973857,73.83824653,67.74256764,76.29048113,76.37010539,76.01836171,51.49916106,50.74350954,49.4302377,49.38132741,49.42052705,49.30476413,49.22357985,49.38034379,49.69163157,49.68660914,49.55732943,49.61984544,49.9203342,49.97326001,49.91328295,49.92496767,50.09054622,50.27463356,50.3765758,50.19818934,49.9848335,49.90709637,50.0201515,49.91021977,49.62477188,49.52483579,50.41482253,50.82697849,50.90323715,50.77254506,50.68483401,46.54225893,50.48549951,52.01414075,52.30720139,52.42173237,52.56687033,53.80059161,53.99504591,53.52128262,52.25003616,51.28751355,51.53708748,52.37482755,52.9576435,53.17663344,52.93035138,51.66081541,51.41905331,51.85647289,52.61793254,52.93341302,52.66382657,51.61556058,51.61254163,52.07003674,52.60373002,53.0778439,52.56048492,51.92801871,52.25174225,52.8691677,53.22471904,53.47487521,52.54502868,57.36679645,76.70887819,76.74523118,68.38673252,68.59351082,65.03245142,65.13174208,58.99792434,54.41692951,46.45917316,58.07747494,57.91080137,60.63993134,58.57469331,58.02769182,57.81081046,57.72565482,57.81996554,57.99846056,58.15388114,58.14080968,57.9249186,57.8332191,57.80300087,57.90844707,57.84886215,58.06894989,58.40281664,58.80439654,59.13601941,59.36595686,59.50434097,58.94328464,58.29855463,57.77579139,57.7370514,58.07864935,58.37606644,58.52935136,58.68213061,57.56264206,54.42648622,57.01923426,68.81134311,59.20861222,58.01919892,57.85929418,57.91424644,58.05286545,58.05152088,57.9267289,57.81423922,57.86339953,57.98239611,57.96834724,57.9921372,57.80128853,54.30040362,55.0446793,56.01165637,56.85134502,46.94832037,44.27912039,45.64965194,63.48682058,59.21309485,58.86133325,58.68999656,58.36679285,58.33821792,58.22726929,57.86123097,57.90890798,58.14816222,58.16417311,58.08082305,58.25546722,58.41317622,58.38738358,58.12101957,57.86505232,57.82621042,57.97052532,57.80932046,57.59941046,57.30874555,58.73582245,58.6729227,58.556302,58.37659827,59.48573577,58.68036542,56.35318257,56.01165637,76.64149027,74.96868436,76.93035138,46.96552543,50.64237367,50.80781824,48.71058944,48.26410548,48.46374068,48.66193008,48.60568436,48.77864553,48.9693159,49.14275864,49.16001242,49.30473157,49.52842305,49.74858367,49.87939389,49.54784803,49.47102306,49.5048629,49.5385951,49.43030332,49.00783722,48.18673601,46.81201884,46.05731355,47.06085464,48.0519438,48.8831941,49.33589363,50.11785511,53.10086326,54.71262168,53.61113151,55.56772588,56.46727057,53.50429368,52.93035138,53.8343195,53.5792808,52.84584002,51.67949083,50.95782159,50.75789412,51.60428651,52.38631993,52.99400918,53.35893388,53.38545265,52.30767978,50.26478873,50.03303492,50.14179229,51.60589975,52.19354484,52.74819169,53.27764398,53.10844922,51.14399075,49.06876014,49.45506135,50.64214864,51.66081541,51.83623545,52.56906909,52.74318912,50.78765373,50.09246162,50.64214864,51.90358749,52.40724595,52.65879695,51.60497162,50.72961519,51.31455706,53.3108577,53.63198501,54.4236692,51.48682058,52.21803219,64.53267571,63.14399075,52.65679968,45.50524379,52.01414075,52.16274548,48.47528169,40.81535604,53.69991543,51.44139034,50.93852888,47.04008047,47.07836779,46.9446811,52.3218879,52.19354484,51.85230417,51.80010615,50.64214864,50.97508853,52.19354484,52.00776772,41.99755612,41.39862797,40.93035138,53.50429368,51.43879741,51.57817879,51.48682058,50.80025331,59.76273913,76.93035138,NaN,NaN],
	"ap0": [NaN,0.4344209423,0.5781530259,0.547487143,0.5847801249,0.6025419938,0.4838086981,0.4976562365,0.3948694397,0.4989567785,0.1073207931,0.0446447701,0.01703385428,0.01842505869,0.01455550036,0.04487929344,0.0310052639,0.01857511106,0.01790765061,0.0345299821,0.06661756106,0.1312665107,0.280154573,0.3061310311,0.7472534346,0.6627547627,0.1532062605,0.09003941476,0.07135311973,0.2453024395,0.5257130276,0.6123356733,0.2686729343,0.6454659296,0.8625840552,0.529796774,0.1245442375,0.06459798574,0.04134668237,0.1097407057,0.1666684623,0.1571781983,0.125137109,0.1901532142,0.3600731811,0.3936750541,0.2963972817,0.2480871825,0.1699847674,0.09594659905,0.07089497764,0.1310106622,0.4476836099,0.6936168992,0.8684951316,0.7601597397,0.8080012829,0.8041062616,0.9892937022,0.4591087473,0.06698475804,0.04345426845,0.01954517744,0.04497716772,0.04352619988,0.02153606076,0.009863390145,0.01327958278,0.02059638037,0.01789323539,0.01596089435,0.01087740792,0.008561181239,0.01314811903,0.01851187061,0.02009801169,0.01942299733,0.05767213824,0.06556939405,0.02317248629,0.02723439579,0.09497462504,0.4125500773,0.4760637594,0.6942918848,0.3154972287,0.8834143816,0.6661994167,0.7495262264,0.6706607008,0.5928302358,0.7236141914,0.1521183087,0.130734597,0.09445033415,0.06083776392,0.06284726782,0.1199661735,0.1145882619,0.06901559017,0.03809046601,0.03854006888,0.03200840097,0.03624106094,0.0256043967,0.0163384867,0.01361464497,0.01514821577,0.04518152286,0.1318393403,0.1727077551,0.09087039425,0.0590410243,0.03722288292,0.03530968342,0.03346319265,0.07084987177,0.1721030373,0.1754631584,0.1475123209,0.1161329979,0.1964193681,0.4128706401,0.6879326152,0.5789737999,0.3777618075,0.2873660466,0.1949181261,0.1681271812,0.1166087292,0.05550606818,0.09691649664,0.1968691644,0.1234173053,0.1036541898,0.1180649769,0.1177007063,0.08704322349,0.09187617246,0.08213864674,0.05488280545,0.04230645501,0.08552364898,0.08186901862,0.138264878,0.1214909016,0.06015085704,0.04816654375,0.06951081949,0.05642581037,0.09422496355,0.0820838908,0.0746284407,0.08386732939,0.1422264852,0.2814960671,0.445794451,0.8334087982,0.3246213112,0.3025550684,0.5808308465,0.7727040669,0.6548028213,0.6026252393,0.6916659331,0.5819747099,0.6878241056,0.4646974821,0.4875022838,0.4117203297,0.1453330028,0.04101259725,0.02237993999,0.04311543376,0.06573025652,0.05017067919,0.03316553545,0.04610855169,0.07570774638,0.06845671062,0.04054468785,0.03068967603,0.03166538708,0.03643908284,0.0361713489,0.0777537504,0.104559422,0.07866423159,0.05846853695,0.1050904639,0.2093504192,0.3442126111,0.3893054135,0.1913075566,0.08946729467,0.220166894,0.504958942,0.5919988329,0.2730685999,0.8357108533,0.6967682394,0.1831955842,0.0927324768,0.02588443063,0.04955715235,0.0762251601,0.05271404584,0.02214249354,0.01608746059,0.01790964366,0.01463481685,0.02704302327,0.05330651362,0.1803717372,0.3538938807,0.3262415704,0.4185262375,0.6632348193,0.9180565484,0.7381225321,0.6789959071,0.3679241253,0.6671035168,0.09362356506,0.05993685024,0.1219619839,0.2557782534,0.2500777805,0.09924209319,0.08190865652,0.06561654701,0.04645123612,0.03272948481,0.02597117128,0.02028728938,0.03574308958,0.1023216744,0.170169737,0.1089091889,0.07512904363,0.05036102941,0.0829284671,0.1245348325,0.08473639207,0.04941869029,0.09232933389,0.3991062971,0.594765882,0.5735233428,0.3203907984,0.4142240573,0.2983401785,0.4344049377,0.6298326759,0.5109953118,0.3923579338,0.2945433712,0.3638779092,0.1964086314,0.0533126668,0.03721534976,0.0436759979,0.06941997605,0.04924418687,0.02295120381,0.02091790051,0.0329260109,0.04389700702,0.03357583889,0.023668601,0.07963619203,0.07964962738,0.07448654637,0.07279684176,0.05955078537,0.08959873634,0.1828495993,0.243953575,0.2357956076,0.1486615274,0.09958017516,0.09137753154,0.12280552,0.4525017832,0.5816041794,0.7226400919,0.6678302185,0.5914276364,0.5354940786,0.5101399331,0.2647897449,0.1341268081,0.06866582392,0.08234841728,0.1474682199,0.110970096,0.1489129113,0.1517787885,0.1102303181,0.06477271708,0.03635923013,0.03554306303,0.1495318444,0.1425959294,0.093187531,0.1071209839,0.2458628869,0.1498836699,0.1457501375,0.07337452313,0.110153181,0.2925134969,0.1273267643,0.2175714599,0.3988379613,0.3340866984,0.1520874767,0.1122614852,0.1414036714,0.2701863128,0.1892184378,0.1445363852,0.09712410303,0.137458687,0.2495240525,0.378932898,0.1609645742,0.3190082742,0.5267171192,0.4906680108,0.3405836623,0.504439197,0.7300696956,0.4735908047,0.781965998,0.6860319506,0.7762858186,0.4809129283,0.2228887459,0.7314310384,0.8108778494,0.5752458701,0.236855929,0.8815029146,0.6210271736,0.5927016372,0.7139276625,0.7428426448,0.2730445056,0.147209723,0.1851642405,0.4340736032,0.5402843323,0.5976219255,0.4422308045,0.6012046094,0.3878833206,0.4209418984,0.5326047037,0.2672216913,0.3449993885,0.5968216976,0.6269646975,1,1,NaN,NaN],
	"ap": [NaN,0.470895202,0.4525078934,0.3828675859,0.323350815,0.4239801374,0.5476649806,0.4173349877,0.3101731094,0.03449506073,0.8071852333,0.3382192472,0.04773912702,0.005472298008,0.007265499496,0.006233555942,0.0377844279,0.01457539151,0.01138832728,0.01197375287,0.01333701319,0.07193732015,0.06381865135,0.1561137069,0.1887137374,0.4653020717,0.5163838736,0.7230089294,0.02734652157,0.01872769159,0.06597941079,0.6243457415,0.1555413846,0.3449806684,0.4693839992,0.4182974803,0.4860410035,0.3343083488,0.04439479469,0.01885961363,0.07455777043,0.1191274096,0.06536784046,0.04954228998,0.06339347177,0.195824217,0.2749553927,0.3510682841,0.160226214,0.07045283579,0.06982591365,0.03599560226,0.08939360385,0.2962190164,0.2589122549,0.464421684,0.5209438529,0.7159075302,0.6900913059,0.6290885219,0.5200763926,0.2625028163,0.007627468863,0.003819101866,0.01967827013,0.03157682186,0.00399787312,0.006586464285,0.01024314305,0.009660006688,0.01369646049,0.005025475148,0.01276044055,0.004398372049,0.004983336134,0.01202027607,0.01571648089,0.01331714512,0.06336578784,0.09208331613,0.01441117641,0.01446100456,0.04052417396,0.3398631419,0.4572611746,0.2341916416,0.229802862,0.2522395581,0.5474533323,0.669409561,0.7471917595,0.2990906116,0.5292441553,0.265720623,0.1245786609,0.07053394711,0.02140675029,0.03276408709,0.03327192441,0.07937251921,0.02778530417,0.01426760068,0.03396093514,0.0136825392,0.013625195,0.009100202588,0.008638030191,0.006563523078,0.01525321645,0.02183855972,0.09955815951,0.09332986874,0.07082762314,0.0182264292,0.01746513055,0.01380226387,0.01999723214,0.02267527359,0.2033643463,0.09671315793,0.05945229733,0.01933894747,0.0813580122,0.2749226033,0.5399644358,0.1698131603,0.1933218507,0.2289958505,0.01933597747,0.1130092304,0.01882476292,0.03763471884,0.08801177237,0.1791908551,0.01367881883,0.02169586121,0.0577806072,0.02558112562,0.05634320648,0.1797050687,0.005850269974,0.09118701156,0.04985571221,0.04751919261,0.04996051293,0.1810503854,0.04148063533,0.03217796452,0.02252163866,0.01936810605,0.05704929036,0.06615011098,0.07539735449,0.08602868822,0.08431378065,0.1457963099,0.08535172449,0.719609892,0.3317815401,0.7069205203,0.5047746389,0.4715725451,0.5843448092,0.4568265904,0.1273649396,0.4624835125,0.3285065354,0.3643936577,0.2817461556,0.539539534,0.2911950158,0.3417554828,0.08574334708,0.008398450016,0.03220690222,0.05134640347,0.02464368465,0.02478490736,0.03032259949,0.02678288813,0.02944241854,0.02294638354,0.006165116536,0.008829717827,0.03664855835,0.04135865199,0.08794866545,0.05550494167,0.07332402263,0.06156283647,0.1259474843,0.06314334219,0.1840369598,0.4217114869,0.1825353671,0.02982308154,0.1340660213,0.7108223256,0.2306811314,0.2652157501,0.4841659164,0.4744927921,0.8378539138,0.1148868317,0.011805525,0.01270286307,0.04469289322,0.02177747874,0.01114028157,0.007721528155,0.006088088283,0.007877983818,0.009689339301,0.03927461989,0.1738740562,0.2134528377,0.4271296766,0.1165883597,0.5379421399,0.4989968704,0.2965629355,0.6691319159,0.6621035228,0.3917085079,0.2077350365,0.04232468277,0.0383440059,0.04429535673,0.1669514357,0.04597066291,0.04225527614,0.03298154612,0.02087708919,0.02496511295,0.01881832684,0.01197752986,0.01236542006,0.09118752982,0.03191787926,0.1884191805,0.03528976053,0.03555085862,0.03068583212,0.0314706638,0.09717902726,0.04050660319,0.06128186177,0.393932903,0.2183095893,0.4098599526,0.4131582453,0.8849605029,0.5455771221,0.3924596862,0.5349589933,0.3109386824,0.5084502298,0.09297769676,0.3985849947,0.073051886,0.0231346137,0.02786134357,0.008361817974,0.03396378751,0.02548464873,0.00916959715,0.01070610258,0.02636466053,0.03249349995,0.01393989444,0.01956110401,0.02508021066,0.1063344717,0.01628908471,0.02306826045,0.009897442704,0.07551225529,0.1480139255,0.1345305462,0.1152614895,0.194841336,0.07024010181,0.06602389109,0.06121808799,0.13346099,0.5098361779,0.2243451969,0.3359118111,0.4271549096,0.5772514384,0.4529710718,0.1001265241,0.05484403821,0.1029204351,0.101152113,0.05321215554,0.0485631717,0.06950828382,0.06303580367,0.1162377468,0.03919397532,0.01343096157,0.05793262958,0.2717009137,0.05559187419,0.05261597208,0.1041505588,0.4846611639,0.1146471177,0.05092059895,0.03342401749,0.3090854738,0.1734819639,0.02044351352,0.1227009301,0.1891440989,0.3281511792,0.04052889414,0.09325505252,0.2642716145,0.04753687323,0.1977018223,0.1131799877,0.08777127613,0.01558009709,0.155662012,0.2975110601,0.1437477156,0.09624965759,0.4450551538,0.402508765,0.2879768481,0.4668754369,0.6729919338,0.2838650364,0.350378757,0.2035056928,0.6410790294,0.1614312027,0.3970394806,0.2972163642,0.6343739985,0.3416815185,0.2593962093,0.7238467276,0.3107633124,0.2432073159,0.1991054461,0.2820415794,0.6389951429,0.04843813689,0.084347318,0.6271497246,0.3977263935,0.1662428573,0.5024272841,0.2162139962,0.2523046618,0.1451229759,0.4412953283,0.1131609386,0.1987644126,0.3940569897,1,1,NaN,NaN],
	"pwr": [NaN,2.759141284e-05,1.66178144e-05,0.0001495822749,0.0002409312062,6.192915583e-05,5.69847373e-05,0.0001334533123,7.925765786e-05,2.618418316e-05,3.490025721e-05,0.0003831709333,0.01684575353,0.05152973965,0.03980290646,0.02409552281,0.03259949611,0.08009145268,0.1220652358,0.08781883004,0.06776540294,0.03996631021,0.03346438027,0.01279986265,0.004699786378,7.432359006e-05,0.0001039192627,0.001552449037,0.1266686168,0.05499507187,0.02965063959,0.01203029226,0.01831211266,0.001979193121,0.0001920061075,0.0001069956753,8.379317554e-05,0.0004435783321,0.06103668125,0.09122376555,0.02648218349,0.02749091714,0.02744359818,0.01760659385,0.006218170931,0.001104192411,0.001966059453,0.002402224046,0.00618527251,0.007090028001,0.004487388774,0.003771256265,0.005857703663,0.0003280041768,0.000220574126,0.0001386796825,0.0001021041561,0.0001120053325,5.007341695e-05,5.593137796e-05,2.064799655e-05,0.0005561154483,0.05377644414,0.02553255823,0.008831632422,0.01158517934,0.01064472225,0.01329618228,0.01319977305,0.01743558156,0.01518891935,0.01881243353,0.01493587499,0.02080023484,0.02309484717,0.02016995419,0.01059353475,0.009156430767,0.006672919739,0.002221847039,0.02243749801,0.03122424288,0.03794646829,0.02557286518,0.02209968837,0.001839487366,0.001731780378,4.991843372e-05,3.979048159e-05,7.815554191e-05,8.76789834e-05,0.0001824903967,9.71647258e-05,0.0001190144074,0.002953356234,0.009915117389,0.01919639065,0.008114223971,0.009272877913,0.005595993584,0.006430831006,0.004894887962,0.004150580387,0.00713622255,0.008636654168,0.007657883048,0.007648164665,0.008690727074,0.008115415118,0.005478191641,0.005715181061,0.002886631651,0.001593064555,0.003397054625,0.00399693929,0.003269584563,0.002453201351,0.001792534926,0.0007704065274,0.007142300695,0.03400563804,0.02248087535,0.007820248159,0.005273443039,0.0003460846453,0.0002005954769,0.0001768203282,0.000153589808,0.001363619534,0.003617826859,0.003600267788,0.00975207594,0.005250679769,0.002862882317,0.00360567438,0.002889953424,0.002586334106,0.00263602158,0.003653484873,0.003513461814,0.004061520406,0.003419852473,0.005831047921,0.003303227268,0.001639254549,0.001163759553,0.001598008271,0.001561321392,0.002099156456,0.001854114452,0.001300265868,0.001254964054,0.001329866648,0.001692404626,0.003269466349,0.005003758613,0.001389936381,0.0001113290724,1.153293769e-06,6.186750681e-05,0.0001008752517,1.445334109e-05,1.609737731e-05,4.085487564e-05,0.0001753815594,3.835232894e-05,2.229498356e-05,9.12825389e-06,1.049724549e-05,4.908108854e-06,1.132254851e-05,0.0001136015111,0.01228038654,0.05560570216,0.02485880913,0.02443723434,0.03400987331,0.03151296477,0.02385186961,0.01226301079,0.009455980882,0.008474534267,0.01133234383,0.01403578114,0.01949303665,0.03521312958,0.07375644858,0.139982765,0.1106717688,0.03666621093,0.02872675948,0.01520909771,0.02173057417,0.02468305541,0.0174942255,0.01794789841,0.03047252915,0.007550732583,0.0006108465026,0.0001268224727,3.605021496e-06,6.739879175e-05,0.0003507810332,0.03395429175,0.0353848445,0.01494390444,0.009000967166,0.01389475534,0.01218742456,0.009914845073,0.01001744656,0.01064353224,0.01617446343,0.01882243445,0.009519841569,0.002430527579,0.002743281844,0.002175592454,0.0002413453837,0.0001788401891,0.0002263388554,0.0001287380315,1.981604692e-05,0.0003908262641,0.005318728208,0.1236819789,0.03026101144,0.04148900479,0.04127053251,0.0120834425,0.00645567217,0.01266418374,0.01337661841,0.01645639642,0.02230689145,0.0217607576,0.01366035105,0.002199326384,0.0006758314121,0.000135266521,0.002282514266,0.003524906431,0.006458909651,0.006669815982,0.009078916499,0.04223586181,0.04182980717,0.02515072704,0.01700834388,0.06048352396,0.01391032457,0.00281726858,1.906634274e-06,0.0001165887478,0.0005225616932,0.0005351798692,0.00073055278,0.004579939213,0.009365818436,0.03688916119,0.01096980885,0.01062612032,0.009654605781,0.006946914999,0.007352364976,0.007312246221,0.007082565662,0.009069943329,0.01004501929,0.01058406066,0.007449374531,0.004886682125,0.004697867,0.01053223427,0.005861848153,0.003149606598,0.001112840808,0.001402124832,0.0007137143973,0.001196371959,0.005294851474,0.01699670895,0.03454087047,0.02914718176,0.005722621695,0.00307918219,0.001222454338,0.002276153916,0.001413098434,0.0005434438785,0.001149502931,0.004065510351,0.00226963716,0.004810915104,0.006522236183,0.003333421308,0.006248580452,0.004468451384,0.00184312874,0.003331936838,0.005510914917,0.009001137017,0.00712719755,0.00470424542,0.003836746246,0.008409294359,0.009312417773,0.0007358366159,0.007216359475,0.00980004872,0.01280971238,0.003517668518,0.003748747009,0.009147887145,0.009088841157,0.009452373209,0.001499341673,0.01027560786,0.006482701314,0.00172008638,0.003038582636,0.004481546905,0.001466818957,0.0008385273571,0.001131815175,0.001711242118,0.0007115311365,0.001377036461,0.001082132192,0.000504537128,8.126144677e-05,5.223997054e-05,8.144809603e-06,9.918538851e-08,3.003492477e-07,6.994947819e-07,3.056439664e-06,5.194427657e-06,9.499599931e-06,1.050816055e-06,4.542260695e-07,5.503468194e-08,2.321381197e-08,1.645160699e-08,1.362508883e-09,4.301952241e-09,1.325433214e-08,1.459560874e-08,5.79348125e-09,7.447900411e-09,1.416991634e-08,1.765854125e-08,8.516402427e-10,5.712233057e-09,3.758539577e-10,4.602779198e-10,7.623124288e-10,6.763477121e-10,9.038537908e-10,1.47437909e-10,2.849095614e-10,1.876032911e-09,4.047072623e-10,0,0,NaN,NaN],
	"sr": 16000,
	"range": [1,117504],
	"minf0": 63.1883,
	"maxf0": 706.3069,
	"thresh": 0.1,
	"relflag": 1,
	"hop": 320,
	"bufsize": 10000,
	"wsize": 640,
	"lpf": 4000,
	"shift": 0,
	"plotthreshold": 0.2
}
