{
    "DU": 118,
    "DV": 184,
    "F-measure": 0.7191011235955056,
    "F-measure Chroma": 0.8576779026217228,
    "FN": 54,
    "FNC": 10,
    "FNCch": 39,
    "FNI": 44,
    "FNIch": 15,
    "FP": 16,
    "GU": 80,
    "GV": 222,
    "Overall Accuracy": 0.6357615894039735,
    "Overall Chroma Accuracy": 0.7582781456953642,
    "Precision": 0.7741935483870968,
    "Precision Chroma": 0.9233870967741935,
    "Raw Chroma Accuracy": 0.918918918918919,
    "Raw Pitch Accuracy": 0.6216216216216216,
    "Recall": 0.6713286713286714,
    "Recall Chroma": 0.8006993006993007,
    "TN": 64,
    "TO": 302,
    "TP": 168,
    "TPC": 128,
    "TPCch": 165,
    "TPI": 40,
    "TPIch": 3,
    "Voiced Chroma Accuracy": 0.7432432432432432,
    "Voiced Pitch Accuracy": 0.5765765765765766,
    "Voicing Accuracy": 0.7682119205298014,
    "Voicing Detection": 0.7567567567567568,
    "Voicing False Alarm": 0.2
}