{
    "DU": 307,
    "DV": 199,
    "F-measure": 0.848356309650053,
    "F-measure Chroma": 0.8907741251325556,
    "FN": 48,
    "FNC": 18,
    "FNCch": 26,
    "FNI": 30,
    "FNIch": 22,
    "FP": 21,
    "GU": 280,
    "GV": 226,
    "Overall Accuracy": 0.7905138339920948,
    "Overall Chroma Accuracy": 0.8300395256916996,
    "Precision": 0.8733624454148472,
    "Precision Chroma": 0.9170305676855895,
    "Raw Chroma Accuracy": 0.827433628318584,
    "Raw Pitch Accuracy": 0.7035398230088495,
    "Recall": 0.8247422680412371,
    "Recall Chroma": 0.865979381443299,
    "TN": 259,
    "TO": 506,
    "TP": 178,
    "TPC": 141,
    "TPCch": 161,
    "TPI": 37,
    "TPIch": 17,
    "Voiced Chroma Accuracy": 0.7123893805309734,
    "Voiced Pitch Accuracy": 0.6238938053097345,
    "Voicing Accuracy": 0.8636363636363636,
    "Voicing Detection": 0.7876106194690266,
    "Voicing False Alarm": 0.075
}