{
    "DU": 128,
    "DV": 405,
    "F-measure": 0.6421052631578947,
    "F-measure Chroma": 0.8042105263157895,
    "FN": 104,
    "FNC": 5,
    "FNCch": 15,
    "FNI": 99,
    "FNIch": 89,
    "FP": 12,
    "GU": 36,
    "GV": 497,
    "Overall Accuracy": 0.5722326454033771,
    "Overall Chroma Accuracy": 0.7166979362101313,
    "Precision": 0.710955710955711,
    "Precision Chroma": 0.8904428904428905,
    "Raw Chroma Accuracy": 0.7505030181086519,
    "Raw Pitch Accuracy": 0.5754527162977867,
    "Recall": 0.5854126679462572,
    "Recall Chroma": 0.7332053742802304,
    "TN": 24,
    "TO": 533,
    "TP": 393,
    "TPC": 281,
    "TPCch": 358,
    "TPI": 112,
    "TPIch": 35,
    "Voiced Chroma Accuracy": 0.7203219315895373,
    "Voiced Pitch Accuracy": 0.5653923541247485,
    "Voicing Accuracy": 0.7823639774859287,
    "Voicing Detection": 0.7907444668008048,
    "Voicing False Alarm": 0.3333333333333333
}