{
    "DU": 313,
    "DV": 188,
    "F-measure": 0.7337278106508877,
    "F-measure Chroma": 0.7905325443786984,
    "FN": 148,
    "FNC": 39,
    "FNCch": 84,
    "FNI": 109,
    "FNIch": 64,
    "FP": 9,
    "GU": 174,
    "GV": 327,
    "Overall Accuracy": 0.6187624750499002,
    "Overall Chroma Accuracy": 0.6666666666666666,
    "Precision": 0.8781869688385269,
    "Precision Chroma": 0.9461756373937678,
    "Raw Chroma Accuracy": 0.7737003058103975,
    "Raw Pitch Accuracy": 0.5626911314984709,
    "Recall": 0.6300813008130082,
    "Recall Chroma": 0.6788617886178862,
    "TN": 165,
    "TO": 501,
    "TP": 179,
    "TPC": 145,
    "TPCch": 169,
    "TPI": 34,
    "TPIch": 10,
    "Voiced Chroma Accuracy": 0.5168195718654435,
    "Voiced Pitch Accuracy": 0.4434250764525994,
    "Voicing Accuracy": 0.6866267465069861,
    "Voicing Detection": 0.5474006116207951,
    "Voicing False Alarm": 0.05172413793103448
}