{
    "DU": 55,
    "DV": 260,
    "F-measure": 0.5093632958801498,
    "F-measure Chroma": 0.7228464419475654,
    "FN": 9,
    "FNC": 0,
    "FNCch": 1,
    "FNI": 9,
    "FNIch": 8,
    "FP": 87,
    "GU": 133,
    "GV": 182,
    "Overall Accuracy": 0.43174603174603177,
    "Overall Chroma Accuracy": 0.6126984126984127,
    "Precision": 0.4444444444444444,
    "Precision Chroma": 0.630718954248366,
    "Raw Chroma Accuracy": 0.8131868131868132,
    "Raw Pitch Accuracy": 0.4945054945054945,
    "Recall": 0.5964912280701754,
    "Recall Chroma": 0.8464912280701754,
    "TN": 46,
    "TO": 315,
    "TP": 173,
    "TPC": 90,
    "TPCch": 147,
    "TPI": 83,
    "TPIch": 26,
    "Voiced Chroma Accuracy": 0.8076923076923077,
    "Voiced Pitch Accuracy": 0.4945054945054945,
    "Voicing Accuracy": 0.6952380952380952,
    "Voicing Detection": 0.9505494505494505,
    "Voicing False Alarm": 0.6541353383458647
}