{
	"f0": [NaN,64.9890741,64.97442282,64.91758784,65.58594913,65.663669,56.69965447,62.15444483,63.13662359,64.76212431,64.94337918,65.1302204,65.06699883,65.2463486,65.44533431,65.49117948,65.42774806,65.39544778,65.32161116,65.06879787,64.8350243,64.74703706,65.23346485,65.43251625,65.49734385,65.35071312,64.89765524,64.79220921,65.19319422,65.25647285,63.83657672,55.74822603,75.27766922,76.93035138,53.56636538,53.6159383,53.6490918,63.14399075,61.38945824,60.93126537,59.21309485,58.13033143,61.13491333,58.9446811,58.28558614,58.74079689,59.23019317,59.39210736,59.4044291,59.49656667,59.64531313,59.62123604,58.9446811,58.61202476,59.40968457,59.76273913,59.45078033,60.26575953,60.86100827,60.68768583,59.92962862,58.85503194,58.9446811,56.57813688,55.21557681,59.41826833,61.86976418,61.07522408,60.31929786,60.06884709,60.11577781,60.01628764,59.99107382,60.08376468,61.24163573,60.27869889,61.83677829,62.11576745,61.68064924,59.90426342,59.88918667,60.04528981,60.58062735,60.79775053,61.3224092,61.83677829,61.55785433,61.84267872,56.23796469,47.8693839,74.29364691,66.23173519,62.24276424,76.93035138,76.81929619,76.11751144,61.94858284,65.16983566,65.14349615,65.19151777,65.19518796,65.00305688,64.83912064,64.82174733,64.78911887,64.93035138,64.6569068,62.97881942,65.3108577,37.16374581,37.17144012,64.96000782,65.25430863,65.49995287,65.55218364,65.47393744,65.32798575,65.16613761,64.94682636,64.88815671,65.03157829,65.22027263,65.34433827,65.35521772,64.98431543,64.72629145,65.03444276,65.56199026,65.24091069,64.09939389,63.50391448,53.50429368,44.53060924,51.82381217,73.98468652,75.29706155,63.14967014,61.69287072,58.68036542,56.23796469,58.42002457,57.17718672,57.39348361,58.26531252,58.71150014,58.72417135,58.63172661,58.52011612,58.81326617,71.21309485,71.3199483,56.93520015,58.16354076,59.45206856,60.33040771,60.90219175,61.83677829,63.0138126,64.19354484,58.73222207,62.18658418,63.87531889,64.03039047,62.80781824,60.19209644,60.04308737,60.06186086,60.2316721,60.44241761,60.33040771,58.68036542,58.15341228,53.8645329,52.18050171,50.68905283,63.80556184,63.83657672,63.46892632,63.40999411,60.93456211,61.17256119,61.43692004,61.41512453,60.8891096,60.8244985,62.80781824,63.0263575,64.55919967,64.52481011,66.0979178,65.74667728,65.34869506,65.07478501,64.88801275,64.63266982,64.83354125,64.57722244,64.68017179,64.75440269,64.7338789,65.13770742,65.43449546,65.54759509,65.99248811,70.09377255,69.42371574,69.94764222,68.69965447,74.65054488,55.71236477,55.1307869,71.10255501,71.09807549,71.16127516,71.51794919,76.19354484,75.47651396,75.17232688,76.03397704,71.68012913,71.72356289,71.92014527,68.73236545,65.68584595,69.15172206,69.52099291,69.03500385,68.50153992,67.93755937,67.4529645,66.75510934,66.66023185,67.78826823,68.26274883,67.32398045,66.66104074,66.59236442,65.68238877,65.09332876,64.37485518,54.71262168,64.83435204,65.33658039,65.55965095,65.864489,65.65347084,65.19916817,65.00661956,64.92013655,65.10497921,65.44305604,65.44926054,65.33572822,65.06333509,65.17352347,65.20617477,64.84883681,64.85665978,65.25470615,65.2940992,65.32678105,65.34563609,65.25434281,65.11486059,65.12461564,64.89220148,64.42506427,63.86295188,63.0629613,63.14399075,63.3995141,61.77997317,62.22144752,62.70807089,62.74653185,62.79607233,62.80781824,75.20852453,63.37405422,63.79729299,64.12001209,64.33946903,64.40942392,64.19354484,64.02284669,63.94082657,62.80781824,63.03656728,64.06769272,64.17638188,64.06347946,63.73140381,63.57751938,63.36476358,63.46995491,63.67001708,64.03199858,64.16173465,64.26946503,64.24776105,64.08713993,63.95518646,63.80472191,63.81980103,64.18219894,64.24554588,64.17982143,64.03560924,63.8819978,63.90723856,64.1066678,64.03956763,63.73950225,63.59598042,63.68317144,64.04034564,64.18780821,64.16394195,64.21611493,64.15353315,63.84596938,64.19354484,63.38425671,63.14399075,57.18800793,52.55802863,51.05933366,70.64311276,64.06368759,64.23217115,64.08354298,63.58747829,64.05272891,64.10059418,63.98921059,63.77954579,63.76291522,64.07369435,64.13390329,64.0689289,64.00641807,63.84991144,64.02740045,64.24045961,64.20530851,63.62651868,63.04819276,63.67636073,64.01442563,64.13650308,64.09275903,63.91195651,63.72638453,74.15444483,74.24653862,74.87968747,75.48682058,76.93035138,76.93035138,76.93035138,76.93035138,67.34995772,68.01165637,76.93035138,76.93035138,76.93035138,76.93035138,76.93035138,76.93035138,76.93035138,76.93035138,76.93035138,76.93035138,76.93035138,76.93035138,76.93035138,76.93035138,76.93035138,76.93035138,76.93035138,76.93035138,76.93035138,76.93035138,76.93035138,76.93035138,76.93035138,76.93035138,NaN,NaN,NaN],
	"ap0": [NaN,0.08501245485,0.1219585791,0.4294222114,0.5014859343,0.6785946055,0.7209781648,0.4523442456,0.332141275,0.447529613,0.2514174236,0.1668181424,0.1872144268,0.1267663269,0.04960354229,0.02850378543,0.02438475365,0.03358278626,0.04171925838,0.04209340441,0.04831275805,0.0538795501,0.06727763795,0.03518986173,0.03428313844,0.08764022881,0.09390083155,0.125142171,0.2381437198,0.3221620151,0.5536024745,0.5274040839,0.442579639,0.9310944153,0.6136271227,0.7129132843,0.7523511281,0.7419197329,0.5032006208,0.3332818105,0.3003588432,0.3465558831,0.4485034622,0.4579375783,0.06822056249,0.06518042012,0.07232664509,0.05005117653,0.055472118,0.08406362408,0.1195647682,0.2560533353,0.4723472088,0.4486731105,0.3780180821,0.4315497395,0.4933695693,0.4141826338,0.2618389167,0.3449287125,0.577733954,0.4816162711,0.4846542879,0.6389871467,0.8808976533,0.9370544347,0.289515292,0.2222020843,0.2041722016,0.1248330295,0.07872434813,0.13972984,0.2601824198,0.3061861403,0.2479543445,0.2184264227,0.2612018902,0.3256793071,0.3125649668,0.0995777563,0.09098119326,0.2716864874,0.3762054475,0.3105175947,0.3178851833,0.3372114262,0.2448185005,0.1824394253,0.4853386143,0.7294498809,0.4535375945,0.6593169005,0.7062933634,0.7006442033,0.684733327,0.9281996326,0.6539307895,0.2940487976,0.08651263289,0.1032140455,0.1209107678,0.07330252038,0.09948644018,0.2075005541,0.2966577763,0.3392412437,0.4394706345,0.5999342475,0.59563485,0.2685011648,0.2154154535,0.2132195405,0.1585673104,0.09940850618,0.05625115327,0.03865823032,0.03322769597,0.04330476697,0.06016361346,0.05282246048,0.03971997485,0.03185435996,0.0273072434,0.04000583895,0.08142121076,0.1009648928,0.2422333216,0.2778936771,0.3916318042,0.3952007419,0.5617028664,1.222772994,0.6573842199,0.6032105727,0.5709068661,0.6930528679,0.4530875431,0.469920528,0.4507119587,0.3459323466,0.6162250097,0.1475139202,0.07025518834,0.2465513464,0.1672804443,0.1045695524,0.08091714901,0.1413049336,0.3407555798,0.4552650682,0.7892101955,0.4203468838,0.5000349866,0.4292849499,0.4759759126,0.4890438452,0.5962632535,0.6365376647,0.6033933202,0.4990591101,1.261554291,0.2696164043,0.206768231,0.3314612185,0.2109044106,0.2640229489,0.353262248,0.3201016789,0.4365379908,0.6776257176,0.5110255804,0.6657702157,0.6336074736,0.6509531903,0.6911056601,0.6028209752,0.2775766263,0.297524714,0.4567040983,0.4095106534,0.3063466137,0.2433465742,0.2124141057,0.3302103583,0.4566175658,0.2188173253,0.6081795996,0.2790338316,0.5772049761,0.5636187016,0.1093953945,0.06580937372,0.04876235537,0.04325607529,0.06607378699,0.1713035533,0.1577269091,0.1403649278,0.1299481888,0.1253821491,0.1640243119,0.1350220989,0.1103399768,0.2757998253,0.4211381585,0.3500729365,0.3900953403,0.3796074399,0.7124624207,0.5488334129,0.6967456234,0.05187955478,0.03863111415,0.03327996986,0.05882846441,0.3714484907,0.4884217703,0.5524938091,0.5569373932,0.9203302831,0.7640048347,0.7225638033,0.6552217082,0.6557997193,0.4894383275,0.1779606847,0.07665223285,0.05487427108,0.07029620338,0.08088175472,0.06673182497,0.1444066859,0.308003734,0.4230499597,0.4566331355,0.3534515074,0.4316436377,0.3310106131,0.2103707799,0.5759455485,1.045946313,0.2671720369,0.09918438171,0.05329045619,0.06432779151,0.09617172007,0.1526214989,0.1534759484,0.1329528474,0.1447000335,0.06704745089,0.04614088604,0.0710198207,0.1778760243,0.2293444636,0.3644280075,0.2109779009,0.07725728201,0.04685637073,0.02805201216,0.02438380191,0.0270603894,0.03807777275,0.05838987297,0.1136441975,0.2526984349,0.4157613853,0.3627584222,0.1996453134,0.1266654371,0.2166686543,0.543827462,0.4456900742,0.2252454652,0.1682608901,0.3548905494,0.5727405257,0.4922346587,0.2309314911,0.159234093,0.1373497094,0.1269617437,0.150422168,0.3398459375,0.3522505738,0.3191888619,0.3820258457,0.3972368857,0.1403515537,0.05126480547,0.04889997434,0.07310131441,0.1118308048,0.07511340125,0.04334718759,0.03880143964,0.05433838017,0.04429253128,0.03674148637,0.04240775405,0.0739268074,0.1188049318,0.1281057368,0.09089459448,0.04509413607,0.03980222042,0.06636642163,0.08053659079,0.04897417433,0.05933709265,0.1156255633,0.150726491,0.0993888681,0.07759014037,0.1385603543,0.1176949624,0.08128153164,0.1302724953,0.342403333,0.3418943753,0.3357975753,0.3121222953,0.4145639388,0.5372592573,0.3671030217,0.5162496266,0.6717675699,0.385353326,0.2899627144,0.3666884723,0.3898686554,0.2869677167,0.2239671393,0.1293725164,0.2269962089,0.4849615959,0.3409439012,0.2580503005,0.1415003825,0.07783420247,0.06890538359,0.1364817914,0.2557194835,0.2406873137,0.245598602,0.4106596226,0.1921755448,0.2205363158,0.2106707052,0.1364308796,0.1588669066,0.2727265602,0.4472085664,0.416716062,0.2233397211,0.2128273489,0.5071053165,1,1,1,1,1.04,0.5682239765,1,1,1,1,1,1,1,1,1,1,1,1,1,1,1,1,1,1,1,1,1,1,1,1,NaN,NaN,NaN],
	"ap": [NaN,0.1133456994,0.01843253656,0.07090994179,0.5343568831,0.5594407361,0.3451826066,0.5903941148,0.7323103934,0.1545748958,0.1346849365,0.1629922517,0.1063588226,0.06992460834,0.1136405346,0.08415372333,0.01967024231,0.01903192387,0.01252365693,0.0240599089,0.0315290231,0.0142167955,0.0405687082,0.08350491491,0.02606725998,0.02021376065,0.0823727558,0.06419789002,0.09024340237,0.4996811406,0.3412059058,0.8800008801,0.2151605501,0.2925362521,0.7080021161,0.5369840655,0.1468045233,0.3063350276,0.4473679869,0.2303114857,0.2554619935,0.2073723719,0.4886139499,0.4338155132,0.382731696,0.1319894494,0.07277308638,0.08645044619,0.02687762884,0.04428593185,0.04201293029,0.06396532923,0.2618020639,0.2882771304,0.1403256475,0.2304895118,0.148337238,0.4328730157,0.09170880351,0.3585097382,0.2399695531,0.2099809628,0.3278181827,0.1405995401,0.5369336682,0.5166951463,0.5910438543,0.5062322824,0.2025579202,0.04990198572,0.08023485444,0.03825781652,0.03057325306,0.09736077677,0.5983568256,0.2397365157,0.049764304,0.1992931627,0.02482893821,0.06440131375,0.05671136663,0.06987814475,0.2115180435,0.3647402846,0.2286851752,0.1306447511,0.3478531222,0.07964262329,0.4223390269,0.4634730662,0.2180086632,0.4592726487,0.2039109772,0.3777230436,0.7066225278,0.3682439161,0.7683200834,0.4415604764,0.1987070179,0.3601585484,0.02078975694,0.04131739556,0.1457699188,0.0285875004,0.1238457799,0.08607204895,0.489710174,0.06748035384,0.5019035901,0.2525235961,0.1734199566,0.1356618153,0.3120054621,0.03692146013,0.03581774711,0.1228902315,0.01537055207,0.01892787764,0.00967420461,0.01454309536,0.05811779143,0.01670282859,0.01413254791,0.005613591856,0.007687920193,0.0802330334,0.04373039828,0.1076085056,0.1772280432,0.6585477742,0.1425385357,0.8771039695,0.05782310479,0.5070698523,0.3434041093,0.5554238394,0.4637396431,0.1722171504,0.4094826909,0.3935321004,0.2517894893,0.4746963106,0.4962224458,0.111492024,0.09146738162,0.1290072623,0.1227702026,0.03228850802,0.0584232206,0.1382244129,0.1654888753,0.2225868746,0.1600752556,0.3939148795,0.4933811476,0.2977638875,0.1514735551,0.2723133836,0.2979955431,0.3511070189,0.5241626818,0.8197501894,0.5288020239,0.1260907987,0.6580386692,0.1735745819,0.202725269,0.1621817805,0.07091789189,0.3679631627,0.3911673082,0.3290359853,0.2656515238,0.3715642513,0.3076444898,0.6939760054,0.9451225303,0.3248652265,0.5767447805,0.2963948164,0.3548454346,0.2708637623,0.2691588373,0.185457864,0.1488938627,0.1662830517,0.08769901392,0.06706169612,0.2654247453,0.4865768404,0.3474690538,0.6310736855,0.03150816433,0.02995821059,0.008895284754,0.03584187104,0.1035421376,0.04456662051,0.1228122987,0.1133459541,0.02840935605,0.1648427456,0.04348013275,0.02319326216,0.384658482,0.09798777418,0.5361286572,0.5263696848,0.522510013,0.4866219394,0.4894495398,0.607206458,0.6104511264,0.007608504302,0.03555085075,0.3562259428,0.2236197535,0.770023826,0.2783118505,0.5876262798,0.6474707964,0.5158643684,0.5071994839,0.3642211098,0.3001870593,0.4479219321,0.4737641776,0.1337570536,0.0181216722,0.02330009977,0.02345906728,0.1138737588,0.05717206654,0.1159801948,0.2736819325,0.200257604,0.2867134806,0.3780278433,0.1508014739,0.2884920477,0.3550865052,0.398446532,0.3609269995,0.1037435831,0.03496488019,0.04024746619,0.08550713825,0.1888095045,0.1391657972,0.08656827395,0.1168861934,0.06149537314,0.02868933466,0.0549243765,0.104825655,0.05528372511,0.4598731346,0.117696702,0.04888895239,0.02718885225,0.02754062419,0.008129308935,0.0121984586,0.008338959215,0.01867001198,0.04973153792,0.05241481857,0.389558009,0.05943502415,0.03995808888,0.04678667944,0.03359884101,0.5359711634,0.4190157774,0.2124051507,0.1061613043,0.0791343718,0.8137772725,0.1844271305,0.475364898,0.04865226164,0.04690254233,0.01985838725,0.04152954183,0.2578744829,0.4355845223,0.5263974347,0.1085581863,0.2548390304,0.1721671597,0.01371567766,0.01082346094,0.04093927825,0.06923030236,0.01872969802,0.038889659,0.04040116022,0.03898956306,0.01576681426,0.01427198251,0.0222288993,0.09193036289,0.04111937034,0.06993674383,0.1088627361,0.0806480516,0.02337484617,0.01925595444,0.02611916661,0.03263640581,0.04504950931,0.02890119141,0.2181048175,0.04082029894,0.03582970126,0.06912664644,0.07077632134,0.01315560794,0.01219468365,0.1790482106,0.1759193332,0.1596147063,0.2177425701,0.2678327973,0.3115690324,0.1718599213,0.5000002481,1,1,0.4985125903,0.05616392443,0.4448851153,0.5142201542,0.09506238274,0.02402386621,0.1840558113,0.205316709,0.1216799836,0.1886686203,0.05754136749,0.05322330205,0.02926481875,0.05188380948,0.2159406038,0.06089865281,0.2086490914,0.216070589,0.3153891799,0.08742149859,0.09892714874,0.06210515251,0.14507847,0.09489728114,0.659457182,0.9032973859,0.203035886,0.1386662523,0.5000001075,1,1,1,1,1,1,1,1,1,1,1,1,1,1,1,1,1,1,1,1,1,1,1,1,1,1,1,1,1,NaN,NaN,NaN],
	"pwr": [NaN,0.08353864195,0.02862155876,0.02480980529,0.002754673087,0.003149691484,0.001990281363,0.001716801693,0.00119085319,0.00161790118,0.002795471788,0.0007123200653,0.001609576967,0.001170868849,0.001462009213,0.00231160399,0.01135433124,0.01829494224,0.01448759878,0.02540226233,0.01045443726,0.01186113282,0.01528960968,0.005654997984,0.03280195073,0.07249956692,0.01733409953,0.0202104252,0.0206077399,0.0009933721872,0.008128067675,0.01508178258,0.006425981179,0.0001171938721,5.592986253e-07,4.416533225e-06,0.0001127367522,0.0002150416189,3.708590719e-05,0.0001642769743,0.0001529675374,0.0001228441155,8.232442283e-05,1.77804309e-05,6.366000704e-05,0.0002386339601,0.006435014841,0.01202053775,0.01849688672,0.03245205003,0.01085754707,0.01321192812,0.006158079467,0.0008786254836,0.0002771542318,0.000227472758,0.0009162940506,0.004672878235,0.001496696651,0.0009264737734,0.002353487207,0.003347385312,0.0008965442602,0.0002462595811,4.027771655e-05,2.985498541e-05,1.554502562e-05,2.338077726e-05,0.001206410798,0.005704145805,0.0009414721331,0.001159463964,0.003442932742,0.002939271807,0.00121642575,0.0006573351213,0.001059987883,0.0003213743057,0.006003394148,0.008701089183,0.007640648944,0.009268544975,0.00436539898,0.001498343793,0.007579780254,0.003919717437,0.005330716932,0.00382347844,0.0001509342692,4.404384368e-09,6.56066692e-09,8.517598497e-08,3.095463398e-06,1.790629366e-05,4.819100864e-05,4.841315133e-05,6.909681282e-06,1.353889076e-05,4.5683e-05,0.0001539025893,0.0414504086,0.01236527749,0.005702166012,0.004720807597,0.00522061704,0.008883268722,0.001453560485,0.002536938602,0.0001273957534,4.221509565e-05,0.0001362402918,0.0004598544459,0.0009941754151,0.001642336679,0.004560035779,0.007280939986,0.01278998696,0.01164777387,0.01685765438,0.01156119017,0.007342768587,0.01131587178,0.02108405263,0.03509480868,0.0357051596,0.01399075923,0.0167316299,0.003990465516,0.006065597082,0.0093608088,0.003601727958,0.0006712632544,5.313688479e-05,4.122577324e-06,2.789080133e-05,0.0001939280548,0.0003158968174,0.0006629873764,0.001525598626,0.000906837434,0.0002940238711,8.920586865e-05,6.085283635e-05,0.002779049366,0.002789841333,0.005345518108,0.02773110051,0.01563325439,0.008819509796,0.008347562569,0.004259524094,0.0003578769544,3.856469052e-05,0.0001074105933,0.0009582067791,0.006280271105,0.008627079705,0.002038793616,0.008218599785,0.001760510889,0.0008688228895,2.447879373e-05,5.650060701e-07,0.0001860618358,0.006243805678,0.001679914488,0.002427488783,0.004118230806,0.005990410613,0.006960090421,0.001166916237,0.0001968257088,0.0001457176925,6.392335584e-05,0.0001372453911,0.0001162009378,0.0001296345548,0.001744090576,0.003935380327,0.008593579589,0.007346581968,0.008076518947,0.004296705884,0.01350444966,0.01884920644,0.006824899126,0.003363767514,3.19040967e-05,6.774425396e-06,8.652501111e-07,6.842548382e-07,0.0004515678006,0.02279313061,0.08150195859,0.09289080946,0.01088726818,0.003761741936,0.008725191223,0.01126350213,0.01891089421,0.01403397016,0.006583199087,0.008869839688,0.003115945145,0.000256582286,0.0002311012735,8.239369719e-06,2.823092006e-06,1.825207144e-05,1.094213119e-06,1.719949249e-06,7.856945305e-06,0.0002621097127,0.01025929751,0.005045822492,0.000644653422,5.737594734e-05,0.000188737798,0.0001611808993,4.238683026e-05,2.063128693e-05,3.778634404e-05,9.646067524e-05,4.186356757e-05,3.128131782e-05,8.609260876e-05,0.0005601297739,0.001820525085,0.00799062572,0.01156597356,0.003351952602,0.0009043144542,0.01365313536,0.020629134,0.001195690927,0.002479073262,0.001725009716,0.001466298019,0.002150516097,0.002397577744,0.0007074697375,0.0002905819802,0.00101957747,0.03596877546,0.1035697665,0.03919909176,0.01890451858,0.01478757614,0.02084372268,0.01223225908,0.003057739191,0.01043627144,0.01799408505,0.006563884996,0.001296430608,0.0003253803481,6.808279075e-05,0.0006035007379,0.0003550911558,0.003568733433,0.01411438946,0.03350101135,0.02760848564,0.01068796404,0.005793742792,0.004157995688,0.005454824683,0.00227559321,0.007075373979,0.009769890053,0.010748607,0.09700494859,0.009125827939,0.01405420222,0.00761912303,0.02261643166,0.002920755277,0.00415699813,0.005127322892,0.004328148529,0.0151530294,0.03908744258,0.02220492677,0.01008238464,0.002103888886,0.0004000213823,0.002047390519,0.001520122647,0.003519677495,0.00209284787,0.00357283232,0.001432583527,0.0004976452303,0.0005490582656,0.0004673178616,0.0006030335108,0.00184818583,0.006538948422,0.02278375666,0.01420099961,0.0160888034,0.008170737928,0.006658607814,0.002161271391,0.004278678138,0.00310426446,0.01817946941,0.01124681211,0.01453128333,0.006005145913,0.004544004709,0.006177689514,0.001259106754,0.002911560659,0.00256885523,0.004324155855,0.002956277863,0.01314872545,0.003963740062,0.002851397454,0.0008549209466,0.005176615625,0.003545308326,0.0001019147389,8.365256797e-06,3.324028976e-09,0,0,0,8.494123849e-10,6.006914049e-07,5.240623459e-07,7.584026259e-08,5.688002202e-08,3.984162855e-08,4.055415195e-09,2.22878706e-09,5.183681013e-09,9.555101078e-09,1.295555844e-08,2.987007808e-08,3.935060291e-08,9.687712901e-09,5.852952696e-09,4.814747948e-09,3.932136472e-09,3.450486897e-10,5.894521615e-10,2.229252504e-09,1.681212931e-09,5.604821747e-09,1.975765349e-09,1.85083428e-09,9.205433782e-10,1.334447431e-09,1.081124055e-08,6.060581654e-09,5.036228053e-10,0,0,0,0,0,0,0,0,0,0,0,0,0,0,0,0,0,0,0,0,0,0,0,0,0,0,0,0,0,NaN,NaN,NaN],
	"sr": 16000,
	"range": [1,124672],
	"minf0": 63.1883,
	"maxf0": 706.3069,
	"thresh": 0.1,
	"relflag": 1,
	"hop": 320,
	"bufsize": 10000,
	"wsize": 640,
	"lpf": 4000,
	"shift": 0,
	"plotthreshold": 0.2
}
