{
	"f0": [NaN,49.06721424,52.81239662,53.69991543,76.84348239,46.41952468,46.54970563,45.58534699,45.70394094,51.86947492,54.03550529,54.37195306,65.56525713,64.89787655,46.41151806,44.906176,46.26862301,47.21309485,49.94578032,48.99968312,46.03670986,45.53847862,46.03670986,47.21309485,41.69991543,52.5142428,49.99488296,47.76273913,52.55802863,62.16532692,49.3709473,41.40730553,42.28088225,43.24209232,45.88451365,45.78580198,51.48682058,48.96297339,54.65598739,67.81569756,64.95421244,64.96842419,58.62215991,46.59727024,49.62973217,77.03140819,77.29355805,76.93035138,76.93035138,64.13868606,64.29079734,77.03767934,76.33967717,76.01797495,75.48682058,46.91696114,44.71543188,74.80781824,74.80781824,75.48682058,50.11496953,43.89960199,44.01165637,43.45849939,43.29972227,43.67559985,44.10314884,44.51241926,44.84148359,45.03418713,45.20594064,45.29091303,45.28576111,52.52904996,52.67317014,46.40925602,47.07836779,49.47583743,49.99488296,50.4780494,43.67764587,52.01414075,52.55802863,55.34995772,62.46980223,61.18341828,49.64857171,44.11096395,43.44268107,56.60019119,56.54762919,56.56486658,56.60003312,56.22301951,54.32175857,54.88638707,51.15131819,47.88421588,48.18673601,59.21309485,57.93589669,57.49811565,57.36982239,57.46556649,57.35607939,57.12725944,56.87027719,56.61981161,56.27833937,56.50156628,57.34315482,57.543996,57.61727851,75.75150759,74.16996315,73.55270285,57.07972317,57.14051921,56.93520015,57.48665227,57.57035903,56.94430879,57.33941136,57.63574522,57.66428467,57.55775828,57.41547309,57.28235273,57.02154516,57.02130411,56.47011143,55.95830403,55.98313702,56.42843192,56.41385976,56.26808393,56.36799994,56.54868315,56.79106614,56.9537465,57.17913604,57.24718602,57.15905995,56.69211231,56.71685854,56.92559934,57.04505148,57.12636655,57.12811403,57.16121621,57.17764406,57.19597059,57.20849054,57.2022264,57.04970441,57.00666052,57.09851062,57.09258758,57.12556075,57.23180012,57.25611917,57.31542603,57.34614234,57.24952696,57.77595286,58.11752995,58.61435899,54.46446441,59.52414708,61.3916319,60.33040771,59.50954462,59.44028004,59.90149898,60.26457049,60.2779947,60.3696919,60.7127767,60.92737301,61.12955364,61.45680796,61.70310544,61.87885838,62.01324055,61.97903086,61.88964232,61.89882423,62.06596735,61.78341449,61.75014392,61.70184487,61.11398486,61.4390512,61.14071007,61.86042158,62.22145259,62.15109327,62.13558827,62.1118696,61.91300858,61.77488484,61.77421818,61.49558596,61.52668419,61.69489236,61.80358443,61.61231333,61.33557923,61.83677829,63.00455852,63.18298303,62.93066044,62.06484998,61.45171032,61.1614113,61.21841468,61.71137284,63.48682058,63.76670792,62.15444483,61.52483579,62.13567247,62.2535661,62.80781824,63.48682058,44.87082713,47.8736337,52.71231514,49.85004764,54.4153281,76.66795521,76.22115508,45.81001113,45.78084185,76.2138033,49.61319305,49.40993311,74.66911319,63.79598536,64.12200104,64.54941597,70.48600902,71.50977447,73.42680388,74.98092224,47.4741442,48.72129035,50.69915114,62.21589805,76.02995007,50.41497979,42.40812513,42.71262168,42.98845813,42.88598768,43.19871129,43.44427825,43.87407377,44.13371402,44.33607185,44.48752278,44.69965447,44.46727057,44.35223798,50.15444483,49.76652885,51.14399075,51.85595299,52.89414496,49.94911916,52.93035138,61.52483579,58.53342676,64.80840525,59.68447265,42.7119017,42.57228277,46.53933644,57.71827788,57.489766,57.32097685,57.24417893,57.10554236,56.97577366,57.18479174,57.44863771,57.66169865,56.69651303,56.70183639,56.97149072,57.09968506,57.24202557,57.41485389,57.20883674,55.79585291,55.08282442,54.59186464,57.84637307,59.4243512,55.06824095,57.9093019,56.40093597,56.53414473,57.00830171,57.39179482,57.74996112,57.6676037,57.41612942,56.01165637,54.7246771,52.45686672,59.70789804,76.27882441,59.9428478,58.42002457,57.8610683,57.43319335,57.18852498,56.69965447,54.02585558,53.69314113,54.94812372,48.98251955,59.39240819,58.42002457,57.07407692,56.96218145,57.08610968,57.17970608,57.01083797,56.86803353,56.46727057,55.18995757,54.71262168,58.9446811,58.9446811,57.31556429,56.74876742,56.63275047,56.70416727,56.72663126,56.87400746,56.98668499,55.76950072,52.86932696,59.12873989,56.90359825,59.48573577,57.91375606,57.47530132,57.18390914,57.19266417,57.41109077,57.48543631,57.45434255,57.41612942,54.64766169,57.66169865,57.31745581,60.94267684,43.19346819,42.70175394,49.33711607,60.57561972,60.2112249,60.18540161,60.41015424,60.41726879,60.2348847,60.23000702,60.7963595,62.10660783,62.34292714,63.48682058,64.53501556,63.40919629,61.50775025,61.47655898,61.56787105,62.20396427,62.17521422,62.12159705,74.56431224,76.32209098,64.19354484,62.34307452,62.15405704,61.95129279,61.77981604,61.76168001,61.78087349,61.58138602,61.38117797,61.28539774,61.51418148,61.65981616,60.83622068,60.98773206,62.23554229,62.94854984,53.15902336,60.33040771,60.62137826,60.91732291,60.91732291,60.91732291,61.1104699,74.01597774,75.364995,74.01375863,74.11922584,61.75529519,61.87904859,61.68660072,49.78085643,49.70993843,73.93591186,74.15444483,61.80766572,61.79695375,61.78624708,61.75159102,61.72421532,61.6820291,73.53536334,72.91091197,67.50564323,61.16894595,60.87617382,65.68967663,62.19944605,62.22470934,62.18910418,71.21309485,76.93035138,NaN,NaN,NaN],
	"ap0": [NaN,0.6732393387,0.6576633498,0.7645615568,0.7763322593,0.654815801,0.6312777144,0.6305503057,0.628973272,0.7439511989,0.7064410323,0.8340454151,0.7408612986,0.8934185813,0.6849742211,0.4475950414,0.5496429188,0.3067146371,0.8567779606,0.2476265616,0.231415314,0.1970216618,0.3053102271,0.4911935822,0.5131389498,0.3147261014,0.4821458728,0.4796021002,0.6273944785,0.6334561975,0.2846713341,0.7714120139,0.3891397763,0.3795113632,0.3694145296,0.3296948338,0.5349873171,0.6790047138,0.8917635924,0.7124060217,0.4459410135,0.3825615274,0.8054115947,0.5742303205,0.6477891051,0.6392596403,0.5189831162,0.6203329886,0.8549356911,0.4915959469,0.5865740015,0.532350991,0.5638405581,0.6273855353,0.7491772175,0.5414896507,0.4724382062,0.4923627918,0.6124482902,0.6630255116,0.5624885878,0.7049105484,0.3730570108,0.2273362044,0.2096759687,0.1937037022,0.1917014599,0.1760537609,0.133079401,0.09757219638,0.07554123006,0.1240864763,0.2613016568,0.4415097035,0.5456199894,0.4871488137,0.6331676227,0.4844810149,0.5784803158,0.7966809603,0.7544101922,0.6128961048,0.5857726626,0.6160603177,0.2867886236,0.5599135109,0.5405355743,0.7063982625,0.5136236974,0.2051319608,0.04297944465,0.09694626213,0.2307039367,0.4559007072,0.3355612046,0.3942204231,0.7316158177,0.7367759437,0.5576321214,0.2226957375,0.1266325476,0.04698997215,0.0814824277,0.09517927295,0.08094988519,0.05964615756,0.04922005437,0.03619022439,0.05573664501,0.104860825,0.141726284,0.2160997512,0.3019444507,0.2952110189,0.4081011967,0.4614089672,0.4007558067,0.2606416882,0.3222564013,0.3971663999,0.2772813669,0.1239344936,0.09605578692,0.06206714308,0.03992648531,0.02931021968,0.03434996041,0.02395943673,0.04952283407,0.1575667487,0.2473016085,0.2287562603,0.2110505854,0.1109534911,0.06255334304,0.04397313727,0.04117772705,0.0475340823,0.0715263438,0.07035457887,0.2168072654,0.3017700914,0.256193756,0.0900621783,0.01921993709,0.0475234542,0.04160562103,0.01629159849,0.0158540515,0.02012062668,0.02136735464,0.02194002697,0.01940388314,0.01409104935,0.01695537949,0.03107503615,0.03496905842,0.05397758266,0.09158499031,0.1189913591,0.2031980563,0.2365664367,0.2129757817,0.2690839455,0.4631767679,0.4987689195,0.4136784546,0.5161611389,0.3833206608,0.4671351666,0.1749292311,0.09877918265,0.0615289519,0.09773571477,0.04242547438,0.04802359412,0.05657633566,0.06509449505,0.04305339691,0.08598276606,0.144678998,0.1027296004,0.06739905335,0.08410826314,0.06651755419,0.05466775006,0.1285326589,0.3588370431,0.3746850385,0.2505926326,0.09930971874,0.1049081038,0.1551240713,0.2800240732,0.3728958804,0.1410111177,0.0673305192,0.04382396996,0.06429813692,0.08062562749,0.06689960392,0.1140571781,0.1769541328,0.2005157802,0.1797798938,0.1339156237,0.1022775828,0.1549146781,0.2823329521,0.2698261287,0.2787344541,0.4595285972,0.4058340361,0.2562344591,0.2653979768,0.4072155813,0.4990434464,0.226946728,0.3018728951,0.7245843138,0.2650493728,0.14569411,0.1494884397,0.3643085151,0.7299215246,0.6361083937,0.4834767561,0.4829467748,0.5087518575,0.6708767724,0.3247172538,0.6000607848,0.4888720016,0.668705042,0.6947458191,0.6106610602,0.6311184971,0.6420041658,0.5256396219,0.5241103534,0.667839553,0.700593132,0.5827838653,0.4212857334,0.9303063871,0.4035329362,0.4727409538,0.6432007327,0.5396863854,0.6927725033,0.5621360246,0.8210656673,0.6185331489,0.2768326788,0.2394669746,0.31338929,0.3093934538,0.2043732761,0.1498251585,0.1006046386,0.09216583472,0.1520612202,0.2524064393,0.5922463475,0.5899351302,0.4158585425,0.4376905715,0.5414742449,0.8043204979,0.8330004654,0.7321847184,0.5675459068,0.5384380456,0.7587831976,0.6608996325,0.5803020375,0.53768986,0.684024457,0.2030587535,0.1295320202,0.09688236254,0.1456271971,0.09912541025,0.06898820064,0.09424737778,0.2225504775,0.2734082345,0.10248742,0.02579439381,0.03421956252,0.03982178211,0.04505643607,0.06945449612,0.2783717738,0.288562961,0.2170769862,0.2586469709,0.8057091415,0.6405219434,0.6632395838,0.7074895202,0.199565493,0.1413872705,0.2260053546,0.2799218293,0.2348085983,0.3171774835,0.3638862047,0.323806428,0.3485681634,0.7545590613,0.8133457591,0.7637028675,0.2513677692,0.1458563488,0.1282474449,0.09075239091,0.1776588845,0.3523879708,0.4792033001,0.4827868201,0.5609373535,0.7738232779,0.3766867211,0.3612329513,0.1969119081,0.08016968488,0.1044263935,0.1418627596,0.1389662478,0.2886780223,0.4872133115,0.4311076527,0.3509993924,0.6555255767,0.6693624185,0.2525276153,0.1256404471,0.03468665467,0.06296664777,0.08747305304,0.117339769,0.1958512783,0.3453239649,0.4180636978,0.5034198091,0.3530364015,0.3574610063,0.1673603126,0.1427042547,0.09549787404,0.1067820574,0.1483197274,0.2409408366,0.4032222922,0.62942069,0.7015039874,0.4670213742,0.7338278805,0.8273207526,0.6134664669,0.5835091966,0.6219376759,0.1497755096,0.06869551198,0.03066791438,0.02817757394,0.05715255397,0.08753240438,0.2175128385,0.3940984008,0.4667117616,0.4888232012,0.650935744,0.6002710879,0.4956854311,0.08884054973,0.06929395558,0.09092079174,0.1817325196,0.4173882909,0.6099456181,0.4393353536,0.5707768157,0.4428187356,0.1296605416,0.09036028033,0.06062024908,0.0785072905,0.08030021447,0.1131570687,0.1478475641,0.2392449959,0.2502976182,0.2394781847,0.2701694479,0.3683539883,0.4912090645,0.5384714183,0.5618699056,0.5698565151,0.15928869,0.16104921,0.1729411774,0.15597014,0.2325968873,0.8808096459,0.522227868,0.5928757648,0.5068574303,0.494987711,0.2757303882,0.3931235013,0.5798776432,0.4053820073,0.6267074342,0.4369373322,0.7498201103,0.3742169521,0.2199389902,0.1737903598,0.1211943241,0.110435024,0.1377101599,0.1043111509,0.4572032092,0.8773735848,0.4435606269,0.4695766126,0.6930397104,0.2217919118,0.238745694,0.301451282,0.6684636119,1,NaN,NaN,NaN],
	"ap": [NaN,0.3098067212,0.7333568709,0.5675075354,0.2712307758,0.5260340458,0.3089541929,0.2469192432,0.7144908017,0.5590777266,0.4425477934,0.3948299077,0.4881349577,0.2948302567,0.3264485578,0.3822786967,0.4634946429,0.1652558263,0.38699496,0.1123032264,0.6551414175,0.1109283252,0.03747508464,0.117715718,0.3308348517,0.3004943462,0.1884659142,0.2555326133,0.2950837108,0.1113925925,0.3636862191,0.6710819165,0.5208717292,0.07615972874,0.7119648107,0.08229640665,0.2629438022,0.1573390246,0.6333652526,0.2993826573,0.7336571494,0.4767777474,0.4687806516,0.4072209718,0.2492589588,0.3587500885,0.4501698237,0.665893419,0.5256008061,0.5073744626,0.1496903451,0.1489424621,0.1555511321,0.1960590249,0.4870490817,0.5544106404,0.2394972023,0.2498980129,0.7116170683,0.2877465804,0.4426856104,0.2145645802,0.4913716886,0.2380290662,0.03897087901,0.1499644811,0.1203661587,0.1907107037,0.07843173361,0.06830231691,0.06964255143,0.02483203849,0.05434378333,0.2264413514,0.1620785854,0.4406761463,0.4265224994,0.2016064652,0.4368375433,0.3162742541,0.2705938695,0.3378685594,0.08703866303,0.7947147685,0.5328692893,0.07068900596,0.4961296555,0.4991448294,0.3908491546,0.868609308,0.1614493929,0.006047179661,0.01903546772,0.1125225679,0.07643286848,0.1169638291,0.7310243101,0.5366839334,0.6039167661,0.7116525878,0.2437087004,0.1265606168,0.0469495399,0.03995948997,0.05418324351,0.0394880769,0.03051162471,0.03013170808,0.03545031877,0.00460913115,0.2450260174,0.06410164305,0.06851509409,0.1313434613,0.08056102918,0.03720728994,0.09740106474,0.1878986016,0.1176968305,0.165038481,0.2755973617,0.4110409038,0.03186841536,0.1002393984,0.03515324558,0.01403875565,0.01065399721,0.01470506144,0.01276564524,0.02601038248,0.1561762798,0.4271153255,0.02680221189,0.1520207673,0.03633530193,0.03007829038,0.02162028234,0.01549481838,0.04712184842,0.04187272446,0.03847624971,0.04318434852,0.07597480803,0.1131314138,0.03268115914,0.002720612129,0.01645183651,0.02424208677,0.008395238992,0.01311632404,0.005760276764,0.00960521512,0.01490081687,0.009716039689,0.006520956446,0.007184004119,0.01411039517,0.01722827419,0.02673687968,0.07441345426,0.03701000528,0.04543830632,0.06451670092,0.1052555905,0.1718978488,0.4751035119,0.7820397038,0.401923462,0.5583642353,0.3626714684,0.06631743062,0.1709537185,0.02148102246,0.06533130152,0.05250661812,0.01337698673,0.02713258114,0.03561183784,0.06644633648,0.05386153557,0.03310232012,0.04882142855,0.07658454002,0.04149443163,0.03536884765,0.07968750376,0.04637173516,0.04282208526,0.4100793451,0.09886556652,0.1115192863,0.02733481831,0.06112202992,0.06119973318,0.1201813333,0.4976684233,0.2086822574,0.02117577415,0.0252637995,0.03947292437,0.03183522474,0.01770351206,0.06330316705,0.07570237598,0.1248287699,0.06914898257,0.1071821893,0.02674400094,0.1642055804,0.254960104,0.3689921563,0.2172936681,0.4039000332,0.2342362403,0.2554050359,0.4535064009,0.08436412039,0.3993116995,0.1492522057,0.2680583103,0.2539204045,0.2385952191,0.235022341,0.09627730412,0.113057156,0.6642519673,0.4840620042,0.2943104011,0.3299091585,0.541739286,0.2040604911,0.6633052674,0.3466812838,0.2038829197,0.6901369753,0.6127810605,0.2600204385,0.8632016706,0.3940426794,0.275022669,0.206673159,0.4309046573,0.4179226391,0.7387840027,0.5597440085,0.2366543582,0.3704380071,0.6863522052,0.5754069445,0.4421739574,0.2317621677,0.4936009278,0.7438308887,0.4271580943,0.09439694542,0.2545365307,0.1571689329,0.2224366647,0.06565086304,0.125325237,0.0271086615,0.04811262455,0.07674827697,0.1458002711,0.6402016864,0.301020204,0.3277202684,0.3148947057,0.3186204484,0.5518330107,0.4169182228,0.2649695149,0.6974925504,0.6601648338,0.7789294485,0.3842891906,0.1496001698,0.5427459855,0.6448183149,0.2378222662,0.02274130869,0.05698935196,0.111043373,0.02219257915,0.06662781857,0.04535959896,0.09118122319,0.1657944245,0.04670364893,0.01856840502,0.0180940983,0.01030694573,0.01858278287,0.03410976198,0.3339962986,0.3165518357,0.07628538501,0.3215929505,0.4686373193,0.5788140088,0.4312253074,0.2526248538,0.3001139761,0.1354752068,0.08953715834,0.1120771014,0.07175532122,0.1584302205,0.3810894494,0.1042482307,0.3144892654,0.412412598,0.5413739684,0.4786548364,0.3001834333,0.03787170203,0.01117249641,0.02354754661,0.0646670373,0.2269060412,0.2833647578,0.1191224664,0.5321035557,0.4106892114,0.4012896573,0.2727396098,0.1214760981,0.02995379585,0.03979634669,0.1432553982,0.05007032829,0.1414809541,0.6182630139,0.252154622,0.4077345789,0.3670216644,0.5482461606,0.3461141031,0.03540474584,0.01015291778,0.04502459346,0.04575554762,0.02264614084,0.2333981577,0.2106314163,0.2754370774,0.588598705,0.2952175841,0.3962520434,0.2486051236,0.02367852398,0.04968192455,0.0617170214,0.04131633708,0.05208116607,0.1571121491,0.3415337703,0.3064496908,0.2633726571,0.5804860331,0.5165860435,0.4398445779,0.3056339351,0.4786285893,0.06359166694,0.05192042212,0.02641776198,0.006487913409,0.03013309906,0.0212507858,0.198868803,0.782249412,0.2165179119,0.266541795,0.4127652091,0.4443552243,0.1471300404,0.02060350162,0.01614872302,0.06844860407,0.2741722865,0.1193473486,0.1359726373,0.566825531,0.2341639986,0.6121133739,0.1203548565,0.01862198017,0.02944996176,0.06714667079,0.02788073687,0.1274333337,0.1179407084,0.1059344042,0.1938368617,0.1670874602,0.09449148098,0.131083345,0.421143004,0.2906920612,0.5239973786,0.6551343611,0.304726723,0.08040597568,0.02917890421,0.2216942859,0.1416462242,0.3809542767,0.285505121,0.7918133663,0.08768890825,0.1334466145,0.2292112232,0.04560664909,0.1721860819,0.2623062168,0.2947207645,0.2647689679,0.3123869893,0.03724248165,0.3510286791,0.05109861338,0.05394894934,0.01872966402,0.1343181235,0.07369178226,0.6281154542,0.1957487236,0.2329490001,0.5232449915,0.6678608145,0.07011771476,0.07737982122,0.8677582067,1,NaN,NaN,NaN],
	"pwr": [NaN,9.765423348e-08,9.050387293e-08,8.545876798e-08,2.845957652e-08,2.856488433e-08,5.986242156e-08,5.454650616e-08,4.950068833e-08,1.020423645e-07,4.765529099e-08,4.950809194e-08,6.554580926e-08,3.427813523e-08,5.051346915e-08,8.938493264e-08,7.331013299e-08,2.03194304e-07,7.201135556e-08,5.174678242e-07,5.210983485e-07,4.987928526e-05,0.0004886872943,0.0003403738997,6.214639407e-05,2.631499791e-06,2.439007528e-05,7.163990484e-06,4.791451539e-06,5.523472156e-07,1.152702278e-07,3.171055812e-07,4.904539843e-06,1.249664358e-05,9.524569953e-06,4.302376543e-06,2.926887828e-06,2.903452185e-07,2.219924559e-07,1.673525858e-07,8.554886452e-07,2.100303461e-05,8.216188054e-05,1.245325139e-05,2.95107569e-05,7.957508263e-05,1.823175075e-05,3.34522363e-05,4.08071235e-05,9.581935831e-05,0.0001106917826,0.0001463739449,6.552388575e-05,5.805359758e-05,6.26780116e-05,2.483616812e-05,2.968961291e-05,2.612134603e-05,2.62272974e-06,4.841783084e-07,6.939308385e-07,7.496921406e-07,5.497321994e-06,0.0001045706819,0.001353719876,0.002859932721,0.003759765235,0.006827637298,0.02590992538,0.02577200999,0.05312396929,0.03350745696,0.01883524633,0.01327667167,0.005921083268,0.001154344749,0.001047601323,0.008716659239,0.01895505772,0.04194503494,0.1139457821,0.07165392849,0.05726356838,0.004526485593,0.004747760485,0.0002522706539,0.0002865983926,0.0004763970105,0.00176586634,0.003238184452,0.0238879357,0.05708849215,0.02598240971,0.02227181825,0.006032293879,0.003470992385,0.0001657669022,1.139878044e-05,0.0001531272178,0.000494885614,0.003992332855,0.06201471773,0.03085255237,0.01315747662,0.005877539661,0.005060041849,0.008125433753,0.01418806491,0.01070863767,0.0160709317,0.006898290099,0.04057227336,0.08604005581,0.3478403578,0.1450518208,0.04757284061,0.01782563979,0.004593391279,0.00333259404,0.006830719487,0.01352659729,0.004565232729,0.005590123706,0.005997935503,0.009818840075,0.0158256473,0.00788956391,0.007759843654,0.005890274981,0.004541739363,0.002387664543,0.004267319771,0.02370407055,0.02235000306,0.01860605371,0.03466472108,0.05656180109,0.04550618541,0.04881577619,0.03052317987,0.03944437869,0.01333112008,0.01665979675,0.01169855159,0.01591707422,0.01168743529,0.01507035626,0.0405976188,0.02282602288,0.01478151377,0.01850328626,0.0184787035,0.01640156501,0.01346002645,0.00924073268,0.0119536758,0.02060661751,0.01742159138,0.02414056269,0.02635081283,0.02293901565,0.02550156783,0.01865966311,0.02172740418,0.002659753897,0.001217258911,0.002141897518,0.001001528235,4.511004641e-05,2.013785631e-06,0.0001199860543,0.0008928770635,0.03641040014,0.02704515363,0.0133423365,0.01752547518,0.01052191812,0.01683662421,0.009531534558,0.02135911311,0.02770570497,0.04556646022,0.04419949651,0.04798254101,0.0440011936,0.03406126253,0.04935365357,0.01978778925,0.01698455908,0.01570182794,0.0607710965,0.02284030078,0.005833490861,0.0007211793514,0.0007302830052,0.00085979834,0.005296003211,0.06382705551,0.07324871908,0.03414924354,0.02877848639,0.02797962061,0.01341532185,0.01179798947,0.007017334273,0.006281556396,0.004952908446,0.003058334053,0.005352689531,0.001050178506,0.0003746307924,0.0005936324786,0.0004924004354,1.965901728e-05,0.0001157189499,0.0004915053029,0.0002953052086,5.443142727e-06,4.462136838e-05,0.0004005772601,2.749412254e-05,6.766931321e-05,1.415644336e-06,6.600155477e-05,6.009274279e-05,6.567440125e-06,5.642594423e-06,4.033293817e-06,1.456458993e-07,2.388250948e-07,1.732134241e-07,2.49900718e-07,6.092096961e-06,3.918357719e-05,5.250686365e-05,3.016508088e-05,6.302013509e-05,5.009516602e-05,0.0002251999292,0.0001009519205,0.0001525591985,3.344924016e-05,7.451820436e-05,1.874447934e-05,4.453657836e-06,1.655938302e-06,6.26197831e-07,4.765771061e-07,7.004120071e-08,2.371620365e-06,8.404928847e-07,9.68268363e-07,1.229037263e-05,0.0001387111202,0.00132252686,0.002084951033,0.005316570199,0.01340449241,0.01417688469,0.02848047663,0.045034532,0.03778802075,0.01564340933,0.004745459613,0.001116293707,0.003083293393,0.0137576566,0.03096778813,0.06493469933,0.03844986625,0.03465499143,0.1635846563,0.01928727605,0.001119718216,3.146500124e-05,0.0005736096802,0.001523367593,0.0005844041532,0.001501822315,0.001004692945,0.0919481467,0.02757421787,0.008577527505,0.01038261537,0.009259539844,0.00677900873,0.00510225851,0.002018782667,0.005465813615,0.00788032322,0.01253776467,0.009141351172,0.004252649408,0.003050117823,0.002076218832,0.004253831207,0.002956209824,0.001203005611,0.0003001178649,0.000383451958,6.180050435e-05,8.983571685e-05,0.001757143967,0.02480117825,0.01436189362,0.01164610776,0.005242852804,0.001129088451,0.003359951953,0.001289556801,0.0001326677015,7.025454083e-05,6.753054336e-05,3.842045705e-05,2.404215829e-05,0.0002113098259,0.008169731295,0.001305221923,0.0005838992003,0.001753533926,0.0002093186739,0.0001988159056,6.258304348e-05,1.85863541e-05,7.242404547e-05,0.0006468284544,0.02464089625,0.02036740837,0.01251097194,0.006904743516,0.004082919833,0.001981395218,0.0005624317179,0.0004566272353,8.771198336e-05,6.130463085e-06,5.507091348e-05,0.002652688431,0.0529011033,0.04745544626,0.036701628,0.02131145655,0.01923573973,0.01138672635,0.006305724017,0.001451674214,5.183640948e-05,3.820965492e-05,6.659448088e-06,0.001061653679,0.0328654609,0.008395834867,0.003774019631,0.007349864884,0.01594253443,0.0120878633,0.005292003218,0.002174684677,3.614958032e-05,9.320353023e-07,1.599476939e-05,0.0001749889572,0.001636004114,0.001139622917,0.003110623577,0.05913347524,0.06493654723,0.04653271574,0.01822981589,0.02284431931,0.008775527638,0.00528366346,0.00904405177,0.01033311064,0.005179062614,0.003485291529,0.004328564718,0.002787138152,0.002168634415,0.002867200652,0.0001175703675,2.965411787e-05,3.974912234e-06,2.077224539e-06,0.001484392932,0.002533305386,0.01774141278,0.0933027782,0.06837511413,0.04829542127,0.06672953868,0.02537259428,0.01193352003,0.004845307764,0.006727544002,0.01287840956,0.009374750735,0.003581243449,0.002559136011,0.001790428192,0.0001199899056,0.0001531920076,3.976155155e-05,0.001403205608,0.0009785353333,7.285075443e-05,2.490802598e-05,3.817287983e-06,2.425956531e-06,7.410669788e-07,7.793164651e-07,2.468300626e-07,5.378451099e-08,3.672357021e-07,1.992731766e-07,1.552434841e-07,6.253637658e-08,3.704163073e-08,2.074557144e-08,1.111799437e-08,4.718641373e-09,3.487880922e-08,6.70744986e-08,1.295970401e-07,2.218612983e-08,4.793592379e-08,7.033402685e-09,1.402670584e-08,1.14805686e-08,6.656408574e-09,4.046709896e-09,3.821920211e-09,7.145000098e-09,2.546585165e-10,0,NaN,NaN,NaN],
	"sr": 16000,
	"range": [1,140032],
	"minf0": 63.1883,
	"maxf0": 706.3069,
	"thresh": 0.1,
	"relflag": 1,
	"hop": 320,
	"bufsize": 10000,
	"wsize": 640,
	"lpf": 4000,
	"shift": 0,
	"plotthreshold": 0.2
}
