{
    "DU": 48,
    "DV": 299,
    "F-measure": 0.4215530903328051,
    "F-measure Chroma": 0.6339144215530903,
    "FN": 10,
    "FNC": 0,
    "FNCch": 2,
    "FNI": 10,
    "FNIch": 8,
    "FP": 53,
    "GU": 91,
    "GV": 256,
    "Overall Accuracy": 0.38328530259365995,
    "Overall Chroma Accuracy": 0.5763688760806917,
    "Precision": 0.39465875370919884,
    "Precision Chroma": 0.5934718100890207,
    "Raw Chroma Accuracy": 0.640625,
    "Raw Pitch Accuracy": 0.37109375,
    "Recall": 0.4523809523809524,
    "Recall Chroma": 0.6802721088435374,
    "TN": 38,
    "TO": 347,
    "TP": 246,
    "TPC": 95,
    "TPCch": 162,
    "TPI": 151,
    "TPIch": 84,
    "Voiced Chroma Accuracy": 0.6328125,
    "Voiced Pitch Accuracy": 0.37109375,
    "Voicing Accuracy": 0.8184438040345822,
    "Voicing Detection": 0.9609375,
    "Voicing False Alarm": 0.5824175824175825
}