{
    "DU": 196,
    "DV": 188,
    "F-measure": 0.7262079062957539,
    "F-measure Chroma": 0.802342606149341,
    "FN": 55,
    "FNC": 0,
    "FNCch": 21,
    "FNI": 55,
    "FNIch": 34,
    "FP": 30,
    "GU": 171,
    "GV": 213,
    "Overall Accuracy": 0.6458333333333334,
    "Overall Chroma Accuracy": 0.7135416666666666,
    "Precision": 0.7537993920972644,
    "Precision Chroma": 0.8328267477203647,
    "Raw Chroma Accuracy": 0.7230046948356808,
    "Raw Pitch Accuracy": 0.5023474178403756,
    "Recall": 0.7005649717514124,
    "Recall Chroma": 0.7740112994350282,
    "TN": 141,
    "TO": 384,
    "TP": 158,
    "TPC": 107,
    "TPCch": 133,
    "TPI": 51,
    "TPIch": 25,
    "Voiced Chroma Accuracy": 0.6244131455399061,
    "Voiced Pitch Accuracy": 0.5023474178403756,
    "Voicing Accuracy": 0.7786458333333334,
    "Voicing Detection": 0.7417840375586855,
    "Voicing False Alarm": 0.17543859649122806
}