{
    "DU": 71,
    "DV": 236,
    "F-measure": 0.9047619047619047,
    "F-measure Chroma": 0.9047619047619047,
    "FN": 4,
    "FNC": 0,
    "FNCch": 1,
    "FNI": 4,
    "FNIch": 3,
    "FP": 22,
    "GU": 89,
    "GV": 218,
    "Overall Accuracy": 0.8664495114006515,
    "Overall Chroma Accuracy": 0.8664495114006515,
    "Precision": 0.8778877887788779,
    "Precision Chroma": 0.8778877887788779,
    "Raw Chroma Accuracy": 0.9174311926605505,
    "Raw Pitch Accuracy": 0.9128440366972477,
    "Recall": 0.9333333333333333,
    "Recall Chroma": 0.9333333333333333,
    "TN": 67,
    "TO": 307,
    "TP": 214,
    "TPC": 199,
    "TPCch": 199,
    "TPI": 15,
    "TPIch": 15,
    "Voiced Chroma Accuracy": 0.9128440366972477,
    "Voiced Pitch Accuracy": 0.9128440366972477,
    "Voicing Accuracy": 0.9153094462540716,
    "Voicing Detection": 0.981651376146789,
    "Voicing False Alarm": 0.24719101123595505
}