{
    "DU": 96,
    "DV": 279,
    "F-measure": 0.792341678939617,
    "F-measure Chroma": 0.8571428571428571,
    "FN": 24,
    "FNC": 15,
    "FNCch": 17,
    "FNI": 9,
    "FNIch": 7,
    "FP": 47,
    "GU": 119,
    "GV": 256,
    "Overall Accuracy": 0.7173333333333334,
    "Overall Chroma Accuracy": 0.776,
    "Precision": 0.7663817663817664,
    "Precision Chroma": 0.8290598290598291,
    "Raw Chroma Accuracy": 0.921875,
    "Raw Pitch Accuracy": 0.828125,
    "Recall": 0.8201219512195121,
    "Recall Chroma": 0.8871951219512195,
    "TN": 72,
    "TO": 375,
    "TP": 232,
    "TPC": 197,
    "TPCch": 219,
    "TPI": 35,
    "TPIch": 13,
    "Voiced Chroma Accuracy": 0.85546875,
    "Voiced Pitch Accuracy": 0.76953125,
    "Voicing Accuracy": 0.8106666666666666,
    "Voicing Detection": 0.90625,
    "Voicing False Alarm": 0.3949579831932773
}