{
    "f0": [
        0.0,
        0.0,
        0.0,
        0.0,
        0.0,
        0.0,
        0.0,
        0.0,
        0.0,
        0.0,
        0.0,
        0.0,
        0.0,
        0.0,
        0.0,
        0.0,
        0.0,
        0.0,
        0.0,
        0.0,
        0.0,
        0.0,
        0.0,
        0.0,
        0.0,
        0.0,
        0.0,
        0.0,
        0.0,
        0.0,
        0.0,
        0.0,
        0.0,
        0.0,
        0.0,
        55.959559038563441,
        54.044324731704819,
        0.0,
        0.0,
        0.0,
        0.0,
        0.0,
        0.0,
        0.0,
        0.0,
        0.0,
        0.0,
        0.0,
        0.0,
        0.0,
        0.0,
        0.0,
        0.0,
        0.0,
        60.01927764673173,
        60.233523240804558,
        60.354027108294041,
        59.997013966554675,
        60.62526201802838,
        61.013214618922724,
        61.188520422404437,
        61.618606036364099,
        61.395909425377937,
        61.722429682194289,
        61.473455260030292,
        61.467404343169754,
        61.456099982641071,
        61.355911624030099,
        61.335792989803622,
        61.335690197790576,
        61.345517061552755,
        61.293510300190405,
        61.36601633033883,
        61.610844823419555,
        61.45890123382658,
        61.457186022356105,
        61.439760530464241,
        61.515995062847161,
        61.47403575677059,
        61.936737930826979,
        62.281930650887382,
        62.440189467227476,
        62.09402196935477,
        62.401442257219585,
        62.320481496103469,
        62.597006073544826,
        62.644660269067842,
        62.817292954682344,
        62.779641232882675,
        62.792776052134705,
        62.817752889093924,
        62.830948009619881,
        62.386126285784663,
        62.54542558587606,
        62.075920401405781,
        62.009579118723465,
        62.271696808726354,
        62.620190817084662,
        62.474535874012126,
        62.587450754524539,
        62.448758820943276,
        62.402451232439695,
        62.569048557427067,
        62.258582312568464,
        62.923961272614918,
        61.561704378882027,
        61.730923103252849,
        62.039983469391018,
        62.068375892715835,
        62.808735912834798,
        62.144263751670856,
        61.878196393940605,
        61.563940627102546,
        63.230603804404289,
        63.694747928466207,
        63.217171576799593,
        63.641807325283629,
        63.664765967490517,
        63.771656804484309,
        63.854297683643502,
        63.545116084488484,
        64.12289782537249,
        64.249787691534593,
        64.82005881475537,
        64.856994568812581,
        65.24793255497417,
        65.344965613592905,
        65.387762636791564,
        65.625810681858738,
        65.912550444089305,
        65.841087944740863,
        65.906553271194909,
        65.882451684157772,
        65.890706238441339,
        66.013906505643618,
        65.829451390238646,
        66.140041191997597,
        66.200016844621516,
        66.429533755618181,
        66.113889572731836,
        66.382545732195325,
        66.412712644480649,
        66.057483053275391,
        65.516208339889218,
        66.310370024106845,
        66.411475856967456,
        66.378399732474435,
        65.962647253717222,
        66.77443384769866,
        66.604481607959869,
        66.445133291647352,
        66.523541728860238,
        66.370360504799706,
        66.52664474408607,
        66.412924592362657,
        66.346601160476098,
        66.355941235411422,
        62.364644639033592,
        62.407470639432859,
        62.669732113282095,
        62.965701395984453,
        63.191552323006704,
        63.059122549182128,
        63.189535183965035,
        63.333720563784283,
        63.171688359118782,
        63.064831511818042,
        62.951176489609907,
        62.690169734521319,
        62.909618095934675,
        63.411354360112163,
        62.857318440995272,
        63.242947265230157,
        61.691258721442978,
        61.921702710735829,
        60.801177145723798,
        60.776615120187373,
        60.864067006698924,
        60.9063141807395,
        60.795241471585591,
        60.719220807785156,
        61.124523915010826,
        60.987256141238788,
        60.974830215804367,
        61.784447047797769,
        60.929498743925549,
        60.935212595988631,
        61.068303703378824,
        61.09641768646663,
        61.195904120813537,
        61.140963056958022,
        58.368106103685008,
        58.59657218769923,
        58.811313841782358,
        58.916507334747521,
        59.056301194639936,
        59.084272547225694,
        58.933625543008596,
        59.204918590027368,
        59.439009023199162,
        59.239412104092793,
        59.199224815031023,
        59.138210229202066,
        59.151757005108252,
        59.174957071898859,
        59.194761560924839,
        59.192789771440843,
        59.221096153133253,
        59.187966114234811,
        59.234877934399577,
        59.210972923164036,
        59.183288244279964,
        59.232464209904144,
        59.199161400964002,
        59.171482177390317,
        59.164715709454882,
        59.150677503311229,
        59.226484993627281,
        59.180007696185164,
        59.234283820182192,
        59.243284781758696,
        59.27004386080484,
        59.436788411498519,
        59.257061627290902,
        59.277916783553181,
        59.410966073104845,
        59.402721787197933,
        59.471959195803755,
        59.292537020897946,
        59.959302331641076,
        59.053841125740867,
        59.443522372893909,
        59.325271447485605,
        59.323118082855387,
        59.370904314888598,
        59.301738005383427,
        59.244129721331007,
        59.277764175763934,
        59.202305072906299,
        59.321674306102182,
        59.171835917777926,
        59.120995810530367,
        59.31657026695261,
        59.182291179371568,
        59.11834194962735,
        59.237330393614762,
        59.266731319048411,
        59.475517951271925,
        59.349990007327513,
        59.337626716808046,
        59.357019809869428,
        59.230047035663915,
        59.012954038354415,
        58.75764712131005,
        59.189476074193728,
        58.471079572689192,
        54.711247444016266,
        54.849130487419544,
        54.867525527122268,
        54.59186517626695,
        54.508986101024462,
        54.414310482059662,
        54.540996017093264,
        54.508441142880727,
        54.458959818070305,
        54.381590339774739,
        54.370918162175116,
        54.462380351741785,
        54.393521959071919,
        54.38944007556541,
        54.458948699801141,
        54.645759330932847,
        54.378342416829611,
        54.53615817676733,
        54.6128746310007,
        54.541358551198087,
        54.728687445570472,
        54.540094954989272,
        54.536710519118635,
        54.476080587040173,
        54.58294015150129,
        54.737707338892974,
        54.692387812854285,
        54.828365196295685,
        54.698442560237496,
        54.656597561479543,
        54.704062018855382,
        54.768923258600211,
        54.713873073184075,
        54.673142165962815,
        54.665233275307912,
        54.630430475567096,
        54.820391969910418,
        54.695014865271887,
        54.572615223317754,
        54.67801189358422,
        54.768180258393826,
        54.77199088519523,
        54.670592815773446,
        54.662399586545419,
        54.662149464037427,
        54.319014674274406,
        60.047211023408792,
        60.240301954902556,
        60.334584973069752,
        60.26418839943274,
        60.384641673586216,
        60.317074126714203,
        60.345545034835922,
        60.238573129747031,
        60.286393368821273,
        60.407898005208061,
        60.278619314379192,
        60.484438779389599,
        60.609900840276083,
        60.452823978519383,
        60.641323769063106,
        60.59925515002957,
        61.515029293325298,
        61.906422905828272,
        62.188443929044752,
        62.317040812024693,
        62.143364500909314,
        62.239864280075807,
        62.204614861714091,
        62.433691709102249,
        62.476438531853347,
        63.150168652360605,
        62.469045597399855,
        62.81143825305233,
        62.851951666408731,
        62.9280917523662,
        62.602885107991774,
        62.692721233523372,
        63.484390077751719,
        62.830953179097726,
        62.832321519317247,
        62.848847961842161,
        62.878339684619405,
        62.270954702335111,
        62.572239386627075,
        62.570011247124256,
        62.456270782012581,
        62.512297416124696,
        62.814601876988135,
        62.916668358411393,
        62.726834693684346,
        62.333498025925138,
        62.4140994650162,
        62.640773665319301,
        62.917367920895316,
        63.050443777779073,
        62.867595242199691,
        62.677873719635457,
        62.660102572704531,
        0.0,
        0.0,
        0.0,
        0.0,
        0.0,
        0.0,
        0.0,
        0.0,
        0.0,
        0.0,
        0.0,
        0.0,
        0.0,
        0.0,
        0.0,
        0.0,
        0.0,
        0.0,
        0.0,
        0.0,
        0.0,
        0.0,
        0.0,
        0.0,
        0.0,
        0.0,
        0.0,
        0.0,
        0.0,
        0.0,
        0.0,
        0.0,
        0.0,
        0.0,
        0.0,
        0.0,
        0.0,
        0.0,
        0.0,
        0.0,
        0.0,
        0.0,
        0.0,
        0.0,
        0.0,
        0.0,
        0.0,
        0.0,
        0.0,
        0.0,
        0.0,
        0.0,
        0.0,
        0.0,
        0.0,
        0.0,
        0.0,
        0.0,
        0.0,
        0.0,
        0.0,
        0.0,
        0.0,
        0.0,
        0.0,
        0.0,
        0.0,
        0.0,
        0.0,
        0.0,
        0.0,
        0.0,
        0.0,
        0.0,
        0.0,
        0.0,
        0.0,
        0.0,
        0.0,
        0.0,
        0.0,
        0.0,
        0.0,
        0.0,
        0.0,
        0.0,
        0.0,
        0.0,
        0.0,
        0.0,
        0.0,
        0.0,
        0.0,
        0.0,
        0.0,
        0.0,
        0.0,
        0.0,
        0.0,
        0.0,
        0.0,
        0.0,
        0.0,
        0.0,
        0.0,
        0.0,
        0.0,
        0.0,
        0.0,
        0.0,
        0.0,
        0.0,
        0.0,
        0.0,
        0.0,
        0.0,
        0.0,
        0.0,
        0.0,
        0.0,
        0.0,
        0.0,
        0.0,
        0.0,
        0.0,
        0.0,
        0.0,
        0.0,
        0.0,
        0.0,
        0.0,
        0.0,
        0.0,
        0.0,
        0.0,
        0.0,
        0.0,
        0.0,
        0.0,
        0.0,
        0.0,
        0.0,
        0.0,
        0.0,
        0.0,
        0.0,
        0.0,
        0.0,
        0.0,
        0.0,
        0.0,
        0.0,
        0.0,
        0.0,
        0.0,
        0.0,
        0.0,
        0.0,
        0.0,
        0.0,
        0.0,
        0.0,
        0.0,
        0.0,
        0.0,
        0.0,
        0.0,
        0.0,
        0.0,
        0.0,
        0.0,
        0.0,
        0.0,
        0.0
    ],
    "time": [
        0.02,
        0.040000000000000001,
        0.059999999999999998,
        0.080000000000000002,
        0.10000000000000001,
        0.12,
        0.14000000000000001,
        0.16,
        0.17999999999999999,
        0.20000000000000001,
        0.22,
        0.23999999999999999,
        0.26000000000000001,
        0.28000000000000003,
        0.29999999999999999,
        0.32000000000000001,
        0.34000000000000002,
        0.35999999999999999,
        0.38,
        0.40000000000000002,
        0.41999999999999998,
        0.44,
        0.46000000000000002,
        0.47999999999999998,
        0.5,
        0.52000000000000002,
        0.54000000000000004,
        0.56000000000000005,
        0.57999999999999996,
        0.59999999999999998,
        0.62,
        0.64000000000000001,
        0.66000000000000003,
        0.68000000000000005,
        0.69999999999999996,
        0.71999999999999997,
        0.73999999999999999,
        0.76000000000000001,
        0.78000000000000003,
        0.80000000000000004,
        0.81999999999999995,
        0.83999999999999997,
        0.85999999999999999,
        0.88,
        0.90000000000000002,
        0.92000000000000004,
        0.93999999999999995,
        0.95999999999999996,
        0.97999999999999998,
        1.0,
        1.02,
        1.04,
        1.0600000000000001,
        1.0800000000000001,
        1.1000000000000001,
        1.1200000000000001,
        1.1399999999999999,
        1.1599999999999999,
        1.1799999999999999,
        1.2,
        1.22,
        1.24,
        1.26,
        1.28,
        1.3,
        1.3200000000000001,
        1.3400000000000001,
        1.3600000000000001,
        1.3799999999999999,
        1.3999999999999999,
        1.4199999999999999,
        1.4399999999999999,
        1.46,
        1.48,
        1.5,
        1.52,
        1.54,
        1.5600000000000001,
        1.5800000000000001,
        1.6000000000000001,
        1.6200000000000001,
        1.6399999999999999,
        1.6599999999999999,
        1.6799999999999999,
        1.7,
        1.72,
        1.74,
        1.76,
        1.78,
        1.8,
        1.8200000000000001,
        1.8400000000000001,
        1.8600000000000001,
        1.8799999999999999,
        1.8999999999999999,
        1.9199999999999999,
        1.9399999999999999,
        1.96,
        1.98,
        2.0,
        2.02,
        2.04,
        2.0600000000000001,
        2.0800000000000001,
        2.1000000000000001,
        2.1200000000000001,
        2.1400000000000001,
        2.1600000000000001,
        2.1800000000000002,
        2.2000000000000002,
        2.2200000000000002,
        2.2400000000000002,
        2.2599999999999998,
        2.2799999999999998,
        2.2999999999999998,
        2.3199999999999998,
        2.3399999999999999,
        2.3599999999999999,
        2.3799999999999999,
        2.3999999999999999,
        2.4199999999999999,
        2.4399999999999999,
        2.46,
        2.48,
        2.5,
        2.52,
        2.54,
        2.5600000000000001,
        2.5800000000000001,
        2.6000000000000001,
        2.6200000000000001,
        2.6400000000000001,
        2.6600000000000001,
        2.6800000000000002,
        2.7000000000000002,
        2.7200000000000002,
        2.7400000000000002,
        2.7599999999999998,
        2.7799999999999998,
        2.7999999999999998,
        2.8199999999999998,
        2.8399999999999999,
        2.8599999999999999,
        2.8799999999999999,
        2.8999999999999999,
        2.9199999999999999,
        2.9399999999999999,
        2.96,
        2.98,
        3.0,
        3.02,
        3.04,
        3.0600000000000001,
        3.0800000000000001,
        3.1000000000000001,
        3.1200000000000001,
        3.1400000000000001,
        3.1600000000000001,
        3.1800000000000002,
        3.2000000000000002,
        3.2200000000000002,
        3.2400000000000002,
        3.2599999999999998,
        3.2799999999999998,
        3.2999999999999998,
        3.3199999999999998,
        3.3399999999999999,
        3.3599999999999999,
        3.3799999999999999,
        3.3999999999999999,
        3.4199999999999999,
        3.4399999999999999,
        3.46,
        3.48,
        3.5,
        3.52,
        3.54,
        3.5600000000000001,
        3.5800000000000001,
        3.6000000000000001,
        3.6200000000000001,
        3.6400000000000001,
        3.6600000000000001,
        3.6800000000000002,
        3.7000000000000002,
        3.7200000000000002,
        3.7400000000000002,
        3.7599999999999998,
        3.7799999999999998,
        3.7999999999999998,
        3.8199999999999998,
        3.8399999999999999,
        3.8599999999999999,
        3.8799999999999999,
        3.8999999999999999,
        3.9199999999999999,
        3.9399999999999999,
        3.96,
        3.98,
        4.0,
        4.0199999999999996,
        4.04,
        4.0599999999999996,
        4.0800000000000001,
        4.0999999999999996,
        4.1200000000000001,
        4.1399999999999997,
        4.1600000000000001,
        4.1799999999999997,
        4.2000000000000002,
        4.2199999999999998,
        4.2400000000000002,
        4.2599999999999998,
        4.2800000000000002,
        4.2999999999999998,
        4.3200000000000003,
        4.3399999999999999,
        4.3600000000000003,
        4.3799999999999999,
        4.4000000000000004,
        4.4199999999999999,
        4.4400000000000004,
        4.46,
        4.4800000000000004,
        4.5,
        4.5199999999999996,
        4.54,
        4.5599999999999996,
        4.5800000000000001,
        4.5999999999999996,
        4.6200000000000001,
        4.6399999999999997,
        4.6600000000000001,
        4.6799999999999997,
        4.7000000000000002,
        4.7199999999999998,
        4.7400000000000002,
        4.7599999999999998,
        4.7800000000000002,
        4.7999999999999998,
        4.8200000000000003,
        4.8399999999999999,
        4.8600000000000003,
        4.8799999999999999,
        4.9000000000000004,
        4.9199999999999999,
        4.9400000000000004,
        4.96,
        4.9800000000000004,
        5.0,
        5.0199999999999996,
        5.04,
        5.0599999999999996,
        5.0800000000000001,
        5.0999999999999996,
        5.1200000000000001,
        5.1399999999999997,
        5.1600000000000001,
        5.1799999999999997,
        5.2000000000000002,
        5.2199999999999998,
        5.2400000000000002,
        5.2599999999999998,
        5.2800000000000002,
        5.2999999999999998,
        5.3200000000000003,
        5.3399999999999999,
        5.3600000000000003,
        5.3799999999999999,
        5.4000000000000004,
        5.4199999999999999,
        5.4400000000000004,
        5.46,
        5.4800000000000004,
        5.5,
        5.5199999999999996,
        5.54,
        5.5599999999999996,
        5.5800000000000001,
        5.5999999999999996,
        5.6200000000000001,
        5.6399999999999997,
        5.6600000000000001,
        5.6799999999999997,
        5.7000000000000002,
        5.7199999999999998,
        5.7400000000000002,
        5.7599999999999998,
        5.7800000000000002,
        5.7999999999999998,
        5.8200000000000003,
        5.8399999999999999,
        5.8600000000000003,
        5.8799999999999999,
        5.9000000000000004,
        5.9199999999999999,
        5.9400000000000004,
        5.96,
        5.9800000000000004,
        6.0,
        6.0199999999999996,
        6.04,
        6.0599999999999996,
        6.0800000000000001,
        6.0999999999999996,
        6.1200000000000001,
        6.1399999999999997,
        6.1600000000000001,
        6.1799999999999997,
        6.2000000000000002,
        6.2199999999999998,
        6.2400000000000002,
        6.2599999999999998,
        6.2800000000000002,
        6.2999999999999998,
        6.3200000000000003,
        6.3399999999999999,
        6.3600000000000003,
        6.3799999999999999,
        6.4000000000000004,
        6.4199999999999999,
        6.4400000000000004,
        6.46,
        6.4800000000000004,
        6.5,
        6.5199999999999996,
        6.54,
        6.5599999999999996,
        6.5800000000000001,
        6.5999999999999996,
        6.6200000000000001,
        6.6399999999999997,
        6.6600000000000001,
        6.6799999999999997,
        6.7000000000000002,
        6.7199999999999998,
        6.7400000000000002,
        6.7599999999999998,
        6.7800000000000002,
        6.7999999999999998,
        6.8200000000000003,
        6.8399999999999999,
        6.8600000000000003,
        6.8799999999999999,
        6.9000000000000004,
        6.9199999999999999,
        6.9400000000000004,
        6.96,
        6.9800000000000004,
        7.0,
        7.0199999999999996,
        7.04,
        7.0599999999999996,
        7.0800000000000001,
        7.0999999999999996,
        7.1200000000000001,
        7.1399999999999997,
        7.1600000000000001,
        7.1799999999999997,
        7.2000000000000002,
        7.2199999999999998,
        7.2400000000000002,
        7.2599999999999998,
        7.2800000000000002,
        7.2999999999999998,
        7.3200000000000003,
        7.3399999999999999,
        7.3600000000000003,
        7.3799999999999999,
        7.4000000000000004,
        7.4199999999999999,
        7.4400000000000004,
        7.46,
        7.4800000000000004,
        7.5,
        7.5199999999999996,
        7.54,
        7.5599999999999996,
        7.5800000000000001,
        7.5999999999999996,
        7.6200000000000001,
        7.6399999999999997,
        7.6600000000000001,
        7.6799999999999997,
        7.7000000000000002,
        7.7199999999999998,
        7.7400000000000002,
        7.7599999999999998,
        7.7800000000000002,
        7.7999999999999998,
        7.8200000000000003,
        7.8399999999999999,
        7.8600000000000003,
        7.8799999999999999,
        7.9000000000000004,
        7.9199999999999999,
        7.9400000000000004,
        7.96,
        7.9800000000000004,
        8.0,
        8.0199999999999996,
        8.0399999999999991,
        8.0600000000000005,
        8.0800000000000001,
        8.0999999999999996,
        8.1199999999999992,
        8.1400000000000006,
        8.1600000000000001,
        8.1799999999999997,
        8.1999999999999993,
        8.2200000000000006,
        8.2400000000000002,
        8.2599999999999998,
        8.2799999999999994,
        8.3000000000000007,
        8.3200000000000003,
        8.3399999999999999,
        8.3599999999999994,
        8.3800000000000008,
        8.4000000000000004,
        8.4199999999999999,
        8.4399999999999995,
        8.4600000000000009,
        8.4800000000000004,
        8.5,
        8.5199999999999996,
        8.5399999999999991,
        8.5600000000000005,
        8.5800000000000001,
        8.5999999999999996,
        8.6199999999999992,
        8.6400000000000006,
        8.6600000000000001,
        8.6799999999999997,
        8.6999999999999993,
        8.7200000000000006,
        8.7400000000000002,
        8.7599999999999998,
        8.7799999999999994,
        8.8000000000000007,
        8.8200000000000003,
        8.8399999999999999,
        8.8599999999999994,
        8.8800000000000008,
        8.9000000000000004,
        8.9199999999999999,
        8.9399999999999995,
        8.9600000000000009,
        8.9800000000000004,
        9.0,
        9.0199999999999996,
        9.0399999999999991,
        9.0600000000000005,
        9.0800000000000001,
        9.0999999999999996,
        9.1199999999999992,
        9.1400000000000006,
        9.1600000000000001,
        9.1799999999999997,
        9.1999999999999993,
        9.2200000000000006,
        9.2400000000000002,
        9.2599999999999998,
        9.2799999999999994,
        9.3000000000000007,
        9.3200000000000003,
        9.3399999999999999,
        9.3599999999999994,
        9.3800000000000008,
        9.4000000000000004,
        9.4199999999999999,
        9.4399999999999995,
        9.4600000000000009,
        9.4800000000000004,
        9.5,
        9.5199999999999996,
        9.5399999999999991,
        9.5600000000000005,
        9.5800000000000001,
        9.5999999999999996,
        9.6199999999999992,
        9.6400000000000006,
        9.6600000000000001,
        9.6799999999999997,
        9.6999999999999993,
        9.7200000000000006,
        9.7400000000000002,
        9.7599999999999998,
        9.7799999999999994,
        9.8000000000000007,
        9.8200000000000003,
        9.8399999999999999,
        9.8599999999999994,
        9.8800000000000008,
        9.9000000000000004,
        9.9199999999999999,
        9.9399999999999995,
        9.9600000000000009,
        9.9800000000000004,
        10.0,
        10.02,
        10.039999999999999,
        10.06,
        10.08,
        10.1,
        10.119999999999999,
        10.140000000000001,
        10.16,
        10.18,
        10.199999999999999,
        10.220000000000001,
        10.24,
        10.26,
        10.279999999999999,
        10.300000000000001,
        10.32,
        10.34,
        10.359999999999999,
        10.380000000000001,
        10.4,
        10.42,
        10.44,
        10.460000000000001,
        10.48,
        10.5,
        10.52,
        10.539999999999999,
        10.56,
        10.58
    ]
}