{
	"f0": [NaN,52.55802863,42.50528578,35.34887861,35.34887861,35.34887861,38.04490081,38.00138683,35.34887861,37.99995169,52.53796465,52.60509751,52.818302,63.08903191,63.18400839,63.03275238,51.33041952,42.67936609,51.29315097,74.28901724,74.42695837,74.37301288,74.48499813,74.61310015,74.43253337,74.11316851,73.85899216,74.02047564,74.19732972,74.28381645,74.38599745,35.44064366,35.43401548,74.94769778,47.61680321,47.62907397,70.80055267,71.31776124,71.40495063,59.34280812,59.34739381,59.68338607,59.96185419,72.09909591,72.33938245,72.30749965,72.26986963,72.2667234,71.75265837,59.84480545,60.07639732,60.14103844,60.22250708,60.31092114,60.17574461,59.9919582,59.64465476,59.36548492,59.25041231,59.35351175,59.46910419,59.6595766,59.7064046,59.69416019,59.7529948,59.76986543,59.75805986,59.69006104,59.63259266,59.62322619,62.19722644,62.02474063,61.86255641,61.81180042,61.88561455,61.97284341,62.00565152,62.02115131,62.03101476,61.99196618,61.97280095,61.97019476,61.98654925,62.01857357,62.04130768,62.05000243,62.13417792,62.55232812,63.50698128,63.73566524,64.56196272,65.20441474,65.37294518,65.45095927,65.66748975,65.8402518,65.85376296,65.82545738,65.90001755,65.57594175,65.41803905,65.3234088,65.28504865,65.25544994,65.20945848,65.80319919,65.48191136,65.32342311,65.14623996,65.06192703,65.32757691,65.79214543,65.93084859,66.00825614,65.92813341,65.90458002,65.94547989,65.95679002,65.92611809,65.91871055,65.97440324,66.12832677,66.38067792,66.48350428,66.34270531,66.27796003,66.4292856,66.52345189,66.59675153,66.67146214,66.8053905,66.80738172,66.68328605,66.70512836,66.8245988,66.61290537,66.45236302,66.34749861,66.17352512,65.58907161,65.40879445,65.42514074,65.34760907,65.29582073,65.34077649,65.35384553,65.41059448,65.38745192,65.27891025,65.18554737,65.1185556,65.00689147,64.82444241,64.89121558,64.99359599,65.03225711,65.07269098,65.11589669,65.16204254,65.22654953,65.30136227,65.30709323,65.23890547,65.20340981,65.13823318,64.85021283,64.88457207,64.93799571,64.84753927,64.86488896,65.00327413,65.05734373,65.07846682,65.05272025,64.91612257,64.82405414,64.88117148,64.94078459,65.07896441,65.26731171,65.27581402,65.09703847,65.01633605,65.15219353,65.15857942,65.03851023,65.17455758,69.01945905,69.0609362,69.30015723,69.4393066,69.49944357,52.46674551,69.29779292,69.42549847,69.60702156,52.862718,52.72024342,52.61899278,52.71111868,51.27134682,51.21171441,42.63080837,60.01465799,60.06231321,60.40682394,60.89256064,61.08839129,61.21211353,61.32105415,61.40149755,61.55738796,61.75641765,62.00937419,62.31291183,62.42029535,62.4132054,62.30423407,62.15772281,62.12847081,62.2256799,61.98423766,61.97794844,61.9424133,61.83049035,61.78641307,61.87428363,62.00800495,62.05033777,62.0652143,62.06451126,62.07317883,62.07416112,62.09015655,62.11556076,62.03658511,61.99140408,62.08942658,62.0279325,61.95342565,62.06671803,61.87135109,61.88468656,62.06251217,60.6349294,59.78819809,59.74811458,59.82912887,59.82471303,59.87933107,59.91798416,59.90214631,71.92534443,71.92718718,71.94800956,59.89466906,59.7501254,71.56154599,59.44824154,59.39962159,58.84534228,58.0145917,57.97205535,58.22399575,58.08919565,57.90276285,57.81261981,57.89608743,57.94411224,57.98622514,58.0433427,58.09084781,58.12754286,58.13294086,58.18157892,58.33978671,58.26743599,58.20640013,58.33069446,58.41599568,58.41710848,58.39340123,58.35588879,58.32054872,58.29891423,58.30120254,58.44375792,58.75649059,59.19847806,59.48544218,59.44989782,59.61152004,59.87427331,59.86342393,59.85339687,59.90079976,59.91702771,59.84289755,59.84552182,59.88730243,59.90678238,59.85935012,59.83068672,59.82139931,59.76155093,59.67158918,59.61758234,59.47048081,59.26121626,59.0215234,58.56199182,58.12218448,58.10097833,58.19494822,58.22143708,58.18205804,58.04016852,57.81898256,57.67424174,57.3808769,56.8664414,56.64793211,57.45614761,57.8963232,54.2090894,54.06916966,53.95806501,53.83588811,53.89971899,54.16795513,54.30793155,54.49891792,54.66849513,54.84997668,55.14078922,55.29276161,55.27259306,55.1933755,54.82567068,54.60560956,54.74703225,54.80348396,54.89134547,54.99440741,55.02637608,55.04026427,55.03617893,55.08427311,55.12362014,55.11736684,55.14060094,55.15821841,55.00504982,54.81475115,54.75046736,54.75551293,54.85109355,55.03325293,54.92035552,54.74590773,54.72785476,54.95889758,55.00334773,55.01347624,54.92428528,55.03303646,55.10139724,55.002558,54.98731613,42.91632248,35.92456037,42.7903742,42.72285514,42.71169623,42.72073658,42.73220947,42.71033563,38.07703418,35.34887861,42.98547268,42.87943784,35.34887861,35.34887861,42.66082147,42.61183249,35.34887861,51.34005319,38.07021533,38.06105804,38.04090059,38.04396891,38.06137582,38.12523245,38.1621533,38.12608003,38.12303113,38.10991019,38.1271304,38.08494037,37.91604747,42.28732958,42.26738592,35.34887861,52.55802863,42.56121286,35.34887861,42.49156555,42.47234213,42.57053724,35.77006291,36.03472206,36.4551256,36.61235649,36.8599708,35.34887861,35.34887861,35.34887861,37.03625915,36.5150041,36.54817587,37.0522696,35.34887861,35.34887861,35.34887861,35.34887861,36.85792887,36.79586709,35.34887861,35.34887861,35.34887861,35.34887861,35.34887861,35.34887861,35.34887861,35.34887861,35.34887861,35.34887861,35.34887861,35.34887861,35.34887861,35.34887861,35.34887861,35.34887861,35.34887861,35.34887861,35.34887861,35.34887861,35.34887861,35.34887861,35.34887861,35.34887861,35.34887861,35.34887861,35.34887861,35.34887861,35.34887861,41.74916821,76.93035138,76.93035138,76.93035138,76.93035138,76.93035138,76.93035138,NaN,NaN],
	"ap0": [NaN,0.4078504603,0.5060980597,0.5218275445,0.6145353538,0.6487106266,0.7647737617,0.6131318558,0.5677140213,0.7710342473,0.5607468455,0.6044721125,0.7036448074,0.7020055257,0.759427524,0.7736641808,0.6307529182,0.5204755875,0.5882295429,0.5517916329,0.5771211416,0.569922285,0.5369564785,0.5784434894,0.5228867097,0.4455604386,0.4376270355,0.4762569856,0.5645888882,0.6320326935,0.7041118669,0.593754061,0.6995138005,0.798737608,0.7060778929,0.7014115315,0.6400849211,0.1033420054,0.1262970355,0.01289829062,0.01291303081,0.0327141881,0.01715585136,0.08182052763,0.09874267668,0.07806278684,0.06630274663,0.06623842806,0.538066656,0.07808746054,0.04998909018,0.02476364485,0.03481665792,0.04670107563,0.05933120665,0.1151222648,0.08279680912,0.04217672683,0.03046296316,0.03344008799,0.0288579806,0.02562951851,0.01184629259,0.007196591183,0.00770483476,0.02002603269,0.07502845659,0.0960745522,0.06841233719,0.08325881949,0.5094657597,0.1091271301,0.06087666413,0.06718851824,0.06563082389,0.05784987862,0.03569751418,0.02723985435,0.02568807214,0.02201557532,0.01487792155,0.01175200858,0.01693271029,0.02070797519,0.02108878786,0.02100746057,0.02508260537,0.0327247267,0.04583071825,0.08551074819,0.1049083113,0.03150854247,0.02498805333,0.04872235846,0.02992072936,0.009161553284,0.00399199798,0.006090359714,0.03666518269,0.01168244407,0.003059807585,0.00115626377,0.00284172697,0.009497527314,0.05156086123,0.03884925682,0.01676043223,0.013876857,0.04708795504,0.04101750356,0.07931709964,0.0160100444,0.01428725188,0.01300220043,0.004383848317,0.003247620276,0.002325825887,0.002577872713,0.003553568313,0.003378430814,0.006423208894,0.009685928312,0.02289263979,0.03862921535,0.03665901962,0.03203601313,0.06491176761,0.05063691069,0.02884367746,0.02994950252,0.0464456975,0.04000592891,0.1089203845,0.09695052638,0.0698283607,0.05328740406,0.0239592354,0.009455619453,0.02041360392,0.05434141288,0.02347125668,0.009341835403,0.005445377593,0.00200431989,0.001249675278,0.001101809235,0.0009679204916,0.0006068994156,0.0005501776,0.000401735173,0.001767869049,0.004328002192,0.002453011998,0.001960268272,0.0009874895588,0.0006690540861,0.0004921916798,0.0002487661499,0.0002826928912,0.0005347801183,0.000614837496,0.0004497289539,0.0009553540961,0.002426687036,0.006576297895,0.006032625869,0.00401803734,0.005415332663,0.008110773608,0.005028747822,0.001908794402,0.001165725692,0.00183120973,0.003529255714,0.005502844106,0.003806109659,0.004604858389,0.008258007792,0.02623759222,0.09618551897,0.1821045516,0.1166879125,0.1086659513,0.2418091173,0.3786816875,0.2557472587,0.3556905061,0.4897150617,0.4723234729,0.5734843607,0.5990449391,0.65512678,0.6078467582,0.6035443079,0.5820542963,0.7304752637,0.5238316619,0.6182106599,0.6855350871,0.7049755888,0.6134018983,0.7588192653,0.8046960194,0.2745519329,0.102399514,0.0642715701,0.02545055736,0.00915994163,0.004922047175,0.003699309544,0.01527050635,0.04004253054,0.02139719922,0.01515160957,0.01187387755,0.01377967847,0.006962605838,0.002855681006,0.003047763317,0.01101891287,0.02235415976,0.01271245544,0.01128977389,0.007519780707,0.002949726059,0.005174773092,0.01174793248,0.005102961023,0.002696316096,0.002351926658,0.002224549496,0.002163301619,0.003084581007,0.005408273879,0.009736385405,0.0136044169,0.01121737667,0.017740024,0.01411932334,0.01384539235,0.06676817293,0.1020836085,0.1076152081,0.1533907343,0.2510702501,0.1232401104,0.04882533073,0.03311523382,0.02834382021,0.02471871026,0.01947813391,0.01316312435,0.08116658649,0.06861132291,0.1005925022,0.007812832003,0.0073814464,0.0808924846,0.06528814255,0.1574475452,0.1812989956,0.1634710967,0.1750663623,0.120724485,0.06100151048,0.03834671936,0.01646871108,0.02686194869,0.02338248873,0.0106445727,0.006250231512,0.01066634777,0.01294962818,0.006871010464,0.0076793875,0.007938800958,0.01243601249,0.01403945286,0.01456627916,0.01776267511,0.01216565698,0.0109223497,0.01269339086,0.01679634738,0.02760210107,0.05176485959,0.08447953784,0.1037825899,0.1624232011,0.1708966833,0.21741768,0.2449582056,0.1823656901,0.169969946,0.1467132403,0.1089003654,0.08272993425,0.04942402423,0.03143844386,0.0298369227,0.02619576311,0.02215048588,0.0187838749,0.01919843378,0.02132755343,0.02724667347,0.05545842273,0.1322223468,0.2583415244,0.3568604329,0.353833529,0.3702101255,0.3169070919,0.1790684917,0.1175359909,0.1065745093,0.1129157746,0.149595686,0.2449121223,0.2735157139,0.2616865529,0.3695448935,0.5058132911,0.4579597641,0.3604026261,0.158799417,0.1126621857,0.1238640032,0.08847572282,0.06726957683,0.05188788781,0.05284850938,0.0963906971,0.1067637334,0.05190250898,0.05204725968,0.04380847367,0.05828094007,0.1006447538,0.06612117323,0.0773615603,0.1566002002,0.1116146475,0.06190129374,0.07091552042,0.06187250697,0.04277272771,0.04696641811,0.05674018363,0.03321000855,0.02502844723,0.02616612087,0.02908692995,0.0256498739,0.0250570366,0.03371865008,0.07842550743,0.1688715878,0.1627537392,0.1233647925,0.09940758082,0.1602429506,0.2319664067,0.2183766489,0.1514696043,0.1700574087,0.1976786008,0.2312406365,0.4132888648,0.4101825788,0.3864253071,0.3466587358,0.4435976136,0.5923135568,0.64655192,0.5774662467,0.6727924457,0.6478802129,0.6890444839,0.5986945055,0.6650810246,0.6438691578,0.598325731,0.6613237262,0.6988304021,0.6923143986,0.8050714514,0.4974943958,0.5404197631,0.6218845765,0.5349511208,0.5459560378,0.5899820238,0.5771220427,0.6401788804,0.6000608871,0.6443307872,0.7413118715,0.706826835,0.6745938506,0.675914625,0.4856993382,0.4574395282,0.628400635,0.7932851877,0.7108546127,0.5400623202,0.6087643308,0.7164484006,0.7385988819,0.4736431627,0.7824511623,0.7350612808,0.7289806596,0.480740041,0.4909394015,0.7936640067,0.3215551614,0.1882332687,0.42111421,0.7184259681,0.3674550533,0.1825729031,0.2313973067,0.4121014527,0.5911952944,0.8215167318,0.3158015954,0.1119069582,0.1656327854,0.2766114034,0.2065854036,0.130942657,0.1167363149,0.1702073177,0.1689376095,0.1386587628,0.1350674776,0.1042150941,0.09516197651,0.1516837092,0.2784466435,0.1644925737,0.08074477762,0.1895421005,0.2774741368,0.1764071426,0.09890128898,0.1190022203,0.1834820868,0.3374953759,0.5564425777,0.4720512424,0.2454651106,0.3295193606,0.7552415649,1.139763495,1,1,1,1,1,1,NaN,NaN],
	"ap": [NaN,0.2056217772,0.1950642623,0.1867712923,0.2691218247,0.4057671727,0.4364614819,0.3402232004,0.3994370943,0.4093429952,0.5186984653,0.2683141294,0.2959481936,0.513910594,0.3478774707,0.4268210829,0.3803295774,0.288058216,0.4085032758,0.6097956412,0.1656836296,0.1419955177,0.5475136374,0.1591844619,0.1326578682,0.1763661725,0.481554917,0.1916450061,0.396857287,0.3450592206,0.4950869017,0.3344460323,0.2564691585,0.5341550074,0.4277233936,0.4630585333,0.3871943674,0.7524175728,0.4977677158,0.00934270045,0.007771029202,0.02294829318,0.04544965884,0.1548032084,0.01540607635,0.1484076977,0.02257004398,0.04279472195,0.008483588823,0.323047803,0.04919218687,0.01418198039,0.01174370725,0.01387675943,0.010744552,0.03710630608,0.03229272156,0.05792252609,0.01661160705,0.0166285149,0.01512010137,0.0149857047,0.01986283147,0.006421577846,0.007231688769,0.00300058045,0.008808197109,0.02469698793,0.0780849925,0.02967046763,0.4324275716,0.4432917553,0.3841427997,0.02419024181,0.03311767855,0.04897685391,0.0389033426,0.02261568772,0.01988722766,0.0159731854,0.009052354008,0.007653218237,0.003700506923,0.007468335448,0.01293422229,0.00923189003,0.01435680232,0.03235691181,0.08410265317,0.01890813305,0.04087358208,0.2568126275,0.02239469213,0.009372219953,0.040567171,0.006763034449,0.004029470941,0.0007096036329,0.002727779156,0.03688048313,0.0425360759,0.002882659723,0.0002057109281,0.0003342930858,0.005025866089,0.08823314587,0.01340381715,0.03145684732,0.003552616481,0.06445413382,0.009444585008,0.03782662143,0.02995162559,0.003030998177,0.01844221311,0.0006781116835,0.001905627908,0.001005015394,0.000917192297,0.001655636422,0.00158456316,0.004757741019,0.007582764773,0.01012127048,0.05326055431,0.02170392737,0.01465451092,0.02127635335,0.015922175,0.02203985075,0.00733070999,0.05101571228,0.01607272153,0.073149955,0.07467044418,0.1369336054,0.2029023121,0.01551209292,0.009720001772,0.01844397002,0.01250875488,0.02157080671,0.01063992402,0.004176007086,0.0002135129721,0.0003810521241,0.0003631817317,0.0005045638738,0.0008062476904,0.0006726949231,0.0003969924223,0.0009100193517,0.002985799958,0.002736290982,0.001864418576,0.001092773367,0.0004231088723,0.0003978147822,0.0001551174749,0.0002828637514,0.0008037654207,0.0003957852614,0.0004835241854,0.0002885974929,0.002033151621,0.00917391595,0.001938225364,0.001683559386,0.00431683305,0.003007917028,0.005198332588,0.001078820326,9.018905291e-05,0.001215118688,0.002873666006,0.001746139704,0.003559135086,0.0006346988555,0.004521854024,0.01558918423,0.02503618725,0.1353805943,0.05846259481,0.03829027032,0.053743916,0.3742209949,0.0607562271,0.2163989725,0.6459417186,0.4032096851,0.3631043559,0.1483247354,0.4975551238,0.1566068603,0.1660903662,0.2148181177,0.5879778698,0.2661364981,0.2058869167,0.3709096756,0.2385976671,0.1941966779,0.5529489289,0.5118498688,0.3503020802,0.2652814957,0.09806106502,0.02463077705,0.008939858972,0.001808483606,0.001218621385,0.002380832765,0.1761090725,0.009582210364,0.009515488826,0.005197657477,0.001715463613,0.005606296807,0.004183735754,0.002261149685,0.002211633976,0.09001421019,0.000931559888,0.01716068629,0.01232454173,0.000826046793,0.001629306964,0.01223829077,0.00265281778,0.000919044169,0.002476520058,0.0008270399754,0.001059271922,0.00130645846,0.001110532032,0.002356163442,0.005264467976,0.006538158945,0.003124572271,0.0109623964,0.004588018628,0.01930410045,0.1044013136,0.03325909282,0.1639566521,0.1123449858,0.1403063765,0.01120070641,0.01311274957,0.003787668826,0.01772183817,0.0101272416,0.05965690995,0.03408367968,0.0250830121,0.003810114538,0.01403401887,0.07360814992,0.009611461661,0.04358639698,0.08263114915,0.403431644,0.02254669818,0.167589193,0.2180697972,0.0226319134,0.02194057449,0.01241767025,0.01578140339,0.02872417402,0.002631848132,0.003209189246,0.002917732715,0.009510218339,0.001841302946,0.003609085137,0.004474137998,0.005110861614,0.01341883591,0.01246472329,0.01076333287,0.007431013328,0.003691357694,0.006399858752,0.006404534253,0.01568810061,0.02034878265,0.09532166532,0.09468517418,0.1358577206,0.03558646495,0.1224061846,0.04992667359,0.1166440294,0.04815287962,0.05590349352,0.0186091154,0.02465223389,0.02529008609,0.01191071474,0.01754309723,0.01011023269,0.007911504381,0.01450671531,0.006810947647,0.01215698167,0.01282559048,0.04109939316,0.04549495254,0.05039398826,0.1609095825,0.1786456217,0.1456048268,0.1258177175,0.0599612523,0.04303601013,0.03386155246,0.07633926384,0.1029635845,0.05844831199,0.1337293029,0.3958523578,0.1637230464,0.3678449986,0.2663085829,0.3239329308,0.1305263215,0.05872011563,0.04264946888,0.08874280256,0.03336520769,0.01727833613,0.0240602456,0.02817750431,0.1255470104,0.0294904382,0.01612563395,0.03156575866,0.03726443173,0.05209500637,0.03044181229,0.03578569529,0.1077742955,0.02528390801,0.02694541176,0.03073300806,0.01868589202,0.03517097333,0.01281844346,0.04971216325,0.03214063487,0.0108186012,0.02153836818,0.01764137213,0.008360879138,0.01625222674,0.007449778019,0.04856777718,0.07070783367,0.07807802982,0.1053781481,0.01758603201,0.07955904173,0.09679596494,0.08539110686,0.07765316612,0.09240914211,0.08857720798,0.09089858129,0.1116869495,0.2412114785,0.2119162408,0.1668980844,0.2404482637,0.3162288849,0.2080195132,0.255817937,0.2887630074,0.3387827286,0.2387297144,0.1759331217,0.3404072226,0.2974124014,0.3757605116,0.2588332617,0.3996444343,0.6509397808,0.3693397683,0.2439157487,0.3336755141,0.3341603458,0.3247303937,0.36545563,0.2501632882,0.4209804322,0.3299396449,0.3413742095,0.264224049,0.4362738546,0.3342841393,0.2774998182,0.2623918077,0.2092914082,0.3732470609,0.28173728,0.3359299403,0.3675220609,0.2782316128,0.3855757718,0.5576171523,0.2472596486,0.3857617513,0.5040670269,0.3754291725,0.4763312797,0.1957487982,0.3606267218,0.3291137094,0.07910836119,0.07766475916,0.427013623,0.3535597933,0.1122269452,0.08137992062,0.1580998955,0.2229398915,0.3163867415,0.3983574392,0.05591063446,0.04318496349,0.1038685559,0.16835023,0.06628753385,0.06698980217,0.0277778808,0.1004450358,0.0786813194,0.0660907616,0.08088969444,0.03758671872,0.06013755484,0.1050421307,0.217842411,0.0326367313,0.04798566348,0.1820277639,0.1280489415,0.1002110854,0.02207178186,0.1157736169,0.1188834463,0.2631580415,0.2112784828,0.2063493971,0.1075554457,0.2864924689,0.5000001549,1,1,1,1,1,1,NaN,NaN],
	"pwr": [NaN,3.190584818e-08,2.919886832e-07,4.024858088e-07,5.015770182e-07,6.347084803e-07,7.77327268e-07,6.945530445e-07,6.010348901e-07,8.449661168e-07,1.223529776e-06,6.796262275e-07,6.506514622e-06,2.093850834e-06,2.494253092e-06,2.33570533e-06,2.353008781e-06,2.423594422e-06,4.400471982e-06,2.01003159e-06,8.222831941e-06,8.540446079e-06,2.048820244e-06,2.433955168e-05,6.329686918e-06,7.387912678e-06,6.308138296e-06,5.043596359e-06,1.082639123e-05,2.424521017e-06,5.980162615e-06,3.030832005e-06,2.478825134e-06,4.916991577e-06,2.394609951e-06,3.3533888e-06,1.087246358e-05,1.163483735e-05,6.964159282e-06,0.01501792261,0.0170835491,0.01919173791,0.01850640529,0.0293334407,0.04440938686,0.01143783402,0.01308147848,0.03306622594,0.008276549705,0.0002173175105,0.003593209465,0.007021125658,0.00417207845,0.008759280336,0.00360717318,0.001865847086,0.002304777986,0.001760583674,0.004429688875,0.003197890339,0.006344314872,0.007280926683,0.002325834193,0.005222563206,0.007940403736,0.008098307077,0.00489386369,0.0006391719124,0.0007626453648,0.0005874474541,0.0006706272449,0.0004782660632,0.003634895828,0.01977825394,0.01758430151,0.01063778779,0.01128165935,0.01131772455,0.01419277027,0.02085398972,0.01717716061,0.01784837767,0.0153975766,0.01497696879,0.008576677145,0.00493554417,0.004381295793,0.007157943098,0.008264946438,0.02232064273,0.03503772901,0.003988116,0.06237801242,0.1883746146,0.08103284595,0.03575171351,0.1348689031,0.2282318612,0.172763377,0.02483941346,0.01794449832,0.2714486713,0.3965335048,0.2029058325,0.1259721922,0.001979897543,0.005617431379,0.006991145305,0.0240926137,0.001442881201,0.003245106077,0.003120695924,0.00720269273,0.07507407537,0.01953784406,0.04708112293,0.04954133163,0.06636958779,0.06674052573,0.0356309627,0.03514746412,0.02439588731,0.02092211096,0.02954595146,0.01301357284,0.01177146244,0.0161127609,0.002813071961,0.004209003699,0.004735751566,0.008065598617,0.001055578292,0.002355858764,0.0003552737907,0.0006341510389,0.0004820737904,0.0002813013234,0.002120392562,0.00595404986,0.01868554926,0.003199976326,0.009362492121,0.03185206344,0.076019587,0.08331658597,0.1093464538,0.08176065973,0.06209433263,0.09867392849,0.1175424562,0.1184554565,0.09586119741,0.03596169047,0.01333850947,0.01297508,0.02399891627,0.04197422277,0.06388517314,0.08946266468,0.09535837018,0.07656153345,0.05107286527,0.03533421207,0.03153111385,0.02099751923,0.006012100649,0.00133281113,0.001445801735,0.002187081113,0.00088708918,0.0007155674865,0.002205489648,0.002825150356,0.002047728077,0.0008654607779,0.0003931165637,0.0002139749264,0.0003214659647,0.0002417691858,0.000102750653,3.665115356e-05,2.008072897e-05,2.87089474e-05,7.6564096e-05,6.173566605e-05,1.780523991e-05,4.005873098e-05,5.022397099e-05,1.111014294e-05,9.639569367e-05,8.173151071e-06,1.300522543e-05,1.005892334e-05,2.794857184e-05,9.526050179e-06,2.612978297e-05,5.202314017e-06,5.379083717e-06,2.773901897e-06,3.221499428e-06,2.468700467e-06,1.848267431e-06,1.929953945e-06,2.953936165e-06,2.024754135e-06,0.0001391956193,0.001142974729,0.002604161537,0.007081956937,0.01838989991,0.02858940781,0.03112760836,0.003313760299,0.02667621123,0.01641151121,0.006890887343,0.01256531558,0.01941742782,0.03028140199,0.02547253776,0.02126639035,0.004593402222,0.0169318293,0.01125897941,0.007945190114,0.02432850759,0.02464858009,0.008361250082,0.009664416991,0.0174130176,0.01662819283,0.01490566213,0.01781808511,0.0177559703,0.01278869402,0.007367091954,0.004128445098,0.008153600408,0.0062034073,0.004245243018,0.01139146102,0.003002438748,0.002443512767,0.003801624809,0.001038328594,0.002104498242,0.004183788191,0.01298691878,0.007042542997,0.01330237441,0.01346860366,0.01299395089,0.01290923888,0.01201811291,0.01465045403,0.01119152752,0.007326057746,0.007065962179,0.01643566227,0.008284544359,0.0046632942,0.004421325804,0.01518695459,0.01935484105,0.004158427579,0.01205570046,0.01298715774,0.0113845849,0.006611710817,0.005423762266,0.01925766073,0.02447339439,0.01817532466,0.01264328911,0.01519151697,0.01426107979,0.01027400161,0.01198361571,0.0081183239,0.008785701072,0.007402683155,0.01428813073,0.01917520202,0.01536939884,0.0128491455,0.008881663249,0.004849507356,0.002560689167,0.004285784872,0.006680345409,0.007287867664,0.004548449533,0.004988486934,0.004030924952,0.004251787494,0.005137204548,0.006290234179,0.005160710744,0.005995199965,0.008003691376,0.009732591885,0.007219768185,0.008734662488,0.009560784175,0.009535734103,0.01029275412,0.008337524004,0.007165379966,0.01077849723,0.009262640611,0.01168799428,0.007328218482,0.003044404042,0.003453458819,0.00528615037,0.005421109234,0.002819129373,0.004275779753,0.00409011919,0.00640018,0.005076165066,0.004946209425,0.01317155039,0.007753034721,0.00539761768,0.001946679657,0.008624752131,0.009986603296,0.004509275233,0.004539661174,0.004581092181,0.008311969842,0.00503602098,0.002984793228,0.001070712328,0.004818251317,0.00466995745,0.003715992513,0.00526774594,0.002887797772,0.004090388605,0.002767853375,0.001243760013,0.002192541958,0.002154892887,0.001187489848,0.001901521259,0.001940180588,0.0009492375049,0.000825817095,0.0009376525869,0.001271906271,0.001017106612,0.001303620877,0.001450582781,0.001269607341,0.001200375535,0.0005344941218,8.719265331e-05,9.537712553e-05,7.309635235e-05,8.231572514e-05,2.960208606e-05,2.166238355e-05,1.34464117e-05,2.053886376e-05,1.599399796e-05,7.205630319e-06,2.795429608e-06,5.049029379e-06,3.544188597e-06,2.464115003e-06,3.559002568e-06,1.852284984e-06,7.664150013e-07,7.576341229e-07,1.637882828e-06,1.064244544e-06,6.890311236e-07,1.672005685e-06,7.587451559e-07,8.704135282e-07,8.965483097e-07,8.70566513e-07,7.326143511e-07,6.629006963e-07,9.044311969e-07,6.648367769e-07,6.725632478e-07,9.085328174e-07,1.174050296e-06,1.012926662e-06,8.525969372e-07,9.880223369e-07,5.142119905e-07,8.294560338e-07,7.0089776e-07,7.8223358e-07,5.700291033e-07,5.029097377e-07,3.76032181e-07,8.08546787e-07,3.391139367e-07,2.603455288e-07,9.105514807e-08,9.087613769e-08,5.495503195e-08,3.906472483e-08,5.19192489e-08,3.409095382e-08,2.925159635e-08,2.219082106e-08,7.959584352e-09,1.585385443e-08,2.44540925e-09,1.416187807e-08,1.016754921e-08,2.642242361e-09,3.038676118e-09,2.581767644e-09,2.115087907e-09,4.986609061e-10,9.803636748e-10,1.46985802e-09,1.503315967e-09,7.061011289e-10,3.318891369e-10,8.845731147e-11,5.307438688e-10,6.723672328e-10,6.384509579e-10,6.567840794e-10,9.840302991e-10,1.001446765e-09,5.513686305e-10,4.677237635e-10,8.699066174e-10,1.308984878e-09,7.291999096e-10,6.682422804e-10,5.848265774e-10,4.564947265e-10,3.648291188e-10,6.214928205e-10,7.892408826e-10,5.502228104e-10,2.804967597e-10,3.391627486e-10,5.151607155e-10,5.004942182e-10,4.244117638e-10,3.061631298e-10,1.737063267e-10,1.558315332e-10,3.831622403e-10,5.692434241e-10,3.58366824e-10,0,0,0,0,0,0,NaN,NaN],
	"sr": 16000,
	"range": [1,148865],
	"minf0": 63.1883,
	"maxf0": 706.3069,
	"thresh": 0.1,
	"relflag": 1,
	"hop": 320,
	"bufsize": 10000,
	"wsize": 640,
	"lpf": 4000,
	"shift": 0,
	"plotthreshold": 0.2
}
