{
	"f0": [NaN,52.51912893,52.49044997,52.74318912,52.30133634,52.48692554,52.39382699,52.18130458,37.61711824,37.65642994,37.56485641,37.55718401,52.55802863,52.61109604,52.52104045,52.29739423,47.12768523,52.57081028,52.33090112,52.15045899,47.14799858,52.34589789,52.36557094,52.35837495,52.40198826,47.05248521,47.08030803,37.52406943,52.60576489,52.45367161,47.21309485,43.55943569,52.55802863,47.27556566,37.5720417,51.62924685,43.55775197,52.14324385,52.28924053,52.1515062,51.99551475,51.93678611,52.13614224,52.48627889,52.35482886,52.37482755,52.29581317,52.17426115,52.21471523,52.1859328,37.58819921,49.63782158,49.3709473,49.19127226,41.57128985,44.3602698,50.59188715,49.57715993,49.62439498,48.62137826,59.02709864,57.6095089,57.05162503,56.91448468,56.9955013,57.31496562,57.30319001,57.135949,57.23176034,57.75925711,57.96906602,57.9881062,57.90328599,57.38165084,57.47353514,57.40776199,57.22964343,57.33325847,57.66169865,58.16354076,58.71311651,58.68036542,58.43980824,47.02625207,46.97600422,46.68395676,58.82747906,58.90586577,58.80847602,58.81924272,58.96976926,58.9783132,58.91461299,58.89333168,58.90804834,58.89673902,58.89148706,58.89906661,58.90677589,58.90987491,58.9111755,58.92002796,58.90823714,58.90899711,58.91817443,58.90479814,58.8979889,58.90877489,58.94054332,58.9706744,58.99491998,59.04819173,59.15092484,59.19764853,59.16260225,59.1436838,71.11437844,71.11398546,59.12656022,59.48573577,46.5397816,46.75522275,46.79575702,46.60905072,46.75660084,46.76278069,46.6467355,46.72115529,59.11249507,59.03309551,58.8530032,58.81314349,58.65642666,58.61474306,58.9446811,60.33040771,60.65516485,60.4966049,60.44115817,60.41655212,60.41483893,60.45604361,60.45411231,60.46255522,60.52778092,60.61807747,60.76650952,60.7857227,60.71792154,60.73944188,60.81022507,60.91732291,50.76967639,62.78361709,62.81394285,62.64135039,62.51808764,62.47171521,62.4152145,62.43267387,62.43592098,62.45524152,62.48755806,62.45499306,62.40340252,62.58190488,63.55620779,64.03650095,64.35961899,64.3795316,64.36174697,64.31265017,64.39541636,64.56101224,64.83115807,65.11356037,65.28844912,65.44537741,65.55615256,65.83308557,65.91218317,65.83653811,65.81710865,65.76061705,65.63141889,65.53687657,65.48687038,65.46566814,65.49757047,65.5754128,65.82608392,65.98996489,66.04630814,66.01568844,65.94837448,65.9370813,66.02213855,65.99150294,65.94080569,65.96565616,65.9949424,65.93715424,65.9611261,66.03981132,66.09343917,66.19171298,66.31058922,66.3049498,66.23552032,66.00326893,66.07756332,54.1309199,54.00810515,53.96262279,66.10662103,54.05406017,54.16911363,54.13689706,54.04031003,47.18365277,54.24005297,66.19322318,66.2037927,54.27854905,54.28098603,54.39679263,54.50663994,54.4953688,54.21545152,54.14357145,66.06891129,66.0979178,54.29075386,47.19655041,55.34995772,42.0979178,41.40730553,46.64199053,61.09436889,60.66058359,60.94103843,61.15480719,61.23295426,61.23764118,61.11041698,60.95676573,61.01245879,61.23241328,61.45232467,61.1758275,61.26706398,61.33470913,61.52483579,61.21841468,61.21939797,51.31455706,63.49610647,63.27225045,63.24452567,63.1940448,63.0982386,63.07790176,63.08543187,63.09623886,62.99429017,62.83621043,62.75178435,62.43288349,61.87184712,61.90371775,62.19398007,62.2796639,61.89826822,61.22109691,61.06265256,61.06275229,61.14859665,61.03821702,60.90056745,60.87762575,60.90392933,61.00750382,60.97028304,60.82394924,60.70898848,60.56583872,60.12635912,59.21793032,58.82382943,58.94142881,58.94571477,58.88127551,58.97264216,58.90448735,58.94978741,58.96727431,58.942865,58.9598768,58.8129768,58.79654645,58.71697461,58.59047639,58.64266274,58.5758747,58.35858219,58.29303933,58.24090764,58.28595424,58.32050038,58.31331454,58.35006513,58.39882447,58.45891929,58.52566274,58.60002356,58.64667625,58.63398657,58.64864288,58.74023887,58.87993647,58.97460239,58.92704853,58.92100964,58.94017617,59.02083074,59.08077886,58.99954678,58.9423733,58.90611858,58.8780806,58.77902883,59.44487295,59.53815087,59.34018707,59.11104152,59.08642374,59.10185769,59.17463973,59.16756238,59.10934312,59.07021338,59.05619832,58.96137224,58.94884037,58.92226492,58.90074229,59.13249073,59.28429084,59.25148627,59.2034424,59.24650975,59.1876032,59.17421432,59.17682825,59.17350427,59.20398847,59.18162548,59.15264096,59.12702999,59.09489424,59.21309485,47.06462672,47.27318715,47.2687512,47.19886485,47.34290998,47.33727534,47.30741988,47.33538066,47.28361393,47.20469021,47.13252789,47.13580157,58.9726124,58.74757623,58.37371754,61.47016564,61.45087379,61.3613155,61.21452771,61.13742699,61.07488868,61.07085604,61.0677941,60.97406245,60.97029756,60.93920317,60.99285334,61.01977718,60.9990067,60.98977694,60.92643376,60.78209269,62.80781824,63.5265018,63.60819312,63.50183608,63.33990162,63.32762666,63.24650498,63.18036871,63.13999865,63.05060044,62.99878131,62.97331324,62.98131957,63.05579733,63.10130818,63.50697756,63.84605908,64.15160515,64.42149635,64.48421903,64.86847235,65.24188455,65.38648474,65.67572989,65.75387959,65.98738457,65.92522311,66.0979178,67.03616687,67.23088854,67.41352137,67.82091061,67.95838003,68.12834051,68.33239687,68.48662772,68.49469136,68.52162356,68.50987338,68.46771887,68.49269132,68.50608033,68.49528523,68.48261572,68.46084943,68.47947949,68.48720532,68.48897569,68.51558821,68.41949712,68.34707605,68.29571191,68.2602078,68.23754603,68.21857027,68.19406977,68.20319968,68.17813585,68.08017083,68.10034252,68.16808493,68.23112891,68.2693703,68.28885709,68.30149107,68.29822122,68.27033444,68.25757661,68.24573159,68.17772725,68.16016276,68.24841351,68.28690615,68.27732312,68.28360749,68.31423291,68.3230505,68.3083336,68.28357318,68.26426489,68.26462286,68.26883961,68.26880684,68.27153396,68.26307839,68.23815382,68.2809003,68.34965607,68.2409224,68.17723759,68.1910425,68.24374751,68.32469454,68.23205363,68.1150273,68.20499696,68.28795266,68.23976331,68.17625505,68.19642895,68.21802485,68.22973012,68.14373763,68.11532378,68.10555216,68.50948183,37.24220687,37.01678255,44.81896692,66.12865892,66.45952832,66.50259489,66.54382221,66.62525489,66.59119319,66.59115308,66.60420447,66.63477554,66.76475645,67.13002971,67.45105885,67.52365051,67.80956326,67.96168883,67.97333228,68.00954124,68.00480952,67.93096231,67.96786072,67.92626182,67.59616287,66.81305152,66.50832853,65.81949704,65.45537515,65.509907,65.64263772,65.80820982,65.76382627,65.72768105,65.76430687,65.8600566,65.87655839,65.87129036,66.01775968,65.94409779,65.77441961,65.59935737,65.45945149,65.34829284,65.21738658,65.23372554,65.34521412,65.45163697,65.66748843,65.72672512,65.68461015,65.67559627,65.60471202,65.55808705,65.61853473,65.75144072,65.76321408,65.83142103,65.98416597,66.11198391,66.22171223,66.32580002,66.33013627,66.23702775,66.21016494,66.15295728,66.15395565,66.12692608,66.0734603,66.06727444,66.00519595,66.01339285,65.97260713,65.82524305,65.90251667,66.29054254,66.1805426,66.14574511,66.09210798,66.03200846,65.90706053,65.67923002,65.78683774,66.21916896,66.14001255,65.56471511,38.35666989,54.50528578,47.14197129,53.82059874,53.38810348,54.77842046,54.6250045,54.5166107,54.49125915,52.47215975,52.56616803,41.61293895,41.53562035,53.44589501,53.31995809,53.51096462,42.04822669,37.73164854,64.0606366,42.32323991,42.27776525,42.33434232,49.23155581,43.35110245,43.31664065,38.41632195,43.23291785,43.19070046,41.59091938,41.54317321,41.52733726,54.30040362,37.99612092,38.14517143,42.01552941,66.16807079,42.13275806,42.24035877,42.2965322,66.0979178,65.68567276,66.82574321,42.31033448,42.16166143,46.82778654,46.93735417,66.11986426,65.94846735,65.98231535,65.94618802,41.69816874,46.29130769,45.17792419,41.60988726,37.82496226,37.79616088,43.59818927,43.45738838,42.36274965,42.39533439,35.63208953,35.62368344,36.88583015,43.54123685,36.03857156,35.34887861,35.34887861,42.5421284,42.48811935,41.4508008,35.34887861,35.34887861,37.52483579,37.94244647,44.10559225,41.36866189,35.34887861,35.34887861,76.93035138,NaN,NaN,NaN],
	"ap0": [NaN,0.7239181181,0.5943309189,0.5427833125,0.5618574755,0.609236398,0.7592434387,0.618641981,0.5819507377,0.6228276734,0.7289339669,0.6715787964,0.4894971042,0.4796821088,0.5356045275,0.6360982849,0.5479469153,0.5320320869,0.6046752869,0.6670118514,0.6591317986,0.8037462987,0.5298936845,0.4883421215,0.547279379,0.7027503965,0.5421023379,0.7313285001,0.6669634961,0.6155832168,0.6700586839,0.7028254418,0.6021697961,0.6137237164,0.5742845751,0.6712686521,0.7428333052,0.7222203465,0.5181969978,0.5446651173,0.6635920175,0.6418212034,0.6215313649,0.7099191117,0.6431282061,0.6228218964,0.664497412,0.5306681224,0.483116026,0.6030114599,0.8629625022,0.4711622318,0.4981822637,0.6899519391,0.6345045223,0.6695843766,0.6738405826,0.5915919883,0.4541438402,0.7106330459,0.4757794189,0.3888247123,0.1008537913,0.06008355428,0.06870132882,0.08492004862,0.1188692508,0.08750972115,0.1467262463,0.1311834261,0.04302530168,0.03219947498,0.05065188813,0.09397642619,0.1059509867,0.08786059663,0.08471073978,0.1513121307,0.1984414897,0.1734009164,0.257892122,0.5380739319,0.484124408,0.349743845,0.3440232631,0.2028013031,0.1817525201,0.08012675667,0.06152821667,0.03181624614,0.01586158608,0.01016802742,0.006347665594,0.004460888353,0.0032872842,0.002731956551,0.001813715604,0.001485561981,0.001180818648,0.001363376453,0.001797814494,0.001650191744,0.001983680879,0.002170396612,0.001564862902,0.001481734811,0.001727374837,0.001897515833,0.002127461092,0.00188400547,0.002488004082,0.005504582981,0.01267722867,0.01427441915,0.008424694845,0.005031999256,0.02399958654,0.1032921963,0.0448177754,0.4431553386,0.2666260313,0.2622085085,0.2265965951,0.161691628,0.08836823426,0.06796210237,0.04935873718,0.06163020661,0.1232546239,0.0261299157,0.02086638679,0.02755391345,0.02519368657,0.01639147275,0.08650108432,0.2910574893,0.2766539959,0.2085882693,0.1004129508,0.05927630455,0.05176832246,0.03669866268,0.02049728811,0.01497612317,0.01809012665,0.03007064058,0.06363573921,0.0350693346,0.00980357847,0.02869835489,0.2022940344,0.4792026906,0.6316126846,0.2486816459,0.08966564321,0.1109256383,0.1549901049,0.09878887378,0.04441157474,0.02117393104,0.01240847399,0.008777273434,0.007271360153,0.007072161282,0.01752452302,0.07161163366,0.06189640746,0.05958870039,0.05193219866,0.01837582146,0.02033157548,0.02719709348,0.03655245591,0.04843730807,0.02269356241,0.00816276595,0.007232464224,0.01390908303,0.02436452486,0.01450778294,0.004993976227,0.008510226229,0.01834306613,0.02411540042,0.01987816646,0.005286379812,0.00130220133,0.001722525143,0.004624790846,0.007633482763,0.00479565339,0.001526985877,0.001432803336,0.001107466016,0.0008240852925,0.001598462519,0.002421374992,0.00154227933,0.0009548043892,0.001019715068,0.0007182221108,0.001199980482,0.002258476525,0.002236625613,0.001316245541,0.001261434351,0.0009593225759,0.001415140184,0.005484531247,0.03500389313,0.1482389781,0.0886903182,0.07821639431,0.0715577809,0.1749847306,0.1721389369,0.2643486478,0.3212249067,0.268288684,0.2722689688,0.2528632854,0.2024367771,0.1756530244,0.1191353151,0.1937352733,0.4144166781,0.4428950619,0.376050839,0.4106025678,0.4078317952,0.4384496663,0.4896896541,0.4599146069,0.6852137736,1.208430824,0.5276364798,0.6295994059,0.7121486814,0.4299513766,0.2232103135,0.05498714468,0.01260599407,0.004073941771,0.002502827275,0.00337491651,0.002351697406,0.004907480028,0.01081466404,0.02670935631,0.07480329212,0.02883462184,0.06164462775,0.1845039323,0.155658844,0.2846883295,0.8870283512,0.1581586386,0.02801631705,0.01461580644,0.01135307259,0.007593459067,0.008546449238,0.01023400162,0.009606450069,0.02195094651,0.03939359545,0.01745605846,0.01755008784,0.01293390706,0.05639157893,0.06620175553,0.07180496687,0.1735229876,0.05058938337,0.01613406455,0.01142165792,0.00721421008,0.004536635374,0.001920897019,0.001240368031,0.002292921313,0.003543034486,0.004070699821,0.005916701854,0.01468551349,0.03089374517,0.0558496487,0.04035127189,0.01292094226,0.01076485695,0.01816294549,0.01948365017,0.004398609192,0.005259556418,0.007521720593,0.007788995588,0.01039848499,0.01126587527,0.007667963459,0.005236298321,0.003569018816,0.003934572331,0.01459895192,0.01639165179,0.004204193292,0.003935720949,0.005644975615,0.008815163904,0.008921935749,0.006900702447,0.006903873041,0.005869195484,0.004396299906,0.00587404089,0.009618777471,0.009174515546,0.005655775799,0.004160583838,0.005818341503,0.01494731873,0.01886203041,0.007979155678,0.007184842433,0.01052407647,0.0156105799,0.01845630866,0.01278989062,0.01620364223,0.02414802264,0.04184054104,0.05891520201,0.2038931066,0.1454390147,0.1043130973,0.08261135513,0.05831473776,0.0544379137,0.06350794762,0.06974635467,0.057444446,0.03080693859,0.02480159091,0.01797611663,0.01331494199,0.0122400183,0.03401415074,0.1106372822,0.1073301,0.05014980297,0.04095351311,0.03324509386,0.0408312868,0.05501276132,0.06831165825,0.043835333,0.03041005587,0.03364623643,0.02401117082,0.02859970542,0.04391077454,0.6058389055,0.1245018,0.1024134504,0.09663409414,0.1540298315,0.1581801665,0.1133786887,0.1107151883,0.1412117539,0.1277163731,0.09547403025,0.09024450276,0.07639249371,0.06538025928,0.03230489319,0.1460339607,0.3292409873,0.08708185701,0.02776028669,0.02540250088,0.01819536146,0.01535121663,0.01008129996,0.007231855513,0.007681658813,0.005504430915,0.004296635921,0.003410445601,0.002235906238,0.005076750168,0.009856901611,0.02077684457,0.088890564,0.3905770496,0.1445895412,0.04015876739,0.02219412532,0.01753880385,0.01357302641,0.01138407812,0.008106795063,0.008247585403,0.01322944566,0.01743637064,0.02515264673,0.02031093712,0.007568221309,0.003771239112,0.009213057031,0.007320650874,0.01711935062,0.03208068078,0.03963343841,0.03309014079,0.01635103755,0.04030111559,0.04391434879,0.0330392713,0.1150323776,0.116365083,0.1301987098,0.1406736988,0.1825887499,0.1848122235,0.1054002382,0.08235018216,0.04699012044,0.02724142933,0.02368583,0.02578792121,0.0255050902,0.02724509788,0.02233189406,0.02002175401,0.01592285753,0.007507508859,0.007857124049,0.01183818462,0.01311457464,0.007847769344,0.007024228561,0.007320193505,0.003623770385,0.00146262707,0.00104640003,0.00143537239,0.003101467154,0.007173979994,0.006607666468,0.002667919538,0.002113375071,0.002903445857,0.002741444487,0.001802190298,0.001921367375,0.003413195567,0.005837436395,0.005134379755,0.003443632649,0.00253580303,0.002400719688,0.004097471668,0.005783207749,0.004411547965,0.002808844187,0.002059094387,0.002363360098,0.00171042223,0.001564275477,0.001373557161,0.001034913236,0.00127459588,0.001914588601,0.002850928625,0.004242623164,0.004898065482,0.006419022123,0.01332393103,0.01994836506,0.01938751051,0.02216170865,0.01577142433,0.008310716923,0.008141800733,0.02078344892,0.0561855866,0.08910893884,0.1320510259,0.2341257383,0.2585756006,0.2107873478,0.1340900574,0.1206213076,0.149552875,0.1365647399,0.1358263489,0.1595428918,0.2411951201,0.5532930441,0.4508937227,0.5436507268,0.762576826,0.05376906269,0.02199635256,0.008344241015,0.006637014529,0.003473720504,0.001691833127,0.001506208439,0.002184999498,0.004667929626,0.01410351748,0.0393975399,0.04330196226,0.06475678701,0.03593259023,0.01049454649,0.008081818775,0.01465254712,0.01873504178,0.01816060591,0.02659962688,0.01374898497,0.0501638241,0.07430020653,0.08084342431,0.06897288311,0.01231527442,0.009730786841,0.03122981309,0.06333234488,0.05500851189,0.03511595105,0.01131178769,0.004736742518,0.006338120795,0.01536514739,0.02401286806,0.01295608254,0.01162140703,0.008736676733,0.003226135576,0.00140535162,0.00106562064,0.001532600852,0.004804862462,0.01331150984,0.01697094645,0.005704521839,0.006872925737,0.01054642235,0.005781939757,0.004775282832,0.01114728686,0.01343098,0.007428476555,0.004318761317,0.002068496635,0.001372906221,0.002554293695,0.006595045125,0.008788524232,0.003990954738,0.004417875789,0.006237515279,0.01283213552,0.01130445464,0.004084457481,0.001981682939,0.002300199426,0.008128666294,0.01783010664,0.02439334065,0.06154585426,0.1257726519,0.05269792609,0.02577422757,0.0294422957,0.04834820183,0.08108557909,0.1587460224,0.1754464618,0.3044051926,0.4828690181,0.7009851677,0.3640680773,0.4335212835,0.383047367,0.4331113118,0.496937185,0.5878715951,0.6930099624,0.613185523,0.5512958479,0.5596908026,0.7727358395,0.5868285642,0.6408975131,0.6939123334,0.6975111768,0.7906865674,0.7159132766,0.7345841104,0.8447568114,0.7061253504,0.5612480434,0.6137869202,0.6448912023,0.6275715763,0.7223265896,0.6904219783,0.6892597029,0.7070088343,0.6795829633,0.5919103374,0.643862068,0.824765692,0.4472558051,0.2583519488,0.3003888301,0.5621407297,0.5211197038,0.5783148127,0.5851651414,0.3935836788,0.3385216046,0.8364714568,0.5796437497,0.3553407681,0.2660265705,0.2688870362,0.2694961568,0.1629839101,0.2310379757,0.4547345757,0.327581005,0.564138403,0.5272666167,0.8584990226,0.4120646025,0.6849200672,0.7036943396,0.5231937867,0.4608752511,0.5161622764,0.6984864934,0.4126182063,0.5542056701,0.9061696333,0.6418331123,0.5405497769,0.687845764,0.6941447988,0.7534716725,0.9428631101,0.8641792618,0.615069147,0.6731483673,0.9288010718,0.9446685173,0.8826315668,1.022805184,1.505444439,1,NaN,NaN,NaN],
	"ap": [NaN,0.1952050315,0.4159741852,0.3013085527,0.3430427731,0.2067687222,0.1630954175,0.3944121674,0.2930828467,0.2366730391,0.3312555874,0.4196048999,0.4458989317,0.1983779607,0.335313209,0.1756410555,0.2191616384,0.2973158208,0.2431664657,0.2001530919,0.2982414244,0.4354224359,0.4140761963,0.2596733061,0.3315112037,0.4696946621,0.216448725,0.4321887253,0.6770619301,0.3261595199,0.3330972139,0.2440135572,0.4390322507,0.6581282305,0.2695724866,0.2866436545,0.2598254014,0.4646722627,0.2834452901,0.306361838,0.236046503,0.2972844111,0.2160805796,0.2390645689,0.4198370007,0.3077102129,0.2818921681,0.3413017419,0.3814882916,0.1948770224,0.2616436107,0.6101206396,0.3422153109,0.3678409919,0.2655434896,0.4816213358,0.6067812426,0.252806598,0.2043570783,0.6019731664,0.9245318473,0.425416893,0.6746518688,0.04204016493,0.01942199398,0.04536791898,0.0147540241,0.1007555962,0.02841952275,0.1038306822,0.1880752668,0.01845604335,0.003383187338,0.02697294694,0.04175580787,0.1087729293,0.05437174909,0.0345790461,0.07052720998,0.4556155126,0.09057689836,0.01664786308,0.1351135919,0.3076001599,0.1714993441,0.1218227289,0.09421809915,0.1382251721,0.02696974181,0.02321596999,0.04577739214,0.004692840053,0.01139835195,0.005220537492,0.002850539744,0.001464008608,0.001314758529,0.001204329607,0.000564085828,0.0006840704598,0.0005328162618,0.001137318044,0.0008972939612,0.0007638336265,0.001758042368,0.0004526554917,0.0006672031834,0.0003061409772,0.001098903905,0.0006014922273,0.001453907753,0.001352334707,0.002862790163,0.00567239146,0.01190085409,0.002512097152,0.0200808953,0.007861019809,0.001988291749,0.02075751507,0.1291673107,0.1315816383,0.1180146106,0.1146746768,0.03036059424,0.01605749444,0.01501270469,0.01155104793,0.01422470971,0.09806609729,0.0234055568,0.001913687885,0.00398478448,0.03098626472,0.005382376907,0.08156765953,0.08618820572,0.06181643791,0.1122737866,0.1073769198,0.03563984373,0.0179233294,0.003737943067,0.01920609231,0.0121410261,0.003673861374,0.01585574479,0.07246178904,0.01790241356,0.004118467433,0.003395361939,0.0554958313,0.2012308005,0.4849246148,0.05473132937,0.01742561175,0.03444307424,0.02449007615,0.04036140477,0.009711969983,0.01764626324,0.007825437093,0.005889839962,0.001473748069,0.002448870154,0.008867759455,0.1081709267,0.1018524078,0.01989879564,0.03052185137,0.008215810014,0.01266278629,0.01840939587,0.0163023574,0.04153327513,0.04430498312,0.005652384767,0.003769891817,0.004270748428,0.08108315428,0.00799770726,0.006771180244,0.002553135068,0.01044577509,0.003123237144,0.04322949343,0.003083733843,0.0008819862735,0.0008401221427,0.0008248346654,0.01434899601,0.00353377886,0.001454442458,0.0007541877581,0.0002857831305,0.0001543893379,0.0009844071616,0.0002702692354,0.001788682807,0.0001443199693,0.0008128394468,0.0001862973649,0.0003026491999,0.001087837304,0.0009079793312,0.001315714403,0.00103668851,0.0002715035099,0.0002147245379,0.005399800949,0.005494401801,0.02629061072,0.07234949073,0.03853447462,0.1439434665,0.03785296127,0.149212265,0.08866219574,0.1892006137,0.05985122285,0.2622788235,0.05781032305,0.02797687832,0.03115217468,0.04479380572,0.1287474203,0.1608226053,0.5190076366,0.2370951635,0.1647237693,0.1590514589,0.1086800706,0.5680941608,0.1938454737,0.4970784287,0.3239454501,0.1836962829,0.6406972484,0.9271464409,0.7406864721,0.08891845217,0.2354618096,0.007245530273,0.001601172706,0.002620077759,0.003984121941,0.001471144365,0.001015691828,0.007774901871,0.01259299295,0.1365404758,0.02275267906,0.004094524512,0.3774504418,0.1586816214,0.5972206405,0.7975175127,0.7183729522,0.01246680947,0.0006279587191,0.006249811967,0.003051945555,0.004264602631,0.002911878551,0.001523524663,0.006515376769,0.01980577255,0.02624423838,0.02625967463,0.003939331114,0.0116614099,0.2570832944,0.01784304256,0.3070551549,0.05811010147,0.003660477779,0.000606820729,0.01036979983,0.001849778087,0.002094497746,0.0002037224609,0.001998641179,0.0009262420753,0.003789562385,0.002452409676,0.008587919879,0.01525020234,0.1549856041,0.02535152945,0.003177158421,0.01346852419,0.004893665102,0.01349330187,0.0005568529577,0.0008478464803,0.006070554619,0.004242172261,0.002716168601,0.009473550607,0.005969488847,0.002507153421,0.001706283379,0.0009609631608,0.004468346672,0.01940541064,0.002733230233,0.001829468024,0.002486478819,0.005605750362,0.004806344336,0.002379124511,0.004595880231,0.00391841418,0.002484505376,0.002461377386,0.006292277957,0.004786582321,0.002840558171,0.002207963121,0.00302814633,0.01122613612,0.01773057297,0.006332187745,0.002302607076,0.006670901858,0.00556489933,0.0174115908,0.008571688312,0.007823484693,0.02490939068,0.01050518335,0.1014315471,0.04928400976,0.1461805989,0.02239427165,0.05349259852,0.0175306244,0.01781096006,0.08956927534,0.01132487861,0.05912867619,0.01175666783,0.0177715405,0.01483372886,0.01210247917,0.007162972865,0.01249967325,0.02059672871,0.1910693287,0.01395358237,0.01620322393,0.02192890009,0.003849276182,0.01203767195,0.03730033138,0.01942282395,0.01452889286,0.0080775036,0.02601103746,0.004548726294,0.01200321762,0.03495439428,0.07178665355,0.06358402607,0.02360345898,0.1068365248,0.08429052579,0.05184762522,0.06319996552,0.08570055144,0.0477197753,0.05347534168,0.06189877589,0.08725672836,0.009839649516,0.03222440258,0.2370755483,0.6146343012,0.1166395879,0.0134048148,0.01231576849,0.002705079637,0.006655578967,0.002849016467,0.003440144148,0.003424219118,0.00133184121,0.002812499905,0.00186739036,0.0002085853874,0.001786741969,0.00409250397,0.006495650212,0.18220466,0.1011512867,0.2265413636,0.005630880838,0.0147680269,0.006702796201,0.01183311797,0.006280079806,0.001485741058,0.001580474691,0.01195977194,0.004835653443,0.008960982247,0.01313013094,0.002975531533,0.008189314294,0.01287164339,0.004400410813,0.00920483975,0.02618681079,0.03584172789,0.03514791219,0.01994967515,0.0130844575,0.05060782993,0.01864662263,0.06200485253,0.03164939854,0.1061410045,0.02818274668,0.04525261521,0.183780119,0.1771769604,0.02108774746,0.1203138024,0.01481670238,0.003371565431,0.01158387975,0.01051922897,0.02440713113,0.0145215553,0.005834474713,0.0192096882,0.001164386657,0.005821273949,0.004534645307,0.01082291367,0.002152073982,0.00306042783,0.00310271886,0.001758005402,0.0009795293495,0.000664600037,0.0008203813273,0.0005005625428,0.005400364516,0.006700334202,0.002054990244,0.001347526035,0.001007167843,0.001785943861,0.002201909895,0.0009606027573,0.001330155127,0.002970463504,0.001713476442,0.001603190988,0.003502482826,0.0003832509867,0.001848286437,0.003587080332,0.002704636477,0.001105475954,0.0006602601736,0.001972979464,0.0005401818861,0.0007762828117,0.000401786067,0.0003576724425,0.0003855019041,0.000901253513,0.0004139996274,0.0009337745087,0.001435050445,0.0006260802441,0.009315090067,0.01728033681,0.01543374677,0.01415783865,0.0222633485,0.00936676957,0.001156531747,0.004710440689,0.0546705432,0.03309193205,0.0312324789,0.1888746111,0.09140348528,0.1380147935,0.02938864324,0.03297349752,0.08531403021,0.08813061717,0.09688489655,0.01266151083,0.04928191751,0.22414317,0.2869941503,0.2238303754,0.2642686178,0.6666101019,0.03294556555,0.002612514515,0.002951862645,0.0007990309823,0.0004215047695,0.0005033291753,0.001672674334,0.003726022596,0.009000780213,0.1103449184,0.006180455825,0.02344017347,0.04927543523,0.008610585526,0.001728674098,0.01170673699,0.02107103404,0.00592670034,0.02559388782,0.01631353268,0.0739717532,0.04335064445,0.07578860325,0.03617563891,0.001853089066,0.002895015538,0.00324219459,0.01235036448,0.004345897768,0.05801036131,0.01584249465,0.001745113191,0.001709769793,0.002092938402,0.02001493013,0.005952385086,0.005970575803,0.006575858142,0.006442254789,0.001656930874,0.0005832919003,0.00177838784,0.0007040173792,0.01892167229,0.00280036028,0.003874766732,0.001895351081,0.01411403307,0.002837670176,0.001889242324,0.01409546054,0.01120454529,0.007718073795,0.005616619526,0.001768508415,0.0009377901354,0.001066050029,0.002980548964,0.01399563489,0.00101541207,0.003504042447,0.0005282073128,0.01111748326,0.0175647651,0.001352719656,0.002097831002,0.000321841814,0.001199221333,0.02448555011,0.001631138599,0.02385162994,0.06556094421,0.0212332927,0.02743044764,0.009155569983,0.008817175767,0.01693770363,0.02641524035,0.09393595971,0.2846633965,0.09376368843,0.1845614835,0.2775884735,0.247505698,0.1685137822,0.3197552439,0.3370376684,0.4429210196,0.4431789343,0.5195614027,0.5740807167,0.3560442501,0.2798616352,0.2606818024,0.4650888239,0.3777548097,0.2800166887,0.389341096,0.2968527622,0.5715123981,0.4152611067,0.3094775298,0.2913561253,0.2614001843,0.3432998839,0.283255458,0.2685712188,0.4270029799,0.3752963401,0.2808032182,0.3649924017,0.2699137052,0.2579026311,0.4014826859,0.1901642175,0.1587144358,0.1893135763,0.1918273877,0.3704453612,0.2323267354,0.5893029691,0.2715434182,0.1195263116,0.4280832033,0.3412295137,0.3776812693,0.1802312098,0.2165780154,0.197515814,0.07069557237,0.08575545983,0.08573786383,0.4491163536,0.330397239,0.4162701146,0.2322415137,0.1531236468,0.4593794025,0.2414150193,0.199899194,0.2365821462,0.6942060139,0.2248545918,0.1761187638,0.4399615811,0.4948268616,0.454309829,0.2367880121,0.5846155724,0.1776395001,0.4296654523,0.6751825277,0.2061282676,0.2759817028,0.3340997006,0.5000003655,0.5504622494,0.4681699321,0.5000002447,1,NaN,NaN,NaN],
	"pwr": [NaN,6.745665795e-07,1.446396438e-06,5.208129834e-06,2.90751771e-06,9.503695744e-06,2.209387337e-05,3.671630855e-06,9.734639724e-06,1.075650081e-05,9.868864782e-06,1.086022675e-05,1.512390086e-05,1.061992051e-05,1.555816894e-05,1.482360188e-05,7.600888039e-06,1.556172549e-05,1.101322137e-05,1.545927183e-05,4.613477708e-05,1.533945451e-05,1.025924871e-05,1.080749818e-05,1.246404905e-05,1.311315707e-05,1.382493693e-05,7.538082182e-06,9.294818246e-06,1.239288008e-05,2.014264965e-05,1.285089432e-05,1.960327202e-05,8.901834047e-06,1.139692593e-05,1.526161994e-05,1.185405039e-05,1.825388667e-05,1.048479819e-05,1.284179237e-05,1.808312198e-05,2.29664988e-05,2.123328224e-05,7.835760982e-06,1.448427233e-05,8.548391174e-06,2.410475946e-05,1.90842672e-05,1.446507325e-05,1.114359333e-05,1.316602357e-05,1.821281313e-05,0.0001168990666,0.0008097224722,0.000385700962,6.001554975e-05,0.0002599468869,0.0004281052407,0.0001479045243,0.0001142146071,0.0007224434517,0.0001854435374,0.006548479278,0.04048892878,0.07394648985,0.03917548467,0.024845271,0.009703619616,0.01522656126,0.008591172138,0.001778111961,0.01327238512,0.0324508393,0.01437421417,0.002327909692,0.002114425614,0.003190354833,0.002140722591,0.004266540572,0.0008490299267,0.002556115035,0.000834770573,0.0003543775947,0.000416535002,0.0002841169548,0.0005024564836,0.0005637319438,0.0007470556355,0.001326354584,0.001959015537,0.001948104539,0.006952135543,0.01060017296,0.01586290861,0.01544759699,0.01570768151,0.01664895961,0.01959444526,0.0215811106,0.02015855699,0.0190446946,0.01810036279,0.01459549899,0.01363886176,0.01163655391,0.01237035839,0.01357910213,0.0143667191,0.01358612926,0.01239584088,0.0112994508,0.01102243265,0.00830207097,0.004797816263,0.003259555007,0.004436490393,0.0087809504,0.008827683151,0.006081078658,0.003238622442,0.003180938734,0.01051509913,0.008201333339,0.01092120631,0.01289887356,0.01263148288,0.005410570185,0.02299563016,0.01724179546,0.007335855948,0.004043216081,0.01106732738,0.01048355485,0.01087662476,0.01112859441,0.007719081142,0.005859773268,0.01612765891,0.007307483087,0.004406796424,0.01068639665,0.006226407479,0.01161357085,0.008277701958,0.01676803288,0.01375581329,0.01191037222,0.004667960079,0.01278711608,0.01117821393,0.01561912132,0.004810197878,0.007824137081,0.005324539395,0.01107537057,0.02436058081,0.009993401852,0.01296218012,0.009023334384,0.01327425824,0.0204573568,0.02219569143,0.02853614109,0.04046996062,0.02831438983,0.01489527421,0.004886455218,0.005222698599,0.03315772521,0.005322323533,0.007107657496,0.01021109863,0.01482156632,0.01610983148,0.007663652958,0.005699909041,0.031207791,0.1067761032,0.1091261154,0.02367561846,0.108776052,0.1004607424,0.1428448815,0.03290945937,0.03215636012,0.01193882866,0.08560121538,0.1011639051,0.06470337251,0.03861097,0.01906080127,0.05005667363,0.07671545452,0.06563435455,0.07448518268,0.07122499898,0.05277960756,0.02942648163,0.03704854677,0.0712832774,0.05588361845,0.03444595736,0.03709783637,0.02497867179,0.02815117914,0.0782539763,0.1025177724,0.06141391988,0.05724613104,0.04504263182,0.01117517851,0.007057680174,0.009507376783,0.04120506389,0.02091873125,0.002505461699,0.002286759597,0.0006812904324,0.000727702357,0.0009432522253,0.0002495321608,0.000355460009,0.000390208902,0.0006826519474,0.0004992557413,0.000210957219,0.0001661934116,0.0001235059328,0.0001621189763,0.0001206413267,3.898456196e-05,5.848758697e-05,2.124740352e-05,4.137975073e-05,4.627952876e-06,3.247491428e-05,0.0002284013603,0.0002094245489,0.0003511041874,0.0001064417183,0.001762991369,0.0009361900443,0.02156647264,0.05981490457,0.07566593517,0.06820411575,0.0488006939,0.03451141076,0.01882497887,0.006332098362,0.001187385724,0.002138052853,0.004662407864,0.0018963048,0.001242795881,0.001737182109,0.0006389054491,0.005636071859,0.03881100555,0.1488549187,0.06860958769,0.08118913495,0.08283618144,0.03464456087,0.02129731145,0.009501591141,0.006262425349,0.007977872327,0.02048791124,0.01344178712,0.01453077997,0.00064757757,0.01119392918,0.003149223938,0.01463163109,0.03383823078,0.02735932111,0.04162208932,0.05160739779,0.08238801662,0.1261587837,0.08449901019,0.04573631299,0.03379638077,0.0373415006,0.01725368607,0.02755366138,0.009291005587,0.02276215393,0.02207293456,0.02153095426,0.05916933961,0.02016978278,0.03376484419,0.02313477915,0.01481985719,0.02864614174,0.01612890956,0.01784252591,0.01727089403,0.01637315843,0.03814615036,0.04040858724,0.03233220395,0.0255928696,0.03420460343,0.04350924404,0.03639145864,0.02359870499,0.01721635441,0.01662295082,0.02038126875,0.0255481502,0.03302048159,0.0298887257,0.01580172153,0.01174839822,0.01648249357,0.0188029334,0.01516838755,0.008538446892,0.003042988545,0.005584261637,0.007021331312,0.00632142995,0.003908675618,0.002057024239,0.002805541663,0.004471566743,0.006594611128,0.004319266001,0.002309073098,0.001952960858,0.004309061901,0.007958515232,0.003973659073,0.01208578289,0.005046099856,0.002752939456,0.002346678008,0.002081188159,0.002127586397,0.003185122857,0.003334748212,0.002852857991,0.003352515765,0.001324988443,0.0007136598678,0.0002437575762,0.001019709827,0.0006606899881,0.0006330083322,0.001273058528,0.0005685359996,0.0002434112307,0.0003605423699,0.000784966147,0.0007169268055,0.0005898589269,0.000901772598,0.000683126289,0.0007840491029,0.001716461479,0.001950396636,0.001730578295,0.0007545167027,0.0007266698892,0.00119113154,0.001605080855,0.0002356337113,0.0002672665082,0.0003468774168,0.0004277589588,0.0009434476717,0.0009070336637,0.001147042434,0.001943180175,0.004721914138,0.02285292051,0.02544390183,0.0221043613,0.03808026918,0.02741074011,0.05089222114,0.05215709841,0.03757873777,0.03762811713,0.02920984113,0.03863820075,0.04115418406,0.03214039749,0.02128991741,0.01003062395,0.00244475254,0.002710480757,0.003432799928,0.04170356647,0.0737986252,0.04706947063,0.04074740382,0.05275245552,0.04508351734,0.04224139774,0.02958000322,0.02667285426,0.01348231827,0.004890819174,0.02014973712,0.0338505353,0.05964417588,0.1219148607,0.06645124268,0.008879241053,0.04027249424,0.02231725639,0.06566620278,0.1346940697,0.03528741065,0.1227969846,0.01072399767,0.0366171972,0.01062496835,0.02074474906,0.01469128493,0.01204045273,0.01462913982,0.05591292484,0.00282025289,0.03467617122,0.02845602757,0.02145982045,0.009715945551,0.008251630587,0.01497001066,0.0114943469,0.009359312968,0.01146087187,0.01418382301,0.009226355434,0.005674871762,0.005403481538,0.006177739538,0.005749879465,0.01412764559,0.03710423917,0.04864933767,0.04206170195,0.02628750735,0.01254388472,0.00762425782,0.01266973756,0.01235716507,0.008621660549,0.008519762401,0.01675005519,0.02425863995,0.02270909875,0.01356627797,0.007859840958,0.01072481488,0.01477684381,0.02402678568,0.01543389992,0.009977287475,0.01213529985,0.0216070295,0.02989871946,0.01992676827,0.01407863134,0.01362784356,0.01834514874,0.02555727442,0.02601234707,0.01840829429,0.01259686445,0.009531633113,0.007461198098,0.007543157722,0.004052582528,0.001445760774,0.001853925204,0.000793483116,0.0007390590269,0.002437594063,0.003437669397,0.002888514771,0.0009256659346,0.001034271176,0.0005807355485,0.0001541980425,0.0002224675558,0.0001836154486,0.0005783288654,0.0005960998941,0.0003045783366,0.0002605724166,0.0001157885608,0.0001631260161,9.458787225e-05,0.0001200194821,0.0001077898305,0.0001912942995,9.380239913e-05,8.272893036e-05,0.0132967454,0.02346974607,0.08298645276,0.04094571177,0.06312459039,0.08228788155,0.07225497328,0.03259941977,0.02264697407,0.003065174052,0.01165089273,0.01620775436,0.006995775568,0.02947864369,0.05623239333,0.02960284455,0.009637091514,0.0364242256,0.004215292655,0.007733532072,0.02717565539,0.04966157188,0.02103382491,0.09967290363,0.147494821,0.2287650559,0.1105148858,0.07051657055,0.01647306565,0.01625458873,0.04752332653,0.07942446397,0.07838946825,0.04460462431,0.009757693526,0.01609244778,0.02036222785,0.03631879288,0.1793252907,0.4447562404,0.3756283284,0.2870401578,0.3699245897,0.1081485931,0.03334302293,0.0197579086,0.04026100433,0.01938643428,0.04248701395,0.05971786694,0.01958000342,0.00515163577,0.01045019726,0.03897564709,0.056875754,0.05888832582,0.06988310651,0.04525897894,0.01366006582,0.02472743445,0.01497166936,0.01446617825,0.005992372144,0.001926895347,0.01008726053,0.01730129293,0.03554234547,0.03243837352,0.006503912999,0.02155500601,0.01449449198,0.002613536415,0.003688513292,0.006334389981,0.00182497083,0.003019366106,0.0006663614588,0.0004981228205,0.0002613213939,8.320559577e-05,9.177050029e-05,7.596524274e-05,5.181187936e-05,7.275624058e-05,6.351835841e-05,8.778822344e-05,5.934365465e-05,3.672193516e-05,3.998848598e-05,2.03152294e-05,3.214524952e-05,2.769723782e-05,3.260203512e-05,2.374741369e-05,3.666205915e-05,3.702259804e-05,2.240916588e-05,1.626125505e-05,9.364216711e-06,1.602497402e-05,6.590116798e-06,2.304542172e-06,2.981528647e-06,2.84269236e-06,1.519721109e-06,1.057140734e-06,5.661072879e-07,6.271625374e-07,1.649915942e-07,3.368948965e-07,1.607887325e-07,2.08789069e-07,1.939266975e-07,6.846696311e-08,9.765574765e-08,1.239794913e-07,2.524478475e-08,6.22953617e-08,2.253690637e-08,3.074814526e-08,8.567355487e-09,2.723103748e-08,1.798859473e-08,6.971839488e-09,7.854130587e-09,3.956178543e-09,1.93190371e-08,1.001432305e-08,9.987049253e-09,2.36391455e-08,1.271393837e-08,6.691035806e-09,8.724250451e-09,1.919460181e-09,1.254158873e-09,2.04820264e-09,8.124696757e-10,1.470138118e-09,5.360087735e-10,1.343682521e-09,2.974585016e-10,6.098251821e-10,4.190951586e-10,1.103607406e-09,3.381336478e-10,2.508786434e-10,2.005185169e-10,1.199902805e-09,7.750770426e-10,4.451241939e-10,2.777524039e-10,3.389335846e-10,4.393074251e-10,2.187984397e-10,6.77908651e-11,6.156457716e-11,1.571671736e-10,1.154986657e-10,2.268723792e-10,0,NaN,NaN,NaN],
	"sr": 16000,
	"range": [1,213376],
	"minf0": 63.1883,
	"maxf0": 706.3069,
	"thresh": 0.1,
	"relflag": 1,
	"hop": 320,
	"bufsize": 10000,
	"wsize": 640,
	"lpf": 4000,
	"shift": 0,
	"plotthreshold": 0.2
}
