{
    "f0": [
        43.687711905429325,
        44.366713103085139,
        47.269358183272587,
        46.919599634989964,
        46.302653172838049,
        46.366835685442538,
        46.51548183586435,
        45.914198644209407,
        46.058397238539648,
        45.804248653147553,
        48.560247750300171,
        50.230448890999725,
        50.094472913211746,
        50.534955692197457,
        50.138507119571301,
        50.245291119269751,
        49.238893638818311,
        50.159844924914822,
        50.426477092270744,
        49.57572792423511,
        48.125347529437533,
        46.542259784105738,
        42.857242608546109,
        43.440196073070055,
        43.740025442874696,
        43.277086502469608,
        44.310642639960655,
        46.294719539389035,
        47.626770574910232,
        47.43864709782234,
        47.333358553148273,
        48.193538301686175,
        47.885861764282495,
        48.476955562709406,
        48.559162710226367,
        48.536484704831395,
        48.653077417181422,
        48.589996546813737,
        48.24316957047813,
        48.546255282393702,
        48.469087653458857,
        48.424901525261774,
        48.441789927242112,
        48.444917617968883,
        48.673942614335125,
        48.614865516773705,
        48.232102632886821,
        48.349713311906527,
        48.220655823547347,
        48.26289961323485,
        48.10235274088005,
        0.0,
        0.0,
        54.912197193703264,
        53.850194776145116,
        42.295532832825792,
        54.385035894096305,
        54.251765497576095,
        53.336587634051995,
        53.466547504707279,
        53.667525467907566,
        53.830654011085514,
        54.182140372665494,
        54.259827614820338,
        54.246544921849875,
        54.231240151257865,
        54.216928743996064,
        54.12563423582327,
        54.072586619787913,
        54.019378855936658,
        54.138269159910173,
        53.555650348891156,
        53.611576782780318,
        53.698402369199542,
        53.642732857883303,
        53.822383720113159,
        53.90373340876711,
        53.879786064967185,
        54.042044321517466,
        54.124291706903108,
        53.357255427865162,
        53.622482087739684,
        53.522116173572343,
        53.675340371733299,
        52.906909917291799,
        52.975653708184126,
        52.883478141448009,
        52.918204257839385,
        53.097326531743214,
        52.853513260280522,
        52.946368531293984,
        53.038728524913381,
        53.473432130262623,
        52.843058979388658,
        52.918885218249002,
        52.978698536203609,
        52.872124559367421,
        53.090451735408436,
        54.37707528975335,
        54.572348589815803,
        54.380285640953915,
        53.549160366794489,
        53.356781178171737,
        53.333142076713727,
        53.050119718955145,
        53.237555692182049,
        53.376835752185301,
        53.266366106530242,
        53.633793256639002,
        53.958946197967833,
        53.945360422284125,
        54.028844359726357,
        54.155136699631356,
        54.259080694597131,
        54.362400021196912,
        54.291114632092992,
        54.090177372987945,
        53.952442496489795,
        54.245458084034411,
        54.171234229023582,
        54.471098165910263,
        54.137832819599055,
        54.24845797814676,
        53.755249058584987,
        53.669606887520743,
        54.217434900890822,
        53.916234113326553,
        54.106177924454371,
        54.761974872030088,
        54.010972771534455,
        54.267954903509946,
        54.341613535957713,
        0.0,
        0.0,
        0.0,
        0.0,
        48.662016518771985,
        49.173743695111355,
        48.817916466846725,
        48.643919478096535,
        48.986746849219287,
        48.64934899623573,
        48.575647139931775,
        48.709202434843249,
        48.651268751510045,
        48.593140548895171,
        48.534816516353175,
        49.155301240762959,
        49.145777835144585,
        49.026732154380809,
        48.788095906876158,
        48.778711803689866,
        48.825625446988866,
        48.972571920328583,
        48.854418463464768,
        48.735451184584775,
        48.787922157013213,
        48.686759044526482,
        48.731767613135474,
        48.776657573888258,
        48.821435224719721,
        48.692095672385918,
        48.756354600821858,
        48.820376024713475,
        48.775806075741102,
        48.783363951293715,
        48.859209750753585,
        48.726768586191476,
        48.783568609995029,
        48.840184653009146,
        48.896606724725494,
        48.778850852384146,
        48.832643853906831,
        48.886268341030927,
        48.76573537977616,
        48.994300935418586,
        49.125324391437061,
        49.128359404280275,
        48.845245318975415,
        49.187021407397282,
        48.717754306234951,
        48.897906677765846,
        48.757578226645606,
        48.960148718709114,
        49.053176955092553,
        49.541939962250837,
        49.298344604847031,
        48.77158846089317,
        49.052162102824383,
        49.043045691346514,
        48.964803942290175,
        49.432686515845496,
        50.021403000039257,
        49.464461637566231,
        48.889005983323528,
        49.138438896603674,
        42.22808377554535,
        41.784029819854254,
        41.681725184147851,
        42.112790190972234,
        42.185952201725762,
        43.027479330445985,
        40.692086253681786,
        43.280874185336664,
        43.396044611129668,
        42.622449593420114,
        41.640333287358644,
        36.886676990610702,
        48.693779798628015,
        48.680863593669308,
        48.667945639937138,
        48.827279222874274,
        48.424781299432539,
        48.445315149993029,
        48.380683249039478,
        48.239331967543009,
        47.961415477317161,
        47.920169420800406,
        47.93062046962465,
        47.936732343960685,
        48.11726820302426,
        48.035848885011113,
        48.03068098180286,
        47.813226964484727,
        48.038573156008383,
        48.085985777736227,
        48.050533665609258,
        48.015010789297349,
        47.629661249379168,
        47.638800247365836,
        44.82819331156719,
        45.660330055699333,
        45.082626791961893,
        46.370305028150014,
        58.284525801462081,
        58.302764553065607,
        58.493244298665239,
        58.422672540227083,
        58.351810761764597,
        58.452921284905784,
        58.58583156789642,
        58.701665256311031,
        58.650714663215958,
        58.75125084401293,
        58.532269148015033,
        58.633738260856184,
        58.611294356431763,
        58.420375141665275,
        58.82443574912952,
        58.29033671271953,
        58.663315331525588,
        58.540072802463392,
        58.556128327744666,
        58.572170054787279,
        58.414202703320946,
        58.504329772588221,
        58.593988997768193,
        58.509191401069515,
        58.55194508126965,
        58.551761764163821,
        56.377196940486115,
        56.652804941511143,
        56.81547195542619,
        56.976622400106251,
        56.962296212415666,
        56.947958159798745,
        56.933608143591343,
        57.091509586022426,
        56.473912254981343,
        56.345197604861269,
        55.785624089079299,
        56.10994780917224,
        56.427429938407542,
        56.032899246690988,
        55.629168788107123,
        55.388059948409001,
        55.568135526098111,
        55.7049633389082,
        55.154542924024909,
        55.271442988570726,
        55.540182976223036,
        55.202509787505683,
        55.082881616652074,
        55.36135007362963,
        55.402815653530148,
        55.732851549338605,
        55.565901166880174,
        55.910366180577256,
        55.58037194332438,
        55.675718411956652,
        56.060840074641234,
        55.946406154816572,
        55.726218807655812,
        55.264568687494602,
        54.385988350848329,
        53.110665118560874,
        53.181368455768791,
        55.603987113686131,
        55.124355153300954,
        55.393059353245505,
        55.501072435972006,
        55.608413234345193,
        52.773496000878708,
        53.061410061506862,
        53.256322276539194,
        53.447599157827042,
        53.463518077594244,
        53.566200007611336,
        53.625193498573054,
        53.355715598655308,
        53.46118631147521,
        53.438713153909241,
        53.416210689213393,
        53.473859012336113,
        53.618304683656639,
        53.890733501875161,
        54.095465224440289,
        54.067994535336624,
        54.116647063534842,
        54.095709430561726,
        54.002526954177185,
        54.288011216060355,
        54.149726954677597,
        53.620085543663407,
        53.78792888946279,
        53.998406011009536,
        54.010518995217524,
        54.026541913614651,
        53.981204846674771,
        53.935748834432886,
        53.890171649863078,
        54.000021116137432,
        53.947846963468976,
        53.946249982141921,
        54.00464988127348,
        54.062853348298773,
        54.199066821381912,
        54.228550171161601,
        54.136812854432961,
        54.009063314243221,
        53.898265982196321,
        54.063311535843901,
        54.226802646810235,
        54.388758661529295,
        54.021897595697446,
        53.844353199850161,
        53.931131673689876,
        54.104730264965603,
        54.05947260490079,
        53.684931860306875,
        53.297155824345744,
        54.178994759455577,
        53.596160366712041,
        54.027663883973361,
        36.433147979769544,
        35.402739595886999,
        38.260671975674455,
        37.965462429276499,
        36.660774527457001,
        37.267741848742716,
        36.906145443965407,
        38.856534195080769,
        37.242310997108376,
        37.979861597848078,
        39.563058964028251,
        41.3565425430114,
        43.470611198325564,
        41.459969575382729,
        42.342075506861569,
        38.573475083868395,
        39.887635242565345,
        41.520085928893856,
        37.984900579352384,
        39.015010033478369,
        40.8603349490404,
        41.635339134768913,
        42.377132609593367,
        43.069555435657875,
        41.637733663929794,
        41.411358451987908,
        41.688712297032481,
        0.0,
        0.0,
        0.0,
        0.0,
        0.0,
        0.0,
        0.0,
        0.0,
        0.0,
        0.0,
        0.0,
        0.0,
        0.0,
        0.0,
        0.0,
        0.0,
        0.0,
        0.0,
        0.0,
        0.0,
        0.0,
        0.0,
        0.0,
        0.0,
        0.0,
        0.0,
        0.0,
        0.0,
        0.0,
        0.0,
        0.0,
        0.0,
        0.0,
        0.0,
        0.0,
        0.0,
        0.0,
        0.0,
        0.0,
        0.0,
        0.0,
        0.0,
        0.0,
        0.0,
        0.0,
        0.0,
        0.0,
        0.0
    ],
    "time": [
        0.02,
        0.040000000000000001,
        0.059999999999999998,
        0.080000000000000002,
        0.10000000000000001,
        0.12,
        0.14000000000000001,
        0.16,
        0.17999999999999999,
        0.20000000000000001,
        0.22,
        0.23999999999999999,
        0.26000000000000001,
        0.28000000000000003,
        0.29999999999999999,
        0.32000000000000001,
        0.34000000000000002,
        0.35999999999999999,
        0.38,
        0.40000000000000002,
        0.41999999999999998,
        0.44,
        0.46000000000000002,
        0.47999999999999998,
        0.5,
        0.52000000000000002,
        0.54000000000000004,
        0.56000000000000005,
        0.57999999999999996,
        0.59999999999999998,
        0.62,
        0.64000000000000001,
        0.66000000000000003,
        0.68000000000000005,
        0.69999999999999996,
        0.71999999999999997,
        0.73999999999999999,
        0.76000000000000001,
        0.78000000000000003,
        0.80000000000000004,
        0.81999999999999995,
        0.83999999999999997,
        0.85999999999999999,
        0.88,
        0.90000000000000002,
        0.92000000000000004,
        0.93999999999999995,
        0.95999999999999996,
        0.97999999999999998,
        1.0,
        1.02,
        1.04,
        1.0600000000000001,
        1.0800000000000001,
        1.1000000000000001,
        1.1200000000000001,
        1.1399999999999999,
        1.1599999999999999,
        1.1799999999999999,
        1.2,
        1.22,
        1.24,
        1.26,
        1.28,
        1.3,
        1.3200000000000001,
        1.3400000000000001,
        1.3600000000000001,
        1.3799999999999999,
        1.3999999999999999,
        1.4199999999999999,
        1.4399999999999999,
        1.46,
        1.48,
        1.5,
        1.52,
        1.54,
        1.5600000000000001,
        1.5800000000000001,
        1.6000000000000001,
        1.6200000000000001,
        1.6399999999999999,
        1.6599999999999999,
        1.6799999999999999,
        1.7,
        1.72,
        1.74,
        1.76,
        1.78,
        1.8,
        1.8200000000000001,
        1.8400000000000001,
        1.8600000000000001,
        1.8799999999999999,
        1.8999999999999999,
        1.9199999999999999,
        1.9399999999999999,
        1.96,
        1.98,
        2.0,
        2.02,
        2.04,
        2.0600000000000001,
        2.0800000000000001,
        2.1000000000000001,
        2.1200000000000001,
        2.1400000000000001,
        2.1600000000000001,
        2.1800000000000002,
        2.2000000000000002,
        2.2200000000000002,
        2.2400000000000002,
        2.2599999999999998,
        2.2799999999999998,
        2.2999999999999998,
        2.3199999999999998,
        2.3399999999999999,
        2.3599999999999999,
        2.3799999999999999,
        2.3999999999999999,
        2.4199999999999999,
        2.4399999999999999,
        2.46,
        2.48,
        2.5,
        2.52,
        2.54,
        2.5600000000000001,
        2.5800000000000001,
        2.6000000000000001,
        2.6200000000000001,
        2.6400000000000001,
        2.6600000000000001,
        2.6800000000000002,
        2.7000000000000002,
        2.7200000000000002,
        2.7400000000000002,
        2.7599999999999998,
        2.7799999999999998,
        2.7999999999999998,
        2.8199999999999998,
        2.8399999999999999,
        2.8599999999999999,
        2.8799999999999999,
        2.8999999999999999,
        2.9199999999999999,
        2.9399999999999999,
        2.96,
        2.98,
        3.0,
        3.02,
        3.04,
        3.0600000000000001,
        3.0800000000000001,
        3.1000000000000001,
        3.1200000000000001,
        3.1400000000000001,
        3.1600000000000001,
        3.1800000000000002,
        3.2000000000000002,
        3.2200000000000002,
        3.2400000000000002,
        3.2599999999999998,
        3.2799999999999998,
        3.2999999999999998,
        3.3199999999999998,
        3.3399999999999999,
        3.3599999999999999,
        3.3799999999999999,
        3.3999999999999999,
        3.4199999999999999,
        3.4399999999999999,
        3.46,
        3.48,
        3.5,
        3.52,
        3.54,
        3.5600000000000001,
        3.5800000000000001,
        3.6000000000000001,
        3.6200000000000001,
        3.6400000000000001,
        3.6600000000000001,
        3.6800000000000002,
        3.7000000000000002,
        3.7200000000000002,
        3.7400000000000002,
        3.7599999999999998,
        3.7799999999999998,
        3.7999999999999998,
        3.8199999999999998,
        3.8399999999999999,
        3.8599999999999999,
        3.8799999999999999,
        3.8999999999999999,
        3.9199999999999999,
        3.9399999999999999,
        3.96,
        3.98,
        4.0,
        4.0199999999999996,
        4.04,
        4.0599999999999996,
        4.0800000000000001,
        4.0999999999999996,
        4.1200000000000001,
        4.1399999999999997,
        4.1600000000000001,
        4.1799999999999997,
        4.2000000000000002,
        4.2199999999999998,
        4.2400000000000002,
        4.2599999999999998,
        4.2800000000000002,
        4.2999999999999998,
        4.3200000000000003,
        4.3399999999999999,
        4.3600000000000003,
        4.3799999999999999,
        4.4000000000000004,
        4.4199999999999999,
        4.4400000000000004,
        4.46,
        4.4800000000000004,
        4.5,
        4.5199999999999996,
        4.54,
        4.5599999999999996,
        4.5800000000000001,
        4.5999999999999996,
        4.6200000000000001,
        4.6399999999999997,
        4.6600000000000001,
        4.6799999999999997,
        4.7000000000000002,
        4.7199999999999998,
        4.7400000000000002,
        4.7599999999999998,
        4.7800000000000002,
        4.7999999999999998,
        4.8200000000000003,
        4.8399999999999999,
        4.8600000000000003,
        4.8799999999999999,
        4.9000000000000004,
        4.9199999999999999,
        4.9400000000000004,
        4.96,
        4.9800000000000004,
        5.0,
        5.0199999999999996,
        5.04,
        5.0599999999999996,
        5.0800000000000001,
        5.0999999999999996,
        5.1200000000000001,
        5.1399999999999997,
        5.1600000000000001,
        5.1799999999999997,
        5.2000000000000002,
        5.2199999999999998,
        5.2400000000000002,
        5.2599999999999998,
        5.2800000000000002,
        5.2999999999999998,
        5.3200000000000003,
        5.3399999999999999,
        5.3600000000000003,
        5.3799999999999999,
        5.4000000000000004,
        5.4199999999999999,
        5.4400000000000004,
        5.46,
        5.4800000000000004,
        5.5,
        5.5199999999999996,
        5.54,
        5.5599999999999996,
        5.5800000000000001,
        5.5999999999999996,
        5.6200000000000001,
        5.6399999999999997,
        5.6600000000000001,
        5.6799999999999997,
        5.7000000000000002,
        5.7199999999999998,
        5.7400000000000002,
        5.7599999999999998,
        5.7800000000000002,
        5.7999999999999998,
        5.8200000000000003,
        5.8399999999999999,
        5.8600000000000003,
        5.8799999999999999,
        5.9000000000000004,
        5.9199999999999999,
        5.9400000000000004,
        5.96,
        5.9800000000000004,
        6.0,
        6.0199999999999996,
        6.04,
        6.0599999999999996,
        6.0800000000000001,
        6.0999999999999996,
        6.1200000000000001,
        6.1399999999999997,
        6.1600000000000001,
        6.1799999999999997,
        6.2000000000000002,
        6.2199999999999998,
        6.2400000000000002,
        6.2599999999999998,
        6.2800000000000002,
        6.2999999999999998,
        6.3200000000000003,
        6.3399999999999999,
        6.3600000000000003,
        6.3799999999999999,
        6.4000000000000004,
        6.4199999999999999,
        6.4400000000000004,
        6.46,
        6.4800000000000004,
        6.5,
        6.5199999999999996,
        6.54,
        6.5599999999999996,
        6.5800000000000001,
        6.5999999999999996,
        6.6200000000000001,
        6.6399999999999997,
        6.6600000000000001,
        6.6799999999999997,
        6.7000000000000002,
        6.7199999999999998,
        6.7400000000000002,
        6.7599999999999998,
        6.7800000000000002,
        6.7999999999999998,
        6.8200000000000003,
        6.8399999999999999,
        6.8600000000000003,
        6.8799999999999999,
        6.9000000000000004,
        6.9199999999999999,
        6.9400000000000004,
        6.96,
        6.9800000000000004,
        7.0,
        7.0199999999999996,
        7.04,
        7.0599999999999996,
        7.0800000000000001,
        7.0999999999999996,
        7.1200000000000001,
        7.1399999999999997,
        7.1600000000000001,
        7.1799999999999997,
        7.2000000000000002,
        7.2199999999999998,
        7.2400000000000002,
        7.2599999999999998,
        7.2800000000000002,
        7.2999999999999998,
        7.3200000000000003,
        7.3399999999999999,
        7.3600000000000003,
        7.3799999999999999,
        7.4000000000000004,
        7.4199999999999999,
        7.4400000000000004,
        7.46,
        7.4800000000000004,
        7.5,
        7.5199999999999996,
        7.54,
        7.5599999999999996,
        7.5800000000000001,
        7.5999999999999996,
        7.6200000000000001,
        7.6399999999999997,
        7.6600000000000001,
        7.6799999999999997,
        7.7000000000000002,
        7.7199999999999998,
        7.7400000000000002,
        7.7599999999999998,
        7.7800000000000002,
        7.7999999999999998,
        7.8200000000000003,
        7.8399999999999999,
        7.8600000000000003,
        7.8799999999999999,
        7.9000000000000004,
        7.9199999999999999,
        7.9400000000000004,
        7.96,
        7.9800000000000004,
        8.0,
        8.0199999999999996,
        8.0399999999999991,
        8.0600000000000005,
        8.0800000000000001,
        8.0999999999999996,
        8.1199999999999992,
        8.1400000000000006,
        8.1600000000000001,
        8.1799999999999997,
        8.1999999999999993,
        8.2200000000000006,
        8.2400000000000002,
        8.2599999999999998,
        8.2799999999999994,
        8.3000000000000007,
        8.3200000000000003,
        8.3399999999999999,
        8.3599999999999994,
        8.3800000000000008,
        8.4000000000000004,
        8.4199999999999999,
        8.4399999999999995,
        8.4600000000000009,
        8.4800000000000004,
        8.5,
        8.5199999999999996,
        8.5399999999999991,
        8.5600000000000005,
        8.5800000000000001
    ]
}