{
    "DU": 87,
    "DV": 280,
    "F-measure": 0.7839046199701937,
    "F-measure Chroma": 0.894187779433681,
    "FN": 16,
    "FNC": 4,
    "FNCch": 8,
    "FNI": 12,
    "FNIch": 8,
    "FP": 47,
    "GU": 118,
    "GV": 249,
    "Overall Accuracy": 0.7166212534059946,
    "Overall Chroma Accuracy": 0.8174386920980926,
    "Precision": 0.7492877492877493,
    "Precision Chroma": 0.8547008547008547,
    "Raw Chroma Accuracy": 0.9518072289156626,
    "Raw Pitch Accuracy": 0.7871485943775101,
    "Recall": 0.821875,
    "Recall Chroma": 0.9375,
    "TN": 71,
    "TO": 367,
    "TP": 233,
    "TPC": 192,
    "TPCch": 229,
    "TPI": 41,
    "TPIch": 4,
    "Voiced Chroma Accuracy": 0.9196787148594378,
    "Voiced Pitch Accuracy": 0.7710843373493976,
    "Voicing Accuracy": 0.8283378746594006,
    "Voicing Detection": 0.9357429718875502,
    "Voicing False Alarm": 0.3983050847457627
}