{
    "DU": 100,
    "DV": 396,
    "F-measure": 0.8183807439824946,
    "F-measure Chroma": 0.8796498905908096,
    "FN": 28,
    "FNC": 5,
    "FNCch": 9,
    "FNI": 23,
    "FNIch": 19,
    "FP": 50,
    "GU": 122,
    "GV": 374,
    "Overall Accuracy": 0.7540322580645161,
    "Overall Chroma Accuracy": 0.8104838709677419,
    "Precision": 0.7991452991452992,
    "Precision Chroma": 0.8589743589743589,
    "Raw Chroma Accuracy": 0.9064171122994652,
    "Raw Pitch Accuracy": 0.820855614973262,
    "Recall": 0.8385650224215246,
    "Recall Chroma": 0.9013452914798207,
    "TN": 72,
    "TO": 496,
    "TP": 346,
    "TPC": 302,
    "TPCch": 330,
    "TPI": 44,
    "TPIch": 16,
    "Voiced Chroma Accuracy": 0.8823529411764706,
    "Voiced Pitch Accuracy": 0.8074866310160428,
    "Voicing Accuracy": 0.842741935483871,
    "Voicing Detection": 0.9251336898395722,
    "Voicing False Alarm": 0.4098360655737705
}