{
    "DU": 4,
    "DV": 452,
    "F-measure": 0.6322418136020151,
    "F-measure Chroma": 0.6801007556675063,
    "FN": 1,
    "FNC": 0,
    "FNCch": 0,
    "FNI": 1,
    "FNIch": 1,
    "FP": 117,
    "GU": 120,
    "GV": 336,
    "Overall Accuracy": 0.5504385964912281,
    "Overall Chroma Accuracy": 0.5921052631578947,
    "Precision": 0.5516483516483517,
    "Precision Chroma": 0.5934065934065934,
    "Raw Chroma Accuracy": 0.7946428571428571,
    "Raw Pitch Accuracy": 0.7380952380952381,
    "Recall": 0.7404129793510325,
    "Recall Chroma": 0.7964601769911505,
    "TN": 3,
    "TO": 456,
    "TP": 335,
    "TPC": 248,
    "TPCch": 267,
    "TPI": 87,
    "TPIch": 68,
    "Voiced Chroma Accuracy": 0.7946428571428571,
    "Voiced Pitch Accuracy": 0.7380952380952381,
    "Voicing Accuracy": 0.7412280701754386,
    "Voicing Detection": 0.9970238095238095,
    "Voicing False Alarm": 0.975
}