{
    "DU": 55,
    "DV": 320,
    "F-measure": 0.6994382022471911,
    "F-measure Chroma": 0.8904494382022472,
    "FN": 21,
    "FNC": 4,
    "FNCch": 9,
    "FNI": 17,
    "FNIch": 12,
    "FP": 17,
    "GU": 51,
    "GV": 324,
    "Overall Accuracy": 0.664,
    "Overall Chroma Accuracy": 0.8453333333333334,
    "Precision": 0.7033898305084746,
    "Precision Chroma": 0.8954802259887006,
    "Raw Chroma Accuracy": 0.9012345679012346,
    "Raw Pitch Accuracy": 0.6759259259259259,
    "Recall": 0.6955307262569832,
    "Recall Chroma": 0.8854748603351955,
    "TN": 34,
    "TO": 375,
    "TP": 303,
    "TPC": 215,
    "TPCch": 283,
    "TPI": 88,
    "TPIch": 20,
    "Voiced Chroma Accuracy": 0.8734567901234568,
    "Voiced Pitch Accuracy": 0.6635802469135802,
    "Voicing Accuracy": 0.8986666666666666,
    "Voicing Detection": 0.9351851851851852,
    "Voicing False Alarm": 0.3333333333333333
}