{
    "f0": [
        49.693670556101509,
        38.348160686274646,
        0.0,
        47.107239880014291,
        46.757479975387099,
        35.719107708720991,
        35.759164177107891,
        35.79912389420543,
        36.302915445997954,
        0.0,
        47.219304853514274,
        47.731038598753045,
        48.278376821538252,
        49.287146804784456,
        49.287146804784456,
        49.505046397627112,
        49.778195938526196,
        50.018592434520684,
        49.742443933375185,
        49.662438527236361,
        49.651429810560316,
        49.675995903051117,
        49.700528985255346,
        50.067857971436936,
        49.37250574659403,
        49.332167762989528,
        49.29173360653305,
        49.077211395967495,
        49.627306725280434,
        49.706001180888897,
        49.662277181874543,
        49.66493329780748,
        54.493198266321215,
        54.405543083647174,
        54.55553858874606,
        53.964629119307673,
        54.10212130743016,
        54.074443612201442,
        54.049901318247763,
        54.19599349365032,
        53.760205803293175,
        53.629097811482254,
        53.805607552720176,
        53.739194787848888,
        53.552236403600183,
        53.851071965851126,
        53.900565502823468,
        53.793902323292436,
        53.787576187364252,
        53.730802360196591,
        53.871428439498786,
        52.9161764589009,
        53.102882790230488,
        52.932243598601914,
        52.986757944822429,
        53.041105720945964,
        53.095280461491434,
        53.069128198962844,
        53.240839731762875,
        53.318097913898711,
        53.374110290746046,
        53.440363539895998,
        53.327175228630182,
        53.319730248825074,
        53.259100626384317,
        52.875207421625497,
        52.820856747306671,
        52.597503223858958,
        52.799787613292366,
        52.917958005760511,
        52.901985681437381,
        53.219025633855978,
        53.034256846177698,
        53.028329599772427,
        53.022400422371859,
        53.01646911458279,
        53.076193786454994,
        53.291735962231094,
        53.308920782073216,
        53.441213030068873,
        53.341475743235613,
        53.923997919657182,
        53.949254865726132,
        53.538601757949252,
        53.117976702330814,
        54.331021800552961,
        54.386014891123949,
        54.28009849445678,
        54.499470177066385,
        53.511855433797479,
        53.870153737673256,
        54.298657436325193,
        54.422192706785694,
        54.164429288150757,
        50.172088664739107,
        51.155462370587003,
        51.313490459919286,
        51.150434703378892,
        51.201018377272121,
        51.045710676425266,
        51.123849783438992,
        51.12366426193767,
        51.100371327055015,
        51.088620092416292,
        51.071066216462569,
        50.908884042377338,
        50.959631139750016,
        50.977954534283825,
        51.012386716216085,
        51.078492254716963,
        51.059865454055185,
        51.041218590742751,
        50.88202290013632,
        50.96467370187473,
        50.962951597619828,
        50.961229322045618,
        50.959505201889783,
        51.130049853501603,
        51.189378985123454,
        51.09776268419985,
        51.13497721606592,
        51.172115449281108,
        51.107553548014565,
        51.135169352145283,
        51.13798964232025,
        51.172473553396401,
        51.150092912851171,
        51.132304757552291,
        51.246041410958185,
        51.183218629588829,
        51.186847574856365,
        51.375801534824177,
        51.190364918525376,
        51.22870350949114,
        51.433769239586631,
        51.380204383605744,
        51.152479899562451,
        51.182370051998831,
        51.233033354359925,
        53.090254573666726,
        52.555412052071055,
        46.046516040399538,
        46.227517214474645,
        46.406645432755461,
        46.234184728260281,
        49.971824684304721,
        51.119357593395847,
        51.742051907290886,
        51.596518620506785,
        51.449744939184477,
        51.642756300042933,
        51.57117405209307,
        51.226456074421762,
        51.526218850487254,
        51.306001103256854,
        51.1746338108481,
        51.338951694884557,
        51.50172462877444,
        51.406327528568191,
        51.587120334822146,
        49.863188183936956,
        49.874722842254798,
        49.353612908556848,
        49.25472693489413,
        49.624367219269189,
        50.112013491678951,
        50.202765646581391,
        50.99660339694563,
        51.993998397501741,
        51.936582900279731,
        51.878978046157748,
        51.821180772188981,
        51.589198383880088,
        51.78529546822476,
        51.838485715719926,
        51.846836566633272,
        51.748722496234699,
        52.147970768437787,
        52.299180735243482,
        53.079717899941343,
        53.353440375127775,
        53.273144673157375,
        53.239559593661212,
        53.354600996987756,
        51.929067042735284,
        54.749713443981079,
        54.846182639591447,
        54.942114511956945,
        55.03752187312169,
        55.148024197998282,
        55.533354455984707,
        55.602051529684651,
        55.297355183072256,
        55.632352746459077,
        55.695660727128796,
        55.541673568439862,
        55.638257752338568,
        55.276851711519335,
        55.465438610241932,
        55.63354044870664,
        55.585566327401025,
        55.56405263171451,
        55.355208530562855,
        55.581701326579704,
        55.805266587964283,
        55.498664456278917,
        58.599217413925636,
        59.641701276832222,
        60.082229805571586,
        60.778661637076056,
        60.613586990646233,
        61.184877384005887,
        61.405139884403816,
        61.787738413367435,
        61.731717941061859,
        61.477312536461241,
        62.502992306811009,
        62.481522253371502,
        62.460025540588525,
        62.088749727884291,
        62.231799794461928,
        62.257963704855747,
        61.972294942197578,
        62.136365223982125,
        61.417259039669439,
        62.080741681533937,
        60.330888463367053,
        60.490860821056657,
        60.409529094066897,
        60.450726714009434,
        60.450433558958416,
        60.519004500202804,
        60.55686311793302,
        60.594639191009989,
        60.458341332455213,
        60.701154392737564,
        60.939482363445457,
        60.647812375812293,
        60.924030049435025,
        61.195913507640761,
        61.131348511335872,
        61.088881441271674,
        61.332760491361185,
        61.245017487471699,
        61.224765733343517,
        61.342775904212857,
        61.196495851509326,
        61.305383814059681,
        61.284040091321131,
        61.26667965423345,
        61.249303576395349,
        61.262852113834313,
        61.276391962096696,
        61.298771758983179,
        61.268770401257406,
        61.289671858181876,
        61.299182082235511,
        61.308687023531661,
        61.31818681054316,
        61.2895087823197,
        61.313387977100895,
        61.337234280280342,
        61.330746578216214,
        61.324256444010835,
        61.317763875839958,
        61.314423082817882,
        61.277496770908478,
        61.257328103670005,
        61.286413796481156,
        61.315456286735568,
        61.344438933354077,
        61.327466268277746,
        61.310480689451069,
        61.2934746833605,
        61.377098042286988,
        61.460319357515473,
        61.352281244457046,
        61.306338890666005,
        61.260274355122675,
        61.188456354555861,
        61.300594565927867,
        61.25492788137278,
        61.248747448384393,
        61.247693385025727,
        61.24407404830216,
        61.240455864256973,
        61.236831255787287,
        61.232098187664469,
        61.210731615877393,
        61.164162376416321,
        61.161800250481761,
        61.200375750104598,
        61.177953127423045,
        61.237171522478704,
        61.208385277602972,
        61.207906887684885,
        61.193255967716112,
        61.148535188358011,
        60.944774122271312,
        61.330920479556326,
        61.181482600728557,
        61.18531303190278,
        61.189144530931756,
        61.192975120410175,
        61.196804924258601,
        61.200633881072299,
        61.030465669121483,
        60.781856511031719,
        60.740873379110703,
        60.93706831747491,
        60.657872251473414,
        60.734599559953175,
        60.810988317253191,
        61.398781895303173,
        61.371802446622617,
        61.213635034583326,
        61.292582642097386,
        61.094296515616406,
        61.195757080441133,
        61.366805718570006,
        61.308419270620455,
        61.118279685115276,
        60.992666850025444,
        61.004866563440324,
        60.957982172018347,
        60.978645541640944,
        61.059570003268639,
        61.093401668686951,
        60.80073557732193,
        61.138983461385649,
        60.850469881970795,
        60.922699432948832,
        60.966312746776467,
        60.849948800756479,
        60.775070392668106,
        60.699866653609504,
        60.450343038999662,
        60.457932241591521,
        60.871427072134921,
        60.904190627553454,
        61.123076154834244,
        60.89778592258677,
        60.967596087740013,
        60.993530617052258,
        60.86721538272311,
        60.761316216859349,
        60.470038928532567,
        60.610811256794776,
        60.946171898758287,
        61.005419154723739,
        61.025399928720191,
        61.064880257063507,
        61.015343874821582,
        61.033237770070734,
        0.0,
        0.0,
        0.0,
        0.0,
        0.0,
        0.0,
        0.0,
        0.0,
        0.0,
        0.0,
        0.0,
        0.0,
        0.0,
        0.0,
        0.0,
        0.0,
        0.0,
        0.0,
        0.0,
        0.0,
        0.0,
        0.0,
        0.0,
        0.0,
        0.0,
        0.0,
        0.0,
        0.0,
        0.0,
        0.0,
        0.0,
        0.0,
        0.0,
        0.0,
        0.0,
        0.0,
        0.0,
        0.0,
        0.0,
        0.0,
        0.0,
        0.0,
        0.0,
        0.0,
        0.0
    ],
    "time": [
        0.02,
        0.040000000000000001,
        0.059999999999999998,
        0.080000000000000002,
        0.10000000000000001,
        0.12,
        0.14000000000000001,
        0.16,
        0.17999999999999999,
        0.20000000000000001,
        0.22,
        0.23999999999999999,
        0.26000000000000001,
        0.28000000000000003,
        0.29999999999999999,
        0.32000000000000001,
        0.34000000000000002,
        0.35999999999999999,
        0.38,
        0.40000000000000002,
        0.41999999999999998,
        0.44,
        0.46000000000000002,
        0.47999999999999998,
        0.5,
        0.52000000000000002,
        0.54000000000000004,
        0.56000000000000005,
        0.57999999999999996,
        0.59999999999999998,
        0.62,
        0.64000000000000001,
        0.66000000000000003,
        0.68000000000000005,
        0.69999999999999996,
        0.71999999999999997,
        0.73999999999999999,
        0.76000000000000001,
        0.78000000000000003,
        0.80000000000000004,
        0.81999999999999995,
        0.83999999999999997,
        0.85999999999999999,
        0.88,
        0.90000000000000002,
        0.92000000000000004,
        0.93999999999999995,
        0.95999999999999996,
        0.97999999999999998,
        1.0,
        1.02,
        1.04,
        1.0600000000000001,
        1.0800000000000001,
        1.1000000000000001,
        1.1200000000000001,
        1.1399999999999999,
        1.1599999999999999,
        1.1799999999999999,
        1.2,
        1.22,
        1.24,
        1.26,
        1.28,
        1.3,
        1.3200000000000001,
        1.3400000000000001,
        1.3600000000000001,
        1.3799999999999999,
        1.3999999999999999,
        1.4199999999999999,
        1.4399999999999999,
        1.46,
        1.48,
        1.5,
        1.52,
        1.54,
        1.5600000000000001,
        1.5800000000000001,
        1.6000000000000001,
        1.6200000000000001,
        1.6399999999999999,
        1.6599999999999999,
        1.6799999999999999,
        1.7,
        1.72,
        1.74,
        1.76,
        1.78,
        1.8,
        1.8200000000000001,
        1.8400000000000001,
        1.8600000000000001,
        1.8799999999999999,
        1.8999999999999999,
        1.9199999999999999,
        1.9399999999999999,
        1.96,
        1.98,
        2.0,
        2.02,
        2.04,
        2.0600000000000001,
        2.0800000000000001,
        2.1000000000000001,
        2.1200000000000001,
        2.1400000000000001,
        2.1600000000000001,
        2.1800000000000002,
        2.2000000000000002,
        2.2200000000000002,
        2.2400000000000002,
        2.2599999999999998,
        2.2799999999999998,
        2.2999999999999998,
        2.3199999999999998,
        2.3399999999999999,
        2.3599999999999999,
        2.3799999999999999,
        2.3999999999999999,
        2.4199999999999999,
        2.4399999999999999,
        2.46,
        2.48,
        2.5,
        2.52,
        2.54,
        2.5600000000000001,
        2.5800000000000001,
        2.6000000000000001,
        2.6200000000000001,
        2.6400000000000001,
        2.6600000000000001,
        2.6800000000000002,
        2.7000000000000002,
        2.7200000000000002,
        2.7400000000000002,
        2.7599999999999998,
        2.7799999999999998,
        2.7999999999999998,
        2.8199999999999998,
        2.8399999999999999,
        2.8599999999999999,
        2.8799999999999999,
        2.8999999999999999,
        2.9199999999999999,
        2.9399999999999999,
        2.96,
        2.98,
        3.0,
        3.02,
        3.04,
        3.0600000000000001,
        3.0800000000000001,
        3.1000000000000001,
        3.1200000000000001,
        3.1400000000000001,
        3.1600000000000001,
        3.1800000000000002,
        3.2000000000000002,
        3.2200000000000002,
        3.2400000000000002,
        3.2599999999999998,
        3.2799999999999998,
        3.2999999999999998,
        3.3199999999999998,
        3.3399999999999999,
        3.3599999999999999,
        3.3799999999999999,
        3.3999999999999999,
        3.4199999999999999,
        3.4399999999999999,
        3.46,
        3.48,
        3.5,
        3.52,
        3.54,
        3.5600000000000001,
        3.5800000000000001,
        3.6000000000000001,
        3.6200000000000001,
        3.6400000000000001,
        3.6600000000000001,
        3.6800000000000002,
        3.7000000000000002,
        3.7200000000000002,
        3.7400000000000002,
        3.7599999999999998,
        3.7799999999999998,
        3.7999999999999998,
        3.8199999999999998,
        3.8399999999999999,
        3.8599999999999999,
        3.8799999999999999,
        3.8999999999999999,
        3.9199999999999999,
        3.9399999999999999,
        3.96,
        3.98,
        4.0,
        4.0199999999999996,
        4.04,
        4.0599999999999996,
        4.0800000000000001,
        4.0999999999999996,
        4.1200000000000001,
        4.1399999999999997,
        4.1600000000000001,
        4.1799999999999997,
        4.2000000000000002,
        4.2199999999999998,
        4.2400000000000002,
        4.2599999999999998,
        4.2800000000000002,
        4.2999999999999998,
        4.3200000000000003,
        4.3399999999999999,
        4.3600000000000003,
        4.3799999999999999,
        4.4000000000000004,
        4.4199999999999999,
        4.4400000000000004,
        4.46,
        4.4800000000000004,
        4.5,
        4.5199999999999996,
        4.54,
        4.5599999999999996,
        4.5800000000000001,
        4.5999999999999996,
        4.6200000000000001,
        4.6399999999999997,
        4.6600000000000001,
        4.6799999999999997,
        4.7000000000000002,
        4.7199999999999998,
        4.7400000000000002,
        4.7599999999999998,
        4.7800000000000002,
        4.7999999999999998,
        4.8200000000000003,
        4.8399999999999999,
        4.8600000000000003,
        4.8799999999999999,
        4.9000000000000004,
        4.9199999999999999,
        4.9400000000000004,
        4.96,
        4.9800000000000004,
        5.0,
        5.0199999999999996,
        5.04,
        5.0599999999999996,
        5.0800000000000001,
        5.0999999999999996,
        5.1200000000000001,
        5.1399999999999997,
        5.1600000000000001,
        5.1799999999999997,
        5.2000000000000002,
        5.2199999999999998,
        5.2400000000000002,
        5.2599999999999998,
        5.2800000000000002,
        5.2999999999999998,
        5.3200000000000003,
        5.3399999999999999,
        5.3600000000000003,
        5.3799999999999999,
        5.4000000000000004,
        5.4199999999999999,
        5.4400000000000004,
        5.46,
        5.4800000000000004,
        5.5,
        5.5199999999999996,
        5.54,
        5.5599999999999996,
        5.5800000000000001,
        5.5999999999999996,
        5.6200000000000001,
        5.6399999999999997,
        5.6600000000000001,
        5.6799999999999997,
        5.7000000000000002,
        5.7199999999999998,
        5.7400000000000002,
        5.7599999999999998,
        5.7800000000000002,
        5.7999999999999998,
        5.8200000000000003,
        5.8399999999999999,
        5.8600000000000003,
        5.8799999999999999,
        5.9000000000000004,
        5.9199999999999999,
        5.9400000000000004,
        5.96,
        5.9800000000000004,
        6.0,
        6.0199999999999996,
        6.04,
        6.0599999999999996,
        6.0800000000000001,
        6.0999999999999996,
        6.1200000000000001,
        6.1399999999999997,
        6.1600000000000001,
        6.1799999999999997,
        6.2000000000000002,
        6.2199999999999998,
        6.2400000000000002,
        6.2599999999999998,
        6.2800000000000002,
        6.2999999999999998,
        6.3200000000000003,
        6.3399999999999999,
        6.3600000000000003,
        6.3799999999999999,
        6.4000000000000004,
        6.4199999999999999,
        6.4400000000000004,
        6.46,
        6.4800000000000004,
        6.5,
        6.5199999999999996,
        6.54,
        6.5599999999999996,
        6.5800000000000001,
        6.5999999999999996,
        6.6200000000000001,
        6.6399999999999997,
        6.6600000000000001,
        6.6799999999999997,
        6.7000000000000002,
        6.7199999999999998,
        6.7400000000000002,
        6.7599999999999998,
        6.7800000000000002,
        6.7999999999999998,
        6.8200000000000003,
        6.8399999999999999,
        6.8600000000000003,
        6.8799999999999999,
        6.9000000000000004,
        6.9199999999999999,
        6.9400000000000004,
        6.96,
        6.9800000000000004,
        7.0,
        7.0199999999999996,
        7.04,
        7.0599999999999996,
        7.0800000000000001,
        7.0999999999999996,
        7.1200000000000001,
        7.1399999999999997,
        7.1600000000000001,
        7.1799999999999997,
        7.2000000000000002,
        7.2199999999999998,
        7.2400000000000002,
        7.2599999999999998,
        7.2800000000000002,
        7.2999999999999998,
        7.3200000000000003,
        7.3399999999999999,
        7.3600000000000003,
        7.3799999999999999,
        7.4000000000000004,
        7.4199999999999999,
        7.4400000000000004,
        7.46,
        7.4800000000000004,
        7.5,
        7.5199999999999996,
        7.54,
        7.5599999999999996,
        7.5800000000000001,
        7.5999999999999996,
        7.6200000000000001,
        7.6399999999999997,
        7.6600000000000001,
        7.6799999999999997,
        7.7000000000000002,
        7.7199999999999998,
        7.7400000000000002,
        7.7599999999999998,
        7.7800000000000002,
        7.7999999999999998,
        7.8200000000000003,
        7.8399999999999999,
        7.8600000000000003,
        7.8799999999999999,
        7.9000000000000004,
        7.9199999999999999,
        7.9400000000000004,
        7.96,
        7.9800000000000004
    ]
}