{
    "DU": 17,
    "DV": 303,
    "F-measure": 0.7194492254733219,
    "F-measure Chroma": 0.8950086058519795,
    "FN": 6,
    "FNC": 3,
    "FNCch": 5,
    "FNI": 3,
    "FNIch": 1,
    "FP": 53,
    "GU": 64,
    "GV": 256,
    "Overall Accuracy": 0.653125,
    "Overall Chroma Accuracy": 0.8125,
    "Precision": 0.6656050955414012,
    "Precision Chroma": 0.8280254777070064,
    "Raw Chroma Accuracy": 0.9921875,
    "Raw Pitch Accuracy": 0.78515625,
    "Recall": 0.7827715355805244,
    "Recall Chroma": 0.9737827715355806,
    "TN": 11,
    "TO": 320,
    "TP": 250,
    "TPC": 198,
    "TPCch": 249,
    "TPI": 52,
    "TPIch": 1,
    "Voiced Chroma Accuracy": 0.97265625,
    "Voiced Pitch Accuracy": 0.7734375,
    "Voicing Accuracy": 0.815625,
    "Voicing Detection": 0.9765625,
    "Voicing False Alarm": 0.828125
}