{
	"f0": [NaN,76.93035138,76.93035138,76.93035138,76.93035138,76.93035138,76.93035138,76.93035138,76.93035138,76.93035138,76.93035138,76.93035138,76.93035138,76.93035138,76.93035138,76.93035138,76.93035138,76.93035138,76.93035138,76.93035138,76.93035138,76.93035138,76.93035138,76.93035138,76.93035138,76.93035138,76.93035138,76.93035138,76.93035138,76.93035138,76.93035138,76.93035138,76.93035138,76.93035138,76.93035138,76.93035138,76.93035138,76.93035138,76.93035138,76.93035138,76.93035138,76.93035138,76.93035138,76.93035138,76.93035138,76.93035138,76.93035138,76.93035138,76.93035138,76.93035138,76.93035138,76.93035138,76.93035138,76.93035138,76.93035138,53.0462335,52.6755288,35.34887861,35.34887861,35.34887861,35.34887861,38.16954675,42.91928445,38.2246736,38.21591918,43.028357,42.89031282,43.028357,51.49612094,51.14025097,51.77445079,37.94794218,52.356389,49.6506362,48.78955192,48.29027622,48.08323027,48.09522199,48.33679606,48.35938284,48.40535275,48.52178553,48.67473169,48.75952774,48.97486453,49.11067139,49.2757359,49.35847954,49.41512608,49.23426908,49.09576861,49.1526358,49.44318771,49.35803126,49.22143597,49.17167754,49.10551024,41.15895542,50.0936589,50.07599497,50.07629499,50.07490228,50.03849091,49.99449299,49.98142926,50.00174512,50.04128376,50.04608094,50.03755376,50.03516712,50.03605851,50.06812841,50.08915483,50.02663857,50.03333256,50.06082479,50.05983463,50.14873009,50.10654483,50.14169344,50.22344594,50.21313746,50.31826181,50.10814961,50.16263852,50.60548918,51.33110803,51.37894941,51.95342591,51.1672193,50.78651569,51.16393791,51.67564845,50.75005796,50.86866571,74.78342522,74.79107562,51.74876393,52.06577919,51.93623146,51.82202357,51.75793335,51.83073018,51.96244288,51.98688998,51.9637885,52.01095255,52.03725759,52.05448381,52.07923768,52.00311591,52.02267209,52.08312412,52.03042692,52.02320122,52.0830175,52.06671628,52.09635305,52.14133214,52.07294862,63.67842201,63.67299204,63.8047288,64.09590926,64.53441774,52.44402805,52.4819099,52.69732605,52.65114524,52.35548981,52.57035265,52.76777807,52.61698514,52.46146109,52.67952224,52.78627413,52.90396761,53.09953374,53.00491756,65.04428003,53.00438997,52.80718855,52.74294143,52.80469275,53.02916775,52.9847427,52.87104154,52.8019509,52.77035339,52.74677441,52.69527911,52.69561952,53.18253974,52.59863317,52.46522561,52.33215631,52.1850833,52.17889315,52.16601547,52.21829489,52.26434445,52.2028289,52.20861983,52.33106729,52.84397619,53.29212702,53.4130697,53.794313,54.05625106,54.20689746,54.50834132,54.40710259,54.31161489,54.31544948,54.41315005,54.20482574,54.12225163,54.12931966,54.1982985,54.26840301,54.34555772,54.414124,54.42345275,54.45670763,54.46159238,54.46777746,54.53245465,54.61009345,54.64690287,54.65206414,54.616761,54.55020637,54.44442882,54.34076829,54.22470041,54.01390996,54.22141593,53.97446072,53.56074473,53.30876653,53.28257256,53.48416353,53.55096485,53.05704716,52.42232107,52.6111854,52.55802863,52.22173853,51.89100362,51.55253489,51.44897593,51.24429043,50.94445108,50.58849235,50.00459068,49.52483579,49.60600322,49.52483579,49.34027401,49.49935951,48.76871822,48.59727542,48.86096381,49.21841468,49.06721424,47.62368344,46.76908413,46.74828185,46.60381847,46.61117803,46.64551185,46.63706562,46.63347948,46.64205126,46.7009941,46.80063115,46.9475711,47.14401837,47.45994418,47.41500388,47.42750115,47.46090472,47.41708312,47.43730407,47.53820192,47.62183731,47.66164575,48.29463849,48.77727377,49.20921678,49.14388091,48.59292142,48.59307041,48.42600425,48.12340768,48.0101066,48.18673601,48.87867539,48.21825773,47.89760662,48.40363173,48.4315974,48.31724306,48.63797763,48.60405246,48.76871822,49.06721424,49.21841468,42.81722828,36.01782125,38.03650603,38.31549102,49.86515952,49.15495078,35.34887861,61.83677829,35.34887861,35.34887861,51.17884749,51.11278587,43.29611658,43.3606741,38.38162676,38.46014304,63.01394153,50.20454939,35.66322998,50.26521273,51.41410624,42.64924191,51.31455706,44.42445932,35.48573577,35.34887861,35.34887861,41.76177392,35.34887861,35.34887861,35.34887861,40.13955249,42.49018624,42.50058036,35.92616279,36.56207523,36.68778261,36.86633623,37.04149444,37.79830493,36.66369776,36.74387755,37.32844215,37.19635569,37.44772056,37.58218046,37.11359696,36.59877084,36.0543858,36.15445836,35.34887861,35.34887861,35.34887861,35.34887861,35.34887861,35.34887861,35.34887861,35.34887861,35.34887861,35.34887861,35.34887861,35.34887861,35.34887861,35.34887861,35.34887861,35.34887861,35.34887861,35.34887861,35.34887861,35.34887861,35.34887861,35.34887861,35.34887861,35.34887861,35.34887861,35.34887861,35.34887861,75.83657672,65.69991543,58.54970563,48.76871822,35.34887861,76.93035138,76.93035138,76.93035138,76.93035138,76.93035138,76.93035138,NaN,NaN],
	"ap0": [NaN,1,1,1,1,1,1,1,1,1,1,1,1,1,1,1,1,1,1,1,1,1,1,1,1,1,1,1,1,1,1,1,1,1,1,1,1,1,1,1,1,1,1,1,1,1,1,1,1,1,1,1,1,1,1,0.2983256585,0.5758838946,0.5552248316,0.5847010535,0.5360073032,0.7066549517,0.73611961,0.7239531049,0.5534929326,0.6168087701,0.6665884351,0.6637810745,0.6598856422,0.633489242,0.6755161523,0.7672653084,0.5996909403,0.4598034156,0.2566920532,0.1231569216,0.1201770816,0.2586877262,0.2968524596,0.2575022777,0.1739369675,0.08567819442,0.08318498798,0.06085443748,0.106051059,0.1100056701,0.1358018151,0.2098517854,0.2620220297,0.2524165355,0.2312386777,0.1774874226,0.1989237436,0.3383608759,0.3302284831,0.3162228763,0.3049736362,0.4501751604,0.572698318,0.2114010697,0.09526111465,0.06337176272,0.02851070918,0.01968478615,0.01722089869,0.02053492566,0.02298342029,0.014360896,0.01262765572,0.01726529489,0.01915062974,0.01181552476,0.008737194699,0.006826783111,0.006781476816,0.007718265883,0.009448574963,0.01699372741,0.0243413064,0.04479683607,0.05883839441,0.07765996334,0.1303559423,0.09330006676,0.1091948606,0.1375362003,0.2205103777,0.1887189432,0.1503040569,0.07966235065,0.1404225381,0.05274397896,0.0574545649,0.1186536406,0.4082476973,0.5012602611,0.4502082519,0.770507626,0.60529844,0.2315637845,0.1007028069,0.05095543429,0.02122469304,0.0235443454,0.03514392589,0.05069824099,0.04724152561,0.03568354877,0.03635469872,0.0586789937,0.06950049475,0.076226395,0.08479258698,0.06747443248,0.05926113188,0.0816895627,0.07840655554,0.07242761965,0.08937124234,0.1234180001,0.1543793891,0.1270334388,0.03777915501,0.02100467158,0.0309186324,0.06100399855,0.02132497364,0.04856829643,0.04491951501,0.06537107921,0.06564801025,0.0565654359,0.0420461941,0.0348999208,0.01778173253,0.03878650211,0.01705305654,0.06428649653,0.06318101774,0.0152518334,0.04209953578,0.02486971572,0.03056610829,0.02746276306,0.03252348965,0.02059893618,0.01437575713,0.01234558919,0.0108875598,0.006881042408,0.004994535493,0.007188901555,0.01394102593,0.3234300533,0.09893986797,0.03995564805,0.02772133561,0.02213498332,0.0129253752,0.009001455938,0.009791219059,0.0163905063,0.04167197305,0.04763571127,0.07735769111,0.194274506,0.1019575493,0.07898541937,0.1383724296,0.05604113928,0.04786089603,0.04651131958,0.01527822667,0.01335522815,0.02093221038,0.02766651279,0.02956408429,0.02171308125,0.01066294412,0.005693847617,0.005340455001,0.007076072156,0.005560039033,0.005176540643,0.002632117352,0.001492515821,0.001044218473,0.001719384986,0.001225038321,0.001033243875,0.0009109348837,0.0008442392655,0.00179602008,0.003120404684,0.006426399334,0.02654261299,0.04114976012,0.03708096279,0.05542036441,0.03133379436,0.01626716309,0.03245383455,0.0842956063,0.1547104218,0.1262964466,0.09443119959,0.1388715279,0.1928705585,0.1214088316,0.0899987216,0.1145798366,0.0554213614,0.03281311111,0.03643630241,0.05255180797,0.08902570347,0.1386626374,0.2206653021,0.3213929773,0.1582638603,0.3159512508,0.2968334126,0.1305018378,0.2321144977,0.3621490208,0.305190616,0.2886394153,0.2245050098,0.1086058737,0.04523925275,0.02495074508,0.0153534242,0.006753820478,0.002981504424,0.00503659287,0.009145921138,0.01849735349,0.03533747447,0.05016381722,0.04023754972,0.03619069637,0.05809098136,0.06078047344,0.04521499062,0.05113514808,0.05406771302,0.05665367644,0.1014872202,0.1369582589,0.1094328317,0.07548325624,0.09106162608,0.1779278623,0.1503262823,0.09133808577,0.07133331615,0.1044606436,0.1768602581,0.1453835531,0.1784856892,0.1246222567,0.130032106,0.1297565869,0.1518670345,0.2749966869,0.3714336927,0.3250711892,0.3145734057,0.616708358,0.6984064336,0.6561663758,0.7311936276,0.707026164,0.7014744527,0.8386943761,0.7250052865,0.7188597111,0.6699810085,0.7750900846,0.7318097102,0.6595097992,0.7329762023,0.5656432719,0.5359842357,0.6223559108,0.8234723657,0.7676890187,0.6376623191,0.701542604,0.7685507119,0.7494953482,0.7908492814,0.7432906303,0.6855386243,0.4755738161,0.5327030629,0.6128338782,0.5914413533,0.4528550145,0.6058714518,0.6325754864,0.5594241095,0.521837256,0.6254086894,0.4000211185,0.4334644253,0.367627748,0.4413078101,0.3919893869,0.3127307038,0.3798903809,0.6681601443,0.7164018295,0.3477411749,0.2811475112,0.4281463841,0.761096633,0.3251079792,0.2153477737,0.278413174,0.4140651934,0.3369120573,0.3075780107,0.3102449732,0.2320003276,0.1872281955,0.2038350484,0.1450149471,0.05618131805,0.07492768974,0.1817300563,0.1832385294,0.09505399887,0.1808200558,0.4229666247,0.2910515063,0.1381280735,0.1812413145,0.2549976997,0.2383692801,0.3384254495,0.5157039289,0.3183882021,0.271482255,0.4447915786,3.536520162,1.016812374,1.238233515,0.7180417258,1.006507592,1.002973241,1,1,1,1,1,1,NaN,NaN],
	"ap": [NaN,1,1,1,1,1,1,1,1,1,1,1,1,1,1,1,1,1,1,1,1,1,1,1,1,1,1,1,1,1,1,1,1,1,1,1,1,1,1,1,1,1,1,1,1,1,1,1,1,1,1,1,1,1,1,1,0.5000000248,0.2701450143,0.2704842565,0.3584430377,0.2712110991,0.343129166,0.6053243832,0.341949643,0.2747752986,0.4123532672,0.245987655,0.3202037529,0.3608189007,0.439423399,0.1175445952,0.2963931885,0.2849945789,0.6552599641,0.2440068591,0.09170893808,0.05677419891,0.1380667546,0.3727206226,0.1063219435,0.1011653929,0.04797166737,0.05425539602,0.02642909574,0.05498900418,0.1183922585,0.02920557024,0.3169603086,0.1077539827,0.1044203308,0.1123869535,0.1069902098,0.1423736778,0.1793999747,0.2601006896,0.07234467726,0.2642607032,0.2762683724,0.4427058285,0.2375834466,0.01977585848,0.02435677408,0.01121962615,0.008914427517,0.005981954006,0.01852780722,0.01478283212,0.01189400063,0.006235753796,0.003893989277,0.01093469039,0.007594461897,0.003483084702,0.006938200175,0.003634997467,0.002374306285,0.00210277883,0.01580769387,0.008403674673,0.02238706193,0.02222170068,0.05466291065,0.05888283684,0.07916596257,0.04780091902,0.02750793073,0.1219040557,0.07060302515,0.09071573806,0.05875627348,0.03386268555,0.06561747843,0.01666046134,0.2155976656,0.04077498742,0.2776650401,0.1124284958,0.5820807508,0.1789611568,0.408924378,0.08629725402,0.01492668051,0.006110973588,0.02502286984,0.01209748948,0.03183626098,0.02334015309,0.02320610664,0.008862662266,0.0245391712,0.03935166646,0.02212380911,0.07733427772,0.02909214379,0.01941328785,0.07896514813,0.01554457945,0.07296777971,0.03239704132,0.09591703679,0.7687419187,0.2308298549,0.03660991015,0.01121399862,0.01534454195,0.0235176957,0.006351712879,0.03655472427,0.0118764564,0.06909961268,0.07729117794,0.02381737149,0.07866475909,0.01764400835,0.0312033286,0.008503859697,0.0151954522,0.02358639038,0.07707913652,0.07876373026,0.003751996827,0.01632827539,0.01454769194,0.01982668814,0.02337414256,0.009501087915,0.01441112336,0.007705471833,0.008157436218,0.004695365757,0.0009264415474,0.005894602832,0.02385710693,0.02287630234,0.1760835268,0.02527145912,0.01580328086,0.00938224703,0.003350876537,0.009414472476,0.003918340743,0.004463293067,0.03016259512,0.02121587834,0.09486292336,0.1391288654,0.07055998134,0.03731961302,0.3232210128,0.03325804345,0.04097313995,0.01127873245,0.006782284224,0.009974962882,0.01895712964,0.01969327033,0.01630977485,0.00710854109,0.0101570425,0.0008333843069,0.001831290444,0.004988904727,0.001900392612,0.0009317079961,0.001215264114,0.001438833325,0.001176021201,0.001587869824,0.0005691729128,0.0003014642969,0.0004008222408,0.001963601522,0.002146017523,0.00295776924,0.003033152539,0.01467766064,0.04449116315,0.005156886487,0.09369422317,0.014116895,0.004915854457,0.04127046278,0.03278989388,0.1656446209,0.0665789044,0.02255274407,0.2101427756,0.1159174246,0.09727687678,0.07619138607,0.04602643082,0.05069857913,0.0221745307,0.05694590411,0.0368618931,0.06081558457,0.06100729451,0.1197596528,0.1105881878,0.08026257434,0.2621635071,0.1137973026,0.05758110963,0.1477130623,0.04694833486,0.4710011978,0.2756185324,0.09415327874,0.0819382634,0.03525412642,0.02399062597,0.005086578404,0.004272318162,0.001054330788,0.003481934593,0.004020202357,0.01241969886,0.0231331396,0.03096108978,0.007686117519,0.009992347276,0.03396988954,0.03508477414,0.02189845781,0.01701742343,0.01515517142,0.0228920626,0.07931940549,0.05632746663,0.04270671359,0.01787375005,0.05703643523,0.2543985572,0.069134933,0.05477110854,0.05067257109,0.08342025134,0.07164650591,0.03911233859,0.1416403737,0.04964646306,0.06510693944,0.1320997178,0.05780017704,0.2785086217,0.0324968861,0.4758695737,0.2449495121,0.1929366643,0.1931429089,0.4210182412,0.329440548,0.423649457,0.2266821595,0.3562848223,0.6319866585,0.3020724351,0.3438797846,0.1963056979,0.6541319768,0.2741879536,0.457544873,0.2810039936,0.3285299564,0.2032197645,0.3201544164,0.344816184,0.4614629538,0.4385343235,0.4907657412,0.2599937431,0.2412362256,0.5470402097,0.2648346381,0.260333693,0.2439239088,0.412444202,0.2465180231,0.2473135148,0.239184695,0.3536168579,0.2394365949,0.352266321,0.1992780335,0.249255981,0.2162486503,0.2165053025,0.1455581706,0.1674496786,0.1142474035,0.2787686305,0.4356037012,0.2550000571,0.1092481696,0.1101617771,0.379237239,0.2496687398,0.1408218337,0.1059908741,0.1891681291,0.2476755556,0.1551028661,0.1979242622,0.143344327,0.1234009661,0.05991243435,0.118516572,0.04592454517,0.02092746703,0.04883836246,0.1301519581,0.06707907992,0.0265136684,0.1423590411,0.2428708968,0.05174659101,0.09441669973,0.1034083789,0.1881762004,0.09800682599,0.2623093017,0.2135926954,0.1832781814,0.1628790439,0.5000004845,1,1,0.5000158543,1,0.500060551,1,1,1,1,1,1,NaN,NaN],
	"pwr": [NaN,0,0,0,0,0,0,0,0,0,0,0,0,0,0,0,0,0,0,0,0,0,0,0,0,0,0,0,0,0,0,0,0,0,0,0,0,0,0,0,0,0,0,0,0,0,0,0,0,0,0,0,0,0,0,0,0,5.750893982e-07,4.211894885e-07,4.670094592e-07,2.992568138e-07,6.713593272e-07,2.024164288e-07,5.220107681e-07,2.304828194e-07,4.0697011e-07,2.979752901e-07,3.040475382e-07,2.627861987e-07,4.378678449e-07,1.20894687e-06,1.068892442e-06,1.08154415e-06,3.174241954e-06,8.838617567e-05,0.0004143226884,0.0004889517805,0.0002002965303,4.618780912e-05,0.0001541474753,0.0009338024446,0.0031651965,0.008177773857,0.01067576353,0.01130133464,0.006662203592,0.04064355202,0.01084624555,0.02965439918,0.01233434616,0.004991015181,0.003711703744,0.004993885528,0.002061679121,0.001607270476,0.00139169684,0.001076789107,0.001101284183,0.0005119377879,0.003134077137,0.01587828978,0.01358970045,0.01637496396,0.01773356494,0.01058119183,0.007978319756,0.004941496416,0.004436616362,0.004395369704,0.004189277776,0.00369170293,0.005802742123,0.006165446584,0.006614764379,0.008599250575,0.007868932145,0.004744660154,0.003328688259,0.002610828861,0.002390886421,0.001687304568,0.001562024915,0.0005875690893,0.0005111219283,0.0006005136313,0.0006816853461,0.000562227193,0.0004445361226,0.0003306121179,0.0003842835411,0.0003660070748,0.0003309459436,0.001344694139,0.0001806532033,0.0001627482285,0.0001627133043,0.0006916318689,0.0002347172946,0.0003577191638,9.009917535e-05,0.005826356612,0.01787051061,0.02336544866,0.01659916818,0.01680124457,0.0102192689,0.01487905625,0.0209327063,0.02835986666,0.01010507761,0.01411504201,0.006874184265,0.00360263555,0.002348181132,0.002657873581,0.001716273446,0.002416149511,0.0009138425551,0.000603720862,0.0005869525635,0.0005627948216,0.001122798356,0.01408160793,0.03953419612,0.03753024619,0.007803811941,0.007891137774,0.004051531405,0.002127655987,0.00140848402,0.0006618848217,0.006322236913,0.003758246397,0.005731913351,0.006598759276,0.002174335217,0.002941081969,0.00384933126,0.00157193347,0.005505376917,0.009586548764,0.003365206418,0.001694768517,0.001886092715,0.0007451051755,0.00091199235,0.00112309264,0.001545982285,0.001192790905,0.001037342298,0.0005434683083,0.000346295273,0.0003016666616,0.0002330078281,0.002314500593,0.04417592834,0.06075974701,0.04639724682,0.05787972645,0.046578476,0.05177514607,0.07278562306,0.02363814394,0.0192061276,0.02207163544,0.01371808742,0.03837264357,0.05923716922,0.02203111207,0.1310667305,0.22070133,0.07119449891,0.08489785869,0.07402472603,0.05768606114,0.02597694702,0.01797378146,0.01315136251,0.02117014902,0.04226824574,0.04152365372,0.02734845463,0.02459000069,0.02567805543,0.03066460685,0.03770377296,0.04447472515,0.03950918765,0.03512882397,0.03262263643,0.03105501044,0.0290806972,0.03467642113,0.04014781983,0.03911268058,0.01932333233,0.006573176827,0.01131825671,0.004836097695,0.01371772814,0.01565087555,0.007645783137,0.008109034527,0.001705467491,0.004289936964,0.002912430733,0.001697286846,0.0007912024918,0.0009839106673,0.002864929947,0.001074180411,0.00157650458,0.002430147975,0.001957508945,0.004706519372,0.002970488279,0.001452255622,0.001328026826,0.0003108756697,0.0005395813829,0.000447005736,0.0001947247355,0.0005423649273,0.0004229028377,0.0003609523364,2.984330244e-05,0.0001633531333,0.0002357045751,0.0003658976657,0.001031279015,0.002193605369,0.004323047424,0.006669111048,0.008552598342,0.009182958539,0.008411364806,0.006251262695,0.003356283214,0.001642924821,0.0009339280566,0.0009069646687,0.0009891674037,0.0006846394661,0.0009947878346,0.0009892719193,0.0005875531952,0.000412508503,0.0003947842765,0.0005851053952,0.0009146963819,0.0006618251502,0.0003690763271,6.472726802e-05,0.0001127308839,0.000163958564,0.000196028978,8.201026954e-05,4.459112122e-05,1.857455557e-05,1.764702747e-05,9.435744858e-06,9.286828511e-06,3.750561141e-06,7.087217141e-06,9.948773675e-07,3.974972806e-06,6.391363137e-07,3.009162978e-06,5.143253612e-07,8.049624301e-07,7.897679111e-07,5.209471412e-07,2.762496572e-07,6.680002642e-07,4.576442133e-07,6.038515659e-07,5.367555285e-07,4.699931748e-07,5.97463904e-07,5.670926031e-07,5.241330186e-07,3.968012024e-07,4.770394558e-07,5.552341033e-07,5.752639676e-07,3.619835851e-07,6.308304098e-07,6.039734837e-07,8.337465784e-07,7.074290013e-07,1.029594972e-06,4.137431754e-07,2.800703182e-07,4.912776997e-07,2.385203279e-07,4.008882516e-07,2.605347403e-07,2.489977069e-07,1.224166692e-07,6.559089855e-08,6.03599546e-08,3.343278115e-08,1.728020589e-08,1.874295753e-08,1.210561899e-08,6.249165703e-09,6.894074576e-09,7.705860666e-09,5.254566225e-09,6.418167609e-09,3.556833502e-09,4.910754405e-10,7.554060883e-10,1.312974796e-09,1.648943784e-09,4.858205029e-10,2.606557469e-10,6.386734141e-10,6.98950259e-10,3.538292459e-10,1.856228557e-10,3.256420715e-10,3.281628757e-10,3.375586005e-10,3.877455207e-10,4.73911192e-10,3.700998912e-10,5.868890535e-10,5.504519745e-10,5.664934558e-10,3.843080604e-10,4.450365256e-10,5.678684399e-10,4.794111285e-10,1.856228557e-10,3.217462832e-10,4.120369068e-10,3.185379869e-10,2.527679133e-10,3.254129075e-10,1.934144323e-10,4.812444406e-11,1.407067079e-10,2.48413797e-10,1.145820097e-10,0,0,3.501212687e-12,0,0,0,0,0,0,0,0,NaN,NaN],
	"sr": 16000,
	"range": [1,127360],
	"minf0": 63.1883,
	"maxf0": 706.3069,
	"thresh": 0.1,
	"relflag": 1,
	"hop": 320,
	"bufsize": 10000,
	"wsize": 640,
	"lpf": 4000,
	"shift": 0,
	"plotthreshold": 0.2
}
