{
    "DU": 146,
    "DV": 379,
    "F-measure": 0.8181818181818181,
    "F-measure Chroma": 0.901010101010101,
    "FN": 33,
    "FNC": 0,
    "FNCch": 8,
    "FNI": 33,
    "FNIch": 25,
    "FP": 27,
    "GU": 140,
    "GV": 385,
    "Overall Accuracy": 0.7714285714285715,
    "Overall Chroma Accuracy": 0.8495238095238096,
    "Precision": 0.823170731707317,
    "Precision Chroma": 0.9065040650406504,
    "Raw Chroma Accuracy": 0.8857142857142857,
    "Raw Pitch Accuracy": 0.7584415584415585,
    "Recall": 0.8132530120481928,
    "Recall Chroma": 0.8955823293172691,
    "TN": 113,
    "TO": 525,
    "TP": 352,
    "TPC": 292,
    "TPCch": 333,
    "TPI": 60,
    "TPIch": 19,
    "Voiced Chroma Accuracy": 0.8649350649350649,
    "Voiced Pitch Accuracy": 0.7584415584415585,
    "Voicing Accuracy": 0.8857142857142857,
    "Voicing Detection": 0.9142857142857143,
    "Voicing False Alarm": 0.19285714285714287
}