{
    "DU": 103,
    "DV": 392,
    "F-measure": 0.7282608695652174,
    "F-measure Chroma": 0.8630434782608695,
    "FN": 34,
    "FNC": 0,
    "FNCch": 1,
    "FNI": 34,
    "FNIch": 33,
    "FP": 36,
    "GU": 105,
    "GV": 390,
    "Overall Accuracy": 0.6767676767676768,
    "Overall Chroma Accuracy": 0.802020202020202,
    "Precision": 0.7266811279826464,
    "Precision Chroma": 0.8611713665943601,
    "Raw Chroma Accuracy": 0.8435897435897436,
    "Raw Pitch Accuracy": 0.6820512820512821,
    "Recall": 0.7298474945533769,
    "Recall Chroma": 0.8649237472766884,
    "TN": 69,
    "TO": 495,
    "TP": 356,
    "TPC": 266,
    "TPCch": 328,
    "TPI": 90,
    "TPIch": 28,
    "Voiced Chroma Accuracy": 0.841025641025641,
    "Voiced Pitch Accuracy": 0.6820512820512821,
    "Voicing Accuracy": 0.8585858585858586,
    "Voicing Detection": 0.9128205128205128,
    "Voicing False Alarm": 0.34285714285714286
}