{
	"f0": [NaN,72.000073,37.91565014,37.29451301,37.05987493,44.26413464,44.55443442,44.92988121,57.41612942,57.43117321,57.75045104,57.97637633,58.72745544,58.24721194,58.30875331,58.52517469,58.36305271,59.17746814,59.48483387,59.88318967,60.30616122,60.02380633,59.99911472,60.18380868,60.19903616,60.06966221,59.86959342,59.59825881,59.51114127,59.5914297,59.67200209,59.77550682,59.95918838,59.90387153,59.85454576,59.88090049,59.92555111,59.96202076,59.96958485,59.90583815,59.85399309,59.91387258,60.0402105,60.16515859,60.11377193,60.03743269,60.0547784,60.10021346,60.09208559,60.07024027,60.14761983,60.20009754,60.11223272,59.91785705,59.92494876,47.76614123,60.0442468,60.33040771,60.33040771,59.93449054,59.74035302,59.76146297,59.86537995,59.90585661,59.88112263,59.88400733,59.94544083,60.01308754,60.02617471,60.12754854,60.97066567,62.56433733,63.460254,63.73622138,63.89119118,63.85414672,63.79208649,64.00519732,64.18350933,64.24756989,64.63125849,64.97116954,65.12781599,65.03059829,65.17977484,65.31574027,65.1821161,64.84909683,64.40724451,64.08955396,63.94663225,63.80845397,63.63839742,63.63506442,63.64432459,63.62714045,63.62845675,63.64390758,63.61425834,63.58521653,63.48179885,63.36814633,63.22621806,62.82980943,62.7719004,62.93647318,62.97302579,62.84122466,62.70073504,62.75958666,62.85131364,63.21208404,63.45362488,63.55931381,63.84399612,63.98118928,64.03724065,64.05118032,64.0374667,63.93582354,63.77882976,63.56676599,62.66866114,61.91537298,61.88909626,62.15444483,61.75201676,61.74362717,61.93499845,62.19889584,62.36551489,62.28708894,62.31609792,62.21236805,62.41820353,50.12177151,50.05848792,50.09646413,49.95807124,50.10447474,62.33892397,62.33484652,62.38788254,62.3466414,62.28395774,62.23588025,62.2080889,62.14465998,62.05542313,62.08342104,62.11589064,62.10610583,62.08095113,62.0697715,62.23381211,62.34642799,62.25466773,62.21242235,62.22054168,62.28726665,62.27390929,62.20075216,62.19662671,62.01787165,62.07707312,62.27995857,62.32508463,62.20740196,62.180265,50.31549102,49.67874643,51.67221549,64.09063527,64.50928483,65.1131919,65.15980952,65.2314787,65.29871024,65.338822,65.48916938,65.64325575,65.90723783,65.9885726,66.31061784,66.05420205,65.97590468,66.87083984,66.93043358,66.93880152,66.79262802,66.86299638,67.02565585,67.06905112,67.06329105,67.03773881,67.04003777,67.01370419,66.9847188,66.97017227,66.9701893,66.97802099,66.94960935,66.84384374,66.82614987,66.85785079,66.82698536,66.79772574,66.78439081,66.75859145,66.78067941,66.79322124,66.78694926,66.7979358,66.8148145,66.83254116,66.85496937,66.87111017,66.88838339,66.90632664,66.89767633,66.90331796,66.91141582,66.90371281,66.90983605,66.90390519,66.87753575,66.87729709,66.86932658,66.84194715,66.84745024,66.86997202,66.85675205,66.81482882,66.73740679,66.74549229,66.84033852,66.82973896,66.81607001,66.83195679,66.8520692,66.85123513,66.9016453,66.91136511,66.83559633,66.71363426,66.68810571,42.79822539,36.05105008,38.8672916,54.33995321,48.1469065,47.13670011,56.11990945,56.19285419,47.62313705,38.98810444,38.82880709,49.16740414,38.8158161,39.12831829,39.20136873,38.59506768,38.64643745,38.83658561,38.89080377,38.88871777,48.21745241,48.11957447,36.04622374,36.04510279,54.75544495,66.68063405,66.64878498,66.9224708,42.78699859,42.86732977,42.85445897,54.95926992,38.92755023,38.92059,38.98980465,66.68660231,66.83383462,66.89030965,66.86050432,66.85884584,66.87027653,66.84652358,39.01166523,35.8752425,66.84049335,66.86822521,42.85476137,42.80233616,38.96376532,35.83695647,35.87751265,38.96964017,35.82414815,42.77646147,42.36857364,36.66557338,36.15681549,35.73103734,35.50785626,35.4862336,35.59103114,36.73262397,35.39938975,36.26371101,35.5292184,38.80646665,38.04822312,44.39835868,38.89722629,38.8629467,NaN,NaN],
	"ap0": [NaN,1.63670575,0.6062488056,0.2904490433,0.2294654293,0.1698166279,0.1393679432,0.4155079898,0.2812380664,0.1048892206,0.05820527349,0.08544546291,0.1400805395,0.03394668993,0.02558454687,0.04598855961,0.1738821582,0.2669760341,0.1988888502,0.133590103,0.08077484965,0.05531556262,0.04877113499,0.02288839078,0.0232486394,0.02799446138,0.03162926296,0.05152433299,0.0475364213,0.04754724193,0.03546115324,0.0312112147,0.02013493316,0.006327293885,0.01209665012,0.01509634965,0.00712319299,0.00512571255,0.005368881794,0.02374379055,0.05006953282,0.01355042514,0.01182245116,0.02170163248,0.02575647264,0.01039747613,0.007810127376,0.003274119498,0.0008635978658,0.0006882343656,0.001510127943,0.002874770091,0.01878614715,0.1613547265,0.4321804188,0.4430868117,0.3342275674,0.2615484647,0.4070730583,0.235845924,0.1822894068,0.08884161266,0.03194491321,0.02795870942,0.0475866558,0.03871505984,0.02955005435,0.01736347864,0.008799423435,0.02817797275,0.06723197636,0.09326739472,0.07174550872,0.06012089724,0.06522373341,0.1461918393,0.146646271,0.09077901733,0.07059928618,0.1477363642,0.1043978658,0.06864502421,0.08961890906,0.08077166382,0.04879229828,0.03777286128,0.04502257778,0.07245296833,0.03632274039,0.03326830089,0.0281186845,0.02125035749,0.01591276791,0.009318283444,0.006285959266,0.006858191276,0.01147385036,0.01138923922,0.01011875463,0.006837116024,0.004337353463,0.004336923146,0.01530328516,0.04501223326,0.03016787528,0.03013972081,0.0284194006,0.02212142388,0.02599304476,0.02523910346,0.02317037559,0.04913769785,0.03589707911,0.05662348562,0.07988033772,0.02357008637,0.01031509522,0.009487633433,0.01754480772,0.04555646985,0.09795432098,0.2026939066,0.2232389433,0.1506641866,0.1034602927,0.09996695086,0.05614292903,0.04740883917,0.07034745291,0.03690696639,0.01689569209,0.0156285245,0.01920194713,0.006963412605,0.2062254903,0.0852103032,0.1480803292,0.2172301595,0.2870966001,0.170966355,0.1599855831,0.09856834033,0.1362247279,0.05388692994,0.04213786325,0.02430053278,0.008489420169,0.01278646699,0.02960765423,0.02707024468,0.01284421241,0.02138452417,0.03119004374,0.02112693032,0.01152966767,0.003788549425,0.002112154938,0.0008763749376,0.002968163711,0.007421759831,0.007645668105,0.01042268141,0.02151145953,0.02375811087,0.03131287228,0.03611086834,0.02189641184,0.02453805965,0.09878790517,0.210424995,0.2797389366,0.6926926723,0.05139377505,0.06538435839,0.03677109525,0.0105341211,0.008339817893,0.006752458394,0.006302230691,0.01050769403,0.02906731284,0.03037894621,0.034871223,0.1291774641,0.1243688107,0.1231943479,0.05250802811,0.02688238168,0.03530559459,0.06480371253,0.03780653281,0.01480693237,0.01265102049,0.009539343531,0.004424606735,0.00291425674,0.002542174925,0.00213780636,0.001568007599,0.00113586997,0.001262123219,0.001756988187,0.002026176448,0.002375505713,0.001582857019,0.001563914269,0.002266228504,0.002907496631,0.002032603746,0.001184929666,0.001013414404,0.001970770872,0.002794621479,0.001987955311,0.0008547342785,0.0003766699013,0.0002804275564,0.00041983158,0.0004389995023,0.0004484333598,0.0003462909584,0.000395224667,0.0005448424113,0.0005583882816,0.0005270615567,0.0004326441563,0.0004209698405,0.0006186234861,0.0009945216675,0.001865667537,0.00244009337,0.003069589792,0.005151753111,0.01069980616,0.01572304109,0.02641599471,0.1445799109,0.1900565605,0.09783436955,0.1262466418,0.1499799467,0.06463260996,0.06491427201,0.136358303,0.278486935,0.6038890454,0.5797331303,0.6721596581,0.791508195,0.6189228625,0.5683581315,0.622183593,0.6165726565,0.6929581382,0.6342025029,0.5264723069,0.6763744941,0.8067814923,0.662037585,0.7187514184,0.6319634191,0.6836845609,0.6560800476,0.5381340699,0.4295654737,0.5273713701,0.5411285593,0.4875834326,0.4405016759,0.3582223143,0.3420643826,0.3272965482,0.3247716577,0.4355603389,0.3403271072,0.3646938759,0.4193639657,0.4182179179,0.2863752722,0.290959273,0.2940701566,0.3446367488,0.326074825,0.4044621057,0.3442015422,0.2426369462,0.224385992,0.2316843166,0.1862459126,0.1650286423,0.2627218192,0.3909465215,0.4060787295,0.4287956281,0.4008995663,0.2949784687,0.3410949644,0.4605879574,0.5745674275,0.8365124474,0.8154905941,0.7043142893,0.489731081,0.4711222949,0.3454967427,0.5187539151,0.6110444222,0.8069138542,0.7645429058,0.5398016023,0.6520448078,0.7701021564,0.7002758893,0.6616604199,0.578098595,0.4916093132,NaN,NaN],
	"ap": [NaN,0.1251977174,0.4917834275,0.1652242786,0.1287772131,0.05581522525,0.04215274252,0.1825496055,0.3591983483,0.1776375293,0.02538174121,0.049107017,0.0320396811,0.189817533,0.05549855499,0.008531605083,0.02013731765,0.0422596961,0.2804746888,0.2451318139,0.1297233855,0.01284985142,0.05067072503,0.02324493123,0.004065744339,0.01077898423,0.04316231079,0.005002102721,0.113388129,0.004081554618,0.1063164194,0.00537602344,0.04877526999,0.001850599257,0.003339453835,0.008599132267,0.004122321253,0.007413955313,0.0006072607954,0.00351998978,0.00236931779,0.1965242075,0.003952482849,0.004723159241,0.00675278759,0.02240355991,0.009806395581,0.007221033725,0.003665306938,0.0003605739858,0.0007592302823,0.0007332164071,0.001810221785,0.003150319951,0.0474925043,0.07390331417,0.5281381405,0.1067477161,0.3274577863,0.4224926537,0.2318446947,0.2738795721,0.1044717317,0.0562127712,0.007072669371,0.01814602893,0.04238762877,0.01909359866,0.01056409695,0.003183763342,0.03861510139,0.1566624281,0.1785117794,0.01201460337,0.03129144999,0.02051863016,0.04372072558,0.1008067016,0.07491170961,0.01577492148,0.1871473033,0.1078055863,0.1559124017,0.03787511578,0.09885133518,0.02111503134,0.02113178254,0.02306423058,0.06188296471,0.03961569676,0.0142860456,0.01568612204,0.01592518118,0.003123113405,0.005441281972,0.003786547507,0.001068372687,0.002136861304,0.006723982413,0.004423613582,0.01095813857,0.003621245452,0.00271221026,0.01279453511,0.03464340094,0.009888585762,0.01660728525,0.02298875625,0.01172469852,0.003448082656,0.02713983443,0.02569215914,0.04332347846,0.009593432247,0.01539588446,0.0258717377,0.01742257691,0.002091503738,0.00788211389,0.006919235837,0.01433467763,0.03446001497,0.07785125973,0.1573732001,0.09879404236,0.08410629425,0.02468654956,0.1273705084,0.0131373928,0.1064174862,0.01524304061,0.01801834806,0.007244675604,0.04110717124,0.004413575165,0.01672709821,0.07261632488,0.03142934177,0.2078041827,0.02955003941,0.1309962248,0.2205944536,0.008240795826,0.09934831475,0.03007943453,0.01237373426,0.03346867138,0.0008727238349,0.004647273566,0.01569031906,0.004214523284,0.004265977532,0.01211967361,0.00148770795,0.01713112363,0.004181843502,0.00346013096,0.001508421934,0.0001607861178,0.000631431745,0.002562186608,0.001029211677,0.01597789861,0.00714762943,0.01757467556,0.01716876054,0.009759620537,0.02886179302,0.01615726514,0.07324063195,0.1357185599,0.344040017,0.3681451598,0.1167993783,0.03729891232,0.05665099643,0.008274422863,0.002904916464,0.00330053242,0.001973022865,0.00192487904,0.02400730248,0.02217165797,0.01509116654,0.04715815952,0.2173287734,0.249986899,0.04235719876,0.006889731396,0.02215107883,0.02015568506,0.05998827114,0.007061315912,0.006794622749,0.009927324003,0.00366140631,0.00148669795,0.0008321844553,0.001339357081,0.001088389642,0.0003953545159,0.0009963831689,0.0009470946636,0.0009101514951,0.001741464462,0.0007521471483,0.0006716315353,0.001126077122,0.001980979689,0.0006885866874,0.0003829732796,0.0001558686029,0.001228446515,0.0009828367376,0.001612135042,0.0007443864647,0.0001486654113,0.000245487962,0.0002602012111,0.0001701191963,0.0001177231454,5.425255891e-05,4.056240029e-05,0.0003401072804,0.0004010026226,0.0002600861203,0.0001188734878,0.0001817405718,0.0004888978452,0.0005319890334,0.0006874241462,0.001662699013,0.001883878553,0.003021657635,0.001726824478,0.01173762403,0.006315202417,0.01099315771,0.2795801686,0.01060417579,0.06445336566,0.05717731981,0.05613362338,0.01268021951,0.03630874574,0.07623544188,0.2670375357,0.4282368665,0.3912336051,0.6153271315,0.3979527713,0.3345420476,0.4557458456,0.2540037413,0.4324388487,0.2751476714,0.2079703819,0.3682321465,0.3248723504,0.4496520937,0.2908415864,0.3623469392,0.3501248312,0.3777632845,0.2531892747,0.1771745032,0.3070894585,0.3795886228,0.2156331449,0.2202858244,0.2271341443,0.1684324843,0.1494753786,0.08687234115,0.2225028165,0.1154358171,0.1953221418,0.2779372693,0.1245972227,0.1173852534,0.1633095015,0.2029609085,0.3669077454,0.1359885689,0.2584699339,0.2029214703,0.07938517762,0.182737897,0.1111222516,0.06398162351,0.1675307601,0.02389641676,0.1981931713,0.2363883543,0.2692819718,0.1709077224,0.09190511717,0.2724578364,0.2419740382,0.5249289349,0.4446704262,0.4405604118,0.2570207123,0.304528029,0.1469675559,0.2052818547,0.3684755714,0.2275804789,0.6031506193,0.2374108085,0.2661961619,0.4494491565,0.3566573837,0.4267717766,0.3367251231,0.2854746393,NaN,NaN],
	"pwr": [NaN,2.675809614e-09,1.581892856e-07,0.03555490796,0.1225558526,0.198777894,0.1259156116,0.04811731587,0.04832409979,0.01328735285,0.1224550632,0.1287328899,0.1718832249,0.02723334579,0.0671357595,0.2185064027,0.1113668552,0.03070693584,0.002789070713,0.007129430997,0.02416518154,0.03795298278,0.01267103673,0.05781740954,0.04230122204,0.05841536077,0.03985542063,0.1303337101,0.0384589025,0.1224640141,0.03098852678,0.1047890602,0.05173642258,0.04513935574,0.04626062404,0.02304362195,0.005940459153,0.01814790198,0.05999919889,0.03533639784,0.02713046615,0.001903449911,0.01229604655,0.01452376527,0.007200395859,0.00308349162,0.007208947791,0.01336459716,0.0457786255,0.09317534254,0.1040298937,0.07745757172,0.05368947528,0.03496064586,0.002271283908,0.01365490895,0.03311995806,0.01734492845,0.03393315159,0.01377732923,0.006414137955,0.01343044011,0.02006663481,0.02952630663,0.05411953579,0.02190029369,0.01335101754,0.01861835809,0.02509225147,0.02828074028,0.02508605468,0.01701651453,0.07567876241,0.09172795513,0.2082792033,0.174444826,0.09663784845,0.1393036498,0.1963439381,0.1682392816,0.02358456212,0.05173651991,0.08070951655,0.07707554144,0.03791152711,0.1515273272,0.1027640124,0.02862628818,0.0100326173,0.04662001544,0.06518455413,0.1066698266,0.07648882212,0.08381499722,0.07618872077,0.08868789569,0.06272987399,0.05603278069,0.02124187706,0.01635749219,0.01373529037,0.05068360064,0.06929692855,0.06128088925,0.01081211375,0.01519074453,0.02297642511,0.01488351306,0.04056343847,0.03163242424,0.01941479779,0.05774793121,0.01902187053,0.08144863335,0.1065463417,0.06273473425,0.03921123087,0.09285761985,0.133865116,0.1404565935,0.1316974847,0.1557442118,0.1452434283,0.03679958516,0.1011932881,0.1221276673,0.1812114437,0.01249504403,0.1898049291,0.01203508026,0.1045881718,0.05252569307,0.097375623,0.02834711938,0.03620722576,0.03637678833,0.06735287404,0.06087906424,0.02610287114,0.04606149486,0.1094351161,0.2159428914,0.1089539125,0.1063004536,0.04259273368,0.1388370092,0.1439032616,0.1629674538,0.1318422292,0.04973326371,0.03717646213,0.04024273728,0.02124294935,0.01109211566,0.01173739941,0.02384763707,0.04502106572,0.0918029307,0.1315092714,0.1673184451,0.0575504492,0.05665660655,0.06307419973,0.01629315315,0.01807572611,0.004854705671,0.004922117834,0.002307835006,0.005456954985,0.002892158203,0.0009886605792,0.001081886332,0.0004746762872,0.001029580205,0.05422954069,0.02140592437,0.08226002087,0.1590169008,0.1653835219,0.1586182688,0.0958288116,0.04881376748,0.04482308416,0.1019017168,0.01014317273,0.01198961383,0.01392343704,0.009392013244,0.02604559813,0.02287472779,0.0124761593,0.008356992487,0.02001608808,0.02214580333,0.02041333472,0.01720354081,0.02157151563,0.027282024,0.03804000433,0.06427917549,0.08722376782,0.07334863587,0.0357709884,0.02264921615,0.01591944348,0.01387530289,0.02186762084,0.02539978319,0.01764024722,0.01289447728,0.0177403518,0.01981255745,0.01320114277,0.01089307799,0.01438324701,0.02434899462,0.03100552586,0.03016449948,0.02260762202,0.01844909698,0.01492741408,0.01237368045,0.01193617761,0.01457567215,0.01355182944,0.01366521395,0.01820866739,0.01518433748,0.0160342851,0.01451695111,0.008487534575,0.006092208808,0.003461550257,0.002406356738,0.004328633426,0.005948317428,0.003406603244,0.003987816922,0.004154434966,0.003733193861,0.0006641593705,0.0002661738892,0.0007787491584,0.001618756219,0.001036570516,0.0006699120396,0.0002942087791,0.0002173040054,0.0002265752238,0.0001867767515,7.443786883e-05,0.0001812685941,0.0001503714743,8.670670105e-05,5.217542091e-05,5.136872746e-05,3.625075908e-05,2.895679621e-05,9.334152147e-06,7.379405821e-06,5.164798143e-06,4.756069008e-06,3.314449036e-06,2.768590297e-06,1.783283124e-06,1.98870639e-06,1.34428987e-06,6.943295626e-07,6.740688726e-07,5.734426326e-07,4.86781304e-07,8.916128308e-07,4.438247261e-07,4.081208849e-07,1.972886396e-07,1.464521035e-07,7.59008998e-08,4.49340728e-08,4.864979838e-08,5.324714177e-08,4.269478922e-08,3.29401518e-08,2.097608018e-08,2.131834318e-08,6.068988734e-09,1.117582503e-08,1.395140877e-08,1.571614132e-08,1.599654263e-08,1.450109665e-08,1.555814593e-08,1.83298957e-08,6.89000195e-09,2.384309819e-09,4.25159871e-09,2.705904097e-09,3.709918282e-09,5.369333426e-09,2.925228876e-09,3.889334229e-09,4.568525387e-09,2.727717402e-09,1.68258893e-09,1.060197275e-09,1.105971891e-09,1.082647428e-09,5.612840477e-10,7.482712288e-10,5.422556373e-10,5.177044856e-10,6.621256852e-10,3.752467538e-10,3.4710969e-10,1.698295947e-10,1.037972994e-10,1.35691091e-10,NaN,NaN],
	"sr": 16000,
	"range": [1,101761],
	"minf0": 63.1883,
	"maxf0": 706.3069,
	"thresh": 0.1,
	"relflag": 1,
	"hop": 320,
	"bufsize": 10000,
	"wsize": 640,
	"lpf": 4000,
	"shift": 0,
	"plotthreshold": 0.2
}
