{
    "DU": 233,
    "DV": 271,
    "F-measure": 0.713347921225383,
    "F-measure Chroma": 0.8315098468271335,
    "FN": 52,
    "FNC": 0,
    "FNCch": 0,
    "FNI": 52,
    "FNIch": 52,
    "FP": 42,
    "GU": 223,
    "GV": 281,
    "Overall Accuracy": 0.6468253968253969,
    "Overall Chroma Accuracy": 0.753968253968254,
    "Precision": 0.7212389380530974,
    "Precision Chroma": 0.8407079646017699,
    "Raw Chroma Accuracy": 0.708185053380783,
    "Raw Pitch Accuracy": 0.5160142348754448,
    "Recall": 0.7056277056277056,
    "Recall Chroma": 0.8225108225108225,
    "TN": 181,
    "TO": 504,
    "TP": 229,
    "TPC": 145,
    "TPCch": 199,
    "TPI": 84,
    "TPIch": 30,
    "Voiced Chroma Accuracy": 0.708185053380783,
    "Voiced Pitch Accuracy": 0.5160142348754448,
    "Voicing Accuracy": 0.8134920634920635,
    "Voicing Detection": 0.8149466192170819,
    "Voicing False Alarm": 0.18834080717488788
}