{
	"f0": [NaN,43.42159817,43.36729277,43.38491167,43.35802245,43.35239741,43.39169591,58.82535595,43.29180223,43.37981004,43.45670861,43.38904349,43.37208483,43.31754545,43.35786193,43.3582766,43.31465088,57.66169865,58.31507859,49.36688604,70.77857292,64.77659417,65.05850428,70.28205022,43.39034286,43.41700003,43.40107198,44.99044997,64.86718416,64.48562189,64.44489,56.40395781,56.7884894,59.11537578,58.99679892,64.63636942,64.65635095,64.98834737,43.28273756,43.48863071,71.97940307,49.32091103,49.39326847,64.68101866,64.28069516,64.54911522,41.7966736,54.24341486,43.32578928,43.39681392,43.38473068,55.59415848,46.54970563,44.93520015,43.59334595,43.11271935,54.9224708,55.08298933,54.51152476,53.72236611,53.55301854,53.83756492,54.07778115,54.22092429,54.39726802,54.55510244,54.66512657,54.73363955,54.68992243,54.67281392,54.70623118,54.63273392,54.54283456,54.57766322,54.90469,54.9224708,55.40995152,55.40510544,55.45184568,56.72108161,57.10348886,57.2821102,57.64265041,57.84776578,58.56916317,58.85388849,58.90335808,58.9446811,58.9446811,58.96364167,59.08003267,59.79456615,59.75790645,59.65413375,59.50895844,59.24953676,58.40944166,57.47851807,56.01165637,46.03670986,57.1967437,57.78638529,56.77513822,56.3926914,56.24366108,56.29454711,56.41952701,56.48702814,56.62884171,56.69517,56.7621014,56.97637065,57.1057465,57.13673155,57.20226076,57.26584902,57.34157067,57.37631299,56.87237943,54.90606369,52.28409491,60.59908105,57.66169865,57.01774243,56.87717162,56.59663947,56.56824436,56.54065768,56.50947556,56.66228501,56.77028929,56.7651033,56.75969525,56.84357934,56.89700619,57.02105991,57.44840218,57.38455218,58.89233026,64.28168322,63.83657672,64.55802863,56.93520015,57.64248926,57.63275382,57.55641698,57.38682688,57.40300641,57.66169865,57.30273334,55.27037084,54.32893384,54.21029341,69.11213528,59.48573577,55.5894837,55.42584172,55.25104819,55.21193817,55.15780592,55.24185832,55.37145291,55.36749378,55.21152218,54.96169511,54.87911098,54.84406891,54.87658239,55.37222232,55.87904132,56.16012498,56.13337266,55.78826823,53.11955917,53.10847289,53.69991543,37.1426494,37.12810207,54.43650001,54.87773474,56.01165637,56.01165637,54.01509027,55.19576757,54.93666162,56.38273483,56.37297022,56.51541686,56.28653779,55.98958864,55.82312264,55.83543002,56.15423734,56.40979425,56.6251453,56.89617969,57.90032679,57.17399484,56.85854607,56.98810797,56.97017281,56.92838996,56.7227003,56.44473325,56.35439133,56.21498982,56.15710282,56.12610972,56.08379539,56.02329258,55.88605304,55.29752247,59.34991445,71.57874112,71.5501491,71.31827217,54.83925667,54.85074828,54.9224708,55.78826823,55.19068705,55.04894345,54.96505686,55.02454036,54.97019763,54.90314429,54.88353371,54.91073791,54.86065813,54.73970672,54.61161745,54.49863624,54.30059586,54.08638156,53.82288191,53.59628882,53.2807338,64.20792219,63.14399075,55.78826823,55.52809898,53.8977729,51.71014105,51.472891,51.32495053,51.25353229,51.33402811,52.93035138,53.337664,53.12408451,52.98781844,52.82662688,52.70002382,52.801633,53.04459236,53.50429368,51.31455706,42.71561502,54.50528578,54.25843345,54.27514105,55.47255331,56.91038112,57.57520652,57.96361107,58.17946356,58.12387971,58.03308846,58.03424037,58.02578264,58.20258692,58.38733856,58.51623957,58.84832627,59.15327382,59.3194596,59.5188793,59.61929169,59.52365196,59.34393799,59.28061716,59.22117954,59.05829707,58.76868193,58.57145154,58.65467936,58.76934944,58.7416068,58.83291926,58.89985497,59.21309485,55.34995772,54.87518209,55.78826823,45.78580198,56.46727057,56.01165637,52.7396664,43.58959089,47.33509046,52.03229398,52.17935006,46.81201884,44.80021151,43.78826823,43.60541146,43.44336977,43.46451643,47.34887861,59.1235216,59.33945523,54.9224708,43.47063034,43.41501386,52.49850651,43.36995,43.36988677,43.46410807,43.57852226,59.73269674,76.84859667,76.60432034,76.93035138,53.5432416,49.99488296,49.61290765,49.06721424,39.46859831,51.31455706,46.38197,38.88241899,38.9331192,53.57390512,51.34314888,45.55383325,51.61715249,49.52483579,47.19056741,45.19404387,39.16521986,54.71262168,59.5683724,59.45827765,54.71262168,47.08361093,49.45156817,57.53847862,66.50528578,76.93035138,NaN,NaN],
	"ap0": [NaN,0.5211269472,0.545152598,0.5369766421,0.5094888622,0.5657745397,0.5942628664,0.5391074433,0.450485801,0.3628119923,0.4400743164,0.7376893021,0.7558399448,0.740858164,0.4746619441,0.3072606717,0.5828630369,0.4946463113,0.6665522837,0.6658541057,0.6779202252,0.4245862949,0.512015126,0.9844445501,0.4297125742,0.3940901394,0.4032508689,0.8246030114,0.7829756651,0.6547895749,0.5685266172,0.6892013024,0.8289850164,0.7145743573,0.5764201909,0.5727591277,0.6462200632,0.7822740398,0.5931129339,0.6184051503,0.6094812937,0.6079655438,0.6427288128,0.5430450538,0.4762982963,0.8332363935,0.6155210285,0.4701329009,0.3356186515,0.4118745941,0.6065699635,0.4679380259,0.5063887575,0.2654442613,0.2932181313,0.4791285308,0.2882795795,0.595034341,0.2370907638,0.09700913035,0.0191270593,0.02526374394,0.01922463759,0.01134251577,0.007466381366,0.008894440089,0.0122963647,0.01303687328,0.01975218149,0.01367519568,0.009201038995,0.008518081853,0.01164918196,0.04149913704,0.1296424981,0.4090906002,0.06970576421,0.0787626096,0.04548030617,0.1639005144,0.05420950337,0.0444594751,0.07935826613,0.1871215582,0.1836299998,0.3707303959,0.2573316932,0.3911777429,0.3042559993,0.1337853541,0.188637618,0.08755901818,0.04208301554,0.02084763058,0.03769998171,0.09567449656,0.1237299384,0.118324141,0.2282611728,0.8107502696,0.1913902974,0.05003107911,0.05819755563,0.02441689071,0.01320301697,0.01588143144,0.01927360742,0.03653782521,0.05232589235,0.03994901727,0.02580587076,0.02565901543,0.02275785297,0.01685712104,0.01971738308,0.0220232394,0.03242997427,0.08600720035,0.2353822802,0.3471739837,0.4780976771,0.491516615,0.4774099213,0.1504531884,0.05848306299,0.06556115236,0.09662163691,0.08619383759,0.05077668198,0.06647173429,0.05898751939,0.03295079343,0.02511000232,0.0151663533,0.01419413635,0.03395119265,0.06200245459,0.2063733821,0.4974195156,0.5139271812,0.545293036,0.5764568308,0.5985328976,0.09142350812,0.05580592917,0.02643320893,0.04045130768,0.0818272841,0.1805288825,0.4180785598,0.3372946305,0.3948530235,0.7219678644,0.5722493134,0.9809229585,0.09585049463,0.0555472936,0.01326077672,0.00813597304,0.009350693571,0.01939415136,0.02688569277,0.01983269872,0.02053047391,0.01532745132,0.007935064565,0.007363511849,0.007759484881,0.03362672315,0.05244594505,0.06814863685,0.09087338914,0.3180762509,0.5644361084,0.6405258081,0.7444184976,0.5999822815,0.5868070234,0.4233740281,0.3165199665,0.3412256881,0.1909981113,0.5299302725,0.6108878267,0.4464937563,0.4042190846,0.3469366867,0.06267760034,0.040762203,0.01874022428,0.0170974644,0.02465574557,0.08854027427,0.1265865164,0.1096965058,0.1104725568,0.156370142,0.1549910524,0.1392441158,0.1451484658,0.1007514188,0.02527983216,0.01720468977,0.01451638799,0.01394411955,0.007097309212,0.002779617956,0.003978347955,0.005523869928,0.01584281842,0.0536499471,0.5130708833,0.5884043955,0.3092130487,0.3597732316,0.6371012269,0.6181399162,0.4384647101,0.4991079988,0.496319728,0.08060542259,0.04391415195,0.01575899778,0.01116937013,0.01084839288,0.01150296743,0.01183098846,0.009976791371,0.007725929494,0.007231591436,0.009082498735,0.01663353886,0.01699108227,0.01643750064,0.04099606063,0.08627823671,0.3437621813,0.3134229997,0.4931119828,0.2543607528,0.2063856447,0.4865242011,0.2483733768,0.08190524095,0.04560150064,0.05137440444,0.1247202879,0.4571036835,0.1983161392,0.09806709283,0.02854603961,0.02574626276,0.04191774271,0.09546724659,0.1790580132,0.4207004721,0.6993293993,0.5166710703,0.3300934322,0.2162783977,0.05483789998,0.1331345884,0.06812914149,0.03119638984,0.01034902406,0.008358332176,0.0113770996,0.01304348529,0.01890865521,0.01713844248,0.01629198025,0.01547476533,0.01895935425,0.02646180265,0.01351737968,0.01898623508,0.01842169133,0.02138928495,0.03032763165,0.02647314418,0.0460765767,0.07170541359,0.06127691379,0.03538000652,0.03861121561,0.06609873546,0.05914064424,0.04614191918,0.04666980745,0.09104455907,0.3345574636,0.8397898206,0.4680816043,0.4807415802,0.6300411306,0.2952035071,0.4555741398,0.7999152546,0.6503423905,0.8668377629,0.6151762119,0.4636478115,0.4380060984,0.3402406017,0.3657604988,0.5106410992,0.3775185047,0.5393775619,0.726234861,0.5736755432,0.6401027747,0.8412899772,0.642072151,0.6742107037,0.6263935431,0.6100871663,0.5580063207,0.540771013,0.591084714,0.6284557527,0.3972760155,0.3564703177,1,0.9362257744,0.1717014698,0.2963379638,0.5415890134,0.7015405546,0.6226250933,0.6578887758,0.441382576,0.5502615544,0.7106898861,0.5407836858,0.7174329615,0.7116064911,0.65811327,0.6508630495,0.8258267966,0.6900395752,0.6461303588,0.7029943874,0.7658182416,0.8605835724,0.6092331904,0.4989171409,0.7748177578,1,1,NaN,NaN],
	"ap": [NaN,0.4560628475,0.2156771274,0.2254287252,0.3567738907,0.2258002555,0.2898445394,0.3617410921,0.2514335287,0.252762807,0.1710522554,0.2638400633,0.42167019,0.3040699991,0.3978378286,0.2144671966,0.1760813334,0.35965146,0.1446514496,0.3397043385,0.375299572,0.4159096477,0.3769087302,0.692576003,0.4156159667,0.1748931143,0.1834144861,0.4840013352,0.3980193113,0.3932445366,0.1866750226,0.727513902,0.4711657968,0.4702271391,0.4446404077,0.4163781873,0.1014682335,0.2472874966,0.3517500171,0.1957821566,0.400146383,0.3739703505,0.2525086551,0.317766088,0.4224638146,0.1735495108,0.4202213507,0.6359834479,0.3202722781,0.1771189758,0.350731328,0.4173500176,0.548260024,0.3390659148,0.1606909365,0.3775908555,0.1814098256,0.112119494,0.0430090662,0.3858158347,0.06255318337,0.0247754665,0.008309790034,0.01556797629,0.008867062294,0.00970179569,0.003495936957,0.008662905472,0.0058811566,0.0164767401,0.008942962793,0.005432937581,0.003873370383,0.005062636285,0.02544517352,0.243659474,0.241697102,0.03133811121,0.01474399431,0.077779921,0.1153319364,0.07764400207,0.0396290362,0.01553647382,0.1102809001,0.272516593,0.2279784814,0.09281242676,0.1006313452,0.4311493094,0.06272428002,0.04959779414,0.09015744502,0.01244958933,0.02003834048,0.03230976625,0.1617858998,0.1116521803,0.1060176192,0.7219754961,0.4826738479,0.7037743037,0.01601408461,0.12185184,0.003828972799,0.006092336067,0.007544605673,0.006392478443,0.01351440277,0.03765325324,0.01155490396,0.01555125023,0.007381534988,0.01258998076,0.00770041149,0.004551122933,0.01420440454,0.01011873869,0.05633394349,0.414721317,0.2006204856,0.570246994,0.7330758892,0.524921738,0.294260566,0.01196556706,0.07151792027,0.02936786525,0.04912981533,0.03764217971,0.01827316442,0.04841339903,0.008286658816,0.02848256081,0.01039712881,0.003544303308,0.02433496257,0.03477625745,0.1645591317,0.661128105,0.2016895108,0.3888646083,0.6625581578,0.6002430111,0.2759036888,0.009511486789,0.02707698841,0.01075778788,0.08209278314,0.04244330184,0.1278004092,0.1228258601,0.4787139015,0.6496683463,0.564592999,0.4846259444,0.196240479,0.002394531777,0.008141292726,0.007297802686,0.003950139951,0.007465844406,0.01645526267,0.01138780479,0.01898710273,0.004184514356,0.001840045665,0.004165688685,0.0255024121,0.01291456517,0.0361684964,0.06767990574,0.03912126836,0.09306935646,0.2546755941,0.3583423592,0.7204448615,0.3013871352,0.8543958197,0.167388881,0.1171973589,0.2511222231,0.2590818127,0.2348805799,0.3236761024,0.2524675869,0.2257539361,0.06300468525,0.116756698,0.01350567109,0.007161231305,0.0059420988,0.02227496557,0.01182129083,0.03171618663,0.02177197589,0.1504212717,0.07392421267,0.1312362699,0.0159071471,0.1470247844,0.03200325201,0.04457299555,0.006030761773,0.01750540556,0.001622207896,0.00570819584,0.0009544534455,0.001366976961,0.0006531096754,0.009083456837,0.0649431056,0.561831583,0.1701070797,0.1318968712,0.193908602,0.5466474645,0.3501438832,0.1128133744,0.5964531129,0.3700327101,0.1927419372,0.002178227707,0.02120737397,0.003851480874,0.006738483699,0.001402284953,0.001344890492,0.003232497356,0.0008689682759,0.01043461772,0.004033815373,0.009670478943,0.01935894294,0.01625537714,0.01175262007,0.02333893889,0.2922266964,0.5297884103,0.6588524932,0.2996641926,0.1276267162,0.1170802353,0.1026891606,0.020796255,0.03894093908,0.04643429897,0.1393028651,0.04783245608,0.09274854413,0.04560035614,0.0250869358,0.02261592876,0.01083423488,0.04276323113,0.08323159498,0.3717500658,0.3449425825,0.3135117163,0.04013412658,0.106020184,0.09865129036,0.09912831209,0.02501601149,0.03428459962,0.01169373284,0.006890476894,0.009432334872,0.007505385503,0.005873246302,0.006020484968,0.009455895848,0.00741227759,0.01296270322,0.02119666125,0.004502089369,0.01108357268,0.006759391454,0.01196106184,0.04548770051,0.02047828479,0.01312868313,0.03607324532,0.02748069368,0.03719644444,0.01880510838,0.03080280293,0.01728017947,0.007623203617,0.03182454714,0.03513768977,0.2225339903,0.4627447841,0.2660086455,0.2528001186,0.7429556746,0.08206625947,0.4175091391,0.2202747598,0.6067646533,0.4780733265,0.2117947093,0.743618934,0.4056342347,0.04487113795,0.4593945134,0.1149111785,0.08408934752,0.2968314178,0.3813470158,0.2142944031,0.5242449989,0.183603578,0.455682203,0.3195139468,0.3408050521,0.3336312246,0.2232590942,0.2352232974,0.2183128496,0.2696333294,0.221369756,1,1,1,0.4997697154,0.05470862275,0.3915033056,0.3796329976,0.1407376107,0.282657115,0.2249844986,0.3892621425,0.2493996775,0.5000061067,0.3840583268,0.5156951832,0.4302207465,0.2148621234,0.2755356367,0.655173355,0.5000167021,0.5000150438,0.5000013192,0.5535758641,0.2445086812,0.4940759906,1,1,NaN,NaN],
	"pwr": [NaN,4.976785655e-06,1.276789156e-05,6.366487161e-06,1.012863132e-05,7.92179956e-06,3.108592083e-06,7.930524297e-06,5.388084971e-06,5.829467972e-06,1.008348102e-05,8.702960777e-06,7.27084046e-06,3.278450593e-06,7.508339664e-06,1.440604908e-05,1.112061043e-05,2.7676552e-05,4.746836876e-05,8.275205812e-06,2.930780385e-06,2.108184013e-06,4.507609269e-06,1.715222105e-05,4.781965267e-06,1.224405719e-05,7.694017383e-06,8.101528552e-06,1.745570285e-05,1.224949242e-05,6.420558723e-06,4.750992038e-06,4.780215625e-06,8.719091097e-06,5.866323659e-06,1.837546991e-05,9.505744103e-06,1.54237336e-05,1.017764166e-05,2.188494411e-05,4.284345682e-06,1.433315127e-05,4.969245288e-06,1.369632363e-05,9.071211532e-06,2.542058748e-05,5.529612264e-06,9.635657405e-06,3.315611849e-05,1.963219985e-05,2.350208099e-05,6.027758578e-06,3.886358336e-06,1.695748715e-05,0.0002921021397,0.0004673522146,5.379347443e-05,2.641444218e-05,0.0001552575465,0.0002723562917,0.02679819963,0.03725558002,0.0246210187,0.05070725533,0.1093486119,0.1154714482,0.09946525279,0.07995247663,0.04082067992,0.02479504331,0.01637177662,0.01819856843,0.0222501203,0.02148167385,0.01597726411,0.001110338558,1.777569087e-05,0.0002940833042,0.001596997905,0.0041762734,0.008188691479,0.034499722,0.1716109019,0.07115283282,0.008795872652,0.0003338666666,6.308950433e-06,0.0001769396772,0.001176306608,0.0001822026688,0.001126883147,0.001510320252,0.0028386944,0.1302696146,0.08066907582,0.06175554007,0.02695763055,0.02356016295,0.02562456803,0.0004353225758,0.0002805291265,0.0007817947811,0.009108098672,0.05378609495,0.1287846326,0.05669542254,0.03254883108,0.02637206305,0.01582803232,0.0173644065,0.01668521011,0.0158711319,0.01648127965,0.0123189169,0.01685150101,0.01819670998,0.01988726659,0.02204844895,0.005980474504,0.0004213004047,2.489803118e-05,1.232604818e-05,6.245432555e-05,0.003115892519,0.02473450778,0.0477164673,0.01228147184,0.006063965564,0.006381133556,0.005131067432,0.009362769458,0.008057381694,0.01067630887,0.01126733218,0.01424125745,0.01585337585,0.0143297564,0.005488291108,0.000216871574,1.512327799e-05,5.134945612e-06,5.145853217e-06,8.374690923e-05,7.382471756e-05,0.001726395748,0.1222726672,0.03985214045,0.02715654757,0.01469645749,0.00349789889,0.0009105112684,3.742703414e-05,1.726883127e-05,1.339524363e-05,1.963914006e-05,0.003730299977,0.001651924423,0.2037564964,0.1101605199,0.05670861859,0.03253445921,0.01882377838,0.01574320497,0.01090902561,0.01075129817,0.01592757298,0.02234545698,0.02409510449,0.02337686622,0.01737248345,0.01306300442,0.006541171331,0.003169807746,0.001010613657,0.0002348008564,0.0001001691284,0.0002217257264,0.0007625018521,0.001203455623,0.001027193348,0.0004016289203,0.0002922755553,0.0001887430078,1.473083456e-05,3.88849679e-05,0.0001692232847,0.000647091046,0.005954795811,0.003603625416,0.2087973273,0.08342190894,0.03654875938,0.03497423213,0.02507947887,0.04747916244,0.01127809963,0.001165990969,0.0005657768286,0.003211593163,0.009505662562,0.003610761238,0.003011749253,0.002508292141,0.003450151614,0.00334570157,0.004753344147,0.0115473931,0.0193877361,0.01717192712,0.0160770078,0.0153641666,0.005109298631,0.0002447369124,9.744322939e-05,0.0003560736163,0.0002984714415,4.262209315e-05,4.420871847e-05,0.000141088657,0.0003035717326,0.000111098729,0.002534082638,0.2578133218,0.186024499,0.07780108828,0.03430601157,0.02058907014,0.01648359293,0.01916783213,0.02401275428,0.02807700342,0.03231486138,0.0295813895,0.02137506049,0.01978152674,0.01770703494,0.008923120235,0.001958468181,0.002404420615,0.0001113489673,0.001188488779,0.0054754599,0.005473518219,0.00626996709,0.005245954182,0.004709991453,0.002779888176,0.002174107024,0.002034226331,0.005067151734,0.1629871831,0.09488028119,0.0320517946,0.01042850686,0.005317446318,0.002242215051,0.0007677910968,0.002590792737,0.006820036987,0.002595238374,0.0005272168201,0.001145392067,0.003774840969,0.01082583286,0.05220477543,0.06234161091,0.04767972165,0.03469582452,0.01991961046,0.01027600715,0.009830931543,0.01021009432,0.0107662419,0.01167342766,0.006478242969,0.007453742347,0.00937905408,0.008150995506,0.006495808614,0.004240115712,0.003208211944,0.002141297174,0.001015463211,0.001329595914,0.0006684799363,0.0003998950723,0.0003094987834,0.0003661150756,0.0005366558442,0.0006888554302,0.000285453787,5.701577757e-05,5.693433957e-05,8.34043178e-05,0.000118930613,5.960374139e-05,6.604762506e-05,0.0001432325059,5.009735698e-05,5.160338352e-05,5.267160037e-05,3.136252186e-05,1.282555599e-05,1.228168156e-05,7.089227065e-05,5.267061625e-05,3.061629546e-05,2.537289735e-05,3.590548959e-05,6.949794847e-06,7.671040101e-06,6.188147292e-06,1.281602435e-05,1.831880296e-05,1.168519358e-05,9.339454034e-06,6.335406407e-06,1.484918203e-05,5.592080379e-06,7.165092586e-06,8.963676912e-07,1.279914973e-07,0,0,0,8.148845414e-11,7.346819114e-09,4.724469539e-09,1.594659384e-09,1.088630515e-09,4.465061395e-10,1.95622841e-10,5.478368086e-10,3.001783505e-11,9.090104987e-12,1.571753463e-10,4.344786118e-10,5.549786344e-10,1.84537845e-10,1.999772399e-11,2.805188478e-11,0,3.68986757e-12,4.207782717e-11,2.843560778e-11,1.352141063e-10,2.87322922e-10,0,0,NaN,NaN],
	"sr": 16000,
	"range": [1,112384],
	"minf0": 63.1883,
	"maxf0": 706.3069,
	"thresh": 0.1,
	"relflag": 1,
	"hop": 320,
	"bufsize": 10000,
	"wsize": 640,
	"lpf": 4000,
	"shift": 0,
	"plotthreshold": 0.2
}
