{
    "f0": [
        0.0,
        0.0,
        0.0,
        0.0,
        0.0,
        0.0,
        0.0,
        49.974379771542161,
        40.242547327261853,
        53.573468120040722,
        53.745731311930768,
        46.689264641432651,
        55.850892825845037,
        58.723739074715638,
        45.909063214799069,
        48.217900070962642,
        48.164283998405736,
        48.543503936972456,
        53.895505118578825,
        44.631374845434408,
        38.258968764191771,
        44.642377637496949,
        44.708853119687952,
        55.139420132122304,
        54.881837224501695,
        54.620365338812505,
        54.354883660330408,
        55.094034180608624,
        55.895693921406526,
        56.090230577482593,
        56.040306573097084,
        54.571351190193411,
        54.101659959368831,
        53.723353355445404,
        53.645786488673352,
        52.427321624430135,
        55.213219401108347,
        54.826859633851541,
        54.534482987391925,
        54.299057365467419,
        54.371823859134331,
        54.571309721172597,
        54.178525544937543,
        54.697943352018925,
        54.996338364279069,
        55.309080069298446,
        55.616273663882318,
        55.590668067631704,
        55.62819791521077,
        55.605547622013788,
        55.433889310244965,
        55.553890799008769,
        55.533521728764626,
        54.447812082262104,
        0.0,
        0.0,
        0.0,
        0.0,
        45.999017247045821,
        55.404636700557951,
        54.424900160180371,
        53.536894677501238,
        53.362900749918659,
        52.978693969858924,
        53.035529596981767,
        53.460286245868204,
        54.038975669420509,
        54.345702582289931,
        54.387426592110032,
        54.555916133973696,
        55.002906320663513,
        54.775314518374273,
        54.950899641276436,
        54.740082738955266,
        54.526664170507708,
        54.822310748128785,
        54.911804344769145,
        54.573888941436259,
        54.229243461186577,
        54.389336680237527,
        53.690462588427422,
        53.537201197390829,
        53.939542234688275,
        53.570959354378218,
        53.400069347995924,
        53.325525887064167,
        53.250661534270925,
        53.001475460212291,
        52.83714996832672,
        51.964527460061042,
        55.047569252217599,
        55.001901007873208,
        54.502535920789718,
        54.7351812020176,
        54.572493722244829,
        54.604953245167664,
        54.623536401151355,
        54.589328702173972,
        54.776546120439718,
        54.78182220888462,
        55.55627289080897,
        55.58359486376871,
        57.441729611747199,
        0.0,
        0.0,
        44.931681826800222,
        0.0,
        0.0,
        0.0,
        41.881668186692657,
        42.512008458073709,
        36.981927710123685,
        54.770279554573271,
        52.968272617838153,
        52.33881521574029,
        51.685606818443688,
        52.015551865292679,
        53.024160478298654,
        52.768518392296755,
        52.966955476474389,
        53.097170067966786,
        53.085188058546159,
        53.073200712375922,
        52.887204664336338,
        53.140050596008741,
        52.883740156056135,
        52.788077293445767,
        54.044256404977695,
        53.672287562788682,
        52.637859553152069,
        52.874543016737555,
        53.220331176935552,
        53.182272739884695,
        53.102010522618613,
        53.721549707457555,
        54.197434929902634,
        54.013482729052278,
        54.493815918954105,
        54.197011366055278,
        54.173803053222329,
        54.011549327129771,
        55.438564093618517,
        55.488436593828752,
        55.832414481594114,
        58.890050532077076,
        58.993013083904259,
        59.673625264991394,
        60.395335191484527,
        60.16807221434081,
        59.202284978059623,
        59.8352796446014,
        60.092227948622572,
        59.632607069145564,
        59.510611311461425,
        59.555140447169677,
        59.655374881537597,
        59.577107112516288,
        59.76630910002784,
        59.848713688811287,
        59.855872735289594,
        59.863026821628303,
        59.870182019747247,
        59.703335643692853,
        59.75048164851605,
        59.759184575244696,
        59.858151190887369,
        60.083990381107704,
        59.356129058604871,
        58.013108963967284,
        57.885468810027,
        56.393747674216115,
        54.028734584014551,
        53.067030596811307,
        52.221010542058302,
        52.108122656982829,
        52.16295022404578,
        51.457251722203864,
        51.693418340236889,
        51.158124530147518,
        50.882580222469151,
        50.805289627255235,
        50.983416738540498,
        51.411618003221477,
        51.593640751294345,
        51.069305670744527,
        50.803426204630469,
        50.56662853348756,
        50.262741644564144,
        50.328762540712674,
        50.723597997430375,
        51.461237090341072,
        51.112844997785594,
        50.407542673610919,
        43.129008525099295,
        55.659062012972356,
        42.710900665231975,
        53.53061477539908,
        57.115559244143654,
        45.114655118613904,
        60.406351566758531,
        0.0,
        50.174368549159269,
        50.000372228420062,
        44.080787129187513,
        55.596964919709734,
        53.75281139993659,
        52.542359327633463,
        50.25854502597717,
        46.135319680196943,
        53.376871258356061,
        52.446073139921971,
        57.359267123976721,
        54.514376236990941,
        55.026030056577973,
        55.786273194048022,
        54.973488165406394,
        53.593334803044819,
        53.39183334299193,
        53.055030667163187,
        49.452540752614908,
        45.742641857177773,
        38.78988853548455,
        38.995850926507529,
        58.578003618914181,
        45.985722708066078,
        43.641556904255388,
        42.066870887591996,
        42.992357123247039,
        50.032294002837389,
        50.266671487884224,
        38.435993625874438,
        37.65964242298142,
        35.386056059777964,
        52.826647643751052,
        50.714528384256468,
        50.434695299660369,
        50.493094734087286,
        51.38707057520439,
        0.0,
        0.0,
        0.0,
        0.0,
        0.0,
        61.148047648630829,
        44.678798660274552,
        56.751233861752134,
        43.360613469933107,
        54.272698121472679,
        57.478410495163807,
        44.604906827803482,
        47.356298765020547,
        41.367443753485524,
        44.82776031390852,
        41.661525820967952,
        42.448250345591205,
        42.305235869332805,
        40.712277731637172,
        37.636464330943028,
        38.004914314518778,
        38.28186679225783,
        36.494658639664621,
        36.868538753379674,
        35.939417671295637,
        34.957589255727193,
        57.677617070739075,
        42.735605434374577,
        54.679422030016767,
        54.476866909683118,
        58.966644158999884,
        55.941805210826445,
        57.347439896125323,
        56.563297806096116,
        44.885147365975293,
        45.159920918938099,
        45.942141613582478,
        46.447378947966513,
        45.306888416203961,
        44.962436984126867,
        45.745453156052179,
        45.60657414264017,
        57.491187473604725,
        57.271327834152061,
        57.220906136211049,
        58.101105664211566,
        58.272206377622638,
        58.947113326515691,
        59.866832714908675,
        59.905523765585698,
        60.708370796948323,
        60.586959373416377,
        60.248274375501154,
        59.486236592022095,
        43.994914010386374,
        44.202927526566434,
        44.751299562849155,
        44.055450298378439,
        0.0,
        0.0,
        54.825831733037809,
        54.998092159547021,
        47.963653760169876,
        59.435721273645882,
        58.908400562021349,
        39.720207113003958,
        39.194499459440962,
        58.234997580056287,
        58.164244317866377,
        46.612899261732494,
        39.562952098826145,
        47.404744052250877,
        59.580547035687339,
        59.888115963370915,
        59.823438785428387,
        59.871211444740823,
        59.861972430255356,
        59.679201156450326,
        59.408392928610994,
        59.688799337657329,
        60.113994435463042,
        43.77297003807611,
        46.760048768183836,
        42.681473096119447,
        45.163894069527643,
        41.55617189259128,
        60.758664582893104,
        60.823453419609599,
        60.538244654828475,
        60.516395837720772,
        60.533066035164609,
        60.355629635227402,
        60.28329646950305,
        60.214751026539915,
        60.143880495898934,
        59.865200567462786,
        59.581961114709529,
        59.632821535586643,
        59.764206817838726,
        59.89460250794609,
        59.850029607318888,
        59.599898412489239,
        59.346103401393307,
        58.026482023135934,
        54.933587472648242,
        54.440897890229621,
        45.53393215464753,
        45.416301605111158,
        45.470130807411081,
        44.281603017323164,
        41.376468559782722,
        47.061904544565628,
        46.607865304153876,
        58.426052227494907,
        58.435355044860415,
        58.806244241309486,
        59.169351946565484,
        59.462592018490753,
        59.526857652946624,
        59.35312111237041,
        58.549277295014974,
        58.038976375538709,
        57.685328436301333,
        57.32430667146734,
        57.972530361362132,
        58.205709376636563,
        57.56813300891362,
        57.355520889899651,
        53.500193816181984,
        0.0,
        0.0,
        0.0,
        47.760595343327381,
        47.58659871917795,
        39.021807169248,
        44.860547668787007,
        45.032803487251421,
        45.9869000185207,
        46.05075195642911,
        45.841259193639473,
        45.629202598661223,
        45.643348538148736,
        45.47316526907322,
        45.301296004409963,
        44.953708077410369,
        45.367013480928108,
        45.39649151701299,
        45.403612444933032,
        57.479977890134251,
        57.637501537389404,
        57.727461219372245,
        57.849890406573138,
        57.78112144667648,
        57.785718858810689,
        57.276300149779374,
        57.356527771411905,
        57.517915865868488,
        57.665194178310699,
        57.64349555602174,
        57.784707904400868,
        57.706610523044439,
        57.883452776396311,
        58.143763941778154,
        58.358275256754148,
        58.24113029217753,
        58.758995533882363,
        56.904416131285188,
        56.014559605865557,
        44.748993568590365,
        46.284767718162783,
        48.39063878388032,
        49.071426541809174,
        49.015319163250673,
        48.140579660850065,
        44.895621654822037,
        44.009875002625144,
        42.564105914277192,
        38.88188944936411,
        0.0,
        0.0,
        0.0,
        0.0,
        0.0,
        0.0,
        0.0,
        0.0,
        0.0,
        0.0,
        0.0,
        0.0,
        0.0,
        0.0,
        0.0,
        0.0,
        0.0,
        0.0,
        0.0,
        0.0,
        0.0,
        0.0,
        0.0,
        0.0,
        0.0,
        0.0,
        0.0,
        0.0,
        0.0
    ],
    "time": [
        0.02,
        0.040000000000000001,
        0.059999999999999998,
        0.080000000000000002,
        0.10000000000000001,
        0.12,
        0.14000000000000001,
        0.16,
        0.17999999999999999,
        0.20000000000000001,
        0.22,
        0.23999999999999999,
        0.26000000000000001,
        0.28000000000000003,
        0.29999999999999999,
        0.32000000000000001,
        0.34000000000000002,
        0.35999999999999999,
        0.38,
        0.40000000000000002,
        0.41999999999999998,
        0.44,
        0.46000000000000002,
        0.47999999999999998,
        0.5,
        0.52000000000000002,
        0.54000000000000004,
        0.56000000000000005,
        0.57999999999999996,
        0.59999999999999998,
        0.62,
        0.64000000000000001,
        0.66000000000000003,
        0.68000000000000005,
        0.69999999999999996,
        0.71999999999999997,
        0.73999999999999999,
        0.76000000000000001,
        0.78000000000000003,
        0.80000000000000004,
        0.81999999999999995,
        0.83999999999999997,
        0.85999999999999999,
        0.88,
        0.90000000000000002,
        0.92000000000000004,
        0.93999999999999995,
        0.95999999999999996,
        0.97999999999999998,
        1.0,
        1.02,
        1.04,
        1.0600000000000001,
        1.0800000000000001,
        1.1000000000000001,
        1.1200000000000001,
        1.1399999999999999,
        1.1599999999999999,
        1.1799999999999999,
        1.2,
        1.22,
        1.24,
        1.26,
        1.28,
        1.3,
        1.3200000000000001,
        1.3400000000000001,
        1.3600000000000001,
        1.3799999999999999,
        1.3999999999999999,
        1.4199999999999999,
        1.4399999999999999,
        1.46,
        1.48,
        1.5,
        1.52,
        1.54,
        1.5600000000000001,
        1.5800000000000001,
        1.6000000000000001,
        1.6200000000000001,
        1.6399999999999999,
        1.6599999999999999,
        1.6799999999999999,
        1.7,
        1.72,
        1.74,
        1.76,
        1.78,
        1.8,
        1.8200000000000001,
        1.8400000000000001,
        1.8600000000000001,
        1.8799999999999999,
        1.8999999999999999,
        1.9199999999999999,
        1.9399999999999999,
        1.96,
        1.98,
        2.0,
        2.02,
        2.04,
        2.0600000000000001,
        2.0800000000000001,
        2.1000000000000001,
        2.1200000000000001,
        2.1400000000000001,
        2.1600000000000001,
        2.1800000000000002,
        2.2000000000000002,
        2.2200000000000002,
        2.2400000000000002,
        2.2599999999999998,
        2.2799999999999998,
        2.2999999999999998,
        2.3199999999999998,
        2.3399999999999999,
        2.3599999999999999,
        2.3799999999999999,
        2.3999999999999999,
        2.4199999999999999,
        2.4399999999999999,
        2.46,
        2.48,
        2.5,
        2.52,
        2.54,
        2.5600000000000001,
        2.5800000000000001,
        2.6000000000000001,
        2.6200000000000001,
        2.6400000000000001,
        2.6600000000000001,
        2.6800000000000002,
        2.7000000000000002,
        2.7200000000000002,
        2.7400000000000002,
        2.7599999999999998,
        2.7799999999999998,
        2.7999999999999998,
        2.8199999999999998,
        2.8399999999999999,
        2.8599999999999999,
        2.8799999999999999,
        2.8999999999999999,
        2.9199999999999999,
        2.9399999999999999,
        2.96,
        2.98,
        3.0,
        3.02,
        3.04,
        3.0600000000000001,
        3.0800000000000001,
        3.1000000000000001,
        3.1200000000000001,
        3.1400000000000001,
        3.1600000000000001,
        3.1800000000000002,
        3.2000000000000002,
        3.2200000000000002,
        3.2400000000000002,
        3.2599999999999998,
        3.2799999999999998,
        3.2999999999999998,
        3.3199999999999998,
        3.3399999999999999,
        3.3599999999999999,
        3.3799999999999999,
        3.3999999999999999,
        3.4199999999999999,
        3.4399999999999999,
        3.46,
        3.48,
        3.5,
        3.52,
        3.54,
        3.5600000000000001,
        3.5800000000000001,
        3.6000000000000001,
        3.6200000000000001,
        3.6400000000000001,
        3.6600000000000001,
        3.6800000000000002,
        3.7000000000000002,
        3.7200000000000002,
        3.7400000000000002,
        3.7599999999999998,
        3.7799999999999998,
        3.7999999999999998,
        3.8199999999999998,
        3.8399999999999999,
        3.8599999999999999,
        3.8799999999999999,
        3.8999999999999999,
        3.9199999999999999,
        3.9399999999999999,
        3.96,
        3.98,
        4.0,
        4.0199999999999996,
        4.04,
        4.0599999999999996,
        4.0800000000000001,
        4.0999999999999996,
        4.1200000000000001,
        4.1399999999999997,
        4.1600000000000001,
        4.1799999999999997,
        4.2000000000000002,
        4.2199999999999998,
        4.2400000000000002,
        4.2599999999999998,
        4.2800000000000002,
        4.2999999999999998,
        4.3200000000000003,
        4.3399999999999999,
        4.3600000000000003,
        4.3799999999999999,
        4.4000000000000004,
        4.4199999999999999,
        4.4400000000000004,
        4.46,
        4.4800000000000004,
        4.5,
        4.5199999999999996,
        4.54,
        4.5599999999999996,
        4.5800000000000001,
        4.5999999999999996,
        4.6200000000000001,
        4.6399999999999997,
        4.6600000000000001,
        4.6799999999999997,
        4.7000000000000002,
        4.7199999999999998,
        4.7400000000000002,
        4.7599999999999998,
        4.7800000000000002,
        4.7999999999999998,
        4.8200000000000003,
        4.8399999999999999,
        4.8600000000000003,
        4.8799999999999999,
        4.9000000000000004,
        4.9199999999999999,
        4.9400000000000004,
        4.96,
        4.9800000000000004,
        5.0,
        5.0199999999999996,
        5.04,
        5.0599999999999996,
        5.0800000000000001,
        5.0999999999999996,
        5.1200000000000001,
        5.1399999999999997,
        5.1600000000000001,
        5.1799999999999997,
        5.2000000000000002,
        5.2199999999999998,
        5.2400000000000002,
        5.2599999999999998,
        5.2800000000000002,
        5.2999999999999998,
        5.3200000000000003,
        5.3399999999999999,
        5.3600000000000003,
        5.3799999999999999,
        5.4000000000000004,
        5.4199999999999999,
        5.4400000000000004,
        5.46,
        5.4800000000000004,
        5.5,
        5.5199999999999996,
        5.54,
        5.5599999999999996,
        5.5800000000000001,
        5.5999999999999996,
        5.6200000000000001,
        5.6399999999999997,
        5.6600000000000001,
        5.6799999999999997,
        5.7000000000000002,
        5.7199999999999998,
        5.7400000000000002,
        5.7599999999999998,
        5.7800000000000002,
        5.7999999999999998,
        5.8200000000000003,
        5.8399999999999999,
        5.8600000000000003,
        5.8799999999999999,
        5.9000000000000004,
        5.9199999999999999,
        5.9400000000000004,
        5.96,
        5.9800000000000004,
        6.0,
        6.0199999999999996,
        6.04,
        6.0599999999999996,
        6.0800000000000001,
        6.0999999999999996,
        6.1200000000000001,
        6.1399999999999997,
        6.1600000000000001,
        6.1799999999999997,
        6.2000000000000002,
        6.2199999999999998,
        6.2400000000000002,
        6.2599999999999998,
        6.2800000000000002,
        6.2999999999999998,
        6.3200000000000003,
        6.3399999999999999,
        6.3600000000000003,
        6.3799999999999999,
        6.4000000000000004,
        6.4199999999999999,
        6.4400000000000004,
        6.46,
        6.4800000000000004,
        6.5,
        6.5199999999999996,
        6.54,
        6.5599999999999996,
        6.5800000000000001,
        6.5999999999999996,
        6.6200000000000001,
        6.6399999999999997,
        6.6600000000000001,
        6.6799999999999997,
        6.7000000000000002,
        6.7199999999999998,
        6.7400000000000002,
        6.7599999999999998,
        6.7800000000000002,
        6.7999999999999998,
        6.8200000000000003,
        6.8399999999999999,
        6.8600000000000003,
        6.8799999999999999,
        6.9000000000000004,
        6.9199999999999999,
        6.9400000000000004,
        6.96,
        6.9800000000000004,
        7.0,
        7.0199999999999996,
        7.04,
        7.0599999999999996,
        7.0800000000000001,
        7.0999999999999996,
        7.1200000000000001,
        7.1399999999999997,
        7.1600000000000001,
        7.1799999999999997,
        7.2000000000000002,
        7.2199999999999998,
        7.2400000000000002,
        7.2599999999999998,
        7.2800000000000002,
        7.2999999999999998,
        7.3200000000000003,
        7.3399999999999999,
        7.3600000000000003,
        7.3799999999999999,
        7.4000000000000004,
        7.4199999999999999,
        7.4400000000000004,
        7.46,
        7.4800000000000004,
        7.5,
        7.5199999999999996,
        7.54,
        7.5599999999999996,
        7.5800000000000001,
        7.5999999999999996,
        7.6200000000000001,
        7.6399999999999997,
        7.6600000000000001,
        7.6799999999999997,
        7.7000000000000002,
        7.7199999999999998,
        7.7400000000000002,
        7.7599999999999998,
        7.7800000000000002,
        7.7999999999999998,
        7.8200000000000003,
        7.8399999999999999,
        7.8600000000000003,
        7.8799999999999999,
        7.9000000000000004,
        7.9199999999999999,
        7.9400000000000004,
        7.96,
        7.9800000000000004,
        8.0,
        8.0199999999999996,
        8.0399999999999991,
        8.0600000000000005,
        8.0800000000000001,
        8.0999999999999996,
        8.1199999999999992,
        8.1400000000000006,
        8.1600000000000001,
        8.1799999999999997,
        8.1999999999999993,
        8.2200000000000006,
        8.2400000000000002,
        8.2599999999999998,
        8.2799999999999994,
        8.3000000000000007,
        8.3200000000000003,
        8.3399999999999999,
        8.3599999999999994,
        8.3800000000000008,
        8.4000000000000004,
        8.4199999999999999,
        8.4399999999999995,
        8.4600000000000009,
        8.4800000000000004,
        8.5,
        8.5199999999999996,
        8.5399999999999991,
        8.5600000000000005,
        8.5800000000000001,
        8.5999999999999996,
        8.6199999999999992,
        8.6400000000000006,
        8.6600000000000001,
        8.6799999999999997,
        8.6999999999999993,
        8.7200000000000006,
        8.7400000000000002,
        8.7599999999999998,
        8.7799999999999994,
        8.8000000000000007,
        8.8200000000000003,
        8.8399999999999999,
        8.8599999999999994,
        8.8800000000000008,
        8.9000000000000004
    ]
}