{
    "DU": 168,
    "DV": 311,
    "F-measure": 0.6523809523809524,
    "F-measure Chroma": 0.780952380952381,
    "FN": 81,
    "FNC": 0,
    "FNCch": 23,
    "FNI": 81,
    "FNIch": 58,
    "FP": 37,
    "GU": 124,
    "GV": 355,
    "Overall Accuracy": 0.5720250521920668,
    "Overall Chroma Accuracy": 0.6847599164926931,
    "Precision": 0.6884422110552764,
    "Precision Chroma": 0.8241206030150754,
    "Raw Chroma Accuracy": 0.7436619718309859,
    "Raw Pitch Accuracy": 0.5267605633802817,
    "Recall": 0.6199095022624435,
    "Recall Chroma": 0.7420814479638009,
    "TN": 87,
    "TO": 479,
    "TP": 274,
    "TPC": 187,
    "TPCch": 241,
    "TPI": 87,
    "TPIch": 33,
    "Voiced Chroma Accuracy": 0.6788732394366197,
    "Voiced Pitch Accuracy": 0.5267605633802817,
    "Voicing Accuracy": 0.7536534446764092,
    "Voicing Detection": 0.7718309859154929,
    "Voicing False Alarm": 0.29838709677419356
}