{
    "DU": 25,
    "DV": 383,
    "F-measure": 0.4901960784313726,
    "F-measure Chroma": 0.6722689075630253,
    "FN": 7,
    "FNC": 0,
    "FNCch": 4,
    "FNI": 7,
    "FNIch": 3,
    "FP": 95,
    "GU": 113,
    "GV": 295,
    "Overall Accuracy": 0.42892156862745096,
    "Overall Chroma Accuracy": 0.5882352941176471,
    "Precision": 0.43640897755610975,
    "Precision Chroma": 0.5985037406483791,
    "Raw Chroma Accuracy": 0.7661016949152543,
    "Raw Pitch Accuracy": 0.5322033898305085,
    "Recall": 0.5591054313099042,
    "Recall Chroma": 0.7667731629392971,
    "TN": 18,
    "TO": 408,
    "TP": 288,
    "TPC": 157,
    "TPCch": 222,
    "TPI": 131,
    "TPIch": 66,
    "Voiced Chroma Accuracy": 0.752542372881356,
    "Voiced Pitch Accuracy": 0.5322033898305085,
    "Voicing Accuracy": 0.75,
    "Voicing Detection": 0.976271186440678,
    "Voicing False Alarm": 0.8407079646017699
}