{
    "DU": 243,
    "DV": 149,
    "F-measure": 0.7793696275071632,
    "F-measure Chroma": 0.8567335243553009,
    "FN": 72,
    "FNC": 28,
    "FNCch": 43,
    "FNI": 44,
    "FNIch": 29,
    "FP": 14,
    "GU": 185,
    "GV": 207,
    "Overall Accuracy": 0.6938775510204082,
    "Overall Chroma Accuracy": 0.7627551020408163,
    "Precision": 0.85,
    "Precision Chroma": 0.934375,
    "Raw Chroma Accuracy": 0.8260869565217391,
    "Raw Pitch Accuracy": 0.6231884057971014,
    "Recall": 0.7195767195767195,
    "Recall Chroma": 0.791005291005291,
    "TN": 171,
    "TO": 392,
    "TP": 135,
    "TPC": 101,
    "TPCch": 128,
    "TPI": 34,
    "TPIch": 7,
    "Voiced Chroma Accuracy": 0.6183574879227053,
    "Voiced Pitch Accuracy": 0.48792270531400966,
    "Voicing Accuracy": 0.7806122448979592,
    "Voicing Detection": 0.6521739130434783,
    "Voicing False Alarm": 0.07567567567567568
}