{
    "f0": [
        0.0,
        0.0,
        0.0,
        0.0,
        0.0,
        41.167937362940854,
        53.680439296956635,
        53.680434912003697,
        51.357448775318417,
        53.13443866886815,
        53.302548658796013,
        53.469042014200426,
        54.642720199989313,
        56.120482188411387,
        56.601273961820269,
        53.784171480041266,
        52.986362837720982,
        47.331931379820034,
        57.52781512064287,
        42.028355268537496,
        42.854104538629855,
        39.873954416018179,
        41.237381029228828,
        40.464042928531477,
        43.269776499532554,
        44.795570549603767,
        46.785109431246326,
        46.617091746714372,
        43.798469646921873,
        43.757657061158866,
        41.627563041152307,
        40.385166922726647,
        0.0,
        0.0,
        0.0,
        42.461949279794091,
        40.395037961781846,
        42.244451452667008,
        42.589902776466715,
        42.650788093407726,
        42.175143230528796,
        42.443653956102082,
        40.051160117332287,
        44.953456374512427,
        43.060329489275787,
        42.830311634876004,
        42.620263313497347,
        42.261547934739802,
        42.041676780417205,
        41.324633530887262,
        41.747972939353502,
        38.736377084507382,
        0.0,
        0.0,
        0.0,
        0.0,
        0.0,
        50.065626739745525,
        50.744637460413543,
        50.846401560019167,
        50.947569408729706,
        51.04815449156029,
        51.016745534505375,
        51.348292580531272,
        52.086936190442792,
        52.545821474426759,
        52.940896906492043,
        52.920712103897564,
        53.158020657388818,
        53.392123250689629,
        53.27334571621148,
        53.617450731889555,
        53.619509003593222,
        53.262708406626615,
        53.454603350552716,
        52.919740963018654,
        53.527416026750245,
        53.804504223831785,
        53.168482795186208,
        53.295023192205804,
        53.237928776518793,
        53.248186081633122,
        53.259176616188412,
        53.037197794807014,
        52.92706978849742,
        52.930856820351551,
        52.961696540848415,
        53.490712681289736,
        53.236670721584332,
        53.23160364090252,
        53.27284388496652,
        53.421892943069835,
        55.200827219856166,
        56.089855940870365,
        42.653440750146835,
        43.195568054384509,
        42.558080108596478,
        42.342817570564172,
        42.193319223181774,
        42.627785210623934,
        43.963566351763603,
        43.897124779688475,
        40.322289793163918,
        51.324256744379582,
        51.875323429638129,
        51.521378498845564,
        52.081513068253699,
        53.204770052439869,
        52.59501631824628,
        53.308375373740319,
        53.384271056505725,
        53.45983402319721,
        55.902015140791079,
        56.685929889119684,
        37.32191796290779,
        0.0,
        0.0,
        0.0,
        0.0,
        40.510963512166157,
        51.762577362530266,
        51.588581169756594,
        51.268020766827703,
        51.091422624650946,
        50.777315853305083,
        50.526643588128593,
        50.409459789683893,
        50.048562999029016,
        49.95346673494597,
        49.794965583020698,
        49.634999993439095,
        49.299545496264905,
        49.558148290242229,
        49.676428496106297,
        49.512081695950485,
        49.620845974325462,
        49.431015128041899,
        49.684728320959017,
        49.762044669186089,
        49.839017259764233,
        49.741653118377855,
        49.643738425589952,
        49.717529434057433,
        49.874942075071495,
        49.815398031014993,
        49.454256424352096,
        49.412280966028447,
        49.331599278570756,
        48.920187231277708,
        48.537761175545612,
        48.146696084504313,
        48.08521222091359,
        47.680427162686385,
        47.954224912592096,
        48.084386212651054,
        48.108889988117056,
        48.185706390290065,
        47.708823847075564,
        48.264110781699713,
        47.725922486915749,
        47.982439362751244,
        47.991242587276083,
        47.772636876067466,
        47.745853026510389,
        47.44784578825751,
        47.799054405699366,
        47.678398826284671,
        47.645982783435542,
        47.741202478680833,
        48.036671005261297,
        48.002353366956548,
        47.585013339229015,
        47.15736254911485,
        47.061713834528689,
        45.90599816326332,
        0.0,
        0.0,
        0.0,
        0.0,
        0.0,
        48.995280950268388,
        47.952202127574964,
        47.658056891520978,
        47.65805891628662,
        47.600698226714925,
        47.688377917860919,
        47.58744150314115,
        47.683199849084303,
        47.778428363743636,
        48.045406444167227,
        48.439636231550161,
        47.907085188758344,
        46.408128901706995,
        0.0,
        0.0,
        0.0,
        0.0,
        0.0,
        0.0,
        0.0,
        0.0,
        0.0,
        40.616586463029563,
        41.749766526044951,
        35.985372325638814,
        35.926974636912263,
        47.625445825409493,
        47.66474960827901,
        35.6596694748498,
        35.688912320885308,
        35.387420369155592,
        35.508925625270649,
        35.69885249727318,
        35.928262161358404,
        36.159970714982784,
        35.785481662896714,
        34.514706201131325,
        0.0,
        0.0,
        0.0,
        0.0,
        40.82369053817677,
        48.581570717258714,
        42.867893659414683,
        49.090533125583939,
        48.202528260762733,
        47.849711884303687,
        47.489558448881937,
        47.966421901978386,
        48.13234708033113,
        47.917684027269686,
        48.169206158470757,
        48.255299982895821,
        48.593932790324992,
        49.481456280892445,
        49.821246831460769,
        49.697023198780997,
        49.670136271783782,
        49.766345085104788,
        49.010012722106389,
        48.731734754556548,
        0.0,
        0.0,
        0.0,
        0.0,
        49.916970744811067,
        49.567215123977675,
        49.604374185459733,
        49.641453659840508,
        49.467460030874761,
        49.478488015468088,
        49.350249157739668,
        49.415059619258528,
        49.757544224223963,
        49.783660119093447,
        49.880642103836479,
        49.845048671249373,
        49.837352034450269,
        49.987929116598934,
        49.726045442888804,
        49.664350030720612,
        49.843093481893206,
        49.869513880568732,
        49.797197374149157,
        50.004957337745601,
        49.845032372968809,
        49.808579601752896,
        49.88181051805293,
        49.816960033317216,
        49.751867385269321,
        49.705763368301902,
        49.697070833572617,
        49.803647395090223,
        49.884755659408718,
        49.965482158798451,
        49.796687739386343,
        49.699897369852096,
        49.949961310345188,
        50.00155051020306,
        49.800672082105557,
        49.849510016239137,
        49.880663829794926,
        49.570763851527538,
        49.58459764304051,
        49.84208403520654,
        49.976165168370244,
        50.109217599043589,
        49.891491716869012,
        49.65484380634112,
        49.595363608525226,
        49.445373468742247,
        50.018687717396119,
        49.661123194086201,
        49.877393706913864,
        49.90206667739065,
        49.671539000644202,
        49.275465230431926,
        48.779451317360035,
        45.751128185488447,
        43.677398179686428,
        43.11668039489301,
        41.141950368011166,
        42.298421687196829,
        41.325974139788642,
        42.409958685216161,
        45.558388148165193,
        46.991026738022981,
        48.545173212222039,
        52.833692144966875,
        44.153419974980181,
        65.200142256313626,
        64.215651412018332,
        64.528189804529092,
        58.403238733405075,
        48.132447289819595,
        51.823096462646667,
        40.942741266439242,
        59.167777742640659,
        52.139927749233976,
        52.77819480788181,
        53.535053906124503,
        51.97528183373133,
        52.696262146194641,
        51.692690637182828,
        0.0,
        0.0,
        0.0,
        0.0,
        0.0,
        0.0,
        0.0,
        0.0,
        0.0,
        0.0,
        0.0,
        0.0,
        0.0,
        0.0,
        0.0,
        0.0,
        0.0,
        0.0,
        0.0,
        0.0,
        0.0,
        0.0,
        0.0,
        0.0,
        0.0,
        0.0,
        0.0,
        0.0,
        0.0,
        0.0
    ],
    "time": [
        0.02,
        0.040000000000000001,
        0.059999999999999998,
        0.080000000000000002,
        0.10000000000000001,
        0.12,
        0.14000000000000001,
        0.16,
        0.17999999999999999,
        0.20000000000000001,
        0.22,
        0.23999999999999999,
        0.26000000000000001,
        0.28000000000000003,
        0.29999999999999999,
        0.32000000000000001,
        0.34000000000000002,
        0.35999999999999999,
        0.38,
        0.40000000000000002,
        0.41999999999999998,
        0.44,
        0.46000000000000002,
        0.47999999999999998,
        0.5,
        0.52000000000000002,
        0.54000000000000004,
        0.56000000000000005,
        0.57999999999999996,
        0.59999999999999998,
        0.62,
        0.64000000000000001,
        0.66000000000000003,
        0.68000000000000005,
        0.69999999999999996,
        0.71999999999999997,
        0.73999999999999999,
        0.76000000000000001,
        0.78000000000000003,
        0.80000000000000004,
        0.81999999999999995,
        0.83999999999999997,
        0.85999999999999999,
        0.88,
        0.90000000000000002,
        0.92000000000000004,
        0.93999999999999995,
        0.95999999999999996,
        0.97999999999999998,
        1.0,
        1.02,
        1.04,
        1.0600000000000001,
        1.0800000000000001,
        1.1000000000000001,
        1.1200000000000001,
        1.1399999999999999,
        1.1599999999999999,
        1.1799999999999999,
        1.2,
        1.22,
        1.24,
        1.26,
        1.28,
        1.3,
        1.3200000000000001,
        1.3400000000000001,
        1.3600000000000001,
        1.3799999999999999,
        1.3999999999999999,
        1.4199999999999999,
        1.4399999999999999,
        1.46,
        1.48,
        1.5,
        1.52,
        1.54,
        1.5600000000000001,
        1.5800000000000001,
        1.6000000000000001,
        1.6200000000000001,
        1.6399999999999999,
        1.6599999999999999,
        1.6799999999999999,
        1.7,
        1.72,
        1.74,
        1.76,
        1.78,
        1.8,
        1.8200000000000001,
        1.8400000000000001,
        1.8600000000000001,
        1.8799999999999999,
        1.8999999999999999,
        1.9199999999999999,
        1.9399999999999999,
        1.96,
        1.98,
        2.0,
        2.02,
        2.04,
        2.0600000000000001,
        2.0800000000000001,
        2.1000000000000001,
        2.1200000000000001,
        2.1400000000000001,
        2.1600000000000001,
        2.1800000000000002,
        2.2000000000000002,
        2.2200000000000002,
        2.2400000000000002,
        2.2599999999999998,
        2.2799999999999998,
        2.2999999999999998,
        2.3199999999999998,
        2.3399999999999999,
        2.3599999999999999,
        2.3799999999999999,
        2.3999999999999999,
        2.4199999999999999,
        2.4399999999999999,
        2.46,
        2.48,
        2.5,
        2.52,
        2.54,
        2.5600000000000001,
        2.5800000000000001,
        2.6000000000000001,
        2.6200000000000001,
        2.6400000000000001,
        2.6600000000000001,
        2.6800000000000002,
        2.7000000000000002,
        2.7200000000000002,
        2.7400000000000002,
        2.7599999999999998,
        2.7799999999999998,
        2.7999999999999998,
        2.8199999999999998,
        2.8399999999999999,
        2.8599999999999999,
        2.8799999999999999,
        2.8999999999999999,
        2.9199999999999999,
        2.9399999999999999,
        2.96,
        2.98,
        3.0,
        3.02,
        3.04,
        3.0600000000000001,
        3.0800000000000001,
        3.1000000000000001,
        3.1200000000000001,
        3.1400000000000001,
        3.1600000000000001,
        3.1800000000000002,
        3.2000000000000002,
        3.2200000000000002,
        3.2400000000000002,
        3.2599999999999998,
        3.2799999999999998,
        3.2999999999999998,
        3.3199999999999998,
        3.3399999999999999,
        3.3599999999999999,
        3.3799999999999999,
        3.3999999999999999,
        3.4199999999999999,
        3.4399999999999999,
        3.46,
        3.48,
        3.5,
        3.52,
        3.54,
        3.5600000000000001,
        3.5800000000000001,
        3.6000000000000001,
        3.6200000000000001,
        3.6400000000000001,
        3.6600000000000001,
        3.6800000000000002,
        3.7000000000000002,
        3.7200000000000002,
        3.7400000000000002,
        3.7599999999999998,
        3.7799999999999998,
        3.7999999999999998,
        3.8199999999999998,
        3.8399999999999999,
        3.8599999999999999,
        3.8799999999999999,
        3.8999999999999999,
        3.9199999999999999,
        3.9399999999999999,
        3.96,
        3.98,
        4.0,
        4.0199999999999996,
        4.04,
        4.0599999999999996,
        4.0800000000000001,
        4.0999999999999996,
        4.1200000000000001,
        4.1399999999999997,
        4.1600000000000001,
        4.1799999999999997,
        4.2000000000000002,
        4.2199999999999998,
        4.2400000000000002,
        4.2599999999999998,
        4.2800000000000002,
        4.2999999999999998,
        4.3200000000000003,
        4.3399999999999999,
        4.3600000000000003,
        4.3799999999999999,
        4.4000000000000004,
        4.4199999999999999,
        4.4400000000000004,
        4.46,
        4.4800000000000004,
        4.5,
        4.5199999999999996,
        4.54,
        4.5599999999999996,
        4.5800000000000001,
        4.5999999999999996,
        4.6200000000000001,
        4.6399999999999997,
        4.6600000000000001,
        4.6799999999999997,
        4.7000000000000002,
        4.7199999999999998,
        4.7400000000000002,
        4.7599999999999998,
        4.7800000000000002,
        4.7999999999999998,
        4.8200000000000003,
        4.8399999999999999,
        4.8600000000000003,
        4.8799999999999999,
        4.9000000000000004,
        4.9199999999999999,
        4.9400000000000004,
        4.96,
        4.9800000000000004,
        5.0,
        5.0199999999999996,
        5.04,
        5.0599999999999996,
        5.0800000000000001,
        5.0999999999999996,
        5.1200000000000001,
        5.1399999999999997,
        5.1600000000000001,
        5.1799999999999997,
        5.2000000000000002,
        5.2199999999999998,
        5.2400000000000002,
        5.2599999999999998,
        5.2800000000000002,
        5.2999999999999998,
        5.3200000000000003,
        5.3399999999999999,
        5.3600000000000003,
        5.3799999999999999,
        5.4000000000000004,
        5.4199999999999999,
        5.4400000000000004,
        5.46,
        5.4800000000000004,
        5.5,
        5.5199999999999996,
        5.54,
        5.5599999999999996,
        5.5800000000000001,
        5.5999999999999996,
        5.6200000000000001,
        5.6399999999999997,
        5.6600000000000001,
        5.6799999999999997,
        5.7000000000000002,
        5.7199999999999998,
        5.7400000000000002,
        5.7599999999999998,
        5.7800000000000002,
        5.7999999999999998,
        5.8200000000000003,
        5.8399999999999999,
        5.8600000000000003,
        5.8799999999999999,
        5.9000000000000004,
        5.9199999999999999,
        5.9400000000000004,
        5.96,
        5.9800000000000004,
        6.0,
        6.0199999999999996,
        6.04,
        6.0599999999999996,
        6.0800000000000001,
        6.0999999999999996,
        6.1200000000000001,
        6.1399999999999997,
        6.1600000000000001,
        6.1799999999999997,
        6.2000000000000002,
        6.2199999999999998,
        6.2400000000000002,
        6.2599999999999998,
        6.2800000000000002,
        6.2999999999999998,
        6.3200000000000003,
        6.3399999999999999,
        6.3600000000000003,
        6.3799999999999999,
        6.4000000000000004,
        6.4199999999999999,
        6.4400000000000004,
        6.46,
        6.4800000000000004,
        6.5,
        6.5199999999999996,
        6.54,
        6.5599999999999996,
        6.5800000000000001,
        6.5999999999999996,
        6.6200000000000001,
        6.6399999999999997,
        6.6600000000000001,
        6.6799999999999997,
        6.7000000000000002,
        6.7199999999999998,
        6.7400000000000002,
        6.7599999999999998,
        6.7800000000000002,
        6.7999999999999998,
        6.8200000000000003,
        6.8399999999999999,
        6.8600000000000003,
        6.8799999999999999,
        6.9000000000000004,
        6.9199999999999999,
        6.9400000000000004,
        6.96,
        6.9800000000000004,
        7.0,
        7.0199999999999996,
        7.04,
        7.0599999999999996,
        7.0800000000000001
    ]
}