{
    "DU": 116,
    "DV": 233,
    "F-measure": 0.6487394957983195,
    "F-measure Chroma": 0.7764705882352941,
    "FN": 67,
    "FNC": 9,
    "FNCch": 42,
    "FNI": 58,
    "FNIch": 25,
    "FP": 36,
    "GU": 85,
    "GV": 264,
    "Overall Accuracy": 0.5530085959885387,
    "Overall Chroma Accuracy": 0.66189111747851,
    "Precision": 0.6843971631205674,
    "Precision Chroma": 0.8191489361702128,
    "Raw Chroma Accuracy": 0.8484848484848485,
    "Raw Pitch Accuracy": 0.5795454545454546,
    "Recall": 0.6166134185303515,
    "Recall Chroma": 0.7380191693290735,
    "TN": 49,
    "TO": 349,
    "TP": 197,
    "TPC": 144,
    "TPCch": 182,
    "TPI": 53,
    "TPIch": 15,
    "Voiced Chroma Accuracy": 0.6893939393939394,
    "Voiced Pitch Accuracy": 0.5454545454545454,
    "Voicing Accuracy": 0.7048710601719198,
    "Voicing Detection": 0.7462121212121212,
    "Voicing False Alarm": 0.4235294117647059
}