{
	"f0": [NaN,53.58537602,53.46907158,42.88149191,69.87361915,69.91185219,69.43353124,69.20179294,69.07125459,69.22630215,69.01609176,68.83230458,69.65541704,69.78274934,69.29350519,44.78047595,47.13997785,43.6256345,69.44556861,69.61977711,70.06400992,51.41895139,51.25646654,65.64760357,66.31678365,66.02514405,67.17825876,70.33739901,70.30830255,69.01191492,67.44329329,66.07576139,66.11814096,68.95003769,50.15478265,62.15444483,49.90188537,50.14890957,51.14399075,52.01414075,40.3150615,40.51279346,52.59142526,53.03422822,53.07376236,52.92537462,52.93035138,52.48150968,52.74318912,51.53698078,65.69991543,65.63004767,64.19510544,71.76273913,57.3482375,56.99049947,56.68224927,56.14489671,55.97369177,55.89223078,55.65459272,55.77856436,55.79306314,55.71222532,55.72964414,55.85452043,56.04003472,55.85538789,55.1950804,54.22967523,54.44027322,46.33557796,59.1218784,58.44578077,55.85138031,55.96567075,56.0523288,56.02384242,55.90482578,55.94157648,56.04661968,56.09650842,56.14186149,56.29481824,56.70788507,57.82790315,58.42026653,58.87548878,59.1143196,58.85187684,58.23751261,57.75797925,57.23686628,57.50767686,57.98040433,58.43208637,58.32930622,58.16940835,57.92000148,55.56772588,54.04276787,69.84254573,70.07954043,70.15000225,60.33040771,56.01165637,55.78082457,55.78826823,68.03035517,68.80253352,54.29483626,54.6158577,55.60373769,56.39841728,56.90243899,57.12555607,56.92885866,56.87574421,46.40663601,58.9446811,58.42002457,56.23796469,56.93520015,57.70222435,58.03612423,58.25437163,58.25975713,58.03061093,57.5291041,56.98558158,59.0198606,71.09567499,59.00384444,58.91362828,58.80776721,58.83669025,58.6244477,58.22602934,59.22921016,59.61518087,60.06356336,60.65391995,60.99313861,60.80145733,60.53867806,72.21209955,72.3219377,62.4780494,71.21309485,68.94358899,65.14103043,59.53688732,59.57212882,59.64592333,59.55011373,59.52758198,59.5051656,59.35386324,59.2761351,59.73100024,60.21421792,60.24131779,59.73083958,58.70432182,57.88447516,55.92531728,58.68560958,70.58970381,61.20627829,62.4780494,60.67773341,60.5042762,60.32294051,59.961779,59.85784973,59.81915054,59.63887873,59.64318748,59.87007925,59.87828889,59.89853546,60.08755772,60.09226088,58.9446811,57.66169865,57.30645123,56.85988655,67.78826823,65.3108577,65.17773667,61.58996064,61.38692256,61.19942456,61.00456124,60.56841284,60.51199893,60.64696867,60.81178486,60.65894839,72.54051758,60.63290647,61.03528267,59.98818851,58.63500093,58.37166287,59.21309485,76.93035138,68.68164595,68.76691263,62.34333383,61.21950464,61.31567209,61.57649341,61.65059265,61.44849484,61.34730937,61.62331861,62.00821955,62.51217329,62.85973397,63.08778556,63.1154696,62.77278922,61.21841468,59.25591048,58.3934194,55.1225019,54.71262168,53.51074464,53.76654873,71.52685919,70.63591411,70.7160977,52.97950923,54.52409074,54.51218823,54.20274409,53.69991543,57.41612942,55.99399895,56.11457071,56.1791026,56.03245065,55.83685709,55.50046663,54.50528578,54.43050151,53.87688652,62.80781824,63.47173803,46.45846198,69.24295483,69.50843437,69.32885407,59.48573577,58.74998325,59.09127263,54.94899201,54.21067713,51.57761847,43.00010525,63.44778564,64.88177773,63.81577804,64.59856353,58.13451929,48.23555307,48.74039688,49.20239097,50.62493279,51.71297869,52.14356998,52.5661122,52.87898093,53.17391546,53.3184739,53.36831397,53.33716419,52.25356406,63.38964247,61.21841468,55.24378488,38.85310022,66.44894747,65.12355281,49.99488296,51.24708629,51.8889506,52.02042285,52.0173962,64.24840038,64.93035138,63.91643806,63.68959877,64.03660875,64.09454296,63.83657672,63.48682058,48.9793614,66.9224708,66.303372,63.34147785,56.75824112,65.69991543,63.85621636,64.55802863,45.41612942,57.66169865,56.93520015,55.13489482,51.31455706,51.48682058,51.51811983,51.47434408,52.17832829,47.08112563,38.26487533,63.48682058,51.44482729,51.48682058,51.41784301,51.84693555,51.78469673,51.42493039,51.29903781,51.19202417,51.13708456,41.11955917,76.93035138,76.93035138,NaN,NaN],
	"ap0": [NaN,0.6406305971,0.4933192976,0.4441820192,0.4295475135,0.4437454043,0.5503760713,0.5534893721,0.6769581871,0.6462605488,0.6338190269,0.6908853435,0.5044738617,0.5880976059,0.6696396163,0.5180936713,0.4811533194,0.666189486,0.6054546205,0.6628372203,0.904836733,0.618171055,0.617945479,0.3052171813,0.4591422543,0.5700989284,0.7671176731,0.7946862965,0.7487095859,0.7763907767,0.776056089,0.7250451656,0.6724705214,0.7138560984,0.5735625352,0.1618261703,0.07987360354,0.1805749475,0.4240838491,0.5586441788,0.2383426167,0.2529439161,0.1790611624,0.1185077754,0.2083545073,0.1906003278,0.1722907658,0.3004214737,0.4086959444,0.6485607026,0.5626735301,0.4989703626,0.6698981329,0.8484925306,0.3270992724,0.1548382911,0.08610839135,0.1096659784,0.1291465603,0.09526993041,0.06084998958,0.08873946381,0.1028403966,0.1291563909,0.1472284829,0.06008354856,0.03996453064,0.05267986834,0.06250618247,0.1041438819,0.6654914666,0.7024900141,0.6631443485,0.7611322123,0.1058166248,0.04104594706,0.03514496438,0.03957289665,0.02280331359,0.03200398877,0.04618779049,0.09451630519,0.1976690581,0.2071614215,0.1369264823,0.120339463,0.05503775867,0.0708612359,0.08249837521,0.136609547,0.08798409312,0.1025024731,0.09773960134,0.08404055244,0.1299555231,0.1024172647,0.04441697086,0.05883553377,0.1711678463,0.1773376537,0.4799735358,0.4870203225,0.4904905928,0.5416879904,0.7886886351,0.421277678,0.2484811118,0.6370555749,0.6317761278,0.6677976562,0.4872890008,0.1143454462,0.2011163284,0.1244001507,0.09252246829,0.1102836577,0.2374609291,0.5007211004,0.5356376996,0.6265663915,0.3526305199,0.2666200397,0.1768980436,0.06122970471,0.03568891855,0.02569940295,0.02867077036,0.05081509248,0.07861754349,0.1950787854,0.3242219914,0.1505320957,0.03606951546,0.03422704562,0.04652863377,0.0627082521,0.1562969761,0.2862235992,0.2744839382,0.1257708748,0.1110128602,0.1064256798,0.05374510675,0.07258409614,0.07968050017,0.1601265775,0.3399458465,1.125624268,0.3962192963,0.5197003593,0.7854025405,0.2624701043,0.124193753,0.06101754538,0.1353539098,0.2227590988,0.1653926576,0.1416270268,0.2059995527,0.1524835014,0.1226116373,0.1381671052,0.2820751154,0.3811264005,0.2036896237,0.1985433036,0.8423479878,0.6254682345,0.7959111376,0.792641663,0.2635535665,0.1136925,0.06813312704,0.08396788319,0.0988191724,0.1224965121,0.130981037,0.1409645854,0.1113081101,0.1233679599,0.1591608121,0.1654291488,0.2554039674,0.2794042966,0.1627182271,0.1215817198,0.7288125601,0.5324866575,0.4513909722,0.4984242356,0.2041312638,0.1059282778,0.091624217,0.2869891896,0.1700275606,0.1155818642,0.1016892976,0.05293427796,0.03843658626,0.1400906881,0.1104573704,0.07460346634,0.3524074612,0.5387413203,0.6016499663,0.6723528117,1.073112865,0.5641094407,0.6625001844,0.5480445522,0.06760307081,0.04008170277,0.04272846689,0.04679436101,0.04751247006,0.04332135692,0.06581772488,0.0819186451,0.06397935296,0.03660939979,0.03377700941,0.05907850522,0.2277636843,0.7977458033,0.5676432789,0.5783553684,0.4402579727,0.4758559201,0.3481236906,0.6149183716,0.5122857034,0.6186826659,0.7989851394,0.687733466,0.5138410592,0.4151649607,0.3522768459,0.6761367535,0.4834380952,0.1961923698,0.07211321119,0.0470689579,0.05247257195,0.05379185935,0.129659886,0.2189488057,0.2964509187,0.2278158739,0.5504361488,0.7463416835,0.7047051602,0.3651243644,0.3033944466,0.4977560369,0.7773286073,0.6766481148,0.5993761491,0.5584995378,0.3900544687,0.7830903472,0.6884838788,0.6658371457,0.6100140162,0.7263902027,0.6444222702,0.7559577725,0.2592859295,0.1142914124,0.1103241992,0.2162880914,0.07418635604,0.03822656074,0.04712381717,0.09284918373,0.2037788105,0.2592787919,0.1475324773,0.164731493,0.3610820916,0.3568589342,0.8008390107,0.5448806244,0.3936002036,0.2852285981,0.6333082615,0.5129802814,0.3682311877,0.05780463556,0.01581360754,0.02880156248,0.1767637796,0.3169906995,0.2055044679,0.180238757,0.2646516062,0.2748488671,0.3074147586,0.5548753067,0.6082489685,0.5659817739,0.480970212,0.6198707305,0.8793651316,1,0.2711175575,0.5588439108,0.4827052015,0.3690150334,0.353176317,0.3140256001,0.4145400411,0.2378721555,0.1681571202,0.2162172493,0.5358546678,0.544845491,0.6058895134,0.6843825069,0.4210857922,0.1876725118,0.1232281649,0.0902310182,0.04759676317,0.04680580597,0.063687008,0.07290284008,0.1415555477,1.514208632,1,1,NaN,NaN],
	"ap": [NaN,0.4475711126,0.572563501,0.2233094312,0.1757185938,0.6458153502,0.2950350521,0.2934893937,0.2886782139,0.4256670789,0.4115213913,0.3331749214,0.2194275829,0.8023201234,0.09550491927,0.3713057234,0.3114598559,0.6850779405,0.2354107196,0.4591679282,0.3675270607,0.5001336049,0.459691267,0.50238266,0.2837032378,0.1181006305,0.672712164,0.5518862767,0.3573091982,0.3118941189,0.4664636908,0.5499362493,0.3478275423,0.58360074,0.5756544586,0.5400991806,0.2671742992,0.02716657295,0.2919400479,0.0869936958,0.1225538912,0.09416409488,0.1566360856,0.08256288793,0.01446525466,0.06817491688,0.1575696564,0.03174038263,0.1881570967,0.4228866892,0.1743137845,0.4328196563,0.7328292841,0.4448245756,0.1910740698,0.6922570508,0.1461206022,0.08076540537,0.04516369699,0.1126619825,0.06899719351,0.05008294567,0.01498310441,0.07034633408,0.07920946698,0.2105990413,0.01954729113,0.03436408049,0.04460681734,0.1316283496,0.07606164572,0.4598685496,0.5390890377,0.4711820466,0.463601996,0.5391078199,0.02956782102,0.008478499492,0.04201835699,0.006068469059,0.0129730333,0.02433845435,0.06695538767,0.09702176866,0.4063511249,0.252226161,0.1792042983,0.05945978743,0.04278131397,0.02702223394,0.08110527355,0.03660633317,0.04829732626,0.01131745538,0.1621847923,0.06891230931,0.03820272283,0.0345876778,0.0090822948,0.1448396114,0.1350443388,0.4037724991,0.178839011,0.5678251687,0.4405150019,0.5489764608,0.1807214017,0.1354020543,0.8061984308,0.9344601455,0.4825665825,0.5261248232,0.2630065053,0.2364747949,0.08078722436,0.04892131071,0.159018187,0.06228407858,0.2463026912,0.4765076145,0.06844069596,0.04225387787,0.2622976423,0.1404754083,0.0423723379,0.01649184348,0.009776920323,0.01705613098,0.01188856329,0.008438796329,0.5244066026,0.6295529711,0.1166513266,0.0330524574,0.01728887705,0.03987249022,0.03647928566,0.04788125692,0.1728409209,0.3241115864,0.2208369713,0.2076348494,0.02794453274,0.006069437293,0.06172093829,0.06456579032,0.09190698146,0.5339406872,0.85666885,0.2397142326,0.6704706948,0.5540225519,0.28382478,0.01995114667,0.02671991222,0.04945788926,0.09532377872,0.1369633328,0.02860806433,0.1087675973,0.1410624494,0.02349805805,0.3158190976,0.04721741941,0.258688665,0.1235133393,0.3203597254,0.5474013059,0.4807488264,0.2965118387,0.6174196983,0.2496850307,0.05685364059,0.04423335427,0.0274362121,0.02308375657,0.1043428906,0.04546607202,0.05341418327,0.02561557591,0.01738000097,0.1373907044,0.05637477098,0.05412033442,0.1835194245,0.08224658017,0.06227819669,0.5787074428,0.5931333603,0.5209646702,0.173840449,0.2201347663,0.03988821821,0.05199699462,0.2268873365,0.1436894133,0.03569829244,0.1366715564,0.02245490098,0.05908796034,0.00891774584,0.08935082513,0.06910772057,0.2952297939,0.3068674146,0.3076235789,0.8922346605,0.6117572318,0.4493481302,0.8003089503,0.6378881002,0.3468940068,0.0292817624,0.009752624251,0.01318695915,0.04549769831,0.008791291118,0.1041777822,0.05818635647,0.09109598956,0.02624746468,0.01851201637,0.07707401075,0.3465854255,0.7932851617,0.5680880487,0.704764255,0.2417299474,0.2165592341,0.5776516895,0.1233517217,0.5196697692,0.358609936,0.3442467423,0.5222265407,0.1744894493,0.1356211031,0.1987081216,0.4043082039,0.4691329764,0.1061073329,0.01854342101,0.01999735629,0.02992775969,0.02780324421,0.1129155793,0.1813452669,0.1322420217,0.7189406365,0.3130998493,0.4556352788,0.4550711221,0.4679086837,0.8266239513,0.8863005909,0.5323521684,0.6883912629,0.3392482817,0.2860718593,0.4482111581,0.4721013467,0.7360761137,0.5431140039,0.2762305856,0.6277099737,0.522534063,0.3340985645,0.3991529074,0.1312239307,0.2075440005,0.2596318264,0.08386790743,0.04572664945,0.01226450409,0.08148729458,0.03408763049,0.06979101435,0.04754078073,0.2164212138,0.4690110022,0.2624005384,0.6702538708,0.339523231,0.2843208537,0.0418473524,0.1945281454,0.1774976087,0.7503038475,0.03730254294,0.00543839745,0.04634387393,0.02639741346,0.08856810354,0.5954055564,0.05364813934,0.09381736601,0.1734032917,0.1110780174,0.3133569809,0.2758672194,0.2623730244,0.2549116798,0.1642313691,1,1,1,0.6316601298,0.807240214,0.1459598424,0.329239718,0.1574069186,0.2087295054,0.06689916416,0.1652504372,0.1746647572,0.4527733648,0.2769848492,0.94543431,0.4434956438,0.5255593945,0.1199605421,0.07525840882,0.03258994055,0.03470276518,0.01434237051,0.02907827346,0.02870491372,0.5000000841,1,1,NaN,NaN],
	"pwr": [NaN,2.588512945e-07,1.612722316e-07,4.217510127e-07,6.733329079e-07,1.447410936e-07,6.091140191e-07,1.578037566e-06,1.944522121e-06,9.324386165e-07,5.693187468e-07,9.04475377e-07,1.918117897e-06,1.634901393e-06,2.328810098e-06,4.064014312e-06,3.266770014e-06,5.008707623e-06,1.373756131e-06,1.888666626e-06,1.426583681e-06,1.188989014e-06,2.002545878e-07,2.207776704e-07,9.744369628e-07,3.569942648e-06,1.439418642e-06,6.72808473e-06,1.610802126e-05,6.579693781e-06,1.444379462e-06,5.504535846e-06,1.351919675e-05,1.131246829e-05,4.969539903e-06,1.773037689e-06,7.443323875e-05,0.002501381699,0.001147207507,0.001646990313,0.002296146037,0.001023048811,0.000900375648,0.00125777649,0.0006787907739,0.000802377322,0.0009130290602,0.000437421446,0.0001955103644,4.156800938e-05,1.036866028e-05,1.803310148e-05,4.60354239e-05,4.348944076e-06,2.130329388e-05,0.0003193863773,0.01042777121,0.005774350677,0.004236315414,0.003526583326,0.001944242726,0.002670477361,0.002771819137,0.00206876857,0.001680169726,0.000754966998,0.001212436874,0.0006152612329,0.0008543408609,0.0002107120568,3.481294263e-05,3.190566215e-06,9.024583008e-06,5.069576718e-05,0.0003053039857,0.0002259895172,0.01096807774,0.01439654474,0.008862463497,0.008153315827,0.006977831574,0.004774627278,0.002194667344,0.001126999603,0.001000559427,0.0006633285601,0.001530026339,0.005244981192,0.008161850159,0.00667198382,0.002586899357,0.002286093469,0.00174984351,0.0006396681665,0.0001704857897,0.0002371505291,0.0002948050893,0.0005421663905,0.0007604809836,8.724723232e-05,3.459741283e-05,6.669395279e-07,8.477804382e-06,4.871237006e-05,9.617035879e-05,3.910411373e-05,5.102527033e-05,4.19919088e-05,1.257093333e-06,1.149369584e-06,1.217049952e-05,7.549788306e-05,0.003459106718,0.03505942471,0.06270480867,0.05215118721,0.03443513307,0.007213257583,0.001790535316,0.0001011752586,0.0001178160518,0.0001005506117,0.0007310486606,0.0006393923611,0.001957351411,0.002082307755,0.002903325191,0.002847760862,0.001058444165,0.000414408599,0.0002083575209,0.0004244881005,0.006546759805,0.09942310612,0.167581259,0.04681745387,0.02140732593,0.004617230654,0.0006843273457,0.0004596943554,0.002386677044,0.01798569667,0.04448903672,0.03379453841,0.02135621735,0.05128044519,0.008804679049,0.001759505526,1.798043741e-05,4.200069763e-07,9.087396615e-06,2.798954976e-05,0.002276834928,0.03674491054,0.01031235235,0.007679600052,0.007672705803,0.004601313203,0.004147678073,0.002765147662,0.002006063642,0.003979703426,0.01219501617,0.004824676461,0.003257730399,0.001320035232,4.751311032e-05,3.432870925e-06,1.466841121e-05,4.986696437e-06,1.257152396e-05,0.0005083395043,0.02329054981,0.04785925355,0.01468161107,0.01359597044,0.01191885634,0.006774880131,0.0065318032,0.003233614378,0.00295197186,0.002700342742,0.001175233447,9.28395983e-05,0.0002065535909,0.0001255269304,8.200318107e-05,6.618051348e-06,7.981149894e-07,1.859911351e-05,0.0003749554521,0.003116190411,0.07268720084,0.02589675538,0.01130668108,0.009862530761,0.01994683402,0.00861374849,0.009136614349,0.01833454363,0.05979459676,0.01160223364,0.00291985887,0.00566834108,0.003400772924,0.001554241351,0.001756343009,3.988740663e-06,1.391256643e-05,5.114848228e-05,8.98441484e-05,0.0005399094183,0.02264001682,0.01366999122,0.008276374203,0.007867629556,0.00439798545,0.003465635307,0.005327440127,0.004184634115,0.01197908476,0.02122312432,0.02933371163,0.01536201268,0.01870281146,0.02172172555,0.07238164247,0.02000403879,0.0112147204,0.001399448409,0.02800853775,0.02614518359,0.02580367377,0.02628815129,0.01202989908,0.002572400499,0.0004404380676,0.0001464982905,8.680302696e-06,4.380364522e-05,0.0007797457653,0.001829108319,0.001116364873,0.000849933043,0.0007849965947,0.0002722329435,7.318316545e-05,8.291142802e-06,3.646116686e-07,3.391383064e-07,2.076662657e-07,6.329251599e-07,9.348990467e-07,1.227974363e-06,1.389411045e-05,4.984566827e-06,3.904738081e-06,1.414211615e-06,6.998310217e-07,1.283594173e-07,4.579956702e-08,1.695288057e-07,6.361659866e-07,2.922759646e-07,3.90108741e-07,5.762747878e-07,1.969990754e-06,5.837137425e-05,0.0007634609186,0.001317702915,0.0009861976769,0.001608094994,0.004069218267,0.001876853023,0.001748086137,0.0008926510133,0.001271371266,0.001159984697,0.001493216259,0.0004083409599,0.0003610977254,0.00102850125,0.001621535134,4.387379606e-05,0.000913908888,0.0003911540107,0.0007625527654,0.0008968940166,0.001146002346,0.002558137675,0.002279128109,0.0008496717656,0.0005352328199,3.236315119e-05,0.0006130071906,0.0005624584948,0.0009697156849,0.0007488610968,0.0002016866111,0.0001199020786,1.094269027e-05,1.130492398e-05,3.683439977e-08,0,0,0,2.296333214e-09,3.133567848e-08,1.221475804e-07,1.142235519e-08,8.011333608e-09,1.235748641e-09,3.483611956e-09,2.819068264e-09,1.261269575e-09,5.878043345e-10,7.178847579e-10,2.863816917e-10,4.129948431e-10,3.899913281e-11,4.918629368e-10,9.497093342e-10,1.230964884e-09,1.853632078e-09,2.609195274e-09,2.325893039e-09,1.670763169e-09,6.597934311e-10,0,0,NaN,NaN],
	"sr": 16000,
	"range": [1,106240],
	"minf0": 63.1883,
	"maxf0": 706.3069,
	"thresh": 0.1,
	"relflag": 1,
	"hop": 320,
	"bufsize": 10000,
	"wsize": 640,
	"lpf": 4000,
	"shift": 0,
	"plotthreshold": 0.2
}
