{
    "DU": 121,
    "DV": 178,
    "F-measure": 0.7403314917127072,
    "F-measure Chroma": 0.8692449355432782,
    "FN": 34,
    "FNC": 5,
    "FNCch": 11,
    "FNI": 29,
    "FNIch": 23,
    "FP": 21,
    "GU": 108,
    "GV": 191,
    "Overall Accuracy": 0.6722408026755853,
    "Overall Chroma Accuracy": 0.7892976588628763,
    "Precision": 0.7584905660377359,
    "Precision Chroma": 0.8905660377358491,
    "Raw Chroma Accuracy": 0.837696335078534,
    "Raw Pitch Accuracy": 0.6230366492146597,
    "Recall": 0.7230215827338129,
    "Recall Chroma": 0.8489208633093526,
    "TN": 87,
    "TO": 299,
    "TP": 157,
    "TPC": 114,
    "TPCch": 149,
    "TPI": 43,
    "TPIch": 8,
    "Voiced Chroma Accuracy": 0.7801047120418848,
    "Voiced Pitch Accuracy": 0.5968586387434555,
    "Voicing Accuracy": 0.8160535117056856,
    "Voicing Detection": 0.8219895287958116,
    "Voicing False Alarm": 0.19444444444444445
}