{
    "f0": [
        0.0,
        0.0,
        0.0,
        53.455676091227772,
        47.202150688450978,
        47.374410629746492,
        41.055139183949791,
        0.0,
        51.004195507525331,
        43.502003357306407,
        50.867807470263458,
        51.120350948485864,
        48.253341809771186,
        51.369863385229181,
        51.422777530741577,
        50.948213140945626,
        51.208722718128442,
        51.195762175712922,
        49.181588228439409,
        48.794886592404467,
        45.627202793440325,
        44.549614904299737,
        41.071651897688923,
        39.052362075146682,
        34.868007744271864,
        56.153950739072506,
        46.406336650934435,
        46.265652824737018,
        58.629475388871249,
        56.866200833060752,
        57.778270117414955,
        58.644687222110051,
        59.146596290712367,
        59.442473349581753,
        59.416325368848902,
        60.188403321398134,
        60.248740176726109,
        60.372848652028395,
        60.464342476177769,
        60.743405839050837,
        60.751753290157183,
        61.154007163178449,
        61.005958429346613,
        61.147093212557323,
        60.932958656856655,
        61.036171044175134,
        61.038677814879293,
        61.041184222663745,
        61.043694067983182,
        61.046201680738761,
        61.04870893033079,
        60.701456931447048,
        60.90988408201936,
        60.618985101970061,
        60.557432181736715,
        61.155807517263227,
        60.989768129307521,
        60.911545209625906,
        61.063735161884807,
        61.009096340962117,
        60.822332692024219,
        60.350601913868005,
        66.488172232272717,
        66.729400740362919,
        66.951911994402622,
        67.171599619061951,
        67.56079477276981,
        67.683396784219724,
        67.583975365364267,
        67.779185447868556,
        67.97221894719155,
        68.04816996197539,
        68.00711579311691,
        67.834994910590481,
        67.899677595077648,
        67.912635835489993,
        67.777332523445466,
        67.854743138438479,
        67.872136541738726,
        67.714566169959369,
        67.646694121730562,
        67.875691296620232,
        67.758939296072555,
        67.586526615143441,
        67.412378261957414,
        67.475687884668886,
        67.490080922938944,
        67.354807131213761,
        66.90444958822745,
        67.196231716310109,
        67.241707102403481,
        67.287063391834991,
        67.256801896777844,
        67.277826581650814,
        67.339135462013488,
        67.380155852142408,
        67.484042563542573,
        67.556043181688352,
        67.986150474546648,
        68.404112044902504,
        68.463304735431706,
        68.522295769875711,
        68.581083978176167,
        68.465677664417527,
        68.517351505664891,
        68.470262787729496,
        68.423045682069599,
        68.201706559565594,
        68.238116964511264,
        68.274450953691741,
        68.271474363841534,
        68.231229412071855,
        68.209573681817801,
        68.315485130908115,
        68.258500075086886,
        68.201328105764119,
        67.794209087687989,
        67.383312109315455,
        67.302170355209313,
        68.067747610713056,
        68.148158514568905,
        37.989839232118726,
        63.959101228730987,
        40.260994701792882,
        64.854086936279941,
        64.895431652457063,
        65.057289563706959,
        65.217649743738875,
        65.074172316266626,
        64.584970323448701,
        64.602570564741356,
        64.620154451459712,
        63.575716368911905,
        64.030518203037715,
        64.393289573110081,
        64.78803900323858,
        59.737830208033287,
        59.811579586963816,
        60.157565544969152,
        59.83635603709012,
        59.925960550974402,
        60.161707406894131,
        60.491329981974246,
        60.417481149206765,
        60.363432500251776,
        60.47139101321298,
        61.540844455434588,
        61.394102243861695,
        61.246107428246233,
        61.209362628090119,
        61.288513402747569,
        61.424337470321824,
        61.356834059493934,
        61.006912998525252,
        60.966627833691334,
        60.940438724726363,
        60.557346128136082,
        61.028016699015481,
        61.373453398883136,
        61.767515801287715,
        61.131959498207308,
        62.586078594165286,
        64.620695679525113,
        63.74092448515129,
        63.676405387569652,
        63.356480706325726,
        62.454285337934508,
        62.65394843290693,
        64.396877183280111,
        64.94235420589338,
        65.50479651438458,
        65.776825036717057,
        65.652126733475129,
        65.817926783529543,
        65.92825989992437,
        65.890699081194256,
        65.706200495049799,
        65.244336552946379,
        65.423605547067069,
        65.281551989144219,
        65.992165599082497,
        66.771467792695816,
        67.813774983190271,
        68.130083329828423,
        68.244074863646532,
        68.455279486650838,
        68.787875380034322,
        69.053497181720743,
        69.315106314016134,
        69.045502688356137,
        69.129213371852444,
        69.160201643652627,
        69.043272603395934,
        68.216201025047653,
        67.896431088194134,
        68.406214705913641,
        68.587949412048062,
        68.923614034435218,
        69.00263544584854,
        65.7367171938008,
        65.466576988513495,
        65.741444433462007,
        65.830277701947978,
        65.83530815224303,
        65.882054875460327,
        66.419613072705204,
        66.35477451156703,
        66.745674940711893,
        66.999933356223764,
        67.139720975584652,
        67.104394446529568,
        67.167997413564322,
        67.312713939102267,
        67.415944468188258,
        67.364604768758085,
        67.313111067448887,
        67.433730246353761,
        67.027124144778796,
        66.88604081336149,
        65.898834819599344,
        40.108125893005649,
        60.454576725928014,
        55.273901471365676,
        47.854092877321662,
        48.11033277479325,
        48.013083830738609,
        47.674421680424807,
        48.469217490033685,
        47.209140401980036,
        48.579354348857514,
        48.318083296457075,
        48.90361563954049,
        48.975232902330859,
        48.963889045449918,
        61.062965997722493,
        61.006082240982366,
        61.006166092737054,
        60.849210528267179,
        60.899390666261809,
        60.94942389723689,
        60.99123089193192,
        60.888867879424886,
        60.937791444584363,
        60.939193545615453,
        60.96430162497289,
        60.977536754681246,
        60.646925321444876,
        60.837064079343975,
        60.994899659486357,
        61.151309190951793,
        60.841211944412052,
        60.87837901076449,
        60.949622718553123,
        61.020574445531246,
        61.091234649177338,
        60.987614786839551,
        60.983734606873817,
        60.041724239246378,
        59.20513322456442,
        59.423289638729401,
        59.3727020229285,
        60.182509512464591,
        59.716092354969426,
        59.581877326679319,
        59.616388468896474,
        59.387934939533139,
        59.687230499105091,
        60.255650187581296,
        60.673721189464572,
        60.9726635039382,
        61.320333150668269,
        61.10748189803644,
        61.157522644026592,
        61.017579439613861,
        60.912642914114201,
        60.788886990466935,
        60.845662689180138,
        60.84878555683531,
        60.851907924271806,
        61.027299263995843,
        60.409146443741093,
        60.555505965270669,
        59.555938122528367,
        59.503874323173619,
        59.632093433861399,
        60.587804603490412,
        60.755585277339563,
        60.584400020457267,
        0.0,
        45.083298275544777,
        52.581367244645691,
        60.945460587545476,
        37.399631373376671,
        61.683742559443523,
        61.054275242409808,
        60.743887539502055,
        61.098777384740622,
        51.648474033282099,
        0.0,
        0.0,
        0.0,
        0.0,
        0.0,
        41.622169804945266,
        48.798992507338426,
        0.0,
        0.0,
        0.0,
        0.0,
        0.0,
        0.0,
        0.0,
        0.0,
        0.0,
        0.0,
        0.0,
        0.0,
        0.0,
        0.0,
        0.0,
        0.0,
        0.0,
        0.0,
        0.0,
        0.0,
        0.0,
        0.0,
        0.0,
        0.0,
        0.0,
        0.0,
        0.0,
        0.0,
        0.0,
        0.0,
        0.0,
        0.0,
        0.0,
        0.0,
        0.0,
        0.0,
        0.0,
        0.0,
        0.0,
        0.0,
        0.0,
        0.0,
        0.0,
        0.0,
        0.0,
        0.0,
        0.0,
        0.0,
        0.0,
        0.0,
        0.0,
        0.0,
        0.0,
        0.0,
        0.0,
        0.0,
        0.0,
        0.0,
        0.0,
        0.0,
        0.0,
        0.0,
        0.0
    ],
    "time": [
        0.02,
        0.040000000000000001,
        0.059999999999999998,
        0.080000000000000002,
        0.10000000000000001,
        0.12,
        0.14000000000000001,
        0.16,
        0.17999999999999999,
        0.20000000000000001,
        0.22,
        0.23999999999999999,
        0.26000000000000001,
        0.28000000000000003,
        0.29999999999999999,
        0.32000000000000001,
        0.34000000000000002,
        0.35999999999999999,
        0.38,
        0.40000000000000002,
        0.41999999999999998,
        0.44,
        0.46000000000000002,
        0.47999999999999998,
        0.5,
        0.52000000000000002,
        0.54000000000000004,
        0.56000000000000005,
        0.57999999999999996,
        0.59999999999999998,
        0.62,
        0.64000000000000001,
        0.66000000000000003,
        0.68000000000000005,
        0.69999999999999996,
        0.71999999999999997,
        0.73999999999999999,
        0.76000000000000001,
        0.78000000000000003,
        0.80000000000000004,
        0.81999999999999995,
        0.83999999999999997,
        0.85999999999999999,
        0.88,
        0.90000000000000002,
        0.92000000000000004,
        0.93999999999999995,
        0.95999999999999996,
        0.97999999999999998,
        1.0,
        1.02,
        1.04,
        1.0600000000000001,
        1.0800000000000001,
        1.1000000000000001,
        1.1200000000000001,
        1.1399999999999999,
        1.1599999999999999,
        1.1799999999999999,
        1.2,
        1.22,
        1.24,
        1.26,
        1.28,
        1.3,
        1.3200000000000001,
        1.3400000000000001,
        1.3600000000000001,
        1.3799999999999999,
        1.3999999999999999,
        1.4199999999999999,
        1.4399999999999999,
        1.46,
        1.48,
        1.5,
        1.52,
        1.54,
        1.5600000000000001,
        1.5800000000000001,
        1.6000000000000001,
        1.6200000000000001,
        1.6399999999999999,
        1.6599999999999999,
        1.6799999999999999,
        1.7,
        1.72,
        1.74,
        1.76,
        1.78,
        1.8,
        1.8200000000000001,
        1.8400000000000001,
        1.8600000000000001,
        1.8799999999999999,
        1.8999999999999999,
        1.9199999999999999,
        1.9399999999999999,
        1.96,
        1.98,
        2.0,
        2.02,
        2.04,
        2.0600000000000001,
        2.0800000000000001,
        2.1000000000000001,
        2.1200000000000001,
        2.1400000000000001,
        2.1600000000000001,
        2.1800000000000002,
        2.2000000000000002,
        2.2200000000000002,
        2.2400000000000002,
        2.2599999999999998,
        2.2799999999999998,
        2.2999999999999998,
        2.3199999999999998,
        2.3399999999999999,
        2.3599999999999999,
        2.3799999999999999,
        2.3999999999999999,
        2.4199999999999999,
        2.4399999999999999,
        2.46,
        2.48,
        2.5,
        2.52,
        2.54,
        2.5600000000000001,
        2.5800000000000001,
        2.6000000000000001,
        2.6200000000000001,
        2.6400000000000001,
        2.6600000000000001,
        2.6800000000000002,
        2.7000000000000002,
        2.7200000000000002,
        2.7400000000000002,
        2.7599999999999998,
        2.7799999999999998,
        2.7999999999999998,
        2.8199999999999998,
        2.8399999999999999,
        2.8599999999999999,
        2.8799999999999999,
        2.8999999999999999,
        2.9199999999999999,
        2.9399999999999999,
        2.96,
        2.98,
        3.0,
        3.02,
        3.04,
        3.0600000000000001,
        3.0800000000000001,
        3.1000000000000001,
        3.1200000000000001,
        3.1400000000000001,
        3.1600000000000001,
        3.1800000000000002,
        3.2000000000000002,
        3.2200000000000002,
        3.2400000000000002,
        3.2599999999999998,
        3.2799999999999998,
        3.2999999999999998,
        3.3199999999999998,
        3.3399999999999999,
        3.3599999999999999,
        3.3799999999999999,
        3.3999999999999999,
        3.4199999999999999,
        3.4399999999999999,
        3.46,
        3.48,
        3.5,
        3.52,
        3.54,
        3.5600000000000001,
        3.5800000000000001,
        3.6000000000000001,
        3.6200000000000001,
        3.6400000000000001,
        3.6600000000000001,
        3.6800000000000002,
        3.7000000000000002,
        3.7200000000000002,
        3.7400000000000002,
        3.7599999999999998,
        3.7799999999999998,
        3.7999999999999998,
        3.8199999999999998,
        3.8399999999999999,
        3.8599999999999999,
        3.8799999999999999,
        3.8999999999999999,
        3.9199999999999999,
        3.9399999999999999,
        3.96,
        3.98,
        4.0,
        4.0199999999999996,
        4.04,
        4.0599999999999996,
        4.0800000000000001,
        4.0999999999999996,
        4.1200000000000001,
        4.1399999999999997,
        4.1600000000000001,
        4.1799999999999997,
        4.2000000000000002,
        4.2199999999999998,
        4.2400000000000002,
        4.2599999999999998,
        4.2800000000000002,
        4.2999999999999998,
        4.3200000000000003,
        4.3399999999999999,
        4.3600000000000003,
        4.3799999999999999,
        4.4000000000000004,
        4.4199999999999999,
        4.4400000000000004,
        4.46,
        4.4800000000000004,
        4.5,
        4.5199999999999996,
        4.54,
        4.5599999999999996,
        4.5800000000000001,
        4.5999999999999996,
        4.6200000000000001,
        4.6399999999999997,
        4.6600000000000001,
        4.6799999999999997,
        4.7000000000000002,
        4.7199999999999998,
        4.7400000000000002,
        4.7599999999999998,
        4.7800000000000002,
        4.7999999999999998,
        4.8200000000000003,
        4.8399999999999999,
        4.8600000000000003,
        4.8799999999999999,
        4.9000000000000004,
        4.9199999999999999,
        4.9400000000000004,
        4.96,
        4.9800000000000004,
        5.0,
        5.0199999999999996,
        5.04,
        5.0599999999999996,
        5.0800000000000001,
        5.0999999999999996,
        5.1200000000000001,
        5.1399999999999997,
        5.1600000000000001,
        5.1799999999999997,
        5.2000000000000002,
        5.2199999999999998,
        5.2400000000000002,
        5.2599999999999998,
        5.2800000000000002,
        5.2999999999999998,
        5.3200000000000003,
        5.3399999999999999,
        5.3600000000000003,
        5.3799999999999999,
        5.4000000000000004,
        5.4199999999999999,
        5.4400000000000004,
        5.46,
        5.4800000000000004,
        5.5,
        5.5199999999999996,
        5.54,
        5.5599999999999996,
        5.5800000000000001,
        5.5999999999999996,
        5.6200000000000001,
        5.6399999999999997,
        5.6600000000000001,
        5.6799999999999997,
        5.7000000000000002,
        5.7199999999999998,
        5.7400000000000002,
        5.7599999999999998,
        5.7800000000000002,
        5.7999999999999998,
        5.8200000000000003,
        5.8399999999999999,
        5.8600000000000003,
        5.8799999999999999,
        5.9000000000000004,
        5.9199999999999999,
        5.9400000000000004,
        5.96,
        5.9800000000000004,
        6.0,
        6.0199999999999996,
        6.04,
        6.0599999999999996,
        6.0800000000000001,
        6.0999999999999996,
        6.1200000000000001,
        6.1399999999999997,
        6.1600000000000001,
        6.1799999999999997,
        6.2000000000000002,
        6.2199999999999998,
        6.2400000000000002,
        6.2599999999999998,
        6.2800000000000002,
        6.2999999999999998,
        6.3200000000000003,
        6.3399999999999999,
        6.3600000000000003,
        6.3799999999999999,
        6.4000000000000004,
        6.4199999999999999,
        6.4400000000000004,
        6.46,
        6.4800000000000004,
        6.5,
        6.5199999999999996,
        6.54,
        6.5599999999999996,
        6.5800000000000001,
        6.5999999999999996,
        6.6200000000000001,
        6.6399999999999997,
        6.6600000000000001,
        6.6799999999999997,
        6.7000000000000002,
        6.7199999999999998,
        6.7400000000000002,
        6.7599999999999998,
        6.7800000000000002,
        6.7999999999999998,
        6.8200000000000003,
        6.8399999999999999,
        6.8600000000000003,
        6.8799999999999999,
        6.9000000000000004,
        6.9199999999999999,
        6.9400000000000004,
        6.96,
        6.9800000000000004,
        7.0,
        7.0199999999999996,
        7.04,
        7.0599999999999996,
        7.0800000000000001,
        7.0999999999999996,
        7.1200000000000001,
        7.1399999999999997,
        7.1600000000000001,
        7.1799999999999997,
        7.2000000000000002,
        7.2199999999999998,
        7.2400000000000002,
        7.2599999999999998,
        7.2800000000000002,
        7.2999999999999998,
        7.3200000000000003,
        7.3399999999999999,
        7.3600000000000003
    ]
}