{
    "f0": [
        49.586504839195399,
        37.071217669297233,
        49.237303117580652,
        45.453645859294809,
        50.215680912405801,
        49.617809664668911,
        49.672919627650231,
        49.727854836690838,
        49.255294133411155,
        49.523734186997515,
        46.506411268958658,
        49.014812568273541,
        49.30510293885601,
        52.705332797539413,
        45.752979165200387,
        49.146955294299204,
        49.748384900798598,
        49.795162205032426,
        53.06921105100534,
        51.306765250877632,
        50.901355889928801,
        50.049163915399411,
        45.681871502002252,
        36.477265842810382,
        51.379596330987965,
        49.472663365941628,
        49.493816676462401,
        50.075304212733741,
        49.662211056291838,
        49.909452519497307,
        47.845064719149121,
        49.778627776748998,
        47.417647396890814,
        48.284279814751571,
        49.678624330810436,
        50.000507108846392,
        54.600541548124873,
        50.13720056086089,
        50.856683214637464,
        43.503959424692468,
        42.862532182303482,
        42.978340303098996,
        40.005657420738402,
        43.203560872767724,
        43.192806584305629,
        42.909510639267474,
        43.144518737588093,
        42.925540860932983,
        42.986734749374214,
        42.920634679549714,
        42.869358990441683,
        43.282175146372836,
        42.710394989856951,
        42.931288670311943,
        43.683794500244943,
        45.159487874303814,
        42.851508289274747,
        42.945009564190336,
        43.085375107326954,
        42.522208957914387,
        43.3732652037082,
        42.58420894832669,
        43.011441046414916,
        49.886394612815934,
        47.183772014772437,
        43.099562892194385,
        36.562151915800754,
        37.706014132766548,
        42.986048067838325,
        49.439277409071089,
        36.885017436147834,
        39.824100441328497,
        46.831745896333686,
        47.247269454888773,
        46.23772998592564,
        49.449409660639326,
        44.190187392764066,
        46.864452454034762,
        49.995204597148089,
        50.417424349585666,
        51.001860983652477,
        52.328727983585679,
        52.148666878656286,
        52.546810764699757,
        52.188743778943959,
        53.293775323170529,
        53.256420649244518,
        54.474895527614372,
        54.609711191371275,
        55.248650345977801,
        56.803965439914329,
        58.649582714951876,
        0.0,
        0.0,
        49.632539444506577,
        49.282781839085473,
        37.651885032857926,
        37.263135643861737,
        37.586617141416426,
        51.916844304073337,
        41.305472635804733,
        53.442254224507806,
        55.209788378559189,
        55.711397297231656,
        55.608734648000087,
        55.521088692359257,
        55.597402428957878,
        55.853102226237922,
        56.189015831502118,
        56.477409897388725,
        56.679100803634917,
        56.56927902286909,
        56.4008493301301,
        56.432288259793374,
        56.29009823183425,
        56.192099802159049,
        55.896748456969888,
        56.208397212525803,
        56.955250249811101,
        56.161402277580706,
        56.417317985084509,
        56.504798724073417,
        56.591842134607774,
        56.850713567464823,
        56.847117235815496,
        56.650953755908482,
        56.376204797923613,
        56.143544034914228,
        55.710156765982369,
        55.878999330945774,
        56.251369847791139,
        56.166003205979678,
        55.775550304732995,
        56.211641051049028,
        56.41101193796294,
        56.469692016075875,
        56.769552093634005,
        56.596320186801876,
        56.391483051367246,
        56.184193263873226,
        55.624634912459285,
        55.502986652422173,
        55.9967298684995,
        55.738346577884379,
        55.218989639532211,
        54.109890184336699,
        50.637116890251249,
        49.14469283212982,
        48.713946827718686,
        48.723741797216725,
        48.733535033675388,
        49.086141044971299,
        49.217034807012631,
        49.34694817623437,
        49.475893920419665,
        49.776147545851281,
        49.488006291107766,
        49.044021081829072,
        49.008841019046898,
        49.107015857590881,
        49.058720916119242,
        49.00630707265713,
        49.190643362124298,
        49.205486656622476,
        49.476485515728832,
        49.789914686232436,
        50.097768416196459,
        49.345606693357588,
        49.238275140679718,
        51.577498442880511,
        52.181671329738904,
        52.247000609951328,
        52.398294824874633,
        52.505590723395102,
        52.433044026874526,
        52.270438224384364,
        51.624332422793856,
        51.548189529400148,
        51.471708640985334,
        51.567151555676844,
        51.875709281684834,
        51.900231695589824,
        52.407230085508715,
        52.317239001069488,
        52.226777689629664,
        52.308102791146794,
        52.112503991000935,
        52.205659935802842,
        52.208612106669975,
        52.256467602109069,
        52.239189959554821,
        52.235213728913642,
        52.270532951079652,
        52.334618136831978,
        52.210111715876657,
        52.265667403084862,
        52.33165605006463,
        52.274773921518545,
        52.28714243839498,
        52.299503673699732,
        52.374168579356223,
        52.354622930177491,
        52.343980817335535,
        52.328864854828893,
        52.31373712672891,
        52.298591522224747,
        52.259346344133789,
        52.28842410409743,
        52.279471329657667,
        52.234084808652533,
        52.355601287454974,
        52.296384298813265,
        52.638352291311236,
        52.101874439150954,
        52.14861439017205,
        52.455369513026348,
        52.102126207259005,
        52.222733691348687,
        52.342508516333368,
        52.633720484926187,
        52.920113289930164,
        52.852091261741279,
        52.550222262941197,
        52.403539689981173,
        52.347099556400664,
        52.46725238076565,
        52.584431023996984,
        52.352129088522652,
        52.282631679323501,
        52.301998810282129,
        51.783932186296454,
        51.563433741111417,
        51.693716854299545,
        49.794406725254881,
        50.744132490983297,
        48.831354379963329,
        48.462472814564514,
        48.604946369426514,
        48.802987527920187,
        48.79677081334583,
        49.434541691621732,
        49.901209008027919,
        49.480644219875018,
        49.594173769213519,
        49.479066520875612,
        48.986830732170631,
        49.017807990457847,
        49.048727926562975,
        49.197130911295211,
        49.048205242302046,
        49.093168460438548,
        49.138019169152372,
        49.008757242673823,
        49.584682422510625,
        49.105797811451808,
        49.048055011255919,
        49.28510509185125,
        49.160512351747542,
        49.676133334507341,
        49.748456081453966,
        49.68534752267675,
        49.869724150860321,
        49.709563661335935,
        48.695886601241256,
        48.922379718435863,
        49.09560636884288,
        49.118062010028453,
        48.258041835545662,
        48.59830129628191,
        49.186263386009443,
        49.832110027791614,
        53.269191946303266,
        53.93646972897767,
        55.845665746156975,
        56.653310899938546,
        56.978946414433025,
        57.169173119585665,
        56.966014173042254,
        57.031081178451451,
        57.095904472014865,
        56.810730898655535,
        56.613093943435942,
        56.87827312032681,
        57.310657013389537,
        57.475179424178222,
        57.238767558659248,
        57.34298474179873,
        57.177624213125952,
        57.071718624094608,
        57.594559638871488,
        57.825941545094317,
        58.017085859584256,
        57.697224805392203,
        57.832305458621335,
        57.790201451715099,
        57.747997058158163,
        57.877952241696327,
        57.90258046066473,
        57.629603184571941,
        57.612479145490951,
        57.801320888725549,
        57.693380214452581,
        57.293574415813147,
        57.206274157240195,
        56.922889178971658,
        56.906788546589652,
        57.088829075165265,
        57.327474131734903,
        57.20980963984222,
        57.209063431740773,
        57.208317191474372,
        57.207573329432265,
        57.206829435427146,
        57.2060830988571,
        57.205337896580318,
        56.854834570111834,
        56.676503753821294,
        56.74873040832636,
        57.270765169385399,
        57.033095902199584,
        57.363099624683244,
        57.236951980362981,
        57.04012698256625,
        57.051812903201487,
        57.06348968662931,
        57.754156362494193,
        57.920926417944472,
        58.086106472978514,
        58.075729294262629,
        58.065344855694477,
        57.880959440151621,
        58.125579586940191,
        58.20669714477765,
        58.017538711644654,
        58.106880426599915,
        58.11018268412613,
        58.113482024374974,
        58.097518798626481,
        58.081543057850553,
        58.046937678628446,
        58.021590479527489,
        58.078669729668164,
        58.135561406258461,
        58.192265636236101,
        58.074792745945913,
        58.113257994953543,
        58.080924871213824,
        58.048530211059266,
        58.061489680658795,
        58.101021113454898,
        58.140465873871747,
        58.179818688112739,
        58.138521981895835,
        58.097127713048607,
        58.055634232132064,
        58.065510827849451,
        58.140641220865888,
        58.154098149918823,
        58.218715245879409,
        58.283088625280293,
        58.250951951226568,
        58.240089693716229,
        58.187085442830991,
        58.251326180782002,
        58.054710071615403,
        58.153612855969619,
        58.251953904877851,
        58.2804883403887,
        58.257166100433714,
        58.149899818734845,
        58.196617325716481,
        58.180864018064796,
        58.176312060676395,
        58.249918678405997,
        58.269690309721724,
        58.151697461129714,
        58.133822819578214,
        58.137122153134413,
        58.177170275590129,
        58.071467900854991,
        58.155607833610276,
        58.13689054450645,
        58.166739857150787,
        58.13729642866231,
        58.12656176201385,
        58.135481592813207,
        58.154373403896358,
        58.182830061178223,
        58.21124449627824,
        58.239609075212165,
        58.26792725755989,
        58.220328943933154,
        58.240408267352784,
        58.222212122639142,
        58.266005451976511,
        58.245194809853395,
        58.22436029488604,
        58.029506614952211,
        58.263477363249372,
        58.007847704275775,
        57.917409118756339,
        57.914012926903432,
        58.378638890532557,
        58.274629453799108,
        57.848939237916028,
        57.920714656961081,
        58.178546727300358,
        58.102939907840472,
        58.071262485504143,
        58.360200160067805,
        58.022864974444964,
        57.965213902663962,
        58.10712033554357,
        58.551104166424302,
        58.836776754900271,
        58.302381434190941,
        57.476734327003768,
        57.763189600933572,
        58.014348980098859,
        50.576010878605494,
        51.15630708455037,
        51.20260455100464,
        51.248778427064238,
        46.755723672555902,
        46.8795152869059,
        47.174691190483941,
        46.673711525410233,
        47.059258726742982,
        46.452116358008773,
        0.0,
        0.0,
        0.0,
        0.0,
        0.0,
        0.0,
        0.0,
        0.0,
        0.0,
        0.0,
        0.0,
        0.0,
        0.0,
        0.0,
        0.0,
        0.0,
        0.0,
        0.0,
        0.0,
        0.0,
        0.0,
        0.0,
        0.0,
        0.0,
        0.0,
        0.0,
        0.0,
        0.0,
        0.0,
        0.0,
        0.0,
        0.0,
        0.0,
        0.0,
        0.0,
        0.0,
        0.0,
        0.0,
        0.0,
        0.0,
        0.0,
        0.0,
        0.0,
        0.0,
        0.0,
        0.0,
        0.0,
        0.0
    ],
    "time": [
        0.02,
        0.040000000000000001,
        0.059999999999999998,
        0.080000000000000002,
        0.10000000000000001,
        0.12,
        0.14000000000000001,
        0.16,
        0.17999999999999999,
        0.20000000000000001,
        0.22,
        0.23999999999999999,
        0.26000000000000001,
        0.28000000000000003,
        0.29999999999999999,
        0.32000000000000001,
        0.34000000000000002,
        0.35999999999999999,
        0.38,
        0.40000000000000002,
        0.41999999999999998,
        0.44,
        0.46000000000000002,
        0.47999999999999998,
        0.5,
        0.52000000000000002,
        0.54000000000000004,
        0.56000000000000005,
        0.57999999999999996,
        0.59999999999999998,
        0.62,
        0.64000000000000001,
        0.66000000000000003,
        0.68000000000000005,
        0.69999999999999996,
        0.71999999999999997,
        0.73999999999999999,
        0.76000000000000001,
        0.78000000000000003,
        0.80000000000000004,
        0.81999999999999995,
        0.83999999999999997,
        0.85999999999999999,
        0.88,
        0.90000000000000002,
        0.92000000000000004,
        0.93999999999999995,
        0.95999999999999996,
        0.97999999999999998,
        1.0,
        1.02,
        1.04,
        1.0600000000000001,
        1.0800000000000001,
        1.1000000000000001,
        1.1200000000000001,
        1.1399999999999999,
        1.1599999999999999,
        1.1799999999999999,
        1.2,
        1.22,
        1.24,
        1.26,
        1.28,
        1.3,
        1.3200000000000001,
        1.3400000000000001,
        1.3600000000000001,
        1.3799999999999999,
        1.3999999999999999,
        1.4199999999999999,
        1.4399999999999999,
        1.46,
        1.48,
        1.5,
        1.52,
        1.54,
        1.5600000000000001,
        1.5800000000000001,
        1.6000000000000001,
        1.6200000000000001,
        1.6399999999999999,
        1.6599999999999999,
        1.6799999999999999,
        1.7,
        1.72,
        1.74,
        1.76,
        1.78,
        1.8,
        1.8200000000000001,
        1.8400000000000001,
        1.8600000000000001,
        1.8799999999999999,
        1.8999999999999999,
        1.9199999999999999,
        1.9399999999999999,
        1.96,
        1.98,
        2.0,
        2.02,
        2.04,
        2.0600000000000001,
        2.0800000000000001,
        2.1000000000000001,
        2.1200000000000001,
        2.1400000000000001,
        2.1600000000000001,
        2.1800000000000002,
        2.2000000000000002,
        2.2200000000000002,
        2.2400000000000002,
        2.2599999999999998,
        2.2799999999999998,
        2.2999999999999998,
        2.3199999999999998,
        2.3399999999999999,
        2.3599999999999999,
        2.3799999999999999,
        2.3999999999999999,
        2.4199999999999999,
        2.4399999999999999,
        2.46,
        2.48,
        2.5,
        2.52,
        2.54,
        2.5600000000000001,
        2.5800000000000001,
        2.6000000000000001,
        2.6200000000000001,
        2.6400000000000001,
        2.6600000000000001,
        2.6800000000000002,
        2.7000000000000002,
        2.7200000000000002,
        2.7400000000000002,
        2.7599999999999998,
        2.7799999999999998,
        2.7999999999999998,
        2.8199999999999998,
        2.8399999999999999,
        2.8599999999999999,
        2.8799999999999999,
        2.8999999999999999,
        2.9199999999999999,
        2.9399999999999999,
        2.96,
        2.98,
        3.0,
        3.02,
        3.04,
        3.0600000000000001,
        3.0800000000000001,
        3.1000000000000001,
        3.1200000000000001,
        3.1400000000000001,
        3.1600000000000001,
        3.1800000000000002,
        3.2000000000000002,
        3.2200000000000002,
        3.2400000000000002,
        3.2599999999999998,
        3.2799999999999998,
        3.2999999999999998,
        3.3199999999999998,
        3.3399999999999999,
        3.3599999999999999,
        3.3799999999999999,
        3.3999999999999999,
        3.4199999999999999,
        3.4399999999999999,
        3.46,
        3.48,
        3.5,
        3.52,
        3.54,
        3.5600000000000001,
        3.5800000000000001,
        3.6000000000000001,
        3.6200000000000001,
        3.6400000000000001,
        3.6600000000000001,
        3.6800000000000002,
        3.7000000000000002,
        3.7200000000000002,
        3.7400000000000002,
        3.7599999999999998,
        3.7799999999999998,
        3.7999999999999998,
        3.8199999999999998,
        3.8399999999999999,
        3.8599999999999999,
        3.8799999999999999,
        3.8999999999999999,
        3.9199999999999999,
        3.9399999999999999,
        3.96,
        3.98,
        4.0,
        4.0199999999999996,
        4.04,
        4.0599999999999996,
        4.0800000000000001,
        4.0999999999999996,
        4.1200000000000001,
        4.1399999999999997,
        4.1600000000000001,
        4.1799999999999997,
        4.2000000000000002,
        4.2199999999999998,
        4.2400000000000002,
        4.2599999999999998,
        4.2800000000000002,
        4.2999999999999998,
        4.3200000000000003,
        4.3399999999999999,
        4.3600000000000003,
        4.3799999999999999,
        4.4000000000000004,
        4.4199999999999999,
        4.4400000000000004,
        4.46,
        4.4800000000000004,
        4.5,
        4.5199999999999996,
        4.54,
        4.5599999999999996,
        4.5800000000000001,
        4.5999999999999996,
        4.6200000000000001,
        4.6399999999999997,
        4.6600000000000001,
        4.6799999999999997,
        4.7000000000000002,
        4.7199999999999998,
        4.7400000000000002,
        4.7599999999999998,
        4.7800000000000002,
        4.7999999999999998,
        4.8200000000000003,
        4.8399999999999999,
        4.8600000000000003,
        4.8799999999999999,
        4.9000000000000004,
        4.9199999999999999,
        4.9400000000000004,
        4.96,
        4.9800000000000004,
        5.0,
        5.0199999999999996,
        5.04,
        5.0599999999999996,
        5.0800000000000001,
        5.0999999999999996,
        5.1200000000000001,
        5.1399999999999997,
        5.1600000000000001,
        5.1799999999999997,
        5.2000000000000002,
        5.2199999999999998,
        5.2400000000000002,
        5.2599999999999998,
        5.2800000000000002,
        5.2999999999999998,
        5.3200000000000003,
        5.3399999999999999,
        5.3600000000000003,
        5.3799999999999999,
        5.4000000000000004,
        5.4199999999999999,
        5.4400000000000004,
        5.46,
        5.4800000000000004,
        5.5,
        5.5199999999999996,
        5.54,
        5.5599999999999996,
        5.5800000000000001,
        5.5999999999999996,
        5.6200000000000001,
        5.6399999999999997,
        5.6600000000000001,
        5.6799999999999997,
        5.7000000000000002,
        5.7199999999999998,
        5.7400000000000002,
        5.7599999999999998,
        5.7800000000000002,
        5.7999999999999998,
        5.8200000000000003,
        5.8399999999999999,
        5.8600000000000003,
        5.8799999999999999,
        5.9000000000000004,
        5.9199999999999999,
        5.9400000000000004,
        5.96,
        5.9800000000000004,
        6.0,
        6.0199999999999996,
        6.04,
        6.0599999999999996,
        6.0800000000000001,
        6.0999999999999996,
        6.1200000000000001,
        6.1399999999999997,
        6.1600000000000001,
        6.1799999999999997,
        6.2000000000000002,
        6.2199999999999998,
        6.2400000000000002,
        6.2599999999999998,
        6.2800000000000002,
        6.2999999999999998,
        6.3200000000000003,
        6.3399999999999999,
        6.3600000000000003,
        6.3799999999999999,
        6.4000000000000004,
        6.4199999999999999,
        6.4400000000000004,
        6.46,
        6.4800000000000004,
        6.5,
        6.5199999999999996,
        6.54,
        6.5599999999999996,
        6.5800000000000001,
        6.5999999999999996,
        6.6200000000000001,
        6.6399999999999997,
        6.6600000000000001,
        6.6799999999999997,
        6.7000000000000002,
        6.7199999999999998,
        6.7400000000000002,
        6.7599999999999998,
        6.7800000000000002,
        6.7999999999999998,
        6.8200000000000003,
        6.8399999999999999,
        6.8600000000000003,
        6.8799999999999999,
        6.9000000000000004,
        6.9199999999999999,
        6.9400000000000004,
        6.96,
        6.9800000000000004,
        7.0,
        7.0199999999999996,
        7.04,
        7.0599999999999996,
        7.0800000000000001,
        7.0999999999999996,
        7.1200000000000001,
        7.1399999999999997,
        7.1600000000000001,
        7.1799999999999997,
        7.2000000000000002,
        7.2199999999999998,
        7.2400000000000002,
        7.2599999999999998,
        7.2800000000000002,
        7.2999999999999998,
        7.3200000000000003,
        7.3399999999999999,
        7.3600000000000003,
        7.3799999999999999,
        7.4000000000000004,
        7.4199999999999999,
        7.4400000000000004,
        7.46,
        7.4800000000000004,
        7.5,
        7.5199999999999996,
        7.54,
        7.5599999999999996,
        7.5800000000000001,
        7.5999999999999996,
        7.6200000000000001,
        7.6399999999999997,
        7.6600000000000001,
        7.6799999999999997,
        7.7000000000000002,
        7.7199999999999998,
        7.7400000000000002,
        7.7599999999999998,
        7.7800000000000002,
        7.7999999999999998,
        7.8200000000000003,
        7.8399999999999999,
        7.8600000000000003,
        7.8799999999999999,
        7.9000000000000004,
        7.9199999999999999,
        7.9400000000000004,
        7.96,
        7.9800000000000004,
        8.0,
        8.0199999999999996,
        8.0399999999999991,
        8.0600000000000005,
        8.0800000000000001,
        8.0999999999999996,
        8.1199999999999992,
        8.1400000000000006,
        8.1600000000000001,
        8.1799999999999997,
        8.1999999999999993,
        8.2200000000000006,
        8.2400000000000002,
        8.2599999999999998,
        8.2799999999999994,
        8.3000000000000007,
        8.3200000000000003,
        8.3399999999999999,
        8.3599999999999994,
        8.3800000000000008,
        8.4000000000000004,
        8.4199999999999999,
        8.4399999999999995,
        8.4600000000000009,
        8.4800000000000004,
        8.5,
        8.5199999999999996,
        8.5399999999999991,
        8.5600000000000005,
        8.5800000000000001,
        8.5999999999999996,
        8.6199999999999992,
        8.6400000000000006,
        8.6600000000000001,
        8.6799999999999997,
        8.6999999999999993,
        8.7200000000000006,
        8.7400000000000002,
        8.7599999999999998,
        8.7799999999999994,
        8.8000000000000007,
        8.8200000000000003,
        8.8399999999999999,
        8.8599999999999994,
        8.8800000000000008,
        8.9000000000000004,
        8.9199999999999999,
        8.9399999999999995,
        8.9600000000000009,
        8.9800000000000004,
        9.0,
        9.0199999999999996,
        9.0399999999999991,
        9.0600000000000005,
        9.0800000000000001,
        9.0999999999999996,
        9.1199999999999992,
        9.1400000000000006,
        9.1600000000000001,
        9.1799999999999997,
        9.1999999999999993,
        9.2200000000000006,
        9.2400000000000002,
        9.2599999999999998,
        9.2799999999999994,
        9.3000000000000007,
        9.3200000000000003,
        9.3399999999999999,
        9.3599999999999994,
        9.3800000000000008,
        9.4000000000000004,
        9.4199999999999999,
        9.4399999999999995,
        9.4600000000000009,
        9.4800000000000004,
        9.5,
        9.5199999999999996,
        9.5399999999999991
    ]
}