{
    "DU": 1,
    "DV": 302,
    "F-measure": 0.5467625899280575,
    "F-measure Chroma": 0.7841726618705035,
    "FN": 1,
    "FNC": 0,
    "FNCch": 0,
    "FNI": 1,
    "FNIch": 1,
    "FP": 49,
    "GU": 49,
    "GV": 254,
    "Overall Accuracy": 0.5016501650165016,
    "Overall Chroma Accuracy": 0.7194719471947195,
    "Precision": 0.5033112582781457,
    "Precision Chroma": 0.7218543046357616,
    "Raw Chroma Accuracy": 0.8582677165354331,
    "Raw Pitch Accuracy": 0.5984251968503937,
    "Recall": 0.5984251968503937,
    "Recall Chroma": 0.8582677165354331,
    "TN": 0,
    "TO": 303,
    "TP": 253,
    "TPC": 152,
    "TPCch": 218,
    "TPI": 101,
    "TPIch": 35,
    "Voiced Chroma Accuracy": 0.8582677165354331,
    "Voiced Pitch Accuracy": 0.5984251968503937,
    "Voicing Accuracy": 0.834983498349835,
    "Voicing Detection": 0.9960629921259843,
    "Voicing False Alarm": 1.0
}