{
    "DU": 158,
    "DV": 325,
    "F-measure": 0.7291666666666666,
    "F-measure Chroma": 0.8263888888888888,
    "FN": 66,
    "FNC": 0,
    "FNCch": 13,
    "FNI": 66,
    "FNIch": 53,
    "FP": 36,
    "GU": 128,
    "GV": 355,
    "Overall Accuracy": 0.6521739130434783,
    "Overall Chroma Accuracy": 0.7391304347826086,
    "Precision": 0.7553956834532374,
    "Precision Chroma": 0.8561151079136691,
    "Raw Chroma Accuracy": 0.7830985915492957,
    "Raw Pitch Accuracy": 0.6281690140845071,
    "Recall": 0.7046979865771812,
    "Recall Chroma": 0.7986577181208053,
    "TN": 92,
    "TO": 483,
    "TP": 289,
    "TPC": 223,
    "TPCch": 265,
    "TPI": 66,
    "TPIch": 24,
    "Voiced Chroma Accuracy": 0.7464788732394366,
    "Voiced Pitch Accuracy": 0.6281690140845071,
    "Voicing Accuracy": 0.7888198757763976,
    "Voicing Detection": 0.8140845070422535,
    "Voicing False Alarm": 0.28125
}