{
    "DU": 97,
    "DV": 452,
    "F-measure": 0.803960396039604,
    "F-measure Chroma": 0.8811881188118812,
    "FN": 44,
    "FNC": 13,
    "FNCch": 31,
    "FNI": 31,
    "FNIch": 13,
    "FP": 44,
    "GU": 97,
    "GV": 452,
    "Overall Accuracy": 0.7395264116575592,
    "Overall Chroma Accuracy": 0.8105646630236795,
    "Precision": 0.803960396039604,
    "Precision Chroma": 0.8811881188118812,
    "Raw Chroma Accuracy": 0.9358407079646017,
    "Raw Pitch Accuracy": 0.8097345132743363,
    "Recall": 0.803960396039604,
    "Recall Chroma": 0.8811881188118812,
    "TN": 53,
    "TO": 549,
    "TP": 408,
    "TPC": 353,
    "TPCch": 392,
    "TPI": 55,
    "TPIch": 16,
    "Voiced Chroma Accuracy": 0.8672566371681416,
    "Voiced Pitch Accuracy": 0.7809734513274337,
    "Voicing Accuracy": 0.8397085610200364,
    "Voicing Detection": 0.9026548672566371,
    "Voicing False Alarm": 0.4536082474226804
}