{
    "DU": 76,
    "DV": 146,
    "F-measure": 0.5683646112600537,
    "F-measure Chroma": 0.739946380697051,
    "FN": 45,
    "FNC": 12,
    "FNCch": 32,
    "FNI": 33,
    "FNIch": 13,
    "FP": 26,
    "GU": 57,
    "GV": 165,
    "Overall Accuracy": 0.4774774774774775,
    "Overall Chroma Accuracy": 0.6216216216216216,
    "Precision": 0.5988700564971752,
    "Precision Chroma": 0.7796610169491526,
    "Raw Chroma Accuracy": 0.8424242424242424,
    "Raw Pitch Accuracy": 0.5272727272727272,
    "Recall": 0.5408163265306123,
    "Recall Chroma": 0.7040816326530612,
    "TN": 31,
    "TO": 222,
    "TP": 120,
    "TPC": 75,
    "TPCch": 107,
    "TPI": 45,
    "TPIch": 13,
    "Voiced Chroma Accuracy": 0.6484848484848484,
    "Voiced Pitch Accuracy": 0.45454545454545453,
    "Voicing Accuracy": 0.6801801801801802,
    "Voicing Detection": 0.7272727272727273,
    "Voicing False Alarm": 0.45614035087719296
}