{
    "DU": 38,
    "DV": 505,
    "F-measure": 0.6715151515151516,
    "F-measure Chroma": 0.673939393939394,
    "FN": 0,
    "FNC": 0,
    "FNCch": 0,
    "FNI": 0,
    "FNIch": 0,
    "FP": 261,
    "GU": 299,
    "GV": 244,
    "Overall Accuracy": 0.5101289134438306,
    "Overall Chroma Accuracy": 0.5119705340699816,
    "Precision": 0.5101289134438306,
    "Precision Chroma": 0.5119705340699816,
    "Raw Chroma Accuracy": 0.9836065573770492,
    "Raw Pitch Accuracy": 0.9795081967213115,
    "Recall": 0.9822695035460993,
    "Recall Chroma": 0.9858156028368794,
    "TN": 38,
    "TO": 543,
    "TP": 244,
    "TPC": 239,
    "TPCch": 240,
    "TPI": 5,
    "TPIch": 4,
    "Voiced Chroma Accuracy": 0.9836065573770492,
    "Voiced Pitch Accuracy": 0.9795081967213115,
    "Voicing Accuracy": 0.5193370165745856,
    "Voicing Detection": 1.0,
    "Voicing False Alarm": 0.8729096989966555
}