{
	"f0": [NaN,52.86103466,52.55802863,53.3108577,58.9446811,58.857162,59.1884624,59.34671253,59.38347774,59.48935286,59.67425384,59.89777685,60.08155857,60.04996921,59.97366737,60.05623738,60.07250697,60.10211802,60.17187426,60.26271664,60.65088067,60.95287315,61.26040613,61.59144761,61.94162465,62.19893316,62.20368376,62.07160889,61.85795034,61.62489235,61.40743076,61.35611388,61.43002633,61.50506134,61.39197882,61.12816046,60.77868294,60.27383612,59.43473375,59.79923602,60.31607728,60.56134605,60.67952855,60.70250618,60.66904088,60.63200799,60.52069109,60.17797003,60.00613742,60.24532867,59.87281779,59.87819957,59.95292877,60.68075074,63.48682058,62.13439958,61.20576796,61.70942247,61.97447175,61.95867019,61.88812221,61.76213952,61.54028675,61.18613791,60.80771017,60.73552117,61.4377342,61.52483579,60.91732291,60.85847172,60.84771406,48.76871822,62.82507759,62.62443049,62.75433565,62.9500192,62.99306187,63.02798195,63.03526793,62.99094169,62.94810889,63.03900222,63.325473,63.68230399,63.93992247,64.08752188,64.12201803,64.08196844,63.96975996,63.88604144,63.86907782,64.01854024,64.29235383,64.50896266,64.46885443,64.26886779,64.14898145,64.46916633,64.44947216,36.60327154,52.02655664,61.91594785,61.05085573,60.90896025,60.91072333,61.02335957,61.09254232,61.13279156,61.26782782,61.52599975,61.70527224,61.75731803,61.62486298,61.17984929,60.73834142,60.45307284,60.37777634,60.14759039,59.75669652,59.9074286,60.09811461,60.185271,60.23579418,60.3668381,60.44018217,60.32788501,60.10025604,59.80170908,59.16692676,58.53643658,58.43154107,58.4272164,58.39398207,58.2926882,58.16392164,58.0987708,58.10205147,58.134144,58.23084326,58.37589432,58.58357093,58.38090949,58.27430037,58.35998351,58.21419302,58.2542593,58.63580888,56.83074352,56.35645828,56.1677836,56.19862793,56.33689002,56.47242803,56.6302003,56.77958766,56.85922027,56.85220259,56.82136467,56.9540543,56.90146766,56.77525421,56.69965447,61.79756897,60.2161902,60.09419019,60.14521329,60.19534837,60.26740897,60.27635808,60.28445262,60.3897556,60.48115632,60.3434661,60.07105684,59.25282501,58.68436507,58.2241313,57.90990022,57.79248145,57.63116527,57.48871401,57.42971757,57.45985928,57.50214398,57.56055718,57.77352863,58.20523805,58.66862804,59.03865557,59.31733024,59.44413877,59.32763772,59.13542158,58.97195046,58.79521491,58.65623912,58.6047854,58.57045282,58.56024575,58.59873505,58.64010643,58.63244795,58.62701411,58.63551551,58.50872397,58.47153098,58.55752267,58.66852375,58.5699842,56.85451197,52.81964674,52.59053557,54.34028146,35.34627069,35.33460979,53.81672538,53.71483228,51.5764787,55.10293501,55.21696102,51.44077769,54.87380864,54.90148366,76.93035138,76.93035138,73.96506013,74.80781824,76.93035138,52.52250777,58.39353641,58.37826101,58.42002457,57.62434389,57.61238454,57.69404749,52.91180154,51.35418588,57.38225499,57.34639272,57.41612942,57.45780731,56.41025558,56.2766473,56.16685236,56.16024393,56.27902438,56.69978089,57.12346375,57.60843983,57.90341241,58.08923362,58.13801907,58.18208136,58.23572905,58.31268213,58.44361091,58.49264058,58.41477828,58.33971767,58.31915871,58.31316551,58.33440276,58.32616472,58.43968478,58.5225641,58.40570142,58.12800983,57.75807347,57.16271822,56.7073405,57.91080137,58.30980234,57.90748358,56.97565563,56.59589912,56.30125513,56.26611539,56.39358498,56.50229428,56.71008653,56.93519629,56.98179415,56.79743617,56.42859312,56.41932457,56.41453368,56.8893202,55.29280077,54.60791922,53.73615413,53.69081403,53.69908801,53.7073903,53.81452347,54.09351825,54.48974147,54.66729823,53.88672827,54.03645553,54.09732538,53.95122865,54.15990684,59.91818937,58.39795237,58.34865132,58.38696302,58.51420383,58.58360061,58.62122281,58.71309439,58.86559767,58.91936013,58.87867323,58.78127997,58.56368636,58.55000463,58.7219096,59.58114623,59.79680414,72.96391769,59.4433563,39.9632091,39.91394982,59.97481234,59.87948464,53.02167313,54.92345989,53.21503819,52.97738768,52.92602022,50.39235498,41.86107395,40.71907687,53.85968161,55.4617161,52.78881189,52.9618716,53.03110864,53.56873246,53.52571171,52.92213198,42.9224708,35.34887861,76.93035138,76.93035138,76.93035138,76.93035138,76.93035138,76.93035138,76.93035138,76.93035138,76.93035138,76.93035138,76.93035138,76.93035138,76.93035138,76.93035138,76.93035138,76.93035138,76.93035138,76.93035138,76.93035138,76.93035138,76.93035138,76.93035138,76.93035138,76.93035138,76.93035138,76.93035138,76.93035138,76.93035138,76.93035138,76.93035138,76.93035138,76.93035138,76.93035138,76.93035138,76.93035138,76.93035138,76.93035138,76.93035138,76.93035138,76.93035138,76.93035138,76.93035138,76.93035138,76.93035138,76.93035138,76.93035138,76.93035138,76.93035138,76.93035138,76.93035138,76.93035138,76.93035138,76.93035138,76.93035138,76.93035138,76.93035138,76.93035138,76.93035138,76.93035138,76.93035138,76.93035138,76.93035138,76.93035138,76.93035138,76.93035138,76.93035138,76.93035138,76.93035138,76.93035138,76.93035138,76.93035138,76.93035138,76.93035138,76.93035138,76.93035138,76.93035138,76.93035138,76.93035138,76.93035138,76.93035138,76.93035138,76.93035138,76.93035138,76.93035138,76.93035138,76.93035138,76.93035138,76.93035138,76.93035138,76.93035138,76.93035138,76.93035138,76.93035138,76.93035138,76.93035138,76.93035138,76.93035138,76.93035138,76.93035138,76.93035138,76.93035138,76.93035138,76.93035138,76.93035138,76.93035138,76.93035138,76.93035138,76.93035138,76.93035138,76.93035138,76.93035138,76.93035138,76.93035138,76.93035138,76.93035138,76.93035138,76.93035138,76.93035138,76.93035138,76.93035138,76.93035138,76.93035138,76.93035138,76.93035138,76.93035138,76.93035138,76.93035138,76.93035138,76.93035138,76.93035138,76.93035138,76.93035138,76.93035138,NaN,NaN],
	"ap0": [NaN,0.426695178,0.4111073369,0.4634726791,2.422135382,0.1796268078,0.06501037724,0.00401405321,0.001778624933,0.002392584469,0.003021436909,0.004802146615,0.003288047228,0.004334037357,0.004847324334,0.005525483813,0.005763049624,0.005071956893,0.005274821847,0.009818299023,0.01189172691,0.00506050324,0.006148181284,0.004098897179,0.006678447592,0.003402364001,0.002627423945,0.004250481905,0.005374665663,0.005883010673,0.004333800266,0.003827413057,0.004086930724,0.004437093567,0.005681940422,0.006329036564,0.00913417291,0.02330943916,0.02276658164,0.0255873817,0.014361072,0.009460784175,0.006228492968,0.005014189914,0.006067287709,0.00473351705,0.009259754638,0.04868924765,0.2497304195,0.5988796157,0.2969073118,0.2567656708,0.2290158417,0.4666144507,0.2376889793,0.2882490022,0.1178588693,0.01946592255,0.003692059101,0.003182570068,0.002322439731,0.002835966849,0.005594871719,0.01195771411,0.02986781792,0.1060875224,0.09898577855,0.2001499322,0.2769846127,0.4624143482,0.6419545257,0.4918016908,0.07780540335,0.0195345543,0.004316109696,0.002210854751,0.002837667662,0.002436311996,0.00142098878,0.001436962753,0.0011462835,0.003859804926,0.009858092661,0.009597514179,0.00620667006,0.001479761195,0.001383627183,0.002006044523,0.001744683797,0.001361427987,0.000716213676,0.007030397346,0.0117191758,0.007109633169,0.01339817445,0.02680186824,0.09435669075,0.2147158669,0.4789088233,0.5070992237,0.4659196132,0.2067793366,0.04182793267,0.008745183465,0.00423145238,0.003149644504,0.00214910798,0.003649953908,0.007977189658,0.01041755907,0.006507841364,0.006452046133,0.01279984163,0.0140763057,0.01031384391,0.01600826988,0.03632366293,0.05448814846,0.009662845829,0.01538362261,0.007992150617,0.008258918508,0.01089264578,0.008126593949,0.005306587822,0.004877931094,0.008095798845,0.01475532315,0.01959289039,0.0106831878,0.008831473423,0.00855594157,0.007250433677,0.007556125241,0.004462605676,0.001841491411,0.001461747126,0.001783678036,0.00536934745,0.01908006579,0.03965416118,0.02723422798,0.04070986217,0.09602133328,0.07869140955,0.04782673887,0.3709441199,0.479996037,0.2872525155,0.03447647512,0.03075863873,0.02261983763,0.01486767035,0.01667459641,0.01456769701,0.02322243501,0.03015769638,0.01424982123,0.009964936326,0.01787539373,0.0391250033,0.2295071322,0.2814525312,0.226698213,0.05311371773,0.009504677811,0.01041070426,0.009679115049,0.009102658356,0.00910252591,0.009505704232,0.007086662541,0.008191890017,0.03376178304,0.04890496353,0.01840527191,0.01799185762,0.01187577968,0.01129079275,0.007352957269,0.006520780683,0.005495536308,0.003444278841,0.003295009469,0.005257491026,0.009227458851,0.01010890348,0.01347321526,0.009428770669,0.007087893893,0.003793220456,0.003914811168,0.003798193794,0.004215970773,0.004396243278,0.003348762328,0.003856066149,0.00547936588,0.009765498601,0.02808409395,0.1101265482,0.4098057613,0.3594176096,0.1554340722,0.1202033204,0.1283270113,0.1358922325,0.1856563653,0.419576266,0.7075155869,0.65688878,0.6786133841,0.7233764448,0.5929266735,0.704482269,0.6925467554,0.6722622613,0.6863886914,0.6631606696,0.7694339501,0.6923286005,0.6399148333,0.6918821787,0.7604724029,0.848207134,0.7346342122,0.5910392417,0.9116448941,0.7652028739,0.1930994708,0.158810188,0.1786995826,0.363246584,0.4680920894,0.5699234519,0.5618562744,0.5446358859,0.620113516,0.4667272706,0.4182608446,0.8045027719,0.1639816297,0.09757961282,0.01494801336,0.01393021228,0.04595673701,0.05836567268,0.07049408192,0.0392083392,0.02650391235,0.02001277454,0.01671713403,0.01269900012,0.009524770012,0.009272312526,0.009624855314,0.01012169024,0.009547720448,0.006716443156,0.006785338833,0.006346885635,0.005695283355,0.00810685026,0.01044011841,0.00687146098,0.008391846864,0.01289506825,0.02979863897,0.06107663958,0.1647156102,0.3514147679,0.4327851678,0.2664588842,0.1906977777,0.02712489009,0.02070021558,0.01812456994,0.01581526121,0.01396458607,0.01417670663,0.01267691498,0.01040043147,0.03921553571,0.1664239088,0.2466946335,0.3468181623,0.2797718064,0.225489578,0.168002833,0.04049732127,0.02243843344,0.01972700813,0.01461913192,0.02149431927,0.03841829249,0.02517417329,0.06815966303,0.5000775616,0.5020198715,0.5514742675,0.5148574167,0.5891080458,0.4055080117,0.04103437755,0.009527552946,0.005525353059,0.006353698589,0.007620502626,0.008838722943,0.008746230128,0.0102629024,0.008898305853,0.009238571132,0.02632845686,0.0505692398,0.1450665785,0.1633518237,0.4143151034,0.5917717703,0.7290953775,0.7021853705,0.5442583148,0.5605925419,0.5851010332,0.5689951609,0.6631616013,0.5842883035,0.4994626578,0.4928417421,0.7370381337,0.7575367939,0.7037833279,0.7990001242,0.6800431248,0.7653122246,0.6778346503,0.55840141,0.5002129776,0.5261080024,0.6544179784,0.706921102,0.9780011888,1.223626393,1,1,1,1,1,1,1,1,1,1,1,1,1,1,1,1,1,1,1,1,1,1,1,1,1,1,1,1,1,1,1,1,1,1,1,1,1,1,1,1,1,1,1,1,1,1,1,1,1,1,1,1,1,1,1,1,1,1,1,1,1,1,1,1,1,1,1,1,1,1,1,1,1,1,1,1,1,1,1,1,1,1,1,1,1,1,1,1,1,1,1,1,1,1,1,1,1,1,1,1,1,1,1,1,1,1,1,1,1,1,1,1,1,1,1,1,1,1,1,1,1,1,1,1,1,1,1,1,1,1,1,1,1,NaN,NaN],
	"ap": [NaN,0.6664281428,0.2234832773,0.2031622818,0.7348346321,0.450503177,0.5901191113,0.02269069535,0.001352108586,0.000531482798,0.003582086174,0.00196768301,0.00441609211,0.00194221234,0.004953598947,0.004868667746,0.001421134552,0.001890306907,0.004262684148,0.002229443289,0.008489632951,0.02797015498,0.009856567914,0.00793944148,0.006696994726,0.0071742696,0.001266506748,0.002631168089,0.005111261276,0.006131486281,0.007958718883,0.002726017821,0.001923650059,0.001213309041,0.004851178448,0.003921511886,0.003013002181,0.009443607624,0.03333248026,0.01693875008,0.04416514096,0.004140255724,0.01017525357,0.003232227149,0.002631144679,0.002009455642,0.003654597369,0.02304784674,0.02379702347,0.103336417,0.5909076014,0.2142422503,0.225097474,0.1475357235,0.5461959286,0.2386441258,0.1081732025,0.05595169117,0.01742377656,0.0009205221948,0.003143892472,0.002420583363,0.001290373825,0.003517684968,0.008508946136,0.02895013294,0.03086202248,0.01193037223,0.06749359258,0.4541627412,0.09841806869,0.3719176654,0.5839788067,0.2874312381,0.05983523974,0.002044778832,0.001685424786,0.001230424001,0.001089899121,0.001427358126,0.001913711037,0.001147014872,0.01329524781,0.01820497467,0.02044692977,0.003775264762,0.000403514624,0.0005911769391,0.002199528994,0.000338115237,0.001040073454,0.002550558576,0.01769630636,0.008287359241,0.00365558659,0.008581318188,0.003446773661,0.1095555727,0.2214884312,0.2565285645,0.1926504516,0.3623000989,0.4451777278,0.1884180727,0.003104520012,0.002682365422,0.002525562224,0.001558766332,0.002393397893,0.01430638261,0.009419608478,0.006300760078,0.003925502998,0.03521553415,0.0162938201,0.009759332585,0.00237245934,0.0264045912,0.0445150425,0.007188238857,0.01826164902,0.008770489265,0.001246440013,0.004670370939,0.004897541531,0.005118345021,0.0066753311,0.01070052918,0.0392701527,0.01646045886,0.004192721362,0.006837174775,0.004513738883,0.007194642037,0.01037217568,0.00189763341,0.001112675826,0.001941037287,0.003706947721,0.005120792361,0.008432979716,0.04652055476,0.007957092638,0.04194995514,0.08777779242,0.04955739337,0.03290192623,0.1684904913,0.6083759762,0.01063454062,0.02319416101,0.01599533179,0.01593352374,0.01310648558,0.01396898069,0.007321144249,0.006606198608,0.06295716205,0.01469318884,0.002582868759,0.01182115162,0.02234395872,0.5409233937,0.4412019211,0.3164214959,0.006204788175,0.008302047539,0.007126939981,0.003387392389,0.004166754385,0.01183704763,0.005404550341,0.006590925045,0.01599803472,0.04373053013,0.02473247789,0.01256202055,0.01068600125,0.003377478966,0.002334851285,0.003314165249,0.002262582077,0.003109064128,0.004043765539,0.001278549072,0.003554430259,0.01295984153,0.01514863388,0.02386645452,0.006189173106,0.0024628382,0.000825710244,0.006518598019,0.001771426903,0.004140674402,0.005062980117,0.0006868363192,0.001420589024,0.003895835718,0.002299674452,0.004608356326,0.04897323437,0.1829505811,0.4767128702,0.02418780403,0.0775985634,0.05068461962,0.06864160671,0.06620259979,0.2248080619,0.5393365661,0.4822864543,0.2507450155,0.3728962321,0.261121522,0.4905643463,0.4448551678,0.4776406139,0.5877664918,0.2837462395,0.3651880472,0.5158324424,0.5586610031,0.8178535297,0.6620065488,0.3958991752,0.7683576244,0.2381511855,0.4323242877,0.4625753001,0.4113954965,0.01483987686,0.08745568696,0.2233420839,0.2586139676,0.5571436072,0.366245986,0.871237781,0.5265256241,0.2622362097,0.1585109985,0.1311763476,0.3728181074,0.008067501103,0.009427951579,0.005794792632,0.0403474418,0.04546600145,0.07806480952,0.02426573331,0.01153847,0.01085428748,0.01355523243,0.007016767249,0.007446919912,0.004359269538,0.005607167688,0.005896265241,0.005508505058,0.003215498994,0.001791852176,0.002933473243,0.002978855177,0.001763311906,0.01032659938,0.003542780471,0.006783799554,0.02798132071,0.03263464692,0.08083691937,0.04171881815,0.09440595122,0.3103573793,0.311848712,0.09415932373,0.03431798299,0.004862378083,0.02516177469,0.00495058494,0.009271272134,0.007017436677,0.007507759196,0.004703187967,0.008591789575,0.4374949533,0.1237663566,0.1576844376,0.6452077216,0.4128472263,0.1159723482,0.02085196215,0.00798280546,0.008570799283,0.004179769449,0.04035404235,0.02735733096,0.008136128019,0.05040820204,0.423305235,0.2266117262,0.1763573266,0.3322297795,0.5720246671,0.6882433348,0.3010539585,0.001849701319,0.003122087662,0.003138993969,0.001837057011,0.00617569121,0.005898231541,0.00355579733,0.006349267145,0.005880985722,0.02775509772,0.04970132202,0.06863232597,0.1702633294,0.2692623619,0.4539531436,0.324467638,0.1950766979,0.299601666,0.2587015653,0.2803381842,0.3958219433,0.4662367667,0.5108356163,0.2201482802,0.471651658,0.3541266399,0.3113392702,0.3709247791,0.4261292339,0.3976388984,0.4452433143,0.3127515971,0.205845665,0.248716477,0.1512960002,0.3997968319,0.4905859407,0.5000012359,1,1,1,1,1,1,1,1,1,1,1,1,1,1,1,1,1,1,1,1,1,1,1,1,1,1,1,1,1,1,1,1,1,1,1,1,1,1,1,1,1,1,1,1,1,1,1,1,1,1,1,1,1,1,1,1,1,1,1,1,1,1,1,1,1,1,1,1,1,1,1,1,1,1,1,1,1,1,1,1,1,1,1,1,1,1,1,1,1,1,1,1,1,1,1,1,1,1,1,1,1,1,1,1,1,1,1,1,1,1,1,1,1,1,1,1,1,1,1,1,1,1,1,1,1,1,1,1,1,1,1,1,1,NaN,NaN],
	"pwr": [NaN,2.09390153e-06,2.24857928e-06,2.800373154e-06,2.733896522e-06,2.63853528e-06,7.541941582e-06,0.01756611218,0.03986131229,0.04368480977,0.04362044966,0.0347894915,0.02992872429,0.02464591887,0.02524959023,0.0156735108,0.01378238752,0.0141064745,0.01300182482,0.01281496548,0.01480415686,0.01247603868,0.01993913558,0.02036577319,0.0239870391,0.03110094575,0.02778687242,0.03712106829,0.03928458648,0.0452171097,0.03973204127,0.03007564685,0.02597677293,0.03180552664,0.02712052304,0.02098801857,0.02028126809,0.02135575458,0.01841537464,0.009687563187,0.0117793919,0.03764357582,0.04493319983,0.1129800434,0.1817944243,0.1051168216,0.07007408084,0.05249436024,0.04888771635,0.04233744122,0.01243927868,0.003014413544,0.0004390467369,0.0005690889385,0.0001618932514,5.906842589e-05,0.03802579211,0.02528749166,0.03921623658,0.05424831775,0.04880364833,0.05108061355,0.05080701669,0.03715993161,0.0208869189,0.00791068275,0.0006188525952,0.0004232247655,0.0002065626613,3.31539939e-05,2.007451183e-05,6.42654292e-05,0.0001078493606,0.0001156039094,0.01830869429,0.06360790344,0.07483973013,0.06729176862,0.1026064907,0.1410347002,0.1443233615,0.1124304196,0.08792747441,0.087282366,0.08925342308,0.1019195812,0.1068397879,0.1157311675,0.09430872134,0.1082629273,0.09530647864,0.1310899056,0.153806178,0.1662466985,0.1268688972,0.08794176957,0.03290473327,0.004740086042,0.001488597016,0.00212659127,0.001850785863,0.0007913050459,0.0002741007072,0.01055851585,0.08325986183,0.09902559543,0.1121228536,0.1035390293,0.07942535705,0.07788561296,0.06243847602,0.05329144143,0.03978976311,0.03519087103,0.02969152884,0.02843827854,0.03429227929,0.07444815282,0.2090367485,0.08267000236,0.05627930132,0.05439558628,0.05837723609,0.03205757718,0.02882275059,0.02915157119,0.03030385992,0.02765928594,0.02831246538,0.01830680062,0.01516542136,0.01766564808,0.02954534812,0.04630822966,0.1167425389,0.113191977,0.09942630442,0.1097034875,0.1264046194,0.1222078345,0.107100699,0.02247523335,0.01907412474,0.004139511475,0.0008332210755,0.0003849369799,0.001001860742,0.0003575742514,0.0003300288944,0.02781995734,0.01969379013,0.01714255737,0.01152976371,0.01100634636,0.01103422945,0.007256269685,0.007378603927,0.006419221959,0.004233583826,0.003255584406,0.003880774929,0.002115853117,0.0001321156603,2.948394481e-05,0.01045316326,0.05818191586,0.07291829217,0.07028010257,0.05353984357,0.04420394811,0.04285466222,0.03726772031,0.0307878901,0.03347790439,0.03708210074,0.01333720147,0.01676426256,0.02045811118,0.01989392871,0.02146271571,0.02135958729,0.01956419576,0.02076223684,0.01960678629,0.01845620094,0.01294938233,0.01239396061,0.01035060178,0.01319113582,0.01689708119,0.01855009445,0.02210540817,0.02177745369,0.02430482065,0.02702213476,0.0204235073,0.02069842076,0.01984815316,0.01418346156,0.007295061978,0.003350164741,0.0003825133165,7.87264191e-05,7.480966783e-06,5.102596441e-05,6.277816446e-05,1.867310232e-05,2.455258711e-05,2.629404269e-05,2.795111571e-05,5.489851054e-06,4.199280985e-06,5.490537979e-06,6.113325807e-06,8.298162339e-06,1.932591647e-05,9.775818264e-06,1.13067638e-05,9.496385083e-06,1.345078706e-05,6.442176111e-06,9.517320564e-06,5.869616383e-06,5.795035774e-06,8.563323797e-06,2.332855984e-05,5.038764077e-05,6.281308394e-05,8.517797437e-06,1.131717761e-05,7.854848729e-06,0.004100401539,0.001273866275,0.0003503078977,0.0001029048122,2.394830198e-05,1.223522597e-05,5.819315922e-06,4.929473328e-06,2.07832011e-06,3.576060954e-06,6.873806622e-06,0.0003293430857,0.06077380791,0.03430797593,0.02473074816,0.01486157574,0.01398034799,0.01468592643,0.0201555593,0.02232955296,0.02023670727,0.02118302922,0.02331517666,0.02137363954,0.0177796379,0.01526250153,0.01486080123,0.01549832729,0.01555110883,0.01414387319,0.01266744764,0.01268372779,0.01172149856,0.0119075622,0.01398104961,0.01269879043,0.01132197025,0.00705666547,0.002674075189,0.0005323729204,0.0001611284715,4.590499538e-05,5.768822979e-05,0.04247444357,0.04621091353,0.02689149395,0.02525138422,0.01928181267,0.01270195959,0.01217602719,0.01527854408,0.01464133247,0.009533659988,0.0003140891759,0.0001531538177,0.0001920563539,7.531390882e-05,0.01236487955,0.02173087777,0.01149068958,0.01419655555,0.01319548862,0.01483095217,0.01362511368,0.01290930542,0.01195872121,0.005338288605,0.0001670356287,0.000116257439,0.0001811938454,0.0001705184174,9.247752264e-05,7.806218977e-05,0.001306671515,0.06430610606,0.06302768202,0.05039191114,0.04262333022,0.04506995521,0.0460712537,0.04608422349,0.04137089015,0.03751660865,0.02413461153,0.01065728231,0.0004543492495,0.0003726722253,0.0001646564843,0.0002945097797,0.000153549376,0.0001597961645,0.0002368598736,9.316705899e-05,0.0001445717543,4.391874031e-05,1.314283304e-05,2.666812371e-06,4.464725196e-06,8.322202959e-07,3.720242821e-07,1.686898198e-07,1.532105889e-07,4.656470928e-08,3.899151892e-08,4.374146512e-08,2.304553885e-08,9.106960016e-09,4.826064054e-09,1.524806849e-09,8.824350159e-10,2.640640227e-10,4.491614779e-11,0,0,0,0,0,0,0,0,0,0,0,0,0,0,0,0,0,0,0,0,0,0,0,0,0,0,0,0,0,0,0,0,0,0,0,0,0,0,0,0,0,0,0,0,0,0,0,0,0,0,0,0,0,0,0,0,0,0,0,0,0,0,0,0,0,0,0,0,0,0,0,0,0,0,0,0,0,0,0,0,0,0,0,0,0,0,0,0,0,0,0,0,0,0,0,0,0,0,0,0,0,0,0,0,0,0,0,0,0,0,0,0,0,0,0,0,0,0,0,0,0,0,0,0,0,0,0,0,0,0,0,0,0,NaN,NaN],
	"sr": 16000,
	"range": [1,152954],
	"minf0": 63.1883,
	"maxf0": 706.3069,
	"thresh": 0.1,
	"relflag": 1,
	"hop": 320,
	"bufsize": 10000,
	"wsize": 640,
	"lpf": 4000,
	"shift": 0,
	"plotthreshold": 0.2
}
