{
    "DU": 233,
    "DV": 122,
    "F-measure": 0.5727848101265823,
    "F-measure Chroma": 0.5949367088607594,
    "FN": 52,
    "FNC": 0,
    "FNCch": 6,
    "FNI": 52,
    "FNIch": 46,
    "FP": 26,
    "GU": 207,
    "GV": 148,
    "Overall Accuracy": 0.5098591549295775,
    "Overall Chroma Accuracy": 0.5295774647887324,
    "Precision": 0.5973597359735974,
    "Precision Chroma": 0.6204620462046204,
    "Raw Chroma Accuracy": 0.08783783783783784,
    "Raw Pitch Accuracy": 0.0,
    "Recall": 0.5501519756838906,
    "Recall Chroma": 0.5714285714285714,
    "TN": 181,
    "TO": 355,
    "TP": 96,
    "TPC": 0,
    "TPCch": 7,
    "TPI": 96,
    "TPIch": 89,
    "Voiced Chroma Accuracy": 0.0472972972972973,
    "Voiced Pitch Accuracy": 0.0,
    "Voicing Accuracy": 0.780281690140845,
    "Voicing Detection": 0.6486486486486487,
    "Voicing False Alarm": 0.12560386473429952
}