{
    "DU": 17,
    "DV": 310,
    "F-measure": 0.84375,
    "F-measure Chroma": 0.7812500000000001,
    "FN": 0,
    "FNC": 0,
    "FNCch": 0,
    "FNI": 0,
    "FNIch": 0,
    "FP": 78,
    "GU": 95,
    "GV": 232,
    "Overall Accuracy": 0.7431192660550459,
    "Overall Chroma Accuracy": 0.6880733944954128,
    "Precision": 0.7431192660550459,
    "Precision Chroma": 0.6880733944954128,
    "Raw Chroma Accuracy": 0.896551724137931,
    "Raw Pitch Accuracy": 0.9741379310344828,
    "Recall": 0.9759036144578314,
    "Recall Chroma": 0.9036144578313253,
    "TN": 17,
    "TO": 327,
    "TP": 232,
    "TPC": 226,
    "TPCch": 208,
    "TPI": 6,
    "TPIch": 24,
    "Voiced Chroma Accuracy": 0.896551724137931,
    "Voiced Pitch Accuracy": 0.9741379310344828,
    "Voicing Accuracy": 0.7614678899082569,
    "Voicing Detection": 1.0,
    "Voicing False Alarm": 0.8210526315789474
}