{
	"f0": [NaN,50.98831049,51.31455706,38.96632982,41.67554304,55.52348209,52.16680938,55.25135401,52.74318912,52.11394453,51.0048356,57.35244236,55.13489482,55.2575259,56.33282691,57.71010937,58.37499622,58.7246522,58.9636885,59.20045719,59.14100398,58.64216119,57.98297713,58.6642432,57.85168052,61.44130603,61.46444875,61.21998105,60.94985565,60.89460798,60.91515585,60.89540468,60.82099361,60.83246109,60.86160719,60.55225087,60.60011409,61.0724576,61.48568911,61.44873188,61.40149045,61.37974054,61.3476243,61.33124731,61.38595966,61.61323674,61.97007927,62.36198151,62.71358222,62.96308526,62.97377713,62.8416924,62.71505334,62.69997446,62.74239572,62.71896082,62.75544451,62.81647725,62.80978006,62.79056764,62.77355191,62.75190291,62.71197124,62.64350798,62.63745022,62.65168378,62.65245044,62.69237913,62.72087065,62.6803031,62.56392566,62.38736664,62.13439597,61.89888812,62.130719,62.34266132,62.39298248,62.44078558,62.38327117,62.17756246,62.23853136,62.22641052,62.24888655,62.29926903,62.31782362,62.36212589,62.33254375,62.28158548,62.31241802,62.43513276,62.60373801,62.52878536,62.39349829,61.60265629,61.95458518,62.29130283,62.17354997,61.99538258,61.77935414,61.67592527,61.62856146,61.53360198,61.40759875,61.32538929,61.32084889,61.33813698,61.44959589,61.57138413,61.66349137,61.85262303,62.04727947,62.17280707,62.32995811,62.47389754,62.56067629,62.55557762,62.56159122,62.59396868,62.57533493,62.51907798,62.49924514,62.50884449,62.4743617,62.47103041,62.47782981,62.48458065,62.50427679,62.5242326,62.57017975,62.58022644,62.58875105,62.60882002,62.61158025,62.58238044,62.55467824,62.55985074,62.55503885,62.55550908,62.5345928,62.58825646,62.6641893,62.58134809,62.15472422,61.3555231,60.07706837,58.8835223,61.40143082,62.52971811,62.47852135,62.39880194,61.46712503,62.39202282,62.05247711,60.64793086,58.35211239,55.45596794,55.55019413,55.4869851,55.3037122,55.21003136,55.1552764,55.1566036,55.1913216,55.23681332,55.32850608,55.43197832,55.47526652,55.51241306,55.62081543,55.68385084,55.66510593,55.69000597,55.55864208,55.30703248,55.01797132,54.43141101,53.15754835,51.83657672,52.74318912,53.47653459,53.55417883,54.48969532,53.09787151,53.41202248,54.32556968,54.79333061,55.0106289,54.93692337,54.71323284,54.48417935,54.60173619,54.8177157,54.97577527,55.01161692,54.95385193,54.83736311,54.72321892,54.62022119,54.54168954,54.57753445,54.68377624,54.73479109,54.82225283,54.84943016,54.72011668,54.56121429,54.48207146,54.5229663,54.67031476,54.83775883,54.85388561,54.73365808,54.60563804,54.25810648,54.52130001,54.71262168,58.68036542,36.15166017,35.34887861,35.34887861,35.34887861,44.23796469,45.78580198,42.31761986,45.95413884,45.90431963,45.62780613,46.11025542,46.10630024,45.92479638,46.28201489,48.2337697,49.96459527,50.31549102,43.33119802,43.3609195,46.76598824,48.71044203,49.49180247,47.28194739,47.03492041,47.26787276,47.36120583,46.63585397,46.3093103,47.34887861,47.24775426,47.27292888,52.15373894,51.94241602,47.30963063,51.27847681,35.34887861,44.76498857,47.52553871,43.35999571,45.76900418,59.65296372,60.38484368,61.27089824,61.6683346,61.57007195,61.2409669,61.03654376,61.06198995,61.08361402,61.07939289,61.15785169,61.33018625,61.49944829,61.68207583,61.92729171,62.0890935,62.20610525,62.22852267,62.2156767,62.30221019,62.41249951,62.45846471,62.47100771,62.4513124,62.48116367,62.57289191,62.62490588,62.66410381,62.6995829,62.70418538,62.70079142,62.67684816,62.68547075,62.72998094,62.72770941,62.72311182,62.73428379,62.72739112,62.71073973,62.66345553,62.56912131,62.35841066,62.00828094,61.4737508,60.68135037,59.9042244,59.24775624,58.60543828,58.16646885,57.77165074,57.18379938,56.60429062,56.10489552,55.5703785,55.31323147,55.1379766,54.80677595,54.59326759,54.28528037,53.63733319,52.76217563,51.97907114,51.53932414,51.56440569,52.37133691,53.64734509,53.89359686,53.49570134,53.14444869,52.86879276,52.79172413,52.8286527,52.91407704,53.07201,53.25361991,53.52811801,53.78360808,53.74994182,53.68326389,53.61856101,53.55785899,53.57833513,53.64790576,53.53067694,53.4990815,54.0682479,54.18084224,54.0452358,53.80488976,53.25419128,53.03789582,52.83671512,52.63589777,52.62736446,52.76966262,52.90987745,53.20043298,53.66263698,54.17636995,54.44359847,54.48662164,54.27725431,54.05417805,53.922983,53.8144584,53.80756045,53.95080507,54.07080279,54.16996935,54.29202202,54.3106853,54.22742962,54.15640749,54.16142642,54.35253946,54.49541532,54.54857043,54.50513376,54.57205957,54.72441504,54.46775464,54.9224708,54.9224708,58.16354076,47.06413436,51.66081541,51.48682058,51.24077346,51.60009726,46.97766011,35.36406325,43.1086705,52.55802863,35.34887861,43.8160547,39.75382439,47.68039652,43.36090919,43.24332614,43.19672278,43.18805492,36.59782188,50.48294577,50.5848594,50.64214864,50.97508853,53.61767327,50.96621268,52.01414075,52.67493734,51.23417134,42.28447458,51.31455706,42.11230279,35.96166649,41.35901445,76.93035138,76.93035138,76.93035138,76.93035138,76.93035138,76.93035138,76.93035138,76.93035138,76.93035138,76.93035138,76.93035138,76.93035138,76.93035138,76.93035138,76.93035138,76.93035138,76.93035138,76.93035138,76.93035138,76.93035138,76.93035138,76.93035138,76.93035138,76.93035138,76.93035138,76.93035138,76.93035138,76.93035138,76.93035138,76.93035138,76.93035138,76.93035138,76.93035138,76.93035138,76.93035138,76.93035138,76.93035138,76.93035138,76.93035138,76.93035138,76.93035138,76.93035138,76.93035138,76.93035138,76.93035138,76.93035138,76.93035138,76.93035138,76.93035138,76.93035138,76.93035138,76.93035138,76.93035138,76.93035138,76.93035138,76.93035138,76.93035138,76.93035138,76.93035138,76.93035138,76.93035138,76.93035138,76.93035138,76.93035138,76.93035138,76.93035138,76.93035138,76.93035138,76.93035138,76.93035138,76.93035138,76.93035138,76.93035138,76.93035138,76.93035138,76.93035138,76.93035138,76.93035138,76.93035138,76.93035138,76.93035138,76.93035138,76.93035138,76.93035138,76.93035138,76.93035138,76.93035138,76.93035138,76.93035138,76.93035138,76.93035138,76.93035138,76.93035138,76.93035138,76.93035138,76.93035138,76.93035138,76.93035138,76.93035138,76.93035138,76.93035138,76.93035138,76.93035138,76.93035138,76.93035138,76.93035138,76.93035138,76.93035138,76.93035138,76.93035138,76.93035138,76.93035138,76.93035138,76.93035138,76.93035138,76.93035138,76.93035138,76.93035138,76.93035138,76.93035138,76.93035138,76.93035138,76.93035138,76.93035138,76.93035138,76.93035138,76.93035138,76.93035138,76.93035138,76.93035138,76.93035138,NaN,NaN,NaN],
	"ap0": [NaN,0.5994024373,0.6582250274,0.5578745912,0.6810947498,0.8694355226,1.012253905,0.5909901171,0.3549392921,0.3080706145,0.4791289822,0.8102554881,0.07863738778,0.03210268456,0.07277047496,0.04401047048,0.009854729208,0.003818988406,0.003884815229,0.004168328124,0.01283409328,0.03730427721,0.1024526667,0.4540134328,0.6879262055,0.07361264964,0.0260743409,0.01553217418,0.00996794401,0.002104926657,0.003441973429,0.005671258801,0.005418704565,0.01818448465,0.04269649141,0.02225376595,0.006029108413,0.02651459738,0.01043820677,0.00198190314,0.001199029345,0.001105345628,0.001008829483,0.0009905931981,0.002020235475,0.005118925368,0.007735538085,0.005894638851,0.004059172816,0.002389421473,0.002664411926,0.001673133786,0.001248850203,0.001163593073,0.000773361584,0.0006374091238,0.0009960418781,0.0007294487681,0.000759773945,0.0009159296708,0.000864244381,0.0006971732779,0.0009277941202,0.0008048896599,0.0007208198735,0.0007352348707,0.0008513645812,0.0009800936876,0.0006950597781,0.0007921175545,0.001164104499,0.00200372958,0.00359516609,0.002261686393,0.005372879298,0.002733934251,0.006160301807,0.01356776437,0.01756165551,0.004296700865,0.001750727061,0.001566520194,0.001850097482,0.001431085887,0.001167668614,0.001641003813,0.002534817618,0.001750509393,0.002999065964,0.009557621632,0.006678438705,0.003772182663,0.04148720132,0.1442346442,0.1213594942,0.1634145818,0.03235829587,0.0120528374,0.00522169303,0.002481161106,0.001658076612,0.003064716252,0.002773409076,0.0008722359238,0.0007954399616,0.001041795865,0.002965818678,0.001366973084,0.001994362491,0.005691345479,0.001468140304,0.003043492007,0.002472694082,0.003230528862,0.001594373531,0.0008477954296,0.0008769634431,0.0005822290279,0.0005314874385,0.0006675834812,0.0003801578205,0.000361853492,0.0005441278332,0.0005431464688,0.0004489606317,0.000693351473,0.0007160429605,0.0005707944734,0.0005980235358,0.0006818075092,0.0008983871958,0.0005648179964,0.0005384143304,0.0008828265713,0.0004587589107,0.0004417232047,0.0004207959826,0.0007421828901,0.001180642237,0.002672131472,0.00182340501,0.005820411447,0.02610723324,0.06316511791,0.09016482228,0.1411383227,0.4080891393,0.3914360664,0.4533126717,0.6552898585,0.7279025416,0.7094689395,0.7173976661,0.7394628589,0.363853356,0.08557021787,0.01276749541,0.007197874618,0.0029835397,0.003090601298,0.003541542249,0.002444232386,0.0027222749,0.002787522241,0.002983984354,0.002763944487,0.003127054308,0.004790477606,0.00667923561,0.004750395284,0.003338262265,0.003496746961,0.006205387659,0.006458400518,0.01840320911,0.04941809984,0.07659724421,0.2118243258,0.3939077824,0.4303273799,0.5921525854,0.3859069754,0.1607736972,0.06433880786,0.04201456277,0.01481421518,0.01326693558,0.01138829845,0.01564079759,0.007390700635,0.004509456738,0.005321658199,0.00264673362,0.00162681678,0.002372588074,0.003491625207,0.003126008114,0.002581537392,0.00199341323,0.004108716837,0.003817846592,0.003105843725,0.0038781488,0.002426481719,0.00288465324,0.0030373758,0.00219197533,0.00333189432,0.00452939999,0.004769622733,0.006361550137,0.0102731724,0.02903855904,0.0861538478,0.4811997243,0.3967148388,0.8451569154,0.7435276836,0.5991113716,0.6123763185,0.6346921083,0.8622513751,0.6475174386,0.6949964293,0.6522171604,0.5770009514,0.5946042105,0.5635426382,0.4459957892,0.3999018175,0.6084429411,0.7981395496,0.5764533046,0.7085801493,0.6334372871,0.57410686,0.7374063701,0.6769320575,0.7135971132,0.671052389,0.5951893183,0.6865438445,0.6895055677,0.6821974485,0.5392024401,0.5727766893,0.6379713997,0.7376094643,0.6200052172,0.7245542237,0.6375014429,0.711729255,0.6588433295,0.7133822691,0.6751025665,0.6122933866,0.6458214006,0.09522227404,0.04293706432,0.0297945786,0.01741610528,0.03329880475,0.03547159439,0.00615210945,0.00444475271,0.002865633251,0.002819836122,0.006199175892,0.007016633848,0.003558459847,0.01431125272,0.01105638379,0.007596518434,0.004126328965,0.002833737636,0.002946227178,0.006270357313,0.005053049941,0.003077827923,0.002261037227,0.001833623584,0.002588417605,0.003801934335,0.004021175636,0.003268046046,0.002391527855,0.003333715182,0.003098672797,0.002452771411,0.002424394946,0.002582390369,0.002642542375,0.002353009979,0.002110851317,0.001606091632,0.001615088782,0.001719230839,0.002586787167,0.007300720477,0.01478535996,0.03436086384,0.04750174724,0.05014946308,0.05055225912,0.03122680354,0.02162914292,0.03041328559,0.04310779933,0.03643100073,0.04345293783,0.0339387643,0.01626989015,0.01839641694,0.008489133342,0.01347561311,0.02591984393,0.02951805395,0.03743029712,0.05415281855,0.0442457626,0.03886215611,0.05847985273,0.05986985691,0.02343464668,0.04682048688,0.03639770371,0.0127532546,0.01216590552,0.01203797363,0.008654813517,0.0140730872,0.02180803746,0.02283467257,0.008343437094,0.005513064612,0.003485770134,0.002608992437,0.002816832348,0.003207287805,0.002702811871,0.003939602336,0.007118919169,0.0224707845,0.01864342597,0.02536218366,0.03652734284,0.0299937032,0.02189257067,0.02106575279,0.01451129425,0.01339090289,0.01301043173,0.008237865961,0.02938904368,0.06798903312,0.04762880726,0.01644778784,0.0122103947,0.01511648918,0.008560463268,0.005538679561,0.003563686527,0.003960230819,0.00315415649,0.002098403669,0.003084676283,0.005218068912,0.004869247605,0.003487454548,0.00408863348,0.004543213664,0.004650658782,0.005726346696,0.007934568971,0.009626298482,0.01877851579,0.03137307396,0.1203025543,0.6646116937,0.6086107057,0.7920811136,0.7762642373,0.7036663463,0.6134804526,0.6055618714,0.723979109,0.7716585207,0.6300924201,0.7844384497,0.7068008785,0.5920653115,0.6749263853,0.8126482055,0.6811329231,0.5575845222,0.680422328,0.7443096813,0.7523708037,0.8414801509,0.7021972965,0.8092368314,0.8100143392,0.6904825118,0.6797707879,0.7023193351,0.7175146139,0.6775233724,0.6066252508,0.6266808552,0.7727876087,0.8342541174,0.7855898682,1.062851661,1,1,1,1,1,1,1,1,1,1,1,1,1,1,1,1,1,1,1,1,1,1,1,1,1,1,1,1,1,1,1,1,1,1,1,1,1,1,1,1,1,1,1,1,1,1,1,1,1,1,1,1,1,1,1,1,1,1,1,1,1,1,1,1,1,1,1,1,1,1,1,1,1,1,1,1,1,1,1,1,1,1,1,1,1,1,1,1,1,1,1,1,1,1,1,1,1,1,1,1,1,1,1,1,1,1,1,1,1,1,1,1,1,1,1,1,1,1,1,1,1,1,1,1,1,1,1,1,1,1,1,NaN,NaN,NaN],
	"ap": [NaN,0.2962424155,0.3302205031,0.2628089363,0.4789429347,0.2416957935,0.3686349905,0.6485149861,0.2789184165,0.3533232257,0.09460268239,0.5720429825,0.7385866962,0.4497577384,0.0731695251,0.116051315,0.03413087009,0.009892331408,0.003812135428,0.008148106792,0.002580920067,0.02510717526,0.01153331069,0.2283101045,0.137010442,0.2611468932,0.7272239011,0.004623819305,0.01785462578,0.004983486501,0.001099573796,0.0008607970274,0.008925041939,0.0004654326096,0.004978441725,0.07040040234,0.002449256666,0.01009051841,0.02857587904,0.01056031162,0.002412311012,0.0005656386226,0.001215238559,0.0005665280191,0.0005203495604,0.003586432549,0.01168782973,0.01190281172,0.01062605099,0.002801067922,0.0004788535631,0.005642978856,0.002076929038,0.0009338219949,0.001473393073,0.0005504192599,0.0004493526075,0.0003865151025,0.0004112452066,0.0009582768989,0.0002412945834,0.0003239695351,0.0002786490022,0.0003197692299,0.0005960618417,0.0003049126259,0.0004373092525,0.0005217750873,0.0001698352637,0.0003259377688,0.001083956421,0.002426542682,0.003476188533,0.003533903016,0.004263439929,0.00647900598,0.0005074492811,0.001682173274,0.005612296904,0.0212169797,0.0007755821101,0.002321492194,0.0005239172414,0.0006323641653,0.0004776635971,0.0004503999051,0.0003872033766,0.002572473876,0.00114097925,0.004213155063,0.005520911313,0.007521840233,0.002112544508,0.040949603,0.1376209543,0.05495386755,0.03787698088,0.1317260936,0.004356656876,0.006471186914,0.0009740268165,0.003504033703,0.003839166848,0.001272876879,0.0004777838206,0.0006017023489,0.003561819829,0.003975643486,0.001094555901,0.007822405928,0.009174255665,0.002399503011,0.006698711273,0.0032149386,0.001957775328,0.001151490205,0.0002626696791,0.001331584407,0.0004009647419,0.001251526188,0.0003478895862,0.0004667007671,0.0007036851239,0.000341351918,0.0004088085263,0.0002110913048,0.0003994952896,0.0001956243796,0.0009560126892,0.0001146161669,0.0003016034723,0.0006838534794,0.0003379951605,9.261369951e-05,0.0007735658604,0.0001980994409,0.0003603309308,0.0001987505904,0.0003012686234,0.0009506070455,0.00167993492,0.001542031592,0.0329559618,0.05045337134,0.1586409974,0.02371411295,0.4232172016,0.2468811983,0.2884357389,0.2233466704,0.3264706946,0.5411876551,0.41596954,0.445375855,0.7290243524,0.3959190763,0.3465235609,0.005078877582,0.003856022133,0.001163828831,0.000264691304,0.004830158446,0.001461318303,0.0009652541692,0.002992734,0.001493806291,0.002373554147,0.0005993186818,0.008471784089,0.007817329967,0.001757883178,0.002461661453,0.006661670634,0.01252634734,0.01723478747,0.0264582419,0.0445259832,0.06113890057,0.08775362986,0.2074710498,0.2689276521,0.6057767655,0.445800702,0.1503758355,0.1879911608,0.03220950669,0.008005792961,0.008710516254,0.01969158573,0.01433181878,0.007248761709,0.00826394299,0.007533421449,0.0009454876143,0.002248109412,0.004024785897,0.004905300489,0.003029910176,0.003173975145,0.0007843003893,0.003878347601,0.002275141886,0.0009788493465,0.002435548579,0.003972608977,0.003483509397,0.001634460272,0.002420378636,0.004355169414,0.004389901247,0.001149376889,0.009945812066,0.002577128536,0.0175510478,0.06948622873,0.1988359183,0.7695347938,0.4783477847,0.2289551747,0.2682308568,0.315398948,0.2270613448,0.3241220317,0.3507611834,0.3220396771,0.2055268649,0.3028966782,0.2354928765,0.209867502,0.2553201133,0.1318896586,0.5186504855,0.6136865975,0.2833525277,0.5806331505,0.2517739787,0.4092063227,0.3256462474,0.3705524709,0.3379953312,0.3656859764,0.5089135217,0.2575848318,0.3638609189,0.5626464306,0.3079716396,0.3078745033,0.3008169607,0.5653448669,0.268729862,0.6261422498,0.3276668757,0.4475323571,0.3658176281,0.5639767231,0.4891726016,0.3659917207,0.7285893727,0.7261301581,0.1039347309,0.03291720843,0.003465940338,0.04152742603,0.005022469081,0.0006290575697,0.005628105808,0.001250990591,0.003239752662,0.01151930459,0.007734934203,0.01046032095,0.01895261273,0.005433233878,0.01114932123,0.001226063098,0.0005687855679,0.003734123931,0.007733121662,0.001350599393,0.001988725261,0.001203278148,0.001037491026,0.001425113716,0.002228721713,0.002629298155,0.003263380625,0.001341354846,0.001240885415,0.001608653209,0.002312974995,0.002757030096,0.000999634141,0.002134236955,0.001768400767,0.0008621816314,0.00147836,0.001515838516,0.002125343711,0.007469375086,0.02037313643,0.05528131169,0.09420743504,0.05813152141,0.06037276532,0.05391689862,0.05347861375,0.03139970974,0.07518987229,0.06549715029,0.07128623326,0.03412647999,0.008811962788,0.008226807686,0.00396628128,0.004317861557,0.01157003288,0.05260990562,0.02132028713,0.03148114251,0.02533205766,0.01394675483,0.03765402328,0.1465396885,0.01616234679,0.05526796787,0.09118815562,0.0189901856,0.002499800178,0.006070398378,0.00177761345,0.01460188027,0.01115482821,0.01184050436,0.01697671069,0.001302206798,0.0009634819285,0.004017913784,0.001287433342,0.0008942729324,0.002131166856,0.002984073692,0.001168194277,0.02627449553,0.01412113486,0.0211716465,0.0165494722,0.04481697619,0.02531839065,0.004483659279,0.0440669237,0.004440499285,0.02903256779,0.01128678699,0.02788018537,0.06444984902,0.05830103882,0.005292396301,0.01025660156,0.007095006081,0.005203962089,0.005522088832,0.004490277871,0.001038746057,0.003617528339,0.002511205163,0.0005283675381,0.002050154871,0.002608498126,0.001317153377,0.0009540441682,0.002442587763,0.003574638582,0.005797148686,0.002516985889,0.004032436516,0.005141067111,0.01003880478,0.03065514389,0.07879564284,0.6291481336,0.2743378696,0.5402808759,0.5092578034,0.2180493348,0.3822393547,0.2658507861,0.280151076,0.248447688,0.5491593198,0.5303713559,0.2689311756,0.5262352476,0.408119043,0.437614604,0.3569195831,0.3386299688,0.2342083178,0.3069786638,0.4308518777,0.5389983439,0.470986362,0.5068652508,0.3585456909,0.4046312002,0.4743983653,0.4452073003,0.2764109783,0.2707697642,0.1740539869,0.5141956082,0.5732899727,0.3076283342,0.5000009106,1,1,1,1,1,1,1,1,1,1,1,1,1,1,1,1,1,1,1,1,1,1,1,1,1,1,1,1,1,1,1,1,1,1,1,1,1,1,1,1,1,1,1,1,1,1,1,1,1,1,1,1,1,1,1,1,1,1,1,1,1,1,1,1,1,1,1,1,1,1,1,1,1,1,1,1,1,1,1,1,1,1,1,1,1,1,1,1,1,1,1,1,1,1,1,1,1,1,1,1,1,1,1,1,1,1,1,1,1,1,1,1,1,1,1,1,1,1,1,1,1,1,1,1,1,1,1,1,1,1,1,NaN,NaN,NaN],
	"pwr": [NaN,1.704499512e-05,1.129117393e-05,2.520705753e-05,1.281788371e-05,1.45771799e-05,7.123685612e-05,6.460134212e-06,8.610425197e-06,3.252705248e-05,4.791460119e-05,2.104380528e-06,1.128884047e-05,4.197871977e-06,0.002395680586,0.004706868149,0.006267916922,0.01221556529,0.01397708347,0.01679639659,0.02282975632,0.02532027567,0.01603017574,0.001948190717,0.0004271512044,0.000140766995,0.0001209851517,0.04922932584,0.06289769516,0.07683861857,0.1583100434,0.1722458499,0.139727952,0.0810581909,0.0607065889,0.01879285499,0.009183890773,0.008820592937,0.00869397398,0.01022048145,0.02108904664,0.02681452678,0.02197670695,0.02063708914,0.02132829025,0.02073882942,0.01870894626,0.01997418843,0.02199229198,0.02566130909,0.02271777337,0.01830140904,0.02189880558,0.02038487882,0.02548370095,0.01975653185,0.02177034632,0.01946607091,0.02004666052,0.01968299953,0.01938692421,0.01883865742,0.01893646528,0.01853920907,0.01828120059,0.01941288688,0.01923012856,0.01911647895,0.02017949872,0.0211606423,0.02230695677,0.02402317518,0.0240045807,0.0213004156,0.01695529393,0.02269255508,0.04044736753,0.03929373356,0.05721397854,0.09253246227,0.02714375612,0.02718175354,0.02452773109,0.02663033716,0.02589859214,0.02616939768,0.03091051199,0.03696579625,0.05318441523,0.08980991227,0.09886995712,0.04118929347,0.02766737664,0.02256779773,0.001709234534,0.001078998084,0.0005791801022,0.001805437555,0.03288423158,0.03458762796,0.0577039251,0.07524237874,0.1121889832,0.1329632045,0.09824283788,0.08561756282,0.06237098643,0.05611912398,0.05494433649,0.05836567852,0.06119823495,0.06238389847,0.08173651459,0.05692595432,0.05990682631,0.08255703816,0.08478385697,0.09902779497,0.08172222196,0.07453144149,0.07169238404,0.06998827152,0.06798928808,0.06906400435,0.07483826426,0.08237527109,0.07835571535,0.0693678254,0.07252694879,0.07736356783,0.07541055278,0.05970548479,0.0589441944,0.05676048461,0.06402294804,0.06234451959,0.05790287026,0.0513584829,0.04955419858,0.05099971203,0.05837459501,0.03860609666,0.02980410897,0.02529451017,0.02963030236,0.02246194348,0.00433906112,0.0002434826971,0.000210119896,0.0005093180681,0.0002098030528,0.0001297174439,0.0001096508723,0.0001062498114,7.529109376e-05,7.661812665e-05,0.0006089271152,0.0073671524,0.01358806015,0.01475409494,0.01569727425,0.0147743983,0.01602291496,0.01604497179,0.01899183539,0.0203470503,0.01947975243,0.02117509358,0.01820516524,0.01676587106,0.01470114313,0.0156176724,0.01866391342,0.0227348677,0.02644639121,0.02767868193,0.01573552474,0.007077302794,0.001237414993,0.0004315269209,5.895452225e-05,6.792405381e-05,9.375953882e-05,0.0005454708679,0.003171319528,0.01090091247,0.01786681376,0.02442686636,0.03882097997,0.04278612014,0.02276758915,0.02185928441,0.01981832008,0.01990654118,0.01941111168,0.0183809551,0.01693797065,0.01828564883,0.01641216615,0.01560735372,0.01247268345,0.00930333335,0.007588107592,0.007194342514,0.008063711203,0.007559446063,0.008248452821,0.007187982494,0.006054595555,0.004759555282,0.004471277477,0.003417899942,0.003227953273,0.002246018306,0.0004209889419,1.868151874e-05,7.120841165e-05,1.03484434e-05,1.62753948e-05,2.271955554e-05,1.761241102e-05,2.332546022e-05,6.255540886e-06,1.16348329e-05,2.070605553e-05,9.148186625e-06,1.293826253e-05,8.780757464e-06,5.549747028e-06,8.724630177e-06,2.037814437e-05,1.654943732e-05,1.673596324e-05,3.429071512e-06,1.163992126e-05,1.802743209e-05,9.515990228e-06,6.500362754e-06,9.636788203e-06,8.557326842e-06,1.524452128e-05,2.11634645e-05,1.111933987e-05,8.520215026e-06,1.389877717e-05,1.289468904e-05,2.05866547e-05,1.588036062e-05,8.680060744e-06,1.099691974e-05,1.304517424e-05,7.394285204e-06,9.948795654e-06,1.331320431e-05,1.047865117e-05,8.297811936e-06,8.504995235e-06,8.737170159e-06,1.841029034e-05,0.00204045854,0.01013805222,0.02169690014,0.0549887442,0.01834217658,0.01869642626,0.01450801648,0.01501144612,0.01371048722,0.01555126101,0.01565487728,0.01249917836,0.01386266091,0.00944040596,0.01546125781,0.01813563702,0.01430739771,0.01611119437,0.0162276268,0.01619401271,0.01957507093,0.0174900826,0.01525675528,0.01522727831,0.01482386073,0.01461591195,0.0135913218,0.01318673206,0.01317321785,0.01356736416,0.01386381858,0.01458671703,0.01602374395,0.01689455835,0.01730037783,0.0173460728,0.01739791475,0.0174474419,0.01893737845,0.02173005401,0.02251412536,0.02549154841,0.02522629254,0.02185634948,0.01727262067,0.02088859284,0.01765997189,0.02165675904,0.02636249573,0.02951270447,0.03262111042,0.02845865634,0.02121741825,0.02052641079,0.02798875657,0.026492442,0.0280747845,0.02312289644,0.01695723587,0.01559804907,0.007713717716,0.005088932624,0.007310185286,0.006197592578,0.01400818569,0.01635838388,0.03702082835,0.04517791108,0.04488893771,0.02356392725,0.01667526955,0.01903769161,0.02177215511,0.0206367634,0.01386306186,0.01117977067,0.009521102767,0.009316696229,0.009151510004,0.008827757905,0.008906702164,0.01024484236,0.01007701798,0.009276734747,0.01290635261,0.0257263401,0.05987997996,0.05290530149,0.02419087912,0.02572055299,0.02818938779,0.02195592238,0.0196179158,0.01817294125,0.02271785336,0.02433638923,0.02854839116,0.02249374478,0.03305542776,0.02512732771,0.01777503881,0.01768141508,0.01705236086,0.01250389593,0.01240850189,0.01089802933,0.01008457721,0.008980266902,0.005833752883,0.003709727869,0.004812349692,0.004717486939,0.004134442296,0.003676777209,0.003015165597,0.002289310908,0.001534966433,0.0008490460931,0.0004930189633,0.000166369913,1.959768465e-05,1.30453991e-05,2.126012121e-05,1.205366124e-05,1.478514285e-05,9.910335689e-06,2.94670493e-05,1.273874176e-05,9.195813891e-06,1.265567465e-05,5.609345959e-06,2.411522629e-05,1.187929321e-05,6.923045602e-06,6.754140438e-06,5.564480043e-06,1.423197387e-05,1.208509183e-05,1.219940269e-05,1.218950024e-07,6.459520749e-08,6.426341225e-08,4.718479301e-08,2.849858381e-08,1.23746778e-08,1.493253551e-08,1.093343899e-08,4.849123727e-09,7.344219497e-09,2.532271533e-09,1.207953042e-09,4.711288398e-10,1.538486646e-10,6.096401254e-11,0,0,0,0,0,0,0,0,0,0,0,0,0,0,0,0,0,0,0,0,0,0,0,0,0,0,0,0,0,0,0,0,0,0,0,0,0,0,0,0,0,0,0,0,0,0,0,0,0,0,0,0,0,0,0,0,0,0,0,0,0,0,0,0,0,0,0,0,0,0,0,0,0,0,0,0,0,0,0,0,0,0,0,0,0,0,0,0,0,0,0,0,0,0,0,0,0,0,0,0,0,0,0,0,0,0,0,0,0,0,0,0,0,0,0,0,0,0,0,0,0,0,0,0,0,0,0,0,0,0,0,NaN,NaN,NaN],
	"sr": 16000,
	"range": [1,174970],
	"minf0": 63.1883,
	"maxf0": 706.3069,
	"thresh": 0.1,
	"relflag": 1,
	"hop": 320,
	"bufsize": 10000,
	"wsize": 640,
	"lpf": 4000,
	"shift": 0,
	"plotthreshold": 0.2
}
