{
    "DU": 56,
    "DV": 425,
    "F-measure": 0.03939745075318657,
    "F-measure Chroma": 0.07415990730011589,
    "FN": 39,
    "FNC": 0,
    "FNCch": 1,
    "FNI": 39,
    "FNIch": 38,
    "FP": 60,
    "GU": 77,
    "GV": 404,
    "Overall Accuracy": 0.035343035343035345,
    "Overall Chroma Accuracy": 0.06652806652806653,
    "Precision": 0.038461538461538464,
    "Precision Chroma": 0.07239819004524888,
    "Raw Chroma Accuracy": 0.039603960396039604,
    "Raw Pitch Accuracy": 0.0,
    "Recall": 0.040380047505938245,
    "Recall Chroma": 0.07600950118764846,
    "TN": 17,
    "TO": 481,
    "TP": 365,
    "TPC": 0,
    "TPCch": 15,
    "TPI": 365,
    "TPIch": 350,
    "Voiced Chroma Accuracy": 0.03712871287128713,
    "Voiced Pitch Accuracy": 0.0,
    "Voicing Accuracy": 0.7941787941787942,
    "Voicing Detection": 0.9034653465346535,
    "Voicing False Alarm": 0.7792207792207793
}