{
	"f0": [NaN,76.93035138,76.93035138,76.93035138,76.93035138,51.14399075,52.84253753,53.11955917,52.69392834,52.8458133,53.11955917,53.50429368,53.11955917,52.83930028,52.93825533,53.03302393,53.3108577,53.09549931,53.11955917,52.90270802,53.11955917,53.3108577,53.05529124,52.9090491,52.85873221,53.11955917,53.26280191,53.11955917,52.72363683,52.93043201,53.11955917,53.22094094,53.3108577,53.11955917,53.10025251,53.11955917,52.55802863,52.74318912,52.72673682,52.97272399,53.3108577,53.22896041,53.3108577,52.73371244,53.02917013,53.50429368,53.24062399,53.11955917,53.11955917,52.93035138,57.43911037,49.62022432,48.89992862,48.33026271,48.00646652,47.91232091,47.80142196,47.689081,47.77458207,47.8837234,47.93195243,47.92423181,47.82426603,47.72789992,47.67249608,47.73244994,47.85113078,47.77775768,47.72732421,47.61262538,47.47533638,47.38252734,47.33329742,47.32826462,47.3170862,47.27741111,47.27618016,47.27795703,47.26590046,47.25425449,47.22327209,47.21051715,47.21564361,47.23853077,47.4183651,47.4707039,47.47442887,47.55950825,47.58315616,47.49991341,47.29326389,46.97299306,46.56748518,46.41872274,48.18673601,35.34887861,35.34887861,35.41717196,50.51464198,47.6434251,50.31349251,49.75523025,49.41474268,49.16849213,49.0433437,48.9903497,48.9565569,48.93003468,48.87372827,48.84073584,48.93792353,49.10735456,49.16958858,49.24738308,49.37360952,49.49051165,49.64072689,49.8571237,50.02217719,49.95901166,49.98474879,50.01220824,49.75501519,49.35391131,49.01486758,48.26281555,50.15444483,51.41816738,51.14399075,50.95214829,55.03499087,46.29130769,58.30752246,57.13850931,52.333935,51.85505179,51.777984,51.7186321,51.59728363,51.50319619,51.37996775,51.22309813,51.26394849,51.39246952,51.56553999,51.781002,51.96107471,52.2240155,52.3683127,52.35131614,52.33172984,52.294053,52.25908317,52.33838302,52.49470888,52.46083821,52.38855546,52.38785429,52.41186337,52.44715941,52.5501685,52.61269096,52.01478699,52.73516874,52.77890854,52.79225681,52.3642904,55.56772588,49.96741681,49.8539215,49.75839052,49.65448714,49.59073707,49.57121046,49.53237652,49.38780813,49.35773348,49.46308985,49.58996849,49.63284401,49.56641226,49.5225683,49.55517567,49.62212116,49.68175485,49.77821467,49.88810301,49.89842359,49.86213099,49.92933629,50.03366918,50.07318643,50.02548915,49.90080008,49.8458318,49.81923682,49.8075241,49.8655453,49.93784836,49.93005063,49.85230643,49.82569159,49.9066293,49.96335715,49.98737981,49.96689557,49.91431894,49.89705633,49.90472776,49.91366194,49.96089036,50.00443787,49.95378687,49.89398382,49.9240776,49.94841615,49.90371823,49.9456884,50.06523725,50.10324502,50.09650617,50.14226217,50.22006062,50.23764843,50.30939376,50.53143693,50.49789086,50.28729938,50.26749993,50.35855742,50.52113569,50.28412177,51.08667952,50.92358286,50.40082545,50.40914112,50.4780494,50.59739818,50.80781824,51.48682058,51.66081541,51.42883227,51.83657672,52.19354484,52.55802863,52.85688795,53.50429368,53.11955917,52.93035138,52.90845716,53.04711909,53.3108577,53.11955917,53.11955917,53.02627643,53.07288351,53.3108577,52.93661965,52.93035138,53.11955917,53.3108577,53.50429368,53.11955917,52.93035138,52.92887435,53.11955917,53.3108577,53.11955917,52.84912353,53.11955917,53.06124149,53.23715095,53.02696187,52.8675809,52.86829586,53.11955917,53.3108577,53.11955917,52.9043478,53.11955917,53.10942297,53.50429368,53.03114648,52.93035138,52.93257469,53.02703545,53.28391405,53.07322904,52.88141837,53.11955917,53.10809356,53.50429368,52.91620019,52.93035138,52.91060366,53.11955917,53.3108577,53.02798734,52.87112462,53.11955917,53.06456466,53.24848166,53.10624009,52.93035138,52.72587384,52.93035138,53.07085489,53.11955917,52.88846706,53.11955917,53.3108577,53.41221872,53.10114656,52.84343824,52.91549604,52.74613627,53.3108577,53.11955917,42.30040362,52.52382107,53.50429368,53.8977729,53.11955917,52.73103815,53.11955917,53.3108577,53.50429368,53.3108577,51.83504805,52.37482755,52.93035138,52.19354484,52.19354484,45.53847862,48.05775369,47.91255711,47.79250597,47.55714665,46.90664575,46.4759969,46.18547318,46.06034999,46.01330811,45.93072003,46.0396954,46.26860881,46.2994997,46.32734512,46.26980816,46.03670986,46.03670986,58.16354076,58.14542127,58.42002457,59.48573577,55.219847,49.09828809,48.04561651,47.37557538,47.00838023,46.71839477,46.63149668,46.63823241,46.58272161,46.60917501,46.62832814,46.57422565,46.62817653,46.67202561,46.53892444,46.52978416,46.58065561,46.64868189,46.69014027,46.71530044,46.71726556,46.76784754,47.11532413,47.44922319,47.71018492,48.18673601,39.22906385,54.9224708,53.69991543,35.34887861,40.06683128,58.68036542,62.80781824,54.74758251,54.73447615,54.8990395,55.35684731,55.89542826,56.21953945,56.41148451,56.49042548,56.59681998,56.60087353,56.513577,56.54986171,56.67861947,56.74150282,56.82810311,56.95256536,57.00065876,56.97310351,56.95734577,56.95758873,56.92632974,56.91804362,56.97116344,57.03285445,57.02323244,56.86838578,56.58415917,55.34593394,56.41509372,56.60833612,56.7248069,56.72420406,55.34995772,62.4780494,48.3810347,54.00844385,56.89770699,55.49526803,55.00930392,54.80705276,54.78610003,54.77364833,54.76318114,54.78811826,54.9691594,55.29979049,55.58990418,55.64316887,55.57418003,55.45633173,55.34276208,55.17683881,55.29278726,55.2397526,55.36953261,55.52523421,55.63073273,55.56825233,55.62627428,54.0979178,52.70579131,52.58563254,52.77697297,53.01556774,53.26282395,53.4063934,53.30240621,53.18786632,53.28249449,53.39895395,53.44212317,53.39874402,53.40551389,53.48146973,53.53138743,53.49750639,53.49455152,53.53731165,53.4864913,53.44606572,53.47163011,53.47599158,53.43376391,53.43748555,53.48336662,53.48509785,53.45457565,53.41595056,53.37998339,53.31958528,53.34615507,53.45937681,53.45172243,53.31087128,53.20845378,53.17916556,53.19075969,53.2160443,53.20032704,53.15981744,53.16057889,53.197978,53.19385724,53.17350239,53.18812725,53.22679744,53.31140803,53.50948434,53.65018161,53.65553307,53.67369489,53.71076755,53.79743499,53.84492373,53.94571344,54.15747697,54.28636721,53.79905824,53.76295683,53.87420925,53.87682538,53.86342265,53.75088887,53.68920093,53.94973358,53.81601055,53.70617416,54.30040362,54.41635725,52.55802863,52.74318912,53.11955917,53.11955917,53.3108577,52.87377846,52.69854612,52.87190092,53.11955917,53.50429368,53.11955917,52.93035138,52.87948148,53.11955917,53.3108577,53.11955917,52.93035138,53.11955917,52.93773398,53.07275625,53.11955917,52.93035138,53.3108577,53.11955917,53.08780044,53.11955917,53.08441057,54.50528578,54.09930716,53.04136177,53.50429368,54.0979178,53.8977729,54.30040362,53.69991543,53.65310658,53.69991543,53.46502025,53.50429368,52.83651733,42.9224708,76.93035138,76.93035138,76.93035138,76.93035138,76.93035138,76.93035138,76.93035138,76.93035138,76.93035138,76.93035138,76.93035138,76.93035138,76.93035138,76.93035138,76.93035138,76.93035138,76.93035138,76.93035138,76.93035138,76.93035138,76.93035138,76.93035138,76.93035138,76.93035138,76.93035138,76.93035138,76.93035138,76.93035138,76.93035138,76.93035138,76.93035138,76.93035138,76.93035138,76.93035138,76.93035138,76.93035138,76.93035138,76.93035138,76.93035138,76.93035138,76.93035138,76.93035138,76.93035138,76.93035138,76.93035138,76.93035138,76.93035138,76.93035138,76.93035138,76.93035138,76.93035138,76.93035138,76.93035138,76.93035138,76.93035138,76.93035138,76.93035138,76.93035138,76.93035138,76.93035138,76.93035138,76.93035138,76.93035138,76.93035138,76.93035138,76.93035138,76.93035138,76.93035138,76.93035138,76.93035138,76.93035138,76.93035138,76.93035138,76.93035138,76.93035138,76.93035138,76.93035138,76.93035138,76.93035138,76.93035138,76.93035138,76.93035138,76.93035138,76.93035138,76.93035138,76.93035138,76.93035138,76.93035138,76.93035138,76.93035138,76.93035138,76.93035138,76.93035138,76.93035138,76.93035138,76.93035138,76.93035138,76.93035138,76.93035138,76.93035138,76.93035138,76.93035138,76.93035138,76.93035138,76.93035138,76.93035138,76.93035138,76.93035138,76.93035138,76.93035138,76.93035138,76.93035138,76.93035138,76.93035138,76.93035138,76.93035138,76.93035138,76.93035138,76.93035138,76.93035138,76.93035138,76.93035138,76.93035138,76.93035138,76.93035138,76.93035138,76.93035138,76.93035138,76.93035138,76.93035138,76.93035138,76.93035138,76.93035138,76.93035138,NaN,NaN],
	"ap0": [NaN,1,1,1,1,0.3985898675,0.3532649684,0.2658980362,0.2537772391,0.2764494324,0.2935241932,0.2995063672,0.269853454,0.2181002573,0.2717295191,0.2879105323,0.2615553724,0.256099742,0.2229406003,0.2480392925,0.259709997,0.2545464748,0.2545890736,0.2188027737,0.253948913,0.2700189214,0.2505410515,0.2875752139,0.2566133449,0.2723006091,0.2811044143,0.274630743,0.2616662604,0.1919708938,0.2143056909,0.255369601,0.4763219605,0.5261727605,0.3682380636,0.3189712591,0.3213636925,0.33812163,0.3563174835,0.2789958116,0.2781925001,0.2637618245,0.2385481438,0.2406672511,0.2744757168,0.4087200142,1.053023051,0.2645928227,0.1333095964,0.02590852095,0.007643670252,0.009162937427,0.01024263933,0.005907080524,0.008019205596,0.007637891715,0.008629640322,0.009319424396,0.01079360047,0.01827140092,0.02173103478,0.02161015245,0.02652938782,0.01966494643,0.01111619999,0.01797083627,0.01468668435,0.01058283556,0.008511669092,0.005871584959,0.005047897969,0.004392295449,0.003960237828,0.003773670291,0.004054794901,0.004386915627,0.004830287085,0.008321630319,0.01944334909,0.03554928107,0.03167326315,0.01647553653,0.01275807991,0.01102854529,0.01076671031,0.01237460093,0.01636333921,0.03693807092,0.07059025979,0.1770053706,0.3790717114,0.1988134221,0.2635979935,0.5704240678,0.7730873825,0.8660498411,0.3184979116,0.09013476319,0.01771317332,0.005965562812,0.002216835552,0.001851071186,0.001940750934,0.002185376299,0.003157160153,0.01434109363,0.02501326665,0.007619175189,0.006717941304,0.008144167809,0.008997484708,0.01171246241,0.00991303975,0.01436414632,0.01062723267,0.008973190891,0.00989226999,0.01148158172,0.02931879091,0.02991061061,0.05999209721,0.1815605691,0.416808664,0.5081000302,0.6914070351,0.7586519389,0.763181586,0.7425186342,0.8100013826,0.7412060995,0.2988947124,0.08958789569,0.008688349748,0.005108871897,0.002419346032,0.003774720634,0.01005426498,0.009245588339,0.006625414748,0.00597393916,0.01321891304,0.006384054062,0.01097566808,0.01306877291,0.004585385306,0.004881203808,0.003260869924,0.001561104679,0.004477047879,0.009680370124,0.01295613147,0.04312774571,0.1134460016,0.1228397833,0.09791834834,0.09959397477,0.1659416302,0.2358694925,0.2591006269,0.3180099667,0.3088989409,0.4223000785,0.497442952,0.5866797498,0.134258167,0.04287235803,0.02514257877,0.02281048859,0.01457549793,0.01532398544,0.02325463415,0.02057443129,0.007609769682,0.009931333623,0.00889789521,0.006027088473,0.007467361113,0.002753589952,0.005782479063,0.004538969297,0.005459490334,0.01032547687,0.007031082789,0.006171783219,0.006018300223,0.01456960031,0.005658395689,0.004056164078,0.01090999917,0.006628294227,0.002700051028,0.002918336084,0.002407742605,0.007734466455,0.005421969034,0.005097813089,0.008226843405,0.005891181573,0.005046453367,0.004519848504,0.004389180477,0.005747609539,0.006348659562,0.004088454199,0.003149365916,0.003800606295,0.00558391607,0.004658533662,0.006977695187,0.004745276061,0.006494777625,0.005129633711,0.005624449719,0.01011398326,0.008808070592,0.005750949611,0.005360872633,0.007766356032,0.007850565097,0.006343448742,0.01527492926,0.0174589293,0.0199117031,0.009913410288,0.01154810207,0.02743927657,0.04043200192,0.07436096643,0.2963901108,0.1956104156,0.2428498,0.2056923961,0.1382568209,0.2059430019,0.3907178641,0.3339407281,0.2150320606,0.2479463833,0.3995555923,0.293057619,0.2182548453,0.3037162766,0.2644702251,0.2691218245,0.2360427024,0.2565141279,0.246809871,0.2334975841,0.2312223147,0.1987975198,0.225699436,0.2422807881,0.2525328997,0.2596040778,0.2334147508,0.2533752805,0.2397254305,0.2511941405,0.2832395971,0.2279154915,0.234174081,0.2570824477,0.2457410224,0.2515593237,0.2110255843,0.2296097368,0.2509141967,0.2371445885,0.248987662,0.2193232701,0.2456318319,0.2616002804,0.2710767396,0.2761105818,0.2007627033,0.2140231945,0.225976534,0.2126153258,0.2462125328,0.2323704334,0.2578124373,0.2607414356,0.2455013365,0.2613035654,0.2052275035,0.2377775848,0.2772344982,0.2534133731,0.2627961017,0.2444574734,0.2516992282,0.2347791127,0.2439090741,0.2777776488,0.2288904308,0.217586042,0.2457661927,0.2600783696,0.2532058702,0.2307266681,0.2803812069,0.290949555,0.2695971921,0.2625720409,0.2152761494,0.2294516483,0.2594019229,0.2421475743,0.2470373431,0.2329078598,0.2621106489,0.2917530868,0.31213152,0.3675877077,0.3191708952,0.3378286038,0.3499718997,0.3222346361,0.3371092749,0.2502173017,0.2465757775,0.2498158293,0.2555046076,0.3867024723,0.5281218707,0.5509783452,0.5070093133,0.5366702862,0.5091317615,1.338083309,0.2967915468,0.1289121496,0.09600809285,0.1477470577,0.2542231034,0.1266699247,0.05346865746,0.03396493889,0.04578606733,0.06044154454,0.06098016008,0.0260391495,0.01693647044,0.01501804832,0.06195949841,0.219909102,0.4352333966,0.2251668907,0.2363495242,0.337208035,0.5630176275,1.046388426,0.4201271301,0.2782650065,0.1157009028,0.06608074217,0.03641397212,0.02321802923,0.01027923244,0.006287606308,0.006390469169,0.00614204286,0.007720899421,0.03031355894,0.0319457293,0.008881386076,0.007585604073,0.008661553739,0.009310275358,0.006337617467,0.008726748909,0.01326404779,0.02264037385,0.03570666358,0.02321067984,0.04428181802,0.2935216615,0.428501055,0.4623636785,0.4584817369,0.3015560432,0.4293641008,0.6123013643,0.4953955653,0.146716507,0.01091438353,0.01021023231,0.02143982886,0.009469191448,0.005321276997,0.003017605159,0.003828750808,0.004517205086,0.002323263565,0.001689535946,0.002182251229,0.001280359193,0.001152046374,0.001623791006,0.001077257524,0.0008499235324,0.001047696304,0.0007702076784,0.0007457234877,0.0007665308099,0.0006880430921,0.0008912809927,0.000788725992,0.001096212335,0.00844740101,0.05155672859,0.2449598443,0.1112891706,0.160069777,0.106576205,0.1142781075,0.7193966669,0.7951750274,0.6842993765,0.7616340189,0.5998362137,0.1278480643,0.06315056183,0.005622746218,0.00519930375,0.004253082675,0.002607425349,0.005315488701,0.02172163218,0.02843822269,0.008753620017,0.003691770594,0.006319175173,0.007561423225,0.01550677666,0.04088831271,0.2078826597,0.1248901554,0.1421608695,0.2084363084,0.3604511928,0.3457115513,0.3216610762,0.4353122373,0.196776226,0.008929901754,0.01342988414,0.01750455857,0.02190651491,0.005103751471,0.01604433585,0.00599259214,0.01182543236,0.008494289759,0.005997148799,0.003360306193,0.002975053884,0.002970609964,0.001036679713,0.002026015241,0.002209435254,0.001129504749,0.003673672626,0.001276797103,0.000708122004,0.0008925237539,0.00186413433,0.00186950133,0.0006107028569,0.0005007800817,0.001055484445,0.0009656995954,0.001790354427,0.001332211088,0.003238228032,0.002884271114,0.003728994097,0.006399258469,0.00114589539,0.001087745325,0.001226692651,0.0004815993528,0.0006387619105,0.0007951923146,0.0009144754401,0.0007341228266,0.0008309817679,0.0007242721987,0.001475960837,0.00236100132,0.007389855247,0.01458036823,0.004446569109,0.003306318098,0.002626201007,0.002612784729,0.002632858142,0.003037139163,0.006132746509,0.01787709581,0.05194554038,0.1569637419,0.1868115153,0.1234173987,0.09632779475,0.07272577889,0.06048118089,0.04920719328,0.06052575951,0.1180915878,0.2243537102,0.2769127342,0.5059561495,0.61309369,0.3720603887,0.3046964833,0.2918300257,0.3218966242,0.3097220263,0.2452658222,0.2859404173,0.3024738827,0.2669380671,0.2687756735,0.2413633604,0.2556744244,0.2820365104,0.2773234462,0.2718631789,0.2522712891,0.265096557,0.2874390472,0.2692165748,0.2573386463,0.242267308,0.2664941529,0.2780521144,0.2592362079,0.2685790037,0.3589126101,0.4536683017,1.107496113,0.2991816486,0.3285233907,0.3817907539,0.4980656363,0.3407308129,0.2374195483,0.222769636,0.3073680538,0.461646589,0.5773757792,0.8221869015,1.718038026,1,1,1,1,1,1,1,1,1,1,1,1,1,1,1,1,1,1,1,1,1,1,1,1,1,1,1,1,1,1,1,1,1,1,1,1,1,1,1,1,1,1,1,1,1,1,1,1,1,1,1,1,1,1,1,1,1,1,1,1,1,1,1,1,1,1,1,1,1,1,1,1,1,1,1,1,1,1,1,1,1,1,1,1,1,1,1,1,1,1,1,1,1,1,1,1,1,1,1,1,1,1,1,1,1,1,1,1,1,1,1,1,1,1,1,1,1,1,1,1,1,1,1,1,1,1,1,1,1,1,1,1,1,1,NaN,NaN],
	"ap": [NaN,1,1,1,1,1,1,0.230244725,0.1664437349,0.1379980259,0.1371223451,0.1272103648,0.1227199029,0.1706443132,0.1234761373,0.08732510968,0.1550074371,0.1053468204,0.1313617377,0.1461707452,0.1124872615,0.1461406521,0.1262355614,0.1583676844,0.1153651325,0.09125072593,0.1191289181,0.1162664607,0.1890255886,0.1698116424,0.1014607311,0.161961975,0.1345809488,0.2166919746,0.1092519486,0.08771410616,0.1642104511,0.1254972971,0.3438475954,0.2121602068,0.1415772665,0.2714064025,0.1596508271,0.2448494082,0.2263504317,0.1383987563,0.2062407571,0.1066089632,0.1366222634,0.06168425765,0.7669537698,0.5999091974,0.5453849929,0.03749211694,0.01590789663,0.004656533528,0.001638633612,0.006283495852,0.003054087543,0.005098080587,0.001361900875,0.004092577798,0.01010541666,0.006014836487,0.002025983456,0.005813965633,0.01651499862,0.01219149973,0.008600344069,0.006464110536,0.01653749561,0.005229065368,0.006419097582,0.002934678993,0.002955857592,0.003712273074,0.001909773489,0.00326555507,0.001822996355,0.001873539222,0.002377547024,0.003488840711,0.004157184087,0.007204941205,0.02069543359,0.01200851502,0.008183927215,0.01159407621,0.007689510979,0.00271409446,0.00701938937,0.01411694586,0.02617713534,0.02984728562,0.05875458744,0.07607965901,0.1246285378,0.1145845009,0.3624502011,0.524659406,0.5793855111,0.6353212776,0.0314940466,0.01654626054,0.002995657839,0.001219777209,0.0008371423174,0.001963541695,0.002903479697,0.0008915909347,0.009907038627,0.01010090954,0.001771459486,0.003562536931,0.005391684924,0.006737349474,0.01036313307,0.00621312672,0.004989999542,0.009446295491,0.004812825267,0.006282626538,0.009688402162,0.03001599161,0.01853906801,0.02765655319,0.3654865991,0.702343339,0.1450141678,0.2346026338,0.7635045592,0.5314230523,0.4347604692,0.4871632012,0.2273234727,0.7176693985,0.05202954391,0.00413829085,0.00546159287,0.004475772892,0.005628608238,0.008134782235,0.008136292488,0.006223529861,0.008094255904,0.01216936926,0.002532781409,0.02172552093,0.007150858324,0.003223673331,0.002767034396,0.0023461954,0.0005155917473,0.002025577957,0.004379934898,0.00360933116,0.04362360147,0.06019868122,0.04879021902,0.08483076951,0.02920034738,0.07413376852,0.09412849368,0.1532998988,0.2176511699,0.1233163501,0.1945723901,0.4228353153,0.5058260262,0.2241630844,0.01107339231,0.01832535141,0.01317679244,0.009663743765,0.00445776768,0.02459416323,0.008583314961,0.01327407517,0.01178111667,0.005279950743,0.008503185927,0.002187079863,0.00211516813,0.00483361969,0.002790008695,0.01215834214,0.01229398437,0.001323164102,0.009242270182,0.01223946477,0.01145912212,0.00138953283,0.005792588074,0.01030263999,0.00197393405,0.001736500641,0.0009682656958,0.004010679736,0.00923785509,0.002725149796,0.003588096938,0.001350812111,0.005382934087,0.004069974999,0.002678200101,0.00196472785,0.002278351712,0.005267661691,0.002060259505,0.001886371525,0.003273335797,0.00319108291,0.004049801446,0.003881311976,0.001857961404,0.002206876719,0.003511158338,0.005322133102,0.01809854529,0.002084129801,0.003318200484,0.004168554145,0.003624551347,0.005384358006,0.006018880617,0.0157296013,0.005446436305,0.01212997381,0.003917292073,0.006202926268,0.006330361189,0.01825954768,0.06918281219,0.2965727798,0.1016316186,0.02352850895,0.07512926083,0.2323557525,0.1665473294,0.0273410891,0.07701507843,0.7474544509,0.09366704853,0.03688571168,0.2630033916,0.2291847164,0.156530818,0.09071292302,0.1962757027,0.1299901901,0.1021749603,0.129254859,0.1146300017,0.1211751308,0.1332810732,0.09143472227,0.1076986478,0.1078632533,0.1637626079,0.1241816532,0.1214407574,0.1499731989,0.07121206813,0.1985136285,0.154366012,0.08713889477,0.1379899192,0.105962561,0.1586331933,0.1457135046,0.1070998248,0.1468162996,0.1161398945,0.1549491214,0.129615693,0.09356109759,0.1409103468,0.09483982934,0.203108733,0.1433020067,0.09884102173,0.1363259059,0.06790010817,0.1332038616,0.1260410099,0.09705523676,0.1621614778,0.09526272138,0.1290639269,0.1288303853,0.08636098679,0.1499464851,0.1103612116,0.1533801148,0.1197661742,0.127716619,0.148277424,0.08899377939,0.185782008,0.1510803306,0.09931176266,0.1244915836,0.1135133264,0.1712403166,0.1229814651,0.1177538268,0.1528287567,0.1110838547,0.1678025391,0.128740324,0.08887931693,0.1391019053,0.114299933,0.1429873712,0.1537400514,0.08365968091,0.2129867638,0.1728019281,0.1686752607,0.1609583754,0.1120266658,0.2644487255,0.1472582857,0.2539964926,0.1590638257,0.1114694229,0.1555638432,0.07586696993,0.2669716146,0.1778968912,0.1899913652,0.4590332745,0.1825817867,0.8618574396,0.6503643119,0.485115361,0.03320598387,0.08708340185,0.271752108,0.1083863408,0.05221108864,0.01698666608,0.02038780765,0.01357025111,0.06685104913,0.01747953068,0.02397862723,0.01038751901,0.006072646,0.02022930402,0.256307157,0.1765483091,0.1016910043,0.1363348654,0.2086282057,0.5998209782,0.5501725442,0.5415979282,0.2458724883,0.09739264549,0.01154545832,0.02395935865,0.00702155422,0.00650101219,0.002253051169,0.003155892319,0.002771061076,0.0136920836,0.01000845956,0.01825825459,0.005018620759,0.004000259202,0.007305526942,0.006439794923,0.002249182223,0.004174599315,0.00372445698,0.02570222756,0.02373421034,0.009187573479,0.02685704308,0.2599294017,0.1858341991,0.4308910105,0.1697533335,0.3173978359,0.09931262504,0.4885959626,0.6142651705,0.5487558921,0.007960287747,0.03560167138,0.02724149344,0.003811850343,0.003225977561,0.003336887892,0.001227063642,0.0046759915,0.0004108753569,0.0006935118482,0.001433760134,0.0005602247855,0.001496082465,0.0006067261388,0.0004438767873,0.0002545021905,0.0003485458662,0.0003841502795,0.0004115373317,0.0005219735775,0.001316769274,0.0009867465334,0.0002984308522,0.002288586493,0.005601531927,0.06058535927,0.03333486659,0.009205433766,0.1234106179,0.05125262733,0.3401582464,0.9495852208,0.4968955858,0.7328172347,0.5703315856,0.2622257358,0.2477202628,0.004157875871,0.001009290966,0.002743337921,0.002069561755,0.001462406274,0.01541897071,0.03967611285,0.03210903676,0.003501095086,0.003597096901,0.008377046702,0.003614172277,0.007123271083,0.02250918417,0.1544539054,0.07882899277,0.03705359522,0.09440418604,0.1628418734,0.4013889667,0.6205598036,0.7777658818,0.09721271159,0.008261079313,0.02232432802,0.03601043409,0.01397726978,0.007096157568,0.01368864838,0.01355974529,0.005140980235,0.01236374103,0.0006048590528,0.0009606721474,0.004850388812,0.001746129866,0.0009406257438,0.0006069228741,0.002652654254,0.003780837411,0.001698855508,0.002309279797,0.0001073823531,0.0008971939791,0.0003269083787,0.001845470771,0.0002715468406,0.0003326726921,0.0009693810987,0.0004262923018,0.003827056734,0.0002924217554,0.006614861889,0.000274507533,0.01535172856,0.004860061167,0.0006053561584,0.0003621630947,7.96615407e-05,0.0001812906008,0.001893029798,0.0001167130142,0.0009011504924,0.0003210476285,0.0008850859576,0.0004978752845,0.00142346842,0.003071528744,0.01250207174,0.006210735338,0.001397912326,0.001935581212,0.001507749619,0.002052958557,0.000750709014,0.002265595916,0.005865301343,0.005731566998,0.05532786406,0.4514100638,0.05609176648,0.0482317411,0.04266190022,0.02634116238,0.01542134583,0.03435992101,0.02321491032,0.05667893412,0.09139868781,0.1694258897,0.5821925156,0.4502315967,0.1436715278,0.1593690003,0.134240647,0.1255531264,0.2361109888,0.08543796177,0.1113375448,0.145247514,0.08119400695,0.1892036776,0.08915282052,0.09633993133,0.1293389928,0.0902462715,0.1757283428,0.1043618358,0.104298191,0.1844649803,0.1038892478,0.1434272357,0.1242418861,0.1078319928,0.1444566804,0.0810186725,0.1661092012,0.2090245442,0.3811640164,0.1366781217,0.08730159327,0.2641687083,0.1867982667,0.1293679115,0.1555024175,0.1703066804,0.1646836507,0.1303073841,0.3006231454,0.3080001628,0.5000008319,1,1,1,1,1,1,1,1,1,1,1,1,1,1,1,1,1,1,1,1,1,1,1,1,1,1,1,1,1,1,1,1,1,1,1,1,1,1,1,1,1,1,1,1,1,1,1,1,1,1,1,1,1,1,1,1,1,1,1,1,1,1,1,1,1,1,1,1,1,1,1,1,1,1,1,1,1,1,1,1,1,1,1,1,1,1,1,1,1,1,1,1,1,1,1,1,1,1,1,1,1,1,1,1,1,1,1,1,1,1,1,1,1,1,1,1,1,1,1,1,1,1,1,1,1,1,1,1,1,1,1,1,1,1,NaN,NaN],
	"pwr": [NaN,0,0,0,0,0,0,4.616097783e-07,5.158563951e-07,5.860623008e-07,5.024913852e-07,9.141774754e-07,5.773585904e-07,4.217475652e-07,7.736279732e-07,6.862404832e-07,9.166050909e-07,7.048143842e-07,4.2839815e-07,7.489112012e-07,5.318772989e-07,1.02610987e-06,6.106392273e-07,4.750354434e-07,7.22690419e-07,7.103016897e-07,9.572157867e-07,7.081940606e-07,4.674472091e-07,7.875506809e-07,6.814741857e-07,8.00003233e-07,6.350927934e-07,5.259337211e-07,7.610123751e-07,6.147848371e-07,8.074758683e-07,6.367185814e-07,1.376003893e-06,1.181754771e-06,8.169775053e-07,9.978989277e-07,4.677270125e-07,4.3529129e-07,1.036028452e-06,5.016650146e-07,8.791829827e-07,7.087044971e-07,5.093304655e-07,8.713775416e-07,1.150513598e-06,1.548403199e-06,1.875830983e-05,0.004165764267,0.00441073877,0.004994469794,0.004460685703,0.003372171172,0.003270851474,0.003147979227,0.003048847848,0.002676781166,0.002666978126,0.002494922825,0.001741963877,0.001359440092,0.0012507616,0.002435754033,0.005783092016,0.008967622795,0.01205027865,0.008467068253,0.007982473611,0.009765849748,0.01046036219,0.01100563992,0.01046346219,0.008919445128,0.008662774358,0.00713689862,0.007364930026,0.007676991584,0.007452919713,0.006096072094,0.002886414528,0.002366404613,0.002123784746,0.002223966813,0.00179297662,0.002190431713,0.002111119446,0.002259658485,0.001586751654,0.001004070076,0.0002544319627,4.749806432e-05,1.961130082e-05,1.266160925e-05,8.630845409e-06,4.288543232e-05,2.78590324e-05,2.37651026e-05,0.005731124281,0.0121615308,0.01608301881,0.015391352,0.01661256562,0.01583722923,0.01429014975,0.01264975289,0.01135788762,0.004980376065,0.003852585487,0.003780359161,0.003289293237,0.003077220273,0.002724985368,0.002602806664,0.001842178537,0.001382639224,0.00157784987,0.001224957885,0.00128981205,0.00162249739,0.001407216942,0.0007991647768,0.0001782309798,0.0002409902525,0.0001729659213,0.0002549339149,0.0004283759305,0.000579578949,0.001039301295,0.0007370883159,0.0004561411206,8.951373504e-05,0.01274255687,0.04644930938,0.05126948158,0.04252764977,0.0486219335,0.04103077606,0.02161517996,0.02105288287,0.02798218241,0.019989439,0.01410337711,0.01245160364,0.01075810146,0.01257648739,0.01641554655,0.01629703365,0.01635407708,0.01385121716,0.01024913988,0.007276771742,0.00231181936,0.0003724300519,0.0001241603051,0.0001316623075,8.677133353e-05,4.706425478e-05,2.958407748e-05,2.126396526e-05,1.447282339e-05,1.734000964e-05,8.644545619e-06,3.405339733e-06,3.096078021e-06,0.001455363414,0.008708136659,0.01923475201,0.01668595207,0.02178579155,0.03525082676,0.02187069036,0.009686835202,0.01028547615,0.01137680738,0.01109295221,0.01046468611,0.01251485114,0.01191317502,0.009271671452,0.009540941093,0.01023991758,0.0116781867,0.01290285915,0.01531170907,0.01408972842,0.01238601048,0.01420459769,0.01360127467,0.01004336397,0.008356945789,0.008037801787,0.007735306941,0.007679042699,0.007672284401,0.007302226295,0.007166675905,0.007135169448,0.005190174217,0.004661097616,0.005245670317,0.004073319577,0.003899046032,0.00449129489,0.004940511036,0.004392471539,0.004130003572,0.00371879842,0.003430186139,0.003616680161,0.003403567219,0.003031133208,0.003293441535,0.003178603974,0.002761774743,0.002644156005,0.00275498212,0.002532895555,0.002735816537,0.002367109405,0.002173687115,0.001982068663,0.001202612642,0.001457299993,0.001369580249,0.001243007169,0.001177020796,0.0005014372743,0.0002136437046,3.247889147e-06,1.350915228e-05,2.058160312e-05,3.338265365e-06,3.485661035e-06,3.746088343e-06,3.367924364e-06,1.347018759e-06,4.344707434e-07,2.671718569e-06,1.984763003e-06,4.495402422e-07,4.079610342e-07,1.36115999e-06,6.572476455e-07,4.688437279e-07,6.983830661e-07,6.261361275e-07,8.351829213e-07,6.52115137e-07,4.82734042e-07,6.311470356e-07,6.395916258e-07,9.211925014e-07,6.521561771e-07,5.752384744e-07,6.980582519e-07,6.497494825e-07,8.201328619e-07,6.871305631e-07,5.528709153e-07,6.142928417e-07,6.327223913e-07,8.097571683e-07,6.487256602e-07,5.536149969e-07,6.509906418e-07,5.549272023e-07,8.852366928e-07,6.433183173e-07,5.236378218e-07,6.642476648e-07,6.577241808e-07,8.683651686e-07,6.585947371e-07,4.806598493e-07,7.84603449e-07,6.334718671e-07,8.870965247e-07,7.4375367e-07,5.706634788e-07,7.554591943e-07,5.903899562e-07,8.870088993e-07,6.216037961e-07,5.397315137e-07,7.214922724e-07,7.008301967e-07,8.38957481e-07,5.191626562e-07,6.151398259e-07,6.557979259e-07,5.37291251e-07,9.229924116e-07,6.285877108e-07,5.302424506e-07,6.5137187e-07,7.35280875e-07,7.408939232e-07,6.520215564e-07,5.735884137e-07,7.970218305e-07,5.54381151e-07,8.592889585e-07,7.219253118e-07,4.69853732e-07,7.833785296e-07,6.587315713e-07,8.684015371e-07,4.853129267e-07,6.026611532e-07,7.524169055e-07,7.204435504e-07,9.354773081e-07,5.0989847e-07,6.307929973e-07,5.284163353e-07,7.179993456e-07,9.587256709e-07,6.969650992e-07,5.90848092e-07,8.989444033e-07,6.241594545e-07,9.463094123e-07,6.802483565e-07,9.246375774e-07,9.65483119e-07,1.669004711e-06,9.388477338e-07,3.984344706e-07,7.972451495e-07,5.193812386e-07,4.492146159e-06,0.006761525782,0.02256787496,0.03352773996,0.02474140517,0.02131381292,0.01553850959,0.01248234525,0.009667780785,0.006696278947,0.004649559792,0.005268018556,0.004261239667,0.003228962943,0.002439824973,0.0003418848857,0.0001564645431,0.0001502584518,2.73364808e-05,2.539191591e-05,1.744466568e-05,4.499336202e-05,0.0002997480072,0.00825322839,0.01830094961,0.02088857463,0.02074757565,0.01376858129,0.0200865652,0.01665278709,0.0144345377,0.01483195484,0.01353088126,0.01311288486,0.008097472315,0.006709834875,0.007381583847,0.006570513809,0.004891198143,0.004960072116,0.004822614118,0.003664609526,0.002431824063,0.001863336924,0.001514460794,0.001305593893,0.0006468523523,0.001050161216,0.0003737016285,2.143640066e-05,2.05708705e-05,3.035860771e-05,3.765077473e-06,1.359500655e-06,0.00161861085,0.007386232365,0.0203055746,0.02465595861,0.02341845523,0.02129518625,0.01858271545,0.0162530353,0.01471803185,0.01650137319,0.01495063371,0.01394938264,0.01435619315,0.0138903589,0.01382633149,0.01741710027,0.01947871094,0.01986573964,0.01754339825,0.01852533607,0.01907050993,0.01720597414,0.0158537352,0.01532744448,0.01757174857,0.01984099563,0.01289182423,0.0009815826125,0.000143661951,2.595818531e-05,4.972663968e-05,6.139761099e-05,1.35657204e-05,5.084225456e-05,0.0002308997226,0.000240349558,5.313010824e-05,0.0009014587451,0.01689137492,0.02464316192,0.03095646669,0.0464734711,0.07036088873,0.09278993243,0.07023367988,0.07363285625,0.05404240709,0.07104324007,0.0633773443,0.04285621009,0.02722219518,0.01800532835,0.0003487874036,0.0002173381176,0.0002802988707,0.0003051766203,0.0001676328775,0.0001638889838,0.0001461299212,4.594556481e-05,0.02433544742,0.03319825464,0.04448904613,0.05068940518,0.1242609847,0.163347853,0.1101911554,0.1153784342,0.1294608884,0.09771976625,0.0539688983,0.06223737688,0.06886410156,0.06367004932,0.057515461,0.06308314477,0.06150903257,0.05944396115,0.05731098117,0.06381551524,0.06408791687,0.06292741219,0.06737704694,0.0680312759,0.06670019456,0.0606819011,0.06783613699,0.07018532552,0.07439965289,0.07221032181,0.07671880808,0.07632351255,0.06911169326,0.06441720184,0.06927350282,0.07136678755,0.07108205415,0.07427255196,0.07448059214,0.07835154651,0.07931487644,0.08013626232,0.07426985073,0.06414327899,0.05390605584,0.04160809609,0.02924428569,0.02089502461,0.01525256362,0.01298029602,0.01043206961,0.01034054874,0.01081646818,0.009287106162,0.008447135295,0.007253880783,0.003285520835,9.043252842e-05,0.0001276928366,7.308151718e-05,4.296070049e-05,6.499571319e-05,3.678996187e-05,1.834784833e-05,1.291613787e-05,5.05977949e-06,2.022423809e-06,9.886846855e-07,4.077087493e-07,1.817718849e-07,5.184601133e-07,4.583859693e-07,7.906579413e-07,3.600216889e-07,4.785736768e-07,5.86020656e-07,6.136929637e-07,9.133834967e-07,4.86033329e-07,5.763115199e-07,5.972241546e-07,5.811478451e-07,1.040481341e-06,4.36080282e-07,5.463883534e-07,6.875642422e-07,6.190077185e-07,7.453447934e-07,3.978154612e-07,5.297118585e-07,6.578526356e-07,6.497638034e-07,8.341724592e-07,4.598494762e-07,5.097972039e-07,5.926246688e-07,7.406558253e-07,6.626987221e-09,7.767779648e-09,5.038346835e-09,4.259864104e-09,2.366655013e-09,1.387062102e-09,9.243540362e-10,1.854707741e-09,1.000491464e-09,3.740986746e-10,2.240208355e-10,6.672585519e-11,0,0,0,0,0,0,0,0,0,0,0,0,0,0,0,0,0,0,0,0,0,0,0,0,0,0,0,0,0,0,0,0,0,0,0,0,0,0,0,0,0,0,0,0,0,0,0,0,0,0,0,0,0,0,0,0,0,0,0,0,0,0,0,0,0,0,0,0,0,0,0,0,0,0,0,0,0,0,0,0,0,0,0,0,0,0,0,0,0,0,0,0,0,0,0,0,0,0,0,0,0,0,0,0,0,0,0,0,0,0,0,0,0,0,0,0,0,0,0,0,0,0,0,0,0,0,0,0,0,0,0,0,0,0,NaN,NaN],
	"sr": 16000,
	"range": [1,222073],
	"minf0": 63.1883,
	"maxf0": 706.3069,
	"thresh": 0.1,
	"relflag": 1,
	"hop": 320,
	"bufsize": 10000,
	"wsize": 640,
	"lpf": 4000,
	"shift": 0,
	"plotthreshold": 0.2
}
