{
    "f0": [
        0.0,
        0.0,
        0.0,
        0.0,
        0.0,
        0.0,
        0.0,
        0.0,
        0.0,
        0.0,
        0.0,
        0.0,
        0.0,
        0.0,
        0.0,
        63.477828375829567,
        49.991725544563543,
        48.827591109798142,
        47.579502146972928,
        47.052182782521747,
        46.774862326607433,
        46.530333604398699,
        46.282301485293843,
        46.021924449143896,
        45.762008348897382,
        45.666945788114489,
        45.571358352641361,
        45.512282734540037,
        45.434429960913555,
        45.441737819714618,
        45.370133083456167,
        45.25002670641976,
        45.244108016382192,
        45.353010407812874,
        45.392402307288393,
        45.49382155232734,
        45.736062987767063,
        45.628293638722631,
        45.519846777129956,
        45.060962763758425,
        44.242850670576814,
        45.368013916477224,
        45.287593820888006,
        45.517068561310907,
        45.421567618009469,
        45.410259056256066,
        45.868337984082544,
        47.007171118630154,
        46.489808316669027,
        45.576197601451881,
        41.074399721851307,
        52.795532484327211,
        52.848213644918744,
        53.062801437410755,
        53.537732139666453,
        53.831405281858785,
        53.984290873636823,
        54.106854833943508,
        54.263570396403523,
        54.651284517381455,
        54.892022800567467,
        55.023904917557317,
        55.062950938781761,
        54.973790534993832,
        54.893883443746688,
        54.88178430855001,
        55.007857934645109,
        55.278776190588708,
        55.299915900451069,
        55.004350908477647,
        54.844254295024115,
        54.868090539333174,
        54.959385755566053,
        55.104339528625857,
        55.278510913774213,
        55.329549503173283,
        55.310165742370401,
        55.265237625380891,
        55.326567231500007,
        55.367617419937538,
        55.473753630172013,
        55.496521879446192,
        55.345830999968065,
        55.242160345523033,
        55.21318345485335,
        55.131550169447848,
        55.125887241488769,
        55.229566773384633,
        55.332629000859818,
        55.31490180535107,
        55.297156439243025,
        55.303698766008715,
        55.310239836012883,
        55.134076715874329,
        55.064023907570665,
        55.111858982274079,
        55.159558136405153,
        55.15231994369433,
        55.28772490217888,
        55.341892181100867,
        55.3958931848859,
        55.499787992973509,
        55.603062939841344,
        55.6668501048525,
        55.537371382479229,
        55.406914400845636,
        55.28684068186417,
        55.165928344171874,
        55.216430269697646,
        55.565290681373043,
        55.411816333034452,
        55.482967826110475,
        55.829249090284819,
        55.86025731856877,
        55.868370869913036,
        55.538146228185411,
        55.734583944369788,
        55.716269377382496,
        54.961811935390742,
        54.904930665062523,
        55.714718817946064,
        53.822933405748842,
        0.0,
        0.0,
        0.0,
        46.514320173274058,
        0.0,
        0.0,
        0.0,
        53.908786967240779,
        53.908786967240779,
        53.778521608956794,
        54.059806941291455,
        54.336593636139526,
        54.594722820465222,
        54.740093678133647,
        54.949251883181759,
        55.081874256029671,
        55.076272880859122,
        54.865954112337747,
        54.407221015118388,
        54.907414661525024,
        55.258068727750285,
        54.961583629585164,
        55.034916580366229,
        56.261317279458275,
        54.55500615079427,
        54.337793798331944,
        54.546093926185264,
        54.829376533149699,
        54.846503549039056,
        54.793950443264244,
        54.766337390739267,
        54.664727525047624,
        54.562516407626731,
        54.374614661267458,
        54.365937539388909,
        54.266804719472717,
        54.214614484168543,
        53.011138998834255,
        51.997661668107284,
        50.772758648650353,
        50.366908138273359,
        49.662319381887116,
        49.251462227982621,
        49.003496373168765,
        49.154031739482576,
        49.326375798946884,
        49.497021195051225,
        49.666000846866609,
        49.693681597044133,
        49.721316241934503,
        50.260632835284056,
        49.830571299835988,
        49.57850245720811,
        49.569911850971096,
        49.561316858916996,
        49.378724230285016,
        48.932579815805525,
        49.618206951086606,
        49.432153000269345,
        49.512557211419981,
        48.458278435686019,
        47.836089032794987,
        49.469988525998545,
        47.802108423363237,
        49.630609730627114,
        48.086351473449,
        48.993524931226773,
        47.715363643595261,
        50.577648289340075,
        49.963976861645691,
        49.126838182225853,
        48.89251233434743,
        48.842579659593319,
        48.957447098540925,
        49.312502604699958,
        49.660420519959246,
        50.003126339685664,
        50.150553576052168,
        50.040753422161572,
        49.535184816847924,
        49.561933113776092,
        49.588638456833806,
        50.127029074942925,
        49.514801696103497,
        50.401704226638074,
        49.350454568342016,
        48.158662147759252,
        47.585610042530547,
        47.274798405414565,
        47.249917240157103,
        47.409037517285093,
        47.467295006691238,
        47.400975213762422,
        47.073560832524784,
        46.523525104683564,
        46.410374757154663,
        47.686128285626722,
        48.332326759485653,
        47.820451847085259,
        47.292981904383126,
        47.100219629462629,
        47.071374951157388,
        46.959502283969201,
        46.846898735458126,
        46.594909933581434,
        46.4096972590999,
        46.240141190380747,
        46.068908948452076,
        45.895959431305144,
        45.547274461971959,
        45.380555362587621,
        45.514498746276985,
        45.484285906918664,
        45.112557922182859,
        45.916802209006143,
        45.891851990988812,
        45.321322476534839,
        45.860392344460976,
        45.653310477505002,
        45.617120415508154,
        0.0,
        0.0,
        69.124798300944093,
        49.133854802579364,
        48.210859331998179,
        46.962213837137448,
        46.709910742503311,
        46.532090016133175,
        46.412693282737564,
        46.434408921917957,
        46.499598981557916,
        46.612181607481659,
        46.700389693674495,
        46.920568911625701,
        47.180109340278193,
        47.24351152243441,
        47.16741537914902,
        47.252690228716745,
        47.299248487123585,
        47.239816247066344,
        47.180180247954226,
        47.12034354026985,
        47.232556000809076,
        47.183244819424878,
        47.179223177977391,
        46.802742190036994,
        47.121035145073662,
        47.433581672609463,
        47.213269222664429,
        47.252146196363654,
        47.12116366049829,
        50.030517916353659,
        48.206888887729527,
        47.837305983206662,
        47.635634835127483,
        47.342779126504936,
        47.229372432871386,
        47.115216978084355,
        46.965185307216785,
        46.788836044617909,
        46.610671783760225,
        46.510759572547329,
        46.511546345323346,
        46.537881080294412,
        46.58681662475437,
        46.635614093236157,
        46.664379835112328,
        46.718872062523779,
        46.773196575989594,
        46.723847778545093,
        46.669882586488647,
        46.643020778776744,
        46.684661374069421,
        46.66774432828533,
        46.650814026182985,
        46.633863857326006,
        46.660729999408559,
        46.65748756562536,
        46.601070876454756,
        46.615097923278384,
        46.635947308250216,
        46.71496942803698,
        46.936952052362223,
        47.085515952205199,
        47.467248193994891,
        47.84074862516097,
        48.032358037988459,
        48.221872041431759,
        48.752167091352909,
        48.751395617550102,
        48.750622081705217,
        48.9221096880784,
        48.819651889415603,
        49.341546225335613,
        49.06072489662229,
        50.082594940469356,
        50.568225071845788,
        49.417353971073354,
        49.441603867286744,
        49.430470472723023,
        49.402378372626188,
        50.227409190927318,
        50.257125287983826,
        0.0,
        53.785852931088371,
        0.0,
        0.0,
        0.0,
        0.0,
        0.0,
        0.0,
        0.0,
        0.0,
        0.0,
        0.0,
        0.0,
        0.0,
        0.0,
        0.0,
        0.0,
        0.0,
        0.0,
        0.0,
        0.0,
        0.0,
        0.0,
        0.0,
        0.0,
        0.0,
        0.0,
        0.0,
        0.0,
        0.0,
        0.0,
        0.0,
        0.0,
        0.0,
        0.0,
        0.0,
        0.0,
        0.0,
        0.0,
        0.0,
        0.0,
        0.0,
        0.0,
        0.0,
        0.0,
        0.0,
        0.0,
        0.0,
        0.0,
        0.0,
        0.0,
        0.0,
        0.0,
        0.0,
        0.0,
        0.0,
        0.0,
        0.0,
        0.0,
        0.0,
        0.0,
        0.0,
        0.0,
        0.0,
        0.0,
        0.0,
        0.0,
        0.0,
        0.0,
        0.0,
        0.0,
        0.0,
        0.0,
        0.0,
        0.0,
        0.0,
        0.0,
        0.0,
        0.0,
        0.0,
        0.0,
        0.0,
        0.0,
        0.0,
        0.0,
        0.0,
        0.0,
        0.0,
        0.0,
        0.0,
        0.0,
        0.0,
        0.0,
        0.0,
        0.0,
        0.0,
        0.0,
        0.0,
        0.0,
        0.0,
        0.0,
        0.0,
        0.0,
        0.0,
        0.0,
        0.0,
        0.0,
        0.0,
        0.0,
        0.0,
        0.0,
        0.0,
        0.0,
        0.0,
        0.0,
        0.0,
        0.0,
        0.0,
        0.0,
        0.0,
        0.0,
        0.0,
        0.0,
        0.0,
        0.0,
        0.0,
        0.0,
        0.0,
        0.0,
        0.0,
        0.0,
        0.0,
        0.0,
        0.0,
        0.0,
        0.0,
        0.0,
        0.0,
        0.0,
        0.0,
        0.0,
        0.0,
        0.0,
        0.0,
        0.0,
        0.0,
        0.0,
        0.0,
        0.0,
        0.0,
        0.0,
        0.0,
        0.0,
        0.0,
        0.0,
        0.0,
        0.0,
        0.0,
        0.0,
        0.0,
        0.0,
        0.0,
        0.0,
        0.0,
        0.0,
        0.0,
        0.0,
        0.0,
        0.0,
        0.0,
        0.0,
        0.0,
        0.0,
        0.0,
        0.0
    ],
    "time": [
        0.02,
        0.040000000000000001,
        0.059999999999999998,
        0.080000000000000002,
        0.10000000000000001,
        0.12,
        0.14000000000000001,
        0.16,
        0.17999999999999999,
        0.20000000000000001,
        0.22,
        0.23999999999999999,
        0.26000000000000001,
        0.28000000000000003,
        0.29999999999999999,
        0.32000000000000001,
        0.34000000000000002,
        0.35999999999999999,
        0.38,
        0.40000000000000002,
        0.41999999999999998,
        0.44,
        0.46000000000000002,
        0.47999999999999998,
        0.5,
        0.52000000000000002,
        0.54000000000000004,
        0.56000000000000005,
        0.57999999999999996,
        0.59999999999999998,
        0.62,
        0.64000000000000001,
        0.66000000000000003,
        0.68000000000000005,
        0.69999999999999996,
        0.71999999999999997,
        0.73999999999999999,
        0.76000000000000001,
        0.78000000000000003,
        0.80000000000000004,
        0.81999999999999995,
        0.83999999999999997,
        0.85999999999999999,
        0.88,
        0.90000000000000002,
        0.92000000000000004,
        0.93999999999999995,
        0.95999999999999996,
        0.97999999999999998,
        1.0,
        1.02,
        1.04,
        1.0600000000000001,
        1.0800000000000001,
        1.1000000000000001,
        1.1200000000000001,
        1.1399999999999999,
        1.1599999999999999,
        1.1799999999999999,
        1.2,
        1.22,
        1.24,
        1.26,
        1.28,
        1.3,
        1.3200000000000001,
        1.3400000000000001,
        1.3600000000000001,
        1.3799999999999999,
        1.3999999999999999,
        1.4199999999999999,
        1.4399999999999999,
        1.46,
        1.48,
        1.5,
        1.52,
        1.54,
        1.5600000000000001,
        1.5800000000000001,
        1.6000000000000001,
        1.6200000000000001,
        1.6399999999999999,
        1.6599999999999999,
        1.6799999999999999,
        1.7,
        1.72,
        1.74,
        1.76,
        1.78,
        1.8,
        1.8200000000000001,
        1.8400000000000001,
        1.8600000000000001,
        1.8799999999999999,
        1.8999999999999999,
        1.9199999999999999,
        1.9399999999999999,
        1.96,
        1.98,
        2.0,
        2.02,
        2.04,
        2.0600000000000001,
        2.0800000000000001,
        2.1000000000000001,
        2.1200000000000001,
        2.1400000000000001,
        2.1600000000000001,
        2.1800000000000002,
        2.2000000000000002,
        2.2200000000000002,
        2.2400000000000002,
        2.2599999999999998,
        2.2799999999999998,
        2.2999999999999998,
        2.3199999999999998,
        2.3399999999999999,
        2.3599999999999999,
        2.3799999999999999,
        2.3999999999999999,
        2.4199999999999999,
        2.4399999999999999,
        2.46,
        2.48,
        2.5,
        2.52,
        2.54,
        2.5600000000000001,
        2.5800000000000001,
        2.6000000000000001,
        2.6200000000000001,
        2.6400000000000001,
        2.6600000000000001,
        2.6800000000000002,
        2.7000000000000002,
        2.7200000000000002,
        2.7400000000000002,
        2.7599999999999998,
        2.7799999999999998,
        2.7999999999999998,
        2.8199999999999998,
        2.8399999999999999,
        2.8599999999999999,
        2.8799999999999999,
        2.8999999999999999,
        2.9199999999999999,
        2.9399999999999999,
        2.96,
        2.98,
        3.0,
        3.02,
        3.04,
        3.0600000000000001,
        3.0800000000000001,
        3.1000000000000001,
        3.1200000000000001,
        3.1400000000000001,
        3.1600000000000001,
        3.1800000000000002,
        3.2000000000000002,
        3.2200000000000002,
        3.2400000000000002,
        3.2599999999999998,
        3.2799999999999998,
        3.2999999999999998,
        3.3199999999999998,
        3.3399999999999999,
        3.3599999999999999,
        3.3799999999999999,
        3.3999999999999999,
        3.4199999999999999,
        3.4399999999999999,
        3.46,
        3.48,
        3.5,
        3.52,
        3.54,
        3.5600000000000001,
        3.5800000000000001,
        3.6000000000000001,
        3.6200000000000001,
        3.6400000000000001,
        3.6600000000000001,
        3.6800000000000002,
        3.7000000000000002,
        3.7200000000000002,
        3.7400000000000002,
        3.7599999999999998,
        3.7799999999999998,
        3.7999999999999998,
        3.8199999999999998,
        3.8399999999999999,
        3.8599999999999999,
        3.8799999999999999,
        3.8999999999999999,
        3.9199999999999999,
        3.9399999999999999,
        3.96,
        3.98,
        4.0,
        4.0199999999999996,
        4.04,
        4.0599999999999996,
        4.0800000000000001,
        4.0999999999999996,
        4.1200000000000001,
        4.1399999999999997,
        4.1600000000000001,
        4.1799999999999997,
        4.2000000000000002,
        4.2199999999999998,
        4.2400000000000002,
        4.2599999999999998,
        4.2800000000000002,
        4.2999999999999998,
        4.3200000000000003,
        4.3399999999999999,
        4.3600000000000003,
        4.3799999999999999,
        4.4000000000000004,
        4.4199999999999999,
        4.4400000000000004,
        4.46,
        4.4800000000000004,
        4.5,
        4.5199999999999996,
        4.54,
        4.5599999999999996,
        4.5800000000000001,
        4.5999999999999996,
        4.6200000000000001,
        4.6399999999999997,
        4.6600000000000001,
        4.6799999999999997,
        4.7000000000000002,
        4.7199999999999998,
        4.7400000000000002,
        4.7599999999999998,
        4.7800000000000002,
        4.7999999999999998,
        4.8200000000000003,
        4.8399999999999999,
        4.8600000000000003,
        4.8799999999999999,
        4.9000000000000004,
        4.9199999999999999,
        4.9400000000000004,
        4.96,
        4.9800000000000004,
        5.0,
        5.0199999999999996,
        5.04,
        5.0599999999999996,
        5.0800000000000001,
        5.0999999999999996,
        5.1200000000000001,
        5.1399999999999997,
        5.1600000000000001,
        5.1799999999999997,
        5.2000000000000002,
        5.2199999999999998,
        5.2400000000000002,
        5.2599999999999998,
        5.2800000000000002,
        5.2999999999999998,
        5.3200000000000003,
        5.3399999999999999,
        5.3600000000000003,
        5.3799999999999999,
        5.4000000000000004,
        5.4199999999999999,
        5.4400000000000004,
        5.46,
        5.4800000000000004,
        5.5,
        5.5199999999999996,
        5.54,
        5.5599999999999996,
        5.5800000000000001,
        5.5999999999999996,
        5.6200000000000001,
        5.6399999999999997,
        5.6600000000000001,
        5.6799999999999997,
        5.7000000000000002,
        5.7199999999999998,
        5.7400000000000002,
        5.7599999999999998,
        5.7800000000000002,
        5.7999999999999998,
        5.8200000000000003,
        5.8399999999999999,
        5.8600000000000003,
        5.8799999999999999,
        5.9000000000000004,
        5.9199999999999999,
        5.9400000000000004,
        5.96,
        5.9800000000000004,
        6.0,
        6.0199999999999996,
        6.04,
        6.0599999999999996,
        6.0800000000000001,
        6.0999999999999996,
        6.1200000000000001,
        6.1399999999999997,
        6.1600000000000001,
        6.1799999999999997,
        6.2000000000000002,
        6.2199999999999998,
        6.2400000000000002,
        6.2599999999999998,
        6.2800000000000002,
        6.2999999999999998,
        6.3200000000000003,
        6.3399999999999999,
        6.3600000000000003,
        6.3799999999999999,
        6.4000000000000004,
        6.4199999999999999,
        6.4400000000000004,
        6.46,
        6.4800000000000004,
        6.5,
        6.5199999999999996,
        6.54,
        6.5599999999999996,
        6.5800000000000001,
        6.5999999999999996,
        6.6200000000000001,
        6.6399999999999997,
        6.6600000000000001,
        6.6799999999999997,
        6.7000000000000002,
        6.7199999999999998,
        6.7400000000000002,
        6.7599999999999998,
        6.7800000000000002,
        6.7999999999999998,
        6.8200000000000003,
        6.8399999999999999,
        6.8600000000000003,
        6.8799999999999999,
        6.9000000000000004,
        6.9199999999999999,
        6.9400000000000004,
        6.96,
        6.9800000000000004,
        7.0,
        7.0199999999999996,
        7.04,
        7.0599999999999996,
        7.0800000000000001,
        7.0999999999999996,
        7.1200000000000001,
        7.1399999999999997,
        7.1600000000000001,
        7.1799999999999997,
        7.2000000000000002,
        7.2199999999999998,
        7.2400000000000002,
        7.2599999999999998,
        7.2800000000000002,
        7.2999999999999998,
        7.3200000000000003,
        7.3399999999999999,
        7.3600000000000003,
        7.3799999999999999,
        7.4000000000000004,
        7.4199999999999999,
        7.4400000000000004,
        7.46,
        7.4800000000000004,
        7.5,
        7.5199999999999996,
        7.54,
        7.5599999999999996,
        7.5800000000000001,
        7.5999999999999996,
        7.6200000000000001,
        7.6399999999999997,
        7.6600000000000001,
        7.6799999999999997,
        7.7000000000000002,
        7.7199999999999998,
        7.7400000000000002,
        7.7599999999999998,
        7.7800000000000002,
        7.7999999999999998,
        7.8200000000000003,
        7.8399999999999999,
        7.8600000000000003,
        7.8799999999999999,
        7.9000000000000004,
        7.9199999999999999,
        7.9400000000000004,
        7.96,
        7.9800000000000004,
        8.0,
        8.0199999999999996,
        8.0399999999999991,
        8.0600000000000005,
        8.0800000000000001,
        8.0999999999999996,
        8.1199999999999992,
        8.1400000000000006,
        8.1600000000000001,
        8.1799999999999997,
        8.1999999999999993,
        8.2200000000000006,
        8.2400000000000002,
        8.2599999999999998,
        8.2799999999999994,
        8.3000000000000007,
        8.3200000000000003,
        8.3399999999999999,
        8.3599999999999994,
        8.3800000000000008,
        8.4000000000000004,
        8.4199999999999999,
        8.4399999999999995,
        8.4600000000000009,
        8.4800000000000004,
        8.5,
        8.5199999999999996,
        8.5399999999999991,
        8.5600000000000005,
        8.5800000000000001,
        8.5999999999999996,
        8.6199999999999992,
        8.6400000000000006,
        8.6600000000000001,
        8.6799999999999997,
        8.6999999999999993,
        8.7200000000000006,
        8.7400000000000002,
        8.7599999999999998,
        8.7799999999999994,
        8.8000000000000007,
        8.8200000000000003,
        8.8399999999999999,
        8.8599999999999994,
        8.8800000000000008,
        8.9000000000000004,
        8.9199999999999999,
        8.9399999999999995,
        8.9600000000000009,
        8.9800000000000004,
        9.0,
        9.0199999999999996,
        9.0399999999999991,
        9.0600000000000005,
        9.0800000000000001,
        9.0999999999999996,
        9.1199999999999992,
        9.1400000000000006,
        9.1600000000000001,
        9.1799999999999997,
        9.1999999999999993,
        9.2200000000000006,
        9.2400000000000002,
        9.2599999999999998,
        9.2799999999999994,
        9.3000000000000007,
        9.3200000000000003,
        9.3399999999999999,
        9.3599999999999994,
        9.3800000000000008,
        9.4000000000000004,
        9.4199999999999999,
        9.4399999999999995,
        9.4600000000000009,
        9.4800000000000004,
        9.5,
        9.5199999999999996,
        9.5399999999999991,
        9.5600000000000005,
        9.5800000000000001,
        9.5999999999999996,
        9.6199999999999992,
        9.6400000000000006,
        9.6600000000000001,
        9.6799999999999997,
        9.6999999999999993,
        9.7200000000000006,
        9.7400000000000002,
        9.7599999999999998,
        9.7799999999999994,
        9.8000000000000007,
        9.8200000000000003,
        9.8399999999999999,
        9.8599999999999994,
        9.8800000000000008,
        9.9000000000000004,
        9.9199999999999999,
        9.9399999999999995,
        9.9600000000000009,
        9.9800000000000004,
        10.0
    ]
}