{
    "DU": 34,
    "DV": 220,
    "F-measure": 0.12554112554112554,
    "F-measure Chroma": 0.14285714285714288,
    "FN": 14,
    "FNC": 0,
    "FNCch": 3,
    "FNI": 14,
    "FNIch": 11,
    "FP": 32,
    "GU": 52,
    "GV": 202,
    "Overall Accuracy": 0.1141732283464567,
    "Overall Chroma Accuracy": 0.12992125984251968,
    "Precision": 0.12083333333333333,
    "Precision Chroma": 0.1375,
    "Raw Chroma Accuracy": 0.07920792079207921,
    "Raw Pitch Accuracy": 0.04455445544554455,
    "Recall": 0.13063063063063063,
    "Recall Chroma": 0.14864864864864866,
    "TN": 20,
    "TO": 254,
    "TP": 188,
    "TPC": 9,
    "TPCch": 13,
    "TPI": 179,
    "TPIch": 175,
    "Voiced Chroma Accuracy": 0.06435643564356436,
    "Voiced Pitch Accuracy": 0.04455445544554455,
    "Voicing Accuracy": 0.8188976377952756,
    "Voicing Detection": 0.9306930693069307,
    "Voicing False Alarm": 0.6153846153846154
}