{
    "DU": 161,
    "DV": 210,
    "F-measure": 0.9625520110957004,
    "F-measure Chroma": 0.9680998613037448,
    "FN": 18,
    "FNC": 0,
    "FNCch": 0,
    "FNI": 18,
    "FNIch": 18,
    "FP": 3,
    "GU": 146,
    "GV": 225,
    "Overall Accuracy": 0.9353099730458221,
    "Overall Chroma Accuracy": 0.9407008086253369,
    "Precision": 0.9830028328611898,
    "Precision Chroma": 0.9886685552407932,
    "Raw Chroma Accuracy": 0.9155555555555556,
    "Raw Pitch Accuracy": 0.9066666666666666,
    "Recall": 0.9429347826086957,
    "Recall Chroma": 0.9483695652173914,
    "TN": 143,
    "TO": 371,
    "TP": 207,
    "TPC": 204,
    "TPCch": 206,
    "TPI": 3,
    "TPIch": 1,
    "Voiced Chroma Accuracy": 0.9155555555555556,
    "Voiced Pitch Accuracy": 0.9066666666666666,
    "Voicing Accuracy": 0.9433962264150944,
    "Voicing Detection": 0.92,
    "Voicing False Alarm": 0.02054794520547945
}