{
    "f0": [
        0.0,
        0.0,
        0.0,
        0.0,
        0.0,
        0.0,
        0.0,
        0.0,
        0.0,
        0.0,
        0.0,
        0.0,
        0.0,
        0.0,
        0.0,
        0.0,
        0.0,
        0.0,
        0.0,
        0.0,
        0.0,
        0.0,
        0.0,
        0.0,
        0.0,
        0.0,
        0.0,
        0.0,
        0.0,
        0.0,
        67.556390374448327,
        0.0,
        0.0,
        47.674783767274768,
        47.292366619361175,
        46.357962191470378,
        46.286948249939172,
        46.215936117442162,
        0.0,
        0.0,
        0.0,
        0.0,
        51.395628711262987,
        51.45843418498707,
        50.496365986920203,
        47.962467808700907,
        46.097289983245531,
        46.368510020580715,
        46.597154652923365,
        46.8501319146932,
        47.550248832377946,
        48.112770680827765,
        48.553397710879253,
        48.981656856296873,
        49.127002735597543,
        49.257431423547516,
        49.651209533528537,
        49.899177017005186,
        50.014329019755849,
        50.033132611052331,
        49.919680231052624,
        49.471377904325649,
        49.202523534430611,
        49.262578052950488,
        49.220584504580287,
        48.932884043005316,
        49.081324880692613,
        49.14923442751784,
        50.648911636062948,
        51.373504936698154,
        51.934071544958584,
        52.437529802151857,
        52.659469039233407,
        52.874151432336731,
        53.414578617478853,
        54.30362232325794,
        54.631314396500031,
        55.254892206908558,
        55.695058703562346,
        56.297259980164689,
        56.78490550308068,
        57.177940362509062,
        57.319197248700021,
        57.447307294038595,
        57.554848689171138,
        57.573842016669644,
        57.275869929038059,
        58.231272862414656,
        57.631951194990641,
        56.933831144524447,
        57.043610368426599,
        55.673004021547975,
        53.480311126084985,
        0.0,
        0.0,
        0.0,
        0.0,
        59.706529825196583,
        59.893105075852951,
        59.779129962528479,
        59.772595910316298,
        59.786473260794708,
        59.758017347144808,
        59.72020977484474,
        59.674717958384335,
        59.581395334260755,
        59.593374934244288,
        59.674458698589959,
        59.697525036967278,
        59.670359180696252,
        59.679458255561599,
        59.699571737043144,
        59.708105126183774,
        59.711641308607597,
        59.617671630541288,
        59.511257346686229,
        59.441794535918234,
        59.335167521575968,
        59.453298992731369,
        59.345443820350837,
        59.380284595962799,
        59.627758932125076,
        59.585849965139424,
        59.558934864579669,
        59.620333581507339,
        59.553455832119745,
        59.416637594754761,
        59.301474132858502,
        59.374627289599339,
        59.57242043523987,
        59.753224680190478,
        59.954856661012357,
        60.266045842427452,
        60.526265890622518,
        60.833278969346189,
        61.014490681181172,
        61.01114801860998,
        61.036762588027379,
        61.052908957181906,
        61.112256724210354,
        61.129500233107478,
        61.088568571571145,
        61.094402676615431,
        61.117952209929371,
        61.064405538990329,
        60.875272989719051,
        60.664914343087773,
        60.245925218287162,
        59.839158899462156,
        59.640872480176505,
        59.678297976239499,
        59.574730260954318,
        59.549899616131164,
        59.505256207382878,
        59.443731951263437,
        59.426788438945252,
        59.405438975818399,
        59.480756387902389,
        59.457518983912394,
        59.465061367736581,
        59.535120811111419,
        59.488574642615028,
        59.611021594107676,
        59.487109223079671,
        59.530183080161791,
        59.315069217751144,
        59.095498882971533,
        59.293885422453812,
        59.163995152344029,
        59.200100459846965,
        59.288240832412107,
        60.093139869339907,
        59.199019671417133,
        56.093896479398992,
        0.0,
        0.0,
        0.0,
        0.0,
        57.354825651873696,
        57.041853180378894,
        57.235722470132551,
        57.315799555855634,
        57.468709651681138,
        57.517102396243104,
        57.554812641612614,
        57.65266642663066,
        57.680398394221896,
        57.569593541657007,
        57.519568273043873,
        57.549265986748296,
        57.596099143158192,
        57.601025427580922,
        57.547030099017498,
        57.575271924167509,
        57.489573205359633,
        57.469805857375505,
        57.429184287429955,
        57.461165371726644,
        57.51384714237139,
        57.473342835919226,
        57.407485486989764,
        57.419098341766002,
        57.452588417419022,
        57.514616383758963,
        57.531562722471023,
        57.487000376549751,
        57.438571249924181,
        57.429576708738722,
        57.500397465901571,
        57.5625824698987,
        57.63715893117601,
        57.695599625338673,
        57.705593805150372,
        57.71536211706006,
        57.651743692390554,
        57.375667037998845,
        57.101377422204955,
        57.391332962940382,
        57.410584972193767,
        56.933470771058978,
        57.881799366866773,
        57.375622376043054,
        57.13095097702103,
        57.245634002245758,
        57.427131990957115,
        57.592864489947324,
        59.929016583864517,
        58.490703981570711,
        58.11828357071127,
        58.077156723030811,
        58.202313337746418,
        58.364879374633226,
        58.526785158064129,
        58.680975465017603,
        58.819024063833432,
        58.915672107626463,
        58.962014367301698,
        58.994262008425522,
        59.152289329761729,
        59.344493781570165,
        59.618881369964313,
        59.747049746437398,
        59.818031605840503,
        59.926106553770197,
        60.031003525549167,
        0.0,
        0.0,
        0.0,
        0.0,
        0.0,
        60.775624546459575,
        60.747810246283777,
        60.877457648069949,
        60.804483464797947,
        60.887726421407095,
        60.932281289236499,
        60.962777372588874,
        60.976696956078797,
        60.887866483198991,
        60.837741336821637,
        60.77113455518932,
        60.737417409852817,
        60.745554972791957,
        60.738181834183848,
        60.6824478570068,
        60.666503886941726,
        60.696266779908662,
        60.741091981394412,
        60.762954935107686,
        60.755051703396902,
        60.738228250235842,
        60.709487302764046,
        60.655263023721673,
        60.577793838909052,
        60.714119289654604,
        60.839313200892605,
        60.189010611359208,
        61.028290756957389,
        60.793192994854138,
        60.576852370727394,
        52.901413640339072,
        51.782838334969185,
        50.963053643930039,
        50.746646801435325,
        51.586732945469763,
        52.610212780108355,
        54.13139022842936,
        54.784887461495003,
        54.953524338384696,
        56.466607681720767,
        56.89964626357051,
        57.278651653526765,
        57.478430397537515,
        57.79692602137915,
        58.041322573837874,
        58.230756232452777,
        58.297155018352505,
        58.197035250672485,
        58.168001504806597,
        58.081106514805853,
        58.109988946049185,
        58.249533216856108,
        58.492640639829247,
        58.678140006339248,
        58.930202804691397,
        59.106515951198034,
        59.193551420986886,
        59.330001358907793,
        59.449936836030879,
        59.487071802138047,
        59.612428990687924,
        0.0,
        0.0,
        0.0,
        0.0,
        0.0,
        0.0,
        0.0,
        0.0,
        0.0,
        0.0,
        0.0,
        0.0,
        0.0,
        0.0,
        0.0,
        0.0,
        0.0,
        0.0,
        0.0,
        0.0,
        0.0,
        0.0,
        0.0,
        0.0,
        0.0,
        0.0,
        0.0,
        0.0,
        0.0,
        0.0,
        0.0,
        0.0,
        0.0,
        0.0,
        0.0,
        0.0,
        0.0,
        0.0,
        0.0,
        0.0,
        0.0,
        0.0,
        0.0,
        0.0,
        0.0,
        0.0,
        0.0,
        0.0,
        0.0,
        0.0,
        0.0,
        0.0,
        0.0,
        0.0,
        0.0,
        0.0,
        0.0,
        0.0,
        0.0,
        0.0,
        0.0,
        0.0,
        0.0,
        0.0,
        0.0,
        0.0,
        0.0,
        0.0,
        0.0,
        0.0,
        0.0,
        0.0,
        0.0,
        0.0,
        0.0,
        0.0,
        0.0,
        0.0,
        0.0,
        0.0,
        0.0,
        0.0,
        0.0,
        0.0,
        0.0,
        0.0,
        0.0,
        0.0,
        0.0,
        0.0,
        0.0,
        0.0,
        0.0,
        0.0,
        0.0,
        0.0,
        0.0,
        0.0,
        0.0,
        0.0,
        0.0,
        0.0,
        0.0,
        0.0,
        0.0,
        0.0,
        0.0,
        0.0,
        0.0,
        0.0,
        0.0,
        0.0,
        0.0,
        0.0,
        0.0,
        0.0,
        0.0,
        0.0,
        0.0,
        0.0,
        0.0,
        0.0,
        0.0,
        0.0,
        0.0,
        0.0,
        0.0,
        0.0,
        0.0,
        0.0,
        0.0,
        0.0,
        0.0,
        0.0,
        0.0,
        0.0,
        0.0,
        0.0,
        0.0,
        0.0,
        0.0,
        0.0,
        0.0,
        0.0
    ],
    "time": [
        0.02,
        0.040000000000000001,
        0.059999999999999998,
        0.080000000000000002,
        0.10000000000000001,
        0.12,
        0.14000000000000001,
        0.16,
        0.17999999999999999,
        0.20000000000000001,
        0.22,
        0.23999999999999999,
        0.26000000000000001,
        0.28000000000000003,
        0.29999999999999999,
        0.32000000000000001,
        0.34000000000000002,
        0.35999999999999999,
        0.38,
        0.40000000000000002,
        0.41999999999999998,
        0.44,
        0.46000000000000002,
        0.47999999999999998,
        0.5,
        0.52000000000000002,
        0.54000000000000004,
        0.56000000000000005,
        0.57999999999999996,
        0.59999999999999998,
        0.62,
        0.64000000000000001,
        0.66000000000000003,
        0.68000000000000005,
        0.69999999999999996,
        0.71999999999999997,
        0.73999999999999999,
        0.76000000000000001,
        0.78000000000000003,
        0.80000000000000004,
        0.81999999999999995,
        0.83999999999999997,
        0.85999999999999999,
        0.88,
        0.90000000000000002,
        0.92000000000000004,
        0.93999999999999995,
        0.95999999999999996,
        0.97999999999999998,
        1.0,
        1.02,
        1.04,
        1.0600000000000001,
        1.0800000000000001,
        1.1000000000000001,
        1.1200000000000001,
        1.1399999999999999,
        1.1599999999999999,
        1.1799999999999999,
        1.2,
        1.22,
        1.24,
        1.26,
        1.28,
        1.3,
        1.3200000000000001,
        1.3400000000000001,
        1.3600000000000001,
        1.3799999999999999,
        1.3999999999999999,
        1.4199999999999999,
        1.4399999999999999,
        1.46,
        1.48,
        1.5,
        1.52,
        1.54,
        1.5600000000000001,
        1.5800000000000001,
        1.6000000000000001,
        1.6200000000000001,
        1.6399999999999999,
        1.6599999999999999,
        1.6799999999999999,
        1.7,
        1.72,
        1.74,
        1.76,
        1.78,
        1.8,
        1.8200000000000001,
        1.8400000000000001,
        1.8600000000000001,
        1.8799999999999999,
        1.8999999999999999,
        1.9199999999999999,
        1.9399999999999999,
        1.96,
        1.98,
        2.0,
        2.02,
        2.04,
        2.0600000000000001,
        2.0800000000000001,
        2.1000000000000001,
        2.1200000000000001,
        2.1400000000000001,
        2.1600000000000001,
        2.1800000000000002,
        2.2000000000000002,
        2.2200000000000002,
        2.2400000000000002,
        2.2599999999999998,
        2.2799999999999998,
        2.2999999999999998,
        2.3199999999999998,
        2.3399999999999999,
        2.3599999999999999,
        2.3799999999999999,
        2.3999999999999999,
        2.4199999999999999,
        2.4399999999999999,
        2.46,
        2.48,
        2.5,
        2.52,
        2.54,
        2.5600000000000001,
        2.5800000000000001,
        2.6000000000000001,
        2.6200000000000001,
        2.6400000000000001,
        2.6600000000000001,
        2.6800000000000002,
        2.7000000000000002,
        2.7200000000000002,
        2.7400000000000002,
        2.7599999999999998,
        2.7799999999999998,
        2.7999999999999998,
        2.8199999999999998,
        2.8399999999999999,
        2.8599999999999999,
        2.8799999999999999,
        2.8999999999999999,
        2.9199999999999999,
        2.9399999999999999,
        2.96,
        2.98,
        3.0,
        3.02,
        3.04,
        3.0600000000000001,
        3.0800000000000001,
        3.1000000000000001,
        3.1200000000000001,
        3.1400000000000001,
        3.1600000000000001,
        3.1800000000000002,
        3.2000000000000002,
        3.2200000000000002,
        3.2400000000000002,
        3.2599999999999998,
        3.2799999999999998,
        3.2999999999999998,
        3.3199999999999998,
        3.3399999999999999,
        3.3599999999999999,
        3.3799999999999999,
        3.3999999999999999,
        3.4199999999999999,
        3.4399999999999999,
        3.46,
        3.48,
        3.5,
        3.52,
        3.54,
        3.5600000000000001,
        3.5800000000000001,
        3.6000000000000001,
        3.6200000000000001,
        3.6400000000000001,
        3.6600000000000001,
        3.6800000000000002,
        3.7000000000000002,
        3.7200000000000002,
        3.7400000000000002,
        3.7599999999999998,
        3.7799999999999998,
        3.7999999999999998,
        3.8199999999999998,
        3.8399999999999999,
        3.8599999999999999,
        3.8799999999999999,
        3.8999999999999999,
        3.9199999999999999,
        3.9399999999999999,
        3.96,
        3.98,
        4.0,
        4.0199999999999996,
        4.04,
        4.0599999999999996,
        4.0800000000000001,
        4.0999999999999996,
        4.1200000000000001,
        4.1399999999999997,
        4.1600000000000001,
        4.1799999999999997,
        4.2000000000000002,
        4.2199999999999998,
        4.2400000000000002,
        4.2599999999999998,
        4.2800000000000002,
        4.2999999999999998,
        4.3200000000000003,
        4.3399999999999999,
        4.3600000000000003,
        4.3799999999999999,
        4.4000000000000004,
        4.4199999999999999,
        4.4400000000000004,
        4.46,
        4.4800000000000004,
        4.5,
        4.5199999999999996,
        4.54,
        4.5599999999999996,
        4.5800000000000001,
        4.5999999999999996,
        4.6200000000000001,
        4.6399999999999997,
        4.6600000000000001,
        4.6799999999999997,
        4.7000000000000002,
        4.7199999999999998,
        4.7400000000000002,
        4.7599999999999998,
        4.7800000000000002,
        4.7999999999999998,
        4.8200000000000003,
        4.8399999999999999,
        4.8600000000000003,
        4.8799999999999999,
        4.9000000000000004,
        4.9199999999999999,
        4.9400000000000004,
        4.96,
        4.9800000000000004,
        5.0,
        5.0199999999999996,
        5.04,
        5.0599999999999996,
        5.0800000000000001,
        5.0999999999999996,
        5.1200000000000001,
        5.1399999999999997,
        5.1600000000000001,
        5.1799999999999997,
        5.2000000000000002,
        5.2199999999999998,
        5.2400000000000002,
        5.2599999999999998,
        5.2800000000000002,
        5.2999999999999998,
        5.3200000000000003,
        5.3399999999999999,
        5.3600000000000003,
        5.3799999999999999,
        5.4000000000000004,
        5.4199999999999999,
        5.4400000000000004,
        5.46,
        5.4800000000000004,
        5.5,
        5.5199999999999996,
        5.54,
        5.5599999999999996,
        5.5800000000000001,
        5.5999999999999996,
        5.6200000000000001,
        5.6399999999999997,
        5.6600000000000001,
        5.6799999999999997,
        5.7000000000000002,
        5.7199999999999998,
        5.7400000000000002,
        5.7599999999999998,
        5.7800000000000002,
        5.7999999999999998,
        5.8200000000000003,
        5.8399999999999999,
        5.8600000000000003,
        5.8799999999999999,
        5.9000000000000004,
        5.9199999999999999,
        5.9400000000000004,
        5.96,
        5.9800000000000004,
        6.0,
        6.0199999999999996,
        6.04,
        6.0599999999999996,
        6.0800000000000001,
        6.0999999999999996,
        6.1200000000000001,
        6.1399999999999997,
        6.1600000000000001,
        6.1799999999999997,
        6.2000000000000002,
        6.2199999999999998,
        6.2400000000000002,
        6.2599999999999998,
        6.2800000000000002,
        6.2999999999999998,
        6.3200000000000003,
        6.3399999999999999,
        6.3600000000000003,
        6.3799999999999999,
        6.4000000000000004,
        6.4199999999999999,
        6.4400000000000004,
        6.46,
        6.4800000000000004,
        6.5,
        6.5199999999999996,
        6.54,
        6.5599999999999996,
        6.5800000000000001,
        6.5999999999999996,
        6.6200000000000001,
        6.6399999999999997,
        6.6600000000000001,
        6.6799999999999997,
        6.7000000000000002,
        6.7199999999999998,
        6.7400000000000002,
        6.7599999999999998,
        6.7800000000000002,
        6.7999999999999998,
        6.8200000000000003,
        6.8399999999999999,
        6.8600000000000003,
        6.8799999999999999,
        6.9000000000000004,
        6.9199999999999999,
        6.9400000000000004,
        6.96,
        6.9800000000000004,
        7.0,
        7.0199999999999996,
        7.04,
        7.0599999999999996,
        7.0800000000000001,
        7.0999999999999996,
        7.1200000000000001,
        7.1399999999999997,
        7.1600000000000001,
        7.1799999999999997,
        7.2000000000000002,
        7.2199999999999998,
        7.2400000000000002,
        7.2599999999999998,
        7.2800000000000002,
        7.2999999999999998,
        7.3200000000000003,
        7.3399999999999999,
        7.3600000000000003,
        7.3799999999999999,
        7.4000000000000004,
        7.4199999999999999,
        7.4400000000000004,
        7.46,
        7.4800000000000004,
        7.5,
        7.5199999999999996,
        7.54,
        7.5599999999999996,
        7.5800000000000001,
        7.5999999999999996,
        7.6200000000000001,
        7.6399999999999997,
        7.6600000000000001,
        7.6799999999999997,
        7.7000000000000002,
        7.7199999999999998,
        7.7400000000000002,
        7.7599999999999998,
        7.7800000000000002,
        7.7999999999999998,
        7.8200000000000003,
        7.8399999999999999,
        7.8600000000000003,
        7.8799999999999999,
        7.9000000000000004,
        7.9199999999999999,
        7.9400000000000004,
        7.96,
        7.9800000000000004,
        8.0,
        8.0199999999999996,
        8.0399999999999991,
        8.0600000000000005,
        8.0800000000000001,
        8.0999999999999996,
        8.1199999999999992,
        8.1400000000000006,
        8.1600000000000001,
        8.1799999999999997,
        8.1999999999999993,
        8.2200000000000006,
        8.2400000000000002,
        8.2599999999999998,
        8.2799999999999994,
        8.3000000000000007,
        8.3200000000000003,
        8.3399999999999999,
        8.3599999999999994,
        8.3800000000000008,
        8.4000000000000004,
        8.4199999999999999,
        8.4399999999999995,
        8.4600000000000009,
        8.4800000000000004,
        8.5,
        8.5199999999999996,
        8.5399999999999991,
        8.5600000000000005,
        8.5800000000000001,
        8.5999999999999996,
        8.6199999999999992,
        8.6400000000000006,
        8.6600000000000001,
        8.6799999999999997,
        8.6999999999999993,
        8.7200000000000006,
        8.7400000000000002,
        8.7599999999999998,
        8.7799999999999994,
        8.8000000000000007,
        8.8200000000000003,
        8.8399999999999999,
        8.8599999999999994,
        8.8800000000000008,
        8.9000000000000004,
        8.9199999999999999,
        8.9399999999999995,
        8.9600000000000009,
        8.9800000000000004,
        9.0,
        9.0199999999999996,
        9.0399999999999991,
        9.0600000000000005,
        9.0800000000000001,
        9.0999999999999996
    ]
}