{
    "DU": 42,
    "DV": 307,
    "F-measure": 0.1228878648233487,
    "F-measure Chroma": 0.30721966205837176,
    "FN": 2,
    "FNC": 0,
    "FNCch": 0,
    "FNI": 2,
    "FNIch": 2,
    "FP": 45,
    "GU": 85,
    "GV": 264,
    "Overall Accuracy": 0.11461318051575932,
    "Overall Chroma Accuracy": 0.28653295128939826,
    "Precision": 0.11527377521613832,
    "Precision Chroma": 0.2881844380403458,
    "Raw Chroma Accuracy": 0.22727272727272727,
    "Raw Pitch Accuracy": 0.0,
    "Recall": 0.13157894736842105,
    "Recall Chroma": 0.32894736842105265,
    "TN": 40,
    "TO": 349,
    "TP": 262,
    "TPC": 0,
    "TPCch": 60,
    "TPI": 262,
    "TPIch": 202,
    "Voiced Chroma Accuracy": 0.22727272727272727,
    "Voiced Pitch Accuracy": 0.0,
    "Voicing Accuracy": 0.8653295128939829,
    "Voicing Detection": 0.9924242424242424,
    "Voicing False Alarm": 0.5294117647058824
}