{
    "DU": 156,
    "DV": 255,
    "F-measure": 0.8241469816272966,
    "F-measure Chroma": 0.8398950131233597,
    "FN": 50,
    "FNC": 7,
    "FNCch": 21,
    "FNI": 43,
    "FNIch": 29,
    "FP": 10,
    "GU": 116,
    "GV": 295,
    "Overall Accuracy": 0.7639902676399026,
    "Overall Chroma Accuracy": 0.7785888077858881,
    "Precision": 0.8698060941828255,
    "Precision Chroma": 0.8864265927977839,
    "Raw Chroma Accuracy": 0.7966101694915254,
    "Raw Pitch Accuracy": 0.7288135593220338,
    "Recall": 0.7830423940149626,
    "Recall Chroma": 0.7980049875311721,
    "TN": 106,
    "TO": 411,
    "TP": 245,
    "TPC": 208,
    "TPCch": 214,
    "TPI": 37,
    "TPIch": 31,
    "Voiced Chroma Accuracy": 0.7254237288135593,
    "Voiced Pitch Accuracy": 0.7050847457627119,
    "Voicing Accuracy": 0.8540145985401459,
    "Voicing Detection": 0.8305084745762712,
    "Voicing False Alarm": 0.08620689655172414
}