{
	"f0": [NaN,43.67764587,43.24209232,49.81217511,50.25262575,49.47738671,67.38580413,67.41918329,67.62552756,68.07511692,73.12311008,73.72525117,73.45835967,73.50464405,73.59730447,74.13220437,74.30121073,75.01579354,70.16846871,63.13471054,43.31658806,52.47949789,58.42002457,55.34995772,54.63072332,55.21592082,56.06387654,56.7349923,57.20600043,57.45920173,58.6098244,58.71277724,58.78118282,58.89551889,59.11191839,59.96438391,60.27995272,60.41495066,61.193467,61.68153785,62.73095334,63.23646612,63.43985287,63.607161,63.7217272,63.71577596,63.59830183,63.55009898,63.55860096,63.57663586,63.61824766,63.63970205,63.6604858,63.69200274,63.69142956,63.73926957,63.7971467,63.84538035,63.9278168,63.92353216,63.84136304,63.75097468,63.76887041,63.78043893,63.64536129,63.47055665,63.54410163,63.50543832,63.74753872,65.78050411,65.92054498,65.93697438,65.91892032,65.9167876,65.96094512,66.01497288,66.04038918,65.92170449,65.38391084,64.98270408,65.30621806,66.0979178,65.79556848,65.57542428,65.41354944,65.14838546,65.20131321,65.39328992,65.54099828,65.68801996,65.84948574,65.95628247,66.01740936,66.03876657,65.92689026,65.75120604,65.54359509,65.32234331,65.22339259,65.25967437,65.33522301,65.42417601,65.52360085,65.61286908,65.65959159,65.49808323,65.14564569,65.00616202,65.10301688,63.76262076,63.17289752,63.01156335,62.96136212,63.04802708,63.22889965,63.39056476,63.49095441,63.50749402,63.54746251,63.57638415,63.2126935,62.69180939,61.86315616,61.33309617,61.12832473,60.97789808,61.151708,61.39865692,61.70352024,61.83056059,61.89165447,61.5894179,61.43862577,61.38900534,61.43506501,61.73008488,61.60978324,58.4387675,57.63514749,57.57376644,57.64444522,57.80885092,58.0420897,58.27303846,58.39025817,58.37353319,58.260151,57.97413253,57.61415698,57.23573314,56.55439445,56.30566007,56.29759016,56.25732748,56.3337136,56.49456407,56.57163751,56.46968282,56.15433134,55.66251234,55.13308168,54.76786958,54.60696847,54.42433065,54.17063063,54.03920724,53.65890282,53.75564317,54.11177095,54.0314089,54.15941287,54.3259882,55.96940347,68.31446178,68.28473467,68.25057085,68.23017966,68.12800411,68.076755,68.19018863,68.35878091,68.50045402,68.58108556,68.62911993,56.56833643,56.61908652,56.62493699,56.57668541,56.55157571,56.5567101,56.54628684,56.57393989,56.70202255,56.97448316,57.39306488,57.66759177,58.25469447,59.05475756,59.64967415,59.72672014,59.64907758,59.40000685,59.09976145,59.0637753,58.95363904,58.91180273,59.03707891,59.12018283,59.1762352,59.22995696,59.19649276,59.12845763,59.046724,58.93753109,58.87716628,58.86903839,58.80001306,59.21309485,58.86500723,58.68036542,58.84508991,58.90526965,59.51178201,57.69283692,47.90067723,74.53904058,69.31227946,69.53853209,69.56711402,69.75764921,69.92025223,58.46418978,56.74536038,55.93255745,56.51079567,54.46568105,56.19552179,54.0979178,52.93035138,53.11955917,53.69991543,53.31869256,44.09479777,51.50917916,58.08911923,58.10666516,58.05433318,57.87295659,57.95649693,58.14532457,58.32533822,58.34749557,58.22513292,70.16354076,58.21593619,58.12258885,69.19618696,47.48573577,58.84150308,58.54458286,58.33598773,58.12721347,58.02699849,57.92075959,57.84584579,57.82836227,58.12977465,58.41441479,58.99585141,60.32915296,61.12992121,61.37734384,61.70528567,62.26855054,63.20215805,63.50106417,63.79063176,63.81202438,63.68985296,63.4429448,63.38402502,63.23210472,62.94996688,61.31629765,60.35189494,59.86812335,59.68755294,59.37928079,58.98327026,58.89465599,58.78664591,58.5285213,58.45029282,58.09287485,58.40958885,58.84444547,69.3777536,69.13214179,56.15379046,56.06177222,55.99544683,56.09816504,68.22170612,68.36349638,68.49226049,56.33866871,56.04243725,56.06340026,56.15291978,55.4707812,55.04755727,54.75659867,54.80478218,54.86067024,54.70599945,54.66572093,55.56772588,57.38708941,57.36270197,57.23575616,57.07861826,56.9312446,56.78421838,56.64104892,56.57900861,56.57270454,56.5788183,56.56757941,56.55386745,56.60075884,56.72486794,56.93690478,57.23205713,57.35656105,57.45349369,57.61268725,57.62348715,57.34717805,56.90890491,56.65578543,56.95678869,57.41612942,57.55437759,56.21762473,56.22081854,56.13975455,49.58416841,49.66545679,40.02283849,39.31061463,74.92841313,49.3447862,40.97005228,57.00079256,52.35605842,42.64477078,53.06757906,53.24812946,53.50429368,53.8977729,52.01414075,51.06861501,50.74181036,50.56261366,50.32230552,52.01414075,52.74318912,53.35123811,53.52227898,52.93969915,52.91973172,53.29166041,53.46647731,51.61335386,50.86813657,50.62850657,50.66113823,50.74296165,50.70487267,50.65894591,50.6131291,50.58780198,50.4571589,50.64035819,49.67218683,49.67596727,57.3582812,51.48631685,51.57323272,51.32888045,51.08039773,50.98630403,50.97778365,50.84441998,50.73369336,50.70347819,50.66964937,50.89479933,51.05353603,51.0411797,50.61078095,52.542782,53.62613689,52.55802863,52.20564651,52.32985212,52.29659098,52.05733913,51.84976611,51.6373636,51.37559904,51.35989317,51.30747912,51.15428881,51.13933928,51.20639865,51.10869497,51.12815218,51.1913751,51.07312825,51.05187632,50.80781824,51.00854959,51.27209152,51.35593025,51.136733,51.82475263,51.75427176,51.83657672,52.74318912,52.75140417,52.93035138,50.15510707,43.82258365,41.66619893,52.88788791,52.92896438,52.55802863,51.94383197,52.55802863,51.14399075,51.14399075,51.48682058,51.59821843,51.27762105,51.31455706,38.97237474,38.90186044,39.19302035,51.09998252,50.80830498,51.2886292,51.15581135,50.97508853,50.44541538,36.76871822,36.40269316,36.54817587,45.41612942,76.93035138,76.93035138,76.93035138,76.93035138,76.93035138,76.93035138,NaN,NaN],
	"ap0": [NaN,0.6685032138,0.6798996297,0.793085194,0.7248629186,0.6583467977,0.5809509896,0.5259004978,0.6906745963,0.6293086403,0.6564768551,0.7405692807,0.5683191134,0.4745617447,0.6046808072,0.6783488557,0.6661718978,0.8015698984,0.6244181376,0.6235185013,0.6911251733,0.6860946726,0.4575217777,0.6071786843,0.3310856797,0.1016818435,0.04358902835,0.05823086788,0.1303587244,0.1906154028,0.1604601094,0.04710861088,0.03893338303,0.1329005508,0.3733144472,0.436537379,0.3549809559,0.2845694196,0.1825558931,0.1218465906,0.1043597462,0.03015052219,0.01731822779,0.01266556633,0.01155055231,0.008512615778,0.006006505168,0.003920958004,0.002754737789,0.003064034088,0.003402561254,0.004394339098,0.005060479548,0.004177276627,0.005538585589,0.005057073418,0.005482163584,0.007478910219,0.005080142635,0.003309001261,0.004765561347,0.006576814674,0.01022543635,0.0120268873,0.03154641326,0.0834886866,0.06589923005,0.1189865367,0.2608259354,0.06607420536,0.01576071516,0.003099928899,0.001066358356,0.001246800353,0.001437517011,0.001697829881,0.01032156509,0.02938519447,0.04983050819,0.1245525231,0.1892688556,0.266696514,0.03259370297,0.01800040159,0.01552371584,0.02003030201,0.0134450571,0.009358838695,0.003871192395,0.003723109502,0.003889626482,0.00743812435,0.02106741027,0.009058955798,0.007235654166,0.007186981695,0.008692750413,0.004078335731,0.005761129485,0.004250043616,0.001530165504,0.001496487833,0.002265355588,0.003082348702,0.01299147765,0.04828340724,0.09061968577,0.1131431504,0.1681337944,0.09799900256,0.03010365884,0.008437894473,0.002522828652,0.004144138227,0.00418168447,0.003743069217,0.00572090186,0.01361168611,0.01870957347,0.01365783241,0.0151013412,0.02197400557,0.05165388679,0.02230585985,0.02101686879,0.02244931801,0.02005799132,0.02224880455,0.01390727353,0.01893504836,0.0287999994,0.04070358537,0.06189616812,0.05207487648,0.09192677354,0.05327481379,0.08416725234,0.2550408971,0.03946120186,0.01000142339,0.00507557016,0.005409143764,0.004521197239,0.004063109945,0.002435457716,0.001580595499,0.002403432909,0.005214481525,0.01018774027,0.03470814702,0.04745955829,0.0150474596,0.007168966127,0.00649483919,0.01190813778,0.01385702546,0.01196107711,0.01303860628,0.02530008969,0.0500536054,0.03530782818,0.02535416791,0.02053113241,0.03495106115,0.0245922158,0.04143155249,0.1577660193,0.3035505928,0.1851230737,0.1218955837,0.08605588533,0.1622408066,0.09958651663,0.08596366397,0.02717992663,0.01544921691,0.02393929324,0.03586478605,0.05781219025,0.06062279452,0.03149527006,0.00873418928,0.01064749456,0.06322155242,0.006914231148,0.003483833,0.002966419282,0.002727697178,0.002292187304,0.00237272114,0.002566845063,0.003095387495,0.006740594838,0.02028469196,0.01171881686,0.01779027889,0.02974645113,0.03051514793,0.0236080449,0.009550928915,0.007381221502,0.01235840634,0.009024363624,0.006476985,0.004835376465,0.003699408023,0.003514490988,0.002578295802,0.003408195163,0.003727153618,0.004573430786,0.008652613724,0.0124841659,0.011113527,0.01562395437,0.03064772956,0.1011532775,0.194320581,0.1466035404,0.1401598173,0.1688693214,0.2682034925,0.454147098,0.6519044777,0.7134040723,0.6306496191,0.6436710698,0.671575612,0.5934250946,0.578957611,0.739423379,0.6793431571,0.6067417518,0.6540018736,0.6373350667,0.6784224435,0.5852737422,0.6379179042,0.4984476333,0.4696575324,0.549932231,0.56967533,0.5602186,0.4425147986,0.1958695977,0.01763446466,0.01282304449,0.005249153991,0.004283889585,0.01023735062,0.09680550579,0.3116056442,0.3948186957,0.3573347334,0.2328767092,0.2370657557,0.739289967,0.5928364587,0.3357049064,0.0628851813,0.03820263773,0.02686453258,0.02586300353,0.01241146526,0.01085851168,0.02232204392,0.0398264617,0.02041583256,0.05239305328,0.08436738045,0.04085543093,0.01857146107,0.02769323536,0.1092853345,0.1075366185,0.08768201403,0.05201767943,0.02345036804,0.03602245168,0.01837585769,0.01720533036,0.04042715146,0.09574401482,0.19798001,0.1334718092,0.04440194236,0.03462366736,0.0531780668,0.04370756616,0.02397180938,0.03954107097,0.03934855949,0.04065562125,0.08862739892,0.1189995003,0.5237092315,0.1108115747,0.1458328624,0.05131290481,0.022229365,0.0110707784,0.008850361418,0.04336280308,0.03180826985,0.2537679007,0.04043600953,0.04290508226,0.05211275771,0.1228673689,0.1346151325,0.07797977594,0.01466370345,0.009361048447,0.01190138262,0.0388646111,0.1035344434,0.4122712354,0.0675949597,0.01698721325,0.007753869734,0.004545652702,0.004602860301,0.004465887284,0.004963360156,0.004771126054,0.003197805772,0.002734242177,0.002499207213,0.002636033442,0.004820726095,0.007023565708,0.01245666642,0.01050929451,0.008911548109,0.01231454283,0.01824424239,0.0340150375,0.1120299859,0.2863395886,0.17942399,0.1282583982,0.149327032,0.3324022586,0.6048920938,0.6405904692,0.7384645073,0.7354685568,0.7561373052,0.6187783937,0.7193193459,0.8884532277,0.6748816327,0.7739987314,0.6325863848,0.6755029985,0.7500202248,0.6004796646,0.5294160816,0.4618682015,0.511446473,0.3544983143,0.2077194707,0.09327337155,0.1209108577,0.2426496946,0.2470173939,0.1359521709,0.1705166955,0.216241281,0.1974939205,0.1319124091,0.1017324508,0.3048141759,0.4984177186,0.2445208933,0.071884541,0.0340436734,0.02072575884,0.02062363415,0.02715084033,0.02514813926,0.05926282038,0.1350357442,0.3775481542,0.5552544151,0.5285069639,0.6940767015,0.4003011069,0.1513912201,0.1411555934,0.1240190678,0.07602692309,0.05188920392,0.04023608,0.0332522884,0.03007603415,0.03368751849,0.03297208882,0.03595754365,0.06516928168,0.232875047,0.5296653824,0.2425203124,0.1345442999,0.04123578789,0.01537782922,0.01403528386,0.01831971535,0.01502020326,0.01797351038,0.01728992068,0.01556621959,0.01453699441,0.01714929926,0.02751885223,0.02386970619,0.01738958666,0.01774137023,0.02325596016,0.03420145145,0.0654658472,0.09357617828,0.09625892328,0.1345265024,0.07138308986,0.0970583338,0.1692434351,0.2438370321,0.4302094118,0.4704610666,0.3759198975,0.6060771725,0.6135974862,0.6608898545,0.4921879842,0.361582017,0.263849564,0.2150451274,0.4775721363,0.524040332,0.3657588864,0.1865593565,0.2424305283,0.2578860226,0.291658125,0.4366173887,0.3232212588,0.2811334702,0.1735768186,0.2285784527,0.1785777416,0.1506971074,0.2059250268,0.3672315111,0.9185614847,0.7919746396,0.6064215533,0.5629836348,1,1,1,1,1,1,1,NaN,NaN],
	"ap": [NaN,0.4031314046,0.3948230116,0.3334209618,0.4980607131,0.3995783723,0.6414782349,0.2634698519,0.1824037431,0.5336802467,0.3656695919,0.3172066185,0.2991922141,0.6637891968,0.05643809367,0.1641281491,0.4896890538,0.2133186675,0.6557252621,0.1712696777,0.3147915504,0.3519175264,0.2995030757,0.5783642422,0.4687954738,0.1137907608,0.1869138758,0.05086161722,0.04967231284,0.03726386938,0.1362083818,0.1350607454,0.0215728151,0.009410251132,0.05549278796,0.1944207643,0.2907880557,0.1638794913,0.3619411986,0.1925986619,0.3518366042,0.1149732695,0.02464549337,0.01287729053,0.01038410371,0.0034819068,0.002251129869,0.003447269769,0.00326625901,0.000619504438,0.002456119845,0.001193740171,0.001371859007,0.002522830846,0.001508266082,0.003348021205,0.003003738427,0.002156740268,0.006796977908,0.004754244703,0.003647720272,0.002751272893,0.003759911846,0.002101640876,0.008733429078,0.01034846991,0.02096857574,0.008937209941,0.0971999177,0.2868257131,0.4163246518,0.0218055378,0.002493448109,0.000358640904,0.001361294761,0.001077128506,0.000821412673,0.003211769641,0.1072374998,0.01364200106,0.07781243048,0.1246728442,0.02727881517,0.07824293141,0.02237362277,0.01297743754,0.02184531043,0.02275830958,0.01446357934,0.008910823355,0.007307489924,0.003069749167,0.002381113611,0.03517765879,0.004479566743,0.007547365094,0.008997534633,0.01218882203,0.003598855709,0.002484697405,0.004514592992,0.004105635976,0.00189317974,0.00235633231,0.00107339571,0.006682961025,0.01391701203,0.04061429844,0.05418792236,0.453153834,0.1189249135,0.05699032747,0.01160182595,0.001660026309,0.006886067766,0.006533853966,0.003078465106,0.001513316484,0.01490360672,0.007417936989,0.02098074683,0.02263545496,0.0307930848,0.0796082039,0.0247368575,0.01246107016,0.03419779828,0.01258566677,0.02426407513,0.004314089173,0.007468162004,0.01403466744,0.003774068011,0.1792795973,0.04014026592,0.3400322626,0.01318784658,0.5339346825,0.4776856333,0.03052257158,0.007821877342,0.007774965972,0.006338790165,0.00450536544,0.0022841401,0.001885785496,0.001561557475,0.005702880384,0.01446834409,0.01844054385,0.04534530666,0.04073064029,0.01286516853,0.004656322166,0.003290997429,0.004742438182,0.003008953887,0.003190216522,0.01574046456,0.04927825748,0.06040530754,0.04058315554,0.01294148842,0.01663323739,0.01697477209,0.01261305727,0.03804560558,0.04997759453,0.03283717573,0.3851999546,0.07748164301,0.03400194565,0.3480364128,0.5203070931,0.06936472777,0.02120069903,0.007567112514,0.01050974913,0.01898038675,0.02087080566,0.04785462594,0.02714387914,0.002402447404,0.0009992921045,0.007065285993,0.002961876644,0.002636112004,0.001562867134,0.00183444994,0.00063742634,0.001406631759,0.0008133255527,0.008309160863,0.01388925092,0.02989528384,0.01686435444,0.0299463001,0.02533450983,0.04576337026,0.01016250807,0.0025921833,0.006971763792,0.01018085454,0.002121312224,0.003073373376,0.004956000797,0.004515598836,0.001599374421,0.001570489363,0.0007024788456,0.001953098279,0.004723114949,0.001115946847,0.005377590697,0.006017220959,0.007328415687,0.03305580621,0.0254853455,0.02985984708,0.07701545706,0.1698565972,0.06773592863,0.2008162831,0.2801032335,0.4245013353,0.1418388175,0.3656578367,0.2352830623,0.4553597158,0.1784967835,0.5805051118,0.3587073157,0.3599994406,0.4842597906,0.5536476988,0.270997484,0.5965344931,0.2845808154,0.1766587366,0.3826667371,0.3282222719,0.3029464903,0.4486342327,0.09441228029,0.5582628817,0.3566711366,0.01056837498,0.01330210688,0.004001568827,0.005856799123,0.007440619878,0.006979909661,0.1303659089,0.3357851225,0.2359261897,0.0869741373,0.2432934889,0.5983844269,0.6743993088,0.6691397644,0.02438292554,0.01943611826,0.01151480505,0.02399707759,0.006686295805,0.003327732649,0.02182706845,0.03226063755,0.03296508597,0.1039393406,0.1832897339,0.02858322148,0.04359897515,0.0675324961,0.133657551,0.05068742855,0.05183859576,0.2294940499,0.01542134096,0.04778655898,0.02211834896,0.003088785592,0.008667198297,0.1556592885,0.1921634836,0.1357597315,0.08680605063,0.02562360495,0.04956634321,0.01843980986,0.02370314696,0.02120625554,0.0108917754,0.006424746396,0.06627103351,0.1026430537,0.4377325629,0.6490517541,0.04601275622,0.02597165564,0.008533359533,0.01341179432,0.09169069486,0.04268828094,0.01512339251,0.0940543102,0.009443962037,0.02621482861,0.04075348814,0.08091288036,0.2077011658,0.001884613009,0.005931903212,0.006947908988,0.008551476398,0.01071349541,0.0763127412,0.1094513282,0.2947949726,0.008958373185,0.007604482057,0.004768080212,0.004743859085,0.004001324695,0.002346715965,0.005195990173,0.0007533350722,0.0005686775101,0.001839033057,0.001707679677,0.009593213662,0.007629489811,0.01111012866,0.006404747494,0.004401349077,0.006426965112,0.006122614328,0.01794343664,0.1536299584,0.2274859024,0.4984682478,0.05117367819,0.06703460739,0.1503915455,0.2764064709,0.2643427364,0.4674138365,0.4181402427,0.3458278164,0.3303655139,0.6004871026,0.5410206863,0.5609407837,0.4821725618,0.3032012451,0.4606338682,0.3510630103,0.3670410605,0.2498142496,0.1964145497,0.1647950851,0.4042195675,0.09243317903,0.03870976079,0.06823809793,0.1478111106,0.8005877597,0.1032241431,0.09610375811,0.2414444794,0.03246530928,0.1537046539,0.05341474383,0.0615791409,0.5593041202,0.2574401061,0.07923787769,0.0194783649,0.01400215137,0.005987815822,0.02723628726,0.01502363935,0.0188727305,0.07755742122,0.1358935672,0.4646966692,0.4878752413,0.5658073614,0.1306044608,0.088668554,0.08129650589,0.06866628454,0.04420270523,0.01542273364,0.01718031234,0.01060614197,0.02069688993,0.007575631018,0.00791889687,0.006465797746,0.03218780464,0.1199297222,0.4549193617,0.1836562559,0.08882400864,0.01622305978,0.008332387837,0.02553473566,0.01614237256,0.01318011245,0.01924826166,0.004080927499,0.00743048219,0.008378496056,0.002942418886,0.02309994363,0.02707019723,0.008761832559,0.005126463805,0.01170936463,0.005145683419,0.03604126306,0.08315725163,0.04773793829,0.10831534,0.01175597773,0.05189708235,0.06960775316,0.5024036362,0.140445896,0.5628597661,0.2396736661,0.7672944752,0.4520182251,0.330592703,0.4142659482,0.4882647823,0.2158358631,0.09281687565,0.3084816958,0.3522425833,0.3947004285,0.08453611058,0.08245113183,0.1579202166,0.1242424286,0.2135274426,0.1756430495,0.1215926313,0.1966613655,0.1415607101,0.1042630685,0.00798176625,0.1106911683,0.4390130294,0.2149512577,0.5000001887,0.1343830403,1,1,1,1,1,1,1,NaN,NaN],
	"pwr": [NaN,3.006870585e-07,2.150002994e-07,3.129007072e-07,8.909467705e-07,7.067722346e-07,7.716012883e-07,2.600267892e-06,5.001505662e-06,5.265929319e-06,3.335362838e-06,9.592654022e-06,9.199346779e-06,8.561402517e-06,3.228990975e-05,2.805504559e-05,2.448909156e-05,2.756189445e-05,2.24326313e-05,1.207894997e-05,2.684104683e-06,1.381364104e-06,1.089777728e-06,7.324422768e-07,1.058131271e-05,0.0001397207528,0.0002953976303,0.0005546086419,0.001264893047,0.0006411698216,0.007306706585,0.01164487371,0.01141103552,0.01908475774,0.01291422245,0.00295359387,0.002055613217,0.00155115389,0.004825566277,0.002766187283,0.003917487104,0.007827660861,0.01074642128,0.01621744789,0.01384649446,0.007319801566,0.007645985714,0.006300287723,0.00897411686,0.01296164041,0.01372686596,0.01275221836,0.01042973526,0.009613416139,0.009623724174,0.008800499935,0.008104233779,0.006870997853,0.006733917264,0.010155955,0.02131618729,0.02322236135,0.01482605892,0.01098060068,0.01162134553,0.01227181841,0.001603011672,0.001137359444,0.0001027408773,0.0001849537069,0.0001981076821,0.0163193746,0.07411454321,0.08256972256,0.07562553417,0.04421061644,0.02839028498,0.01911828827,0.00502803238,0.005036635092,0.002859432485,0.001790705243,0.0001982311192,0.0004725688325,0.140837024,0.274165036,0.03172045192,0.0436235387,0.04761909467,0.1175234398,0.1512175071,0.1812783891,0.1280088694,0.01681529421,0.01714721023,0.01223111962,0.005016256503,0.009392367078,0.009461736491,0.02137794251,0.03262378893,0.05580358564,0.0724102176,0.1006440343,0.08151661328,0.02862193676,0.008359171939,0.001271719234,0.004630885085,0.0006346686185,0.0002707840964,0.005406976973,0.02445054413,0.04719136675,0.0452906499,0.03663171176,0.04076323622,0.03758158416,0.0148744202,0.01096763516,0.006616301194,0.01005840306,0.01289595554,0.00247776122,0.007067382388,0.01472125432,0.009078144305,0.008295439283,0.01387237747,0.008778401572,0.01041262982,0.004464500195,0.003870885663,0.0008546146675,0.0008351181099,2.336995714e-05,0.00038924123,0.0001185753576,7.044405666e-05,0.0007323126741,0.003810455235,0.008637003081,0.01126212546,0.00989765933,0.007853837522,0.006792636202,0.007748219667,0.007355551579,0.007131229267,0.00820117528,0.007855528643,0.002036722043,0.001778709254,0.002188456539,0.001611597972,0.001504407475,0.001536712885,0.001111942356,0.001115255436,0.001314853793,0.001760114932,0.002844385361,0.003852184276,0.008746515661,0.008645317338,0.0033361048,0.002721588941,0.001351491176,0.001262902634,0.0003176633345,0.0006281114581,0.0002059363702,0.0001331788376,5.700372248e-05,0.005185545885,0.01424457214,0.02154918829,0.03452177274,0.03094132286,0.02453434964,0.02290304699,0.0311246148,0.04171624745,0.04022126252,0.01614893237,0.005437034502,0.004230151577,0.003886862838,0.004741059124,0.005802042324,0.005748212566,0.005768979579,0.006049006544,0.005209702234,0.004132836698,0.006283244881,0.01180031855,0.006422563639,0.004993548152,0.001780561472,0.003041651809,0.004007511651,0.003114320894,0.002297265727,0.002861234741,0.003791242402,0.00366819659,0.004668552241,0.004674759994,0.003929232172,0.00327576722,0.00237905346,0.002296065551,0.001382160188,0.0009027767417,0.0008376418743,0.0003693754321,3.326803562e-05,2.657981929e-05,2.499282357e-05,6.74159843e-06,1.218710774e-05,7.13049962e-06,2.928390964e-06,4.548770013e-06,1.056867177e-05,4.758652652e-06,5.702589877e-06,5.759085673e-06,7.336168859e-06,8.001347433e-06,7.124497704e-06,4.837502172e-06,4.007517995e-06,1.336800658e-06,9.459464254e-07,3.77896368e-07,2.129554348e-07,4.096433733e-07,3.695041504e-07,3.405234152e-07,6.694515831e-07,3.837611744e-07,3.397644469e-07,0.0005809514593,0.003828813821,0.03715959442,0.06437864858,0.03271018926,0.03751887135,0.02909095779,0.01236553011,0.00738010609,0.01147695965,0.001749040684,0.001387025681,0.0004688333232,0.0005050829412,0.0007377690435,0.008497443889,0.01626609413,0.01874079133,0.012569938,0.009939408079,0.01228206966,0.02478008071,0.02665608846,0.005184372961,0.008331478339,0.006028345691,0.004736248527,0.01252721678,0.06456194651,0.06516601314,0.09092971101,0.06856308879,0.02712704232,0.01441756882,0.02037265952,0.01449080218,0.01950204404,0.05754823956,0.01351427344,0.009643126747,0.008434054577,0.003319006203,0.005945430856,0.02928987537,0.01165498851,0.01144803385,0.008042587235,0.007564502289,0.002626638262,0.003085521896,0.0007250947647,0.0003453083836,0.0001092460988,0.0004506552262,0.0254055381,0.01086856501,0.01068019652,0.01043142528,0.007939617649,0.02130207048,0.02862845324,0.003798501686,0.002241506786,0.0005150050115,0.0003521392774,0.0002275523567,4.687123993e-05,0.0006244284733,0.001101680868,0.0009179039843,0.0007734059374,0.0002741478753,0.0001009324377,6.328649061e-05,3.585036565e-05,0.003308825119,0.007460028793,0.007927018256,0.006558043691,0.004985532197,0.003592847763,0.003193484659,0.002884504649,0.003409315168,0.003742155674,0.003462183278,0.002947131191,0.002511504498,0.002410866631,0.002572880555,0.003725715759,0.002333480422,0.0006187545808,0.0002779204224,3.820736537e-05,9.158241702e-06,2.604543343e-06,1.131220963e-05,1.648742149e-05,4.209841492e-06,3.234679576e-06,5.36630136e-06,2.976213253e-06,5.025360991e-06,7.160767661e-06,4.931984049e-06,5.466375048e-06,4.554857325e-06,3.868505489e-06,9.025007773e-07,1.499314841e-06,9.161283019e-07,4.995559512e-07,2.35354424e-07,4.977565991e-07,2.665629867e-07,3.169899202e-07,8.415256427e-07,4.4094823e-05,9.803401134e-05,9.391806229e-05,3.511273211e-05,5.078901942e-06,5.641393045e-05,0.0001745869751,0.0001196488427,0.0001054604432,0.0001124891362,8.921310888e-05,6.662891069e-05,0.000139772921,0.0005283166715,0.0008930272086,0.0009834655784,0.000835367761,0.0004650463958,0.0004404599165,0.0002343190738,0.0002021671425,0.0001246382587,1.490937688e-05,7.289215593e-06,8.744629245e-05,1.121526768e-05,0.0005062273233,0.0005884689281,0.0004782140161,0.0002415887827,0.0002323735105,0.0002300137008,0.0002044903203,0.0002742427694,0.0003163246177,0.0001582824723,8.499884034e-05,0.0001188041519,6.336174755e-05,2.118830729e-05,3.611614467e-06,3.368224691e-05,9.998076991e-05,0.0002250151613,0.0004095778883,0.0004505048717,0.0007648001845,0.0009874475879,0.001043226331,0.0007410312587,0.0010399472,0.0007537955976,0.0005075888421,0.0003721563806,0.0002598342566,0.0003394724547,0.0004432344845,0.0004210188418,0.0001427037854,0.0001039175275,4.473749679e-05,4.736539359e-05,6.438905907e-06,2.72328082e-05,7.815335904e-06,3.380357302e-06,5.429378967e-07,2.299966816e-06,1.040855011e-07,7.071382994e-07,2.852776355e-07,1.001326184e-06,4.629201018e-07,1.20243877e-07,1.207399721e-07,1.70667958e-07,1.037555881e-07,5.282654843e-09,1.232804018e-08,7.819229116e-09,1.056410838e-08,7.511238437e-09,5.531090739e-09,8.687925626e-09,2.738867437e-09,3.06884975e-09,5.13159575e-09,2.625305074e-09,2.603746653e-09,3.38849836e-09,2.449181755e-09,1.764313761e-09,1.123703827e-09,3.840710618e-10,1.081347341e-10,1.286954191e-10,0,0,0,0,0,0,0,NaN,NaN],
	"sr": 16000,
	"range": [1,149583],
	"minf0": 63.1883,
	"maxf0": 706.3069,
	"thresh": 0.1,
	"relflag": 1,
	"hop": 320,
	"bufsize": 10000,
	"wsize": 640,
	"lpf": 4000,
	"shift": 0,
	"plotthreshold": 0.2
}
