{
	"f0": [NaN,49.5714205,49.62669901,46.2804289,46.37333876,46.81201884,46.20302705,35.34887861,51.57721794,47.86377045,46.6215887,43.02833405,45.95085504,49.76715685,42.56747705,35.34887861,55.42997614,47.36993627,54.93106299,49.43206886,46.27739551,58.10376129,49.71410525,44.78902566,45.66087203,46.11599351,59.9282887,59.64847482,49.50381925,49.45576698,45.92604108,46.30953661,39.71771973,47.14686054,53.69080968,53.17423962,53.76334654,54.07056169,53.90456925,53.59818659,53.44833162,53.41859885,53.41887086,53.38367645,53.34474246,53.32132137,53.29392195,53.3440765,53.42942582,53.47266037,53.53093233,53.5659175,53.54097353,54.68782083,57.43397981,58.30074771,58.74791367,59.16157852,59.968597,60.16350925,60.41970192,60.97266601,61.21222299,61.43480258,61.62275024,61.75010891,61.86489187,61.90773766,61.91866523,62.03292895,62.07314864,62.00044741,61.80050972,61.61023733,61.57238072,61.48850219,61.59185381,61.69799119,61.80957928,61.89382185,61.82384726,61.74617222,61.6892686,61.65455846,61.61803215,61.58789273,61.63101541,61.70958139,61.70374927,61.64380046,61.56047865,61.47343122,61.49968427,61.42585616,61.27097352,62.01990937,61.37430549,62.85301489,62.36278039,62.27942944,62.27665567,62.20966755,62.20061362,62.28861894,62.40820545,62.49845816,62.54046805,62.53460378,62.45666213,62.15918521,61.66632662,61.81695167,61.63257884,61.93614049,61.82371621,62.4780494,62.0115316,49.98218277,61.2763328,61.18033297,61.15130615,61.01164915,60.93082904,60.94747342,61.06660816,73.22473506,61.32814429,61.37117614,61.36939261,61.39171853,61.43308478,61.5094543,61.58493655,73.67110911,61.82390011,61.91411192,61.87482162,61.79952675,61.77416298,61.79720458,61.81812499,61.79185288,61.73878032,61.67745018,61.60932849,61.49563844,61.35503879,61.22016329,60.77013655,60.26577876,59.85529247,59.07819258,58.7380598,58.39073625,57.77925262,57.61409016,57.89785832,58.9446811,58.73340115,60.0442468,59.59793924,59.62913947,59.71546919,59.67254524,59.49540715,59.36352404,59.46886497,59.46689986,59.44517016,59.45687026,59.4428217,59.37618618,59.33230761,59.31152566,59.08073718,59.31152004,59.38349282,59.37276941,59.26651561,67.78826823,58.32673159,57.90294541,57.7228466,57.7399686,57.71792658,57.6951799,57.71071801,57.73284001,57.75805275,57.75029935,57.71207685,57.65227248,57.58364829,57.43688449,57.17637776,56.93939396,56.63858335,56.2258227,55.95326525,55.78124643,55.67243346,56.18138779,56.48516898,56.49527444,56.43034065,56.38085356,56.36388138,56.33824983,56.32407042,56.35535672,56.40635804,56.48847025,56.56709509,56.63685226,56.66332151,56.62611762,56.53249763,56.26184071,56.35884857,56.69113328,56.91110803,56.93520015,56.75152101,56.98723076,57.18268897,57.26126954,57.33234746,57.35598485,57.37702847,57.42542444,57.45585248,57.43489358,57.36300431,57.26566395,57.21485291,57.18501766,57.08139776,56.78423794,56.44543765,56.2674355,56.03205437,55.54150733,54.9224708,54.47168378,54.36153099,54.09904363,54.08385033,54.12110663,54.36734026,54.66472837,54.79890137,55.07899804,55.40342477,55.54493687,55.66604165,55.81846063,55.99556531,56.19193556,56.29405635,56.38245978,56.30574769,56.16244286,76.19354484,55.7006871,55.81097763,56.68289781,56.99349654,57.24850271,57.25862839,57.27127468,57.2825394,57.27796875,57.25658785,57.17467098,57.02813069,56.61692086,56.01627872,55.26095002,54.58930227,54.26913432,53.50876817,52.67176823,52.22784053,51.83657672,51.35540372,50.96773392,50.70413457,50.8698951,50.945855,51.01397183,51.1207382,51.25430772,51.46233126,51.69058804,51.64006673,51.38526669,51.25818014,51.22034239,51.21615626,51.35426757,51.7532224,52.53624822,53.01555165,53.08790207,52.94321986,52.63314227,52.35756253,52.29682026,52.14757184,51.86951879,51.78481639,51.85324566,51.92523114,51.98940654,51.98774225,51.96627618,51.95961978,51.95006976,51.89599941,51.81093972,51.7290688,51.65383743,51.58301678,51.57602047,51.78595368,52.43617611,53.89565029,55.84706366,57.47791763,58.22490567,58.9446811,60.0027703,60.14490099,60.33303492,60.49878237,60.69336317,60.91277646,60.92279206,60.91712469,60.96376311,61.18026005,61.44837821,61.53043331,61.51073981,61.44558185,61.26050442,60.60303218,60.70951879,60.90619518,61.07604792,61.32605888,61.18941961,61.10059431,61.26126875,61.23382936,61.00315614,60.90457737,60.82374547,60.63407906,60.62137826,60.56529982,60.69698638,60.58023721,60.71931197,60.75352692,60.74666387,60.9854223,60.9797383,60.87735485,60.95396823,60.96706907,60.92437366,60.89076034,61.16806541,61.10460942,60.94263494,60.77660448,60.58362431,60.58800853,60.62137826,NaN,NaN,NaN],
	"ap0": [NaN,0.6634588779,0.675890052,0.6941428831,0.6603577819,0.5952225317,0.8020648398,0.7980432215,0.7894672132,0.8311242944,0.8427607981,0.7277717494,0.6256901333,0.6418124635,0.7997177465,0.8285796317,0.8167551441,0.8419523536,0.8415756913,0.8231011642,0.6952992701,0.6280754389,0.8773499474,0.647251615,0.7268570901,0.7776666449,0.7602882398,0.8842431626,0.5990211623,0.5541440552,0.6343299772,0.7804072405,0.7257458898,0.7696607356,0.9534592195,0.1560072959,0.08579832101,0.02385304444,0.01620450261,0.01127440196,0.007626903006,0.006158514969,0.006119993306,0.005375435923,0.003840334237,0.003724011613,0.003092937789,0.003843898093,0.004059390013,0.002758049422,0.005864630969,0.008842999061,0.01791546313,0.1475372129,0.1759464122,0.1108631027,0.06378177424,0.09665997589,0.1020061557,0.05268736683,0.0968320068,0.08478173241,0.03883780531,0.02173067073,0.009230014125,0.008133118115,0.009372249445,0.00997464853,0.008243100106,0.008975867702,0.02056892997,0.01961093992,0.02964804563,0.08217131502,0.08448953576,0.02795369461,0.007675512892,0.003309259203,0.004938690019,0.002420748936,0.001846105362,0.001431102913,0.0009551701799,0.0009610799637,0.001056699627,0.0009852993965,0.001950574487,0.00154314528,0.002135953175,0.007028969306,0.02825887318,0.06309084612,0.02782388999,0.07039951968,0.1130483689,0.328715013,0.2792109184,0.2272499936,0.02871726681,0.006350753564,0.009000949488,0.02693584012,0.03634263512,0.0301556804,0.01616810105,0.005069793707,0.002066931252,0.002439459695,0.007387365295,0.03203424313,0.06563100254,0.1014699106,0.07597153249,0.04389988475,0.0509510534,0.2321968557,0.6874161768,0.6915118906,0.07759706784,0.03124664538,0.01087135065,0.009965921902,0.002996252925,0.001416356971,0.004098601282,0.1038190086,0.009293999861,0.004700018955,0.001900501354,0.00100587772,0.0009362430812,0.001012450857,0.0007991300561,0.08752178158,0.001869330769,0.0008475006783,0.001645527263,0.0007967752586,0.0003295106562,0.0004467194899,0.0003651946724,0.0006812849071,0.001429821121,0.00200207193,0.002320980511,0.005130654826,0.01692313031,0.050722878,0.05872222929,0.03825565878,0.02989015613,0.04460515354,0.03479973437,0.03217595733,0.01948688242,0.03419604833,0.09312460359,0.2829066107,0.5511549458,0.2387520137,0.07312629108,0.01517918533,0.009693971019,0.009260188495,0.01797348523,0.01272764196,0.003979705507,0.003212060301,0.00341082446,0.002740366893,0.002600770166,0.004348645396,0.01360981789,0.06675134729,0.1398516121,0.07586789738,0.08307815338,0.1346317728,0.1012586342,0.6667444058,0.2400004162,0.09183792517,0.01950987577,0.005829339834,0.003538213665,0.003070871865,0.002075014586,0.00120069102,0.0009187258317,0.0008747093363,0.001058709598,0.001061180315,0.001470264059,0.004047014985,0.008139731642,0.01448923691,0.04033232339,0.05235836479,0.0229356458,0.01592338106,0.0231424287,0.04788217127,0.02022015972,0.007222372241,0.00478723615,0.002971540707,0.002114512756,0.002414887059,0.001834659005,0.001589075476,0.002277389558,0.005064892669,0.01034033918,0.0207189043,0.02601079129,0.02969091081,0.03350138422,0.03311650324,0.07041733464,0.2204871682,0.34484025,0.2112003745,0.05926413576,0.03967863732,0.01572448243,0.005275509025,0.002077558709,0.002393094581,0.002143996869,0.001863754748,0.0018818222,0.00258938883,0.004300266511,0.004701898722,0.003353502517,0.002859445032,0.007550545638,0.02305646576,0.02278973991,0.05172313306,0.07025575638,0.07535797122,0.139547144,0.06000969378,0.07437489984,0.08938287772,0.03500771549,0.01461697595,0.05068937442,0.01717305162,0.04030726333,0.06186142425,0.06431949187,0.03683157108,0.01335636691,0.0125183597,0.01910381217,0.01383277885,0.01270450529,0.03001825592,0.1522876639,0.2576920783,0.5820177932,0.4568472509,0.5913997388,0.2083377939,0.1131225349,0.03631485701,0.008113839888,0.005068766025,0.003490679882,0.003720996725,0.004883919627,0.006829181927,0.01091717466,0.03701981098,0.09452009323,0.172319974,0.1491741116,0.2154986155,0.200477183,0.200706643,0.1258111477,0.1480824492,0.08959778786,0.06357146468,0.02928714121,0.01297564383,0.005290930458,0.004063525918,0.0040377495,0.006324538754,0.009825078037,0.01086337794,0.01446803202,0.009134716136,0.004780356437,0.003911526505,0.003687003551,0.01000909328,0.04169863503,0.04326557058,0.02498431452,0.03790451681,0.04690224246,0.06073342961,0.02539792002,0.01332301706,0.01751938908,0.02705455017,0.01980379681,0.007542364737,0.004250444251,0.003176406441,0.002844038045,0.003822866389,0.00388910716,0.003328006058,0.002674282299,0.001767869038,0.002364111525,0.002179761351,0.002309255788,0.002244440656,0.008977334554,0.03951165388,0.217347697,0.1922088707,0.2092528265,0.1148807976,0.1811587316,0.1371717194,0.0593073535,0.02001850232,0.01672217219,0.02041509055,0.03325212566,0.01529675466,0.004732520813,0.004053285821,0.01161605184,0.01216681684,0.004198307464,0.001958026361,0.006168112508,0.04287452114,0.1308324231,0.1497318657,0.06534893119,0.02772189053,0.07760916067,0.04927982603,0.04017616675,0.03724312871,0.1404320431,0.1129676265,0.04592818161,0.03624515629,0.06502360318,0.1200712015,0.05356808008,0.1494229482,0.02966644922,0.01880982792,0.0184330355,0.01972505301,0.02506926314,0.05187187421,0.1061429814,0.0578912953,0.03086372539,0.03016338617,0.03936225561,0.09936384717,0.2021007627,0.07349565929,0.0360667625,0.04401359378,0.1415419206,0.5520037129,NaN,NaN,NaN],
	"ap": [NaN,0.3153907491,0.6041090747,0.6136564974,0.297393832,0.3572860008,0.3708087775,0.2770912238,0.5795245963,0.4338904518,0.3773099663,0.534788749,0.3116852973,0.5474826523,0.3622910648,0.4147774663,0.4623590056,0.5582732241,0.431215703,0.4928253779,0.5035717177,0.5774559085,0.4250779074,0.224749061,0.4446336107,0.3497525023,0.849607475,0.2597961074,0.4964966873,0.4186263089,0.4463676975,0.3936920147,0.3094909853,0.3773266199,0.5878629419,0.5288022718,0.4027399726,0.05071505402,0.02177219601,0.01874658043,0.003585317268,0.005678967205,0.0007969760854,0.004308948318,0.00421045106,0.001895784747,0.003442797888,0.001080704562,0.002768183265,0.00438734915,0.002685609175,0.001326504688,0.002374222079,0.06017590247,0.4620708817,0.4841804358,0.0987728225,0.03298798656,0.1297923952,0.04739668715,0.03305344941,0.1160742541,0.04665192014,0.02821631795,0.01239049129,0.01023076023,0.004664422474,0.009107632458,0.003941377576,0.004166762154,0.003562846644,0.009730489465,0.008254106827,0.01015610764,0.04320948124,0.3031241361,0.008273347558,0.004970140037,0.00132128078,0.004934411114,0.00215922731,0.001577996648,0.0008815675746,0.0003487837469,0.0005426884894,0.00068637551,0.0009611817578,0.002135360388,0.0004560641274,0.0009471746443,0.002469889389,0.01003994518,0.08941613076,0.008265196679,0.04814876441,0.06665552665,0.1953710135,0.3952680785,0.1304734355,0.2048178387,0.003946424485,0.006248672682,0.01218343139,0.006954826539,0.01971914875,0.004838306478,0.004542403421,0.001130425481,0.001304578316,0.01079454098,0.01534940878,0.0156094582,0.03450396373,0.04558396513,0.02916711108,0.02250943868,0.09609672691,0.2451743965,0.2772203741,0.3031892468,0.004555340603,0.003759183173,0.009787177592,0.002236225433,0.001816928643,0.03139391255,0.001776227593,0.007992920581,0.002228372085,0.0003575694697,0.0006780836703,0.001746307481,0.001666310094,0.04391348204,0.00483035299,0.001462721036,0.0005239989079,0.002372878712,0.0003381978155,0.0002825250253,0.0001800867591,0.0003682712924,0.0007890452464,0.001318734839,0.003424669189,0.003532058961,0.004250019907,0.005443615743,0.1170686639,0.04983581965,0.02934768701,0.02610356796,0.01394711249,0.02212376301,0.01318627427,0.009944889606,0.04671552959,0.108081603,0.02080461577,0.1044812854,0.3322795212,0.1050645387,0.007304719784,0.008377261337,0.004484802386,0.007894098553,0.02005122329,0.001192444279,0.0003277979648,0.00143224858,0.001038009879,0.003616324611,0.002525826911,0.004129469393,0.01832063096,0.07475586938,0.1374018202,0.0284639036,0.1612597038,0.7710010794,0.3980836666,0.8279969064,0.01230843448,0.01096597973,0.001984826975,0.001130267621,0.001530961953,0.002878715411,0.0009835809312,0.0003007286598,0.0003953074857,0.000860535649,0.000689059119,0.002207855257,0.007515158385,0.006194575317,0.01106199041,0.02712559578,0.04512723098,0.01216190811,0.004094184089,0.03673072309,0.04983697651,0.01479115046,0.006654955222,0.001827724486,0.002049166001,0.001018837017,0.000903586489,0.001503484107,0.001226592884,0.002616070494,0.003225167755,0.003369221517,0.01155144573,0.01256852568,0.01885677316,0.01692077947,0.01712857833,0.06210559395,0.1074202299,0.2381535242,0.1207452719,0.09938323416,0.0269440143,0.0100932226,0.004452597977,0.0008857051609,0.0010642978,0.0008352088865,0.001430675828,0.001018556805,0.001764847393,0.002591518191,0.002532246445,0.001898730932,0.003812705089,0.01810399127,0.01941281809,0.009401871891,0.02808876107,0.1296573655,0.01556721787,0.7115575214,0.02502148057,0.0378226497,0.04724312023,0.01408807746,0.03247132017,0.03012073845,0.01807666691,0.04046060983,0.01908884622,0.08003794497,0.01438358692,0.007943767971,0.0187774684,0.02220664056,0.01254795064,0.005952629893,0.007765480108,0.1517970211,0.3220096403,0.156662872,0.2166264583,0.3386477403,0.1570550061,0.05152434393,0.03172175275,0.002761738591,0.002956150256,0.001442211385,0.001340741858,0.001876046753,0.009075716412,0.03233069947,0.07306309778,0.1022664229,0.1462422442,0.03299539511,0.4649125517,0.05360431236,0.1279172175,0.1076753938,0.3897340391,0.02220353482,0.03413564837,0.008587478988,0.01238757554,0.002041645845,0.000702096471,0.00375005382,0.004865366152,0.007527099628,0.005805360832,0.00979323074,0.006959893637,0.002165894021,0.001541199236,0.004655195024,0.0158358814,0.06198110675,0.02400192796,0.01115293463,0.03398703451,0.04359770784,0.05360946693,0.02800085556,0.0047382835,0.01602938618,0.01113751687,0.01408452753,0.003882458864,0.001652423642,0.001044074502,0.001302936379,0.001784360464,0.003790986776,0.001684208131,0.0004509341123,0.001958304158,0.001852467896,0.00205106195,0.0008655978812,0.004959121607,0.03820851262,0.1725997094,0.4083829011,0.322622031,0.1895413038,0.03981131339,0.2562045364,0.1484587674,0.03278578964,0.006776375124,0.01393645287,0.009202287134,0.02974889905,0.008485948199,0.0008548116661,0.008717549057,0.01433105704,0.003000895563,0.003866027086,0.001378674295,0.00688327566,0.03386253306,0.05098088949,0.1394439406,0.02389715152,0.02712798452,0.009651738172,0.02980371461,0.06425460662,0.007878259836,0.03441351304,0.06860451599,0.01392821647,0.03373720186,0.01627800226,0.09200576094,0.03156249756,0.06235388441,0.05295526627,0.009534057814,0.01135142941,0.01547664591,0.01939236041,0.02353846595,0.04897596126,0.02836611468,0.009083119909,0.03667727427,0.01581140149,0.04777661872,0.08422732644,0.1686487014,0.01892615266,0.05674190099,0.08415367384,NaN,NaN,NaN],
	"pwr": [NaN,6.557673907e-06,1.228863123e-05,1.944253055e-05,3.45392589e-05,1.622651409e-05,1.901419541e-05,2.888864842e-05,2.387441846e-05,1.460063825e-05,5.907147622e-06,1.302204292e-05,2.231176108e-05,1.637871526e-05,1.376810727e-05,1.877273009e-05,1.628298545e-05,2.173069947e-05,2.471357035e-05,3.431135437e-05,3.778825114e-05,2.225436783e-05,1.322734029e-05,2.712647892e-05,2.111475565e-05,2.633616908e-05,1.12681594e-05,1.037063857e-05,1.603643901e-05,3.243460193e-05,5.029536099e-05,7.673506076e-05,7.642501963e-05,8.432032183e-05,6.376453997e-05,7.983237513e-05,4.02138179e-05,0.002029500226,0.002589341931,0.005861290084,0.005777792668,0.006603909212,0.007027460331,0.008984469452,0.0103691424,0.01041461656,0.01051001885,0.0080850021,0.008846225281,0.01102043873,0.01431934585,0.01582880154,0.01456607322,0.01247083121,0.006783105544,0.02426624446,0.1427237658,0.1790132842,0.0799099635,0.02641266395,0.0364797425,0.04146349629,0.02496780555,0.04050082397,0.04790177299,0.07454322335,0.112047345,0.07185689905,0.03557466742,0.02750628509,0.0217982057,0.01174296048,0.003479919676,0.007864117948,0.004076511064,0.00128611704,0.03596082002,0.05640816301,0.06350208278,0.06590066257,0.04419096114,0.06660400936,0.07993537031,0.07490569247,0.06617696094,0.05666251449,0.06036862169,0.06845495224,0.08861871986,0.1107725832,0.1231198594,0.04834769485,0.002188535876,0.009502354403,0.002343293676,0.002330932839,0.0003811618863,0.0005623603616,0.0003322059665,0.001191589934,0.02650753679,0.03609849147,0.01333224087,0.01081520961,0.009445360953,0.009635675659,0.01393256239,0.02185135118,0.02991717438,0.02221233266,0.01120683387,0.005488485299,0.001087685682,0.0008477467964,0.000617953266,0.0007413325223,0.0001263806155,3.924259582e-05,0.0001078394369,0.0001299386773,0.03506375712,0.03612943588,0.03728544263,0.08076679757,0.1176962901,0.1556828309,0.1746165266,0.06981666211,0.02954824357,0.05620206354,0.09073732407,0.1291083191,0.1760583118,0.1697198607,0.1878253194,0.1485601267,0.1349188929,0.1243499664,0.1834353685,0.1858310553,0.1749516235,0.1679548436,0.1785827308,0.1776143494,0.1180383788,0.07134364748,0.04738073129,0.02411095911,0.005112357062,0.009694780527,0.01359914993,0.01904240008,0.006041547191,0.007148954667,0.0168932298,0.007158371203,0.001366329714,0.0009744612455,0.0005611580512,2.753609299e-05,0.0001792290162,0.03128047699,0.04910060984,0.07156236847,0.09930858006,0.05286752742,0.01848320514,0.04449635829,0.04244243742,0.03855040971,0.03310689407,0.03996503749,0.06022066729,0.06907405237,0.01476813844,0.003789081344,0.002466140519,0.002302464298,0.0003629521608,0.0002146497643,0.000235410253,0.0007330936422,0.01826219948,0.0372248893,0.04697451205,0.04684635377,0.0418125409,0.03514566366,0.03830128251,0.03709508251,0.03714952996,0.03545683403,0.0361278175,0.04056135646,0.04127480465,0.0386427046,0.02706291523,0.01422643924,0.005119980402,0.007438287342,0.01665958046,0.01587860322,0.006220317569,0.04140899278,0.1236753561,0.1561513461,0.1196266767,0.08602920455,0.06313511366,0.049755744,0.04207557948,0.04243711823,0.04038718207,0.03109458,0.01618489451,0.009549944017,0.007520343222,0.006567335074,0.008545184301,0.002283736668,0.0003978882465,0.0001440854793,0.00030684301,0.001335813689,0.004379635468,0.007372948268,0.02130865167,0.0227755595,0.0225125855,0.01920118815,0.02211615277,0.02531774995,0.0313113659,0.03631823452,0.03701336287,0.03234777199,0.03236779134,0.03359268186,0.03921595207,0.03528365599,0.0165755845,0.008616326062,0.02237089426,0.0004281246794,0.007674478254,0.0251981524,0.01729689404,0.0404066379,0.05833458278,0.03145977709,0.03297745556,0.1075619387,0.03767732997,0.02055110632,0.03024779214,0.03329576504,0.05898113251,0.05885687499,0.03277247483,0.03608986289,0.05034758913,0.02534824394,0.01887869462,0.004267433412,0.001247191436,0.001553463978,0.001990791701,0.0125686458,0.01178949203,0.0215661383,0.02226640924,0.02340051212,0.02174996149,0.02707840321,0.03336249137,0.03389985461,0.02071207399,0.01799957757,0.02489980853,0.04485571485,0.002924306083,0.007444027246,0.003605280621,0.008133866888,0.003201739882,0.007703487114,0.005656520806,0.00422781317,0.00854527385,0.013468253,0.01326376199,0.01358707286,0.01305206064,0.01158330396,0.006339772012,0.005017138387,0.004370854306,0.005372435194,0.006344997833,0.006802736185,0.006059576636,0.005766528582,0.003023126439,0.002667659141,0.002226943782,0.001921255803,0.002086515411,0.00413929611,0.01369252141,0.01408770107,0.006103311091,0.00352145213,0.006528488732,0.006199636639,0.006781918087,0.00753699076,0.007663624288,0.007799245438,0.009113161997,0.01002607107,0.01007210634,0.01102235033,0.01268500349,0.01634486163,0.02005812575,0.02164079595,0.01829382809,0.01468619246,0.00961519367,0.04616561282,0.07347988044,0.03096279156,0.02291273785,0.04866959939,0.04163865848,0.03032120079,0.02191628765,0.005832763905,0.01057868253,0.01860722908,0.01901347725,0.01478714938,0.01709288197,0.02334734998,0.03564104592,0.0297917103,0.01659730368,0.004997596056,0.0009512309283,0.006085498573,0.002701559416,0.0001234477556,0.0001876021315,0.0001401587952,4.938120553e-05,9.313858014e-06,6.847210436e-06,1.320866863e-05,2.487477087e-05,7.376147797e-06,1.83264191e-06,3.681131306e-06,4.349627126e-07,4.022878308e-07,2.012214863e-06,9.849659709e-07,6.317921921e-07,5.444948209e-07,1.756874016e-07,1.469323953e-07,7.51365672e-08,2.535838348e-07,1.357399669e-07,1.559595517e-07,3.15152761e-08,3.555634806e-08,1.195912918e-08,4.896366546e-08,4.023966612e-08,4.490869025e-09,NaN,NaN,NaN],
	"sr": 16000,
	"range": [1,122447],
	"minf0": 63.1883,
	"maxf0": 706.3069,
	"thresh": 0.1,
	"relflag": 1,
	"hop": 320,
	"bufsize": 10000,
	"wsize": 640,
	"lpf": 4000,
	"shift": 0,
	"plotthreshold": 0.2
}
