{
    "DU": 7,
    "DV": 360,
    "F-measure": 0.8726207906295754,
    "F-measure Chroma": 0.8872620790629576,
    "FN": 0,
    "FNC": 0,
    "FNCch": 0,
    "FNI": 0,
    "FNIch": 0,
    "FP": 51,
    "GU": 58,
    "GV": 309,
    "Overall Accuracy": 0.8119891008174387,
    "Overall Chroma Accuracy": 0.8256130790190735,
    "Precision": 0.8119891008174387,
    "Precision Chroma": 0.8256130790190735,
    "Raw Chroma Accuracy": 0.9579288025889967,
    "Raw Pitch Accuracy": 0.941747572815534,
    "Recall": 0.9430379746835443,
    "Recall Chroma": 0.9588607594936709,
    "TN": 7,
    "TO": 367,
    "TP": 309,
    "TPC": 291,
    "TPCch": 296,
    "TPI": 18,
    "TPIch": 13,
    "Voiced Chroma Accuracy": 0.9579288025889967,
    "Voiced Pitch Accuracy": 0.941747572815534,
    "Voicing Accuracy": 0.8610354223433242,
    "Voicing Detection": 1.0,
    "Voicing False Alarm": 0.8793103448275862
}