{
	"f0": [NaN,35.34887861,35.34887861,58.68036542,39.39476294,39.98339185,56.78901632,56.74403662,54.71262168,54.26934734,55.48577021,49.79514745,54.67340385,55.99238874,56.14007924,40.04888884,35.35141306,49.45491028,54.72271138,55.03125073,55.05899204,55.08518264,54.90332318,54.9224708,55.13489482,55.0449055,55.1740572,40.8502461,40.75192205,56.69965447,58.92432956,63.00338197,62.77015024,62.57167054,62.38082585,62.19685492,62.12538778,62.21979275,62.36892004,62.57802897,62.67404883,62.67227424,62.64579021,62.63386491,62.70834212,62.98009527,63.44630972,63.85332824,64.10944377,64.13717831,64.16413968,64.1845249,64.20213245,64.26411427,64.32124418,64.31630538,64.29015513,64.21007054,64.10556928,64.06311386,64.23360304,66.04557501,65.59030962,65.4564632,65.21306759,64.85649301,64.72306816,64.54556313,64.64454354,64.76954412,64.92142362,65.0671821,65.31240407,65.54313662,65.64442203,65.65627421,65.62333215,65.62010567,65.63832836,65.57782508,65.47326364,65.48064309,65.63211225,65.81902287,66.01682289,65.88331995,65.58804138,65.48112381,65.5466485,65.62141996,65.60221023,65.52770083,65.60203978,65.82957888,66.02739482,65.77541482,65.53724937,65.52053128,65.62717151,65.74572351,65.8246219,65.71122953,65.68830768,65.72476189,66.10922528,66.22263174,66.3219462,66.49760956,66.3132314,66.9224708,54.12697136,54.09456631,54.09667712,53.29982599,58.38435298,66.01011912,65.88329833,65.56942353,65.27030222,65.05071377,65.04028406,65.23335087,65.38806973,65.53847417,65.7516449,65.9377857,66.21172924,66.31921154,66.29454738,65.86447011,65.96581719,66.9224708,66.74030316,58.59034757,58.11290208,57.77900522,57.44308132,57.30535804,57.39544296,57.52598688,57.48018325,57.25032043,56.95760719,56.704768,56.7879969,57.06945342,57.20991984,57.2723539,57.28389937,57.27638754,56.7491743,55.8164051,55.63743061,55.43308207,54.02399621,54.0993984,54.71262168,53.8977729,52.71140127,52.93035138,54.2715904,54.09845417,53.82540617,53.59334198,53.60090671,53.5699971,53.4719592,53.37895317,53.32687894,53.3466916,53.14911047,52.87745379,52.71275906,52.97714603,54.30783077,54.75257667,54.78247777,54.77901099,54.66030979,54.45428687,54.41859616,54.54298093,54.61989579,54.69827925,54.75792822,54.7813532,54.8068764,54.73946324,54.68970151,54.75579728,54.89037641,55.01117298,55.05433679,55.31447608,55.57342955,55.43791995,55.55787732,55.77116388,55.32128082,55.38437885,55.52534719,55.53530175,56.88319808,56.90871433,57.39246186,57.25980538,56.91753589,56.43621764,56.33196718,56.35989582,56.44897818,56.48642434,56.55960721,56.70914604,56.75382614,56.8505807,56.95503873,57.02663571,57.14360898,57.23593666,57.20611597,57.10390104,56.95518588,56.67248648,56.66360616,56.60419899,56.70749035,56.88763799,57.01836864,57.11943913,57.13674947,57.19868457,57.43441676,57.65520223,57.74008031,57.63670472,57.46103039,57.29562067,57.18326351,57.18091527,57.31711939,57.41612942,57.1630151,57.06164457,38.30053483,50.47715781,53.30372113,58.33684439,58.30714561,57.91062135,55.82912032,55.7777379,53.77099094,49.51327713,49.53684921,41.03241414,56.93520015,56.01165637,55.24847316,55.15394603,50.64214864,61.21407808,61.06240028,60.99423973,60.88072271,60.77892953,60.84862217,61.24892975,61.47624897,61.52333077,61.83677829,61.70845659,61.41407167,61.68065175,61.8583346,64.5093421,63.95293501,63.9285035,63.94940717,63.8522211,63.69677374,63.62263586,63.61638092,63.57588818,63.53860111,63.49936017,63.45844047,63.51752642,63.82266767,64.41524027,64.63254071,64.86323615,64.86116222,64.74579041,64.65583078,64.64724263,64.74327426,64.84594787,64.96241122,65.22074113,65.46566035,65.63100367,65.77725989,65.96260109,66.02025046,65.88353653,65.68796386,65.57000191,65.56772081,65.68618104,65.77243052,65.70971936,65.60347416,65.5657216,65.64294002,65.67801912,65.61397362,65.55273073,65.66815097,65.83745914,66.01169631,66.01950948,66.00689058,66.01894944,66.0510792,65.9937162,65.80425694,65.66921547,65.58674949,65.61906452,65.7022865,65.87375836,66.09301465,66.28650541,66.37198012,66.39921927,66.37723524,66.37503575,66.48696258,66.23674749,66.21220118,66.21423073,66.09837987,66.49837614,66.59436543,66.27558623,66.11541268,66.3357642,66.39348922,66.0893933,66.09658581,66.31126933,66.0866695,66.02605269,66.04577344,65.93751729,65.81375557,65.88410454,65.91194233,65.8076999,65.86286549,65.95857689,66.50528578,67.0665365,35.34887861,35.34887861,35.32576129,35.33639843,67.34995772,NaN,NaN],
	"ap0": [NaN,0.7673452453,0.8332997474,0.8357727071,0.6580495424,0.8462618664,0.899489833,0.8417981227,0.7492828172,0.7828423433,0.7654025167,0.8380557509,0.8345879434,0.7558610273,0.7334973839,0.6033855105,0.7673852839,0.7594399221,0.7291906317,0.684504567,0.6616097653,0.7633468015,0.7352485479,0.604772096,0.7105261195,0.7646661174,0.7868577165,0.6525850144,0.6133641389,0.7052484007,1.037093195,0.04127923739,0.01344696917,0.003562951969,0.003109294899,0.004977815752,0.003313480727,0.002920343543,0.003668524199,0.00452722317,0.002828641462,0.001718682745,0.002252100943,0.003970247249,0.004923087936,0.0079026521,0.008561564252,0.00727927445,0.002902765209,0.001572907543,0.000868405179,0.0008051513576,0.0009875044219,0.001319496289,0.001054787808,0.000949353354,0.001145848307,0.007485769028,0.02267721235,0.092550149,0.08659493751,0.2250851082,0.06825591,0.023360871,0.02925249559,0.01743802753,0.02386009447,0.02134237934,0.01231717692,0.008199231822,0.009687598555,0.01093138126,0.01125940054,0.007286600042,0.004467029614,0.003667901095,0.002999341824,0.002936291502,0.003902535002,0.005475727684,0.005330456592,0.004559667584,0.006153212099,0.01442090318,0.0145492395,0.02001199038,0.01971601409,0.008014997531,0.00493168886,0.004215320763,0.005009925198,0.004193400594,0.006560262849,0.01899409269,0.01651386866,0.01900304275,0.0130103102,0.007225944927,0.01044927544,0.02120108839,0.0373038062,0.04547407848,0.0729383852,0.1055409147,0.02766019524,0.01738664793,0.0320732357,0.1223619581,0.1779244476,0.4807514856,0.4166172136,0.3721582667,0.5087915371,0.6737448239,0.936246966,0.09940584634,0.0452141152,0.03216445402,0.02133426245,0.009570711788,0.009764422057,0.01081270873,0.007772650626,0.008655976624,0.01437495389,0.0267412884,0.03621275568,0.04046564369,0.07687701482,0.1140920579,0.1338443011,0.3600472989,0.730410907,0.2125356052,0.03454683785,0.01213119353,0.003580087595,0.002467590595,0.002201439489,0.001823632211,0.003733157373,0.00688940157,0.0110468235,0.01570790501,0.01880674869,0.009725854152,0.003330055731,0.001727393442,0.005745919862,0.02160593841,0.09519625998,0.0211247628,0.02764463619,0.06524174735,0.1251295166,0.05541822047,0.09785594923,0.2542607189,0.0650499072,0.1329788444,0.1234781819,0.1124270249,0.1219690744,0.04471750173,0.01142885563,0.00745075076,0.006527619121,0.008001897126,0.02050255835,0.06187942163,0.03433430503,0.01326646189,0.01120924849,0.02657528513,0.07286131793,0.02780136088,0.01786998444,0.0158251506,0.02613787443,0.02035188885,0.006819425857,0.004072641289,0.003633097633,0.004720732945,0.003668004609,0.004947487497,0.005986185443,0.006855498601,0.006627158621,0.009096545707,0.01394795626,0.01299431451,0.008119938617,0.01488598742,0.01201947122,0.01908094141,0.02603401208,0.02436598742,0.05624905495,0.0869491242,0.09524873504,0.1875638629,0.5286406234,0.7225826992,0.0591490243,0.04550328088,0.06300808159,0.07666838124,0.02862336409,0.03475652213,0.0300783256,0.01266526839,0.01298494469,0.00714275563,0.002833728138,0.002736000277,0.002271016227,0.002140834976,0.002413830108,0.001834435228,0.00336076115,0.01016710372,0.02979150109,0.02364800575,0.01172560057,0.009375674355,0.01167514153,0.006513248558,0.003404242791,0.002883165557,0.003681118761,0.005596245836,0.005510317451,0.002787333296,0.0008116160235,0.0019789512,0.003733490646,0.005756684029,0.006707846668,0.01727239569,0.07441275051,0.141977302,0.1872359719,0.458736769,0.80874923,0.7065942941,0.7210756211,0.6917849572,0.8030149621,0.7993970718,0.7100300005,0.7462279432,0.8980594027,0.7390945751,0.734365283,0.7569873295,0.7086465934,0.7409965439,0.6039820936,0.7214331521,0.8159925003,0.1358660263,0.03490303785,0.009538288238,0.0224375366,0.04774711043,0.08695337819,0.08347468998,0.03956540815,0.07284456586,0.272899849,0.4140905604,0.158771719,0.07100614131,0.1553274461,0.3077603133,0.03225212836,0.006688355567,0.008831126842,0.004247691308,0.003239301716,0.00230534334,0.002041736457,0.002041826966,0.002397712566,0.002716910121,0.002378991825,0.004989265025,0.02034456866,0.01439793857,0.008950933204,0.005527460688,0.006502413484,0.007223135068,0.006501594825,0.006335089282,0.00728384059,0.007422690234,0.01027575142,0.01405228885,0.008801280896,0.007770871532,0.009990260361,0.008485984982,0.006392370088,0.009640181537,0.01035982435,0.006724965767,0.004253158299,0.005856825993,0.005605372164,0.00646925931,0.005046253593,0.003909234702,0.003629206129,0.00298133575,0.004603134882,0.002864467232,0.006142587825,0.01335610723,0.009953780887,0.005071176015,0.004081194715,0.003966706783,0.003405316904,0.005593988933,0.009568176502,0.009354625141,0.00632248552,0.004896711356,0.007212131531,0.02047920371,0.01829048962,0.009482809672,0.01291635878,0.03610135498,0.05860102078,0.1849681835,0.1270521395,0.06625350489,0.04067162687,0.04966107441,0.2693888252,0.1173250187,0.1158629637,0.08734327954,0.03363648455,0.02703488787,0.04202290632,0.06356536586,0.06816921838,0.1397302824,0.4432704745,0.2789160053,0.2715531914,0.2008077049,0.09917350353,0.0802886418,0.08717510872,0.1295235423,0.1218431864,0.1391739526,0.3034675792,1.040627652,0.2416628802,0.1397188857,0.09330437239,0.234856932,0.7566837582,NaN,NaN],
	"ap": [NaN,0.3413475447,0.2847026363,0.5789755086,0.3680650904,0.3844369446,0.7261547767,0.5222768615,0.7217810438,0.1769514369,0.4638872198,0.3532159663,0.6156844607,0.649831862,0.5042564082,0.3362622546,0.2718735684,0.4504263789,0.6583721197,0.3830930349,0.2604365478,0.5042358281,0.5310468368,0.4176030181,0.3411881062,0.3960626621,0.4532524206,0.3921335753,0.5713261015,0.3986056697,0.326144349,0.7905263534,0.2847319383,0.01905509144,0.003783306438,0.004663009296,0.001155603036,0.003212920956,0.002970950173,0.003908009211,0.001136102371,0.003207013768,0.0005210703315,0.0009367666012,0.002913725184,0.00509241974,0.01478432488,0.02414816238,0.004753432592,0.001400887776,0.001017094863,0.0007417825398,0.0002159880923,0.000550519808,0.0007900411602,0.0004436541139,0.0005973699921,0.001487327212,0.0008335408372,0.008574185738,0.1677838444,0.1207556501,0.1442969776,0.1864928307,0.02752983607,0.02344927045,0.006923346984,0.02480661807,0.004416846668,0.003916812612,0.008249990209,0.007898962491,0.01103289662,0.01477499744,0.004661309745,0.002007715407,0.003151651097,0.002571460502,0.001165667337,0.002983276446,0.001772502852,0.00399965286,0.007187426133,0.0068014211,0.009012804283,0.01803525714,0.01665038562,0.02111079683,0.003189263992,0.004672209605,0.0009837329627,0.005960472203,0.006674550172,0.00887756442,0.01159076268,0.03710559298,0.01419603252,0.00522124561,0.005800402952,0.002563504569,0.01017273519,0.02181839672,0.006664134345,0.01728885512,0.06931196945,0.01941733447,0.004033532978,0.02055135173,0.0420835269,0.1499595984,0.1617684631,0.2627678841,0.1157015221,0.4349704984,0.6035775054,0.6166258884,0.3935481803,0.02706511468,0.01523689867,0.01848174126,0.003881788964,0.007168522464,0.009610550976,0.002115594871,0.01117780837,0.008884326808,0.01992435432,0.01790699879,0.03174992386,0.1059869653,0.07852647572,0.009207359603,0.2854184169,0.5596391541,0.5934396606,0.06968695507,0.008126549446,0.003183075248,0.0009638329976,0.00110423078,0.001080081902,0.005447852522,0.005346254645,0.0053131473,0.00621910757,0.02524881273,0.01004825078,0.002314062907,0.0005327148208,0.0008682028792,0.03050035847,0.3552681786,0.02730791129,0.003258880667,0.172731057,0.01175459462,0.02101587149,0.09622339284,0.6598557357,0.01332996051,0.06764310778,0.2406340417,0.0513916487,0.1159543767,0.0334498377,0.006588907595,0.006774035392,0.004290167005,0.00469826188,0.01446077001,0.02912340388,0.02576463932,0.006283503973,0.003769839208,0.09369841175,0.04805873249,0.01875926236,0.006296308606,0.01890719118,0.008956283972,0.02436705673,0.006899763778,0.002425112423,0.001880446012,0.003330458181,0.001005083293,0.002178364435,0.004748591474,0.004450072332,0.003821940753,0.008182149243,0.005126721086,0.01496817883,0.0143076125,0.01254778927,0.004807926417,0.01520444853,0.002450155293,0.01982830696,0.0537442272,0.03752840734,0.03254633255,0.1526016419,0.0809775549,0.4257566223,0.4317072479,0.01266049031,0.07125456861,0.02652596033,0.009717426441,0.01785477142,0.02145186234,0.009060976023,0.005453299802,0.006237186737,0.000965755441,0.002014052781,0.00251761021,0.00143124355,0.001721639695,0.001896140766,0.002431307683,0.009412160266,0.01678404507,0.02026682251,0.004674288643,0.01181195902,0.01805405078,0.002932470692,0.0005922610748,0.001357306395,0.004335852212,0.0113752209,0.006196481032,0.001186308246,0.001501520705,0.002506671272,0.001396900312,0.003193896136,0.004443280276,0.009140952518,0.08372666152,0.0841079184,0.08713145921,0.2029911087,0.6416622913,0.442432774,0.6524984562,0.2701965349,0.528944459,0.2659279134,0.4176352558,0.3674216474,0.5107528056,0.4897982157,0.4476732502,0.4256819003,0.2949017316,0.258323421,0.4382101447,0.5097799355,0.5277069171,0.7071544563,0.05649029605,0.003638560539,0.003834531122,0.02305794457,0.05399933348,0.08725401001,0.01094294456,0.03661881304,0.5328726108,0.1365560175,0.1288341631,0.02355822924,0.2547556072,0.4119796437,0.2455761316,0.0009172222926,0.007919501599,0.002466783873,0.003456078966,0.001309496657,0.002182474324,0.001203817105,0.0008747449873,0.001490183994,0.004120392505,0.004081575222,0.0168112235,0.01563907899,0.007392053436,0.001275283492,0.004489842419,0.009510173931,0.003412914078,0.005553663897,0.004516386062,0.005871170814,0.02114578959,0.01212552792,0.01134499238,0.005049652108,0.01038143799,0.009152386179,0.004840022258,0.005761562595,0.005357603648,0.003841472202,0.005239240973,0.002857608807,0.002519745164,0.007326622134,0.002802440825,0.003391478899,0.001789383825,0.001795890165,0.004409905818,0.003382410462,0.004579968154,0.01233173334,0.007142908848,0.006825530821,0.0008598924303,0.001184689781,0.002398730173,0.0033554261,0.007385741119,0.004502809641,0.004697644144,0.002485516947,0.005567775206,0.007185483007,0.01950488739,0.004862170703,0.003359718898,0.05650559669,0.02657842398,0.03688982594,0.1055923494,0.01751065361,0.009979904756,0.03468123636,0.2277579477,0.07483913422,0.1100067422,0.02428679192,0.009450515455,0.02708648262,0.02106595779,0.02368520304,0.04689913956,0.06743818062,0.1818414556,0.1793665317,0.007139286539,0.1541672385,0.07373075879,0.03925520081,0.02427263617,0.006581224225,0.04520234455,0.01491444773,0.2428757746,0.1235292542,0.1375788523,0.03452348888,0.06694976963,0.1625273326,NaN,NaN],
	"pwr": [NaN,7.184509827e-05,5.034536401e-05,3.842050545e-05,0.0001984024276,0.0001363245115,5.699356202e-05,0.0001663241479,9.505217053e-05,0.0001627782088,6.824970018e-05,0.0002247151186,0.0001203231243,0.0001260330873,0.0001389327682,9.574009037e-05,8.935092356e-05,0.0001042493683,8.097928848e-05,4.487468047e-05,9.780681979e-05,0.0001294925002,9.466834196e-05,3.436568588e-05,8.538167674e-05,7.384297285e-05,0.0001497991598,4.485621311e-05,4.010103144e-05,8.469384724e-05,9.723842938e-05,0.0001025841764,0.0003347674043,0.05203314665,0.1177414863,0.1078635981,0.05582122754,0.05342288975,0.05825787186,0.06221173603,0.05136399097,0.07718937662,0.1572365328,0.1523975239,0.08048138482,0.04819522297,0.03483612578,0.09293410732,0.1899106329,0.1376287064,0.21003395,0.2529075433,0.2506586905,0.2517938397,0.2299158527,0.2307255653,0.2248530862,0.2105002155,0.1873157275,0.1802698731,0.003913810663,0.007993970067,0.0005412925692,0.03173457764,0.2010230118,0.1369178955,0.07753090371,0.03097267367,0.03375084647,0.02995182383,0.02641618531,0.02191260086,0.02317837063,0.03364508421,0.05029892588,0.06474949674,0.05199400117,0.05860341692,0.05139831721,0.04488844923,0.04100184218,0.0508772246,0.06279587092,0.0652834506,0.05120410046,0.01945149267,0.03285585609,0.02313560856,0.02952723353,0.03781943795,0.03685394186,0.03212890797,0.03743356393,0.04275110297,0.03998108834,0.01239554345,0.02940935359,0.01902093845,0.02686613317,0.02859136918,0.01016722157,0.00335997441,0.00283980477,0.001825207212,0.000926277098,0.001398312866,0.01373903569,0.007554595397,0.0005112010771,0.000771405773,0.0001706289703,0.0002200487334,0.0004542699005,0.0003242193778,0.0001902080143,0.0002349167327,0.0006125391565,0.03431615225,0.04539251543,0.06920067253,0.06197653845,0.03889266976,0.02414320475,0.03822896861,0.04293180577,0.03664738282,0.02539452048,0.01874931623,0.008276795673,0.00431066479,0.002405404989,0.003282005748,0.000801153958,0.0004722272509,0.00102726486,0.02615973138,0.1237899326,0.1572436208,0.1012382358,0.1109268293,0.1326117723,0.1308495175,0.06965709469,0.03137516809,0.01008749927,0.01043314869,0.04251311844,0.09923689204,0.1072188593,0.07819127499,0.03844619053,0.001144584412,0.007437232951,0.03746042783,0.01565457777,0.003781070406,0.008563264332,0.004592031186,0.0003127694091,0.005568615879,0.004665214229,0.0006563632977,0.01599846657,0.00823119407,0.008979445591,0.01683381265,0.01634997739,0.03048970454,0.02533322604,0.01609519692,0.004250664022,0.006835660766,0.01799576827,0.01957648503,0.0118590807,0.01082613297,0.01358035674,0.04523747614,0.04519622321,0.02832983781,0.02037002057,0.01912986524,0.02786400917,0.02715592744,0.02550874757,0.01849813406,0.01727290765,0.01329200855,0.01221494755,0.009927519232,0.01109520382,0.01173064078,0.008549841867,0.01055492156,0.008436157507,0.01443806216,0.02421959441,0.01840344499,0.0107320698,0.002600141504,0.0007062391471,0.001981224663,0.0002366334225,0.000226738541,6.180457356e-05,0.0001563640185,0.04902382403,0.02452750025,0.006978045642,0.007295326775,0.005055549173,0.005631481595,0.005793590541,0.009100491783,0.02313352038,0.03997909552,0.04476387418,0.0558060025,0.05435958399,0.05002505749,0.06605195524,0.08052871522,0.05470557196,0.0109047565,0.003308769798,0.009045430878,0.0116724745,0.01091263607,0.02313218329,0.04524423158,0.04532855884,0.03856117539,0.0279176475,0.04269050921,0.07905039455,0.09023325229,0.07837069996,0.05594197345,0.02916153123,0.01297071469,0.006580918894,0.001623124218,0.0005829472279,0.0009055855844,0.0002167345299,0.0002783063368,0.0001385362582,0.0003311797925,0.0003300507833,0.0002460305468,0.0001093940393,0.0001325925921,0.0003438748843,0.000298192081,0.0002573057053,0.0001340628231,0.0001690129507,0.0001318123684,7.887169945e-05,6.793882879e-05,7.108789702e-05,9.312733858e-05,0.0001466763722,0.02892889642,0.07585621677,0.03893882487,0.01932392439,0.04102593026,0.01904045218,0.04541488316,0.1323220907,0.004972346207,0.01429576527,0.004273670111,0.005992324058,0.003721520292,0.001862480012,0.00590168292,0.3206800729,0.1761499691,0.1600077327,0.1439945325,0.1237844623,0.1246023514,0.1265998975,0.1103454005,0.08946051714,0.09381680765,0.09305588754,0.0596931585,0.01480104407,0.08428010811,0.07654572321,0.06114215891,0.04955417421,0.0371738983,0.0284602445,0.03128704512,0.02198148691,0.0261953242,0.02589483052,0.04223192695,0.0665472655,0.06653252266,0.04439275586,0.04315502665,0.03962405814,0.03903094265,0.04122971336,0.04544833181,0.05657410845,0.03643904719,0.03020073555,0.04497792996,0.04631800933,0.04941919754,0.04503501765,0.04264069942,0.05305595296,0.05484218369,0.03997357243,0.01595936828,0.0280369804,0.03148492543,0.03598243716,0.0375936912,0.03354063462,0.02664900513,0.02387637843,0.01882087702,0.02578655966,0.02538511736,0.009252741118,0.003678186985,0.01932625018,0.04107973938,0.002524408908,0.00281243639,0.0004610672413,0.0003575393051,0.0004153619277,0.0004593541727,0.000157411167,6.167487244e-06,1.257676253e-05,3.865723292e-06,9.255687195e-06,4.700868552e-06,4.807203406e-06,4.038564163e-06,1.278408864e-06,9.234318627e-07,4.193351432e-07,1.172332375e-07,4.088740179e-08,1.090550588e-07,9.605670226e-09,1.266636417e-07,1.989575815e-07,2.748150432e-07,1.225024975e-07,1.011673507e-07,1.12160619e-07,6.709913952e-08,1.459247726e-08,2.084957164e-08,2.434191375e-08,3.043059546e-08,3.178429324e-08,NaN,NaN],
	"sr": 16000,
	"range": [1,118863],
	"minf0": 63.1883,
	"maxf0": 706.3069,
	"thresh": 0.1,
	"relflag": 1,
	"hop": 320,
	"bufsize": 10000,
	"wsize": 640,
	"lpf": 4000,
	"shift": 0,
	"plotthreshold": 0.2
}
