{
    "DU": 0,
    "DV": 459,
    "F-measure": 0.8805460750853241,
    "F-measure Chroma": 0.9351535836177475,
    "FN": 0,
    "FNC": 0,
    "FNCch": 0,
    "FNI": 0,
    "FNIch": 0,
    "FP": 39,
    "GU": 39,
    "GV": 420,
    "Overall Accuracy": 0.8431372549019608,
    "Overall Chroma Accuracy": 0.8954248366013072,
    "Precision": 0.8431372549019608,
    "Precision Chroma": 0.8954248366013072,
    "Raw Chroma Accuracy": 0.9785714285714285,
    "Raw Pitch Accuracy": 0.9214285714285714,
    "Recall": 0.9214285714285714,
    "Recall Chroma": 0.9785714285714285,
    "TN": 0,
    "TO": 459,
    "TP": 420,
    "TPC": 387,
    "TPCch": 411,
    "TPI": 33,
    "TPIch": 9,
    "Voiced Chroma Accuracy": 0.9785714285714285,
    "Voiced Pitch Accuracy": 0.9214285714285714,
    "Voicing Accuracy": 0.9150326797385621,
    "Voicing Detection": 1.0,
    "Voicing False Alarm": 1.0
}