{
    "DU": 17,
    "DV": 348,
    "F-measure": 0.03784570596797671,
    "F-measure Chroma": 0.16885007278020378,
    "FN": 8,
    "FNC": 0,
    "FNCch": 1,
    "FNI": 8,
    "FNIch": 7,
    "FP": 35,
    "GU": 44,
    "GV": 321,
    "Overall Accuracy": 0.03561643835616438,
    "Overall Chroma Accuracy": 0.1589041095890411,
    "Precision": 0.036414565826330535,
    "Precision Chroma": 0.16246498599439776,
    "Raw Chroma Accuracy": 0.1557632398753894,
    "Raw Pitch Accuracy": 0.012461059190031152,
    "Recall": 0.03939393939393939,
    "Recall Chroma": 0.17575757575757575,
    "TN": 9,
    "TO": 365,
    "TP": 313,
    "TPC": 4,
    "TPCch": 49,
    "TPI": 309,
    "TPIch": 264,
    "Voiced Chroma Accuracy": 0.1526479750778816,
    "Voiced Pitch Accuracy": 0.012461059190031152,
    "Voicing Accuracy": 0.8821917808219178,
    "Voicing Detection": 0.9750778816199377,
    "Voicing False Alarm": 0.7954545454545454
}