{
    "DU": 143,
    "DV": 254,
    "F-measure": 0.8717948717948718,
    "F-measure Chroma": 0.8825910931174088,
    "FN": 38,
    "FNC": 3,
    "FNCch": 11,
    "FNI": 35,
    "FNIch": 27,
    "FP": 15,
    "GU": 120,
    "GV": 277,
    "Overall Accuracy": 0.8136020151133502,
    "Overall Chroma Accuracy": 0.8236775818639799,
    "Precision": 0.8997214484679665,
    "Precision Chroma": 0.9108635097493036,
    "Raw Chroma Accuracy": 0.8411552346570397,
    "Raw Pitch Accuracy": 0.7978339350180506,
    "Recall": 0.8455497382198953,
    "Recall Chroma": 0.856020942408377,
    "TN": 105,
    "TO": 397,
    "TP": 239,
    "TPC": 218,
    "TPCch": 222,
    "TPI": 21,
    "TPIch": 17,
    "Voiced Chroma Accuracy": 0.8014440433212996,
    "Voiced Pitch Accuracy": 0.7870036101083032,
    "Voicing Accuracy": 0.8664987405541562,
    "Voicing Detection": 0.8628158844765343,
    "Voicing False Alarm": 0.125
}