{
    "f0": [
        0.0,
        0.0,
        0.0,
        0.0,
        0.0,
        0.0,
        0.0,
        0.0,
        0.0,
        0.0,
        0.0,
        0.0,
        0.0,
        0.0,
        0.0,
        0.0,
        0.0,
        0.0,
        0.0,
        0.0,
        0.0,
        0.0,
        0.0,
        0.0,
        0.0,
        0.0,
        0.0,
        0.0,
        0.0,
        0.0,
        0.0,
        0.0,
        0.0,
        0.0,
        0.0,
        0.0,
        0.0,
        54.451279311824024,
        57.063939486804827,
        57.285811686027856,
        57.443590572888212,
        57.754828817005624,
        57.987410448930376,
        58.085243731803907,
        58.231021255508153,
        58.412116762914529,
        58.379534802657943,
        58.301371299792919,
        58.446287698074329,
        58.495003322198059,
        58.385504525395234,
        58.201716260757514,
        57.703145066473319,
        58.215741431902977,
        58.510909213569455,
        58.203721338913795,
        58.17967960985353,
        58.411105177711676,
        58.290859382882772,
        58.555276610593182,
        57.885190443565264,
        58.482232192341471,
        59.912933369345296,
        59.602008349707972,
        59.859061248307235,
        60.03719496273763,
        60.108888015397781,
        60.24267373436124,
        60.300970520336172,
        60.313593979248665,
        60.317690758312523,
        60.278376886654939,
        59.956557331024058,
        59.420969917967525,
        59.036346051930266,
        58.899225792284028,
        58.204618494525768,
        56.615041230173446,
        0.0,
        0.0,
        0.0,
        0.0,
        0.0,
        0.0,
        57.915172433131495,
        57.642751582715675,
        57.617616275519765,
        57.591685551478761,
        57.622387044378748,
        57.707930323883353,
        57.785151985597537,
        57.740053436357947,
        57.809334908756952,
        57.798315829906556,
        57.85842595819949,
        57.863357002067261,
        57.891325132025486,
        57.874506028853645,
        58.277309854486738,
        58.388897067821489,
        58.461179030588205,
        58.579744211279561,
        58.648220315678024,
        58.759674570246801,
        58.821650678938497,
        58.880909161018501,
        58.938434673575209,
        58.983341318760154,
        58.963354473786694,
        58.939950514046387,
        58.925681472473066,
        58.90060411929727,
        58.541522782214741,
        58.203483866035953,
        56.90898312105243,
        57.301808107735461,
        58.710383898612371,
        57.74933902844888,
        57.826579182085666,
        58.315135705357271,
        57.889272105137735,
        59.143653572978756,
        57.67681107079855,
        55.344774057098874,
        55.282823504679293,
        55.499547020576358,
        55.67673079414044,
        56.022193270214295,
        56.469250039512566,
        56.457923573882603,
        56.70086281664117,
        56.693873421212061,
        55.800864794105522,
        54.565199198531616,
        53.269022190260344,
        52.457311545803606,
        52.077897720297344,
        52.344334328059624,
        52.849558153126196,
        53.372785242487168,
        53.871094687883698,
        54.029722446941832,
        54.818868040752605,
        55.096836922147787,
        55.112549906275589,
        55.101974776674666,
        55.146407183136645,
        55.127551680459845,
        55.064072309286708,
        55.012327352257309,
        54.867434560925119,
        54.717155896525369,
        54.578964776256917,
        54.556503823015575,
        54.462387276504757,
        52.103389691619341,
        54.635142906101066,
        54.144073296602528,
        54.818276872931484,
        54.776883355100175,
        54.991533157614377,
        54.731476036755026,
        54.47585552667752,
        54.956771421881406,
        54.775771950118809,
        54.766867487076496,
        54.779916740119816,
        54.581954310983306,
        54.225255117115296,
        54.434426485265227,
        54.418125891153593,
        54.414971247635151,
        54.308218345233435,
        54.208430362254674,
        54.224393912443574,
        54.354433124999424,
        54.394959666104029,
        54.454901631190978,
        54.58363188033222,
        54.791626228824811,
        54.877317708193132,
        55.119894479723726,
        55.123098583693348,
        55.416072134780791,
        55.350939037208633,
        55.569133278054352,
        55.628768537488057,
        55.57502074980728,
        55.626978667731848,
        55.668415410365277,
        55.670264477808828,
        55.641919324035122,
        55.633093462563927,
        55.657433613872769,
        55.570613517023411,
        55.47047873263849,
        55.547378428999004,
        55.51292457933792,
        55.367060608445577,
        55.287644022829923,
        55.315081870757936,
        55.343521435205886,
        55.33959802767734,
        55.32548926120532,
        55.317310415451033,
        55.273462317610893,
        55.303990128686792,
        55.330784504988131,
        55.337939299378029,
        55.396183000090339,
        55.324494618911764,
        55.371707303882602,
        55.474094656298135,
        55.423285039803261,
        55.410887104945267,
        55.39324646501818,
        55.408444117609228,
        55.304114587746277,
        55.218901809750207,
        55.13441371863702,
        55.002727129678306,
        54.990981616022296,
        54.886742231010643,
        54.781850922151918,
        54.758308309909403,
        54.812927417239635,
        54.933487365294511,
        55.07642176433248,
        55.253836312637723,
        55.898518285077373,
        0.0,
        0.0,
        0.0,
        0.0,
        0.0,
        0.0,
        0.0,
        0.0,
        0.0,
        0.0,
        0.0,
        0.0,
        0.0,
        0.0,
        0.0,
        0.0,
        0.0,
        53.377045877808271,
        57.812111221488564,
        53.290365790094825,
        54.641370466152395,
        53.260738435570602,
        0.0,
        0.0,
        52.340778297077051,
        51.826077348265734,
        51.817581978206512,
        51.874482291037509,
        52.005731030844316,
        52.03845556511223,
        51.927370741354764,
        51.786249637895281,
        51.728252196682128,
        51.6743949914163,
        51.659079806843948,
        51.76473518804864,
        51.810660914379838,
        51.849944224221929,
        51.913070355515572,
        52.003080659786804,
        52.005426612699466,
        52.033343601704331,
        52.144396357778646,
        52.094241861713911,
        52.147851622890101,
        52.210390348675091,
        52.287043153382484,
        52.240415096107384,
        52.161159089005231,
        52.118328048714432,
        52.1032303514829,
        52.122012879662023,
        52.160169785204175,
        52.152650331909726,
        52.19616677353234,
        52.372747470033765,
        52.551653807132283,
        52.450878942976168,
        52.283506747905278,
        52.390821629605156,
        52.771472578967561,
        53.776642743418407,
        54.69533724061543,
        55.354167997014457,
        56.07521222257509,
        56.090395126400949,
        56.100899548324158,
        56.1958460049851,
        55.520789218111183,
        55.217706687342186,
        55.100471394955846,
        54.961054150365193,
        54.892234427145297,
        55.079053000289214,
        55.127072673042292,
        55.826372306898961,
        55.663594703452603,
        56.402604454670993,
        56.398995935307191,
        56.382049478434837,
        56.321590046283063,
        56.060599226139232,
        55.499714620323125,
        55.317082847311426,
        55.181498794722017,
        54.77434100397403,
        54.57615703036825,
        54.367281066254677,
        54.4785212843652,
        54.567096747823641,
        54.689166117636503,
        54.320464185639196,
        54.275864702694676,
        54.2655841433874,
        54.23573430849131,
        53.779855109130416,
        54.748787690508124,
        54.505750904707753,
        54.483072479670724,
        55.139462978648957,
        54.939761354888887,
        54.773140657573876,
        54.608759941640059,
        54.532216328698269,
        54.596217060925753,
        54.658592235373021,
        54.746925010553049,
        57.591552085992184,
        0.0,
        0.0,
        0.0,
        0.0,
        0.0,
        0.0,
        0.0,
        0.0,
        0.0,
        0.0,
        0.0,
        0.0,
        0.0,
        0.0,
        0.0,
        0.0,
        0.0,
        0.0,
        0.0,
        0.0,
        0.0,
        0.0,
        0.0,
        0.0,
        0.0,
        0.0,
        0.0,
        0.0,
        0.0,
        0.0,
        0.0,
        0.0,
        0.0,
        0.0,
        0.0,
        0.0,
        0.0,
        0.0,
        0.0,
        0.0,
        0.0,
        0.0,
        0.0
    ],
    "time": [
        0.02,
        0.040000000000000001,
        0.059999999999999998,
        0.080000000000000002,
        0.10000000000000001,
        0.12,
        0.14000000000000001,
        0.16,
        0.17999999999999999,
        0.20000000000000001,
        0.22,
        0.23999999999999999,
        0.26000000000000001,
        0.28000000000000003,
        0.29999999999999999,
        0.32000000000000001,
        0.34000000000000002,
        0.35999999999999999,
        0.38,
        0.40000000000000002,
        0.41999999999999998,
        0.44,
        0.46000000000000002,
        0.47999999999999998,
        0.5,
        0.52000000000000002,
        0.54000000000000004,
        0.56000000000000005,
        0.57999999999999996,
        0.59999999999999998,
        0.62,
        0.64000000000000001,
        0.66000000000000003,
        0.68000000000000005,
        0.69999999999999996,
        0.71999999999999997,
        0.73999999999999999,
        0.76000000000000001,
        0.78000000000000003,
        0.80000000000000004,
        0.81999999999999995,
        0.83999999999999997,
        0.85999999999999999,
        0.88,
        0.90000000000000002,
        0.92000000000000004,
        0.93999999999999995,
        0.95999999999999996,
        0.97999999999999998,
        1.0,
        1.02,
        1.04,
        1.0600000000000001,
        1.0800000000000001,
        1.1000000000000001,
        1.1200000000000001,
        1.1399999999999999,
        1.1599999999999999,
        1.1799999999999999,
        1.2,
        1.22,
        1.24,
        1.26,
        1.28,
        1.3,
        1.3200000000000001,
        1.3400000000000001,
        1.3600000000000001,
        1.3799999999999999,
        1.3999999999999999,
        1.4199999999999999,
        1.4399999999999999,
        1.46,
        1.48,
        1.5,
        1.52,
        1.54,
        1.5600000000000001,
        1.5800000000000001,
        1.6000000000000001,
        1.6200000000000001,
        1.6399999999999999,
        1.6599999999999999,
        1.6799999999999999,
        1.7,
        1.72,
        1.74,
        1.76,
        1.78,
        1.8,
        1.8200000000000001,
        1.8400000000000001,
        1.8600000000000001,
        1.8799999999999999,
        1.8999999999999999,
        1.9199999999999999,
        1.9399999999999999,
        1.96,
        1.98,
        2.0,
        2.02,
        2.04,
        2.0600000000000001,
        2.0800000000000001,
        2.1000000000000001,
        2.1200000000000001,
        2.1400000000000001,
        2.1600000000000001,
        2.1800000000000002,
        2.2000000000000002,
        2.2200000000000002,
        2.2400000000000002,
        2.2599999999999998,
        2.2799999999999998,
        2.2999999999999998,
        2.3199999999999998,
        2.3399999999999999,
        2.3599999999999999,
        2.3799999999999999,
        2.3999999999999999,
        2.4199999999999999,
        2.4399999999999999,
        2.46,
        2.48,
        2.5,
        2.52,
        2.54,
        2.5600000000000001,
        2.5800000000000001,
        2.6000000000000001,
        2.6200000000000001,
        2.6400000000000001,
        2.6600000000000001,
        2.6800000000000002,
        2.7000000000000002,
        2.7200000000000002,
        2.7400000000000002,
        2.7599999999999998,
        2.7799999999999998,
        2.7999999999999998,
        2.8199999999999998,
        2.8399999999999999,
        2.8599999999999999,
        2.8799999999999999,
        2.8999999999999999,
        2.9199999999999999,
        2.9399999999999999,
        2.96,
        2.98,
        3.0,
        3.02,
        3.04,
        3.0600000000000001,
        3.0800000000000001,
        3.1000000000000001,
        3.1200000000000001,
        3.1400000000000001,
        3.1600000000000001,
        3.1800000000000002,
        3.2000000000000002,
        3.2200000000000002,
        3.2400000000000002,
        3.2599999999999998,
        3.2799999999999998,
        3.2999999999999998,
        3.3199999999999998,
        3.3399999999999999,
        3.3599999999999999,
        3.3799999999999999,
        3.3999999999999999,
        3.4199999999999999,
        3.4399999999999999,
        3.46,
        3.48,
        3.5,
        3.52,
        3.54,
        3.5600000000000001,
        3.5800000000000001,
        3.6000000000000001,
        3.6200000000000001,
        3.6400000000000001,
        3.6600000000000001,
        3.6800000000000002,
        3.7000000000000002,
        3.7200000000000002,
        3.7400000000000002,
        3.7599999999999998,
        3.7799999999999998,
        3.7999999999999998,
        3.8199999999999998,
        3.8399999999999999,
        3.8599999999999999,
        3.8799999999999999,
        3.8999999999999999,
        3.9199999999999999,
        3.9399999999999999,
        3.96,
        3.98,
        4.0,
        4.0199999999999996,
        4.04,
        4.0599999999999996,
        4.0800000000000001,
        4.0999999999999996,
        4.1200000000000001,
        4.1399999999999997,
        4.1600000000000001,
        4.1799999999999997,
        4.2000000000000002,
        4.2199999999999998,
        4.2400000000000002,
        4.2599999999999998,
        4.2800000000000002,
        4.2999999999999998,
        4.3200000000000003,
        4.3399999999999999,
        4.3600000000000003,
        4.3799999999999999,
        4.4000000000000004,
        4.4199999999999999,
        4.4400000000000004,
        4.46,
        4.4800000000000004,
        4.5,
        4.5199999999999996,
        4.54,
        4.5599999999999996,
        4.5800000000000001,
        4.5999999999999996,
        4.6200000000000001,
        4.6399999999999997,
        4.6600000000000001,
        4.6799999999999997,
        4.7000000000000002,
        4.7199999999999998,
        4.7400000000000002,
        4.7599999999999998,
        4.7800000000000002,
        4.7999999999999998,
        4.8200000000000003,
        4.8399999999999999,
        4.8600000000000003,
        4.8799999999999999,
        4.9000000000000004,
        4.9199999999999999,
        4.9400000000000004,
        4.96,
        4.9800000000000004,
        5.0,
        5.0199999999999996,
        5.04,
        5.0599999999999996,
        5.0800000000000001,
        5.0999999999999996,
        5.1200000000000001,
        5.1399999999999997,
        5.1600000000000001,
        5.1799999999999997,
        5.2000000000000002,
        5.2199999999999998,
        5.2400000000000002,
        5.2599999999999998,
        5.2800000000000002,
        5.2999999999999998,
        5.3200000000000003,
        5.3399999999999999,
        5.3600000000000003,
        5.3799999999999999,
        5.4000000000000004,
        5.4199999999999999,
        5.4400000000000004,
        5.46,
        5.4800000000000004,
        5.5,
        5.5199999999999996,
        5.54,
        5.5599999999999996,
        5.5800000000000001,
        5.5999999999999996,
        5.6200000000000001,
        5.6399999999999997,
        5.6600000000000001,
        5.6799999999999997,
        5.7000000000000002,
        5.7199999999999998,
        5.7400000000000002,
        5.7599999999999998,
        5.7800000000000002,
        5.7999999999999998,
        5.8200000000000003,
        5.8399999999999999,
        5.8600000000000003,
        5.8799999999999999,
        5.9000000000000004,
        5.9199999999999999,
        5.9400000000000004,
        5.96,
        5.9800000000000004,
        6.0,
        6.0199999999999996,
        6.04,
        6.0599999999999996,
        6.0800000000000001,
        6.0999999999999996,
        6.1200000000000001,
        6.1399999999999997,
        6.1600000000000001,
        6.1799999999999997,
        6.2000000000000002,
        6.2199999999999998,
        6.2400000000000002,
        6.2599999999999998,
        6.2800000000000002,
        6.2999999999999998,
        6.3200000000000003,
        6.3399999999999999,
        6.3600000000000003,
        6.3799999999999999,
        6.4000000000000004,
        6.4199999999999999,
        6.4400000000000004,
        6.46,
        6.4800000000000004,
        6.5,
        6.5199999999999996,
        6.54,
        6.5599999999999996,
        6.5800000000000001,
        6.5999999999999996,
        6.6200000000000001,
        6.6399999999999997,
        6.6600000000000001,
        6.6799999999999997,
        6.7000000000000002,
        6.7199999999999998,
        6.7400000000000002,
        6.7599999999999998,
        6.7800000000000002,
        6.7999999999999998,
        6.8200000000000003,
        6.8399999999999999,
        6.8600000000000003,
        6.8799999999999999,
        6.9000000000000004,
        6.9199999999999999,
        6.9400000000000004,
        6.96,
        6.9800000000000004,
        7.0,
        7.0199999999999996,
        7.04,
        7.0599999999999996,
        7.0800000000000001,
        7.0999999999999996,
        7.1200000000000001,
        7.1399999999999997,
        7.1600000000000001,
        7.1799999999999997,
        7.2000000000000002,
        7.2199999999999998,
        7.2400000000000002,
        7.2599999999999998,
        7.2800000000000002,
        7.2999999999999998,
        7.3200000000000003,
        7.3399999999999999,
        7.3600000000000003,
        7.3799999999999999,
        7.4000000000000004,
        7.4199999999999999,
        7.4400000000000004,
        7.46,
        7.4800000000000004,
        7.5,
        7.5199999999999996,
        7.54,
        7.5599999999999996,
        7.5800000000000001,
        7.5999999999999996,
        7.6200000000000001
    ]
}