{
    "DU": 78,
    "DV": 372,
    "F-measure": 0.8154613466334164,
    "F-measure Chroma": 0.8354114713216958,
    "FN": 0,
    "FNC": 0,
    "FNCch": 0,
    "FNI": 0,
    "FNIch": 0,
    "FP": 98,
    "GU": 176,
    "GV": 274,
    "Overall Accuracy": 0.7266666666666667,
    "Overall Chroma Accuracy": 0.7444444444444445,
    "Precision": 0.7266666666666667,
    "Precision Chroma": 0.7444444444444445,
    "Raw Chroma Accuracy": 0.9379562043795621,
    "Raw Pitch Accuracy": 0.9087591240875912,
    "Recall": 0.9289772727272727,
    "Recall Chroma": 0.9517045454545454,
    "TN": 78,
    "TO": 450,
    "TP": 274,
    "TPC": 249,
    "TPCch": 257,
    "TPI": 25,
    "TPIch": 17,
    "Voiced Chroma Accuracy": 0.9379562043795621,
    "Voiced Pitch Accuracy": 0.9087591240875912,
    "Voicing Accuracy": 0.7822222222222223,
    "Voicing Detection": 1.0,
    "Voicing False Alarm": 0.5568181818181818
}