{
    "DU": 125,
    "DV": 174,
    "F-measure": 0.949740034662045,
    "F-measure Chroma": 0.9636048526863085,
    "FN": 19,
    "FNC": 0,
    "FNCch": 1,
    "FNI": 19,
    "FNIch": 18,
    "FP": 2,
    "GU": 108,
    "GV": 191,
    "Overall Accuracy": 0.9163879598662207,
    "Overall Chroma Accuracy": 0.9297658862876255,
    "Precision": 0.9785714285714285,
    "Precision Chroma": 0.9928571428571429,
    "Raw Chroma Accuracy": 0.9057591623036649,
    "Raw Pitch Accuracy": 0.8795811518324608,
    "Recall": 0.9225589225589226,
    "Recall Chroma": 0.936026936026936,
    "TN": 106,
    "TO": 299,
    "TP": 172,
    "TPC": 168,
    "TPCch": 172,
    "TPI": 4,
    "TPIch": 0,
    "Voiced Chroma Accuracy": 0.900523560209424,
    "Voiced Pitch Accuracy": 0.8795811518324608,
    "Voicing Accuracy": 0.9297658862876255,
    "Voicing Detection": 0.900523560209424,
    "Voicing False Alarm": 0.018518518518518517
}