{
    "DU": 0,
    "DV": 367,
    "F-measure": 0.5878787878787879,
    "F-measure Chroma": 0.7666666666666667,
    "FN": 0,
    "FNC": 0,
    "FNCch": 0,
    "FNI": 0,
    "FNIch": 0,
    "FP": 74,
    "GU": 74,
    "GV": 293,
    "Overall Accuracy": 0.5286103542234333,
    "Overall Chroma Accuracy": 0.6893732970027248,
    "Precision": 0.5286103542234333,
    "Precision Chroma": 0.6893732970027248,
    "Raw Chroma Accuracy": 0.863481228668942,
    "Raw Pitch Accuracy": 0.6621160409556314,
    "Recall": 0.6621160409556314,
    "Recall Chroma": 0.863481228668942,
    "TN": 0,
    "TO": 367,
    "TP": 293,
    "TPC": 194,
    "TPCch": 253,
    "TPI": 99,
    "TPIch": 40,
    "Voiced Chroma Accuracy": 0.863481228668942,
    "Voiced Pitch Accuracy": 0.6621160409556314,
    "Voicing Accuracy": 0.7983651226158038,
    "Voicing Detection": 1.0,
    "Voicing False Alarm": 1.0
}