{
    "f0": [
        0.0,
        0.0,
        0.0,
        0.0,
        0.0,
        0.0,
        0.0,
        0.0,
        0.0,
        0.0,
        0.0,
        0.0,
        0.0,
        0.0,
        0.0,
        0.0,
        0.0,
        0.0,
        0.0,
        0.0,
        0.0,
        0.0,
        0.0,
        0.0,
        0.0,
        0.0,
        0.0,
        0.0,
        0.0,
        0.0,
        0.0,
        0.0,
        0.0,
        0.0,
        0.0,
        0.0,
        0.0,
        0.0,
        0.0,
        0.0,
        0.0,
        0.0,
        0.0,
        0.0,
        0.0,
        0.0,
        0.0,
        0.0,
        0.0,
        0.0,
        0.0,
        0.0,
        0.0,
        0.0,
        0.0,
        0.0,
        0.0,
        0.0,
        0.0,
        0.0,
        0.0,
        0.0,
        0.0,
        0.0,
        0.0,
        0.0,
        0.0,
        0.0,
        0.0,
        0.0,
        0.0,
        0.0,
        0.0,
        0.0,
        0.0,
        0.0,
        0.0,
        0.0,
        0.0,
        0.0,
        0.0,
        0.0,
        0.0,
        0.0,
        0.0,
        0.0,
        0.0,
        0.0,
        0.0,
        0.0,
        0.0,
        0.0,
        0.0,
        0.0,
        0.0,
        0.0,
        0.0,
        0.0,
        0.0,
        0.0,
        0.0,
        0.0,
        0.0,
        0.0,
        0.0,
        0.0,
        0.0,
        0.0,
        0.0,
        0.0,
        0.0,
        0.0,
        0.0,
        0.0,
        65.752007536145101,
        69.110714750062527,
        54.048686816364125,
        52.768374201661679,
        64.87987571230164,
        65.273062791360928,
        0.0,
        56.912999879879088,
        57.757665630575445,
        56.169317990568075,
        44.930926061795191,
        0.0,
        48.504833458359698,
        47.977508200002376,
        0.0,
        0.0,
        53.946620962785069,
        53.946625186962201,
        53.946630913067338,
        46.218107585736206,
        54.719909360439274,
        44.788407717113415,
        55.001495351208781,
        54.975591108180211,
        55.090344755666464,
        54.855344087208586,
        54.612436269987462,
        54.711276274573692,
        54.375348280337818,
        54.46911510613694,
        54.3601527879622,
        54.740290671827026,
        55.112262061191984,
        55.126653892382201,
        55.48891223268987,
        55.331366314483176,
        55.99679349304764,
        56.159036423918465,
        56.031169734758521,
        56.738343641529241,
        56.867073302583378,
        56.563637641891162,
        56.879812438668196,
        57.124555089164154,
        57.224346194177507,
        57.32356661808118,
        57.422218019764131,
        57.170557207768354,
        57.081270353274007,
        57.080506599963407,
        57.207570919040258,
        57.131675490649016,
        57.055443447682464,
        57.152286003291124,
        57.628832054132673,
        58.080823365844935,
        58.353064525583925,
        58.963917211704718,
        59.149536353707759,
        59.007123045072447,
        59.209314741564228,
        59.409171238698221,
        59.432750100126,
        58.83667088099061,
        59.189607341701716,
        59.158231769095288,
        59.034465005761291,
        58.928959035112847,
        58.985438847882392,
        59.326079784559468,
        59.171520286739437,
        59.015567437010489,
        58.838857512905619,
        58.842363162129018,
        58.89346076060702,
        58.92069899425217,
        58.947174506115203,
        58.97397273396642,
        59.17281352532445,
        59.110547062311532,
        58.914438002709026,
        59.792560618787547,
        60.007919312314435,
        60.702073557723367,
        61.311778091768907,
        59.080504672519304,
        58.84713292006996,
        59.251403979874524,
        59.079660292646309,
        61.336159434075917,
        60.848900920756677,
        60.139129415147465,
        60.187082892950166,
        60.20009707541297,
        59.550155586488742,
        59.217687554587343,
        59.383754452429571,
        59.034579262442882,
        59.537707404609364,
        60.186531506370201,
        61.245504213006676,
        61.333392471607148,
        61.352217779782649,
        61.371022639693621,
        61.389807095714154,
        61.234572992024063,
        61.14823664698941,
        60.498858037707144,
        60.125902904577273,
        58.703160532870719,
        58.739033390662506,
        61.597921401695139,
        61.69407894628177,
        61.255245328974311,
        61.14104055842698,
        61.200584860562714,
        61.25992506697537,
        61.186433121918441,
        60.685433407767214,
        60.859044521281177,
        60.37898819674259,
        60.501445816386664,
        60.915887847886864,
        60.828465107640525,
        61.100251831033368,
        61.136058075590256,
        60.760506457128344,
        60.835201453129997,
        60.376433393281324,
        60.280781218434733,
        60.339593598859508,
        60.84477802633743,
        60.59271122713389,
        61.105229480611939,
        60.874648975665785,
        60.64095596431671,
        59.516058189821301,
        59.473576859203803,
        59.201807060297639,
        61.176758918454425,
        60.941894192799822,
        60.336868656281084,
        59.901135405146725,
        58.649584932707114,
        58.748745973424754,
        55.778585012970495,
        56.351616142688641,
        54.96035299262067,
        55.105763562480874,
        54.964991349572145,
        55.005954314550635,
        54.99245273748312,
        54.638517716087023,
        54.624098419817727,
        54.436944053742714,
        54.247744331482721,
        54.233359131653728,
        54.208990486274878,
        54.015587203185362,
        54.099477902068031,
        54.619064696740153,
        54.563337494309685,
        54.092594985955962,
        54.166058639635111,
        54.269883838102942,
        54.183859910736565,
        45.013770737978277,
        47.642779504323187,
        47.122012423138123,
        46.585095341490387,
        44.567762350167897,
        44.569911744056384,
        63.337696105636489,
        63.515707692546158,
        63.517911303694319,
        63.277951520101681,
        63.421663932647583,
        63.239767175447881,
        63.478231416952426,
        64.069017481352034,
        64.417921069956463,
        64.594251247637359,
        64.906366897413221,
        64.898364313462693,
        64.890358028627944,
        64.826236547570218,
        64.83668417433087,
        64.849675666362742,
        64.953452525807791,
        65.01153819766931,
        64.917909392476574,
        65.128964616196868,
        65.030646416800806,
        64.13850629781534,
        64.638123691706582,
        64.952293577464843,
        65.857006341629301,
        65.908389397578034,
        65.840018610170176,
        64.80364701018047,
        65.696814113869038,
        65.805636417388854,
        65.711220639191197,
        65.561291394363806,
        65.610078360817013,
        65.625888043380684,
        65.641683253895593,
        65.130146337844522,
        65.776920495832599,
        65.716759005232689,
        65.656387720344256,
        65.421813213189566,
        65.615262276241722,
        64.307543807502498,
        63.578570957279517,
        62.634971703065631,
        61.384148131949544,
        61.181733411409269,
        61.415422438299409,
        61.847958263275331,
        62.171696708226349,
        62.489492249192708,
        62.451800111149993,
        62.551630580436246,
        62.6753511581338,
        61.898045947918149,
        61.981160195874075,
        61.818009074458757,
        62.57010702257999,
        62.513857081206922,
        62.457422000999948,
        62.40080592229252,
        62.516263549839053,
        62.806867740730731,
        63.006385430008038,
        63.178656182287142,
        63.533862240992022,
        63.08497049638752,
        62.792191728054817,
        62.409090788975966,
        62.403822243189232,
        62.378589126412393,
        62.535587115440208,
        63.128108109995807,
        63.317042213176947,
        62.99361558475114,
        62.95751188178987,
        62.774907519941159,
        62.83676702164793,
        62.317814458336429,
        62.08496906342382,
        61.696470289645212,
        61.720060195848163,
        61.823315326313285,
        62.565399194470771,
        62.840932057148471,
        62.978398353263337,
        62.293253394160914,
        62.665811311314918,
        62.472370445114578,
        62.477269835861684,
        62.875408341637083,
        62.546143795782655,
        62.625067721180685,
        62.503020251895684,
        62.632453283496602,
        62.241750289824772,
        62.438151308689172,
        62.881326950336451,
        62.485743876711126,
        62.417211822407857,
        62.523229624637736,
        62.823066806768026,
        62.848489948768197,
        62.873874074090239,
        62.899219299528532,
        62.804276340109013,
        63.025951543053232,
        62.695301748560524,
        62.653744012248133,
        62.97632223445224,
        62.268559919835624,
        62.424974536234146,
        62.545904967018998,
        63.025761691370697,
        63.144518060703561,
        63.086482793025368,
        62.197732804912398,
        62.215922535515844,
        62.648613517861079,
        62.695732089598025,
        62.742722711404674,
        62.439826408525533,
        62.463681455055543,
        0.0,
        0.0,
        0.0,
        0.0,
        0.0,
        0.0,
        0.0,
        47.0218070223968,
        62.350449161295778,
        40.449065869131253,
        62.110821206764726,
        62.789823312854871,
        0.0,
        0.0,
        0.0,
        0.0,
        0.0,
        0.0,
        0.0,
        0.0,
        0.0,
        0.0,
        0.0,
        0.0,
        0.0,
        0.0,
        0.0,
        0.0,
        0.0,
        0.0,
        0.0,
        0.0,
        0.0,
        0.0,
        0.0,
        0.0,
        0.0,
        0.0,
        0.0,
        0.0,
        0.0,
        0.0,
        0.0,
        0.0,
        0.0,
        0.0,
        0.0,
        0.0,
        0.0,
        0.0,
        0.0,
        0.0,
        0.0,
        0.0,
        0.0,
        0.0,
        0.0,
        0.0,
        0.0,
        0.0,
        0.0,
        0.0,
        0.0,
        0.0,
        0.0,
        0.0,
        0.0
    ],
    "time": [
        0.02,
        0.040000000000000001,
        0.059999999999999998,
        0.080000000000000002,
        0.10000000000000001,
        0.12,
        0.14000000000000001,
        0.16,
        0.17999999999999999,
        0.20000000000000001,
        0.22,
        0.23999999999999999,
        0.26000000000000001,
        0.28000000000000003,
        0.29999999999999999,
        0.32000000000000001,
        0.34000000000000002,
        0.35999999999999999,
        0.38,
        0.40000000000000002,
        0.41999999999999998,
        0.44,
        0.46000000000000002,
        0.47999999999999998,
        0.5,
        0.52000000000000002,
        0.54000000000000004,
        0.56000000000000005,
        0.57999999999999996,
        0.59999999999999998,
        0.62,
        0.64000000000000001,
        0.66000000000000003,
        0.68000000000000005,
        0.69999999999999996,
        0.71999999999999997,
        0.73999999999999999,
        0.76000000000000001,
        0.78000000000000003,
        0.80000000000000004,
        0.81999999999999995,
        0.83999999999999997,
        0.85999999999999999,
        0.88,
        0.90000000000000002,
        0.92000000000000004,
        0.93999999999999995,
        0.95999999999999996,
        0.97999999999999998,
        1.0,
        1.02,
        1.04,
        1.0600000000000001,
        1.0800000000000001,
        1.1000000000000001,
        1.1200000000000001,
        1.1399999999999999,
        1.1599999999999999,
        1.1799999999999999,
        1.2,
        1.22,
        1.24,
        1.26,
        1.28,
        1.3,
        1.3200000000000001,
        1.3400000000000001,
        1.3600000000000001,
        1.3799999999999999,
        1.3999999999999999,
        1.4199999999999999,
        1.4399999999999999,
        1.46,
        1.48,
        1.5,
        1.52,
        1.54,
        1.5600000000000001,
        1.5800000000000001,
        1.6000000000000001,
        1.6200000000000001,
        1.6399999999999999,
        1.6599999999999999,
        1.6799999999999999,
        1.7,
        1.72,
        1.74,
        1.76,
        1.78,
        1.8,
        1.8200000000000001,
        1.8400000000000001,
        1.8600000000000001,
        1.8799999999999999,
        1.8999999999999999,
        1.9199999999999999,
        1.9399999999999999,
        1.96,
        1.98,
        2.0,
        2.02,
        2.04,
        2.0600000000000001,
        2.0800000000000001,
        2.1000000000000001,
        2.1200000000000001,
        2.1400000000000001,
        2.1600000000000001,
        2.1800000000000002,
        2.2000000000000002,
        2.2200000000000002,
        2.2400000000000002,
        2.2599999999999998,
        2.2799999999999998,
        2.2999999999999998,
        2.3199999999999998,
        2.3399999999999999,
        2.3599999999999999,
        2.3799999999999999,
        2.3999999999999999,
        2.4199999999999999,
        2.4399999999999999,
        2.46,
        2.48,
        2.5,
        2.52,
        2.54,
        2.5600000000000001,
        2.5800000000000001,
        2.6000000000000001,
        2.6200000000000001,
        2.6400000000000001,
        2.6600000000000001,
        2.6800000000000002,
        2.7000000000000002,
        2.7200000000000002,
        2.7400000000000002,
        2.7599999999999998,
        2.7799999999999998,
        2.7999999999999998,
        2.8199999999999998,
        2.8399999999999999,
        2.8599999999999999,
        2.8799999999999999,
        2.8999999999999999,
        2.9199999999999999,
        2.9399999999999999,
        2.96,
        2.98,
        3.0,
        3.02,
        3.04,
        3.0600000000000001,
        3.0800000000000001,
        3.1000000000000001,
        3.1200000000000001,
        3.1400000000000001,
        3.1600000000000001,
        3.1800000000000002,
        3.2000000000000002,
        3.2200000000000002,
        3.2400000000000002,
        3.2599999999999998,
        3.2799999999999998,
        3.2999999999999998,
        3.3199999999999998,
        3.3399999999999999,
        3.3599999999999999,
        3.3799999999999999,
        3.3999999999999999,
        3.4199999999999999,
        3.4399999999999999,
        3.46,
        3.48,
        3.5,
        3.52,
        3.54,
        3.5600000000000001,
        3.5800000000000001,
        3.6000000000000001,
        3.6200000000000001,
        3.6400000000000001,
        3.6600000000000001,
        3.6800000000000002,
        3.7000000000000002,
        3.7200000000000002,
        3.7400000000000002,
        3.7599999999999998,
        3.7799999999999998,
        3.7999999999999998,
        3.8199999999999998,
        3.8399999999999999,
        3.8599999999999999,
        3.8799999999999999,
        3.8999999999999999,
        3.9199999999999999,
        3.9399999999999999,
        3.96,
        3.98,
        4.0,
        4.0199999999999996,
        4.04,
        4.0599999999999996,
        4.0800000000000001,
        4.0999999999999996,
        4.1200000000000001,
        4.1399999999999997,
        4.1600000000000001,
        4.1799999999999997,
        4.2000000000000002,
        4.2199999999999998,
        4.2400000000000002,
        4.2599999999999998,
        4.2800000000000002,
        4.2999999999999998,
        4.3200000000000003,
        4.3399999999999999,
        4.3600000000000003,
        4.3799999999999999,
        4.4000000000000004,
        4.4199999999999999,
        4.4400000000000004,
        4.46,
        4.4800000000000004,
        4.5,
        4.5199999999999996,
        4.54,
        4.5599999999999996,
        4.5800000000000001,
        4.5999999999999996,
        4.6200000000000001,
        4.6399999999999997,
        4.6600000000000001,
        4.6799999999999997,
        4.7000000000000002,
        4.7199999999999998,
        4.7400000000000002,
        4.7599999999999998,
        4.7800000000000002,
        4.7999999999999998,
        4.8200000000000003,
        4.8399999999999999,
        4.8600000000000003,
        4.8799999999999999,
        4.9000000000000004,
        4.9199999999999999,
        4.9400000000000004,
        4.96,
        4.9800000000000004,
        5.0,
        5.0199999999999996,
        5.04,
        5.0599999999999996,
        5.0800000000000001,
        5.0999999999999996,
        5.1200000000000001,
        5.1399999999999997,
        5.1600000000000001,
        5.1799999999999997,
        5.2000000000000002,
        5.2199999999999998,
        5.2400000000000002,
        5.2599999999999998,
        5.2800000000000002,
        5.2999999999999998,
        5.3200000000000003,
        5.3399999999999999,
        5.3600000000000003,
        5.3799999999999999,
        5.4000000000000004,
        5.4199999999999999,
        5.4400000000000004,
        5.46,
        5.4800000000000004,
        5.5,
        5.5199999999999996,
        5.54,
        5.5599999999999996,
        5.5800000000000001,
        5.5999999999999996,
        5.6200000000000001,
        5.6399999999999997,
        5.6600000000000001,
        5.6799999999999997,
        5.7000000000000002,
        5.7199999999999998,
        5.7400000000000002,
        5.7599999999999998,
        5.7800000000000002,
        5.7999999999999998,
        5.8200000000000003,
        5.8399999999999999,
        5.8600000000000003,
        5.8799999999999999,
        5.9000000000000004,
        5.9199999999999999,
        5.9400000000000004,
        5.96,
        5.9800000000000004,
        6.0,
        6.0199999999999996,
        6.04,
        6.0599999999999996,
        6.0800000000000001,
        6.0999999999999996,
        6.1200000000000001,
        6.1399999999999997,
        6.1600000000000001,
        6.1799999999999997,
        6.2000000000000002,
        6.2199999999999998,
        6.2400000000000002,
        6.2599999999999998,
        6.2800000000000002,
        6.2999999999999998,
        6.3200000000000003,
        6.3399999999999999,
        6.3600000000000003,
        6.3799999999999999,
        6.4000000000000004,
        6.4199999999999999,
        6.4400000000000004,
        6.46,
        6.4800000000000004,
        6.5,
        6.5199999999999996,
        6.54,
        6.5599999999999996,
        6.5800000000000001,
        6.5999999999999996,
        6.6200000000000001,
        6.6399999999999997,
        6.6600000000000001,
        6.6799999999999997,
        6.7000000000000002,
        6.7199999999999998,
        6.7400000000000002,
        6.7599999999999998,
        6.7800000000000002,
        6.7999999999999998,
        6.8200000000000003,
        6.8399999999999999,
        6.8600000000000003,
        6.8799999999999999,
        6.9000000000000004,
        6.9199999999999999,
        6.9400000000000004,
        6.96,
        6.9800000000000004,
        7.0,
        7.0199999999999996,
        7.04,
        7.0599999999999996,
        7.0800000000000001,
        7.0999999999999996,
        7.1200000000000001,
        7.1399999999999997,
        7.1600000000000001,
        7.1799999999999997,
        7.2000000000000002,
        7.2199999999999998,
        7.2400000000000002,
        7.2599999999999998,
        7.2800000000000002,
        7.2999999999999998,
        7.3200000000000003,
        7.3399999999999999,
        7.3600000000000003,
        7.3799999999999999,
        7.4000000000000004,
        7.4199999999999999,
        7.4400000000000004,
        7.46,
        7.4800000000000004,
        7.5,
        7.5199999999999996,
        7.54,
        7.5599999999999996,
        7.5800000000000001,
        7.5999999999999996,
        7.6200000000000001,
        7.6399999999999997,
        7.6600000000000001,
        7.6799999999999997,
        7.7000000000000002,
        7.7199999999999998,
        7.7400000000000002,
        7.7599999999999998,
        7.7800000000000002,
        7.7999999999999998,
        7.8200000000000003,
        7.8399999999999999,
        7.8600000000000003,
        7.8799999999999999,
        7.9000000000000004,
        7.9199999999999999,
        7.9400000000000004,
        7.96,
        7.9800000000000004,
        8.0,
        8.0199999999999996,
        8.0399999999999991,
        8.0600000000000005,
        8.0800000000000001,
        8.0999999999999996,
        8.1199999999999992,
        8.1400000000000006,
        8.1600000000000001,
        8.1799999999999997,
        8.1999999999999993,
        8.2200000000000006,
        8.2400000000000002,
        8.2599999999999998,
        8.2799999999999994,
        8.3000000000000007,
        8.3200000000000003,
        8.3399999999999999,
        8.3599999999999994,
        8.3800000000000008,
        8.4000000000000004,
        8.4199999999999999,
        8.4399999999999995,
        8.4600000000000009,
        8.4800000000000004,
        8.5,
        8.5199999999999996,
        8.5399999999999991,
        8.5600000000000005,
        8.5800000000000001,
        8.5999999999999996,
        8.6199999999999992,
        8.6400000000000006,
        8.6600000000000001,
        8.6799999999999997,
        8.6999999999999993,
        8.7200000000000006,
        8.7400000000000002,
        8.7599999999999998,
        8.7799999999999994,
        8.8000000000000007,
        8.8200000000000003,
        8.8399999999999999,
        8.8599999999999994,
        8.8800000000000008,
        8.9000000000000004,
        8.9199999999999999,
        8.9399999999999995,
        8.9600000000000009,
        8.9800000000000004,
        9.0,
        9.0199999999999996,
        9.0399999999999991,
        9.0600000000000005,
        9.0800000000000001,
        9.0999999999999996,
        9.1199999999999992,
        9.1400000000000006,
        9.1600000000000001,
        9.1799999999999997,
        9.1999999999999993,
        9.2200000000000006,
        9.2400000000000002,
        9.2599999999999998,
        9.2799999999999994,
        9.3000000000000007,
        9.3200000000000003,
        9.3399999999999999,
        9.3599999999999994,
        9.3800000000000008,
        9.4000000000000004,
        9.4199999999999999,
        9.4399999999999995,
        9.4600000000000009,
        9.4800000000000004,
        9.5
    ]
}