{
    "DU": 99,
    "DV": 231,
    "F-measure": 0.6596491228070175,
    "F-measure Chroma": 0.7964912280701754,
    "FN": 0,
    "FNC": 0,
    "FNCch": 0,
    "FNI": 0,
    "FNIch": 0,
    "FP": 90,
    "GU": 189,
    "GV": 141,
    "Overall Accuracy": 0.5696969696969697,
    "Overall Chroma Accuracy": 0.6878787878787879,
    "Precision": 0.5696969696969697,
    "Precision Chroma": 0.6878787878787879,
    "Raw Chroma Accuracy": 0.9078014184397163,
    "Raw Pitch Accuracy": 0.6312056737588653,
    "Recall": 0.7833333333333333,
    "Recall Chroma": 0.9458333333333333,
    "TN": 99,
    "TO": 330,
    "TP": 141,
    "TPC": 89,
    "TPCch": 128,
    "TPI": 52,
    "TPIch": 13,
    "Voiced Chroma Accuracy": 0.9078014184397163,
    "Voiced Pitch Accuracy": 0.6312056737588653,
    "Voicing Accuracy": 0.7272727272727273,
    "Voicing Detection": 1.0,
    "Voicing False Alarm": 0.47619047619047616
}