{
    "DU": 14,
    "DV": 332,
    "F-measure": 0.5733113673805601,
    "F-measure Chroma": 0.7677100494233938,
    "FN": 4,
    "FNC": 0,
    "FNCch": 0,
    "FNI": 4,
    "FNIch": 4,
    "FP": 81,
    "GU": 91,
    "GV": 255,
    "Overall Accuracy": 0.5028901734104047,
    "Overall Chroma Accuracy": 0.6734104046242775,
    "Precision": 0.5087719298245614,
    "Precision Chroma": 0.6812865497076024,
    "Raw Chroma Accuracy": 0.8745098039215686,
    "Raw Pitch Accuracy": 0.6431372549019608,
    "Recall": 0.6566037735849056,
    "Recall Chroma": 0.879245283018868,
    "TN": 10,
    "TO": 346,
    "TP": 251,
    "TPC": 164,
    "TPCch": 223,
    "TPI": 87,
    "TPIch": 28,
    "Voiced Chroma Accuracy": 0.8745098039215686,
    "Voiced Pitch Accuracy": 0.6431372549019608,
    "Voicing Accuracy": 0.7543352601156069,
    "Voicing Detection": 0.984313725490196,
    "Voicing False Alarm": 0.8901098901098901
}