{
    "DU": 137,
    "DV": 277,
    "F-measure": 0.6276595744680851,
    "F-measure Chroma": 0.8111702127659575,
    "FN": 38,
    "FNC": 8,
    "FNCch": 25,
    "FNI": 30,
    "FNIch": 13,
    "FP": 38,
    "GU": 137,
    "GV": 277,
    "Overall Accuracy": 0.5700483091787439,
    "Overall Chroma Accuracy": 0.7367149758454107,
    "Precision": 0.6276595744680851,
    "Precision Chroma": 0.8111702127659575,
    "Raw Chroma Accuracy": 0.8339350180505415,
    "Raw Pitch Accuracy": 0.5234657039711191,
    "Recall": 0.6276595744680851,
    "Recall Chroma": 0.8111702127659575,
    "TN": 99,
    "TO": 414,
    "TP": 239,
    "TPC": 137,
    "TPCch": 206,
    "TPI": 102,
    "TPIch": 33,
    "Voiced Chroma Accuracy": 0.7436823104693141,
    "Voiced Pitch Accuracy": 0.49458483754512633,
    "Voicing Accuracy": 0.8164251207729468,
    "Voicing Detection": 0.8628158844765343,
    "Voicing False Alarm": 0.2773722627737226
}