{
    "f0": [
        44.678955304107689,
        43.790946537828852,
        56.128855973122498,
        56.973530847539315,
        56.982871198293395,
        56.992205331541996,
        56.651775878251144,
        56.854014812791547,
        56.661313465189593,
        56.716495695629824,
        56.817539839829408,
        57.377323607149684,
        57.52451637966805,
        57.932315014156607,
        58.201010504324742,
        58.355605180343247,
        58.389437831748758,
        58.482886849383156,
        58.396685822030577,
        58.592683513147826,
        58.533223046290473,
        58.16052009332504,
        58.037523190085977,
        58.184147712089633,
        58.476016737616703,
        58.255104626185144,
        57.935113725392966,
        57.830454915548017,
        58.125890098912194,
        57.98048263855015,
        57.979478457769403,
        57.731809256926567,
        57.948945028313936,
        58.163393334781915,
        58.201219965675413,
        57.976232839243607,
        57.92618342323761,
        57.959275764289131,
        46.129392356110046,
        45.938470597834879,
        45.854906123250537,
        45.770938744832961,
        46.365564083109568,
        46.036133182030746,
        61.793942468247643,
        61.770456672550196,
        61.919204928846192,
        61.969355679834251,
        62.013586637245638,
        62.08322166499326,
        62.152577723093877,
        62.163693076339975,
        62.046264604215764,
        62.09398977957035,
        62.272904644067623,
        62.449989405053699,
        62.376138753507199,
        62.367457705754667,
        62.358770455024604,
        62.692916528583297,
        62.668056594271462,
        62.643160853792516,
        62.577152395354702,
        62.453118117162404,
        62.529575228684394,
        62.605697928741108,
        62.853751625231872,
        62.908948985808678,
        62.963972591254198,
        62.844827046317285,
        62.724855842290701,
        62.604050928716859,
        61.955073958489137,
        61.382962442027925,
        61.250259904876508,
        61.332100425704155,
        61.665714703055713,
        61.520005673376133,
        61.333839285793623,
        61.337752108504453,
        61.341663985826649,
        61.517833998529269,
        61.433181029530878,
        60.903937647741628,
        61.267625552353067,
        61.381730054604802,
        61.266017064256999,
        61.127299845335038,
        61.170927953172757,
        59.455996783616094,
        59.312588914291673,
        58.981835729542894,
        58.644640278208286,
        59.928043217194229,
        59.611119656076411,
        59.596332082065743,
        59.939792518786398,
        59.911202069414145,
        59.882562260954813,
        59.676382590220982,
        60.069500841521602,
        59.722253794999276,
        59.985762272530529,
        59.949632200829157,
        59.718627369672916,
        59.755762518720516,
        59.803060317419451,
        58.78311860864757,
        58.499750883948778,
        61.57270580645767,
        61.572386754881499,
        61.307415651192109,
        60.999238618703913,
        61.04822423908692,
        60.937783734563844,
        61.161681260155603,
        61.128790773133112,
        61.365643117995454,
        61.599298680865871,
        61.655847752186069,
        61.799145049959456,
        61.010203170982308,
        60.737500670648529,
        61.256740294754245,
        61.200609370834854,
        61.422799247880448,
        62.151272284337438,
        62.080396062145937,
        62.250090338037353,
        62.341950987826323,
        62.433325006884957,
        62.524212366998434,
        62.801763575557246,
        62.705737348343455,
        62.852693244725749,
        62.793437729165412,
        62.785002973314789,
        62.577067150563252,
        62.226965362166681,
        62.283882836462524,
        62.698222239745448,
        62.755136380420616,
        62.45871506452923,
        63.636948396543637,
        63.198948653020878,
        62.764673623686598,
        62.654310491677009,
        62.718262109015974,
        62.634435790969263,
        62.550201553279209,
        62.808387365466622,
        62.151780586755592,
        62.642767376353078,
        62.890029352510155,
        63.590501474574964,
        62.488757701132528,
        62.418407822104314,
        62.480190639601318,
        62.636513423402334,
        62.394789278648915,
        63.004949284208543,
        62.885551353049635,
        62.883595715335048,
        62.811046837868616,
        62.812409889775431,
        62.840109385073248,
        63.026889214258318,
        63.102886649188278,
        62.890964167129177,
        62.995555439342773,
        62.996574567689649,
        62.875144924058148,
        63.120060894249136,
        62.835844723762989,
        62.933336109686053,
        64.241025197518866,
        64.375718261502669,
        64.73731076898882,
        64.806220432743132,
        64.843526152622388,
        64.896387451209975,
        64.955712637125771,
        65.354360874710778,
        65.229126978086285,
        65.185398175389139,
        65.16611546522482,
        64.784768968074658,
        64.406927977727634,
        63.840480381375173,
        63.691121095897003,
        62.433796980755986,
        65.188404869006163,
        64.795590622099311,
        64.586578677571069,
        64.578061033236438,
        64.640530366127237,
        65.284634294309882,
        65.498506401013884,
        65.709768644835833,
        66.430212106109408,
        66.877912289622927,
        67.259703235253909,
        67.310251765580247,
        67.543999863518877,
        67.157096797164684,
        66.792536017157005,
        66.747039915823947,
        66.538310788040789,
        66.409787142266964,
        66.064674418260168,
        65.995171089502193,
        66.025858913126129,
        66.540046517264429,
        66.278864858186239,
        65.932707221269666,
        65.963681845212818,
        65.875614213134796,
        65.919202607262946,
        65.919499611998276,
        66.113661195280855,
        66.036083255388178,
        65.850554888993997,
        64.829477383009788,
        64.872104682972193,
        64.631609561866412,
        64.05673655798428,
        65.177203105946148,
        65.362617731384404,
        65.546067595927113,
        65.89985600669084,
        65.812592487424666,
        65.409656400548087,
        64.452527892340044,
        64.241938781459382,
        64.161494134425567,
        63.664357446254478,
        63.152523638241192,
        63.018396150431634,
        62.932855383480735,
        62.99423222503237,
        63.085245912203959,
        63.124655657368415,
        63.461779434371977,
        63.530018760466128,
        63.379438516885031,
        63.449428905118083,
        63.649614030485644,
        63.640156160006072,
        63.058685896778357,
        62.927742191256634,
        62.732493896287274,
        63.22088395163798,
        63.441821039220784,
        63.611884283233323,
        63.454365512744573,
        63.498014254035084,
        63.707640364381916,
        63.483146616092952,
        63.89807627073332,
        62.8293120170988,
        62.463972156980276,
        61.841161751166169,
        61.66793022580238,
        61.394642549976851,
        61.50982388039089,
        61.695289299144783,
        62.186502238392357,
        62.221150841133195,
        62.304213423310557,
        62.207772211340277,
        62.240770915955437,
        61.361940095200701,
        61.788006135705579,
        61.799357965861397,
        61.125988543604699,
        61.139127143332139,
        61.161966390052648,
        61.179926417863975,
        61.127844760606393,
        61.325983036648338,
        61.515732376446266,
        61.532469834516789,
        61.46079818219134,
        61.498810201430402,
        61.536738942005016,
        61.224825906168284,
        61.227205832600212,
        61.145938430624035,
        61.194028814735148,
        60.839824957386767,
        59.769446621088889,
        61.410332215442182,
        61.271986777990925,
        61.220262720660926,
        61.124434929560344,
        61.028075688872917,
        61.144433865712955,
        61.203051025063033,
        61.462143783175975,
        61.618839565085921,
        61.116327831516031,
        61.022424845052235,
        61.331449709779605,
        61.000723440173047,
        60.757326959054339,
        59.574956906638548,
        59.494481751760752,
        61.160353685994508,
        61.407424387132366,
        61.583337133482978,
        60.729016601285423,
        60.665711075375604,
        60.699715402795206,
        61.210049973946617,
        45.654336180791319,
        56.836908186226914,
        56.890655979658995,
        56.944241055841644,
        57.040771539905506,
        57.136770283815991,
        57.347413980786733,
        57.148963758718551,
        57.377355329433421,
        57.1261465682026,
        56.681390476475684,
        56.32262771284249,
        56.368640962432863,
        57.294012397756987,
        56.871994929438245,
        53.266008572614894,
        53.564920289031519,
        53.834458980077862,
        54.099864129401752,
        54.361258936076482,
        54.593231344760646,
        54.660746207059915,
        54.634575742843268,
        54.60836565774315,
        54.232360291252775,
        54.370526851258134,
        54.507599454625108,
        54.643595288526477,
        54.251212382058938,
        54.272657312657898,
        54.204393475376612,
        54.135859402833695,
        54.354978735172935,
        54.587154789697315,
        54.634471094816476,
        54.598542886244125,
        54.431922515825747,
        55.510782480302268,
        55.111013916562491,
        54.505058874626393,
        54.628864915219332,
        54.899389633697886,
        54.565915094740447,
        54.51143733726407,
        53.964394403843073,
        54.500284531260547,
        45.506455335801618,
        42.793988700799233,
        44.125645831973856,
        43.284267428947324,
        42.509515776267349,
        41.078870026562008,
        40.972585604092508,
        41.010014078537992,
        43.127354923388125,
        42.870331181239479,
        42.609438172055164,
        42.936498756250209,
        44.20765055683151,
        42.738143794896651,
        42.569466603567498,
        42.150421924037765,
        39.687783991154916,
        35.531742487143603,
        42.880689223313112,
        0.0,
        0.0,
        0.0,
        0.0,
        55.31930593155365,
        54.431299912658318,
        54.257302411706249,
        0.0,
        0.0,
        0.0,
        0.0,
        0.0,
        0.0,
        0.0,
        0.0,
        0.0,
        0.0,
        0.0,
        0.0,
        0.0,
        0.0,
        0.0,
        0.0,
        0.0,
        0.0,
        0.0,
        0.0,
        0.0,
        0.0,
        0.0,
        0.0,
        0.0,
        0.0,
        0.0,
        0.0,
        0.0,
        0.0,
        0.0,
        0.0,
        0.0,
        0.0,
        0.0,
        0.0,
        0.0,
        0.0,
        0.0,
        0.0,
        0.0,
        0.0,
        0.0,
        0.0,
        0.0,
        0.0
    ],
    "time": [
        0.02,
        0.040000000000000001,
        0.059999999999999998,
        0.080000000000000002,
        0.10000000000000001,
        0.12,
        0.14000000000000001,
        0.16,
        0.17999999999999999,
        0.20000000000000001,
        0.22,
        0.23999999999999999,
        0.26000000000000001,
        0.28000000000000003,
        0.29999999999999999,
        0.32000000000000001,
        0.34000000000000002,
        0.35999999999999999,
        0.38,
        0.40000000000000002,
        0.41999999999999998,
        0.44,
        0.46000000000000002,
        0.47999999999999998,
        0.5,
        0.52000000000000002,
        0.54000000000000004,
        0.56000000000000005,
        0.57999999999999996,
        0.59999999999999998,
        0.62,
        0.64000000000000001,
        0.66000000000000003,
        0.68000000000000005,
        0.69999999999999996,
        0.71999999999999997,
        0.73999999999999999,
        0.76000000000000001,
        0.78000000000000003,
        0.80000000000000004,
        0.81999999999999995,
        0.83999999999999997,
        0.85999999999999999,
        0.88,
        0.90000000000000002,
        0.92000000000000004,
        0.93999999999999995,
        0.95999999999999996,
        0.97999999999999998,
        1.0,
        1.02,
        1.04,
        1.0600000000000001,
        1.0800000000000001,
        1.1000000000000001,
        1.1200000000000001,
        1.1399999999999999,
        1.1599999999999999,
        1.1799999999999999,
        1.2,
        1.22,
        1.24,
        1.26,
        1.28,
        1.3,
        1.3200000000000001,
        1.3400000000000001,
        1.3600000000000001,
        1.3799999999999999,
        1.3999999999999999,
        1.4199999999999999,
        1.4399999999999999,
        1.46,
        1.48,
        1.5,
        1.52,
        1.54,
        1.5600000000000001,
        1.5800000000000001,
        1.6000000000000001,
        1.6200000000000001,
        1.6399999999999999,
        1.6599999999999999,
        1.6799999999999999,
        1.7,
        1.72,
        1.74,
        1.76,
        1.78,
        1.8,
        1.8200000000000001,
        1.8400000000000001,
        1.8600000000000001,
        1.8799999999999999,
        1.8999999999999999,
        1.9199999999999999,
        1.9399999999999999,
        1.96,
        1.98,
        2.0,
        2.02,
        2.04,
        2.0600000000000001,
        2.0800000000000001,
        2.1000000000000001,
        2.1200000000000001,
        2.1400000000000001,
        2.1600000000000001,
        2.1800000000000002,
        2.2000000000000002,
        2.2200000000000002,
        2.2400000000000002,
        2.2599999999999998,
        2.2799999999999998,
        2.2999999999999998,
        2.3199999999999998,
        2.3399999999999999,
        2.3599999999999999,
        2.3799999999999999,
        2.3999999999999999,
        2.4199999999999999,
        2.4399999999999999,
        2.46,
        2.48,
        2.5,
        2.52,
        2.54,
        2.5600000000000001,
        2.5800000000000001,
        2.6000000000000001,
        2.6200000000000001,
        2.6400000000000001,
        2.6600000000000001,
        2.6800000000000002,
        2.7000000000000002,
        2.7200000000000002,
        2.7400000000000002,
        2.7599999999999998,
        2.7799999999999998,
        2.7999999999999998,
        2.8199999999999998,
        2.8399999999999999,
        2.8599999999999999,
        2.8799999999999999,
        2.8999999999999999,
        2.9199999999999999,
        2.9399999999999999,
        2.96,
        2.98,
        3.0,
        3.02,
        3.04,
        3.0600000000000001,
        3.0800000000000001,
        3.1000000000000001,
        3.1200000000000001,
        3.1400000000000001,
        3.1600000000000001,
        3.1800000000000002,
        3.2000000000000002,
        3.2200000000000002,
        3.2400000000000002,
        3.2599999999999998,
        3.2799999999999998,
        3.2999999999999998,
        3.3199999999999998,
        3.3399999999999999,
        3.3599999999999999,
        3.3799999999999999,
        3.3999999999999999,
        3.4199999999999999,
        3.4399999999999999,
        3.46,
        3.48,
        3.5,
        3.52,
        3.54,
        3.5600000000000001,
        3.5800000000000001,
        3.6000000000000001,
        3.6200000000000001,
        3.6400000000000001,
        3.6600000000000001,
        3.6800000000000002,
        3.7000000000000002,
        3.7200000000000002,
        3.7400000000000002,
        3.7599999999999998,
        3.7799999999999998,
        3.7999999999999998,
        3.8199999999999998,
        3.8399999999999999,
        3.8599999999999999,
        3.8799999999999999,
        3.8999999999999999,
        3.9199999999999999,
        3.9399999999999999,
        3.96,
        3.98,
        4.0,
        4.0199999999999996,
        4.04,
        4.0599999999999996,
        4.0800000000000001,
        4.0999999999999996,
        4.1200000000000001,
        4.1399999999999997,
        4.1600000000000001,
        4.1799999999999997,
        4.2000000000000002,
        4.2199999999999998,
        4.2400000000000002,
        4.2599999999999998,
        4.2800000000000002,
        4.2999999999999998,
        4.3200000000000003,
        4.3399999999999999,
        4.3600000000000003,
        4.3799999999999999,
        4.4000000000000004,
        4.4199999999999999,
        4.4400000000000004,
        4.46,
        4.4800000000000004,
        4.5,
        4.5199999999999996,
        4.54,
        4.5599999999999996,
        4.5800000000000001,
        4.5999999999999996,
        4.6200000000000001,
        4.6399999999999997,
        4.6600000000000001,
        4.6799999999999997,
        4.7000000000000002,
        4.7199999999999998,
        4.7400000000000002,
        4.7599999999999998,
        4.7800000000000002,
        4.7999999999999998,
        4.8200000000000003,
        4.8399999999999999,
        4.8600000000000003,
        4.8799999999999999,
        4.9000000000000004,
        4.9199999999999999,
        4.9400000000000004,
        4.96,
        4.9800000000000004,
        5.0,
        5.0199999999999996,
        5.04,
        5.0599999999999996,
        5.0800000000000001,
        5.0999999999999996,
        5.1200000000000001,
        5.1399999999999997,
        5.1600000000000001,
        5.1799999999999997,
        5.2000000000000002,
        5.2199999999999998,
        5.2400000000000002,
        5.2599999999999998,
        5.2800000000000002,
        5.2999999999999998,
        5.3200000000000003,
        5.3399999999999999,
        5.3600000000000003,
        5.3799999999999999,
        5.4000000000000004,
        5.4199999999999999,
        5.4400000000000004,
        5.46,
        5.4800000000000004,
        5.5,
        5.5199999999999996,
        5.54,
        5.5599999999999996,
        5.5800000000000001,
        5.5999999999999996,
        5.6200000000000001,
        5.6399999999999997,
        5.6600000000000001,
        5.6799999999999997,
        5.7000000000000002,
        5.7199999999999998,
        5.7400000000000002,
        5.7599999999999998,
        5.7800000000000002,
        5.7999999999999998,
        5.8200000000000003,
        5.8399999999999999,
        5.8600000000000003,
        5.8799999999999999,
        5.9000000000000004,
        5.9199999999999999,
        5.9400000000000004,
        5.96,
        5.9800000000000004,
        6.0,
        6.0199999999999996,
        6.04,
        6.0599999999999996,
        6.0800000000000001,
        6.0999999999999996,
        6.1200000000000001,
        6.1399999999999997,
        6.1600000000000001,
        6.1799999999999997,
        6.2000000000000002,
        6.2199999999999998,
        6.2400000000000002,
        6.2599999999999998,
        6.2800000000000002,
        6.2999999999999998,
        6.3200000000000003,
        6.3399999999999999,
        6.3600000000000003,
        6.3799999999999999,
        6.4000000000000004,
        6.4199999999999999,
        6.4400000000000004,
        6.46,
        6.4800000000000004,
        6.5,
        6.5199999999999996,
        6.54,
        6.5599999999999996,
        6.5800000000000001,
        6.5999999999999996,
        6.6200000000000001,
        6.6399999999999997,
        6.6600000000000001,
        6.6799999999999997,
        6.7000000000000002,
        6.7199999999999998,
        6.7400000000000002,
        6.7599999999999998,
        6.7800000000000002,
        6.7999999999999998,
        6.8200000000000003,
        6.8399999999999999,
        6.8600000000000003,
        6.8799999999999999,
        6.9000000000000004,
        6.9199999999999999,
        6.9400000000000004,
        6.96,
        6.9800000000000004,
        7.0,
        7.0199999999999996,
        7.04,
        7.0599999999999996,
        7.0800000000000001,
        7.0999999999999996,
        7.1200000000000001,
        7.1399999999999997,
        7.1600000000000001,
        7.1799999999999997,
        7.2000000000000002,
        7.2199999999999998,
        7.2400000000000002,
        7.2599999999999998,
        7.2800000000000002,
        7.2999999999999998,
        7.3200000000000003,
        7.3399999999999999,
        7.3600000000000003,
        7.3799999999999999,
        7.4000000000000004,
        7.4199999999999999,
        7.4400000000000004,
        7.46,
        7.4800000000000004,
        7.5,
        7.5199999999999996,
        7.54,
        7.5599999999999996,
        7.5800000000000001,
        7.5999999999999996,
        7.6200000000000001,
        7.6399999999999997,
        7.6600000000000001,
        7.6799999999999997,
        7.7000000000000002,
        7.7199999999999998,
        7.7400000000000002,
        7.7599999999999998,
        7.7800000000000002,
        7.7999999999999998,
        7.8200000000000003,
        7.8399999999999999,
        7.8600000000000003,
        7.8799999999999999,
        7.9000000000000004,
        7.9199999999999999,
        7.9400000000000004,
        7.96,
        7.9800000000000004,
        8.0,
        8.0199999999999996,
        8.0399999999999991,
        8.0600000000000005,
        8.0800000000000001,
        8.0999999999999996,
        8.1199999999999992,
        8.1400000000000006,
        8.1600000000000001,
        8.1799999999999997,
        8.1999999999999993,
        8.2200000000000006,
        8.2400000000000002,
        8.2599999999999998,
        8.2799999999999994,
        8.3000000000000007,
        8.3200000000000003,
        8.3399999999999999,
        8.3599999999999994,
        8.3800000000000008,
        8.4000000000000004,
        8.4199999999999999,
        8.4399999999999995,
        8.4600000000000009,
        8.4800000000000004,
        8.5,
        8.5199999999999996,
        8.5399999999999991,
        8.5600000000000005,
        8.5800000000000001,
        8.5999999999999996,
        8.6199999999999992,
        8.6400000000000006
    ]
}