{
    "DU": 108,
    "DV": 211,
    "F-measure": 0.7228915662650602,
    "F-measure Chroma": 0.7297762478485371,
    "FN": 24,
    "FNC": 3,
    "FNCch": 10,
    "FNI": 21,
    "FNIch": 14,
    "FP": 33,
    "GU": 117,
    "GV": 202,
    "Overall Accuracy": 0.658307210031348,
    "Overall Chroma Accuracy": 0.664576802507837,
    "Precision": 0.711864406779661,
    "Precision Chroma": 0.7186440677966102,
    "Raw Chroma Accuracy": 0.6831683168316832,
    "Raw Pitch Accuracy": 0.6386138613861386,
    "Recall": 0.7342657342657343,
    "Recall Chroma": 0.7412587412587412,
    "TN": 84,
    "TO": 319,
    "TP": 178,
    "TPC": 126,
    "TPCch": 128,
    "TPI": 52,
    "TPIch": 50,
    "Voiced Chroma Accuracy": 0.6336633663366337,
    "Voiced Pitch Accuracy": 0.6237623762376238,
    "Voicing Accuracy": 0.8213166144200627,
    "Voicing Detection": 0.8811881188118812,
    "Voicing False Alarm": 0.28205128205128205
}