{
    "DU": 165,
    "DV": 160,
    "F-measure": 0.9623824451410659,
    "F-measure Chroma": 0.9561128526645767,
    "FN": 7,
    "FNC": 4,
    "FNCch": 4,
    "FNI": 3,
    "FNIch": 3,
    "FP": 5,
    "GU": 163,
    "GV": 162,
    "Overall Accuracy": 0.9446153846153846,
    "Overall Chroma Accuracy": 0.9384615384615385,
    "Precision": 0.9654088050314465,
    "Precision Chroma": 0.9591194968553459,
    "Raw Chroma Accuracy": 0.9320987654320988,
    "Raw Pitch Accuracy": 0.9444444444444444,
    "Recall": 0.959375,
    "Recall Chroma": 0.953125,
    "TN": 158,
    "TO": 325,
    "TP": 155,
    "TPC": 149,
    "TPCch": 147,
    "TPI": 6,
    "TPIch": 8,
    "Voiced Chroma Accuracy": 0.9074074074074074,
    "Voiced Pitch Accuracy": 0.9197530864197531,
    "Voicing Accuracy": 0.963076923076923,
    "Voicing Detection": 0.9567901234567902,
    "Voicing False Alarm": 0.03067484662576687
}