{
    "f0": [
        0.0,
        0.0,
        0.0,
        0.0,
        0.0,
        0.0,
        0.0,
        0.0,
        0.0,
        0.0,
        0.0,
        0.0,
        0.0,
        0.0,
        0.0,
        0.0,
        0.0,
        0.0,
        0.0,
        0.0,
        0.0,
        0.0,
        0.0,
        0.0,
        0.0,
        0.0,
        0.0,
        0.0,
        0.0,
        0.0,
        0.0,
        0.0,
        52.441083322905072,
        65.135582536921021,
        65.392618631711997,
        65.392618631711997,
        65.3903438910978,
        65.318865821575301,
        65.357941527534194,
        65.528221635503655,
        65.696843160498759,
        66.039411660674205,
        66.289456285177891,
        66.228568503485121,
        66.561539097032806,
        66.723503287180463,
        66.70193261585591,
        66.611884983416033,
        66.525339901324386,
        66.469281872597904,
        66.424363734865125,
        66.414490294658634,
        66.426204286031222,
        66.479857468186083,
        66.49217128249866,
        66.473431162478263,
        66.375183353831119,
        66.043414573302101,
        65.297010073769599,
        64.204332628605385,
        61.934984500414267,
        60.860689378392735,
        60.04035633157185,
        59.572651180723767,
        59.6090645698213,
        59.884997812170766,
        59.980466244735041,
        60.039391251616422,
        60.212752441919704,
        60.515213881918427,
        60.920568351461554,
        61.175194767725152,
        61.146227597825614,
        60.737812213394214,
        59.959806350356118,
        57.150876660609484,
        57.216955530681957,
        57.540231003806184,
        57.204353057471323,
        58.852885397785244,
        60.724959924798455,
        61.110872293619565,
        61.141467832478824,
        60.969887504626854,
        60.796585711973279,
        60.732286427874975,
        60.77177579162398,
        60.939654536191995,
        60.922437124439703,
        60.708560782057965,
        60.064528096746798,
        59.961917378660679,
        60.864032383843011,
        61.721460682889841,
        0.0,
        0.0,
        0.0,
        0.0,
        70.50175038690216,
        70.711350951832429,
        71.07909484913408,
        71.398308606053973,
        71.77364757973632,
        72.283010393167331,
        72.577543820417773,
        72.791921755557823,
        72.99828168987159,
        73.030880468250928,
        72.908690356151851,
        72.785629734814023,
        41.203914955583009,
        41.317774154048315,
        45.45085117173177,
        46.711051798792951,
        0.0,
        73.258456681456707,
        73.196635320884653,
        73.193791306762492,
        73.279586273533965,
        73.344407186668292,
        73.349944648563067,
        73.326585323691361,
        73.338942766781059,
        73.353872436494214,
        73.196550503136294,
        73.037787722866113,
        43.242799578021,
        38.418471121523019,
        0.0,
        0.0,
        65.620653312120879,
        65.485057409007169,
        65.533320037701444,
        65.631671105266349,
        65.72946797537459,
        65.763382086500343,
        65.775884778961895,
        65.699490627563094,
        65.622757924885661,
        65.529493780506485,
        65.498516708544571,
        65.57264557388126,
        65.646458383273071,
        65.641836353967619,
        65.607832016282828,
        65.573759366157105,
        65.634451041118467,
        65.728192996904554,
        65.724776684943819,
        65.712180353124609,
        65.658986023766388,
        65.654607726873138,
        65.756252697835052,
        65.857304368114697,
        65.783773928397778,
        65.270306105950795,
        64.081162095672823,
        61.747320625377093,
        36.155348128324206,
        35.267343373852214,
        48.808729765801914,
        46.314421209742214,
        50.54506815495327,
        47.954364639653562,
        47.792145668558447,
        66.946922687966989,
        66.721529767205752,
        66.694254931094434,
        66.63203031591523,
        66.632782024250929,
        66.733139135647818,
        67.021502289583822,
        67.383719457377325,
        67.714365716783263,
        67.982426047886307,
        68.136361248881059,
        68.12932699975245,
        68.044769738321989,
        68.037993948990575,
        68.101234741162145,
        68.140125898927153,
        68.240168430316857,
        68.336770560433564,
        68.386338299798823,
        68.432109567529437,
        68.547633143840272,
        68.523941077174072,
        68.346808673012418,
        68.180555221577407,
        68.137075625149066,
        68.093486514126411,
        67.90155843126243,
        67.25526803437026,
        66.268285283939917,
        65.676742911806912,
        65.341738305025018,
        65.448984910722203,
        65.99738491131157,
        66.316125211346076,
        66.30359004712426,
        66.417047031389586,
        66.482701715291881,
        65.8648427271157,
        0.0,
        53.894447708040289,
        52.056089563710501,
        0.0,
        48.117488776364638,
        56.872184795505262,
        71.142347550448264,
        0.0,
        42.187165722034344,
        66.375236467480633,
        66.421652042060572,
        66.42165341200942,
        66.356626646713238,
        66.253319143910872,
        66.22270093796277,
        66.253490814844355,
        66.305359306587192,
        66.359264674655989,
        66.356837907255027,
        66.342139915728367,
        66.327429481074788,
        66.260774263625379,
        66.201126287732251,
        66.119792732809074,
        66.132437491424824,
        66.166091126851313,
        66.212766828397832,
        66.268168584948896,
        66.346268051718297,
        66.438783222376756,
        66.503567880252248,
        66.495168929593348,
        66.427622482721063,
        66.42716557366974,
        66.442951001669357,
        66.352398877097585,
        66.195452704351609,
        66.070369672108342,
        66.01304898315594,
        66.034756551886105,
        66.114747832231231,
        66.165374076713221,
        66.238961144564797,
        66.300733095046553,
        66.490076787069057,
        66.614281773435053,
        66.72692534687809,
        66.838840734930599,
        66.950037291876086,
        66.710767780922495,
        36.351142134072184,
        0.0,
        0.0,
        0.0,
        0.0,
        0.0,
        0.0,
        0.0,
        0.0,
        0.0,
        0.0,
        0.0,
        0.0,
        0.0,
        0.0,
        0.0,
        0.0,
        0.0,
        0.0,
        0.0,
        0.0,
        0.0,
        0.0,
        0.0,
        0.0,
        0.0,
        0.0,
        0.0,
        0.0,
        0.0,
        0.0,
        0.0,
        0.0,
        0.0,
        0.0,
        36.334507735216818,
        38.258832165505396,
        45.29763041190742,
        41.487805174788313,
        64.812127830531452,
        65.434184320324306,
        65.965675031997904,
        66.157273500085026,
        66.148016734398638,
        66.138755016547989,
        66.301750483924238,
        66.373727289556413,
        66.357740078556517,
        66.222788334455558,
        66.071158935416392,
        66.279903238260403,
        66.372630272421276,
        65.994098405226822,
        38.002458866620358,
        38.276347031821771,
        36.94639569291261,
        36.257027008189333,
        34.416244088103383,
        42.66216189368923,
        51.213146492994724,
        51.396121666113544,
        64.034114575775192,
        64.460690810044028,
        64.678545796869898,
        64.78966227312597,
        64.843591782973718,
        64.925529252926637,
        65.129110263061449,
        65.191399077679549,
        65.198229452177429,
        65.180500182798411,
        65.189090239677398,
        65.361521391387754,
        65.10157284455407,
        65.032158032769772,
        64.8651001788554,
        64.218320059850754,
        35.603453784890263,
        0.0,
        0.0,
        0.0,
        37.415943420948153,
        65.372718579866785,
        65.715552774685719,
        65.561099522552823,
        65.561099522552823,
        65.474609768662717,
        65.514852932225395,
        65.563949401625209,
        65.588309582612226,
        65.614406691202774,
        65.680731704083342,
        65.769330706775762,
        65.857478595880906,
        66.010804383751164,
        66.190684061239523,
        66.245890336277967,
        66.188247662709344,
        66.30231316051524,
        66.077237298583626,
        66.178316357856545,
        66.185411098669178,
        66.192501591260168,
        66.199589134782727,
        66.206673777905024,
        66.21375552299989,
        66.220832986504846,
        66.22790755785195,
        66.234979239403984,
        66.068054239317391,
        66.166275019102784,
        66.157542384113881,
        66.14880529562393,
        66.14006384193965,
        65.95732303457784,
        65.860779581136228,
        65.763697666833295,
        65.666071187395076,
        65.896119942372465,
        65.934520473691194,
        65.972836017204187,
        42.820061026099495,
        43.313393033454382,
        0.0,
        0.0,
        0.0
    ],
    "time": [
        0.02,
        0.040000000000000001,
        0.059999999999999998,
        0.080000000000000002,
        0.10000000000000001,
        0.12,
        0.14000000000000001,
        0.16,
        0.17999999999999999,
        0.20000000000000001,
        0.22,
        0.23999999999999999,
        0.26000000000000001,
        0.28000000000000003,
        0.29999999999999999,
        0.32000000000000001,
        0.34000000000000002,
        0.35999999999999999,
        0.38,
        0.40000000000000002,
        0.41999999999999998,
        0.44,
        0.46000000000000002,
        0.47999999999999998,
        0.5,
        0.52000000000000002,
        0.54000000000000004,
        0.56000000000000005,
        0.57999999999999996,
        0.59999999999999998,
        0.62,
        0.64000000000000001,
        0.66000000000000003,
        0.68000000000000005,
        0.69999999999999996,
        0.71999999999999997,
        0.73999999999999999,
        0.76000000000000001,
        0.78000000000000003,
        0.80000000000000004,
        0.81999999999999995,
        0.83999999999999997,
        0.85999999999999999,
        0.88,
        0.90000000000000002,
        0.92000000000000004,
        0.93999999999999995,
        0.95999999999999996,
        0.97999999999999998,
        1.0,
        1.02,
        1.04,
        1.0600000000000001,
        1.0800000000000001,
        1.1000000000000001,
        1.1200000000000001,
        1.1399999999999999,
        1.1599999999999999,
        1.1799999999999999,
        1.2,
        1.22,
        1.24,
        1.26,
        1.28,
        1.3,
        1.3200000000000001,
        1.3400000000000001,
        1.3600000000000001,
        1.3799999999999999,
        1.3999999999999999,
        1.4199999999999999,
        1.4399999999999999,
        1.46,
        1.48,
        1.5,
        1.52,
        1.54,
        1.5600000000000001,
        1.5800000000000001,
        1.6000000000000001,
        1.6200000000000001,
        1.6399999999999999,
        1.6599999999999999,
        1.6799999999999999,
        1.7,
        1.72,
        1.74,
        1.76,
        1.78,
        1.8,
        1.8200000000000001,
        1.8400000000000001,
        1.8600000000000001,
        1.8799999999999999,
        1.8999999999999999,
        1.9199999999999999,
        1.9399999999999999,
        1.96,
        1.98,
        2.0,
        2.02,
        2.04,
        2.0600000000000001,
        2.0800000000000001,
        2.1000000000000001,
        2.1200000000000001,
        2.1400000000000001,
        2.1600000000000001,
        2.1800000000000002,
        2.2000000000000002,
        2.2200000000000002,
        2.2400000000000002,
        2.2599999999999998,
        2.2799999999999998,
        2.2999999999999998,
        2.3199999999999998,
        2.3399999999999999,
        2.3599999999999999,
        2.3799999999999999,
        2.3999999999999999,
        2.4199999999999999,
        2.4399999999999999,
        2.46,
        2.48,
        2.5,
        2.52,
        2.54,
        2.5600000000000001,
        2.5800000000000001,
        2.6000000000000001,
        2.6200000000000001,
        2.6400000000000001,
        2.6600000000000001,
        2.6800000000000002,
        2.7000000000000002,
        2.7200000000000002,
        2.7400000000000002,
        2.7599999999999998,
        2.7799999999999998,
        2.7999999999999998,
        2.8199999999999998,
        2.8399999999999999,
        2.8599999999999999,
        2.8799999999999999,
        2.8999999999999999,
        2.9199999999999999,
        2.9399999999999999,
        2.96,
        2.98,
        3.0,
        3.02,
        3.04,
        3.0600000000000001,
        3.0800000000000001,
        3.1000000000000001,
        3.1200000000000001,
        3.1400000000000001,
        3.1600000000000001,
        3.1800000000000002,
        3.2000000000000002,
        3.2200000000000002,
        3.2400000000000002,
        3.2599999999999998,
        3.2799999999999998,
        3.2999999999999998,
        3.3199999999999998,
        3.3399999999999999,
        3.3599999999999999,
        3.3799999999999999,
        3.3999999999999999,
        3.4199999999999999,
        3.4399999999999999,
        3.46,
        3.48,
        3.5,
        3.52,
        3.54,
        3.5600000000000001,
        3.5800000000000001,
        3.6000000000000001,
        3.6200000000000001,
        3.6400000000000001,
        3.6600000000000001,
        3.6800000000000002,
        3.7000000000000002,
        3.7200000000000002,
        3.7400000000000002,
        3.7599999999999998,
        3.7799999999999998,
        3.7999999999999998,
        3.8199999999999998,
        3.8399999999999999,
        3.8599999999999999,
        3.8799999999999999,
        3.8999999999999999,
        3.9199999999999999,
        3.9399999999999999,
        3.96,
        3.98,
        4.0,
        4.0199999999999996,
        4.04,
        4.0599999999999996,
        4.0800000000000001,
        4.0999999999999996,
        4.1200000000000001,
        4.1399999999999997,
        4.1600000000000001,
        4.1799999999999997,
        4.2000000000000002,
        4.2199999999999998,
        4.2400000000000002,
        4.2599999999999998,
        4.2800000000000002,
        4.2999999999999998,
        4.3200000000000003,
        4.3399999999999999,
        4.3600000000000003,
        4.3799999999999999,
        4.4000000000000004,
        4.4199999999999999,
        4.4400000000000004,
        4.46,
        4.4800000000000004,
        4.5,
        4.5199999999999996,
        4.54,
        4.5599999999999996,
        4.5800000000000001,
        4.5999999999999996,
        4.6200000000000001,
        4.6399999999999997,
        4.6600000000000001,
        4.6799999999999997,
        4.7000000000000002,
        4.7199999999999998,
        4.7400000000000002,
        4.7599999999999998,
        4.7800000000000002,
        4.7999999999999998,
        4.8200000000000003,
        4.8399999999999999,
        4.8600000000000003,
        4.8799999999999999,
        4.9000000000000004,
        4.9199999999999999,
        4.9400000000000004,
        4.96,
        4.9800000000000004,
        5.0,
        5.0199999999999996,
        5.04,
        5.0599999999999996,
        5.0800000000000001,
        5.0999999999999996,
        5.1200000000000001,
        5.1399999999999997,
        5.1600000000000001,
        5.1799999999999997,
        5.2000000000000002,
        5.2199999999999998,
        5.2400000000000002,
        5.2599999999999998,
        5.2800000000000002,
        5.2999999999999998,
        5.3200000000000003,
        5.3399999999999999,
        5.3600000000000003,
        5.3799999999999999,
        5.4000000000000004,
        5.4199999999999999,
        5.4400000000000004,
        5.46,
        5.4800000000000004,
        5.5,
        5.5199999999999996,
        5.54,
        5.5599999999999996,
        5.5800000000000001,
        5.5999999999999996,
        5.6200000000000001,
        5.6399999999999997,
        5.6600000000000001,
        5.6799999999999997,
        5.7000000000000002,
        5.7199999999999998,
        5.7400000000000002,
        5.7599999999999998,
        5.7800000000000002,
        5.7999999999999998,
        5.8200000000000003,
        5.8399999999999999,
        5.8600000000000003,
        5.8799999999999999,
        5.9000000000000004,
        5.9199999999999999,
        5.9400000000000004,
        5.96,
        5.9800000000000004,
        6.0,
        6.0199999999999996,
        6.04,
        6.0599999999999996,
        6.0800000000000001,
        6.0999999999999996,
        6.1200000000000001,
        6.1399999999999997,
        6.1600000000000001,
        6.1799999999999997,
        6.2000000000000002,
        6.2199999999999998,
        6.2400000000000002,
        6.2599999999999998,
        6.2800000000000002,
        6.2999999999999998,
        6.3200000000000003,
        6.3399999999999999,
        6.3600000000000003,
        6.3799999999999999,
        6.4000000000000004,
        6.4199999999999999,
        6.4400000000000004,
        6.46,
        6.4800000000000004,
        6.5,
        6.5199999999999996,
        6.54,
        6.5599999999999996,
        6.5800000000000001,
        6.5999999999999996,
        6.6200000000000001,
        6.6399999999999997,
        6.6600000000000001,
        6.6799999999999997,
        6.7000000000000002,
        6.7199999999999998,
        6.7400000000000002,
        6.7599999999999998,
        6.7800000000000002,
        6.7999999999999998,
        6.8200000000000003,
        6.8399999999999999,
        6.8600000000000003,
        6.8799999999999999,
        6.9000000000000004,
        6.9199999999999999,
        6.9400000000000004,
        6.96,
        6.9800000000000004,
        7.0,
        7.0199999999999996,
        7.04,
        7.0599999999999996,
        7.0800000000000001,
        7.0999999999999996,
        7.1200000000000001,
        7.1399999999999997,
        7.1600000000000001,
        7.1799999999999997,
        7.2000000000000002,
        7.2199999999999998,
        7.2400000000000002,
        7.2599999999999998,
        7.2800000000000002,
        7.2999999999999998,
        7.3200000000000003,
        7.3399999999999999,
        7.3600000000000003,
        7.3799999999999999,
        7.4000000000000004,
        7.4199999999999999,
        7.4400000000000004,
        7.46,
        7.4800000000000004,
        7.5,
        7.5199999999999996,
        7.54,
        7.5599999999999996,
        7.5800000000000001
    ]
}