{
	"f0": [NaN,35.34887861,36.31800277,36.35595827,36.30716885,36.30038959,36.26533818,36.25283003,36.3278126,42.60652052,41.21494421,40.74318912,59.65912963,60.01890163,60.21530033,60.31914042,60.27291813,60.28016967,60.26208772,60.18103624,60.0384777,59.89848005,59.89612284,59.89510332,59.72161269,59.55034992,59.56544695,59.5536143,59.78144408,60.0424281,60.10301764,59.95024593,59.85934301,59.85720205,59.86624506,59.82195371,59.79869286,59.84474535,59.86928299,59.80037841,59.71983276,59.69106951,59.67300804,59.69012693,59.71775828,59.71090307,59.69116114,59.68256878,59.69132573,59.72033579,59.73974796,59.74272583,59.73911254,59.70086849,59.67979647,59.66251332,59.61318065,59.6104751,59.54910091,59.48488918,59.43815434,59.33184483,59.1949142,59.20512235,59.29586314,59.25904306,59.18373241,59.20962957,59.30319921,59.21692032,58.9461555,58.97109326,59.32711619,59.76191807,60.08899214,60.19376209,60.22218343,60.30867942,60.49344601,60.82052186,61.25783278,61.81491054,62.20621997,62.36509194,62.32978613,62.05150201,61.67195569,61.1942019,55.61116019,47.90292079,47.24209754,54.51525634,40.09840838,39.68389512,60.6045977,60.63726392,60.55884767,60.37930452,60.23964584,60.2092642,60.23379107,60.19686809,60.13806751,60.05372531,59.88002475,59.75078006,59.76161545,59.77005061,59.71256212,59.6472838,59.639877,59.627456,59.58650128,59.64361918,59.77200837,59.85461263,59.92694603,59.97290686,59.84263369,59.59326129,59.123884,56.20089263,36.32394329,36.15725009,36.25379782,36.33040771,35.34887861,47.62368344,43.67764587,54.88611559,54.53856861,53.96251509,53.38886316,53.26350024,53.41713871,53.25605925,53.3365528,60.44184375,55.54255566,53.46717707,51.66081541,51.23186812,55.41452376,36.28272124,36.34730778,36.24589307,36.46895143,36.47238074,36.42265635,38.01513219,38.93794622,36.6785446,36.35419623,36.35180306,36.27409424,36.26679501,36.24443835,36.21849241,36.18939225,36.23907646,42.62764958,60.84890159,60.53199852,60.47040034,60.48123868,60.48089445,60.43255439,60.34851943,60.21192664,60.06824587,59.9171628,59.60507365,59.36390419,59.39693004,59.534479,59.58168269,59.57366162,59.5752051,59.53678731,59.52870542,59.55340961,59.63700978,59.73649822,59.75989396,59.73096483,59.7344073,59.84763902,59.93191461,59.87836867,59.81286601,59.80206149,59.7624483,59.71301629,59.7337474,59.87043486,59.91306495,59.72130602,59.48573577,50.77284574,40.52377367,41.03339107,51.30767355,51.2982748,49.03564564,48.17710493,42.32427737,57.66886876,59.66021389,59.84586388,59.88054896,59.87888837,59.91210819,60.06912207,60.44779235,61.0712303,61.57521708,61.88694046,62.04513677,62.14324896,62.13117339,61.82600796,61.44753327,60.30476463,55.81373067,36.25842282,38.58546164,46.03670986,60.3694082,60.37593896,60.30313535,60.15189548,60.04375218,59.85846214,59.7202159,59.82793988,59.90329869,59.85136318,59.87257244,59.87354174,59.78113845,59.69608714,59.65515953,59.70583075,59.77075807,59.79969879,59.76916364,59.68625851,59.62673765,59.61682417,59.66271704,59.7152561,59.68991274,59.6317275,59.69249146,59.85304379,59.87605547,58.60989374,55.78826823,35.87615138,41.79856151,62.50046628,61.9811657,61.9303254,62.01900291,62.29373014,62.57309348,62.79107721,63.02095706,63.31626116,63.62160134,63.81673018,63.8704312,63.82390368,63.75296056,63.72532635,63.71317998,63.68028241,63.64059898,63.58148478,63.57395725,63.99093653,36.2965195,36.24278318,35.39879177,36.26548484,36.29773474,35.41717196,35.34887861,35.34887861,36.38522016,45.78580198,46.68036542,46.52272931,48.62137826,49.24289201,43.52861984,53.27224099,53.18123579,51.89452109,51.89328657,60.35521694,60.34247683,60.2916874,60.17757398,60.01332572,59.8024012,59.65171654,59.63182293,59.65740087,59.71300879,59.82762454,59.9258558,59.90733335,59.7729503,59.59210538,59.33261326,58.92084168,58.25521518,57.68698015,57.59936824,57.56148291,57.53802896,57.78249187,58.05044286,57.90218734,57.61989809,NaN,NaN],
	"ap0": [NaN,0.8750315637,0.8970787031,0.4162580114,0.3003978794,0.2956503401,0.3364121575,0.3095905826,0.6805159256,0.875686896,0.6526267557,0.5254675618,0.4319642525,0.04124872733,0.005628838632,0.001385507839,0.001137226378,0.001237607783,0.001408059447,0.001321021821,0.002442156607,0.001698460754,0.00123406931,0.001449698816,0.003495960021,0.001548808976,0.001232346166,0.001789979504,0.008879165267,0.006555301784,0.002164885925,0.002016233811,0.00148984333,0.001515666533,0.001422395472,0.001203307499,0.0009901173167,0.00111229799,0.001171481996,0.001685216999,0.00111050364,0.0009073323101,0.0009389568849,0.001073553458,0.001165117834,0.001267262877,0.001480914182,0.001487873932,0.001103755092,0.001289529609,0.001251668584,0.0009732219249,0.001084488938,0.001329010426,0.001730808723,0.002710233292,0.002040296919,0.000821957793,0.00104524687,0.0007987359462,0.001105121469,0.002105326833,0.00169333002,0.001599405454,0.001319368188,0.002319373633,0.002768924483,0.003998891187,0.005078260159,0.04084659558,0.03065677676,0.01264176842,0.009846899313,0.008789967762,0.003868332458,0.001999854359,0.001516526728,0.001941055235,0.002406484312,0.005488560711,0.009996556404,0.009973662844,0.003632405668,0.00097561,0.002143430926,0.01446451509,0.03262673803,0.2096790094,0.9507372651,0.602867153,0.7747149419,0.8076408764,0.7548547595,0.5261172274,0.0954595962,0.02526348195,0.002294921133,0.001887953957,0.00127487682,0.0007570379798,0.0007465015717,0.001125073769,0.0008150689883,0.001614094428,0.002584084371,0.001133602593,0.001001593903,0.0008007917136,0.00068545818,0.0007130705125,0.0008938513245,0.001027532215,0.0009256966414,0.001306814954,0.001236706777,0.0006925239199,0.001113937428,0.001189728258,0.004595705072,0.02492290445,0.09837932703,0.9339199647,0.299642222,0.3920638735,0.6538195617,0.5169157078,1.766922198,0.5751964816,0.6112874979,0.09406904772,0.02739436902,0.05319283526,0.08777614508,0.1373513747,0.3554869589,0.6508923235,0.7583674009,0.5203277174,0.8582847539,0.7269648878,0.4205158479,0.44923965,0.9999731439,0.452928612,0.4288530027,0.480733374,0.5595140079,0.4821058489,0.5485445319,0.5868297376,0.5618799493,0.5714465344,0.4781282767,0.4912120157,0.5697201234,0.6707552593,0.7634359277,0.4464032758,0.2860977617,0.3947646138,1.853652478,0.1250513244,0.03555098284,0.005511674822,0.001674749796,0.001710583632,0.001431818434,0.001403336573,0.0027930158,0.001232476683,0.003911591264,0.00600945383,0.001295399323,0.001395680467,0.001456121856,0.0009982273496,0.0009885506225,0.0008516681784,0.0008050895644,0.0007204096009,0.0007386241893,0.001314420915,0.0008167045817,0.0008746110724,0.0009725100219,0.001079913512,0.001450617047,0.0007636365262,0.001142696839,0.0008956636243,0.0007808029581,0.0008610441361,0.0007607445904,0.0008818822535,0.002007002974,0.003591512455,0.0352254443,0.2450634045,0.716862116,0.4771973396,0.5825630423,0.6982568853,0.6577995265,0.8119697367,0.7687224299,0.8617279092,0.8089694439,0.1987967702,0.02953599819,0.002014260935,0.0009115138831,0.0008558865618,0.002679302961,0.009499108128,0.01104519599,0.004914030003,0.001760190341,0.0008868082089,0.0009457822124,0.001213316985,0.0139657423,0.03390902661,0.3336132586,1.015936766,0.3029064887,1.592448018,0.4676347813,0.1733235519,0.04299710659,0.002150750232,0.001395588652,0.001246572583,0.006719884991,0.007215501633,0.005542930382,0.001747288932,0.001740360052,0.001819468431,0.001154222791,0.001109309613,0.001067026002,0.0006856309332,0.0007810274284,0.0005536965952,0.0005861523258,0.0008544260858,0.0009778397734,0.0007946296668,0.0006933494717,0.0007070892702,0.000518398137,0.0007287753919,0.0008404791352,0.001734650337,0.004495314486,0.03384282956,0.3471478068,0.6557082745,0.2633544977,2.097948056,0.3045531555,0.0683867296,0.01030448518,0.004430594274,0.00594890999,0.002556450159,0.002461762049,0.002535315474,0.005040416069,0.003547005598,0.00153802331,0.0007201739883,0.0008786981617,0.0007452264565,0.0006934312342,0.0007773681635,0.0009815212231,0.002873388972,0.01080129772,0.07108599423,0.9796865385,0.4936625511,0.3516021944,0.4029421803,0.4091156485,0.2935065681,0.3246415312,0.3620675029,0.3477455288,0.7465187183,0.5497163958,0.5935457597,0.7144392103,0.5763268576,0.6457868247,0.902740462,0.6734060757,0.542034538,0.6895156117,0.7392232586,0.08459696716,0.03112082755,0.001884745813,0.001723674455,0.002527968623,0.002422371842,0.001101248664,0.0008474304838,0.0007542648959,0.001131920679,0.001558657517,0.001195101603,0.001077807955,0.001124285076,0.002104726488,0.003813577248,0.01063342053,0.01885951473,0.002821308976,0.00074759132,0.001441956025,0.001691120783,0.003950344525,0.002325544593,0.2344948524,0.4601596604,NaN,NaN],
	"ap": [NaN,0.01508383164,0.03696315511,0.03063135416,0.01253441857,0.009778556171,0.02006216605,0.0143733563,0.01330394216,0.06065820399,0.4943908011,0.2249044638,0.623071159,0.3847215255,0.2581519978,0.002104306812,0.0003706459588,0.0004126339889,0.0005841480819,0.002025425381,0.002859509795,0.003360088582,0.0008936547852,0.0007196505222,0.002830100994,0.003252342395,0.0004460698592,0.000797906797,0.002631405772,0.0147816165,0.002420908417,0.003976696366,0.001167966479,0.0009256486215,0.0005094472771,0.001082048248,0.0007406241503,0.0002765984445,0.0002861984191,0.001017341704,0.0008071138799,0.0005452938582,0.0002984831086,0.000282156178,0.001355033188,0.0004489120786,0.0006621815109,0.0008491244325,0.0007338912539,0.0003784396971,0.000920810778,0.0003583040272,0.0002874153539,0.001386130147,0.0001660062774,0.00118464005,0.0009112026596,0.001298446338,0.0005115562457,0.0003233777678,0.0005808083535,0.0007277238898,0.001044391436,0.001551109011,0.0009965075836,0.001270718925,0.0005241945287,0.002678601277,0.001884475726,0.002205431152,0.009014447387,0.02342845149,0.01772376244,0.02145183711,0.01119548916,0.001644865463,0.001214748356,0.001930079776,0.003257065213,0.005370556458,0.01884029071,0.02334687145,0.01169027718,0.001942057563,0.0002654959199,0.005665723967,0.005214907419,0.004698744585,0.06759438075,0.0446564593,0.02265400601,0.5249275731,0.2650506288,0.473198995,0.2522933967,0.3553635659,0.001263660998,0.002799074394,0.001301700266,0.0006727986806,0.0007440881152,0.0007334293359,0.0005351367345,0.0009568075932,0.002636128673,0.001987053759,0.0005542910805,0.0006637363338,0.0003842671216,0.0005257778262,0.0003676261166,0.0005601975944,0.0002373755383,0.0007544154116,0.001624766687,0.001106170312,0.0006209439268,0.0009349677311,0.002476144906,0.005514916284,0.007025570027,0.5022289167,0.006622890801,0.003482939599,0.003649173697,0.01246752409,0.0107749592,0.04323652938,0.4628280876,0.8348779066,0.1230871827,0.0210992018,0.01813531738,0.05950962232,0.07893766243,0.299407277,0.2362573458,0.1940578444,0.1354503712,0.0416852696,0.0159993249,0.02299886106,0.03132593631,0.003809895457,0.004302862575,0.00776352676,0.0183443193,0.009131328548,0.01938630818,0.03496879996,0.01142739365,0.01464148691,0.01734521993,0.007994142824,0.01395936309,0.007018687681,0.01230056324,0.008792319128,0.004601367395,0.007388880443,0.02796547575,0.02560406093,0.02445734578,0.0451291033,0.002331628585,0.0001509669103,0.0009259507883,0.001377572009,0.002030166964,0.003685450817,0.001663984711,0.00816721248,0.003008451198,0.000625191502,0.001276188012,0.0008065879085,0.000348348916,0.0007071972866,0.0006397338204,0.0003106688105,0.0005159380165,0.0003490466464,0.0008489334671,0.0004064757437,0.0004467978198,0.0006326972854,0.001426556194,0.0008341534732,0.000499709338,0.0006466942593,0.0003835141157,0.0005256006225,0.0006298560193,0.0003040971071,0.001798789977,0.0005573969965,0.004837188299,0.006127916546,0.5239257115,0.2485470298,0.1803457849,0.3478624648,0.2104000977,0.3005477773,0.3476436765,0.2350624092,0.2899510459,0.2600897657,0.2128313739,0.1035641038,0.001062596804,0.0004432810908,0.001647978402,0.008242502182,0.0254791845,0.0157913394,0.005744902455,0.001486961066,0.0005974964533,0.0003836615359,0.004997741382,0.0111645861,0.02396553827,0.1243830293,0.0172234269,0.02520167205,0.05968864794,0.04830817816,0.7997954455,0.002163510059,0.002315998519,0.00114657415,0.002066628258,0.001278381802,0.01708910333,0.001615872889,0.0004476392193,0.0003962217284,0.000376594362,0.001093355745,0.001110618767,0.001011297638,0.0003566471819,0.0004237512613,0.0003537059069,0.0001172947999,0.0005490007938,0.0007179007333,0.0005551701215,0.0002337485586,0.0005299340431,0.000184690174,0.0008330825612,0.0008642758766,0.001563580719,0.0004672044543,0.06257212228,0.179989312,0.01541296454,0.03627150716,0.01625516264,0.04180279724,0.2845961943,0.002415613154,0.01465021573,0.005354952379,0.003803759343,0.004765367153,0.007755826641,0.01015320839,0.003637774494,0.0004920456955,0.0009522971923,0.001217598188,0.0004727332969,0.0004522040434,0.000354038939,0.0009371408088,0.0004542258674,0.006320107804,0.06677385824,0.02314679625,0.006996301558,0.009697917624,0.01407912219,0.01092898386,0.01600184545,0.0143688785,0.01366951964,0.01117525988,0.05676360512,0.1391724177,0.1503848686,0.2098270477,0.9270476132,0.5248559288,0.6507307195,0.3577153096,0.4909773119,0.2074570603,0.3644639382,0.7152238069,0.003484923584,0.002182204371,0.002891114357,0.003883678491,0.001570319911,0.0008792611667,0.0004220444779,0.0006404516689,0.001420738122,0.001119019611,0.0005202811726,0.002432531824,0.002052208639,0.005896715874,0.01082488847,0.02847153322,0.01517298303,0.0004922855579,0.0001903803409,0.0009004526553,0.003630491647,0.005560920555,0.002647644916,0.01157566133,NaN,NaN],
	"pwr": [NaN,2.017311544e-05,1.857315427e-05,2.003707787e-05,1.391337813e-05,1.335082532e-05,1.487921136e-05,1.458782174e-05,1.531875805e-05,1.563467521e-05,1.362576895e-05,0.04773573982,0.02307452844,0.0005151914591,0.001764359116,0.03249986241,0.02984959495,0.03029326031,0.03008079821,0.03131077947,0.02788979324,0.03425521795,0.03671549898,0.04355057609,0.03978902965,0.04156084223,0.03088526575,0.02455735867,0.02011106901,0.02654916972,0.0479930167,0.04063782707,0.03744311799,0.03744524782,0.0318893528,0.0311983004,0.02901522612,0.0322887004,0.03225529761,0.03323406308,0.03228851945,0.03528128444,0.03386351473,0.03404916889,0.03171906239,0.03615772493,0.03262096203,0.0327989259,0.02932246808,0.03054204327,0.03121216544,0.03461034662,0.03260312544,0.03150720521,0.02397322751,0.01790402807,0.01081153829,0.005759658964,0.004992414222,0.005201425398,0.004567660568,0.004209693046,0.003510694434,0.002898618872,0.002192520239,0.001758390829,0.001517916553,0.001017112822,0.000692502017,0.0006814980725,0.0005445196204,0.0008752982641,0.009277311511,0.03659507191,0.07276259307,0.110169797,0.1338498573,0.1266727474,0.09989502915,0.08739136088,0.06330932278,0.07119741094,0.06977860809,0.0700504069,0.06526698746,0.07227471942,0.07055481341,0.04244692441,9.264556595e-05,4.448639551e-05,3.483898418e-05,0.0002574552653,5.929869888e-05,0.0001163281479,0.0003193868188,0.000315666685,0.06486681578,0.09011473694,0.0881898418,0.08425466192,0.07744500705,0.07514556384,0.06532614131,0.06560135967,0.05292622166,0.04833296651,0.04152169073,0.04105733809,0.03212182111,0.02921332107,0.02632931006,0.02638098722,0.02274622168,0.02273531906,0.02020869435,0.02065593021,0.01779629916,0.01916808902,0.01932940242,0.02020543129,0.01368819489,0.000444011711,5.781194769e-05,5.535715462e-05,6.032361846e-05,4.504760291e-05,2.832362803e-05,1.625672681e-05,5.385954827e-05,0.002490615469,0.002629423696,0.006691780939,0.003336297904,0.001880430102,0.001109726986,8.059700132e-05,0.0001279322686,4.079078517e-05,4.12324329e-05,4.295337827e-05,4.228844655e-05,4.470584571e-05,4.56635416e-05,5.481834112e-05,5.41666012e-05,5.869277448e-05,5.748466717e-05,5.085799692e-05,4.487753182e-05,4.426495794e-05,4.293126484e-05,4.751721344e-05,4.450359815e-05,5.464228535e-05,5.356868002e-05,5.94786113e-05,4.73383951e-05,5.015246974e-05,5.122211089e-05,5.786368864e-05,4.572824595e-05,3.298268833e-05,2.272221875e-05,0.00312075721,0.009789208959,0.01434273646,0.01578090861,0.01685673733,0.01611054306,0.01622354782,0.01420933261,0.01430566537,0.01251840761,0.01299945982,0.01227623425,0.01364822577,0.01260402598,0.01330560866,0.01260965707,0.01402203613,0.01352791991,0.01482970483,0.01480598185,0.01617742129,0.01611184982,0.01813161706,0.01754354118,0.01881947616,0.01926324947,0.02253883405,0.02185295472,0.02269910812,0.02090895438,0.02404885661,0.02549643266,0.0277241289,0.02519868162,0.01908970756,0.002117126202,0.0007585076563,0.0005786468647,0.0002128785547,0.0001191815335,0.000109506933,0.0001558843141,0.0001125296041,8.843928235e-05,6.251812589e-05,1.850001081e-05,0.004081991313,0.02299128666,0.0299129603,0.03240858367,0.03491112198,0.03287102417,0.03189947834,0.0322178436,0.03830275965,0.03838983851,0.04115682788,0.04055047619,0.04318000682,0.02716584605,2.586660515e-05,1.821587953e-05,1.569683723e-05,1.237740193e-05,1.697221027e-05,0.001578331822,0.08493913992,0.0776172206,0.06500424902,0.05380490699,0.0486922143,0.04067220601,0.03751929741,0.03068229534,0.0299270279,0.02473615833,0.02245665958,0.01964520752,0.0193812626,0.01691779899,0.01642721083,0.01538980631,0.01644581394,0.01558280686,0.01646396516,0.01509813651,0.01708731876,0.01584240458,0.016675651,0.01618925985,0.01725021297,0.01577520098,0.01606604461,0.0130825333,5.812507768e-05,1.826374367e-05,2.225156508e-05,3.358308625e-05,3.680081117e-05,0.004337330275,0.03235979482,0.02725899856,0.02988336379,0.02679684366,0.02654145513,0.02400362958,0.02571662815,0.02389031757,0.02659270246,0.02547256446,0.0273485231,0.02318616963,0.02199723212,0.01844353049,0.01554972573,0.009849600413,0.004367659458,7.129044157e-05,1.783663896e-05,2.749966944e-05,3.704151057e-05,2.650717044e-05,2.144639776e-05,1.946369323e-05,2.134583137e-05,2.327535506e-05,1.720098214e-05,1.63567363e-05,1.314747329e-05,4.535280009e-05,7.148411162e-05,0.0004169115753,0.00204040167,0.0008267103263,6.581511477e-05,0.0001118349789,0.0001072989647,0.0001261288876,0.0003149598251,0.09104946898,0.1005125326,0.07366859044,0.0604679692,0.04304008334,0.03805498524,0.02960996559,0.0276187893,0.02403974255,0.02438197501,0.02122010461,0.02123527239,0.0199009696,0.02082567419,0.02011616347,0.02127443643,0.01839218812,0.01684403295,0.01672261003,0.01603622673,0.0136666109,0.01320699408,0.01253731259,0.02149671294,NaN,NaN],
	"sr": 16000,
	"range": [1,104961],
	"minf0": 63.1883,
	"maxf0": 706.3069,
	"thresh": 0.1,
	"relflag": 1,
	"hop": 320,
	"bufsize": 10000,
	"wsize": 640,
	"lpf": 4000,
	"shift": 0,
	"plotthreshold": 0.2
}
