{
    "DU": 208,
    "DV": 343,
    "F-measure": 0.9666048237476809,
    "F-measure Chroma": 0.974025974025974,
    "FN": 2,
    "FNC": 0,
    "FNCch": 2,
    "FNI": 2,
    "FNIch": 0,
    "FP": 22,
    "GU": 228,
    "GV": 323,
    "Overall Accuracy": 0.9455535390199638,
    "Overall Chroma Accuracy": 0.9528130671506352,
    "Precision": 0.9489981785063752,
    "Precision Chroma": 0.9562841530054644,
    "Raw Chroma Accuracy": 0.9938080495356038,
    "Raw Pitch Accuracy": 0.9752321981424149,
    "Recall": 0.9848771266540642,
    "Recall Chroma": 0.9924385633270322,
    "TN": 206,
    "TO": 551,
    "TP": 321,
    "TPC": 315,
    "TPCch": 319,
    "TPI": 6,
    "TPIch": 2,
    "Voiced Chroma Accuracy": 0.9876160990712074,
    "Voiced Pitch Accuracy": 0.9752321981424149,
    "Voicing Accuracy": 0.956442831215971,
    "Voicing Detection": 0.9938080495356038,
    "Voicing False Alarm": 0.09649122807017543
}