{
    "f0": [
        0.0,
        0.0,
        0.0,
        0.0,
        0.0,
        0.0,
        0.0,
        0.0,
        0.0,
        0.0,
        0.0,
        0.0,
        0.0,
        0.0,
        0.0,
        0.0,
        0.0,
        0.0,
        0.0,
        49.194833618590209,
        49.367093054533363,
        0.0,
        0.0,
        0.0,
        0.0,
        0.0,
        0.0,
        0.0,
        0.0,
        0.0,
        0.0,
        0.0,
        0.0,
        0.0,
        0.0,
        0.0,
        0.0,
        0.0,
        0.0,
        0.0,
        37.097420383260783,
        35.682093200241432,
        35.154771581163601,
        34.61241475875849,
        43.237852336019841,
        39.097916392019258,
        37.488126763597215,
        36.446462550089002,
        40.170876258946549,
        37.678899271017535,
        37.956556566886135,
        39.067648040434825,
        38.988447144378249,
        36.54436488552512,
        37.898416811993876,
        38.782461489742467,
        34.918306571252494,
        35.266376336677489,
        34.885709314356504,
        34.445065931949543,
        34.84045009367378,
        35.535143650079519,
        0.0,
        43.196058532607495,
        43.196058532607495,
        49.712112071619863,
        46.660905731866372,
        44.633039237766866,
        44.459998723297083,
        44.429657577013202,
        44.404203999667409,
        44.211739140042084,
        43.959723580681967,
        43.811654450158237,
        43.912463261833565,
        44.068763941019682,
        44.195898845050166,
        44.643783602153803,
        45.123517982660772,
        45.569325202753248,
        45.664425843253809,
        45.578912920112103,
        45.42774809698188,
        44.42017895794622,
        0.0,
        0.0,
        0.0,
        0.0,
        0.0,
        0.0,
        0.0,
        0.0,
        0.0,
        0.0,
        0.0,
        0.0,
        49.928623074475752,
        49.40130188793357,
        49.406612628542277,
        49.578878538695207,
        50.090616497837942,
        50.58766120209475,
        51.070832913435765,
        51.540885067322833,
        51.99851123526463,
        52.191689278152936,
        52.687038841597925,
        52.878690511259549,
        52.96134786244243,
        53.238588279987383,
        53.795932433139839,
        54.541440272248231,
        55.539537592425319,
        56.175376363730798,
        56.291129015594713,
        56.136619987765101,
        56.123296609395155,
        55.999105248727766,
        55.633912062615948,
        55.578630539401487,
        55.699487478345638,
        55.895848755036852,
        55.818546307250962,
        55.843895638181507,
        56.049800054781983,
        56.032736730021398,
        55.862033402046876,
        55.678174597771601,
        55.565768060476366,
        55.472389716341851,
        55.517400186853124,
        55.711853879875484,
        56.002616192201039,
        56.122193860582307,
        56.21816839846872,
        56.293995916299416,
        56.336472399510114,
        56.239873575589201,
        56.067761520935306,
        55.946817108976468,
        55.986168288652152,
        56.227591285416224,
        56.709119367610334,
        57.402408784291488,
        57.611458023660433,
        57.826658181715658,
        57.76237033097788,
        57.635026989968125,
        57.451884186934272,
        57.403749673538172,
        57.348669673173788,
        57.296838395324912,
        57.565123146169491,
        57.600479153773747,
        57.373053657694186,
        56.487333462396407,
        55.014708440071551,
        54.381981400706337,
        53.224793812671159,
        50.847522075170943,
        48.814863023742141,
        44.686377346434085,
        39.545260910845698,
        46.940817774567783,
        36.121608170374564,
        36.842735339941136,
        54.244198078668134,
        54.315494294604861,
        54.794146914473714,
        55.574436647023546,
        56.239903669748571,
        56.780542837667895,
        57.152823983576624,
        57.246378635755534,
        57.286102258122185,
        57.178362275468679,
        57.433729672850554,
        57.713359629117825,
        57.420914887750953,
        56.985673935668878,
        55.716731001128935,
        54.447546346659195,
        53.868428686608397,
        55.32642577122833,
        0.0,
        0.0,
        0.0,
        0.0,
        0.0,
        0.0,
        55.821154496446347,
        55.668485437014553,
        55.452479937560575,
        55.62474021829351,
        56.195921514295414,
        56.728270231733219,
        57.426991415906059,
        45.856862723954052,
        45.886205865118299,
        45.388179474234654,
        45.33005317284811,
        45.251685878973227,
        45.17296472143596,
        44.964134829507714,
        44.46878825242316,
        44.10566068382397,
        43.734749284124661,
        55.722690071262065,
        55.657956503991365,
        55.489960412516055,
        55.198417018269261,
        55.254971846804139,
        43.360473498711237,
        43.547183904098475,
        43.547247918693301,
        41.800952613559787,
        55.209748410962597,
        55.218160515616887,
        55.398831860621875,
        55.564398381444974,
        55.606397462003031,
        55.478096484379556,
        55.299054874911469,
        54.969317881140817,
        54.633179902628015,
        54.11639320644413,
        53.323886703071359,
        53.141861766445729,
        53.31222257045431,
        53.200656636759483,
        53.042625523012774,
        52.732241284782546,
        52.836025896168422,
        53.093796929055749,
        53.421432265719915,
        53.451670550853017,
        53.448897914962714,
        53.559344886262124,
        53.757612446274365,
        53.875917621880589,
        54.071285544124287,
        54.22602040141691,
        54.226055685888127,
        54.3714688403658,
        54.342242125318606,
        54.234449591270248,
        53.900003875688469,
        53.758588476237989,
        53.577237875030704,
        53.413568284004995,
        53.200837648782532,
        52.835528042297163,
        51.65109907645072,
        51.332634519160493,
        51.008201662872374,
        50.849836304439862,
        50.946116430418911,
        51.453799791161188,
        51.574065562667627,
        52.051959203089496,
        52.448163099406642,
        52.656898384130145,
        52.692893133877753,
        52.905000924006686,
        52.941589111645861,
        52.696639310443409,
        52.679356489871722,
        52.718998291932508,
        52.872670102572791,
        53.140785826011204,
        53.347888363544499,
        53.533644213924859,
        53.178022183967698,
        52.814943158422537,
        52.851389368765624,
        52.41184471775869,
        52.120416535773273,
        52.75995631089804,
        0.0,
        0.0,
        0.0,
        53.881166345262905,
        53.531408505123117,
        53.87423490404835,
        54.385964556083863,
        54.836197254236311,
        55.233729309390057,
        55.468540027332672,
        55.606791833631263,
        55.638274693625831,
        55.693644735587881,
        55.694908512602169,
        55.512198341501147,
        55.304921032996361,
        55.399220458439437,
        55.493008935314634,
        55.474763367715795,
        55.413783737540157,
        55.409519523083716,
        55.40577429391405,
        55.230996494226858,
        54.984975736453777,
        54.942940744309688,
        55.102388798420108,
        55.2603830199795,
        55.485290298794965,
        55.979540176175867,
        56.555265780968639,
        57.145057334158381,
        57.080363181959981,
        56.847560625833545,
        57.039702943390786,
        57.166796019937735,
        56.974479649598507,
        56.577580167319404,
        56.36813159421559,
        56.354069204289971,
        56.361589602024175,
        56.187301928832611,
        55.981479834772685,
        56.131078259027475,
        56.538500044150439,
        56.789361939649055,
        57.109350970367039,
        57.323368585489675,
        57.13273842542587,
        56.953225262265292,
        56.80661879965087,
        56.701125504587409,
        56.705533920024209,
        57.246338371436948,
        57.306575849858895,
        57.249690540177554,
        57.192617698996514,
        57.307619828776012,
        57.428070305942995,
        57.017288203152894,
        56.405380879792489,
        55.988781965799816,
        56.129675461838609,
        56.170902663698755,
        56.26124837831938,
        56.682975531202217,
        57.070037253885758,
        57.632949107312982,
        57.490140507416271,
        57.346142847516163,
        57.156358465695348,
        56.964469331940286,
        56.942691822984031,
        57.346592459872795,
        56.762104678776062,
        56.819362405028542,
        56.962225234648216,
        57.573158993193267,
        58.287990491827557,
        58.401194580666065,
        58.47553706021418,
        58.549561663563871,
        58.512127351542489,
        57.805682566963227,
        56.426076981206343,
        55.452793761276887,
        53.970450319897139,
        53.443000409162551,
        53.352014358969335,
        53.878979311415854,
        0.0,
        0.0,
        0.0,
        0.0,
        0.0,
        0.0,
        0.0,
        0.0,
        0.0,
        0.0,
        0.0,
        0.0,
        0.0,
        0.0,
        0.0,
        0.0,
        0.0,
        0.0,
        0.0,
        0.0,
        0.0,
        0.0,
        0.0,
        0.0,
        0.0,
        0.0,
        0.0,
        0.0,
        0.0,
        0.0,
        0.0,
        0.0,
        0.0,
        53.899145069554564,
        52.3905239081503,
        46.420495771190772,
        60.431887329881484,
        46.903509831847373,
        60.370409596081103,
        43.648489739421791,
        37.260131675119098,
        43.79276594305658,
        35.43494525016132,
        44.557554694067662,
        43.004771245171924,
        46.47625050146479,
        0.0,
        0.0,
        0.0,
        0.0,
        0.0,
        0.0,
        0.0,
        0.0,
        0.0,
        0.0
    ],
    "time": [
        0.02,
        0.040000000000000001,
        0.059999999999999998,
        0.080000000000000002,
        0.10000000000000001,
        0.12,
        0.14000000000000001,
        0.16,
        0.17999999999999999,
        0.20000000000000001,
        0.22,
        0.23999999999999999,
        0.26000000000000001,
        0.28000000000000003,
        0.29999999999999999,
        0.32000000000000001,
        0.34000000000000002,
        0.35999999999999999,
        0.38,
        0.40000000000000002,
        0.41999999999999998,
        0.44,
        0.46000000000000002,
        0.47999999999999998,
        0.5,
        0.52000000000000002,
        0.54000000000000004,
        0.56000000000000005,
        0.57999999999999996,
        0.59999999999999998,
        0.62,
        0.64000000000000001,
        0.66000000000000003,
        0.68000000000000005,
        0.69999999999999996,
        0.71999999999999997,
        0.73999999999999999,
        0.76000000000000001,
        0.78000000000000003,
        0.80000000000000004,
        0.81999999999999995,
        0.83999999999999997,
        0.85999999999999999,
        0.88,
        0.90000000000000002,
        0.92000000000000004,
        0.93999999999999995,
        0.95999999999999996,
        0.97999999999999998,
        1.0,
        1.02,
        1.04,
        1.0600000000000001,
        1.0800000000000001,
        1.1000000000000001,
        1.1200000000000001,
        1.1399999999999999,
        1.1599999999999999,
        1.1799999999999999,
        1.2,
        1.22,
        1.24,
        1.26,
        1.28,
        1.3,
        1.3200000000000001,
        1.3400000000000001,
        1.3600000000000001,
        1.3799999999999999,
        1.3999999999999999,
        1.4199999999999999,
        1.4399999999999999,
        1.46,
        1.48,
        1.5,
        1.52,
        1.54,
        1.5600000000000001,
        1.5800000000000001,
        1.6000000000000001,
        1.6200000000000001,
        1.6399999999999999,
        1.6599999999999999,
        1.6799999999999999,
        1.7,
        1.72,
        1.74,
        1.76,
        1.78,
        1.8,
        1.8200000000000001,
        1.8400000000000001,
        1.8600000000000001,
        1.8799999999999999,
        1.8999999999999999,
        1.9199999999999999,
        1.9399999999999999,
        1.96,
        1.98,
        2.0,
        2.02,
        2.04,
        2.0600000000000001,
        2.0800000000000001,
        2.1000000000000001,
        2.1200000000000001,
        2.1400000000000001,
        2.1600000000000001,
        2.1800000000000002,
        2.2000000000000002,
        2.2200000000000002,
        2.2400000000000002,
        2.2599999999999998,
        2.2799999999999998,
        2.2999999999999998,
        2.3199999999999998,
        2.3399999999999999,
        2.3599999999999999,
        2.3799999999999999,
        2.3999999999999999,
        2.4199999999999999,
        2.4399999999999999,
        2.46,
        2.48,
        2.5,
        2.52,
        2.54,
        2.5600000000000001,
        2.5800000000000001,
        2.6000000000000001,
        2.6200000000000001,
        2.6400000000000001,
        2.6600000000000001,
        2.6800000000000002,
        2.7000000000000002,
        2.7200000000000002,
        2.7400000000000002,
        2.7599999999999998,
        2.7799999999999998,
        2.7999999999999998,
        2.8199999999999998,
        2.8399999999999999,
        2.8599999999999999,
        2.8799999999999999,
        2.8999999999999999,
        2.9199999999999999,
        2.9399999999999999,
        2.96,
        2.98,
        3.0,
        3.02,
        3.04,
        3.0600000000000001,
        3.0800000000000001,
        3.1000000000000001,
        3.1200000000000001,
        3.1400000000000001,
        3.1600000000000001,
        3.1800000000000002,
        3.2000000000000002,
        3.2200000000000002,
        3.2400000000000002,
        3.2599999999999998,
        3.2799999999999998,
        3.2999999999999998,
        3.3199999999999998,
        3.3399999999999999,
        3.3599999999999999,
        3.3799999999999999,
        3.3999999999999999,
        3.4199999999999999,
        3.4399999999999999,
        3.46,
        3.48,
        3.5,
        3.52,
        3.54,
        3.5600000000000001,
        3.5800000000000001,
        3.6000000000000001,
        3.6200000000000001,
        3.6400000000000001,
        3.6600000000000001,
        3.6800000000000002,
        3.7000000000000002,
        3.7200000000000002,
        3.7400000000000002,
        3.7599999999999998,
        3.7799999999999998,
        3.7999999999999998,
        3.8199999999999998,
        3.8399999999999999,
        3.8599999999999999,
        3.8799999999999999,
        3.8999999999999999,
        3.9199999999999999,
        3.9399999999999999,
        3.96,
        3.98,
        4.0,
        4.0199999999999996,
        4.04,
        4.0599999999999996,
        4.0800000000000001,
        4.0999999999999996,
        4.1200000000000001,
        4.1399999999999997,
        4.1600000000000001,
        4.1799999999999997,
        4.2000000000000002,
        4.2199999999999998,
        4.2400000000000002,
        4.2599999999999998,
        4.2800000000000002,
        4.2999999999999998,
        4.3200000000000003,
        4.3399999999999999,
        4.3600000000000003,
        4.3799999999999999,
        4.4000000000000004,
        4.4199999999999999,
        4.4400000000000004,
        4.46,
        4.4800000000000004,
        4.5,
        4.5199999999999996,
        4.54,
        4.5599999999999996,
        4.5800000000000001,
        4.5999999999999996,
        4.6200000000000001,
        4.6399999999999997,
        4.6600000000000001,
        4.6799999999999997,
        4.7000000000000002,
        4.7199999999999998,
        4.7400000000000002,
        4.7599999999999998,
        4.7800000000000002,
        4.7999999999999998,
        4.8200000000000003,
        4.8399999999999999,
        4.8600000000000003,
        4.8799999999999999,
        4.9000000000000004,
        4.9199999999999999,
        4.9400000000000004,
        4.96,
        4.9800000000000004,
        5.0,
        5.0199999999999996,
        5.04,
        5.0599999999999996,
        5.0800000000000001,
        5.0999999999999996,
        5.1200000000000001,
        5.1399999999999997,
        5.1600000000000001,
        5.1799999999999997,
        5.2000000000000002,
        5.2199999999999998,
        5.2400000000000002,
        5.2599999999999998,
        5.2800000000000002,
        5.2999999999999998,
        5.3200000000000003,
        5.3399999999999999,
        5.3600000000000003,
        5.3799999999999999,
        5.4000000000000004,
        5.4199999999999999,
        5.4400000000000004,
        5.46,
        5.4800000000000004,
        5.5,
        5.5199999999999996,
        5.54,
        5.5599999999999996,
        5.5800000000000001,
        5.5999999999999996,
        5.6200000000000001,
        5.6399999999999997,
        5.6600000000000001,
        5.6799999999999997,
        5.7000000000000002,
        5.7199999999999998,
        5.7400000000000002,
        5.7599999999999998,
        5.7800000000000002,
        5.7999999999999998,
        5.8200000000000003,
        5.8399999999999999,
        5.8600000000000003,
        5.8799999999999999,
        5.9000000000000004,
        5.9199999999999999,
        5.9400000000000004,
        5.96,
        5.9800000000000004,
        6.0,
        6.0199999999999996,
        6.04,
        6.0599999999999996,
        6.0800000000000001,
        6.0999999999999996,
        6.1200000000000001,
        6.1399999999999997,
        6.1600000000000001,
        6.1799999999999997,
        6.2000000000000002,
        6.2199999999999998,
        6.2400000000000002,
        6.2599999999999998,
        6.2800000000000002,
        6.2999999999999998,
        6.3200000000000003,
        6.3399999999999999,
        6.3600000000000003,
        6.3799999999999999,
        6.4000000000000004,
        6.4199999999999999,
        6.4400000000000004,
        6.46,
        6.4800000000000004,
        6.5,
        6.5199999999999996,
        6.54,
        6.5599999999999996,
        6.5800000000000001,
        6.5999999999999996,
        6.6200000000000001,
        6.6399999999999997,
        6.6600000000000001,
        6.6799999999999997,
        6.7000000000000002,
        6.7199999999999998,
        6.7400000000000002,
        6.7599999999999998,
        6.7800000000000002,
        6.7999999999999998,
        6.8200000000000003,
        6.8399999999999999,
        6.8600000000000003,
        6.8799999999999999,
        6.9000000000000004,
        6.9199999999999999,
        6.9400000000000004,
        6.96,
        6.9800000000000004,
        7.0,
        7.0199999999999996,
        7.04,
        7.0599999999999996,
        7.0800000000000001,
        7.0999999999999996,
        7.1200000000000001,
        7.1399999999999997,
        7.1600000000000001,
        7.1799999999999997,
        7.2000000000000002,
        7.2199999999999998,
        7.2400000000000002,
        7.2599999999999998,
        7.2800000000000002,
        7.2999999999999998,
        7.3200000000000003,
        7.3399999999999999,
        7.3600000000000003,
        7.3799999999999999,
        7.4000000000000004,
        7.4199999999999999,
        7.4400000000000004,
        7.46,
        7.4800000000000004,
        7.5,
        7.5199999999999996,
        7.54,
        7.5599999999999996,
        7.5800000000000001,
        7.5999999999999996,
        7.6200000000000001,
        7.6399999999999997,
        7.6600000000000001,
        7.6799999999999997,
        7.7000000000000002,
        7.7199999999999998,
        7.7400000000000002,
        7.7599999999999998,
        7.7800000000000002,
        7.7999999999999998,
        7.8200000000000003,
        7.8399999999999999,
        7.8600000000000003,
        7.8799999999999999,
        7.9000000000000004,
        7.9199999999999999,
        7.9400000000000004,
        7.96,
        7.9800000000000004,
        8.0,
        8.0199999999999996,
        8.0399999999999991,
        8.0600000000000005,
        8.0800000000000001,
        8.0999999999999996,
        8.1199999999999992,
        8.1400000000000006,
        8.1600000000000001,
        8.1799999999999997,
        8.1999999999999993,
        8.2200000000000006,
        8.2400000000000002,
        8.2599999999999998,
        8.2799999999999994,
        8.3000000000000007,
        8.3200000000000003,
        8.3399999999999999,
        8.3599999999999994,
        8.3800000000000008,
        8.4000000000000004,
        8.4199999999999999,
        8.4399999999999995,
        8.4600000000000009
    ]
}