{
    "DU": 74,
    "DV": 302,
    "F-measure": 0.956043956043956,
    "F-measure Chroma": 0.967032967032967,
    "FN": 17,
    "FNC": 14,
    "FNCch": 15,
    "FNI": 3,
    "FNIch": 2,
    "FP": 7,
    "GU": 64,
    "GV": 312,
    "Overall Accuracy": 0.925531914893617,
    "Overall Chroma Accuracy": 0.9361702127659575,
    "Precision": 0.9693593314763231,
    "Precision Chroma": 0.9805013927576601,
    "Raw Chroma Accuracy": 0.9935897435897436,
    "Raw Pitch Accuracy": 0.9775641025641025,
    "Recall": 0.943089430894309,
    "Recall Chroma": 0.9539295392953929,
    "TN": 57,
    "TO": 376,
    "TP": 295,
    "TPC": 291,
    "TPCch": 295,
    "TPI": 4,
    "TPIch": 0,
    "Voiced Chroma Accuracy": 0.9455128205128205,
    "Voiced Pitch Accuracy": 0.9326923076923077,
    "Voicing Accuracy": 0.9361702127659575,
    "Voicing Detection": 0.9455128205128205,
    "Voicing False Alarm": 0.109375
}