{
    "DU": 103,
    "DV": 164,
    "F-measure": 0.9508840864440079,
    "F-measure Chroma": 0.9390962671905696,
    "FN": 25,
    "FNC": 1,
    "FNCch": 6,
    "FNI": 24,
    "FNIch": 19,
    "FP": 0,
    "GU": 78,
    "GV": 189,
    "Overall Accuracy": 0.9063670411985019,
    "Overall Chroma Accuracy": 0.8951310861423221,
    "Precision": 1.0,
    "Precision Chroma": 0.987603305785124,
    "Raw Chroma Accuracy": 0.8835978835978836,
    "Raw Pitch Accuracy": 0.873015873015873,
    "Recall": 0.9063670411985019,
    "Recall Chroma": 0.8951310861423221,
    "TN": 78,
    "TO": 267,
    "TP": 164,
    "TPC": 164,
    "TPCch": 161,
    "TPI": 0,
    "TPIch": 3,
    "Voiced Chroma Accuracy": 0.8518518518518519,
    "Voiced Pitch Accuracy": 0.8677248677248677,
    "Voicing Accuracy": 0.9063670411985019,
    "Voicing Detection": 0.8677248677248677,
    "Voicing False Alarm": 0.0
}