{
    "DU": 67,
    "DV": 392,
    "F-measure": 0.9640449438202249,
    "F-measure Chroma": 0.9640449438202249,
    "FN": 28,
    "FNC": 0,
    "FNCch": 1,
    "FNI": 28,
    "FNIch": 27,
    "FP": 0,
    "GU": 39,
    "GV": 420,
    "Overall Accuracy": 0.934640522875817,
    "Overall Chroma Accuracy": 0.934640522875817,
    "Precision": 0.9953596287703016,
    "Precision Chroma": 0.9953596287703016,
    "Raw Chroma Accuracy": 0.930952380952381,
    "Raw Pitch Accuracy": 0.9285714285714286,
    "Recall": 0.934640522875817,
    "Recall Chroma": 0.934640522875817,
    "TN": 39,
    "TO": 459,
    "TP": 392,
    "TPC": 390,
    "TPCch": 390,
    "TPI": 2,
    "TPIch": 2,
    "Voiced Chroma Accuracy": 0.9285714285714286,
    "Voiced Pitch Accuracy": 0.9285714285714286,
    "Voicing Accuracy": 0.9389978213507625,
    "Voicing Detection": 0.9333333333333333,
    "Voicing False Alarm": 0.0
}