{
    "f0": [
        48.68418145503351,
        38.720069121355145,
        49.819972578990715,
        53.844935236674267,
        52.002718536221693,
        51.254863632433057,
        44.898840656790853,
        38.273228800589997,
        41.20167055410721,
        44.491025080599634,
        45.353185741677407,
        45.112436269801847,
        44.868289389252226,
        45.81138256884482,
        45.495970952409294,
        46.250970985006411,
        46.740165981778361,
        47.330262664735329,
        42.622215413935642,
        47.154997399598336,
        44.556613524081357,
        44.846160157415511,
        46.505837789529274,
        48.420822161915396,
        50.643757159275367,
        48.64470353395302,
        47.804477687193874,
        60.119159547867895,
        60.22022716085776,
        60.337920281080962,
        60.595653792322651,
        60.955855429542225,
        61.375592898544269,
        61.745449311183322,
        61.865030476557308,
        61.852974122666971,
        61.846391918030918,
        61.892141592407832,
        61.981324144105642,
        61.991788595047623,
        61.918534330755236,
        61.90925896912708,
        61.998963466897962,
        62.078080468997157,
        62.156837552393803,
        62.061244069942205,
        62.939700200408488,
        62.877659053392186,
        62.919944126866142,
        62.998452932693198,
        63.005925417964619,
        63.060457725531776,
        63.113167236197903,
        63.082842880598434,
        63.000310728603409,
        62.857987866477671,
        62.714485278535669,
        61.681774590885759,
        0.0,
        37.61448950770712,
        51.729906344392305,
        63.150872357510956,
        62.801117695570653,
        62.895562021450075,
        63.13815138406099,
        63.459175052685303,
        63.831589127777654,
        64.138417254584994,
        64.286828722674386,
        64.363937155551611,
        64.388621409810369,
        64.403370619930158,
        64.437184437116727,
        64.503585585902101,
        64.638299798710634,
        64.788316166220639,
        64.943270961334093,
        65.089488491700706,
        65.118954904853098,
        65.060984940474356,
        65.058079650854665,
        65.020641623399214,
        64.903310865618806,
        64.796493814213335,
        64.79416385775454,
        64.879921437411582,
        64.944453341030211,
        64.973873471726279,
        65.023453447631383,
        65.022297641299275,
        64.954581077544418,
        64.937036196161841,
        64.977283705875607,
        64.970079153623544,
        64.971058101352156,
        65.014965192113834,
        65.042281437899135,
        65.008139214095081,
        64.994156847434994,
        64.942096160721775,
        64.066830232855679,
        35.496868691911146,
        0.0,
        53.727457577993334,
        53.776136521072075,
        53.824678877571337,
        52.936671746006098,
        64.87132738815383,
        64.725455050552711,
        64.620485392566636,
        64.658513974342299,
        64.718946043289662,
        64.757233276616546,
        64.836516179158266,
        64.905010095652599,
        64.719750161160434,
        64.330860392982018,
        63.583280429695883,
        61.564654603399703,
        43.688489134398431,
        40.383640072478741,
        41.832016669357238,
        43.168518020947658,
        44.920926727803163,
        49.360553161369651,
        58.954109043073345,
        48.296824184104402,
        44.748999636558977,
        47.97157654228802,
        48.521262060908683,
        52.180480075519931,
        53.247838629930179,
        55.373744017290093,
        53.822867035963853,
        52.119264039204452,
        48.653293180126653,
        46.87540311032614,
        37.67278205052483,
        50.551395367843632,
        39.026741652612806,
        36.098003863648103,
        53.96634461174358,
        42.016261960850798,
        41.356304001688265,
        52.791531996261789,
        52.212347397194911,
        44.012532174462329,
        0.0,
        0.0,
        41.934630942366894,
        0.0,
        0.0,
        0.0,
        47.234897991450445,
        53.206486389589188,
        52.318479046162537,
        52.25831368658271,
        52.161686292198148,
        52.139196380347641,
        52.211536795029446,
        52.296357451495275,
        52.377956195178868,
        52.415434792131599,
        52.436759378757522,
        52.546420958512002,
        52.588574175488418,
        52.57066972765378,
        52.533779458845842,
        52.592897625193601,
        52.713203626631127,
        52.831119699385312,
        53.220001080411429,
        54.146942158687537,
        55.786094249464391,
        58.982294073002883,
        60.972751333666082,
        61.840847608885859,
        62.323465959084217,
        62.67670072748524,
        62.993743000308768,
        63.230866865175578,
        63.473717968139901,
        63.822725673005166,
        64.259853181672824,
        64.660240484893208,
        64.850376128715823,
        64.891158813771625,
        64.957650882949793,
        64.937713381396136,
        64.839284763849989,
        64.827892940219328,
        64.81451655165354,
        64.72931257194918,
        64.57387812213355,
        64.306447870628801,
        64.091078904869377,
        48.634024878372955,
        50.658356882954195,
        49.183214035119285,
        46.302421505508541,
        44.308899460380189,
        62.25468786928306,
        61.922490673559381,
        61.740336489244335,
        61.872212808697114,
        62.081062238815719,
        62.358756365579588,
        62.632748156213111,
        62.807698858300583,
        63.015344216286053,
        63.144376630186038,
        63.116962719010054,
        63.067137217988979,
        63.068673076380072,
        63.104871708866682,
        63.112097618188237,
        63.090806115339973,
        63.07844999037313,
        62.976390212871401,
        62.706642380898515,
        62.300762377946185,
        61.837831433913557,
        61.438755179505748,
        61.217646601402116,
        61.178153112434153,
        61.287493639834139,
        61.440875482258832,
        61.574265751069831,
        61.582998047148109,
        61.570496495390636,
        61.535458290013906,
        61.534937137024151,
        61.573109627891149,
        61.575534352433067,
        61.610782239269355,
        61.640002565090967,
        61.661561629534681,
        61.580985434570081,
        61.215632452483668,
        60.60334726505566,
        59.919019113018692,
        43.639280074003992,
        44.68651565199626,
        44.612002240519047,
        0.0,
        47.923818813613664,
        36.376075716609115,
        58.59651305744935,
        58.635263473091939,
        58.425819958979872,
        58.474110161773496,
        58.741749236194593,
        59.146651416707705,
        59.702854934153692,
        60.080842964502395,
        60.102700067098183,
        59.950079760629421,
        59.853852639533329,
        59.767299717551374,
        59.679291620180742,
        59.700504576544276,
        59.806654781545944,
        59.997369435123915,
        60.256189401573849,
        60.385011016514746,
        60.323586274294243,
        60.268259030234084,
        60.145250288263334,
        60.044071037383404,
        60.07758041701743,
        60.131064465858195,
        60.207198161355933,
        60.265276249311576,
        60.309994186360626,
        60.365210194612736,
        60.389408743582379,
        60.351334134816135,
        60.290518387722976,
        60.268756088710575,
        60.270980916686028,
        60.24117419881442,
        60.179515914505103,
        60.196032302389476,
        60.265284199559289,
        60.246580269291897,
        60.203673945603811,
        60.224916131475496,
        60.107001532580341,
        59.76175830519724,
        59.549000124343515,
        44.217427186287097,
        50.07830254087655,
        37.151607741254978,
        38.995336422716079,
        59.587872638096584,
        59.401048442142617,
        59.12595174652067,
        58.966771718392167,
        59.049125820299608,
        59.278347348278061,
        59.527450175734003,
        59.738004477033151,
        59.877928038380048,
        59.974068393570874,
        60.033007085803135,
        60.060014806434495,
        59.988553169616559,
        59.855377892683272,
        59.710218268929964,
        59.578802852585795,
        59.410486555933296,
        59.084657933485985,
        58.832192019766893,
        36.350686926231319,
        51.13531256943341,
        40.85598480597163,
        44.649238326003783,
        45.764535062294087,
        58.128730829495566,
        58.09257510762906,
        57.974205776014891,
        57.86273666492589,
        57.791155852915132,
        57.813932869093556,
        57.837022012492163,
        57.820771909702096,
        57.819277399802061,
        57.817722110923071,
        57.789043920627257,
        57.786527775348766,
        57.824906601036545,
        57.802642654876948,
        57.630498190069659,
        57.182713757931481,
        56.864225917337336
    ],
    "time": [
        0.02,
        0.040000000000000001,
        0.059999999999999998,
        0.080000000000000002,
        0.10000000000000001,
        0.12,
        0.14000000000000001,
        0.16,
        0.17999999999999999,
        0.20000000000000001,
        0.22,
        0.23999999999999999,
        0.26000000000000001,
        0.28000000000000003,
        0.29999999999999999,
        0.32000000000000001,
        0.34000000000000002,
        0.35999999999999999,
        0.38,
        0.40000000000000002,
        0.41999999999999998,
        0.44,
        0.46000000000000002,
        0.47999999999999998,
        0.5,
        0.52000000000000002,
        0.54000000000000004,
        0.56000000000000005,
        0.57999999999999996,
        0.59999999999999998,
        0.62,
        0.64000000000000001,
        0.66000000000000003,
        0.68000000000000005,
        0.69999999999999996,
        0.71999999999999997,
        0.73999999999999999,
        0.76000000000000001,
        0.78000000000000003,
        0.80000000000000004,
        0.81999999999999995,
        0.83999999999999997,
        0.85999999999999999,
        0.88,
        0.90000000000000002,
        0.92000000000000004,
        0.93999999999999995,
        0.95999999999999996,
        0.97999999999999998,
        1.0,
        1.02,
        1.04,
        1.0600000000000001,
        1.0800000000000001,
        1.1000000000000001,
        1.1200000000000001,
        1.1399999999999999,
        1.1599999999999999,
        1.1799999999999999,
        1.2,
        1.22,
        1.24,
        1.26,
        1.28,
        1.3,
        1.3200000000000001,
        1.3400000000000001,
        1.3600000000000001,
        1.3799999999999999,
        1.3999999999999999,
        1.4199999999999999,
        1.4399999999999999,
        1.46,
        1.48,
        1.5,
        1.52,
        1.54,
        1.5600000000000001,
        1.5800000000000001,
        1.6000000000000001,
        1.6200000000000001,
        1.6399999999999999,
        1.6599999999999999,
        1.6799999999999999,
        1.7,
        1.72,
        1.74,
        1.76,
        1.78,
        1.8,
        1.8200000000000001,
        1.8400000000000001,
        1.8600000000000001,
        1.8799999999999999,
        1.8999999999999999,
        1.9199999999999999,
        1.9399999999999999,
        1.96,
        1.98,
        2.0,
        2.02,
        2.04,
        2.0600000000000001,
        2.0800000000000001,
        2.1000000000000001,
        2.1200000000000001,
        2.1400000000000001,
        2.1600000000000001,
        2.1800000000000002,
        2.2000000000000002,
        2.2200000000000002,
        2.2400000000000002,
        2.2599999999999998,
        2.2799999999999998,
        2.2999999999999998,
        2.3199999999999998,
        2.3399999999999999,
        2.3599999999999999,
        2.3799999999999999,
        2.3999999999999999,
        2.4199999999999999,
        2.4399999999999999,
        2.46,
        2.48,
        2.5,
        2.52,
        2.54,
        2.5600000000000001,
        2.5800000000000001,
        2.6000000000000001,
        2.6200000000000001,
        2.6400000000000001,
        2.6600000000000001,
        2.6800000000000002,
        2.7000000000000002,
        2.7200000000000002,
        2.7400000000000002,
        2.7599999999999998,
        2.7799999999999998,
        2.7999999999999998,
        2.8199999999999998,
        2.8399999999999999,
        2.8599999999999999,
        2.8799999999999999,
        2.8999999999999999,
        2.9199999999999999,
        2.9399999999999999,
        2.96,
        2.98,
        3.0,
        3.02,
        3.04,
        3.0600000000000001,
        3.0800000000000001,
        3.1000000000000001,
        3.1200000000000001,
        3.1400000000000001,
        3.1600000000000001,
        3.1800000000000002,
        3.2000000000000002,
        3.2200000000000002,
        3.2400000000000002,
        3.2599999999999998,
        3.2799999999999998,
        3.2999999999999998,
        3.3199999999999998,
        3.3399999999999999,
        3.3599999999999999,
        3.3799999999999999,
        3.3999999999999999,
        3.4199999999999999,
        3.4399999999999999,
        3.46,
        3.48,
        3.5,
        3.52,
        3.54,
        3.5600000000000001,
        3.5800000000000001,
        3.6000000000000001,
        3.6200000000000001,
        3.6400000000000001,
        3.6600000000000001,
        3.6800000000000002,
        3.7000000000000002,
        3.7200000000000002,
        3.7400000000000002,
        3.7599999999999998,
        3.7799999999999998,
        3.7999999999999998,
        3.8199999999999998,
        3.8399999999999999,
        3.8599999999999999,
        3.8799999999999999,
        3.8999999999999999,
        3.9199999999999999,
        3.9399999999999999,
        3.96,
        3.98,
        4.0,
        4.0199999999999996,
        4.04,
        4.0599999999999996,
        4.0800000000000001,
        4.0999999999999996,
        4.1200000000000001,
        4.1399999999999997,
        4.1600000000000001,
        4.1799999999999997,
        4.2000000000000002,
        4.2199999999999998,
        4.2400000000000002,
        4.2599999999999998,
        4.2800000000000002,
        4.2999999999999998,
        4.3200000000000003,
        4.3399999999999999,
        4.3600000000000003,
        4.3799999999999999,
        4.4000000000000004,
        4.4199999999999999,
        4.4400000000000004,
        4.46,
        4.4800000000000004,
        4.5,
        4.5199999999999996,
        4.54,
        4.5599999999999996,
        4.5800000000000001,
        4.5999999999999996,
        4.6200000000000001,
        4.6399999999999997,
        4.6600000000000001,
        4.6799999999999997,
        4.7000000000000002,
        4.7199999999999998,
        4.7400000000000002,
        4.7599999999999998,
        4.7800000000000002,
        4.7999999999999998,
        4.8200000000000003,
        4.8399999999999999,
        4.8600000000000003,
        4.8799999999999999,
        4.9000000000000004,
        4.9199999999999999,
        4.9400000000000004,
        4.96,
        4.9800000000000004,
        5.0,
        5.0199999999999996,
        5.04,
        5.0599999999999996,
        5.0800000000000001,
        5.0999999999999996,
        5.1200000000000001,
        5.1399999999999997,
        5.1600000000000001,
        5.1799999999999997,
        5.2000000000000002,
        5.2199999999999998,
        5.2400000000000002,
        5.2599999999999998,
        5.2800000000000002,
        5.2999999999999998,
        5.3200000000000003,
        5.3399999999999999,
        5.3600000000000003,
        5.3799999999999999,
        5.4000000000000004,
        5.4199999999999999,
        5.4400000000000004,
        5.46,
        5.4800000000000004,
        5.5,
        5.5199999999999996,
        5.54,
        5.5599999999999996,
        5.5800000000000001,
        5.5999999999999996,
        5.6200000000000001,
        5.6399999999999997,
        5.6600000000000001,
        5.6799999999999997,
        5.7000000000000002,
        5.7199999999999998,
        5.7400000000000002,
        5.7599999999999998,
        5.7800000000000002,
        5.7999999999999998,
        5.8200000000000003,
        5.8399999999999999,
        5.8600000000000003,
        5.8799999999999999,
        5.9000000000000004,
        5.9199999999999999,
        5.9400000000000004,
        5.96,
        5.9800000000000004,
        6.0,
        6.0199999999999996,
        6.04,
        6.0599999999999996,
        6.0800000000000001,
        6.0999999999999996,
        6.1200000000000001,
        6.1399999999999997,
        6.1600000000000001,
        6.1799999999999997,
        6.2000000000000002,
        6.2199999999999998,
        6.2400000000000002,
        6.2599999999999998,
        6.2800000000000002,
        6.2999999999999998,
        6.3200000000000003,
        6.3399999999999999,
        6.3600000000000003,
        6.3799999999999999,
        6.4000000000000004,
        6.4199999999999999,
        6.4400000000000004,
        6.46,
        6.4800000000000004,
        6.5,
        6.5199999999999996,
        6.54,
        6.5599999999999996,
        6.5800000000000001,
        6.5999999999999996,
        6.6200000000000001,
        6.6399999999999997,
        6.6600000000000001,
        6.6799999999999997,
        6.7000000000000002
    ]
}