{
    "f0": [
        0.0,
        0.0,
        0.0,
        47.996175796911899,
        48.504709930086577,
        48.964078187343787,
        49.416728767782629,
        50.096657517428021,
        50.343032155825725,
        50.576820023825711,
        50.782456418459851,
        50.99733713543975,
        51.145764232691747,
        51.288434342107578,
        51.352279771781582,
        51.44322302632024,
        51.493263355102286,
        51.438733533620578,
        51.591815974822616,
        50.687394798915896,
        49.296465443494554,
        49.03082535347243,
        49.651303130556244,
        51.415953736940281,
        51.64119857930082,
        51.582479160825358,
        51.611962916907714,
        51.615345760311769,
        51.655049825303955,
        51.649926484877113,
        51.780033509452643,
        51.94665365581259,
        51.872417254709795,
        51.582603983231685,
        51.582728804738053,
        51.590956108066763,
        51.57866615593413,
        50.729542895447395,
        49.146662361439532,
        50.630565933695323,
        51.410269860101579,
        55.408250613447507,
        55.339561043666336,
        55.275547742332961,
        55.288941695501308,
        55.31289268268447,
        55.261447824627489,
        55.175362532241166,
        55.052185624833079,
        54.993980461167403,
        55.079737233742797,
        55.21795824382697,
        55.106855300972995,
        54.791724388499098,
        54.348219052340902,
        53.783212905952851,
        52.913490093915236,
        51.737409856027242,
        50.549990649856419,
        49.271328141812376,
        47.842515632018277,
        46.426701258344877,
        46.287511201307325,
        46.209674714051204,
        45.672070265938736,
        45.423940556302902,
        45.376571725811729,
        45.402116621028782,
        45.607596692243789,
        45.908872962328026,
        46.374583416287877,
        46.690878536250985,
        46.717109558042317,
        46.799631072126765,
        46.79830319846775,
        47.287595936387092,
        47.610040537791505,
        47.902867712024985,
        48.157851701785233,
        48.695512198774793,
        49.101841767275914,
        49.407822748648705,
        49.515850776787559,
        49.561326049692198,
        49.546095925777678,
        49.50199529062337,
        49.287891084845697,
        48.954947699432303,
        48.670881239201137,
        47.986811138399339,
        46.568098213047236,
        45.790984974235485,
        47.691961309514127,
        0.0,
        0.0,
        0.0,
        0.0,
        0.0,
        0.0,
        0.0,
        0.0,
        0.0,
        0.0,
        0.0,
        0.0,
        0.0,
        0.0,
        0.0,
        0.0,
        0.0,
        0.0,
        0.0,
        0.0,
        43.301404753731568,
        42.46642713015374,
        41.514108394477766,
        41.180176832094766,
        41.037540496999782,
        0.0,
        0.0,
        0.0,
        0.0,
        43.498363306532113,
        44.2269659240377,
        44.497720957856963,
        44.55047262353137,
        44.49452048308931,
        44.579377615366411,
        44.749249379527313,
        44.849044490634903,
        44.795563223900785,
        44.843777036523861,
        44.889553921959667,
        45.047060641813331,
        45.117174139054171,
        45.15073983117162,
        45.321506474030286,
        45.435085788573261,
        45.26965977386611,
        45.034127679868938,
        44.848503099532323,
        44.572974100785615,
        44.479633709584178,
        0.0,
        0.0,
        0.0,
        0.0,
        0.0,
        0.0,
        0.0,
        0.0,
        0.0,
        0.0,
        0.0,
        0.0,
        0.0,
        0.0,
        0.0,
        0.0,
        0.0,
        0.0,
        0.0,
        0.0,
        0.0,
        0.0,
        0.0,
        0.0,
        0.0,
        0.0,
        0.0,
        0.0,
        0.0,
        0.0,
        0.0,
        0.0,
        0.0,
        0.0,
        0.0,
        0.0,
        0.0,
        0.0,
        0.0,
        0.0,
        43.541058289854703,
        43.499452707460641,
        43.965242565517784,
        44.492923103000166,
        45.152445519270444,
        46.095911561406162,
        46.588799492925062,
        46.74307718521343,
        46.252737960697218,
        45.2418003163272,
        44.477718009053916,
        40.162431072032518,
        39.103271521533316,
        52.552602372709075,
        0.0,
        0.0,
        0.0,
        0.0,
        0.0,
        47.161372323991088,
        47.227764653866501,
        47.307983513624286,
        47.256854957493076,
        47.292647450124406,
        47.303239177503542,
        47.447822970466049,
        47.651073010834978,
        47.694189439717434,
        47.846982029549643,
        47.821786228551929,
        47.705835575834698,
        47.599154364505978,
        47.575947209033103,
        47.659302887529492,
        47.796175676218446,
        47.82322051710436,
        47.776779749389007,
        47.78395633631105,
        47.830400335190802,
        47.94251793726589,
        0.0,
        0.0,
        0.0,
        0.0,
        0.0,
        0.0,
        0.0,
        0.0,
        0.0,
        0.0,
        0.0,
        0.0,
        0.0,
        0.0,
        0.0,
        0.0,
        0.0,
        0.0,
        0.0,
        0.0,
        44.025417654725587,
        44.458796971004574,
        44.943188195768819,
        45.553320603138474,
        45.900678025676612,
        46.316579048256237,
        46.671513722263761,
        46.858002856160589,
        46.986370276471014,
        47.046594253719668,
        47.085761790206035,
        47.126525231242354,
        47.052598658790757,
        47.022737546656955,
        46.892770797329042,
        46.980050593837269,
        47.255786203181827,
        47.893686127640166,
        48.585922768467661,
        49.019234134474736,
        49.259575833309555,
        49.381385102375148,
        49.498600899842828,
        49.486286552079562,
        49.518740391313685,
        49.502976590925655,
        49.401286997313136,
        49.305610437814082,
        49.195985143786196,
        49.153461213562643,
        48.95634847436385,
        48.769220451017105,
        0.0,
        0.0,
        0.0,
        0.0,
        0.0,
        0.0,
        50.062541982119228,
        50.046732962040927,
        50.431672048234915,
        50.641794806260791,
        50.617185907888015,
        50.606507452286323,
        50.442402770916779,
        50.253296107933863,
        50.153640572885408,
        50.093073547604462,
        50.087060019027284,
        50.012376714676151,
        49.751757944026799,
        49.577378029939013,
        49.575608059803862,
        49.614577757716646,
        49.855728240159635,
        50.254756940303182,
        50.539071789363568,
        50.728563148702733,
        50.796113180576654,
        50.708849497539632,
        50.489210686626834,
        50.169468136918503,
        49.805379538784472,
        49.543402991661125,
        49.614993563525253,
        49.763965167576345,
        49.844111911593828,
        49.929589604517851,
        50.082457060376214,
        50.031108749258252,
        49.960415895238285,
        49.929755699237575,
        49.828679848646999,
        49.520586490216346,
        49.291767384511758,
        49.116085501690179,
        49.4961672569531,
        49.353835046597403,
        51.90443717369881,
        0.0,
        0.0,
        0.0,
        0.0,
        0.0,
        0.0,
        0.0,
        0.0,
        0.0,
        0.0,
        0.0,
        0.0,
        0.0,
        0.0,
        0.0,
        0.0,
        0.0,
        0.0,
        0.0,
        0.0,
        0.0,
        0.0,
        0.0,
        0.0,
        0.0,
        0.0,
        0.0,
        0.0,
        0.0,
        0.0,
        38.535344711539956,
        37.739025266002002,
        37.511178653573928,
        37.621783805775863,
        37.732388510305206,
        37.940475322977072,
        38.143512537599285,
        38.131987848982604,
        38.461716090159996,
        38.954464592905474,
        39.361330864042024,
        39.39530673846938,
        39.437885886731621,
        39.108724748655618,
        38.75317972638031,
        39.097249318964543,
        0.0,
        0.0,
        0.0,
        0.0,
        0.0,
        0.0,
        0.0,
        0.0,
        0.0,
        0.0,
        47.860233958306139,
        47.240899677061314,
        46.606174657114217,
        46.127122137240477,
        45.781656333613384,
        45.94442042084512,
        46.162592786831745,
        46.402330694355044,
        46.656157325716791,
        46.833205134570463,
        47.259449755443185,
        47.637255860141742,
        48.042910846759469,
        48.481477248601195,
        49.027896785609599,
        49.291731764095957,
        49.386866011568529,
        49.463318468265697,
        49.514389176091157,
        49.679835764592298,
        49.896151060743293,
        50.041139356117455,
        49.980836012889156,
        49.879783491124243,
        49.799157753418655,
        49.622287649265374,
        49.445228592897237,
        49.078503578877047,
        48.708551127231402,
        0.0,
        0.0,
        0.0,
        0.0,
        0.0,
        0.0,
        0.0,
        0.0,
        0.0,
        0.0,
        0.0,
        0.0,
        0.0,
        0.0,
        0.0,
        0.0
    ],
    "time": [
        0.02,
        0.040000000000000001,
        0.059999999999999998,
        0.080000000000000002,
        0.10000000000000001,
        0.12,
        0.14000000000000001,
        0.16,
        0.17999999999999999,
        0.20000000000000001,
        0.22,
        0.23999999999999999,
        0.26000000000000001,
        0.28000000000000003,
        0.29999999999999999,
        0.32000000000000001,
        0.34000000000000002,
        0.35999999999999999,
        0.38,
        0.40000000000000002,
        0.41999999999999998,
        0.44,
        0.46000000000000002,
        0.47999999999999998,
        0.5,
        0.52000000000000002,
        0.54000000000000004,
        0.56000000000000005,
        0.57999999999999996,
        0.59999999999999998,
        0.62,
        0.64000000000000001,
        0.66000000000000003,
        0.68000000000000005,
        0.69999999999999996,
        0.71999999999999997,
        0.73999999999999999,
        0.76000000000000001,
        0.78000000000000003,
        0.80000000000000004,
        0.81999999999999995,
        0.83999999999999997,
        0.85999999999999999,
        0.88,
        0.90000000000000002,
        0.92000000000000004,
        0.93999999999999995,
        0.95999999999999996,
        0.97999999999999998,
        1.0,
        1.02,
        1.04,
        1.0600000000000001,
        1.0800000000000001,
        1.1000000000000001,
        1.1200000000000001,
        1.1399999999999999,
        1.1599999999999999,
        1.1799999999999999,
        1.2,
        1.22,
        1.24,
        1.26,
        1.28,
        1.3,
        1.3200000000000001,
        1.3400000000000001,
        1.3600000000000001,
        1.3799999999999999,
        1.3999999999999999,
        1.4199999999999999,
        1.4399999999999999,
        1.46,
        1.48,
        1.5,
        1.52,
        1.54,
        1.5600000000000001,
        1.5800000000000001,
        1.6000000000000001,
        1.6200000000000001,
        1.6399999999999999,
        1.6599999999999999,
        1.6799999999999999,
        1.7,
        1.72,
        1.74,
        1.76,
        1.78,
        1.8,
        1.8200000000000001,
        1.8400000000000001,
        1.8600000000000001,
        1.8799999999999999,
        1.8999999999999999,
        1.9199999999999999,
        1.9399999999999999,
        1.96,
        1.98,
        2.0,
        2.02,
        2.04,
        2.0600000000000001,
        2.0800000000000001,
        2.1000000000000001,
        2.1200000000000001,
        2.1400000000000001,
        2.1600000000000001,
        2.1800000000000002,
        2.2000000000000002,
        2.2200000000000002,
        2.2400000000000002,
        2.2599999999999998,
        2.2799999999999998,
        2.2999999999999998,
        2.3199999999999998,
        2.3399999999999999,
        2.3599999999999999,
        2.3799999999999999,
        2.3999999999999999,
        2.4199999999999999,
        2.4399999999999999,
        2.46,
        2.48,
        2.5,
        2.52,
        2.54,
        2.5600000000000001,
        2.5800000000000001,
        2.6000000000000001,
        2.6200000000000001,
        2.6400000000000001,
        2.6600000000000001,
        2.6800000000000002,
        2.7000000000000002,
        2.7200000000000002,
        2.7400000000000002,
        2.7599999999999998,
        2.7799999999999998,
        2.7999999999999998,
        2.8199999999999998,
        2.8399999999999999,
        2.8599999999999999,
        2.8799999999999999,
        2.8999999999999999,
        2.9199999999999999,
        2.9399999999999999,
        2.96,
        2.98,
        3.0,
        3.02,
        3.04,
        3.0600000000000001,
        3.0800000000000001,
        3.1000000000000001,
        3.1200000000000001,
        3.1400000000000001,
        3.1600000000000001,
        3.1800000000000002,
        3.2000000000000002,
        3.2200000000000002,
        3.2400000000000002,
        3.2599999999999998,
        3.2799999999999998,
        3.2999999999999998,
        3.3199999999999998,
        3.3399999999999999,
        3.3599999999999999,
        3.3799999999999999,
        3.3999999999999999,
        3.4199999999999999,
        3.4399999999999999,
        3.46,
        3.48,
        3.5,
        3.52,
        3.54,
        3.5600000000000001,
        3.5800000000000001,
        3.6000000000000001,
        3.6200000000000001,
        3.6400000000000001,
        3.6600000000000001,
        3.6800000000000002,
        3.7000000000000002,
        3.7200000000000002,
        3.7400000000000002,
        3.7599999999999998,
        3.7799999999999998,
        3.7999999999999998,
        3.8199999999999998,
        3.8399999999999999,
        3.8599999999999999,
        3.8799999999999999,
        3.8999999999999999,
        3.9199999999999999,
        3.9399999999999999,
        3.96,
        3.98,
        4.0,
        4.0199999999999996,
        4.04,
        4.0599999999999996,
        4.0800000000000001,
        4.0999999999999996,
        4.1200000000000001,
        4.1399999999999997,
        4.1600000000000001,
        4.1799999999999997,
        4.2000000000000002,
        4.2199999999999998,
        4.2400000000000002,
        4.2599999999999998,
        4.2800000000000002,
        4.2999999999999998,
        4.3200000000000003,
        4.3399999999999999,
        4.3600000000000003,
        4.3799999999999999,
        4.4000000000000004,
        4.4199999999999999,
        4.4400000000000004,
        4.46,
        4.4800000000000004,
        4.5,
        4.5199999999999996,
        4.54,
        4.5599999999999996,
        4.5800000000000001,
        4.5999999999999996,
        4.6200000000000001,
        4.6399999999999997,
        4.6600000000000001,
        4.6799999999999997,
        4.7000000000000002,
        4.7199999999999998,
        4.7400000000000002,
        4.7599999999999998,
        4.7800000000000002,
        4.7999999999999998,
        4.8200000000000003,
        4.8399999999999999,
        4.8600000000000003,
        4.8799999999999999,
        4.9000000000000004,
        4.9199999999999999,
        4.9400000000000004,
        4.96,
        4.9800000000000004,
        5.0,
        5.0199999999999996,
        5.04,
        5.0599999999999996,
        5.0800000000000001,
        5.0999999999999996,
        5.1200000000000001,
        5.1399999999999997,
        5.1600000000000001,
        5.1799999999999997,
        5.2000000000000002,
        5.2199999999999998,
        5.2400000000000002,
        5.2599999999999998,
        5.2800000000000002,
        5.2999999999999998,
        5.3200000000000003,
        5.3399999999999999,
        5.3600000000000003,
        5.3799999999999999,
        5.4000000000000004,
        5.4199999999999999,
        5.4400000000000004,
        5.46,
        5.4800000000000004,
        5.5,
        5.5199999999999996,
        5.54,
        5.5599999999999996,
        5.5800000000000001,
        5.5999999999999996,
        5.6200000000000001,
        5.6399999999999997,
        5.6600000000000001,
        5.6799999999999997,
        5.7000000000000002,
        5.7199999999999998,
        5.7400000000000002,
        5.7599999999999998,
        5.7800000000000002,
        5.7999999999999998,
        5.8200000000000003,
        5.8399999999999999,
        5.8600000000000003,
        5.8799999999999999,
        5.9000000000000004,
        5.9199999999999999,
        5.9400000000000004,
        5.96,
        5.9800000000000004,
        6.0,
        6.0199999999999996,
        6.04,
        6.0599999999999996,
        6.0800000000000001,
        6.0999999999999996,
        6.1200000000000001,
        6.1399999999999997,
        6.1600000000000001,
        6.1799999999999997,
        6.2000000000000002,
        6.2199999999999998,
        6.2400000000000002,
        6.2599999999999998,
        6.2800000000000002,
        6.2999999999999998,
        6.3200000000000003,
        6.3399999999999999,
        6.3600000000000003,
        6.3799999999999999,
        6.4000000000000004,
        6.4199999999999999,
        6.4400000000000004,
        6.46,
        6.4800000000000004,
        6.5,
        6.5199999999999996,
        6.54,
        6.5599999999999996,
        6.5800000000000001,
        6.5999999999999996,
        6.6200000000000001,
        6.6399999999999997,
        6.6600000000000001,
        6.6799999999999997,
        6.7000000000000002,
        6.7199999999999998,
        6.7400000000000002,
        6.7599999999999998,
        6.7800000000000002,
        6.7999999999999998,
        6.8200000000000003,
        6.8399999999999999,
        6.8600000000000003,
        6.8799999999999999,
        6.9000000000000004,
        6.9199999999999999,
        6.9400000000000004,
        6.96,
        6.9800000000000004,
        7.0,
        7.0199999999999996,
        7.04,
        7.0599999999999996,
        7.0800000000000001,
        7.0999999999999996,
        7.1200000000000001,
        7.1399999999999997,
        7.1600000000000001,
        7.1799999999999997,
        7.2000000000000002,
        7.2199999999999998,
        7.2400000000000002,
        7.2599999999999998,
        7.2800000000000002,
        7.2999999999999998,
        7.3200000000000003,
        7.3399999999999999,
        7.3600000000000003,
        7.3799999999999999,
        7.4000000000000004,
        7.4199999999999999,
        7.4400000000000004,
        7.46,
        7.4800000000000004,
        7.5,
        7.5199999999999996,
        7.54,
        7.5599999999999996,
        7.5800000000000001,
        7.5999999999999996,
        7.6200000000000001,
        7.6399999999999997,
        7.6600000000000001,
        7.6799999999999997,
        7.7000000000000002,
        7.7199999999999998,
        7.7400000000000002,
        7.7599999999999998,
        7.7800000000000002,
        7.7999999999999998,
        7.8200000000000003,
        7.8399999999999999,
        7.8600000000000003,
        7.8799999999999999,
        7.9000000000000004,
        7.9199999999999999,
        7.9400000000000004,
        7.96,
        7.9800000000000004,
        8.0,
        8.0199999999999996,
        8.0399999999999991,
        8.0600000000000005,
        8.0800000000000001,
        8.0999999999999996,
        8.1199999999999992,
        8.1400000000000006,
        8.1600000000000001,
        8.1799999999999997,
        8.1999999999999993,
        8.2200000000000006,
        8.2400000000000002,
        8.2599999999999998,
        8.2799999999999994,
        8.3000000000000007,
        8.3200000000000003,
        8.3399999999999999,
        8.3599999999999994,
        8.3800000000000008,
        8.4000000000000004,
        8.4199999999999999,
        8.4399999999999995,
        8.4600000000000009
    ]
}