{
	"f0": [NaN,49.06721424,51.65523297,75.97317854,75.89549411,75.86840402,67.45605197,51.93594852,52.01414075,51.49886926,51.80590664,55.15118507,54.03379336,53.43293778,53.13912309,53.24734888,53.49995106,53.61443925,53.40034202,53.46483636,53.2721267,53.08685744,52.78435726,52.36504774,51.72838501,50.95461696,50.53460868,50.35090906,50.11998838,50.87108548,50.90989445,50.83173713,51.01976053,51.09574673,51.02570999,51.21782343,52.42594796,53.40248038,53.5866234,53.75010729,53.66693594,53.31218714,52.86759172,52.07091216,52.26695388,52.415125,52.47220476,52.68199647,52.53561496,55.13489482,52.27358994,52.19905645,52.23704186,52.34785644,52.26316475,52.06615635,51.76076013,51.78270309,51.62124135,51.37339605,51.23526837,51.41594703,51.93841364,52.07210027,52.10820673,51.91478372,51.65836895,51.27648755,51.13364393,50.96318844,50.24610895,49.74256983,49.60208028,49.53057064,49.24450996,49.08491417,49.20071322,49.32205531,49.22511355,49.1215845,49.2850274,49.83620278,53.49170863,54.27065194,56.46727057,52.31647167,51.66639927,51.54183071,51.65693778,51.7956391,51.62899326,51.53677053,51.19408963,50.95799247,51.13805479,51.22210526,51.25516375,51.52901446,51.53615587,51.90192505,51.46373213,51.08383387,50.83990034,50.69569548,50.05340466,50.00673791,49.64871922,49.94025881,49.69452226,49.0702185,48.67940469,48.44555762,47.72670336,65.69991543,62.15444483,52.52451045,51.64108456,66.99865374,69.6896589,54.41482847,53.33138967,53.20204714,52.89988488,52.37888017,52.04401116,51.70506423,70.45067792,70.98219655,50.94687455,50.76890736,50.18129075,51.08413672,51.17797936,36.68573396,46.80502284,47.07836779,49.76312809,50.64214864,51.1421494,51.95071643,58.06073933,58.9446811,55.27700059,53.50429368,52.35483728,51.98145855,51.90505678,51.64539139,51.43321467,51.1916006,50.76471939,50.06423665,50.04034585,50.0642243,50.05028767,50.30213694,50.50522005,50.36865793,50.36803222,50.45091809,50.18527701,50.07716564,50.2997719,50.20213311,49.92963956,49.46161954,48.82457492,47.95321276,47.15448412,46.83298081,46.57022699,46.40048799,46.34056053,46.94797704,37.95739704,71.30266144,71.26763813,74.15444483,58.26001508,58.11372234,51.48615542,51.16970306,50.7295887,49.63290716,48.93416022,47.85199359,47.15321938,47.08803235,47.03698706,47.21309485,47.7292225,48.0442468,47.34887861,48.18673601,47.74377255,49.83677829,49.52291042,47.5835407,58.16354076,53.47160054,51.35263774,50.65466179,50.28404647,49.62022384,49.17221084,49.04401299,48.86909386,49.32205201,49.59460934,49.70616376,49.78962512,49.83036045,49.50397793,49.32223265,57.73535789,75.97842129,75.91622469,76.01777047,51.7523404,51.17891189,51.06719856,50.57012193,49.56648994,48.80664928,48.88339771,70.16095712,73.98874294,73.8974948,73.25275291,50.01848902,49.37521901,48.97086581,48.48031363,47.96948011,48.47528169,48.43349025,72.94687474,67.26756605,67.21387509,49.40960805,49.06645539,48.85337348,48.72326932,48.81280215,48.8382269,49.01349715,49.26350834,49.40335726,49.48896078,49.46191207,51.51326806,51.54115086,52.05370194,52.2460599,52.40302807,52.36941559,51.79867097,50.41196072,50.10988683,49.76835255,47.47444961,47.56829528,70.82890457,69.73627627,49.52182998,48.63414323,48.44360621,48.327972,48.17489715,48.41890623,48.39150561,48.29147312,47.93005869,47.35641057,47.30149865,47.68947528,47.98723799,47.78123448,47.48414714,47.22929661,47.06882857,47.45306319,47.76273913,47.19274404,46.44902626,66.26783372,54.14584132,47.90292079,47.34887861,47.07836779,47.4238829,46.96724114,47.01786683,59.69264809,60.0442468,60.04445363,53.08336886,53.17896414,52.66768052,45.09091746,45.79827524,45.84726916,48.96076228,48.88439003,50.97508853,53.02816096,45.12707519,45.25004002,49.15089048,49.21841468,41.72960149,48.63079119,54.20577712,43.38960972,41.83410524,49.38485242,49.26215547,45.80564148,49.06721424,49.06721424,48.99688292,48.74239339,49.5308198,49.32814745,49.08076034,60.98235698,42.53678285,49.98215147,49.16533018,48.94767765,48.81761731,48.82458852,41.86404861,48.92318154,49.20109804,49.06605331,48.98698499,56.53209571,48.8514564,48.32650848,46.10204895,46.30773091,48.88870447,48.89742913,48.85996079,48.43548082,51.46142778,51.93186294,70.92997983,71.03107588,62.14228233,49.4716804,57.90466513,70.71394814,70.78848484,63.0232489,51.30840583,51.36100431,48.80043813,48.75607458,48.88347535,76.93035138,76.93035138,76.93035138,76.93035138,51.45426315,48.05355923,47.88896722,48.22383289,61.84926793,58.9749726,65.20733546,70.05589384,69.8773925,71.59849323,46.37367789,44.85219579,49.40078413,59.18663705,57.44700363,53.50429368,43.80214586,49.54030014,48.69489149,76.93035138,76.93035138,76.93035138,76.93035138,76.93035138,76.93035138,76.93035138,76.93035138,76.93035138,76.93035138,76.93035138,76.93035138,76.93035138,76.93035138,76.93035138,76.93035138,76.93035138,76.93035138,76.93035138,76.93035138,76.93035138,76.93035138,76.93035138,76.93035138,76.93035138,76.93035138,76.93035138,76.93035138,76.93035138,76.93035138,76.93035138,76.93035138,76.93035138,76.93035138,76.93035138,76.93035138,76.93035138,76.93035138,76.93035138,76.93035138,76.93035138,76.93035138,76.93035138,76.93035138,76.93035138,76.93035138,76.93035138,76.93035138,76.93035138,76.93035138,76.93035138,76.93035138,76.93035138,76.93035138,76.93035138,76.93035138,76.93035138,76.93035138,76.93035138,76.93035138,76.93035138,76.93035138,76.93035138,76.93035138,76.93035138,76.93035138,76.93035138,76.93035138,76.93035138,76.93035138,76.93035138,76.93035138,76.93035138,76.93035138,76.93035138,76.93035138,76.93035138,76.93035138,76.93035138,76.93035138,76.93035138,76.93035138,76.93035138,76.93035138,76.93035138,76.93035138,76.93035138,76.93035138,76.93035138,76.93035138,76.93035138,76.93035138,76.93035138,76.93035138,76.93035138,76.93035138,76.93035138,76.93035138,76.93035138,76.93035138,76.93035138,76.93035138,76.93035138,76.93035138,76.93035138,76.93035138,76.93035138,76.93035138,76.93035138,76.93035138,76.93035138,76.93035138,76.93035138,76.93035138,76.93035138,76.93035138,76.93035138,76.93035138,76.93035138,76.93035138,76.93035138,NaN,NaN],
	"ap0": [NaN,0.5180155934,0.8098117277,0.09669206356,0.0593174791,0.157395239,1.078225862,0.3197080375,0.3572794706,0.4506117768,0.635553647,0.4554981829,0.101134472,0.06606881264,0.02068938613,0.01165202981,0.01720313375,0.034856679,0.07645071005,0.0884768467,0.05314594646,0.05090699103,0.06894056843,0.04964787902,0.03529767236,0.03381034718,0.02379846792,0.05569715296,0.130233839,0.1415393502,0.09119995228,0.06993292332,0.08091329134,0.03578332653,0.0214863751,0.02393409375,0.07398564757,0.05325696974,0.02808880124,0.03230941451,0.1048642665,0.2222704444,0.1667784028,0.05732318591,0.0270147909,0.02960468112,0.05094413315,0.1328260729,0.2944346022,0.5963819725,0.134832578,0.064456415,0.04851367368,0.05964286894,0.08846431226,0.1325193122,0.110215411,0.1651175594,0.1455613838,0.1082239505,0.1424504674,0.3239471231,0.3868833462,0.346941165,0.1576020693,0.1461480052,0.2456133575,0.2576896012,0.06748309582,0.05241131556,0.08289686768,0.07440990887,0.0684293481,0.07204040889,0.1683754227,0.2134354948,0.1711071279,0.1047109236,0.1045517046,0.1091263247,0.1150193255,0.2138973064,0.4287307614,0.5095539224,0.4205336873,0.31609811,0.1111661599,0.03276823776,0.03986306667,0.04964634732,0.06176028653,0.06965628375,0.06959839771,0.03624818414,0.03767059149,0.04167662387,0.04550976385,0.0273121704,0.025720449,0.1472565946,0.173115852,0.1171772849,0.1136593594,0.1258759826,0.1006496724,0.04363864971,0.03328620062,0.181789471,0.3467642568,0.3401578928,0.2865810203,0.4664388856,0.5652221505,0.4019188316,0.5530430026,0.4389098481,0.7002256888,0.8228863398,0.8307116781,0.5064791024,0.1764603223,0.1089137717,0.1006937603,0.1095738124,0.1604578156,0.1797720818,0.2111721561,0.5289218904,0.4717514453,0.4108852688,0.3172803527,0.4962594332,0.4925144524,0.4201588408,0.3601410009,0.3544949547,0.5363402986,0.2219145541,0.1136310649,0.1883179643,0.4019562381,0.2865164442,0.2639357688,0.1594621204,0.06132443489,0.05739260131,0.07606348003,0.1269641401,0.06596026672,0.02313466891,0.04274158562,0.04943422116,0.04151753525,0.02783306348,0.03418455465,0.1178133946,0.184662899,0.146717323,0.1012259018,0.06678893797,0.05785921462,0.0539307308,0.03658769271,0.04973488499,0.08408385744,0.08276094336,0.1602126383,0.2934772329,0.3575716318,0.2307756495,0.1276240569,0.1588524634,0.2978428532,0.4002651774,0.6154315529,0.2874597111,0.1929145115,0.6398488343,0.3802229833,0.5810688272,0.374606831,0.2734519241,0.3640452605,0.4980867799,0.4698863808,0.3286833455,0.1616521165,0.2765276821,0.3647756914,0.3773344108,0.4943398934,0.574430584,0.5077885151,0.3622296499,0.3715732971,0.498160506,0.4158284853,0.6306976041,0.6206433741,0.7216593,0.5213790662,0.1983275055,0.262273652,0.3274953815,0.2426321996,0.2373076188,0.1673992826,0.2085286531,0.1408966895,0.07259815409,0.05753881397,0.05380217442,0.07434367506,0.2559512146,0.7051830033,0.4553288167,0.4586932732,0.835995044,0.2621519119,0.08802435493,0.05811346024,0.1252539668,0.1140715563,0.1615530994,0.5347917193,0.6259180145,0.4269893534,0.1971978534,0.5950860742,0.2577185949,0.2258252865,0.1631581755,0.3209626911,0.4497203715,0.4263204751,0.7225676952,0.7025812039,0.7576109984,0.7305437105,0.3702755695,0.1773059448,0.06597858091,0.05534107787,0.08580301379,0.08688619595,0.1129187891,0.1326165558,0.1423493537,0.1598513035,0.2552090577,0.3837862665,0.141091919,0.1109878308,0.1182484352,0.1638031153,0.326607167,0.4057158039,0.09995530393,0.08062380575,0.2190868748,0.332813998,0.4985284416,0.2653480932,0.6924753181,0.4920588089,0.2076236614,0.07033601678,0.1476102359,0.07423846662,0.04290171071,0.03919116961,0.0556505408,0.1331076378,0.1394241254,0.1826640404,0.2650314975,0.09668540179,0.07750182561,0.07145268755,0.106384425,0.1973196218,0.1851673623,0.1996067717,0.314046328,0.4744663009,0.4513062545,0.4446416388,0.3022227861,0.2218322977,0.3036638348,0.5063398434,0.4259899987,0.334374407,0.2918043507,0.3064638772,0.5239329334,0.57992196,0.573038515,0.6650389243,0.6508829395,0.5568165508,0.5851452521,0.6727040244,0.6492166087,0.6752744135,0.7271084714,0.6667317525,0.6444457957,0.4455654156,0.4234364364,0.6975864696,0.8465549172,0.8123049152,0.766862519,0.7823883056,0.6126242222,0.7890476596,0.7152209936,0.5120168987,0.4155178829,0.4754187779,0.7675782782,0.7311544467,0.7143372259,0.7497922258,0.8332929605,0.7517752671,0.6681233366,0.5590690305,0.5618794897,0.6639963942,0.8401477518,0.792467837,0.7172974918,0.6523918233,0.5472290225,0.5848937543,0.8419162329,0.8466499882,0.6750587367,0.6125189735,0.6562802445,0.6781546461,0.6468195812,0.6088933459,0.6782473038,0.7914411278,0.621456695,0.4719210429,0.4568524218,0.6604062592,0.6392702696,0.750658175,0.6328113778,0.6218364867,0.692666715,0.6572820053,0.7929462701,0.8035795565,0.6156559515,0.6363300543,0.5567300508,0.6073590706,0.6406507621,0.7204706347,0.6927478978,0.6408648039,0.6527194694,0.7665923807,0.5704207774,0.6593368061,0.6717321981,0.5199679542,0.5536107604,0.9542645173,0.5569106309,0.6585314595,0.7500848345,0.6681626562,0.6223152308,0.8688075318,0.7963944461,0.7394709064,1.437004754,1,1,1,1,1,1,1,1,1,1,1,1,1,1,1,1,1,1,1,1,1,1,1,1,1,1,1,1,1,1,1,1,1,1,1,1,1,1,1,1,1,1,1,1,1,1,1,1,1,1,1,1,1,1,1,1,1,1,1,1,1,1,1,1,1,1,1,1,1,1,1,1,1,1,1,1,1,1,1,1,1,1,1,1,1,1,1,1,1,1,1,1,1,1,1,1,1,1,1,1,1,1,1,1,1,1,1,1,1,1,1,1,1,1,1,1,1,1,1,1,1,NaN,NaN],
	"ap": [NaN,0.1325559284,0.5014975602,0.1052396329,0.04058585346,0.01192245609,0.6464806284,0.4036235736,0.1850729959,0.171279673,0.3496756912,0.351520734,0.4854892562,0.1746139415,0.03466665397,0.02076980097,0.01440174648,0.002916117642,0.003308134984,0.03748775747,0.04945303381,0.05747505436,0.04106237954,0.0555215656,0.04793952305,0.02251484205,0.02168365884,0.004227899281,0.03031286857,0.0734889562,0.1484626097,0.01509249582,0.01891095135,0.138341891,0.02743641585,0.01563427392,0.06097362951,0.09176136301,0.01189956698,0.019063152,0.01087920671,0.1315284351,0.09716690234,0.08552228264,0.01709752441,0.00676093567,0.03422450177,0.02674143916,0.06227566889,0.1648037163,0.3919760688,0.3386914368,0.01909790078,0.03722848717,0.04518279072,0.06398285684,0.07421625117,0.09700744685,0.06335350029,0.1710651217,0.02711236615,0.04924442649,0.2878239402,0.175277871,0.1347244155,0.1789657629,0.07955835131,0.1232368047,0.1374971328,0.05707652858,0.03843711296,0.06067709771,0.0256372005,0.02308085198,0.01548054559,0.08738581771,0.1830334833,0.1117478575,0.04822249403,0.05776930407,0.05254044443,0.1120370871,0.2094840146,0.5113068538,0.1798379448,0.6357549987,0.2426589993,0.02302307023,0.01647445757,0.02512833328,0.03505999154,0.05702957352,0.01597537519,0.08952079457,0.02979231129,0.02154021309,0.02021633096,0.05686768047,0.008654876593,0.02036318484,0.023813016,0.1969541395,0.04891099508,0.06916282877,0.04574945498,0.02112534731,0.01087006773,0.01067907391,0.02787840849,0.4195592664,0.1458888889,0.1934238608,0.1420522736,0.6508476059,0.6017974752,0.4362234041,0.1611938549,0.5828462125,0.3118794387,0.5033221375,0.6003170566,0.1990626546,0.02292879249,0.09902869028,0.05632648741,0.03171127935,0.1242112345,0.02945607963,0.4551903939,0.1447058915,0.3428225739,0.2273339188,0.3792799672,0.1886705523,0.2173028404,0.1019669979,0.1842389685,0.3411039835,0.1434999294,0.06855112702,0.5961215659,0.2673834985,0.7014988962,0.3146310062,0.08858066339,0.02777692898,0.02572957443,0.08368628596,0.09397460249,0.06408294654,0.01091219112,0.03253004625,0.02658673281,0.00357113876,0.008838478987,0.02398985117,0.01793955601,0.1314282386,0.03562150935,0.05050150783,0.04091098338,0.04475971648,0.04633955086,0.02570341649,0.0175728008,0.0728313947,0.06024500841,0.190471215,0.2275565492,0.3374527885,0.149145018,0.07321959384,0.04890362702,0.2481363207,0.246005933,0.2383460127,0.4493286766,0.2201582261,0.1404536752,0.2685335481,0.1475930744,0.4867568545,0.2597170833,0.5249444233,0.5612088405,0.4138496835,0.1811814079,0.05977684123,0.1402773715,0.162199871,0.1457335922,0.3043713034,0.406347587,0.2270594334,0.1677003978,0.3109562788,0.1042043335,0.5329306588,0.6518699255,0.6412848638,0.4526962522,0.3387388373,0.3065124486,0.3671851972,0.1773219479,0.09376958066,0.08632983566,0.1752490735,0.2005224244,0.0759781119,0.0530030338,0.05673446664,0.0139590401,0.04688961409,0.5955789806,0.2287587915,0.259519979,0.3517115954,0.3935277975,0.2001035779,0.03944218513,0.07741332143,0.06559314804,0.08830702374,0.1729293176,0.5232916051,0.501103578,0.5623794215,0.263211447,0.4368496656,0.2719934764,0.2128653912,0.1721603662,0.1093455833,0.3711486181,0.2825854215,0.7515290707,0.5182386729,0.433236926,0.2881123069,0.4238267221,0.04574467051,0.02311814577,0.02649043932,0.06424247576,0.03964698672,0.06861661107,0.0515749298,0.06304414022,0.06749990119,0.3468693135,0.2102409344,0.112674839,0.03455474128,0.03937594253,0.05018790236,0.4396674024,0.3328411763,0.03491094576,0.01718896686,0.1272040913,0.3445645681,0.1677823997,0.06859836287,0.3963769324,0.4523777451,0.07937708249,0.04630466322,0.07649049621,0.1084917857,0.04111209389,0.00492604984,0.05553230073,0.1032315414,0.05323823899,0.1545839747,0.1630712534,0.06978696785,0.07288594417,0.07001113697,0.08421838483,0.1539715533,0.0354659477,0.08105038138,0.2246270514,0.4615421424,0.4475789417,0.2397744023,0.1756016857,0.08906655176,0.2610841058,0.1645893548,0.272251636,0.7322518425,0.1094268874,0.09114334142,0.6678980619,0.2507798695,0.4576965758,0.5070688253,0.3135532351,0.2692353828,0.29488476,0.515893972,0.2835662719,0.3832619984,0.5398002617,0.2467919764,0.5246377301,0.4331618638,0.3442487444,0.3323429815,0.58151084,0.483118522,0.3690492916,0.501518437,0.2614308398,0.3891207203,0.3823384249,0.327474502,0.2023070613,0.2147517188,0.4459515627,0.4679623136,0.2126340654,0.4954723993,0.2478916326,0.438545714,0.414779975,0.3230049539,0.1777391018,0.4141760534,0.2339418372,0.3436009662,0.3447205575,0.2186482039,0.2754605869,0.6096527921,0.4123627975,0.5223492223,0.4212821103,0.2814490091,0.3835249688,0.4368374404,0.4224007246,0.3574588254,0.534650802,0.4484135853,0.4814648199,0.2194581002,0.3320477247,0.5042582668,0.4258792652,0.6981879598,0.2826334338,0.3051998753,0.2497768475,0.2467177726,0.3662580647,0.3872550714,0.3247675947,0.8295486802,0.4426452976,0.4864268652,0.4503654608,0.327471491,0.5107089257,0.2833289322,0.2479271055,0.222553795,0.5225361481,0.5966010502,0.2753567775,0.2499181679,0.6026550153,0.4886132276,0.3048485938,0.4627252806,0.7000013802,0.5207355024,0.5736843057,0.4390775854,0.3573293191,0.5000011206,1,1,1,1,1,1,1,1,1,1,1,1,1,1,1,1,1,1,1,1,1,1,1,1,1,1,1,1,1,1,1,1,1,1,1,1,1,1,1,1,1,1,1,1,1,1,1,1,1,1,1,1,1,1,1,1,1,1,1,1,1,1,1,1,1,1,1,1,1,1,1,1,1,1,1,1,1,1,1,1,1,1,1,1,1,1,1,1,1,1,1,1,1,1,1,1,1,1,1,1,1,1,1,1,1,1,1,1,1,1,1,1,1,1,1,1,1,1,1,1,1,NaN,NaN],
	"pwr": [NaN,4.41902393e-05,8.924095198e-05,2.89226304e-05,6.077851916e-05,0.0008236967719,0.0001645610107,1.226986133e-05,1.413656996e-05,3.263774982e-05,3.693176199e-05,5.145094577e-05,4.020396615e-05,0.0004155374949,0.04043843069,0.03988671157,0.02363703706,0.02388294205,0.008221676801,0.001624946286,0.001220029037,0.003966443402,0.01028260971,0.008464601079,0.01086262012,0.01293851072,0.009870318869,0.01226285145,0.02120660124,0.004681827929,0.006517659683,0.01692065457,0.007374157321,0.002138290528,0.007800466627,0.01298974325,0.01562069488,0.01042136418,0.01866685049,0.05810592377,0.06552433469,0.02496881873,0.01422058956,0.008066880695,0.006261753521,0.0104269191,0.008393931145,0.002516690668,0.0003983285401,0.0003312328848,0.001631065051,0.003397959587,0.09095084493,0.03626355989,0.03784857758,0.02622773828,0.03500087637,0.006286770897,0.007118485003,0.01863420351,0.04419241937,0.04690199101,0.02088511177,0.01336076194,0.01411813122,0.009756170203,0.01841381008,0.01121977602,0.003407764421,0.008328183712,0.0364937217,0.01983238428,0.02203525025,0.01815082081,0.01531885682,0.006411769026,0.005842483273,0.005852949146,0.007611210483,0.01009115909,0.02016795333,0.009191547153,0.008497312197,0.003050516944,0.01472513325,0.004717462562,0.01035244995,0.06033827082,0.05510263215,0.03196315121,0.01801524839,0.006761942726,0.008648334376,0.006986767148,0.01927520691,0.02280661977,0.01181184029,0.01098867944,0.01490843604,0.01236503992,0.01248315157,0.02541066702,0.02432095286,0.03526454343,0.0243723086,0.009490715962,0.004601209936,0.007354762853,0.006346262406,0.008817786385,0.06046543504,0.04423193366,0.01528040183,0.01314945767,0.002625509522,5.104892391e-05,1.861263924e-05,4.503789536e-05,0.000130790411,0.0009540664954,0.003266266946,0.01447009184,0.1416623612,0.08443604839,0.05952989782,0.06523951328,0.02451604414,0.05233972151,0.02127792179,0.0425044429,0.02653362915,0.03489817684,0.005971754339,0.009392077852,0.004012912045,0.005946788322,0.004481366652,0.001513435862,0.004093189742,0.009520217131,0.006342721891,0.001921318327,0.001871045254,0.000785739681,0.01122403471,0.01684888512,0.01710782039,0.007381931166,0.003221155962,0.005418309827,0.01574460795,0.01975895017,0.01091852443,0.008032608203,0.01898577235,0.0153589097,0.03253849732,0.04112150451,0.01272089916,0.01432261765,0.01053794307,0.008734730089,0.009124977998,0.006701313512,0.008995427592,0.01109112741,0.01529503482,0.01162706614,0.009387398594,0.01211472949,0.01974306938,0.03047386605,0.04528797094,0.02316280036,0.00718720001,0.002630757508,0.0005525272663,0.0004808856261,0.0006354196119,0.0008459576634,0.0009398781882,0.003377685167,0.03324062001,0.03865629338,0.02691215171,0.0220187603,0.006696279086,0.001377528741,0.001497729005,0.001204000998,0.003107264787,0.001750415318,0.0008857045524,0.0002615443668,0.0002467202686,0.0002369206626,2.773462315e-05,4.582306667e-05,3.309016414e-05,1.495826322e-05,8.282776507e-05,0.000683172508,0.02170379135,0.07632230225,0.0387496862,0.05349710339,0.0154545309,0.006720182652,0.005336608103,0.006721516405,0.0103792006,0.01672225056,0.01567488295,0.009870729343,0.001682981687,0.0001863574082,0.0009546822602,0.001978949403,0.002330376096,0.001889659926,0.0243977463,0.03583386468,0.01048204744,0.007135598336,0.001766191707,0.0001403108161,5.9886667e-05,5.273122227e-05,0.0003748581781,0.004085002032,0.01286932271,0.08178940369,0.04327524541,0.01562321081,0.003310887363,5.561619536e-05,5.32491499e-06,1.721880435e-05,0.0004405975919,0.0007832354101,0.002397491487,0.03853517876,0.02920282675,0.02253111515,0.00621724436,0.01617994911,0.01448854783,0.009466871471,0.006939886222,0.002821336174,0.001748136866,0.002848087542,0.002769983472,0.02563734964,0.05841979396,0.04870416959,0.02326004594,0.01087711605,0.01990396227,0.02315032867,0.003692695867,0.0004023022145,0.0001671213864,0.0005754952379,0.0005641480166,0.003707373565,0.019779048,0.01745895631,0.005005901883,0.004639373521,0.01817425036,0.0246289383,0.0100029377,0.005232848989,0.003359416438,0.0007137941494,0.0005219385841,0.001097409424,0.002108555403,0.003518995409,0.002651195699,0.001022131571,0.000846536985,0.0009703689948,0.0002756914929,3.450345681e-05,3.542885715e-06,9.007595775e-06,3.245785763e-05,3.05979047e-05,2.080273748e-05,2.559168278e-05,8.958841476e-06,5.251159116e-06,7.70747486e-06,1.257542012e-05,4.788462081e-06,3.495657811e-05,8.395745823e-06,5.304204308e-06,4.501098869e-06,4.238690719e-06,3.700908037e-06,1.592810557e-06,2.885316453e-06,3.97765938e-06,3.43373248e-06,4.518254425e-06,3.289758633e-06,2.671053057e-06,4.607094123e-06,2.244036512e-06,1.747762721e-06,7.943714788e-07,2.06656896e-06,2.600510927e-06,1.608260795e-06,3.2497632e-06,1.907865416e-06,2.030691172e-06,4.908003464e-06,3.864272173e-06,1.778021126e-06,1.152304187e-06,2.396542589e-06,2.655373865e-06,2.193044263e-06,1.843017561e-06,1.656431244e-06,3.844817038e-06,4.525987849e-06,3.51008151e-06,1.708364216e-06,1.318962356e-06,1.397009919e-06,2.66903948e-06,1.958042673e-06,8.67054664e-07,1.34332011e-06,2.450257373e-06,1.362617303e-06,1.683338116e-06,1.393627727e-06,1.407336072e-06,1.790691381e-06,2.269909316e-06,1.378178925e-06,1.74208962e-06,1.641429241e-06,8.029401158e-06,1.014705014e-05,5.018354925e-06,3.699680154e-06,4.99693313e-06,2.92559818e-06,4.596132258e-06,3.210045326e-06,5.243124231e-06,2.54382463e-06,1.28595956e-06,6.982930597e-07,1.991916772e-07,1.059632505e-08,3.166496754e-08,3.473731973e-08,8.760177149e-08,2.569577029e-08,2.903636838e-08,5.018454132e-08,2.030932606e-08,2.594817832e-09,4.476628181e-09,4.494556438e-09,1.275686048e-09,1.517075247e-09,4.516088625e-10,1.593054405e-09,1.34046909e-09,3.047295613e-10,1.855075432e-10,3.525160588e-10,7.113751021e-11,1.178718138e-10,4.953843482e-11,0,0,0,0,0,0,0,0,0,0,0,0,0,0,0,0,0,0,0,0,0,0,0,0,0,0,0,0,0,0,0,0,0,0,0,0,0,0,0,0,0,0,0,0,0,0,0,0,0,0,0,0,0,0,0,0,0,0,0,0,0,0,0,0,0,0,0,0,0,0,0,0,0,0,0,0,0,0,0,0,0,0,0,0,0,0,0,0,0,0,0,0,0,0,0,0,0,0,0,0,0,0,0,0,0,0,0,0,0,0,0,0,0,0,0,0,0,0,0,0,0,NaN,NaN],
	"sr": 16000,
	"range": [1,162304],
	"minf0": 63.1883,
	"maxf0": 706.3069,
	"thresh": 0.1,
	"relflag": 1,
	"hop": 320,
	"bufsize": 10000,
	"wsize": 640,
	"lpf": 4000,
	"shift": 0,
	"plotthreshold": 0.2
}
