{
    "f0": [
        44.546931794016018,
        58.91121899633562,
        58.737224037565937,
        58.387470781853168,
        57.231522893380408,
        45.463618236244059,
        45.707967187118108,
        43.74540710676191,
        52.323466587227287,
        52.191892164714666,
        45.910371181273597,
        51.296804304654778,
        50.82529516099887,
        46.205961351676706,
        45.874266316229523,
        48.135976053846832,
        48.462386223227725,
        48.43202318992455,
        49.188957832046043,
        47.685731396124787,
        47.882769589269088,
        46.872274937051557,
        47.425378387193305,
        48.245767991919585,
        50.245292862970047,
        51.499840726640919,
        49.974395948505595,
        52.218369173804369,
        52.199313809784911,
        54.98049518342561,
        55.068904407459875,
        55.189655370986237,
        55.309567342162467,
        51.573250678433524,
        50.93199623228935,
        48.922211200914091,
        48.112738466939881,
        48.337383606736438,
        46.314936443110042,
        46.598327273868811,
        48.215999616325796,
        49.695347858588732,
        51.569905579974183,
        51.733681280833089,
        54.025784766776994,
        55.30660679187217,
        55.961893652140411,
        50.574611692320886,
        50.042147966414703,
        52.161125682971871,
        52.702433469852771,
        54.738161640305563,
        55.189058120306825,
        55.248109634546324,
        54.970237403006919,
        55.7986897936524,
        55.900345539414751,
        55.459298449380981,
        55.344774057098874,
        53.99815322190905,
        50.490356164368997,
        45.559076478524567,
        49.165419875770759,
        46.671884400517285,
        47.146594135720335,
        46.340926049669442,
        46.51114135291354,
        45.815661537671062,
        46.010592440843133,
        45.885685638174692,
        46.911088912925919,
        46.339839284967653,
        44.255419203199828,
        42.242446504105025,
        41.810294355081361,
        41.367079370875643,
        64.25912054933778,
        64.389414416741232,
        64.796472346014909,
        65.194178796625877,
        65.808099815878762,
        66.635404379516217,
        66.606665725131762,
        66.891415237485688,
        66.812668566682675,
        66.733562072559181,
        66.826354523827106,
        66.794457885047166,
        66.079073857044861,
        67.108671581450679,
        66.883115518025491,
        66.364956077686728,
        66.323592605376888,
        45.379397213665939,
        42.514751864896866,
        46.235508514778708,
        48.125399691049758,
        66.950317084008404,
        35.599986379641848,
        65.974517848000986,
        66.471091244630699,
        66.232849146715523,
        65.991282749178993,
        65.746297871119623,
        65.670056572922533,
        66.515949413990725,
        66.547579857377272,
        66.579152570612578,
        66.610671964688535,
        66.642131327519195,
        66.59969465349397,
        66.557153656091558,
        66.514507912078201,
        66.297761931302944,
        65.992598464178656,
        65.725619559564024,
        66.276974867792617,
        66.811311479973909,
        66.802328478803389,
        66.958196887435946,
        67.039795862076005,
        67.251154507804387,
        67.459963861951138,
        67.316528354261237,
        67.340146455776363,
        67.369112308380679,
        67.22135045398251,
        67.301444510287979,
        67.297814915952458,
        67.102004280990968,
        67.325318665994558,
        67.481987387827857,
        67.465798071900608,
        67.254646495938289,
        66.027278985696825,
        66.105229853247508,
        65.907942943998947,
        50.68816419538274,
        50.606219077027582,
        51.915947126357864,
        50.991938889004125,
        48.953816351615806,
        47.881901485319773,
        46.739213596744335,
        48.830228297894948,
        50.345929926396565,
        50.486450638174475,
        50.731379813547719,
        46.931594785837049,
        50.41802848110207,
        50.165612393589171,
        66.324207842960618,
        42.334974749216201,
        39.05885176387941,
        47.20554017764298,
        46.332569709911667,
        46.595939325667047,
        46.703330272297642,
        46.959922641171929,
        46.538246854605205,
        46.008435617695895,
        46.542006105808198,
        46.725344488218724,
        47.584696815158594,
        47.376677945786724,
        47.166127083929858,
        48.359415882074813,
        38.726248139677665,
        40.492584494254089,
        40.50477037287785,
        43.812289600688906,
        51.344597501582385,
        50.208189971327585,
        41.473148018732275,
        40.21538380878134,
        35.608235292218993,
        44.89134350268521,
        41.867981154163147,
        66.359033874142796,
        62.550083052484624,
        63.084152584146864,
        63.60223680983578,
        63.931268600823735,
        64.025749601762072,
        63.883925983716956,
        63.413458557136309,
        62.392270829290254,
        61.421311117076456,
        64.133267911631577,
        64.230178564114624,
        64.20166971433774,
        64.173115452521188,
        64.329097574684525,
        64.485639708206307,
        64.60723398768414,
        64.394889189280747,
        64.136286489069519,
        64.118573213843476,
        64.10084028229798,
        63.555768965003473,
        62.91759826936304,
        62.805930118394329,
        62.590728613842394,
        62.142317099319705,
        62.203702718023067,
        62.404036662585447,
        62.649278967412293,
        62.340520385387649,
        62.795539329250275,
        62.616192840989761,
        61.88148268859463,
        61.748527261816662,
        63.915663714086783,
        37.847036232653302,
        51.894933648415829,
        44.82960969778329,
        63.707446358618633,
        63.762241003327993,
        64.15969332564886,
        64.381462367351432,
        64.333204802332517,
        64.270704926277105,
        64.131271722856553,
        63.990704774301761,
        63.848987148019091,
        63.878361451163329,
        63.671365069024702,
        63.807763300823829,
        63.943098505272822,
        63.844425355528777,
        64.03538146091114,
        64.030982188261163,
        63.976549770593977,
        64.119326162061071,
        63.876098299021031,
        64.15176216808625,
        63.532432987646196,
        63.473509790801437,
        62.774396555068677,
        62.032798573060447,
        60.915077628633888,
        60.913514574733107,
        62.216711426046047,
        63.428641215690199,
        61.815165351156949,
        60.384373090899437,
        60.401934414135972,
        60.83300760870425,
        60.879046980636446,
        61.233051646381064,
        61.247112760799141,
        61.232481869906998,
        61.217836691798411,
        61.101544220308568,
        61.063738957836797,
        61.016794931331539,
        61.146520599973591,
        60.986872735999512,
        61.043880408693205,
        61.057679870104977,
        60.918977053194084,
        49.955129813488917,
        37.370235400096782,
        49.296053213871545,
        49.452265844800365,
        49.079761595590497,
        49.410065968986906,
        49.338277393702498,
        49.108800250319668,
        49.18794720134364,
        49.032050555989585,
        47.925666415066956,
        45.328393155117979,
        45.341291860565917,
        50.893939010039631,
        38.666962578492807,
        64.554572288742293,
        47.608806423183637,
        47.152155763678032,
        45.445368274744595,
        45.774321880157217,
        65.392290350079165,
        65.456373124576061,
        46.352564908636367,
        46.09448693404498,
        64.679874307543955,
        64.577977320914499,
        45.737915729633798,
        45.848383572398419,
        46.130422674199558,
        46.65093406218169,
        66.100156562241281,
        66.122325248339777,
        66.14446841395683,
        66.287786550657287,
        66.429927934256483,
        66.57091317996273,
        66.004033099073595,
        66.005145209066086,
        66.070173387543221,
        65.929151748350478,
        65.786971897136993,
        65.986438889800723,
        65.909615286441806,
        65.832449210608758,
        65.927204535153905,
        66.002000064914384,
        65.912164388850456,
        66.14967880398487,
        66.206678031575052,
        66.26349159284608,
        66.320116563858448,
        66.326532708136298,
        66.18397430905452,
        66.093724085730372,
        66.003000916246734,
        66.423534660474473,
        65.672126053029587,
        37.463121689594438,
        40.266216672494437,
        38.830661663088115,
        38.690594991587346,
        41.493287449567035,
        40.854663692716009,
        39.019159425091928,
        38.205359817206215,
        40.286064116879942,
        39.44910961214039,
        40.442819212560863,
        46.639999932375162,
        45.298930945360574,
        57.375261611020719,
        53.885799675135438,
        52.642237010661958,
        51.805690290344344,
        50.92665937869139,
        50.679593295508546,
        50.087836855118709,
        49.995508638973369,
        48.280926212548863,
        48.821939811275371,
        48.675469153234019,
        48.252661255253194,
        47.22548923711112,
        46.278266867595505,
        46.555181085610386,
        46.327615949489285,
        47.568973673083647,
        0.0,
        0.0,
        0.0,
        0.0,
        0.0,
        0.0,
        0.0,
        0.0,
        0.0,
        0.0,
        0.0,
        0.0,
        0.0,
        0.0,
        0.0,
        0.0,
        0.0,
        0.0,
        0.0,
        0.0,
        0.0,
        0.0,
        0.0,
        0.0,
        0.0,
        0.0,
        0.0,
        0.0,
        0.0,
        0.0,
        0.0,
        0.0,
        0.0,
        0.0,
        0.0,
        0.0,
        0.0,
        0.0,
        0.0,
        0.0,
        0.0,
        0.0,
        0.0,
        0.0,
        0.0,
        0.0,
        0.0,
        0.0,
        0.0,
        0.0,
        0.0,
        0.0,
        0.0,
        0.0,
        0.0,
        0.0,
        0.0,
        0.0,
        0.0,
        0.0,
        0.0,
        0.0,
        0.0,
        0.0,
        0.0,
        0.0,
        0.0,
        0.0,
        0.0,
        0.0,
        0.0,
        0.0,
        0.0,
        0.0,
        0.0,
        0.0,
        0.0,
        0.0,
        0.0,
        0.0,
        0.0,
        0.0,
        0.0,
        0.0,
        0.0,
        0.0,
        0.0,
        0.0,
        0.0,
        0.0,
        0.0,
        0.0,
        0.0,
        0.0,
        0.0,
        0.0,
        0.0,
        0.0,
        0.0,
        0.0,
        0.0,
        0.0,
        0.0,
        0.0,
        0.0,
        0.0,
        0.0,
        0.0,
        0.0,
        0.0,
        0.0,
        0.0,
        0.0,
        0.0,
        0.0,
        0.0,
        0.0,
        0.0,
        0.0,
        0.0,
        0.0,
        0.0,
        0.0,
        0.0,
        0.0,
        0.0,
        0.0,
        0.0,
        0.0,
        0.0,
        0.0,
        0.0,
        0.0,
        0.0,
        0.0,
        0.0,
        0.0,
        0.0,
        0.0,
        0.0,
        0.0,
        0.0,
        0.0
    ],
    "time": [
        0.02,
        0.040000000000000001,
        0.059999999999999998,
        0.080000000000000002,
        0.10000000000000001,
        0.12,
        0.14000000000000001,
        0.16,
        0.17999999999999999,
        0.20000000000000001,
        0.22,
        0.23999999999999999,
        0.26000000000000001,
        0.28000000000000003,
        0.29999999999999999,
        0.32000000000000001,
        0.34000000000000002,
        0.35999999999999999,
        0.38,
        0.40000000000000002,
        0.41999999999999998,
        0.44,
        0.46000000000000002,
        0.47999999999999998,
        0.5,
        0.52000000000000002,
        0.54000000000000004,
        0.56000000000000005,
        0.57999999999999996,
        0.59999999999999998,
        0.62,
        0.64000000000000001,
        0.66000000000000003,
        0.68000000000000005,
        0.69999999999999996,
        0.71999999999999997,
        0.73999999999999999,
        0.76000000000000001,
        0.78000000000000003,
        0.80000000000000004,
        0.81999999999999995,
        0.83999999999999997,
        0.85999999999999999,
        0.88,
        0.90000000000000002,
        0.92000000000000004,
        0.93999999999999995,
        0.95999999999999996,
        0.97999999999999998,
        1.0,
        1.02,
        1.04,
        1.0600000000000001,
        1.0800000000000001,
        1.1000000000000001,
        1.1200000000000001,
        1.1399999999999999,
        1.1599999999999999,
        1.1799999999999999,
        1.2,
        1.22,
        1.24,
        1.26,
        1.28,
        1.3,
        1.3200000000000001,
        1.3400000000000001,
        1.3600000000000001,
        1.3799999999999999,
        1.3999999999999999,
        1.4199999999999999,
        1.4399999999999999,
        1.46,
        1.48,
        1.5,
        1.52,
        1.54,
        1.5600000000000001,
        1.5800000000000001,
        1.6000000000000001,
        1.6200000000000001,
        1.6399999999999999,
        1.6599999999999999,
        1.6799999999999999,
        1.7,
        1.72,
        1.74,
        1.76,
        1.78,
        1.8,
        1.8200000000000001,
        1.8400000000000001,
        1.8600000000000001,
        1.8799999999999999,
        1.8999999999999999,
        1.9199999999999999,
        1.9399999999999999,
        1.96,
        1.98,
        2.0,
        2.02,
        2.04,
        2.0600000000000001,
        2.0800000000000001,
        2.1000000000000001,
        2.1200000000000001,
        2.1400000000000001,
        2.1600000000000001,
        2.1800000000000002,
        2.2000000000000002,
        2.2200000000000002,
        2.2400000000000002,
        2.2599999999999998,
        2.2799999999999998,
        2.2999999999999998,
        2.3199999999999998,
        2.3399999999999999,
        2.3599999999999999,
        2.3799999999999999,
        2.3999999999999999,
        2.4199999999999999,
        2.4399999999999999,
        2.46,
        2.48,
        2.5,
        2.52,
        2.54,
        2.5600000000000001,
        2.5800000000000001,
        2.6000000000000001,
        2.6200000000000001,
        2.6400000000000001,
        2.6600000000000001,
        2.6800000000000002,
        2.7000000000000002,
        2.7200000000000002,
        2.7400000000000002,
        2.7599999999999998,
        2.7799999999999998,
        2.7999999999999998,
        2.8199999999999998,
        2.8399999999999999,
        2.8599999999999999,
        2.8799999999999999,
        2.8999999999999999,
        2.9199999999999999,
        2.9399999999999999,
        2.96,
        2.98,
        3.0,
        3.02,
        3.04,
        3.0600000000000001,
        3.0800000000000001,
        3.1000000000000001,
        3.1200000000000001,
        3.1400000000000001,
        3.1600000000000001,
        3.1800000000000002,
        3.2000000000000002,
        3.2200000000000002,
        3.2400000000000002,
        3.2599999999999998,
        3.2799999999999998,
        3.2999999999999998,
        3.3199999999999998,
        3.3399999999999999,
        3.3599999999999999,
        3.3799999999999999,
        3.3999999999999999,
        3.4199999999999999,
        3.4399999999999999,
        3.46,
        3.48,
        3.5,
        3.52,
        3.54,
        3.5600000000000001,
        3.5800000000000001,
        3.6000000000000001,
        3.6200000000000001,
        3.6400000000000001,
        3.6600000000000001,
        3.6800000000000002,
        3.7000000000000002,
        3.7200000000000002,
        3.7400000000000002,
        3.7599999999999998,
        3.7799999999999998,
        3.7999999999999998,
        3.8199999999999998,
        3.8399999999999999,
        3.8599999999999999,
        3.8799999999999999,
        3.8999999999999999,
        3.9199999999999999,
        3.9399999999999999,
        3.96,
        3.98,
        4.0,
        4.0199999999999996,
        4.04,
        4.0599999999999996,
        4.0800000000000001,
        4.0999999999999996,
        4.1200000000000001,
        4.1399999999999997,
        4.1600000000000001,
        4.1799999999999997,
        4.2000000000000002,
        4.2199999999999998,
        4.2400000000000002,
        4.2599999999999998,
        4.2800000000000002,
        4.2999999999999998,
        4.3200000000000003,
        4.3399999999999999,
        4.3600000000000003,
        4.3799999999999999,
        4.4000000000000004,
        4.4199999999999999,
        4.4400000000000004,
        4.46,
        4.4800000000000004,
        4.5,
        4.5199999999999996,
        4.54,
        4.5599999999999996,
        4.5800000000000001,
        4.5999999999999996,
        4.6200000000000001,
        4.6399999999999997,
        4.6600000000000001,
        4.6799999999999997,
        4.7000000000000002,
        4.7199999999999998,
        4.7400000000000002,
        4.7599999999999998,
        4.7800000000000002,
        4.7999999999999998,
        4.8200000000000003,
        4.8399999999999999,
        4.8600000000000003,
        4.8799999999999999,
        4.9000000000000004,
        4.9199999999999999,
        4.9400000000000004,
        4.96,
        4.9800000000000004,
        5.0,
        5.0199999999999996,
        5.04,
        5.0599999999999996,
        5.0800000000000001,
        5.0999999999999996,
        5.1200000000000001,
        5.1399999999999997,
        5.1600000000000001,
        5.1799999999999997,
        5.2000000000000002,
        5.2199999999999998,
        5.2400000000000002,
        5.2599999999999998,
        5.2800000000000002,
        5.2999999999999998,
        5.3200000000000003,
        5.3399999999999999,
        5.3600000000000003,
        5.3799999999999999,
        5.4000000000000004,
        5.4199999999999999,
        5.4400000000000004,
        5.46,
        5.4800000000000004,
        5.5,
        5.5199999999999996,
        5.54,
        5.5599999999999996,
        5.5800000000000001,
        5.5999999999999996,
        5.6200000000000001,
        5.6399999999999997,
        5.6600000000000001,
        5.6799999999999997,
        5.7000000000000002,
        5.7199999999999998,
        5.7400000000000002,
        5.7599999999999998,
        5.7800000000000002,
        5.7999999999999998,
        5.8200000000000003,
        5.8399999999999999,
        5.8600000000000003,
        5.8799999999999999,
        5.9000000000000004,
        5.9199999999999999,
        5.9400000000000004,
        5.96,
        5.9800000000000004,
        6.0,
        6.0199999999999996,
        6.04,
        6.0599999999999996,
        6.0800000000000001,
        6.0999999999999996,
        6.1200000000000001,
        6.1399999999999997,
        6.1600000000000001,
        6.1799999999999997,
        6.2000000000000002,
        6.2199999999999998,
        6.2400000000000002,
        6.2599999999999998,
        6.2800000000000002,
        6.2999999999999998,
        6.3200000000000003,
        6.3399999999999999,
        6.3600000000000003,
        6.3799999999999999,
        6.4000000000000004,
        6.4199999999999999,
        6.4400000000000004,
        6.46,
        6.4800000000000004,
        6.5,
        6.5199999999999996,
        6.54,
        6.5599999999999996,
        6.5800000000000001,
        6.5999999999999996,
        6.6200000000000001,
        6.6399999999999997,
        6.6600000000000001,
        6.6799999999999997,
        6.7000000000000002,
        6.7199999999999998,
        6.7400000000000002,
        6.7599999999999998,
        6.7800000000000002,
        6.7999999999999998,
        6.8200000000000003,
        6.8399999999999999,
        6.8600000000000003,
        6.8799999999999999,
        6.9000000000000004,
        6.9199999999999999,
        6.9400000000000004,
        6.96,
        6.9800000000000004,
        7.0,
        7.0199999999999996,
        7.04,
        7.0599999999999996,
        7.0800000000000001,
        7.0999999999999996,
        7.1200000000000001,
        7.1399999999999997,
        7.1600000000000001,
        7.1799999999999997,
        7.2000000000000002,
        7.2199999999999998,
        7.2400000000000002,
        7.2599999999999998,
        7.2800000000000002,
        7.2999999999999998,
        7.3200000000000003,
        7.3399999999999999,
        7.3600000000000003,
        7.3799999999999999,
        7.4000000000000004,
        7.4199999999999999,
        7.4400000000000004,
        7.46,
        7.4800000000000004,
        7.5,
        7.5199999999999996,
        7.54,
        7.5599999999999996,
        7.5800000000000001,
        7.5999999999999996,
        7.6200000000000001,
        7.6399999999999997,
        7.6600000000000001,
        7.6799999999999997,
        7.7000000000000002,
        7.7199999999999998,
        7.7400000000000002,
        7.7599999999999998,
        7.7800000000000002,
        7.7999999999999998,
        7.8200000000000003,
        7.8399999999999999,
        7.8600000000000003,
        7.8799999999999999,
        7.9000000000000004,
        7.9199999999999999,
        7.9400000000000004,
        7.96,
        7.9800000000000004,
        8.0,
        8.0199999999999996,
        8.0399999999999991,
        8.0600000000000005,
        8.0800000000000001,
        8.0999999999999996,
        8.1199999999999992,
        8.1400000000000006,
        8.1600000000000001,
        8.1799999999999997,
        8.1999999999999993,
        8.2200000000000006,
        8.2400000000000002,
        8.2599999999999998,
        8.2799999999999994,
        8.3000000000000007,
        8.3200000000000003,
        8.3399999999999999,
        8.3599999999999994,
        8.3800000000000008,
        8.4000000000000004,
        8.4199999999999999,
        8.4399999999999995,
        8.4600000000000009,
        8.4800000000000004,
        8.5,
        8.5199999999999996,
        8.5399999999999991,
        8.5600000000000005,
        8.5800000000000001,
        8.5999999999999996,
        8.6199999999999992,
        8.6400000000000006,
        8.6600000000000001,
        8.6799999999999997,
        8.6999999999999993,
        8.7200000000000006,
        8.7400000000000002,
        8.7599999999999998,
        8.7799999999999994,
        8.8000000000000007,
        8.8200000000000003,
        8.8399999999999999,
        8.8599999999999994,
        8.8800000000000008,
        8.9000000000000004,
        8.9199999999999999,
        8.9399999999999995,
        8.9600000000000009,
        8.9800000000000004,
        9.0,
        9.0199999999999996,
        9.0399999999999991,
        9.0600000000000005,
        9.0800000000000001,
        9.0999999999999996,
        9.1199999999999992,
        9.1400000000000006,
        9.1600000000000001,
        9.1799999999999997,
        9.1999999999999993,
        9.2200000000000006,
        9.2400000000000002,
        9.2599999999999998,
        9.2799999999999994,
        9.3000000000000007,
        9.3200000000000003,
        9.3399999999999999,
        9.3599999999999994,
        9.3800000000000008,
        9.4000000000000004,
        9.4199999999999999,
        9.4399999999999995,
        9.4600000000000009,
        9.4800000000000004,
        9.5,
        9.5199999999999996,
        9.5399999999999991,
        9.5600000000000005,
        9.5800000000000001,
        9.5999999999999996,
        9.6199999999999992,
        9.6400000000000006,
        9.6600000000000001,
        9.6799999999999997,
        9.6999999999999993,
        9.7200000000000006,
        9.7400000000000002,
        9.7599999999999998,
        9.7799999999999994,
        9.8000000000000007,
        9.8200000000000003
    ]
}