{
    "DU": 202,
    "DV": 132,
    "F-measure": 0.6960950764006791,
    "F-measure Chroma": 0.8081494057724958,
    "FN": 62,
    "FNC": 19,
    "FNCch": 34,
    "FNI": 43,
    "FNIch": 28,
    "FP": 17,
    "GU": 157,
    "GV": 177,
    "Overall Accuracy": 0.6137724550898204,
    "Overall Chroma Accuracy": 0.7125748502994012,
    "Precision": 0.7536764705882353,
    "Precision Chroma": 0.875,
    "Raw Chroma Accuracy": 0.7457627118644068,
    "Raw Pitch Accuracy": 0.4745762711864407,
    "Recall": 0.6466876971608833,
    "Recall Chroma": 0.750788643533123,
    "TN": 140,
    "TO": 334,
    "TP": 115,
    "TPC": 65,
    "TPCch": 98,
    "TPI": 50,
    "TPIch": 17,
    "Voiced Chroma Accuracy": 0.5536723163841808,
    "Voiced Pitch Accuracy": 0.3672316384180791,
    "Voicing Accuracy": 0.7634730538922155,
    "Voicing Detection": 0.6497175141242938,
    "Voicing False Alarm": 0.10828025477707007
}