{
    "DU": 196,
    "DV": 289,
    "F-measure": 0.7109557109557111,
    "F-measure Chroma": 0.8298368298368297,
    "FN": 86,
    "FNC": 12,
    "FNCch": 31,
    "FNI": 74,
    "FNIch": 55,
    "FP": 26,
    "GU": 136,
    "GV": 349,
    "Overall Accuracy": 0.6288659793814433,
    "Overall Chroma Accuracy": 0.734020618556701,
    "Precision": 0.7644110275689223,
    "Precision Chroma": 0.8922305764411027,
    "Raw Chroma Accuracy": 0.7936962750716332,
    "Raw Pitch Accuracy": 0.5931232091690545,
    "Recall": 0.664488017429194,
    "Recall Chroma": 0.775599128540305,
    "TN": 110,
    "TO": 485,
    "TP": 263,
    "TPC": 195,
    "TPCch": 246,
    "TPI": 68,
    "TPIch": 17,
    "Voiced Chroma Accuracy": 0.7048710601719198,
    "Voiced Pitch Accuracy": 0.5587392550143266,
    "Voicing Accuracy": 0.7690721649484537,
    "Voicing Detection": 0.7535816618911175,
    "Voicing False Alarm": 0.19117647058823528
}