{
    "DU": 251,
    "DV": 141,
    "F-measure": 0.7953890489913545,
    "F-measure Chroma": 0.8530259365994236,
    "FN": 78,
    "FNC": 20,
    "FNCch": 44,
    "FNI": 58,
    "FNIch": 34,
    "FP": 12,
    "GU": 185,
    "GV": 207,
    "Overall Accuracy": 0.7040816326530612,
    "Overall Chroma Accuracy": 0.7551020408163265,
    "Precision": 0.8789808917197452,
    "Precision Chroma": 0.9426751592356688,
    "Raw Chroma Accuracy": 0.8067632850241546,
    "Raw Pitch Accuracy": 0.5942028985507246,
    "Recall": 0.7263157894736842,
    "Recall Chroma": 0.7789473684210526,
    "TN": 173,
    "TO": 392,
    "TP": 129,
    "TPC": 103,
    "TPCch": 123,
    "TPI": 26,
    "TPIch": 6,
    "Voiced Chroma Accuracy": 0.5942028985507246,
    "Voiced Pitch Accuracy": 0.4975845410628019,
    "Voicing Accuracy": 0.7704081632653061,
    "Voicing Detection": 0.6231884057971014,
    "Voicing False Alarm": 0.06486486486486487
}