{
    "DU": 256,
    "DV": 226,
    "F-measure": 0.8045197740112995,
    "F-measure Chroma": 0.8135593220338984,
    "FN": 52,
    "FNC": 11,
    "FNCch": 24,
    "FNI": 41,
    "FNIch": 28,
    "FP": 27,
    "GU": 231,
    "GV": 251,
    "Overall Accuracy": 0.7385892116182573,
    "Overall Chroma Accuracy": 0.7468879668049793,
    "Precision": 0.827906976744186,
    "Precision Chroma": 0.8372093023255814,
    "Raw Chroma Accuracy": 0.7171314741035857,
    "Raw Pitch Accuracy": 0.649402390438247,
    "Recall": 0.7824175824175824,
    "Recall Chroma": 0.7912087912087912,
    "TN": 204,
    "TO": 482,
    "TP": 199,
    "TPC": 152,
    "TPCch": 156,
    "TPI": 47,
    "TPIch": 43,
    "Voiced Chroma Accuracy": 0.6215139442231076,
    "Voiced Pitch Accuracy": 0.6055776892430279,
    "Voicing Accuracy": 0.8360995850622407,
    "Voicing Detection": 0.7928286852589641,
    "Voicing False Alarm": 0.11688311688311688
}