{
    "DU": 170,
    "DV": 209,
    "F-measure": 0.6840579710144927,
    "F-measure Chroma": 0.8521739130434782,
    "FN": 46,
    "FNC": 0,
    "FNCch": 22,
    "FNI": 46,
    "FNIch": 24,
    "FP": 22,
    "GU": 146,
    "GV": 233,
    "Overall Accuracy": 0.6226912928759895,
    "Overall Chroma Accuracy": 0.7757255936675461,
    "Precision": 0.7087087087087087,
    "Precision Chroma": 0.8828828828828829,
    "Raw Chroma Accuracy": 0.8240343347639485,
    "Raw Pitch Accuracy": 0.48068669527896996,
    "Recall": 0.6610644257703081,
    "Recall Chroma": 0.8235294117647058,
    "TN": 124,
    "TO": 379,
    "TP": 187,
    "TPC": 112,
    "TPCch": 170,
    "TPI": 75,
    "TPIch": 17,
    "Voiced Chroma Accuracy": 0.7296137339055794,
    "Voiced Pitch Accuracy": 0.48068669527896996,
    "Voicing Accuracy": 0.820580474934037,
    "Voicing Detection": 0.8025751072961373,
    "Voicing False Alarm": 0.1506849315068493
}