{
    "DU": 232,
    "DV": 311,
    "F-measure": 0.7766599597585513,
    "F-measure Chroma": 0.8953722334004024,
    "FN": 53,
    "FNC": 4,
    "FNCch": 7,
    "FNI": 49,
    "FNIch": 46,
    "FP": 39,
    "GU": 218,
    "GV": 325,
    "Overall Accuracy": 0.7108655616942909,
    "Overall Chroma Accuracy": 0.8195211786372008,
    "Precision": 0.7877551020408163,
    "Precision Chroma": 0.9081632653061225,
    "Raw Chroma Accuracy": 0.84,
    "Raw Pitch Accuracy": 0.6492307692307693,
    "Recall": 0.7658730158730159,
    "Recall Chroma": 0.8829365079365079,
    "TN": 179,
    "TO": 543,
    "TP": 272,
    "TPC": 207,
    "TPCch": 266,
    "TPI": 65,
    "TPIch": 6,
    "Voiced Chroma Accuracy": 0.8184615384615385,
    "Voiced Pitch Accuracy": 0.6369230769230769,
    "Voicing Accuracy": 0.8305709023941068,
    "Voicing Detection": 0.8369230769230769,
    "Voicing False Alarm": 0.17889908256880735
}