{
    "DU": 95,
    "DV": 232,
    "F-measure": 0.7751677852348994,
    "F-measure Chroma": 0.7516778523489932,
    "FN": 29,
    "FNC": 0,
    "FNCch": 2,
    "FNI": 29,
    "FNIch": 27,
    "FP": 29,
    "GU": 95,
    "GV": 232,
    "Overall Accuracy": 0.7064220183486238,
    "Overall Chroma Accuracy": 0.6850152905198776,
    "Precision": 0.7751677852348994,
    "Precision Chroma": 0.7516778523489933,
    "Raw Chroma Accuracy": 0.6896551724137931,
    "Raw Pitch Accuracy": 0.7112068965517241,
    "Recall": 0.7751677852348994,
    "Recall Chroma": 0.7516778523489933,
    "TN": 66,
    "TO": 327,
    "TP": 203,
    "TPC": 165,
    "TPCch": 158,
    "TPI": 38,
    "TPIch": 45,
    "Voiced Chroma Accuracy": 0.6810344827586207,
    "Voiced Pitch Accuracy": 0.7112068965517241,
    "Voicing Accuracy": 0.8226299694189603,
    "Voicing Detection": 0.875,
    "Voicing False Alarm": 0.30526315789473685
}