{
	"f0": [NaN,52.93035138,52.74318912,49.99488296,49.96155943,50.61400138,51.40319622,53.68928109,54.71984975,56.68670424,57.71330717,58.15828432,58.53709319,58.63222055,58.70029033,58.71476684,58.47374657,58.36464961,58.16487533,58.5852913,58.7693401,58.71563572,58.64872624,58.6452068,58.38714027,58.48125875,58.70847858,58.86659172,58.83917382,58.83724102,58.97526682,59.13958692,59.20080616,58.98465108,58.5683449,58.78756913,58.80210448,58.90646168,59.10188255,59.2781617,58.58751484,59.15518549,59.48573577,59.59486015,59.26900051,59.06428465,59.01189815,59.02841267,58.88405449,58.83865166,58.84707872,58.91558692,58.91815922,58.83648639,58.79160793,58.78860522,58.81441904,58.88244092,58.90907161,58.8930313,58.86057306,58.88136014,58.98345784,58.7683647,58.88559323,58.90959011,58.8028463,58.60517609,58.32189072,58.24570655,58.2959144,58.39658414,58.49276082,58.6139259,58.74819208,58.91224475,59.22132328,59.44034876,59.32323245,59.51653934,58.84001292,58.92664466,58.96326224,59.07394399,59.03246106,58.93989035,58.67254302,58.41701834,58.40674325,58.48416113,58.38854866,58.41762289,58.57977751,58.33417446,58.18720906,58.29588108,58.31116794,58.31016805,57.41612942,56.90729661,56.9295296,56.80814835,56.74037311,56.75573067,56.64591229,56.7078991,56.64868874,56.28333977,56.17365605,55.82334383,55.58108561,55.24253679,55.13541551,55.38965854,55.51380917,55.60551328,55.60526652,55.47521862,55.60812522,55.374442,55.28249863,55.24133666,55.07126516,55.03470693,55.05035461,55.16498833,55.24136409,55.12614126,54.92504396,54.89519532,54.9003706,54.9353701,54.77394078,54.75635444,53.4363824,52.48377041,49.14437911,48.53520959,59.71325132,59.92997388,50.15444483,49.18741325,49.63415395,50.80781824,51.17062872,50.9804206,50.57296418,50.12983395,50.15444483,50.27755593,52.84334746,52.55080769,52.43557045,52.47058836,52.79590805,53.21675443,53.63897473,54.30040362,55.13489482,54.63719048,54.30040362,54.26057716,54.90453609,54.92150796,54.87077235,54.39444855,54.87257044,55.14213963,54.96543037,54.8522088,55.00033559,54.96514639,55.05270582,55.10710761,55.30042336,54.74607954,54.72393334,54.68228128,54.09992386,54.23579071,53.71854962,53.3590016,53.14641874,52.69712419,52.28277084,51.50131008,51.14399075,49.53278681,49.20136848,49.24950883,49.60926122,49.38327287,49.43389018,49.6811209,49.95452929,50.4780494,49.65449771,48.33040771,48.08942642,48.09332393,60.21469764,48.38640165,48.65332764,49.01380836,49.29953805,49.43761399,49.6423277,49.75845134,49.62566191,49.50758275,49.49825179,49.61998203,49.59114243,49.57254734,49.46687975,48.98570613,60.66080096,60.80684884,60.856968,48.80946064,49.23530644,49.3379479,49.31845295,49.70842949,49.49894028,49.24356631,61.25299173,61.33661948,49.29793902,49.40867748,49.61248883,49.73785358,49.75285353,49.60508267,49.72991907,49.96322214,49.40236483,61.83677829,61.68885698,61.52483579,60.91732291,53.66691864,52.31663633,50.31549102,49.99488296,49.14627773,61.52483579,62.15444483,62.4780494,54.96093702,54.86366409,55.13489482,56.83008782,55.76448073,55.71934209,57.41612942,58.84832552,48.91732291,48.86910719,54.03805899,54.02795444,60.62137826,64.19354484,48.0442468,48.76871822,41.77474286,55.34995772,56.20466258,57.88512003,58.4705589,58.71584742,58.59095113,58.18717385,58.24706148,58.37540641,58.16354076,58.16354076,59.62902144,59.51985666,59.0891267,59.01710992,58.99652543,58.99871532,59.05883516,59.08956054,58.95349952,59.23578837,59.65366633,59.53225186,59.15417107,58.91305486,58.87603938,59.02287029,59.33467123,59.59039797,59.54790564,59.42546058,59.31666344,59.10642569,58.97394995,58.93770176,58.94695653,59.04073941,59.08841234,59.08671435,59.18150615,59.97187381,59.73092107,59.03899032,58.78231814,58.72870714,58.96745101,59.33163085,59.37077019,59.3447177,59.26838042,58.88234016,70.51280249,70.45251807,60.91732291,58.50872508,58.67845345,58.59888062,58.49458163,58.66704154,58.88897838,58.98741277,59.10421019,59.34847127,59.46477158,59.42298459,59.31703824,58.9446811,59.4525063,59.60624136,59.52899538,59.0396918,58.76034623,58.79780377,58.85761283,58.59414271,58.60807943,58.62927606,58.58177565,58.73320478,59.03365271,59.1639327,58.59541627,58.56926329,58.31496396,57.41612942,57.63393125,57.37563687,57.20762212,57.19705917,57.03050851,56.9255897,56.90775927,56.8440561,56.87584019,56.7101683,56.41516258,56.15824826,55.63875786,55.45218949,55.18129417,54.91526322,54.8621153,54.90462473,55.34910909,55.23618865,55.04512082,54.89583539,54.88430191,55.08434125,55.21784164,54.87810142,54.9224708,54.27430881,52.37482755,50.08846768,49.68010446,49.63782479,49.59081699,49.506521,49.49301485,49.46568373,49.68329252,50.22353994,49.91936374,49.66017323,49.3301828,49.36822165,49.61621667,49.4852347,50.97508853,51.18424695,50.2487922,49.74986264,49.57267768,50.16146363,50.03511801,49.75749461,50.0062646,50.17955485,50.06977342,48.82319744,53.86847174,54.75774383,55.56772588,57.07780348,57.06855116,56.80218365,56.33644626,56.02729599,56.01165637,54.9224708,55.4834494,55.34325807,55.14897679,55.52294311,56.01165637,55.60290609,54.13094108,54.08286825,54.07455769,53.94113491,53.75010783,53.72799593,53.75847391,53.76651125,53.92625186,54.09170283,54.05593412,53.87208622,53.85637802,53.95613767,53.9481465,53.73569482,53.6357996,53.48285507,53.16666085,52.97686814,52.93129038,53.12051935,53.22514508,53.43703658,53.63482689,53.7549244,53.79841043,53.75040403,53.88818229,54.14155548,54.08530948,54.06230578,54.0777431,54.17175983,54.50614544,54.6149992,54.522065,54.52449731,54.69597501,54.77276708,54.77987636,54.85407445,55.04019794,54.9570354,54.89286413,54.91958284,54.94358183,54.90306264,54.95189419,55.07282278,55.14901518,55.14259747,55.16597338,55.2711842,55.14264813,54.69516665,54.89596716,54.96087001,55.04858764,55.35758316,56.46727057,55.50491311,55.17756724,55.13657897,54.21667831,48.04910864,48.12960768,67.56923363,49.22911644,49.09090059,58.42002457,36.78271291,36.22300214,55.34995772,55.90364063,47.61421581,49.1438654,60.52866952,60.71171602,60.59225739,59.73130448,57.91080137,57.29506377,56.69965447,56.64472533,57.91080137,60.33040771,59.97590676,47.21309485,45.41612942,54.12470583,54.25716777,54.71262168,55.69277614,56.46727057,57.41612942,45.02161536,60.8035457,59.21632522,58.16354076,56.37302238,42.40254162,42.68185405,54.42692262,54.71262168,55.13489482,55.54835557,56.01165637,56.02796996,55.4806515,55.29749252,55.34995772,54.95210475,54.85236885,55.7489426,61.40030585,59.48573577,47.42364611,47.62368344,38.86656505,35.34887861,43.25248481,43.62556969,44.20044882,44.58054692,41.60182825,47.90706101,48.18673601,47.90292079,45.37000989,45.50502482,45.50320664,45.78580198,44.81702672,42.60864334,57.41612942,43.13600037,44.18708562,47.60262036,44.08242224,46.03670986,56.69965447,55.54245853,56.46727057,46.55255466,46.68036542,50.20552448,44.29500705,76.93035138,NaN,NaN],
	"ap0": [NaN,0.3960533381,0.3459881341,0.3471543801,0.2823383807,0.2588302547,0.482131984,0.2173230971,0.1685392603,0.2236222723,0.08862832656,0.1176007588,0.1138328822,0.07234760521,0.04530753156,0.03910922583,0.06922575762,0.07981306461,0.06280734295,0.06952519437,0.03826725997,0.03782879327,0.06926017448,0.09513507401,0.0259596391,0.01456029894,0.009220100509,0.01030016527,0.02813545028,0.07336393237,0.05137244602,0.06318335847,0.04462764447,0.06260060028,0.06515442851,0.01935168728,0.01296267349,0.01648336793,0.03484109326,0.1725167184,0.5738070703,0.3070218844,0.1253223279,0.08726906784,0.02152163142,0.007332546531,0.01023557479,0.02120469378,0.009513766871,0.008604041768,0.01106123782,0.01067905044,0.01311327609,0.01663744162,0.01392957985,0.01035829902,0.007692254612,0.007287332609,0.005685360981,0.007599167679,0.0239240235,0.04755153991,0.0159547704,0.03207087035,0.04159027933,0.03124382552,0.02565858105,0.04941748488,0.07885800249,0.07255490473,0.04771185065,0.03787566263,0.04327778994,0.04858607803,0.02577850186,0.02378852052,0.03448754619,0.05044679375,0.06329806677,0.1349266857,0.1623281774,0.1767040013,0.1936440379,0.09069045522,0.04619041415,0.02583112134,0.02615167929,0.03312708489,0.04725732878,0.02599572722,0.01391041324,0.01288760414,0.01887382587,0.02587951618,0.02168943741,0.02516911435,0.02652261902,0.04405499056,0.1640245116,0.09817084806,0.03630334976,0.01872425919,0.02095199315,0.01911207613,0.03102429874,0.04119371883,0.05914268643,0.1000497097,0.1539404334,0.0545071545,0.0275551663,0.02594529716,0.02752827087,0.02138581249,0.0239982344,0.03455781231,0.04543223128,0.06817136167,0.05881958693,0.04559328412,0.03201958863,0.03441973598,0.04172321519,0.03572274796,0.01954804974,0.01021492864,0.01207642515,0.01646360765,0.01753223251,0.0382575728,0.06500411172,0.05642612539,0.1321302197,0.4272618556,0.4676741763,0.4912049914,0.3191527922,0.1623529483,0.1096600718,0.2472174409,0.5148873065,0.2286575433,0.157049458,0.09443861399,0.1484747166,0.2711681762,0.1517074157,0.1598341092,0.2607315485,0.4168315417,0.3493976977,0.2055031196,0.1547738904,0.1153531414,0.06343158849,0.07274509869,0.08957310947,0.1257407965,0.1372852571,0.2555412232,0.2203256891,0.1722001296,0.05008066362,0.0215208079,0.04202387058,0.0819413995,0.1536294247,0.1006672828,0.06121016561,0.02574893524,0.02839412938,0.05444508738,0.08982251087,0.1479502677,0.1455054367,0.05362802619,0.02258246596,0.0311591026,0.1062942646,0.1906302586,0.1694668433,0.1808332709,0.2570392716,0.4300731499,0.4557628141,0.3142504024,0.2269746668,0.1901796787,0.1665139014,0.2153561474,0.138156717,0.1342631934,0.1442193185,0.1742888437,0.1788098648,0.229470652,0.4690352463,0.2149617539,0.09009512876,0.07089137642,0.1155637897,0.1046039815,0.07731306328,0.0493226903,0.03112596038,0.04945822671,0.06824259205,0.04442404944,0.03408936137,0.03461788963,0.04754147065,0.04618605794,0.02220547325,0.02753749298,0.04886493645,0.1336183574,0.07885903156,0.04561700134,0.1441734767,0.1203444925,0.1005182333,0.07709096284,0.09755632332,0.2388114245,0.1831854557,0.2750204186,0.1626153283,0.1273740737,0.05162097575,0.07523534818,0.05867019256,0.03977843897,0.02318083455,0.02806628954,0.08812417516,0.190934749,0.2509220754,0.1082876657,0.1182471668,0.2370352484,0.6323145116,0.6394465639,0.7272273983,0.3319825918,0.3166858782,0.4498629437,0.3353340528,0.3898501789,0.6693655963,0.451939606,0.3155104248,0.5281614283,0.8689533225,0.3440838547,0.3315811462,0.4659652486,0.3323045805,0.44186713,0.6042663076,0.3876611804,0.5567476636,0.5180363543,0.7179627594,0.4800693161,0.423014001,0.5507843658,0.2611698199,0.2309041991,0.1485244244,0.1129567704,0.1275504627,0.2041429872,0.1827135975,0.1090814343,0.08656990771,0.151792567,0.3311376602,0.08829062218,0.0406402781,0.01708406169,0.01762062126,0.02509193513,0.0239076207,0.0202849141,0.01812643209,0.03433474359,0.09493324465,0.0691467079,0.07406549287,0.08339775307,0.03720639785,0.01608051857,0.01289894908,0.03008219984,0.03269778459,0.01746475553,0.02383592951,0.0197047751,0.02013579336,0.01951760866,0.01829824389,0.01515718441,0.0164631376,0.02407786205,0.05211959996,0.08036962913,0.07909197639,0.0703004195,0.08616990893,0.1047727355,0.04805395466,0.05485585892,0.02208713961,0.006247681376,0.01641993065,0.07428925051,0.2576602555,0.217581757,0.2068220595,0.6840609039,0.2531824113,0.1079696471,0.06473851215,0.03048719635,0.02836677055,0.02535278616,0.01585486885,0.02452894844,0.06899135504,0.1157682639,0.03513315757,0.1531733757,0.2792721522,0.06828904953,0.0329508441,0.04233396853,0.07791946383,0.03244970742,0.02779429154,0.03164728938,0.03514905069,0.0298935414,0.02441104199,0.01570633442,0.01555942562,0.01882459835,0.06183189998,0.1814151807,0.1832035879,0.3427607036,0.5524183549,0.2376224831,0.1301168889,0.03806037904,0.01622629845,0.01639594873,0.01901802813,0.02727854798,0.03079245782,0.02167728449,0.04874356659,0.1090982008,0.1724079174,0.05824467965,0.04384817431,0.05178720205,0.02492592316,0.02255833015,0.09690180619,0.1533155587,0.07847806308,0.04042495904,0.04790760395,0.05533824551,0.1309198656,0.1561440651,0.1113441768,0.1436541596,0.3510998055,0.5307735144,0.3465199479,0.1295935555,0.05897432973,0.05329614635,0.08703422219,0.1473965003,0.2747291836,0.3436735252,0.150406856,0.07393719347,0.08035662594,0.1198108726,0.132658178,0.2285223929,0.2612828844,0.4530745024,0.3379715655,0.1231056672,0.08695250447,0.07746812186,0.06904812043,0.08656987122,0.1364709628,0.2912020095,0.3004103851,0.2374457526,0.6267468422,0.3339072951,0.1215542351,0.15625549,0.09978498312,0.05056182907,0.04828640471,0.1008637852,0.1953465892,0.2199423356,0.2399753652,0.4112423691,0.2965428967,0.2262445799,0.1611763066,0.1998036764,0.3184686758,0.1171585692,0.03205745213,0.009556793714,0.01396222647,0.01534402564,0.0213414317,0.04351035503,0.0844162357,0.06564611803,0.02755934729,0.02404398244,0.05884194035,0.1432883802,0.1357294388,0.2163521634,0.2653363298,0.1374372673,0.1153415535,0.1667061599,0.3330448463,0.1859402764,0.05259114361,0.03902772443,0.04123250538,0.03989394765,0.03799942313,0.02078398497,0.02416039514,0.03840551054,0.04045899757,0.06100530924,0.1130430093,0.09716969837,0.05602762751,0.0362872026,0.02143914134,0.01800435761,0.014137441,0.008298186661,0.00809165168,0.01947188163,0.03063079318,0.02391857809,0.01369430235,0.005665907088,0.005528843397,0.005644088836,0.004183212794,0.00672269803,0.01103944289,0.01112641335,0.01615896895,0.03093685394,0.04192359546,0.06926817405,0.1012901702,0.1031103038,0.126048803,0.2059832467,0.2945691579,0.1052967746,0.06253279547,0.05566597959,0.1313059573,0.6635259573,0.2337213915,0.4069334238,0.6851804588,0.5913146791,0.6348216301,0.4923195997,0.3197907445,0.3797080193,0.3561836724,0.7907385873,0.6383567903,0.6901947489,0.1572479359,0.09125239619,0.1466272012,0.2613478224,0.4500868134,0.7048489121,0.280661908,0.2398510795,0.3575910461,0.4881349097,0.4073655849,0.3327883129,0.2897663243,0.5590592547,0.3933656154,0.4675724456,0.3539721803,0.1951149438,0.4182436679,0.5503380108,0.3979169918,0.3169210694,0.4110593884,0.5965042126,0.2649954818,0.4726652335,0.5701612525,0.3930046832,0.2592565466,0.2611575188,0.2999302527,0.3669679664,0.2248226225,0.1467550583,0.1595627486,0.1534654785,0.2054956462,0.4324673036,0.481174507,0.6515991157,0.4586256447,0.6044696709,0.9474722217,0.7838280191,0.4139580838,0.3867272832,0.4560448407,0.5124072553,0.7557555684,0.584588687,0.4530117382,0.5522531386,0.7494010158,0.7839662463,0.4875373904,0.5252508775,0.6195132609,0.7741323127,0.572998797,0.4342080139,0.6678089226,0.6309039018,0.6714498841,0.6588000638,0.6462064691,0.2364247882,0.5466285675,0.4607900296,0.4311781385,0.7123528315,1.610840887,1,NaN,NaN],
	"ap": [NaN,0.1780027972,0.2305449739,0.1753019383,0.420341049,0.1222506734,0.2732494954,0.6591321575,0.07134905225,0.1802049253,0.0718810004,0.05995958614,0.04187357651,0.1214557809,0.03191493238,0.01384388171,0.01642445565,0.03985059899,0.02165929718,0.04546948227,0.05251968428,0.04702234726,0.008817003977,0.06328812864,0.04722220962,0.02171576621,0.01067604393,0.002417121863,0.001908395129,0.01552939859,0.02674317756,0.01564811701,0.0363057782,0.03181198562,0.007074233378,0.09146393084,0.01173730286,0.002370480447,0.005210641664,0.01826676125,0.03781120756,0.1974348366,0.6725615676,0.160864997,0.03953477152,0.02734961135,0.003308290618,0.003260576341,0.01435148046,0.006091735788,0.00195639494,0.00382697808,0.006717683073,0.005725651704,0.00982401726,0.003392125995,0.002235625368,0.002316034899,0.007408138865,0.002602235443,0.000797962997,0.002925701596,0.02396880672,0.006951853748,0.01499881154,0.01621650191,0.0189758851,0.005656197319,0.02094236254,0.05581828299,0.06144317288,0.04816443704,0.01097725241,0.02703437392,0.02300604179,0.01440856779,0.007459521046,0.02813815881,0.03166759911,0.04677045707,0.03402476728,0.04888154054,0.2071841622,0.04013779322,0.08443935034,0.07685255972,0.01085846618,0.007747162333,0.0255665847,0.05049901596,0.01819443144,0.004369174766,0.009786625093,0.007254533096,0.01882667351,0.01585833085,0.01042188826,0.04470979334,0.02043070502,0.08266441965,0.2963789377,0.02248203071,0.008411126302,0.01539746695,0.006068882711,0.01139060071,0.02718210466,0.03792800127,0.04448637196,0.08614549603,0.09543440979,0.003538590213,0.02075494041,0.01990192288,0.007422436024,0.0270765095,0.01395137556,0.02574139586,0.02160106405,0.06861046207,0.0293196186,0.01768405409,0.01645602492,0.05189465734,0.009072396106,0.004105428753,0.0154671777,0.002425950048,0.008720612038,0.008609653556,0.01186483245,0.03210723448,0.04491890713,0.04555133375,0.2388706899,0.7194497801,0.2257085039,0.2068101432,0.2393215676,0.02902547188,0.8498718605,0.1710101366,0.08714460484,0.04432040279,0.03037022643,0.1531344532,0.1200470404,0.2136255036,0.08004056046,0.1330929788,0.6965334236,0.3932164123,0.06149158151,0.1819282068,0.06998005,0.04750247645,0.02635627508,0.08888896951,0.05624160547,0.05179586279,0.08810151204,0.1162518816,0.2438958538,0.005814451822,0.01214264766,0.01524559782,0.09455953597,0.1282585786,0.04821415957,0.05034378447,0.001555494029,0.01852157412,0.03251619471,0.03401023025,0.1050922034,0.1032504418,0.09154993752,0.006019570906,0.04773518636,0.182617365,0.1368421321,0.1047614761,0.02953946498,0.2770875028,0.1774629274,0.3934289403,0.4652619619,0.177564266,0.193426757,0.08356087489,0.1016987169,0.1050031291,0.08408530819,0.03979765524,0.1337646383,0.06941275035,0.04886193911,0.5685864126,0.0667369163,0.03884811766,0.03381253154,0.03920631096,0.03363028522,0.07100407054,0.0156276586,0.01484748665,0.0214644305,0.0148841125,0.0214934181,0.02934908225,0.009633022803,0.04020020656,0.02208698583,0.01347446254,0.003198603482,0.06873256536,0.07352048543,0.01492889479,0.03377862552,0.07220984456,0.07678580292,0.01709039934,0.04907486588,0.08714354648,0.2823258679,0.08407878367,0.8664767158,0.07076423499,0.018010337,0.003333256743,0.06800925827,0.03214799572,0.01437786583,0.006885054891,0.01553530503,0.0130292421,0.2692882337,0.2838028497,0.08116949317,0.04492024965,0.3329589273,0.6979019211,0.4234882676,0.2866700936,0.3106813194,0.327147069,0.6257334999,0.207603994,0.464958673,0.8454723782,0.1478716037,0.1242075194,0.6015199345,0.4211900502,0.5493668145,0.3281275909,0.3474925534,0.4198299006,0.4702094278,0.6234774917,0.6413743713,0.8368005932,0.8417110535,0.5526789524,0.3324204763,0.3762340995,0.7328568396,0.216723876,0.2489558154,0.1172495294,0.04746258759,0.02440418579,0.04443535082,0.2582392833,0.06234413752,0.01027968749,0.1195001574,0.3078763275,0.05470082854,0.07203256474,0.0183119992,0.004087526036,0.01455697376,0.00315872372,0.0212358075,0.006138085142,0.04098710987,0.01430598698,0.04889561682,0.01594815327,0.01517979292,0.09162035773,0.00516789326,0.00603374604,0.007207310653,0.006406554714,0.003759801146,0.01477685197,0.01555387056,0.02129882232,0.006190522278,0.01009612843,0.007554564309,0.01466998276,0.01260155123,0.01892621118,0.1638851118,0.01060331544,0.04544050457,0.03221315469,0.05461729445,0.01968639729,0.03482110237,0.0322133033,0.001373011578,0.003324612249,0.0516566607,0.7774844889,0.09222492714,0.6261896348,0.1011511812,0.2275382769,0.07503078269,0.06249004499,0.03578574572,0.02084740399,0.009978010314,0.006835895566,0.007156799691,0.1197899114,0.04912259661,0.03082866822,0.05345975263,0.6623529486,0.1372303091,0.01983968774,0.04166092653,0.09101685678,0.01617593905,0.01400926385,0.02386018292,0.01519257686,0.01161208742,0.008061698594,0.005139364955,0.004916659176,0.01546763936,0.1221665318,0.03398660844,0.09316087894,0.2281464981,0.330489201,0.3324582759,0.08066410809,0.01133038294,0.003715976972,0.005448804096,0.005656286861,0.005220778411,0.05078392149,0.008145498275,0.03830519245,0.09356298243,0.1246355896,0.06580787669,0.0117149903,0.04929797239,0.004975012054,0.008700599032,0.07435461863,0.4035133874,0.04229106941,0.01884666404,0.01194666513,0.03019183916,0.08879979661,0.1137841382,0.04918902018,0.02957614896,0.2768410972,0.2332520665,0.3234781438,0.1176816278,0.02605912697,0.02656097498,0.0310172889,0.1085581805,0.2855424353,0.1692855839,0.1897270546,0.05528241325,0.05439857337,0.06233582586,0.06116159951,0.3340944652,0.2531339448,0.3075010615,0.2797844942,0.06824820621,0.02840522629,0.07942813568,0.01541506163,0.05842627219,0.09752470244,0.2711884928,0.1642032703,0.2535892554,0.6409722602,0.5068992839,0.06979026105,0.1119139471,0.06260478285,0.04191489829,0.01548152869,0.01194847616,0.1223453878,0.08794217489,0.2136588233,0.295351781,0.2097503486,0.1843526201,0.4158281984,0.0637056916,0.5254263429,0.2272319138,0.00712014125,0.007035536245,0.0137490661,0.001730502575,0.009052122745,0.01704982812,0.06735426719,0.1439584293,0.01736693923,0.007839014579,0.04250479622,0.1188919392,0.1059032686,0.05346209314,0.0538861907,0.1343237509,0.07309074651,0.2036432265,0.1029985303,0.2187340407,0.03125030254,0.02018937786,0.03929798032,0.01818143102,0.01767452909,0.01464006023,0.01111158769,0.01519269137,0.01762058234,0.02296831222,0.03524988404,0.09240463771,0.03578225068,0.02134154449,0.007817950335,0.01329159401,0.006418249484,0.003955196552,0.002115986417,0.01070185675,0.01655975407,0.007206792547,0.008909613998,0.00202411186,0.002125828009,0.004486048049,0.001684051362,0.005120885516,0.006874251725,0.008446709888,0.00335626191,0.01545129222,0.02791925067,0.02315552884,0.07061608891,0.05222275221,0.09691289418,0.1040308329,0.4830286581,0.05052215563,0.1244608066,0.02057511348,0.1122727254,0.6516024157,0.1374715469,0.1715775171,0.3695173724,0.3099082539,0.455404963,0.2266701332,0.2356866073,0.2022297296,0.086690243,0.2953696077,0.3801464075,0.686665692,0.2462884666,0.01084439335,0.09568772525,0.0894379401,0.1003209983,0.235937396,0.1036794723,0.7397953302,0.07707167374,0.02009776706,0.2781106152,0.2632375983,0.6636995042,0.253221653,0.1439225458,0.4273035922,0.1555383521,0.04810682833,0.2442321089,0.3401737916,0.2850105826,0.05820929094,0.128350671,0.08095287408,0.1540020016,0.05195096831,0.1319850758,0.3054241531,0.1804539698,0.3107866496,0.1883427437,0.5495367854,0.3532476361,0.1879791452,0.08084124325,0.04483448109,0.2513400573,0.579160686,0.2594016136,0.2101447461,0.2025310636,0.3418274885,0.3477089015,0.2643874507,0.06585512493,0.2079413204,0.08533659123,0.08332340393,0.2017785313,0.09368678765,0.07449765878,0.1282116913,0.080794186,0.1483923257,0.1638390114,0.2092548694,0.1507930147,0.2379572155,0.06568337634,0.08279968103,0.077798236,0.05439604763,0.1236721166,0.2542535472,0.07367553148,0.1004363077,0.1717883078,0.09948407368,0.3617437002,0.05732196154,5.960464122e-08,NaN,NaN],
	"pwr": [NaN,0.0001054390633,0.0001695569647,0.0007337178963,0.007224792902,0.01357386032,0.01393723921,0.01416742712,0.0132795885,0.0437295523,0.01572213631,0.04037090583,0.08227735421,0.03201724408,0.04983265139,0.06659959063,0.02729349473,0.01848184729,0.04633010072,0.01509878422,0.0231543497,0.02546450973,0.06431706018,0.01955090761,0.005467549564,0.007470327246,0.09402079439,0.1533807739,0.1377956396,0.05925016092,0.003202009062,0.003084411761,0.005402634779,0.01624401523,0.02427327773,0.004520936843,0.006377327346,0.03107835018,0.03046361499,0.01483921957,0.001156229791,7.700500738e-05,0.0003740823179,0.001593012209,0.009631358519,0.0196291494,0.112006221,0.08062733831,0.01551856436,0.02719503872,0.03126739884,0.03628778415,0.03446625227,0.03556365669,0.04313307723,0.07332967285,0.07883119711,0.03886115122,0.03277426123,0.04649750241,0.05819284445,0.02800925895,0.002623099197,0.004509331343,0.006097328814,0.01516393106,0.0401855916,0.03583506032,0.01788587607,0.01042326136,0.005187867203,0.008673424456,0.02609940585,0.0179851537,0.01995844971,0.08049666321,0.2774204362,0.08780321703,0.02231174315,0.01497123937,0.005949066986,0.0005749485219,0.000571134545,0.002789329993,0.005636197363,0.02805309798,0.06801881806,0.07148345373,0.03209750709,0.01986039414,0.0126586366,0.03261611281,0.02884086036,0.02475772924,0.01299585984,0.01455243058,0.03770580481,0.02907198348,0.00830084003,0.01949798717,0.01745238144,0.05445265115,0.07013864139,0.04299835272,0.07886743988,0.04981168669,0.0428068165,0.04371288237,0.01290806009,0.006705848587,0.009343349434,0.08130970818,0.06180487825,0.02640080779,0.0533402213,0.03722759396,0.03845710091,0.01345681809,0.003194969122,0.003729326603,0.01994139019,0.03745994935,0.03662498649,0.009241915288,0.002932783278,0.007001627492,0.00777203547,0.02185050875,0.01831665886,0.008379646131,0.005961253987,0.002158730714,0.004148912777,0.0005378393117,0.0003198419078,0.0002074487826,0.002061254797,0.001730198467,0.008266149199,0.008015804496,0.01164676511,0.01290278114,0.0184665753,0.012488597,0.007230023696,0.007024775927,0.003134534251,0.001840510127,0.01731875535,0.008095826554,0.001495063925,0.0006403715173,0.01831959387,0.01906791904,0.008092602273,0.02400651779,0.02539883938,0.02449899563,0.009321697201,0.009121225957,0.001959691627,0.006347937217,0.01297916792,0.01055152909,0.01664107212,0.01943122591,0.0149052626,0.0123690592,0.04628648657,0.0642437761,0.06415428656,0.05821135984,0.02090800528,0.0204504037,0.007980921596,0.003650550006,0.007979992449,0.05777764299,0.0647269528,0.007478939097,0.001055525347,0.007147402975,0.01055126338,0.003433354253,0.006728050774,0.004028773855,0.005060022992,0.01824404051,0.044645583,0.08365020011,0.07333945187,0.02847388128,0.004951028066,0.009095699481,0.005613727036,0.002826672509,0.007995673688,0.002803205982,0.01002713924,0.02011033878,0.03344781941,0.01267078738,0.0145791744,0.02270607605,0.03438296425,0.03990379752,0.02873381194,0.01031519056,0.01314712262,0.02164667849,0.03058834064,0.02402133869,0.008940710055,0.01202218854,0.01446929847,0.008793576299,0.001845167296,0.005784765022,0.01776961804,0.01081939052,0.005690620533,0.01372674664,0.01647292284,0.003261139168,0.0002223862118,0.0003020997541,0.0001436787979,0.005194152507,0.01253730045,0.009467849754,0.01099268016,0.004007451766,0.005294487474,0.008785874804,0.009482476127,0.005635865305,0.00507472893,0.0006566262434,0.0009512969756,0.002997615718,0.0001995287492,5.493103081e-05,2.047951305e-05,2.02112878e-05,2.499072227e-05,0.0001863132353,0.0001736564975,0.0003457412563,0.0001429643664,0.0001357032354,7.269040091e-05,3.539124449e-05,1.46543008e-05,1.423536938e-05,1.082602301e-05,0.0001315040912,1.304261507e-05,0.000129192067,6.287613539e-05,0.0001531109254,1.822074477e-05,0.0003661147271,0.0008739132633,0.00875631895,0.01674998333,0.02813425323,0.02612232745,0.07706571715,0.06192891014,0.0797940485,0.1672513468,0.1365855232,0.06004860873,0.0146478842,0.03967675742,0.04755015496,0.01638658854,0.01055023294,0.01073256704,0.06931812258,0.04809199557,0.07635718291,0.06213774487,0.1346594989,0.06006152695,0.07917371009,0.07702902498,0.01864101487,0.0360160444,0.05070237054,0.00525734613,0.003257950713,0.05051920816,0.1564424211,0.1274081983,0.07277279763,0.1225577016,0.06759833358,0.07819585575,0.07418701926,0.1622583357,0.1785772833,0.173835223,0.216698627,0.09067895593,0.03510503236,0.004394582518,0.003922688585,0.0006243871151,0.001130949729,0.001779571049,0.02225359355,0.03138667299,0.03530604791,0.0967214512,0.06568275907,0.005769743028,0.0001617834543,0.000646201885,0.0005012777481,0.0001515074836,0.001273706492,0.01139484828,0.02574896797,0.0145588603,0.03002860389,0.04739821163,0.1212743663,0.2092374828,0.03734099977,0.00316569767,0.006752248733,0.00961619585,0.002136679537,0.0214602928,0.1955214813,0.0455055146,0.006032627415,0.01644534501,0.0658159367,0.06370272219,0.01763337835,0.02454178485,0.03586104889,0.117815393,0.1867105251,0.08004627631,0.007764276692,0.002005216046,0.002942792097,0.002095050235,0.001870360548,0.004509532789,0.02072222489,0.07079665976,0.2457620976,0.1899906539,0.1529600674,0.2227925291,0.1073698855,0.08845466553,0.1466619523,0.02905758598,0.008678446149,0.03167178592,0.140168902,0.06536718023,0.09890107154,0.06205868294,0.01648127107,0.01239626695,0.1001762473,0.08797067375,0.0253497479,0.01165569844,0.004419326563,0.01034218227,0.002853354524,0.006659434093,0.000886243882,0.002458096699,0.0008830660697,0.01499699763,0.1278180554,0.1913687706,0.08842291435,0.02503950752,0.004040764047,0.006964963489,0.008702030615,0.05735264906,0.08970814007,0.05017967886,0.01108748612,0.00311692827,0.006185531287,0.02497966347,0.02538565273,0.02343147088,0.07545077473,0.04480813319,0.06864403506,0.1277161888,0.02662243503,0.003994211335,0.005089548248,0.006622411423,0.004495360151,0.0145691591,0.05996223041,0.06238897982,0.01736694571,0.1461177181,0.1947715595,0.1393660493,0.04084391554,0.06847056309,0.0221274082,0.007120536493,0.005949680792,0.002340323287,0.001022633309,0.007122675186,0.003424112126,0.006240166863,0.1300569166,0.1835925772,0.1636488601,0.08691153823,0.09091958264,0.05672257056,0.01779317635,0.00897380985,0.04457600092,0.06014545733,0.01947034733,0.004195052845,0.004129088384,0.001953453523,0.009639721274,0.03808776181,0.08583946955,0.01007374014,0.008727174656,0.002136315305,0.01245619706,0.05488694657,0.03611990609,0.03620026923,0.03797897687,0.03037128684,0.0738896105,0.0399688515,0.01604109904,0.01066086027,0.01118544127,0.01029256198,0.01617932092,0.01548872191,0.01305677414,0.01206954151,0.029569165,0.02636808281,0.03069890217,0.02824652429,0.01987328957,0.01146197313,0.01481170106,0.03214806135,0.03198028101,0.03078089694,0.0394124613,0.03428815653,0.02191527271,0.01026532572,0.007714200671,0.0117171432,0.009805682248,0.001814599809,0.0008859878622,0.0006302888976,0.0003625914234,9.916848793e-05,2.020016313e-05,0.0001375373843,0.0002438994533,0.001726297267,0.0005474718136,8.927664422e-05,4.835199186e-05,4.300653385e-05,1.877002948e-05,2.278277802e-05,2.669728597e-05,3.024089744e-05,9.248582469e-05,0.0002115184616,9.188599352e-05,3.52620298e-05,5.830209113e-05,4.748379326e-05,0.0001328323322,0.0006562893374,0.0005823689315,0.0008448460958,0.0005211928478,0.0001000675406,8.397012243e-05,0.0001270637166,0.0001019407956,7.608745852e-05,5.463710977e-05,5.811637449e-05,1.981567927e-05,4.667762664e-06,6.678605351e-06,1.468745191e-05,5.236432732e-05,8.934757895e-06,4.535780347e-06,5.384563405e-06,5.636143377e-06,3.97351002e-06,2.657448788e-06,1.118339312e-06,9.136243354e-07,7.179480824e-07,1.483306524e-07,1.220700883e-07,1.620635664e-07,5.30619525e-08,5.165769506e-07,1.020226038e-07,8.065359571e-08,7.281982107e-07,3.488772408e-07,1.606786196e-07,7.871320581e-08,1.514461568e-08,1.093934453e-08,6.09691269e-09,2.415850759e-09,5.863576785e-09,4.342658167e-09,7.790859573e-09,8.637626264e-09,6.120863185e-09,5.398529163e-09,2.202025409e-09,2.887230848e-09,2.463482905e-09,2.923160337e-09,4.704135399e-09,2.567467257e-09,3.12305655e-09,2.629394985e-09,7.517103638e-09,4.99609947e-09,2.711985103e-09,3.613357922e-09,3.3808171e-09,2.65777575e-09,1.970467749e-09,2.151559087e-09,3.333568472e-09,2.108153008e-09,1.927061627e-09,6.506729842e-09,5.011150444e-09,8.807440731e-09,1.582172592e-09,9.313225746e-10,NaN,NaN],
	"sr": 16000,
	"range": [1,183808],
	"minf0": 63.1883,
	"maxf0": 706.3069,
	"thresh": 0.1,
	"relflag": 1,
	"hop": 320,
	"bufsize": 10000,
	"wsize": 640,
	"lpf": 4000,
	"shift": 0,
	"plotthreshold": 0.2
}
