{
    "DU": 207,
    "DV": 345,
    "F-measure": 0.6533192834562698,
    "F-measure Chroma": 0.7924130663856691,
    "FN": 139,
    "FNC": 69,
    "FNCch": 109,
    "FNI": 70,
    "FNIch": 30,
    "FP": 16,
    "GU": 84,
    "GV": 468,
    "Overall Accuracy": 0.5615942028985508,
    "Overall Chroma Accuracy": 0.6811594202898551,
    "Precision": 0.7506053268765133,
    "Precision Chroma": 0.910411622276029,
    "Raw Chroma Accuracy": 0.8910256410256411,
    "Raw Pitch Accuracy": 0.6645299145299145,
    "Recall": 0.5783582089552238,
    "Recall Chroma": 0.7014925373134329,
    "TN": 68,
    "TO": 552,
    "TP": 329,
    "TPC": 242,
    "TPCch": 308,
    "TPI": 87,
    "TPIch": 21,
    "Voiced Chroma Accuracy": 0.6581196581196581,
    "Voiced Pitch Accuracy": 0.5170940170940171,
    "Voicing Accuracy": 0.7192028985507246,
    "Voicing Detection": 0.7029914529914529,
    "Voicing False Alarm": 0.19047619047619047
}