{
    "DU": 0,
    "DV": 480,
    "F-measure": 0.43356643356643354,
    "F-measure Chroma": 0.7622377622377624,
    "FN": 0,
    "FNC": 0,
    "FNCch": 0,
    "FNI": 0,
    "FNIch": 0,
    "FP": 102,
    "GU": 102,
    "GV": 378,
    "Overall Accuracy": 0.3875,
    "Overall Chroma Accuracy": 0.68125,
    "Precision": 0.3875,
    "Precision Chroma": 0.68125,
    "Raw Chroma Accuracy": 0.8650793650793651,
    "Raw Pitch Accuracy": 0.49206349206349204,
    "Recall": 0.49206349206349204,
    "Recall Chroma": 0.8650793650793651,
    "TN": 0,
    "TO": 480,
    "TP": 378,
    "TPC": 186,
    "TPCch": 327,
    "TPI": 192,
    "TPIch": 51,
    "Voiced Chroma Accuracy": 0.8650793650793651,
    "Voiced Pitch Accuracy": 0.49206349206349204,
    "Voicing Accuracy": 0.7875,
    "Voicing Detection": 1.0,
    "Voicing False Alarm": 1.0
}