{
    "f0": [
        0.0,
        0.0,
        0.0,
        0.0,
        0.0,
        0.0,
        0.0,
        0.0,
        0.0,
        0.0,
        0.0,
        0.0,
        0.0,
        0.0,
        0.0,
        0.0,
        0.0,
        0.0,
        0.0,
        0.0,
        0.0,
        0.0,
        0.0,
        0.0,
        0.0,
        44.028960055397192,
        56.656476136326262,
        43.16015911863488,
        55.899902789661112,
        56.501437575167813,
        56.55544817204057,
        56.700148150748312,
        56.79865272335519,
        56.881768621673238,
        57.144134535522049,
        56.426319061998399,
        40.12000741244772,
        46.36470621146006,
        45.994785592270716,
        39.973495267326996,
        39.171935512940365,
        58.381510528693127,
        58.797333435973201,
        58.853645957922929,
        56.888867515847437,
        54.844478716643451,
        52.525936970553587,
        52.191698731701457,
        64.387243755066748,
        38.87665346788765,
        64.302016152132765,
        45.212246059774834,
        45.148957829330271,
        64.291836492201426,
        63.888199862061306,
        63.817761802982318,
        0.0,
        46.198310333103109,
        46.541138359713656,
        41.601525225613415,
        65.315306819445553,
        65.315306819445553,
        65.6863641171891,
        66.049635096274699,
        66.231447268582215,
        65.790959908142881,
        65.827706399550294,
        65.589128414191975,
        66.566270314638572,
        66.901589762817736,
        67.522297079179936,
        67.453893992446169,
        67.38521956464335,
        65.317738477795473,
        65.158873652317467,
        65.198533058766074,
        65.394777749763307,
        65.337541602838542,
        65.280117063561505,
        65.394760015039907,
        65.169276807776072,
        65.09643293399381,
        65.360343511932129,
        65.173655299477375,
        64.857060148125669,
        45.695002049846622,
        42.512721106106625,
        42.040852048417129,
        41.55576018929753,
        39.437210300235812,
        63.482533943001933,
        63.602686191161354,
        63.89427571728541,
        64.09652613865687,
        64.074211488047453,
        64.051866467047134,
        64.201760042117598,
        63.94466791960383,
        63.347561950333009,
        63.415850903239807,
        62.667925000656133,
        61.712225420166234,
        61.379099055008908,
        61.039647718462405,
        61.106150160995455,
        61.51148397836964,
        61.035940865764864,
        61.712626060270651,
        61.963320579169277,
        62.059271961825083,
        61.70270707187872,
        61.711067503759054,
        62.156609358173803,
        62.205176712715826,
        61.472889572998632,
        42.025294280912689,
        53.871189628616591,
        60.48931000388454,
        60.597704295936524,
        60.386324330189574,
        60.172329494292512,
        60.244947651603155,
        60.608617986486543,
        60.115984405148346,
        59.776388954632765,
        59.687604715551508,
        60.314048148975957,
        60.478933664001111,
        60.154709750316457,
        59.950547615488937,
        60.023011019709315,
        61.742785356106793,
        61.685805576013777,
        62.065791651902799,
        62.02803037106392,
        61.763480072685923,
        43.625209486019955,
        36.759524524357971,
        36.889583531067878,
        60.897872185347453,
        0.0,
        0.0,
        49.706526443710658,
        50.049363079713579,
        45.413057844871076,
        60.367993906130479,
        60.018236761390064,
        60.064753430419998,
        60.314682757945235,
        60.28702899230813,
        60.740710820402569,
        59.950823013501584,
        58.876421254841873,
        58.884988906877851,
        58.681845013564654,
        57.078573920957794,
        53.708233681546965,
        49.669283619546647,
        51.393032635115695,
        52.321169733417761,
        53.334869365837569,
        54.229784627392036,
        54.936584041073516,
        55.157772570135656,
        55.776020654315687,
        55.292944252653555,
        54.511183661272128,
        54.687008843730595,
        55.827789538645376,
        55.923032706321635,
        55.802730633617827,
        56.018677383974961,
        55.398111438305804,
        55.180367784264163,
        54.745480742218973,
        55.888215469346719,
        55.851530490687075,
        56.050029664600629,
        56.114428507144218,
        55.717076257475078,
        55.768547096308389,
        56.369437998536597,
        55.979903184883995,
        55.146971136739388,
        54.844595650027784,
        55.092412114839576,
        55.130624535818782,
        54.385933897396818,
        53.936924041494024,
        53.6505430119512,
        53.613621111791026,
        53.275680572438446,
        52.931011808189112,
        52.579339830860796,
        53.06505028246665,
        53.052590441147991,
        52.915737096063971,
        53.685266265893041,
        53.124492218157634,
        54.077560019323549,
        54.523115037225516,
        55.008220358072307,
        55.48010233525936,
        53.203321350277292,
        53.04213654229396,
        53.391169280016413,
        53.056719617284941,
        52.979396775693061,
        53.281502874210659,
        52.596625312382201,
        53.936228995805543,
        52.640110220624393,
        53.538226351170913,
        52.689136859789123,
        52.933786622152944,
        53.04508366829355,
        53.220349091246575,
        0.0,
        0.0,
        52.951061721448959,
        52.063055351151291,
        46.016777842181149,
        53.512329785938931,
        53.338336844560999,
        59.219798071239197,
        59.298080291015054,
        49.087624211395358,
        49.17977547112983,
        53.028751069256018,
        54.357309326615479,
        53.226617081018716,
        53.165941651231378,
        52.53803107758641,
        52.183187513559297,
        50.432303742243533,
        49.447153029580761,
        48.837375726994452,
        49.162228868762313,
        50.160627496822734,
        50.436407639467355,
        0.0,
        0.0,
        65.204789550546479,
        0.0,
        41.510257383627028,
        41.985784416551311,
        54.071896999424844,
        55.252929119988849,
        55.252926508542423,
        55.653331495137039,
        57.671802375271149,
        55.394727313851838,
        55.296666298903418,
        0.0,
        0.0,
        0.0,
        43.161546540379106,
        57.472666402923025,
        58.489601162743199,
        40.069820398859065,
        59.497435061582841,
        60.433910082102287,
        60.610542199585439,
        60.614039170126702,
        60.875664599109335,
        60.832722747976774,
        60.789674181389472,
        60.572523454302782,
        59.20689641099834,
        57.724252151379886,
        57.623139939819382,
        60.41946218202721,
        59.833575169503867,
        60.228697112735148,
        59.99494765684048,
        58.955346789894207,
        58.45399988905362,
        60.385172937283699,
        61.234373657695031,
        60.613101650969455,
        60.207194172872875,
        60.181540341450251,
        61.583984006036609,
        60.056945603341042,
        58.032312345509219,
        55.589911191883168,
        48.360121936002692,
        60.998998392064863,
        60.612425256755799,
        59.7458058194442,
        59.92813650967436,
        60.75897960838752,
        61.755893086293469,
        0.0,
        0.0,
        0.0,
        0.0,
        0.0,
        0.0,
        0.0,
        0.0,
        0.0,
        0.0,
        0.0,
        0.0,
        0.0,
        0.0,
        0.0,
        0.0,
        0.0,
        0.0,
        0.0,
        0.0,
        0.0,
        0.0,
        0.0,
        0.0,
        0.0,
        0.0,
        0.0,
        0.0,
        0.0,
        0.0,
        0.0,
        0.0,
        0.0,
        0.0,
        0.0,
        0.0,
        0.0,
        0.0
    ],
    "time": [
        0.02,
        0.040000000000000001,
        0.059999999999999998,
        0.080000000000000002,
        0.10000000000000001,
        0.12,
        0.14000000000000001,
        0.16,
        0.17999999999999999,
        0.20000000000000001,
        0.22,
        0.23999999999999999,
        0.26000000000000001,
        0.28000000000000003,
        0.29999999999999999,
        0.32000000000000001,
        0.34000000000000002,
        0.35999999999999999,
        0.38,
        0.40000000000000002,
        0.41999999999999998,
        0.44,
        0.46000000000000002,
        0.47999999999999998,
        0.5,
        0.52000000000000002,
        0.54000000000000004,
        0.56000000000000005,
        0.57999999999999996,
        0.59999999999999998,
        0.62,
        0.64000000000000001,
        0.66000000000000003,
        0.68000000000000005,
        0.69999999999999996,
        0.71999999999999997,
        0.73999999999999999,
        0.76000000000000001,
        0.78000000000000003,
        0.80000000000000004,
        0.81999999999999995,
        0.83999999999999997,
        0.85999999999999999,
        0.88,
        0.90000000000000002,
        0.92000000000000004,
        0.93999999999999995,
        0.95999999999999996,
        0.97999999999999998,
        1.0,
        1.02,
        1.04,
        1.0600000000000001,
        1.0800000000000001,
        1.1000000000000001,
        1.1200000000000001,
        1.1399999999999999,
        1.1599999999999999,
        1.1799999999999999,
        1.2,
        1.22,
        1.24,
        1.26,
        1.28,
        1.3,
        1.3200000000000001,
        1.3400000000000001,
        1.3600000000000001,
        1.3799999999999999,
        1.3999999999999999,
        1.4199999999999999,
        1.4399999999999999,
        1.46,
        1.48,
        1.5,
        1.52,
        1.54,
        1.5600000000000001,
        1.5800000000000001,
        1.6000000000000001,
        1.6200000000000001,
        1.6399999999999999,
        1.6599999999999999,
        1.6799999999999999,
        1.7,
        1.72,
        1.74,
        1.76,
        1.78,
        1.8,
        1.8200000000000001,
        1.8400000000000001,
        1.8600000000000001,
        1.8799999999999999,
        1.8999999999999999,
        1.9199999999999999,
        1.9399999999999999,
        1.96,
        1.98,
        2.0,
        2.02,
        2.04,
        2.0600000000000001,
        2.0800000000000001,
        2.1000000000000001,
        2.1200000000000001,
        2.1400000000000001,
        2.1600000000000001,
        2.1800000000000002,
        2.2000000000000002,
        2.2200000000000002,
        2.2400000000000002,
        2.2599999999999998,
        2.2799999999999998,
        2.2999999999999998,
        2.3199999999999998,
        2.3399999999999999,
        2.3599999999999999,
        2.3799999999999999,
        2.3999999999999999,
        2.4199999999999999,
        2.4399999999999999,
        2.46,
        2.48,
        2.5,
        2.52,
        2.54,
        2.5600000000000001,
        2.5800000000000001,
        2.6000000000000001,
        2.6200000000000001,
        2.6400000000000001,
        2.6600000000000001,
        2.6800000000000002,
        2.7000000000000002,
        2.7200000000000002,
        2.7400000000000002,
        2.7599999999999998,
        2.7799999999999998,
        2.7999999999999998,
        2.8199999999999998,
        2.8399999999999999,
        2.8599999999999999,
        2.8799999999999999,
        2.8999999999999999,
        2.9199999999999999,
        2.9399999999999999,
        2.96,
        2.98,
        3.0,
        3.02,
        3.04,
        3.0600000000000001,
        3.0800000000000001,
        3.1000000000000001,
        3.1200000000000001,
        3.1400000000000001,
        3.1600000000000001,
        3.1800000000000002,
        3.2000000000000002,
        3.2200000000000002,
        3.2400000000000002,
        3.2599999999999998,
        3.2799999999999998,
        3.2999999999999998,
        3.3199999999999998,
        3.3399999999999999,
        3.3599999999999999,
        3.3799999999999999,
        3.3999999999999999,
        3.4199999999999999,
        3.4399999999999999,
        3.46,
        3.48,
        3.5,
        3.52,
        3.54,
        3.5600000000000001,
        3.5800000000000001,
        3.6000000000000001,
        3.6200000000000001,
        3.6400000000000001,
        3.6600000000000001,
        3.6800000000000002,
        3.7000000000000002,
        3.7200000000000002,
        3.7400000000000002,
        3.7599999999999998,
        3.7799999999999998,
        3.7999999999999998,
        3.8199999999999998,
        3.8399999999999999,
        3.8599999999999999,
        3.8799999999999999,
        3.8999999999999999,
        3.9199999999999999,
        3.9399999999999999,
        3.96,
        3.98,
        4.0,
        4.0199999999999996,
        4.04,
        4.0599999999999996,
        4.0800000000000001,
        4.0999999999999996,
        4.1200000000000001,
        4.1399999999999997,
        4.1600000000000001,
        4.1799999999999997,
        4.2000000000000002,
        4.2199999999999998,
        4.2400000000000002,
        4.2599999999999998,
        4.2800000000000002,
        4.2999999999999998,
        4.3200000000000003,
        4.3399999999999999,
        4.3600000000000003,
        4.3799999999999999,
        4.4000000000000004,
        4.4199999999999999,
        4.4400000000000004,
        4.46,
        4.4800000000000004,
        4.5,
        4.5199999999999996,
        4.54,
        4.5599999999999996,
        4.5800000000000001,
        4.5999999999999996,
        4.6200000000000001,
        4.6399999999999997,
        4.6600000000000001,
        4.6799999999999997,
        4.7000000000000002,
        4.7199999999999998,
        4.7400000000000002,
        4.7599999999999998,
        4.7800000000000002,
        4.7999999999999998,
        4.8200000000000003,
        4.8399999999999999,
        4.8600000000000003,
        4.8799999999999999,
        4.9000000000000004,
        4.9199999999999999,
        4.9400000000000004,
        4.96,
        4.9800000000000004,
        5.0,
        5.0199999999999996,
        5.04,
        5.0599999999999996,
        5.0800000000000001,
        5.0999999999999996,
        5.1200000000000001,
        5.1399999999999997,
        5.1600000000000001,
        5.1799999999999997,
        5.2000000000000002,
        5.2199999999999998,
        5.2400000000000002,
        5.2599999999999998,
        5.2800000000000002,
        5.2999999999999998,
        5.3200000000000003,
        5.3399999999999999,
        5.3600000000000003,
        5.3799999999999999,
        5.4000000000000004,
        5.4199999999999999,
        5.4400000000000004,
        5.46,
        5.4800000000000004,
        5.5,
        5.5199999999999996,
        5.54,
        5.5599999999999996,
        5.5800000000000001,
        5.5999999999999996,
        5.6200000000000001,
        5.6399999999999997,
        5.6600000000000001,
        5.6799999999999997,
        5.7000000000000002,
        5.7199999999999998,
        5.7400000000000002,
        5.7599999999999998,
        5.7800000000000002,
        5.7999999999999998,
        5.8200000000000003,
        5.8399999999999999,
        5.8600000000000003,
        5.8799999999999999,
        5.9000000000000004,
        5.9199999999999999,
        5.9400000000000004,
        5.96,
        5.9800000000000004,
        6.0,
        6.0199999999999996,
        6.04,
        6.0599999999999996,
        6.0800000000000001,
        6.0999999999999996,
        6.1200000000000001,
        6.1399999999999997,
        6.1600000000000001,
        6.1799999999999997,
        6.2000000000000002,
        6.2199999999999998,
        6.2400000000000002,
        6.2599999999999998,
        6.2800000000000002,
        6.2999999999999998,
        6.3200000000000003,
        6.3399999999999999,
        6.3600000000000003,
        6.3799999999999999,
        6.4000000000000004,
        6.4199999999999999,
        6.4400000000000004,
        6.46,
        6.4800000000000004,
        6.5,
        6.5199999999999996,
        6.54,
        6.5599999999999996,
        6.5800000000000001,
        6.5999999999999996,
        6.6200000000000001
    ]
}