{
	"f0": [NaN,71.67874697,72.18739229,72.7511842,68.03364112,50.76319654,50.71041866,53.96093546,53.90780374,50.29392597,73.5639869,73.66566559,73.59502287,73.71609546,69.05063484,62.13386334,61.39764315,50.77896137,53.22994509,54.19910068,54.31688015,52.93035138,76.98392737,76.6744503,49.43761237,59.48573577,59.20087754,59.26181943,59.33827854,59.3990604,59.41923996,59.34522299,59.97837064,60.14003458,60.4820711,72.92318566,73.10516807,73.47908627,60.6316474,60.68458543,60.72597312,60.57900235,60.31641897,60.19657148,59.70889975,59.12968251,58.54769856,57.99704968,58.20804052,57.88278576,57.76021298,57.74274502,57.77982637,57.87423002,58.02018415,58.15336652,58.06571084,57.74268825,57.76316011,57.80071858,70.16354076,57.85033432,57.33952816,57.27001246,57.69001831,55.99050319,55.29690772,55.29594742,55.2991665,55.26285908,55.17854732,55.17571083,56.69965447,55.60750236,56.01165637,55.83851317,55.72523538,55.45560007,55.27854149,55.39862216,55.97640722,56.13518747,56.93520015,70.1195755,70.16401679,70.24783792,73.52483579,57.52407535,57.43751937,57.1781421,57.40119321,57.69349987,57.81645608,57.64199829,57.382784,57.16856832,57.15336309,57.28194843,57.25038432,57.14526947,57.41612942,56.03675833,55.77334523,56.88658835,57.66169865,57.73543142,57.55783176,57.55307002,57.56160168,57.5291877,57.61121564,57.61068926,57.55517435,57.66723427,57.95524718,58.21656651,58.89740561,70.68800272,60.91732291,59.42572683,59.8812356,60.56314015,60.50976412,60.66450038,60.85228325,60.6731442,60.13801879,59.92513139,60.25830981,60.4514903,60.8658502,61.10495768,61.23958386,61.00913299,60.8197588,60.74169755,60.53735159,60.12667452,60.08254726,60.9039361,61.47750307,61.24416971,61.00079011,60.85810064,60.8323962,60.61119067,60.32705329,59.47433308,61.08482322,61.53182443,61.50002852,61.1365124,60.84302627,60.6364924,60.44527084,60.27702847,59.80113639,60.22813135,60.50865509,60.9107736,60.92398708,60.6207019,60.05444287,59.76273913,59.47855785,60.23371507,60.2237835,50.80781824,61.46338002,60.58568229,60.32201832,60.13871748,60.37236881,61.83677829,62.43168844,43.01843591,50.61793575,61.4807071,60.55295061,60.0442468,61.72850399,70.29804361,73.9335495,60.27740952,61.52483579,61.83677829,62.15444483,60.62137826,61.30457649,61.57837295,62.0343837,62.29727946,62.25724448,61.81601309,61.9238172,62.84585739,62.80781824,63.14399075,62.74495093,63.59926846,63.74791259,63.82828073,63.83295063,63.80036721,63.71952313,63.57493652,63.35988468,63.24014083,63.19855321,63.43079483,63.44813704,63.40709352,63.39047818,63.42791705,63.42624524,63.29697328,62.99510261,63.37814855,63.59980403,63.62319583,63.53499566,63.36938823,62.93765781,62.99681522,63.40544348,63.74452391,64.00243183,64.44430957,64.65698211,64.68730627,64.83770701,64.72405056,64.24526131,63.55320437,64.09746628,64.79501127,64.61774903,64.0832936,63.83657672,52.37274137,61.21841468,61.68512465,61.65224873,61.54308664,61.28486546,61.14890503,61.14822984,61.39051235,61.68074885,62.01248983,62.21963926,62.47955917,62.66693692,62.75794501,62.69902572,74.67025224,62.74772123,62.67588894,62.70130604,62.74021757,62.76458118,62.67055353,62.28996416,61.92960368,61.81868172,61.83873704,61.43983647,61.15360189,72.99596036,72.15226242,61.38167213,61.11379772,61.12179646,61.31877112,73.14445032,73.11479132,73.05393214,60.94437422,61.06671532,61.10525824,61.12476485,61.05229499,60.61359307,60.59816239,60.58044377,60.5714947,61.04840462,61.26356028,61.43993095,61.60859275,61.59426851,61.06061728,60.73760937,72.81027112,72.83036388,72.87681484,61.53528254,61.36330685,61.10307086,61.16001321,61.15148795,61.15807043,61.12816735,60.90574636,60.75642646,60.70780166,72.72368959,60.83737265,61.08180129,60.98008905,61.0517678,73.16370813,73.13428795,73.06636432,72.98999787,61.20137145,61.05177899,60.92484873,60.863212,60.92797499,61.19063096,60.33040771,61.19577268,61.01276464,60.87397482,60.84229639,60.0442468,54.01415911,54.1177149,54.31237756,50.19957524,61.85444943,61.52483579,60.81114524,60.10975861,55.07829477,77.1111898,50.34092163,52.02075218,51.53996846,60.62187553,60.60823671,59.98285659,35.34887861,53.51635293,53.63868024,53.8977729,51.83657672,55.13489482,55.2635834,59.63586826,58.16354076,49.52483579,48.84298737,44.01165637,52.93840215,52.79356358,54.0979178,54.50528578,53.69991543,54.41430101,53.3108577,50.60737571,50.58534691,49.31542037,48.91732291,49.33115936,50.14910234,42.73581303,54.34572391,54.3513973,63.14399075,76.93035138,76.93035138,76.93035138,76.93035138,76.93035138,76.93035138,76.93035138,76.93035138,76.93035138,76.93035138,76.93035138,76.93035138,76.93035138,76.93035138,76.93035138,76.93035138,76.93035138,76.93035138,76.93035138,76.93035138,76.93035138,76.93035138,76.93035138,76.93035138,76.93035138,76.93035138,76.93035138,76.93035138,76.93035138,76.93035138,76.93035138,76.93035138,76.93035138,76.93035138,76.93035138,76.93035138,76.93035138,76.93035138,76.93035138,76.93035138,76.93035138,76.93035138,76.93035138,76.93035138,76.93035138,76.93035138,76.93035138,NaN,NaN,NaN],
	"ap0": [NaN,0.7323804902,0.6621638954,0.6579579972,0.7024385703,0.5410307677,0.5117078409,0.6381581172,0.6688047427,0.6706629722,0.4327036941,0.5676409458,0.6802754808,0.6570243549,0.6318026974,0.6481263592,0.5278396238,0.4224529686,0.5317030255,0.6985967909,0.5425564068,0.663725136,0.5965970203,0.7564619687,0.7368171412,0.3924079716,0.1372884356,0.03774039509,0.02627526551,0.0502586936,0.1610144262,0.1444493575,0.09014298938,0.238518799,0.3346798653,0.1500514985,0.2162167982,0.4916006697,0.1233466955,0.09202730691,0.1222056194,0.1513550371,0.1432623124,0.1422900329,0.1968505623,0.2570817997,0.2634714352,0.2704862234,0.3459960132,0.210832702,0.1056881318,0.09090090209,0.09785982609,0.09470595304,0.2700414299,0.1871538511,0.1929638437,0.1870959153,0.1245122448,0.1092271819,0.3889968672,0.2024838305,0.1190079392,0.1038820544,0.1181652997,0.3642844078,0.2150688294,0.1673031186,0.08086261887,0.0482983087,0.06567685751,0.245162228,0.5383191955,0.143906625,0.2435003728,0.1781282237,0.07409781435,0.05065775351,0.04484671285,0.07282168004,0.1152275534,0.1302888994,0.4522895452,0.05883653147,0.05761879887,0.1336992639,0.4980265743,0.3665209355,0.2407163262,0.2359084223,0.2262264333,0.2129501769,0.4278875625,0.4516367895,0.1742929119,0.1848711868,0.3531862333,0.1492694024,0.1160360942,0.2915803845,0.6250967274,0.3760578847,0.1225133716,0.257802203,0.1920568778,0.05947478523,0.02751349036,0.02377738384,0.02290694492,0.01341281493,0.01009075951,0.008635850464,0.01909728425,0.04829148871,0.06428323994,0.1358171993,0.2132306638,0.1524707559,0.7035610381,0.06377230396,0.0479841965,0.0854715596,0.1234231883,0.07591948488,0.05897222285,0.03524215396,0.02753603365,0.01638997507,0.02662678178,0.06374179457,0.1152129091,0.04170355129,0.0280822286,0.02394233097,0.02599927701,0.05255851698,0.07269555174,0.0878428103,0.106469303,0.1495437191,0.03260376449,0.01700176076,0.01387572995,0.03329927345,0.0671696846,0.04347770588,0.03656103096,0.1446455555,0.3576873018,0.120453042,0.05112974846,0.02989570845,0.02410730951,0.04448368811,0.05657242795,0.05160429741,0.08998594141,0.1748097618,0.1539498299,0.07411801975,0.06068956822,0.1202485807,0.2443486518,0.276448466,0.2531307509,0.435234902,0.6503482626,0.5876882943,0.3404550236,0.06754404957,0.03901625629,0.0612700839,0.1410647635,0.4163013381,0.5566198391,0.5494480012,0.755500052,0.2464674911,0.2673428435,0.4194691194,0.604869041,0.8293861476,0.6744470898,0.6592992208,0.3020876833,0.3586686668,0.4806759125,0.5795458928,0.1429277449,0.04343394627,0.01847396267,0.0222560013,0.04508398035,0.04269551083,0.1689348327,0.5472381207,0.2613961225,0.2344416384,0.2217088367,0.06037316049,0.03565929024,0.02440162496,0.01613192765,0.01520947095,0.01827392599,0.0293970636,0.05997838574,0.1211137925,0.04753285144,0.04359950071,0.03665338222,0.02879713338,0.02689881097,0.03044120433,0.04446107297,0.09024985452,0.218196241,0.2238882123,0.04535950623,0.030230046,0.03117841956,0.04691460845,0.06893104466,0.05971810201,0.1050624714,0.03110948762,0.04464280341,0.04640338127,0.0782085405,0.07779842297,0.04036950915,0.04426544135,0.08039463304,0.1322821861,0.3644123403,0.3299010653,0.338163182,0.4877797595,0.5030242342,0.4614775156,0.5348836528,0.1371920625,0.06020615129,0.0763674644,0.09633218845,0.07872463962,0.08425003087,0.1351193053,0.1477105951,0.07986988466,0.03572499909,0.06209008791,0.06791592568,0.02397853714,0.02111531416,0.08435491782,0.06073640336,0.06460838675,0.03935851462,0.0325583825,0.03815566162,0.043927902,0.08934609388,0.09252340836,0.1586969112,0.1931931937,0.1592081853,0.085240959,0.1628942577,0.683139328,0.1230333048,0.07988752828,0.0763712609,0.1219455643,0.08970870892,0.04764920363,0.1891740377,0.09520342254,0.03084721483,0.01699553631,0.02848993722,0.07354048225,0.08844205032,0.06326977812,0.05533402265,0.09451339873,0.1082602902,0.04205141481,0.03316904981,0.04717794379,0.07835112312,0.1540487009,0.1044388938,0.05453457016,0.03999194218,0.4157629244,0.1046863334,0.05513653623,0.02196700335,0.03241677463,0.03986017271,0.03694787442,0.04551748633,0.05652787877,0.05223518347,0.07041121649,0.3838764409,0.128174689,0.03559159275,0.03273372714,0.1112894728,0.03523595096,0.0386243197,0.08698583218,0.7352562167,0.1425470954,0.06847375962,0.05227371253,0.06691170355,0.09566513768,0.2957920056,0.6289475765,0.05656754588,0.0332754819,0.03349201533,0.07188601872,0.3638963546,0.4498758283,0.3925624858,0.4609502326,0.5749179492,0.5422047165,0.235058274,0.08627786887,0.3395702482,0.7585675011,0.6437847139,0.6674155502,0.7423600595,0.7371893183,0.5127211208,0.4040854682,0.5388434346,0.7416623656,0.6090929289,0.4896111508,0.5170849735,0.544330311,0.5394435646,0.6187721328,0.6224240993,0.5986762036,0.6323268835,0.5412493712,0.6572647841,0.5298296704,0.4681542413,0.3208888373,0.2816879548,0.4693765756,0.6105790821,0.7661734493,0.8544740313,0.6364648757,0.5183028183,0.589184356,0.6856135299,0.766863661,0.8505333433,0.7648628128,0.6194210047,1,1,1,1,1,1,1,1,1,1,1,1,1,1,1,1,1,1,1,1,1,1,1,1,1,1,1,1,1,1,1,1,1,1,1,1,1,1,1,1,1,1,1,1,1,1,1,1,NaN,NaN,NaN],
	"ap": [NaN,0.7338013403,0.4385545452,0.218854702,0.3036202236,0.4741199432,0.3923137349,0.2342264205,0.4159895213,0.335957897,0.8258460084,0.2122001809,0.2407701078,0.2645918278,0.5561618026,0.4832377667,0.5206036857,0.522318462,0.4838085785,0.4278728916,0.3424838831,0.6310024581,0.3441960417,0.1246962049,0.2584394871,0.6419267317,0.7135970732,0.1106170205,0.01899720368,0.008321108856,0.01651636386,0.04760265827,0.2562466353,0.03172729033,0.02875769408,0.5627631758,0.2878934485,0.1872372225,0.1139648372,0.2126765614,0.06137159768,0.05817754899,0.1115465917,0.04339776933,0.05086812492,0.1391624986,0.2347895743,0.1811230885,0.07122747911,0.2931428402,0.1086281262,0.01329286592,0.03011126773,0.0762589822,0.07573521873,0.1040070097,0.1257023615,0.1760150937,0.1731074341,0.02554541043,0.01308919766,0.1699292221,0.3005618964,0.05201700536,0.0712464022,0.2772452123,0.2934116272,0.05030972691,0.05403239192,0.2364463971,0.02093698587,0.01583945399,0.2474342005,0.5584856362,0.1212238256,0.1225557323,0.1640717324,0.03014709107,0.04758246958,0.009751301312,0.0247748783,0.03411787036,0.03412974592,0.7189357002,0.3768983384,0.006072160334,0.4522346646,0.1295743031,0.2625039521,0.120702947,0.1516749955,0.0878170736,0.05317137957,0.2073210326,0.709651042,0.1240301176,0.1718475307,0.3311660267,0.09271627408,0.06486088665,0.1625396263,0.3873810391,0.1766164637,0.1986101958,0.1111190049,0.176772869,0.01927133962,0.01781091179,0.008715995679,0.02799360386,0.005441387209,0.006598130459,0.008090767247,0.009251369059,0.02747748198,0.03747996024,0.1097320016,0.8199104743,0.6301885267,0.3426091669,0.0920517122,0.01834326637,0.02306791894,0.05389103836,0.03975758608,0.06534315041,0.03662991275,0.02608947962,0.02030620103,0.02262366614,0.04198750821,0.08478915892,0.0697324946,0.008989248252,0.01607154501,0.002680823952,0.1139943978,0.09185206614,0.07010569592,0.04843624785,0.4114673372,0.035748168,0.02104043005,0.02096619477,0.01586193778,0.2089383125,0.02519599357,0.04775665264,0.196106498,0.5416891493,0.1669333161,0.02238759551,0.01632386609,0.002942382082,0.03457200974,0.05138475367,0.03409921102,0.03698111749,0.106361413,0.09315802635,0.1098447289,0.06007408954,0.07117022598,0.05633776788,0.2263714934,0.07424119707,0.1562199321,0.4094203979,0.4488036662,0.6667768818,0.133211046,0.02615340176,0.09487082926,0.08611902283,0.8534283374,0.2807624528,0.3115342188,0.2931294904,0.4260211089,0.2233330152,0.3930030984,0.702423008,0.590989396,0.2926668979,0.5191929958,0.4919149177,0.0478642741,0.1496428016,0.5755761576,0.5281141469,0.07950199466,0.02064569509,0.005512026072,0.07553587697,0.04144950429,0.07111774198,0.4069573124,0.4231934795,0.1039264512,0.3812654085,0.364555634,0.01100794075,0.01066680721,0.02508086716,0.006188921126,0.03324648865,0.004982205512,0.009926491809,0.1017891321,0.04499940189,0.01430445874,0.03412719229,0.01209480405,0.002501929605,0.002729930034,0.02633064192,0.01834556041,0.1045152246,0.1879751858,0.2923153183,0.01452161085,0.02846748953,0.03986917751,0.02471788304,0.02325934432,0.1274848488,0.09173388744,0.05552403158,0.01176414094,0.02670472958,0.06752199948,0.006202765682,0.04233023688,0.05290022468,0.142330271,0.2099889285,0.299673488,0.09005899448,0.2502526619,0.4581187052,0.3609769064,0.299979022,0.1204019656,0.04502500488,0.05267238429,0.04643361462,0.03066569634,0.03972575595,0.04457404077,0.1170372313,0.0719423406,0.01033476659,0.02754911587,0.04328669235,0.02318316889,0.01728931809,0.004504598653,0.1529415,0.03155732773,0.008042577211,0.01039944128,0.01326817066,0.04106747964,0.09369349432,0.0247965131,0.07517622226,0.1983965349,0.1277792782,0.1402294771,0.05488489289,0.072211236,0.06475272019,0.03694644311,0.04309290212,0.1634826963,0.04297879977,0.01674236069,0.02920768912,0.03261165708,0.02067728016,0.00671296541,0.006462362426,0.05450737623,0.1236411326,0.01930727044,0.02100157137,0.04824170495,0.06011638002,0.08151429192,0.005627963424,0.0584632121,0.03888923043,0.1317859155,0.3937107158,0.003601309932,0.001219407311,0.2756070163,0.01601746093,0.02256961833,0.01081238286,0.008870142572,0.02521555938,0.03299755499,0.003458835506,0.07007555304,0.02105790325,0.1837586948,0.2775106389,0.2537223498,0.01432719442,0.01400386406,0.7762454622,0.004887866426,0.005441254414,0.05696299313,0.1389731818,0.03420748521,0.08052535036,0.02013653784,0.01907641059,0.09517450071,0.1999253912,0.3671090421,0.1516108695,0.005116222115,0.02172148434,0.04181013276,0.6588966653,0.234585391,0.4384726299,0.3104125234,0.5745278596,0.5267726594,0.0388072379,0.02202416921,0.5656464233,0.361512669,0.465079848,0.4182742039,0.3428605717,0.4949172402,0.4593613812,0.06618128973,0.2839961042,0.3056789767,0.2454632684,0.2402034868,0.3386761738,0.4241124703,0.3305491469,0.5692789605,0.3217083005,0.5744358244,0.2455651516,0.313995479,0.2434714505,0.2541480608,0.2816607281,0.4182291828,0.1325957848,0.09626632629,0.4630636025,0.779255827,0.471534724,0.2990362573,0.2173767229,0.3432556691,0.3109706581,0.5024362062,0.5000004825,0.5000005368,0.5000001554,1,1,1,1,1,1,1,1,1,1,1,1,1,1,1,1,1,1,1,1,1,1,1,1,1,1,1,1,1,1,1,1,1,1,1,1,1,1,1,1,1,1,1,1,1,1,1,NaN,NaN,NaN],
	"pwr": [NaN,1.054491982e-06,6.765191232e-06,3.495263795e-06,5.067267174e-06,3.02822496e-06,4.437947124e-06,1.716990069e-05,8.229105303e-06,6.522618844e-06,4.360300674e-06,1.355333106e-05,1.938058376e-05,1.340184732e-05,5.864384051e-05,1.144808838e-05,2.534379126e-06,8.459955676e-08,1.962167639e-07,1.888801764e-06,3.349149066e-06,8.062729688e-06,4.458310163e-05,1.277934277e-05,3.091557459e-05,0.0001170467151,0.0003837401386,0.008620639361,0.02126375178,0.01894964551,0.02028045398,0.008427624211,0.003557319213,0.01155257578,0.01199122965,0.009734408832,0.003009604196,0.007562054128,0.00195804179,0.001837668858,0.01052063876,0.01114990674,0.007324356589,0.01140577207,0.01610323306,0.02798719393,0.03713962563,0.02488057225,0.003931535918,0.006374030058,0.01088646549,0.01885727244,0.01913963781,0.00640298521,0.004978592947,0.001283664122,0.0006413385399,0.0003303162524,0.0005292123974,0.001708417754,0.001740052442,0.001209214869,0.0001713002713,0.0005682219022,0.0008423814307,0.0003479798061,0.0004371804229,0.0007420544283,0.0006282075642,0.0001830598059,0.002988834487,0.005646724637,0.003221243263,0.001349073713,0.000151692074,0.0003171696164,0.0006826444172,0.000749179999,0.001638036263,0.004424282265,0.001179742286,0.0004001961844,0.000592993869,0.0001849140576,0.001418184801,0.08701405962,0.02262749488,0.004122772299,0.003726440962,0.004861383107,0.002021288861,0.0009983497224,0.0009552929663,0.0008610922046,0.0003933666567,0.0008188409985,0.0002892524397,9.490648741e-05,0.0006146316637,0.0009219265078,0.0001807979769,2.165170315e-05,4.402081753e-05,5.29635956e-05,0.0003711854349,0.0003790017723,0.001011890778,0.003319186665,0.004671670764,0.003871159942,0.00402978418,0.007841523457,0.004955111705,0.004899021921,0.003622469409,0.001760335056,0.0006649173119,0.0001279875452,0.0009356369003,0.0009778065098,0.001574424007,0.01433635091,0.004901241639,0.001867073165,0.002097610422,0.0008559207111,0.007993246609,0.009028099493,0.008605296624,0.007076629152,0.00290105466,0.0002738300085,0.001146983243,0.003977373061,0.008165597765,0.01210288602,0.002311681705,0.002176810445,0.001232001234,0.0007188896099,7.622023389e-05,0.0005200719287,0.007166370185,0.01156374048,0.0044692145,0.0004979271882,0.005547824079,0.002467814841,0.0001760363363,2.332575968e-05,0.0001086702985,0.001358789607,0.00426599722,0.005053130116,0.003150577017,0.0008259162748,0.003329129129,0.0005836051429,0.0002590001251,0.0002744854376,0.0001179214522,0.0008652434071,0.0007701501704,3.301972456e-05,7.286349829e-05,0.0001980146308,6.110597622e-05,1.023416889e-05,2.472709835e-05,1.321614832e-05,4.031163986e-05,0.0002933958661,6.130055281e-05,2.041709588e-05,2.715016567e-06,1.44109738e-05,1.87133789e-05,1.943336792e-05,1.971022602e-05,0.0003554348273,5.971510125e-05,4.736886551e-05,6.47874284e-06,9.952439519e-06,5.821906338e-06,2.41620011e-05,9.6573669e-05,2.821547007e-05,2.061259632e-05,9.262169827e-05,0.002368696844,0.01588679303,0.03257131863,0.007469819772,0.007352805544,0.0008297488097,6.91040634e-05,4.9872228e-05,0.0005135731233,0.002932662286,0.003824004306,0.07602398138,0.07249708305,0.1678626088,0.2454850097,0.1976961187,0.08640577585,0.03934903733,0.01099341,0.01709630436,0.04994852328,0.07536151374,0.08309544091,0.02187345079,0.01932955612,0.03289704796,0.004071664739,0.0003662954457,0.000242569263,0.00104873758,0.0385997493,0.1848077086,0.07942841313,0.02056435254,0.01414648334,0.005151181643,0.01565081442,0.1910593706,0.08606316326,0.07503441904,0.01531582833,0.04601653324,0.05128594582,0.0378969799,0.01330080154,0.005008699868,0.002290015785,0.0008272340775,0.0004784727305,0.0001409011793,0.0001398619201,0.0005909750325,0.004634747124,0.01278477875,0.0126339371,0.003873174151,0.00727404315,0.01715378204,0.01070074723,0.01339265051,0.008370855693,0.0107024798,0.02708600051,0.0110150036,0.02341867412,0.03693310114,0.05905582867,0.008993312095,0.01139099396,0.02452197371,0.03149635269,0.02777209151,0.02855129264,0.0155265672,0.009939031492,0.007728187373,0.004510245015,0.01057417328,0.009705941909,0.03129147795,0.005673961113,0.004269836396,0.002459909986,0.002136706672,0.003063665828,0.01060613741,0.01256039383,0.01804093738,0.02054316162,0.008272496978,0.009506709048,0.01407356382,0.00778511742,0.001673972575,0.02350334172,0.02143950333,0.004290978549,0.003530309948,0.005270224571,0.02527038238,0.008767609803,0.005423859326,0.0007546858494,0.01343905668,0.04561795015,0.04879639194,0.0002465742023,0.001147541295,0.002657768932,0.003514865965,0.004324106769,0.005939091041,0.004171524021,0.01516405025,0.003548295178,0.007804585827,0.003796056695,7.873221623e-05,0.000676184499,0.00244505267,0.001576128078,0.000108127425,0.0008887170394,0.007761025046,0.001330795938,0.0001869027204,0.0002083095297,0.0003642960799,0.0008972945832,0.0004099498837,0.0004228937385,7.145513955e-05,1.277890485e-05,1.532965397e-05,0.0004558530093,0.0004164053576,0.0001895517076,2.748918418e-06,1.743532073e-06,9.93285038e-06,3.187164567e-06,3.143959374e-06,4.288941792e-05,6.226895311e-05,9.990791555e-05,9.259444644e-06,4.011387964e-06,2.158408996e-05,3.478513234e-06,1.018375203e-06,1.897117991e-06,1.168479664e-06,7.724815165e-06,1.071177022e-06,4.973729258e-07,3.088496239e-07,2.475163696e-07,4.007953827e-08,3.445103052e-08,1.042038527e-07,1.009721979e-07,3.752168542e-08,4.919742683e-08,1.066579257e-08,8.798428122e-09,3.719183568e-09,3.230823678e-09,4.710759534e-10,2.058749531e-09,4.990645473e-09,2.436551667e-09,3.595939941e-10,1.345150828e-09,6.113030107e-10,3.976063996e-10,2.89532934e-10,1.928058102e-10,1.357759693e-10,1.123579514e-11,7.415183015e-11,5.219802041e-11,3.092995315e-10,0,0,0,0,0,0,0,0,0,0,0,0,0,0,0,0,0,0,0,0,0,0,0,0,0,0,0,0,0,0,0,0,0,0,0,0,0,0,0,0,0,0,0,0,0,0,0,NaN,NaN,NaN],
	"sr": 16000,
	"range": [1,134912],
	"minf0": 63.1883,
	"maxf0": 706.3069,
	"thresh": 0.1,
	"relflag": 1,
	"hop": 320,
	"bufsize": 10000,
	"wsize": 640,
	"lpf": 4000,
	"shift": 0,
	"plotthreshold": 0.2
}
