{
    "DU": 210,
    "DV": 357,
    "F-measure": 0.7748279252704031,
    "F-measure Chroma": 0.8613569321533924,
    "FN": 82,
    "FNC": 25,
    "FNCch": 56,
    "FNI": 57,
    "FNIch": 26,
    "FP": 35,
    "GU": 163,
    "GV": 404,
    "Overall Accuracy": 0.6948853615520282,
    "Overall Chroma Accuracy": 0.7724867724867724,
    "Precision": 0.8123711340206186,
    "Precision Chroma": 0.9030927835051547,
    "Raw Chroma Accuracy": 0.905940594059406,
    "Raw Pitch Accuracy": 0.7202970297029703,
    "Recall": 0.7406015037593985,
    "Recall Chroma": 0.8233082706766918,
    "TN": 128,
    "TO": 567,
    "TP": 322,
    "TPC": 266,
    "TPCch": 310,
    "TPI": 56,
    "TPIch": 12,
    "Voiced Chroma Accuracy": 0.7673267326732673,
    "Voiced Pitch Accuracy": 0.6584158415841584,
    "Voicing Accuracy": 0.7936507936507936,
    "Voicing Detection": 0.7970297029702971,
    "Voicing False Alarm": 0.2147239263803681
}