{
    "DU": 112,
    "DV": 192,
    "F-measure": 0.709433962264151,
    "F-measure Chroma": 0.8113207547169813,
    "FN": 50,
    "FNC": 7,
    "FNCch": 16,
    "FNI": 43,
    "FNIch": 34,
    "FP": 28,
    "GU": 90,
    "GV": 214,
    "Overall Accuracy": 0.618421052631579,
    "Overall Chroma Accuracy": 0.7072368421052632,
    "Precision": 0.7401574803149606,
    "Precision Chroma": 0.8464566929133859,
    "Raw Chroma Accuracy": 0.7897196261682243,
    "Raw Pitch Accuracy": 0.6214953271028038,
    "Recall": 0.6811594202898551,
    "Recall Chroma": 0.7789855072463768,
    "TN": 62,
    "TO": 304,
    "TP": 164,
    "TPC": 126,
    "TPCch": 153,
    "TPI": 38,
    "TPIch": 11,
    "Voiced Chroma Accuracy": 0.7149532710280374,
    "Voiced Pitch Accuracy": 0.5887850467289719,
    "Voicing Accuracy": 0.743421052631579,
    "Voicing Detection": 0.7663551401869159,
    "Voicing False Alarm": 0.3111111111111111
}