{
    "DU": 0,
    "DV": 431,
    "F-measure": 0.561307901907357,
    "F-measure Chroma": 0.7138964577656676,
    "FN": 0,
    "FNC": 0,
    "FNCch": 0,
    "FNI": 0,
    "FNIch": 0,
    "FP": 128,
    "GU": 128,
    "GV": 303,
    "Overall Accuracy": 0.4779582366589327,
    "Overall Chroma Accuracy": 0.6078886310904872,
    "Precision": 0.4779582366589327,
    "Precision Chroma": 0.6078886310904872,
    "Raw Chroma Accuracy": 0.8646864686468647,
    "Raw Pitch Accuracy": 0.6798679867986799,
    "Recall": 0.6798679867986799,
    "Recall Chroma": 0.8646864686468647,
    "TN": 0,
    "TO": 431,
    "TP": 303,
    "TPC": 206,
    "TPCch": 262,
    "TPI": 97,
    "TPIch": 41,
    "Voiced Chroma Accuracy": 0.8646864686468647,
    "Voiced Pitch Accuracy": 0.6798679867986799,
    "Voicing Accuracy": 0.703016241299304,
    "Voicing Detection": 1.0,
    "Voicing False Alarm": 1.0
}