{
    "DU": 115,
    "DV": 215,
    "F-measure": 0.7427652733118971,
    "F-measure Chroma": 0.9067524115755627,
    "FN": 29,
    "FNC": 1,
    "FNCch": 3,
    "FNI": 28,
    "FNIch": 26,
    "FP": 9,
    "GU": 95,
    "GV": 235,
    "Overall Accuracy": 0.7,
    "Overall Chroma Accuracy": 0.8545454545454545,
    "Precision": 0.7674418604651163,
    "Precision Chroma": 0.9368770764119602,
    "Raw Chroma Accuracy": 0.8468085106382979,
    "Raw Pitch Accuracy": 0.6212765957446809,
    "Recall": 0.719626168224299,
    "Recall Chroma": 0.8785046728971962,
    "TN": 86,
    "TO": 330,
    "TP": 206,
    "TPC": 145,
    "TPCch": 196,
    "TPI": 61,
    "TPIch": 10,
    "Voiced Chroma Accuracy": 0.8340425531914893,
    "Voiced Pitch Accuracy": 0.6170212765957447,
    "Voicing Accuracy": 0.8848484848484849,
    "Voicing Detection": 0.8765957446808511,
    "Voicing False Alarm": 0.09473684210526316
}