{
    "DU": 0,
    "DV": 373,
    "F-measure": 0.47562776957163955,
    "F-measure Chroma": 0.7444608567208272,
    "FN": 0,
    "FNC": 0,
    "FNCch": 0,
    "FNI": 0,
    "FNIch": 0,
    "FP": 69,
    "GU": 69,
    "GV": 304,
    "Overall Accuracy": 0.4316353887399464,
    "Overall Chroma Accuracy": 0.675603217158177,
    "Precision": 0.4316353887399464,
    "Precision Chroma": 0.675603217158177,
    "Raw Chroma Accuracy": 0.8289473684210527,
    "Raw Pitch Accuracy": 0.5296052631578947,
    "Recall": 0.5296052631578947,
    "Recall Chroma": 0.8289473684210527,
    "TN": 0,
    "TO": 373,
    "TP": 304,
    "TPC": 161,
    "TPCch": 252,
    "TPI": 143,
    "TPIch": 52,
    "Voiced Chroma Accuracy": 0.8289473684210527,
    "Voiced Pitch Accuracy": 0.5296052631578947,
    "Voicing Accuracy": 0.8150134048257373,
    "Voicing Detection": 1.0,
    "Voicing False Alarm": 1.0
}