{
    "DU": 167,
    "DV": 385,
    "F-measure": 0.6415094339622641,
    "F-measure Chroma": 0.7567030784508441,
    "FN": 60,
    "FNC": 17,
    "FNCch": 24,
    "FNI": 43,
    "FNIch": 36,
    "FP": 37,
    "GU": 144,
    "GV": 408,
    "Overall Accuracy": 0.5851449275362319,
    "Overall Chroma Accuracy": 0.6902173913043478,
    "Precision": 0.6565040650406504,
    "Precision Chroma": 0.774390243902439,
    "Raw Chroma Accuracy": 0.7303921568627451,
    "Raw Pitch Accuracy": 0.571078431372549,
    "Recall": 0.6271844660194175,
    "Recall Chroma": 0.7398058252427184,
    "TN": 107,
    "TO": 552,
    "TP": 348,
    "TPC": 216,
    "TPCch": 274,
    "TPI": 132,
    "TPIch": 74,
    "Voiced Chroma Accuracy": 0.6715686274509803,
    "Voiced Pitch Accuracy": 0.5294117647058824,
    "Voicing Accuracy": 0.8242753623188406,
    "Voicing Detection": 0.8529411764705882,
    "Voicing False Alarm": 0.2569444444444444
}