{
	"f0": [NaN,40.14974323,67.60700413,72.91783026,73.59894261,68.62639208,74.03326625,74.03247755,73.68309271,73.97843838,73.82401059,68.70060045,68.82032858,68.83596536,61.72246708,58.77525744,64.65102477,36.36446113,60.51149841,60.57047325,70.65509328,70.64412577,64.88059589,57.0919498,55.04888108,54.95666436,54.76371245,54.37696654,53.93237006,53.82598104,54.9480905,54.96295451,55.57484271,55.85237904,55.7048414,55.47333713,55.14930541,54.86595684,54.7025493,54.69714846,54.53696269,54.49409845,54.88775229,53.82437684,53.2593432,52.89523854,52.49617058,51.92210646,70.68036542,38.76692816,38.72870353,51.08175235,52.02080059,53.19397336,55.34995772,56.54565724,56.41371635,56.12117504,55.99646955,55.85144256,55.49706819,55.04182534,54.66376673,54.59094257,54.57055267,54.58931796,54.67868655,54.8034702,54.93252848,55.00094053,54.8880185,54.5483849,54.11307564,53.6577616,53.31506897,53.05786045,54.62841387,54.9224708,43.08538827,43.58175526,54.18924527,53.83014501,53.50602303,53.37039804,53.22972388,52.94783345,52.71150089,52.28142236,51.93601115,51.53081645,63.15895745,63.07878463,51.03911279,50.96869329,51.05005042,51.15666817,51.16977611,52.19436688,52.08119283,63.8733455,53.09850168,52.83600872,52.7007894,52.63367242,52.46230021,52.14119097,51.74473384,51.33396476,51.01814761,50.83086305,59.15363292,51.13038522,63.13299535,63.15757246,53.15376074,53.34430982,53.09516919,52.55034551,52.44475777,52.50189275,52.57090344,52.6090024,52.21980031,52.8568743,53.16363279,68.6264167,50.35172762,49.90415903,49.5906689,49.35415209,49.19534125,49.05999296,48.87338036,48.51887592,48.36141883,49.53978418,63.5008597,71.14901667,71.49895068,71.80188783,76.93035138,67.00097545,52.66678364,52.53190953,52.35928583,52.05675602,51.83010925,51.78546451,51.76184059,51.68393525,51.70376208,51.72907384,51.72170814,51.78215425,51.73773133,51.47264246,51.25928736,51.13819176,51.09860213,51.30652837,50.49149032,69.10014859,69.1377239,75.96715133,52.02086782,53.13477173,52.97301407,52.41788199,52.00971129,63.27674879,62.99480573,50.76073287,51.70523029,43.39349351,51.1715308,51.25960211,64.64590527,54.00399282,52.31027015,52.09660666,51.7700489,51.10397737,51.66081541,52.13785439,52.34311569,53.15591895,50.53830879,50.18443611,49.37969217,48.92976855,48.61474332,47.94322059,47.61117538,49.18618338,69.17399484,69.06733737,62.75138475,49.77266848,49.76479239,49.74875268,49.66434036,49.5133548,49.38193024,49.36522584,49.53834719,49.88355993,50.02960372,50.21612519,50.41067411,50.48262594,50.41826134,50.14190493,50.06332062,50.14634791,50.16287252,49.82841195,49.90871187,44.71805874,44.54064186,62.72008802,51.78103516,51.97206384,51.93629332,51.74366328,63.47664435,63.26957165,50.94143013,50.0154871,50.80781824,49.95002495,51.31455706,58.68036542,49.29312953,48.59471232,47.97517085,47.5131368,47.38133249,47.29105915,47.16364952,47.36204568,47.94769314,48.07780103,48.28287892,76.93035138,76.93035138,49.26293433,49.21830041,37.07905491,36.92453191,36.86757598,48.70832234,39.93880138,56.0408992,53.16807981,53.49466346,51.17289993,51.06210493,50.90884327,50.75366438,50.58945369,50.59985784,50.69559859,50.71833174,50.71747005,50.69364804,50.67605641,50.68261194,50.67922497,50.67256228,50.57708707,50.19337472,49.34858902,67.94077626,67.78826823,69.31228232,46.96114917,47.42788022,47.20224622,46.96092772,46.7792256,46.60850482,46.48987661,46.44506627,46.50332839,46.66271556,47.06528028,47.30219245,38.96774188,62.44663726,50.34045091,49.27309254,48.49104633,48.24807927,48.22389222,48.2028049,48.13913809,47.90094635,47.44579255,47.34887861,49.61960338,72.91732291,49.56484202,49.12303721,48.64716895,48.06173177,47.8219893,47.94254768,48.31532963,48.55067425,48.63819081,48.64581665,48.59373977,48.58704028,48.69769291,48.7108002,48.55953639,48.8060301,48.72440168,51.98171628,70.20760445,76.85203599,67.33169303,51.03320063,50.84128754,50.68111741,50.35210611,50.30922315,50.2942784,50.32907825,50.35404522,50.42123485,50.53580795,50.70934526,50.67342335,50.6227707,50.67399966,50.56332098,50.47921722,50.59532506,51.61718762,51.59916957,76.96475073,76.85572055,76.96294118,77.04309407,49.70661416,49.35665975,48.91407715,48.40831566,48.24389032,48.56746435,49.0968847,49.19462817,49.15038625,48.95105343,48.56891371,47.98360785,47.91806579,47.99233891,48.25579739,48.63284078,48.70601335,48.59293629,48.46432854,48.41315051,48.29807129,48.22520217,48.02336571,47.72443423,47.69221995,47.67173489,47.81793879,48.33000407,48.2707166,47.70662911,46.64528812,44.89073353,58.9446811,59.21309485,58.9446811,58.95179752,58.84271907,58.72575478,58.57329608,39.58959372,38.94629801,42.0137176,59.98677824,50.83442222,35.34887861,35.34887861,35.48573577,35.34887861,35.76273913,36.26333534,36.29326447,36.37922486,36.35954414,36.20039876,36.19233933,36.04405295,47.90292079,47.90292079,47.72362287,47.9296355,48.32239459,48.33040771,47.07836779,46.3555465,63.66081541,63.66081541,66.71262168,58.9446811,39.74847302,39.44359374,46.74606698,40.4204464,76.93035138,76.93035138,NaN,NaN],
	"ap0": [NaN,0.6659784662,0.6592146872,0.6108263718,0.4397893346,0.4095807569,0.4641131123,0.4317755624,0.5062853065,0.5380716989,0.5146149871,0.3451696332,0.3028361329,0.5254364792,0.5660773687,0.7290067231,0.9205324042,0.844163745,0.9154460559,0.885992319,0.492777368,0.5229571035,0.6895925628,0.3443290439,0.05886644571,0.01665584327,0.01054780971,0.02153804424,0.04952319465,0.1286939041,0.5126042875,0.6681698099,0.2003175243,0.03914472369,0.02675828494,0.02769950011,0.02090582991,0.0289130576,0.02158487198,0.00777957439,0.01564084493,0.04561157429,0.2566776161,0.2300689433,0.1102612388,0.05591721582,0.09049198522,0.1943202898,0.3343108136,0.1899535404,0.2057209933,0.1091752024,0.21462496,0.2566545661,0.4212065281,0.102562818,0.07484232004,0.03666942934,0.01896780079,0.01880063844,0.02972651374,0.0275202777,0.02866686243,0.05083653314,0.05377537113,0.03226651166,0.01605252101,0.005963200593,0.00450573548,0.004059228415,0.006163484886,0.01342352963,0.02210936121,0.02538438376,0.03184971281,0.09157199836,0.4288265944,0.3969059195,0.2044607555,0.7942047928,0.1638001796,0.1026518248,0.01704825742,0.01321155403,0.02690826845,0.01698356614,0.0270862912,0.04343300128,0.03381858575,0.0385375223,0.09830967825,0.104825308,0.01235917572,0.0109574806,0.01899634388,0.05012193582,0.2422129058,0.5938854069,0.580193809,0.6113984861,0.3097919225,0.1109607063,0.01116382111,0.0112375567,0.03065091095,0.04048010339,0.05661631058,0.07617399856,0.1536518205,0.7996941758,0.6895906921,0.6544293382,0.3594617781,0.4151221117,0.2466715893,0.1059406922,0.08514082222,0.03538526161,0.008383854549,0.008854168668,0.01722652008,0.05744095632,0.2060614356,0.3127977742,0.391511334,0.7212998785,0.4152007827,0.1900799916,0.03832813169,0.03927798101,0.01943699474,0.04454292167,0.1156071402,0.3499867888,0.2983814903,0.4384729103,0.4374325055,0.2727346535,0.1785273626,0.1622077002,0.4838370783,0.6911915675,0.1908930477,0.05136005771,0.01627524656,0.03399852655,0.0163101077,0.01091590369,0.0119481414,0.01084716678,0.01181814433,0.009090038112,0.01082263508,0.01436898848,0.0322008689,0.04187514573,0.03078053094,0.05611744434,0.150801475,0.6669659766,0.7047214723,0.4160045712,0.4998210525,0.6345494339,0.4654368946,0.08711661629,0.04525945304,0.05170023546,0.05301149852,0.1291862935,0.3264440431,0.5765419801,0.7244064134,0.6077012083,0.5038991679,0.4999419576,0.7497075871,0.5688257258,0.08783959464,0.0601767074,0.08951123164,0.2152149748,0.2791511037,0.5600721303,0.458771363,0.5275248084,0.2989853644,0.2441852728,0.1488405376,0.09526925382,0.1908168812,0.1441464145,0.2893347216,0.4587553445,0.2895401465,0.3130341745,1.007319781,0.1944929776,0.04240897087,0.01094617508,0.01794663035,0.01972561564,0.02035828956,0.026642517,0.05303390648,0.02559743518,0.02926501418,0.0553135936,0.04853358934,0.02741933435,0.03291721971,0.03706573597,0.02789030375,0.06446468925,0.2187977728,0.1687837852,0.2359302773,0.4346452312,0.3987139744,0.4984397996,0.3391496241,0.0697708807,0.01544761168,0.01677610062,0.05996504342,0.08755804636,0.08104872171,0.1667924869,0.2294610246,0.3892782643,0.4192307557,0.558778372,0.4635142737,0.5119642878,0.5403556279,0.352683649,0.2558159154,0.3047031133,0.2225230946,0.1765067447,0.1705737849,0.2415290679,0.5510204819,0.4533227399,0.3600236613,0.1100083766,0.2487769686,0.2485445318,0.1787041869,0.2810419681,0.49221771,0.7323471678,0.5589769314,0.6231907458,0.8427203052,0.5509994278,0.1832904786,0.07099435746,0.1032006833,0.0767408088,0.07052061482,0.05025397086,0.04040900593,0.0413518704,0.06234265114,0.08403865227,0.0557112804,0.03338092013,0.02399945026,0.05217138093,0.1263533801,0.1392041635,0.1407144781,0.1933730971,0.9057474769,0.3839117052,0.2793008868,0.1652141353,0.127025697,0.08350806241,0.044774457,0.05618909792,0.04838826659,0.0378278995,0.05585575401,0.08192483855,0.2433549016,0.6191622766,0.3760838232,0.2093560003,0.1890246652,0.08799900391,0.02930332646,0.03298059861,0.03308179063,0.07406397238,0.2283180092,0.1832962094,0.306190935,0.7972618441,0.6812308047,0.3794799858,0.2536366629,0.4182162337,0.2439335973,0.1222650445,0.1506493113,0.1740531577,0.0700402719,0.02932792702,0.0246003171,0.05720549619,0.1346115787,0.1773069782,0.1966285762,0.2381085231,0.1827844707,0.3279517846,0.6338707177,0.6112720406,0.6005478186,0.6842181712,0.4168207973,0.1984732628,0.08338530493,0.08617850002,0.08926959692,0.06184244304,0.0319878288,0.02462335524,0.03413943184,0.03379054432,0.01489537336,0.00972901714,0.0137924865,0.05222029564,0.1134438835,0.1418457083,0.1944060474,0.5194119534,0.7386136919,0.5889608292,0.5477245541,0.4681105267,0.3973991515,0.2711906798,0.12245351,0.115153189,0.07618889631,0.06909245524,0.07349360415,0.03567815488,0.0066409253,0.008162136603,0.05525422976,0.07689158011,0.09010294247,0.1091691372,0.05756739912,0.08811756735,0.04926950105,0.02913679303,0.03429931154,0.02060127098,0.02153257836,0.01118171828,0.02118287342,0.06035133824,0.0608709123,0.09488445021,0.262642739,0.3718600142,0.1590718929,0.1159038176,0.2062065831,0.8069650094,0.6326058775,0.5536762411,0.3718064016,0.4529105027,0.2541916608,0.1133128728,0.1623450491,0.5517088342,0.6151888582,0.7228306593,0.8184410798,0.7641750999,1.40333461,0.5269169591,0.2990294587,0.3817668343,0.367497972,0.2959938997,0.3665761343,0.2544590795,0.1976147694,0.1629278451,0.1519359458,0.1461541285,0.1564331402,0.1549860056,0.2127268891,0.1974120272,0.1205587914,0.07896335187,0.2026130771,0.5735336055,1.047087659,0.9114948125,0.9036169543,1.066417123,0.6458918407,0.6264183948,0.6131393407,0.7018038762,1.0639358,1,1,NaN,NaN],
	"ap": [NaN,0.2593548704,0.6004674449,0.1666174299,0.2463103166,0.127961017,0.09818415823,0.2966378368,0.3641589933,0.1500889326,0.250160787,0.1838640098,0.1307284595,0.6366333005,0.1340457761,0.3056168761,0.5157299629,0.4537776244,0.6187558343,0.4214908907,0.4679376085,0.5018768217,0.2927434968,0.4482036794,0.3929077531,0.2428052896,0.009719649187,0.01148048879,0.01255412686,0.03267677451,0.1737723091,0.1736249461,0.6684613981,0.4138422666,0.04896349073,0.01647077393,0.0327660517,0.01321018604,0.008029001641,0.01856732424,0.003762788922,0.002230492381,0.05364336532,0.2796794398,0.1028940736,0.07998606628,0.09663965572,0.08450897214,0.1503577664,0.07006239112,0.1409261795,0.112638741,0.1479636807,0.2749203571,0.4259843924,0.172541361,0.07897649445,0.02820937405,0.02768570756,0.01081770495,0.02056508566,0.04697309797,0.02400648799,0.007605005615,0.0165702558,0.02421077072,0.04000172781,0.00961506941,0.006087596068,0.001097663959,0.003518902398,0.007752861145,0.0148238875,0.01694307791,0.01934918088,0.01302574794,0.2207836034,0.4432317449,0.1317315643,0.06847679976,0.2414374419,0.4928948721,0.03532153433,0.01161796235,0.01023140581,0.02389661,0.01413840236,0.05676729899,0.04009506061,0.06417221319,0.07598407941,0.06326285233,0.008560350307,0.009635400116,0.007581577635,0.01247969945,0.01455603818,0.321489236,0.4299367611,0.4581927446,0.4499386692,0.5044553132,0.01477127424,0.003260721085,0.01296601312,0.04953410255,0.04833411658,0.0576769813,0.03164459267,0.1838290317,0.7866872704,0.4537852542,0.7716906077,0.263782108,0.3459292466,0.5178030904,0.07520585752,0.06892501386,0.004380591938,0.00897871702,0.005480274884,0.003964769428,0.03671540757,0.1837259171,0.2264999094,0.5313922788,0.4819159292,0.3367612515,0.03566113111,0.04066757717,0.03377396281,0.02442225758,0.02523621895,0.05798676186,0.08179134208,0.2026623821,0.6700594206,0.6666475576,0.2977046376,0.1173669609,0.3634209945,0.7573920138,0.5237094354,0.3545613586,0.02265484663,0.02748085657,0.04421666609,0.006174703778,0.007006818034,0.006028237048,0.00903535977,0.003704185878,0.005024526404,0.003199170559,0.007196092072,0.04007253624,0.03236688867,0.01245714926,0.01710884517,0.09862142889,0.4484609752,0.5942210785,0.1986080408,0.3791148623,0.4219240349,0.4298682806,0.2074532725,0.1025240158,0.04422507443,0.07899800543,0.04257677182,0.1028370265,0.3806018718,0.2400079583,0.221379492,0.2912901242,0.187304841,0.4551895506,0.4289621204,0.2157579311,0.03011618673,0.05073731024,0.3244290119,0.2604636783,0.4935254007,0.2645843361,0.6216595009,0.4831554582,0.342419862,0.1181226012,0.07321078874,0.1901343272,0.05234525891,0.4750668593,0.7270071859,0.1444584293,0.4842971466,0.4559019376,0.5320759356,0.01415166937,0.01021529033,0.01331802901,0.01946472426,0.005842033236,0.0239575998,0.04068180569,0.006332253544,0.02473548461,0.03118934972,0.02824509942,0.01401306835,0.03662433277,0.01155259524,0.01416797134,0.03112183295,0.1549399099,0.07901779759,0.2518035103,0.2650242847,0.2334231394,0.3056436138,0.2710489172,0.06383159012,0.01869713142,0.04863822685,0.02815600018,0.008892481292,0.1161650908,0.2087810528,0.03881302628,0.1341363818,0.6417390647,0.6114931888,0.2885206295,0.2213057672,0.4451113879,0.1401493525,0.07078352869,0.1390303145,0.1619322623,0.08588006633,0.06068147539,0.09023597139,0.4577930742,0.3968492486,0.2172220072,0.0266926263,0.1505419128,0.06626234489,0.168130025,0.05201740818,0.4818002161,0.8110359698,0.2970272995,0.3595191782,0.694086995,0.3375338969,0.1038417264,0.05650273769,0.1119349201,0.02938745647,0.04731822239,0.02953335927,0.01592691181,0.0354099093,0.01867411948,0.05930741021,0.02303235153,0.02065644934,0.03075620944,0.1279418732,0.1701458503,0.231692815,0.08250816522,0.1330954327,0.1114961028,0.4784553177,0.2441057909,0.06944317952,0.07485884095,0.0429064509,0.01348006918,0.02868377033,0.02485247217,0.02411221762,0.07725340089,0.03492221831,0.4184798491,0.2196819645,0.4128889022,0.1966057598,0.1307901899,0.03608417651,0.01412107706,0.01523750451,0.02022293638,0.05672821664,0.1626163187,0.03742170421,0.385997536,0.8377196328,0.7032751244,0.6446343542,0.4325110347,0.4244736445,0.2099896595,0.03597064286,0.1998584573,0.137774185,0.01248959693,0.009894863641,0.01541919391,0.01692151482,0.09581380021,0.1157612898,0.08553118946,0.2275377197,0.1630443268,0.122655274,0.455662368,0.3782727304,0.3162919822,0.3209393616,0.4197353038,0.04289292324,0.08553545711,0.04073796128,0.03821255714,0.05177499515,0.009634802366,0.01388033324,0.01828034226,0.009708294353,0.007995009778,0.004330663499,0.003271630109,0.02446716199,0.03790814525,0.1056533946,0.07340206709,0.2825282886,0.5335557643,0.3295069325,0.1303421681,0.3762049525,0.457485077,0.505342753,0.1488517188,0.07540602845,0.05546298424,0.04852016628,0.1108391259,0.01217059775,0.005414480922,0.01789220839,0.04768584677,0.04520509124,0.0476514304,0.06902533017,0.06704232409,0.07975446263,0.03670262507,0.01734761615,0.01896732958,0.01494901399,0.01515694936,0.005486342936,0.02007519215,0.04584979925,0.04536234174,0.009840855579,0.3213471849,0.4307365006,0.08000406161,0.04753479415,0.267784832,0.1496508598,0.215482231,0.3180236759,0.09522930471,0.2141286707,0.3178924854,0.04233305864,0.08209483562,0.1811387465,0.4438407266,0.3947500573,0.4604918445,0.4940906117,0.410098805,0.1810424426,0.1852165233,0.2820201729,0.09394959837,0.186830228,0.2097571957,0.1229101828,0.08570635334,0.06870319271,0.07434385941,0.07919180845,0.1737246261,0.08348505958,0.07172945721,0.05185827821,0.07721554315,0.03176390942,0.1745007069,0.5000005918,1,0.5000029972,0.5000063323,0.5000154967,0.5000234831,0.1784338368,0.4424929063,0.5000024096,1,1,NaN,NaN],
	"pwr": [NaN,4.040943062e-06,4.79439987e-06,3.623158672e-06,4.543883895e-06,5.890247418e-06,3.998190465e-06,1.208448271e-05,2.951399287e-06,6.6418021e-06,1.287644375e-05,1.547550737e-05,1.996446474e-05,4.850402449e-06,6.973036914e-06,2.566185453e-06,3.374011954e-06,1.274855181e-06,1.403975073e-06,5.359819048e-07,1.573435891e-06,2.658304519e-06,3.141168149e-05,0.0001275053479,5.661097777e-05,0.0009225302243,0.02393522095,0.02745605456,0.0175297136,0.003521993405,0.0001410374855,7.127338477e-05,0.0001924466877,0.0001238643074,0.02613123619,0.1726635171,0.1143432123,0.02983599292,0.02245433073,0.01871374774,0.02669322829,0.02653704746,0.007975604663,0.0001267665586,0.000710804863,0.02530374608,0.03556706715,0.05127201279,0.08481346168,0.02657358365,0.02366988247,0.01360945686,0.01323153716,0.007407018434,0.01314040591,0.006915128885,0.005057381152,0.006948124135,0.007150296625,0.0155352418,0.01378844942,0.01288672533,0.008361261493,0.007693293274,0.01038847451,0.008119879811,0.004712533382,0.01051095529,0.01266688181,0.01882286174,0.01828780242,0.02055533766,0.02235097946,0.01943152085,0.01625783295,0.00751855857,0.003134065936,0.0003176943268,0.001957480555,0.001318170053,0.0002015338118,0.0001622959724,0.06701520325,0.04845262956,0.03822310994,0.03734572522,0.0264189403,0.0174387359,0.01727482468,0.02084302714,0.02560805821,0.01731644014,0.01108194636,0.01032585439,0.01217815832,0.01223826143,0.009740272204,0.000271794886,0.000104945204,2.267153554e-05,7.165466302e-05,0.004707953878,0.07946278225,0.05957464429,0.05444791712,0.05642119697,0.05266424491,0.04290397419,0.02456705413,0.004868054814,0.0003213146189,0.0003979959346,0.0005487789099,0.0005198890295,0.001314807512,0.0006868799656,0.02597384543,0.02394467028,0.01632385911,0.01411143497,0.01762551915,0.01198012182,0.006641444576,0.0004253284269,8.46528957e-05,7.950264398e-05,0.0002684208103,0.007841647431,0.00525398814,0.004578553998,0.004452222507,0.004623925207,0.006728058466,0.005455403332,0.0002683060142,3.482993027e-05,3.797941609e-05,1.372639708e-05,8.834830087e-05,0.0001033265615,0.0002427788871,5.656181125e-05,0.001826253812,0.003854365893,0.03244311717,0.02764926926,0.03209916393,0.03400094491,0.03633558646,0.03589489991,0.03007441039,0.02728259427,0.02661494257,0.02411823211,0.02302681436,0.01823817627,0.01738155053,0.01596943561,0.008853264216,0.0009882614737,0.0002016751239,0.0001055848998,0.0002804489273,0.0008284413338,0.0006093652376,0.0001962581808,0.004335019603,0.0236285569,0.01897103587,0.0128970812,0.0161163742,0.004005802853,0.001885332348,0.001154531843,0.0004444526307,0.0002401352743,0.0002684267817,0.0001376915382,4.779890317e-05,0.002781854354,0.0197806418,0.01179071738,0.0005822384564,0.0001756246716,1.909737954e-05,0.0001309482385,9.539962888e-05,0.01422870327,0.03013155458,0.0184120674,0.01959325427,0.0170456018,0.007047435893,0.0006388645883,7.799987442e-05,0.0001854985613,0.0002844867911,6.85151048e-05,0.001644249787,0.03889597973,0.05446741332,0.04017549041,0.03787147591,0.03695959369,0.03064334898,0.01557955346,0.006503888706,0.005566221143,0.005161557395,0.003223610516,0.002916572529,0.003303901922,0.003393219542,0.002718605294,0.001974120868,0.0001934810028,0.0001060696893,2.355071727e-05,4.398236932e-05,0.0003613791456,0.0006132863552,0.0001384584884,0.003841743399,0.009222019498,0.01060613906,0.008647186037,0.006441862857,0.002388988635,0.0002084771874,0.0001242817538,5.569436304e-05,3.429973643e-05,0.01414086837,0.01214607852,0.008227254762,0.01083749649,0.003909010607,0.002322712745,0.001895247982,0.0005803250502,0.0006015606226,0.0006066326516,0.0004047483727,0.0005903097943,0.00277006434,0.007631332471,0.009616811112,0.009390842247,0.0125388872,0.01445929419,0.00564411717,0.005066508603,0.002204807361,0.003975605772,0.004243016457,0.003210211972,0.003318594362,0.0129091347,0.01114131564,0.01402076252,0.01036766625,0.008181613423,0.006518113816,0.005132531888,0.004272405498,0.003256997567,0.00267253523,0.00290714545,0.003696097395,0.003254743436,0.003087233886,0.002958607106,0.001492755022,0.007031313347,0.004546755092,0.0001481222572,6.083967676e-05,0.000167996274,0.002211361747,0.002971215553,0.002986163681,0.002400589525,0.00255101913,0.002788006706,0.003129177179,0.003392050714,0.002707843405,0.0005567761392,0.0009088395564,0.0007750871122,0.002879374152,0.00313935273,0.004424171045,0.008133676531,0.006280542118,0.0035551952,0.002743531495,0.0003577584551,0.0001344170585,2.162967804e-05,3.078647343e-06,3.130988966e-05,0.007049915153,0.01531234755,0.02552991182,0.025261322,0.01264600781,0.01186920821,0.005137683206,0.009958389925,0.009220111278,0.008808287642,0.008951658776,0.007562696354,0.002526361105,0.002153040907,0.000291533791,0.0001345005153,4.446158978e-05,3.069495582e-05,0.0001722823004,0.0001982267486,0.0002064233734,7.307840247e-05,0.005241317185,0.004672800226,0.002268800377,0.002323785423,0.001095440321,0.001483453714,0.001513534742,0.0009621104993,0.0007008132975,0.000728665761,0.001043099799,0.001051682013,0.0008765127618,0.001183859837,0.000475262418,0.0003323386743,0.0001224282129,0.0002146806522,0.0001919470277,0.001008392525,0.0002724541319,0.001504436932,0.0001631735624,0.003548647696,0.006968679116,0.005481497368,0.00396594142,0.00234288081,0.004261582915,0.007039070043,0.007222648493,0.005213217985,0.003139250809,0.003229943248,0.001035817104,0.001055591197,0.001758262652,0.002673827084,0.003995383876,0.003321522819,0.0053422749,0.002166160823,0.00247021363,0.001918039014,0.0009413893619,0.0004145312209,0.0003321012078,9.259517916e-05,1.840314525e-05,5.178764985e-05,3.213732192e-05,3.587850656e-05,7.491277202e-06,2.6836257e-06,3.22707001e-06,7.385557267e-06,4.316766285e-06,2.186288807e-06,3.375600497e-05,3.815111589e-05,1.047873846e-05,2.238987532e-06,1.665668739e-06,2.063110882e-06,1.081005211e-06,5.245381072e-08,2.422309517e-08,5.224992203e-08,1.766487927e-08,1.217666713e-08,1.055280795e-08,4.379237105e-09,8.69056075e-09,5.605479299e-09,4.120414816e-09,3.43891626e-09,2.026513027e-09,1.678084273e-09,1.529015873e-09,1.106608111e-09,6.606892299e-10,6.923506322e-10,6.781192496e-10,5.180030599e-10,9.261293261e-11,0,9.407298733e-12,0,3.582009902e-12,0,1.045125084e-11,6.462599615e-11,2.303733282e-11,0,0,NaN,NaN],
	"sr": 16000,
	"range": [1,134801],
	"minf0": 63.1883,
	"maxf0": 706.3069,
	"thresh": 0.1,
	"relflag": 1,
	"hop": 320,
	"bufsize": 10000,
	"wsize": 640,
	"lpf": 4000,
	"shift": 0,
	"plotthreshold": 0.2
}
