{
    "DU": 145,
    "DV": 162,
    "F-measure": 0.400749063670412,
    "F-measure Chroma": 0.4269662921348315,
    "FN": 38,
    "FNC": 0,
    "FNCch": 12,
    "FNI": 38,
    "FNIch": 26,
    "FP": 42,
    "GU": 149,
    "GV": 158,
    "Overall Accuracy": 0.3485342019543974,
    "Overall Chroma Accuracy": 0.3713355048859935,
    "Precision": 0.39776951672862454,
    "Precision Chroma": 0.42379182156133827,
    "Raw Chroma Accuracy": 0.12025316455696203,
    "Raw Pitch Accuracy": 0.0,
    "Recall": 0.4037735849056604,
    "Recall Chroma": 0.43018867924528303,
    "TN": 107,
    "TO": 307,
    "TP": 120,
    "TPC": 0,
    "TPCch": 7,
    "TPI": 120,
    "TPIch": 113,
    "Voiced Chroma Accuracy": 0.04430379746835443,
    "Voiced Pitch Accuracy": 0.0,
    "Voicing Accuracy": 0.739413680781759,
    "Voicing Detection": 0.759493670886076,
    "Voicing False Alarm": 0.28187919463087246
}