{
    "DU": 164,
    "DV": 182,
    "F-measure": 0.3615257048092869,
    "F-measure Chroma": 0.38142620232172475,
    "FN": 55,
    "FNC": 0,
    "FNCch": 0,
    "FNI": 55,
    "FNIch": 55,
    "FP": 34,
    "GU": 143,
    "GV": 203,
    "Overall Accuracy": 0.315028901734104,
    "Overall Chroma Accuracy": 0.33236994219653176,
    "Precision": 0.3745704467353952,
    "Precision Chroma": 0.3951890034364261,
    "Raw Chroma Accuracy": 0.029556650246305417,
    "Raw Pitch Accuracy": 0.0,
    "Recall": 0.34935897435897434,
    "Recall Chroma": 0.3685897435897436,
    "TN": 109,
    "TO": 346,
    "TP": 148,
    "TPC": 0,
    "TPCch": 6,
    "TPI": 148,
    "TPIch": 142,
    "Voiced Chroma Accuracy": 0.029556650246305417,
    "Voiced Pitch Accuracy": 0.0,
    "Voicing Accuracy": 0.7427745664739884,
    "Voicing Detection": 0.729064039408867,
    "Voicing False Alarm": 0.23776223776223776
}