{
	"f0": [NaN,35.34887861,35.34887861,35.34887861,35.41717196,58.73912506,59.18515785,59.40229075,59.43071069,59.51729334,59.67467468,59.86991952,60.08203253,60.08522993,59.99746473,60.05437,60.06683747,60.12086382,60.16981628,60.26447483,60.71728937,61.00707711,61.24855833,61.58773409,61.93314062,62.18505271,62.23783164,62.06350133,61.80662215,61.59669223,61.43869309,61.36550325,61.4308728,61.51787808,61.42258558,61.17135406,60.79971466,60.26667546,59.29561796,59.93299334,60.36841817,60.55613714,60.66519445,60.69489931,60.67585672,60.64363454,60.54869499,60.20480418,59.80958005,71.21309485,71.02783213,70.5541188,71.21309485,66.93128702,63.35595601,62.80781824,61.38595076,61.74843553,61.94760806,61.93726599,61.88510665,61.75576865,61.55589603,61.32031268,61.05007572,60.83418548,61.99942833,37.68269956,37.0651751,35.9499574,39.5448657,39.0636291,63.01718831,62.67473351,62.78417446,62.95368638,62.97886268,62.99733786,63.00039121,62.96587845,62.94173937,63.04172967,63.34414197,63.75090648,63.98741043,64.08920345,64.13142551,64.09290433,63.98397922,63.87571974,63.85446001,64.06665479,64.36900449,64.56421832,64.52836646,64.30264999,64.05181781,64.46125094,67.30443372,50.46709887,67.34995772,61.90243515,61.04040281,60.89545471,60.89604861,61.01594904,61.10744709,61.14555944,61.26734029,61.50120222,61.67269848,61.74127988,61.62360922,61.24500842,60.77021536,60.4320311,60.31830874,60.04765235,59.73053421,59.86880234,60.09204912,60.20402641,60.25441058,60.37319239,60.45102276,60.3312773,60.04887063,59.74526733,59.31355603,58.43196831,58.38998917,58.43890416,58.40245362,58.30087452,58.18510235,58.11469113,58.09237876,58.12378317,58.22900033,58.38222082,58.62763432,58.41931558,57.9467121,58.34348662,67.36244492,35.34609228,36.11534481,70.18782156,56.53614685,56.07634779,56.16894846,56.31892534,56.48038694,56.65287556,56.76082506,56.84679597,56.86393354,56.84361981,56.94449954,56.93880153,56.78853786,56.46727057,61.53264483,60.04346737,60.04769053,60.15788765,60.22245198,60.28811715,60.2859199,60.29168199,60.40081469,60.46642426,60.34071436,60.07480189,59.31255853,58.57506314,58.07505899,57.93012497,57.80638736,57.65176672,57.50822624,57.43724298,57.4566663,57.50336183,57.59848655,57.80985888,58.1599763,58.56647922,59.05282521,59.36333858,59.44348434,59.34203704,59.12866023,58.91942274,58.76703,58.6459211,58.56173493,58.57026153,58.60146663,58.53190566,58.31210107,58.16354076,35.34887861,35.34887861,35.61188406,35.59450648,41.44382494,41.7017639,35.35256727,35.44545946,74.4676913,74.28514906,74.31524796,74.51730475,74.36453607,69.56763629,69.56469197,69.1261014,69.24715852,69.30579581,69.3101354,65.64428615,74.83661715,66.05364457,57.78560514,53.35054121,44.69388865,65.81231746,70.58640448,58.4404583,58.9446811,59.44895769,59.66928673,59.654549,59.08043141,35.34887861,35.34887861,35.34887861,35.34887861,35.34887861,35.41717196,56.51268228,56.28582736,56.15871302,56.16903109,56.29136908,56.74033734,57.14557296,57.62545439,57.94337854,58.09133345,58.14066197,58.17658633,58.2324698,58.31866216,58.41714864,58.46110382,58.42222139,58.3526818,58.33311061,58.31107213,58.33386508,58.34472486,58.45003178,58.51759268,58.39618484,58.16032922,57.90924358,57.36679635,56.40806371,56.46727057,42.22576116,58.01484824,57.19872888,56.54967176,56.31453333,56.24707189,56.36786475,56.55089504,56.79803633,56.99140305,57.01134756,56.69298233,55.57155812,56.27983198,55.33353675,56.97565653,55.41339262,54.33233387,53.7619943,53.68968996,53.67914848,53.70765508,53.81577027,54.04010917,54.40640684,54.65352921,54.44181513,55.35594989,74.46083179,74.35470264,74.28386433,60.0442468,58.39328945,58.3444653,58.38596797,58.50846979,58.58006623,58.62240284,58.71283966,58.86140387,58.9233452,58.88679848,58.79891666,58.64346774,58.18393421,58.82649701,59.43635994,73.44320081,73.69219085,73.73441461,73.86598436,74.03273753,74.05101527,65.76537587,52.78628296,71.21956018,35.34887861,35.34887861,36.32400509,36.26039389,36.07601626,35.96836007,36.09733549,39.46422298,58.59368733,58.73187197,58.67828551,58.58207513,58.52744167,58.67987676,58.70391376,58.77126702,58.8480495,58.87402138,58.85367765,58.82139128,58.71434384,58.68036542,59.42291009,74.04547164,73.8426951,73.6948777,65.03892152,73.85049647,74.23996288,60.03346715,70.01743444,70.68036542,69.91080137,NaN,NaN],
	"ap0": [NaN,0.5437226432,0.3881570765,0.3880469103,2.171115708,0.2955185245,0.1261272255,0.008529734492,0.003851903978,0.00540677125,0.006394731711,0.009037802009,0.008940749903,0.008812302123,0.009642250803,0.01013828176,0.008359472917,0.008810595341,0.01098916134,0.01999808896,0.01962462114,0.00620569034,0.005279535382,0.00534700943,0.004059347646,0.003166550537,0.003866521648,0.00619974249,0.006496642877,0.005135680997,0.005249383976,0.004950580188,0.004431373301,0.004849782687,0.006384465692,0.006544347725,0.01000247785,0.03279570569,0.03394395987,0.03522183505,0.0168410744,0.01170213727,0.005941722452,0.002965880952,0.003298997602,0.003448584837,0.006797918267,0.05665413763,0.2478788083,0.4893602637,0.4438223173,0.2651222201,0.5340758693,0.8996760672,0.2556691634,0.3044904902,0.1371607684,0.01492624931,0.002215806094,0.00194745586,0.002307234156,0.003232607547,0.004136248597,0.01069165461,0.03441165558,0.2969812482,0.4893942154,0.4886646166,0.4574480706,0.7946816714,0.7073436562,0.8161308276,0.08862528105,0.01925865078,0.003377490577,0.001312674974,0.001614954137,0.002089158927,0.00223196069,0.002198911083,0.002029858109,0.004001276728,0.008510040413,0.007874061433,0.00266950288,0.001417114402,0.0006890952116,0.0009913941189,0.001537184877,0.001278638304,0.001168616612,0.008738939658,0.01143545107,0.005761567775,0.01495094024,0.03261709191,0.09684218973,0.432198018,0.6898033074,0.5635604174,0.5468949594,0.2285382946,0.05045076516,0.0113781838,0.00482743763,0.004735591463,0.00371859274,0.00766866223,0.01246364127,0.01132223515,0.008728844682,0.007110998285,0.01009401257,0.01294719654,0.01711048238,0.01794250546,0.02880336198,0.04814686777,0.005768671498,0.01172070682,0.01029941868,0.01257410748,0.01673691993,0.01033785824,0.007000560511,0.007706475563,0.01341353416,0.01747267616,0.03290105934,0.01415119471,0.009506233376,0.009892595914,0.006739000202,0.006592482815,0.003988671861,0.001688577382,0.0009619249757,0.001330609843,0.005007625408,0.01782592413,0.04554980485,0.05797903336,0.06218730674,0.491303883,1.296529785,0.5954475139,2.257882959,0.4689875618,0.3845824192,0.03539754024,0.03683265987,0.02288741887,0.01846157056,0.02002254505,0.01845125824,0.02951266393,0.04083492474,0.02197903171,0.0122818926,0.0193575045,0.07404105903,0.4781394663,0.3112011143,0.127396335,0.02521796579,0.01211536773,0.01202505093,0.01157447882,0.01458794933,0.01532745039,0.01141099678,0.007809369476,0.01232984059,0.05283007608,0.08622715573,0.02173550503,0.01026267909,0.01237394803,0.01080552298,0.004964573359,0.004708842204,0.00397164978,0.004323214974,0.00538706083,0.005464476742,0.007405581895,0.009546167096,0.01817688546,0.01646463745,0.007112595695,0.00442151433,0.005182100489,0.006932103586,0.007828295512,0.008895904718,0.008492455167,0.007988999829,0.01372676785,0.02342329391,0.0421992165,0.14366273,0.6616457837,0.4682697847,0.5383147969,0.4461309347,0.5067676799,0.7579750859,0.8204172386,0.7361456621,0.7433395094,0.7562804239,0.7191324719,0.7209823045,0.3864349007,0.4171413635,0.3689670245,0.381151738,0.5469327191,0.4153398713,0.4514259184,0.562232462,0.6330261407,0.746930188,0.6550114175,0.7845490984,0.6673226101,0.7101207166,0.7293557572,0.8961523743,0.220567436,0.247448338,0.2689834487,0.4423618632,0.5435422567,0.6442775818,0.4444864683,0.2922262592,0.3020187739,0.3945446606,0.6861238666,2.013250352,0.2552762991,0.139493519,0.01631454178,0.02254879129,0.08252269648,0.1042425608,0.09707095799,0.07029783473,0.02564405446,0.01755876325,0.01960616055,0.01636270512,0.01002387087,0.01084049847,0.01110479949,0.01235353236,0.01663556074,0.01299419204,0.009127842313,0.01008361074,0.01010838589,0.01415077326,0.01559488855,0.01074202372,0.01313010055,0.01758565559,0.03923023734,0.08620064921,0.279768645,0.7853872225,1.516199155,0.2555907037,0.2903392135,0.04117003811,0.03138377336,0.02841335307,0.0320561599,0.0240044166,0.02097007302,0.0152738259,0.01525722828,0.06136830745,0.1794947167,0.5994832029,0.9851565186,0.3036247034,0.2841938531,0.1826558025,0.02451402089,0.01409725706,0.01314997925,0.01240511596,0.02119700493,0.03844874286,0.02823992084,0.0499903356,0.2006187856,0.7239255461,0.6321771402,0.5956065965,0.5030608956,0.4879024427,0.04268269496,0.01094744417,0.005916183047,0.006058702812,0.005374200158,0.005397748262,0.006715730389,0.00841231217,0.004998323629,0.006080357645,0.023091198,0.05027556844,0.2203226014,0.5635503673,0.6895234802,0.6770103954,0.512583064,0.4795135212,0.406684569,0.3422420104,0.5205686725,0.7829907883,0.7962156469,1.134246441,0.5124430542,0.6104803603,0.5588646845,0.142298513,0.3963020629,0.5230733598,0.3730847989,0.462688088,0.1956113126,0.1493888537,0.05922070517,0.02507967497,0.0369536075,0.0297075178,0.0396496026,0.07723772028,0.06534255735,0.0449068831,0.04427601602,0.06554941551,0.1444718682,0.2877610394,0.6034819651,0.4737840982,0.5578405618,0.5489237538,0.61793908,0.7114429481,0.6430926168,0.538472784,0.5497817116,0.6931377733,0.7845345345,NaN,NaN],
	"ap": [NaN,0.3716243091,0.2346215954,0.2063589317,0.2496044477,0.1549816127,0.6728093549,0.03381823509,0.005169493352,0.001061124346,0.004096480951,0.008272263964,0.006109712602,0.005209902563,0.004350725098,0.01043184444,0.006879635852,0.002470854867,0.003886337775,0.006854550595,0.01975464598,0.04305948421,0.008103720556,0.006826329219,0.005852569991,0.005300255219,0.001005163445,0.003143819797,0.008328559527,0.004270418618,0.007537551796,0.004273516115,0.001624666839,0.001648328147,0.003450643905,0.005983585904,0.007991795254,0.009750474973,0.05153757844,0.02921981752,0.03882018276,0.004920885542,0.01235698263,0.003139842747,0.001270259361,0.001319917413,0.004128953948,0.03047930308,0.0551987385,0.1365141573,0.2082734683,0.07778275855,0.24622933,0.8494906805,0.4520498385,0.5880154156,0.1464845517,0.04912998998,0.01722603342,0.00170907016,0.001216989886,0.002854857287,0.001898429337,0.002247206139,0.002981113423,0.02063035885,0.4803396513,0.2489294701,0.2577054028,0.2422148614,0.5499731748,0.4283995361,0.4984547131,0.471393129,0.07208967844,0.001312383861,0.001112702318,0.0004442229661,0.0006436480089,0.001613809813,0.002242650178,0.001845546227,0.009942971747,0.01605553904,0.01378074024,0.001938914165,0.0003818573353,0.0004082696115,0.001241553912,0.001077698964,0.0002647545404,0.004903332646,0.017126575,0.006538977382,0.0006305919171,0.01276986663,0.01449863054,0.09941716341,0.5962410811,0.3481274003,0.03154841079,0.5934730723,0.682337131,0.1729465316,0.002961653444,0.003426358673,0.003359922398,0.002831468041,0.002028555382,0.01071681329,0.006066913954,0.005426042118,0.003173488254,0.02370901021,0.02203017752,0.01032751601,0.005302008697,0.03339099849,0.02920801273,0.008029404917,0.01852538273,0.008045470769,0.001672104215,0.007850232616,0.003561977148,0.005905291559,0.01288794338,0.01717079206,0.02565676034,0.05910625691,0.004583684743,0.005273938165,0.005242850652,0.006711196501,0.008357660173,0.001965445456,0.001149764613,0.0009863413436,0.003428446563,0.005941638012,0.00951380193,0.08543275227,0.01354673738,0.06371376637,0.5713685151,0.2294536506,0.3995339225,0.4208077717,0.5147592604,0.04139159995,0.01687203374,0.0217893903,0.01956587088,0.01347368923,0.0119321072,0.01299638428,0.006384145276,0.08114839791,0.01785299447,0.003286031791,0.01433918608,0.02051837916,0.26200039,0.5924932957,0.3768105353,0.01166180398,0.006467293964,0.005882231606,0.003533663015,0.004454290611,0.01994528757,0.007170902469,0.00743346478,0.02035585365,0.04503308691,0.05572288361,0.01745649616,0.003780178109,0.003109589554,0.003417017571,0.001370446339,0.001808636072,0.001157046807,0.002148519749,0.004742590366,0.005769824722,0.009397620199,0.01314288388,0.02003980225,0.006328335972,0.005174866497,0.0007210601009,0.005344862216,0.004520613954,0.003203376095,0.008828404424,0.004536226173,0.002131083214,0.002790885211,0.009364480296,0.0476429012,0.03688622125,0.2318821076,0.2710443427,0.3088110502,0.1773768016,0.3842624288,0.3524458089,0.3747738627,0.316942714,0.4081606684,0.383934938,0.313352415,0.390058665,0.5625794495,0.0414285055,0.4492758592,0.1262344232,0.317120359,0.1997484197,0.1257797448,0.6846046485,0.5945706221,0.4695145115,0.3782822756,0.3119827976,0.2505452959,0.6703264149,0.446171458,0.2199428872,0.376166059,0.07554678078,0.06832293753,0.3962949746,0.4280788549,0.2587344448,0.1647167837,0.1324679635,0.142210793,0.2556090829,0.3507148451,0.391796121,0.4237004747,0.01182962184,0.01024605343,0.01039953818,0.0675205993,0.06039506662,0.1079601371,0.07708258319,0.008444408093,0.007654322136,0.01132490013,0.003274324961,0.00392363356,0.006830170979,0.0102566483,0.006464172728,0.01147544052,0.003976322477,0.003966439088,0.00703769918,0.006004350445,0.002285452694,0.009272436461,0.008489615895,0.007103577428,0.015995884,0.02424391614,0.07986250485,0.501382998,0.5053451843,0.5122270998,0.5284690315,0.2792618873,0.04248091586,0.01929130638,0.0124638388,0.01879496113,0.008307338739,0.01181485498,0.007268912473,0.0107647514,0.04841436124,0.2526652843,0.5382033021,0.4573224125,0.3887002478,0.5624583412,0.03385192641,0.01038846946,0.004600306163,0.007206526635,0.005973016219,0.03040699287,0.02647144123,0.01454098265,0.01043927721,0.127759797,0.8034295148,0.06079078894,0.1949538033,0.4629512377,0.777390104,0.3216922719,0.003046588868,0.004323956656,0.004385835655,0.001515989135,0.004827153692,0.01159952487,0.004285167585,0.003044214743,0.005283714703,0.01657706596,0.0822789707,0.06173135201,0.3529508725,0.3841579327,0.7792778187,0.1736291655,0.3497743286,0.3253310151,0.4534259156,0.1276319056,0.4917081042,0.3764909565,0.3507044968,0.1653883694,0.6085936258,0.08080031157,0.07672929924,0.4394831899,0.1503799328,0.3470682893,0.4516815956,0.0563215398,0.1492627203,0.03486005699,0.01141064841,0.02987776677,0.01758789052,0.02400344716,0.03867876322,0.03451179465,0.0495605941,0.01865804748,0.03839406199,0.04437160968,0.2238494257,0.09126671141,0.2666136859,0.1770290718,0.4384048558,0.4248661434,0.5396567945,0.3397753229,0.3672999743,0.3527398655,0.5229012427,NaN,NaN],
	"pwr": [NaN,1.518031276e-06,2.882976633e-06,2.782225818e-06,3.313330525e-06,1.997142844e-06,1.273676252e-05,0.008823870503,0.01789285863,0.01885346851,0.01768619488,0.01685609732,0.01376984642,0.01153072201,0.01069846876,0.0051792237,0.006400880021,0.007240932103,0.005647698689,0.005807658791,0.006561519481,0.005176425993,0.0101045388,0.01454137835,0.01944022167,0.02265522673,0.02738879967,0.02387960816,0.02301365761,0.02368993675,0.02418186059,0.02350237894,0.01928548273,0.02214288168,0.02221521392,0.02071067912,0.01733755813,0.01349040528,0.007177373417,0.003735272138,0.004187421701,0.01797806593,0.03203345045,0.09375736907,0.1638893254,0.1060612417,0.08203749537,0.06580371129,0.05773404423,0.0650138469,0.0355553369,0.004861570444,0.0001572349574,1.223120981e-05,1.324286173e-05,3.733138258e-06,0.03872652204,0.01193640824,0.02541902118,0.05006602118,0.040126562,0.03871532345,0.03537829519,0.02945166807,0.01990602548,0.005559673692,0.0002515117874,5.761631038e-05,5.75194015e-05,2.341992165e-05,6.155919244e-06,5.285017022e-05,5.370782538e-05,2.738786626e-05,0.01534155026,0.07165050746,0.08152976013,0.08296766852,0.08364027016,0.07858281348,0.07269032312,0.0575253288,0.04483459479,0.05291362644,0.05825167825,0.08639501227,0.1021892819,0.0958753018,0.09745202219,0.09898942399,0.09389231767,0.097851866,0.1074273352,0.1501270038,0.1521781633,0.1021826786,0.03808782696,0.006865819619,0.001923547618,0.00113627668,0.002811489112,0.000317659937,6.688922851e-05,0.007931071705,0.06119016464,0.07084991083,0.07423733751,0.05966126372,0.04486853102,0.04255411069,0.03421404842,0.03357823504,0.03431773151,0.03318860036,0.0273427066,0.02278706299,0.0219065495,0.06006582044,0.2200299444,0.1027129075,0.09000916799,0.05192589406,0.04281751913,0.02434617503,0.01877542081,0.01653066363,0.01962534009,0.01885565373,0.0184013316,0.009954545171,0.007080057142,0.01146091988,0.0216287207,0.0556583106,0.156518611,0.1706233203,0.1635160086,0.1548784213,0.1657454103,0.164178322,0.1441424106,0.0176013164,0.006107475373,0.001491426629,0.0001146436479,4.880073543e-05,3.738050448e-05,6.457961085e-06,8.807096535e-05,0.01950263635,0.01489180814,0.01852011574,0.01075468319,0.008569020856,0.006368611921,0.005153492547,0.005002547905,0.003525136845,0.002184603728,0.002047388754,0.002636991536,0.001097106676,0.0001289493663,5.058000872e-05,0.007829999289,0.06573695527,0.04697850781,0.04235036276,0.03924481457,0.03107364821,0.03019571825,0.02276544321,0.0227897318,0.02174034244,0.02219491888,0.006273408917,0.007160213995,0.008410089238,0.01132883391,0.01589011758,0.01832538864,0.01733730903,0.01402516447,0.01267177159,0.0121794242,0.009519681983,0.008993091281,0.009555782849,0.01120591181,0.007817608782,0.008287913357,0.01010578132,0.01035001423,0.009711369255,0.01109977197,0.01115224511,0.01017673802,0.009594751477,0.008525792195,0.004841980328,0.001799554788,0.0001002550476,1.424309907e-05,1.103544102e-05,6.696850195e-06,7.259374545e-06,5.427523035e-06,4.386249731e-06,3.383284111e-06,7.127662684e-06,1.731126617e-06,3.579221869e-06,4.452226223e-06,7.413585911e-06,2.35041967e-06,5.228511494e-05,1.231053369e-05,2.685121603e-05,9.912917586e-06,1.34849524e-05,2.448498533e-05,1.386686097e-05,2.140610072e-06,1.575457485e-05,1.020609679e-05,7.795152008e-05,0.0001510576822,6.837147607e-05,1.604471867e-05,7.182070755e-06,1.39241071e-05,0.003835862188,0.0009002249638,0.0002924496043,0.0001007088516,2.588299089e-05,1.543558085e-05,7.606593399e-06,4.787171511e-06,3.265766711e-06,2.094284952e-06,1.173089607e-06,0.0001974421131,0.03879336306,0.03039114629,0.02346546873,0.01515139979,0.0108122609,0.01084092926,0.01511837048,0.01957400083,0.02395205039,0.02666124681,0.02825995513,0.02604650462,0.02287624172,0.01972467038,0.01888564687,0.01541855199,0.01241987388,0.01091803883,0.009482960762,0.009514369245,0.007379655691,0.00715647313,0.007923984406,0.007901587998,0.007652466038,0.005178481204,0.003152713995,0.0001009966208,4.388473813e-05,3.429961751e-05,2.661688902e-05,0.05432141373,0.02905594939,0.01881193235,0.02038518167,0.01323609646,0.009241078189,0.00833479758,0.010282434,0.009213806525,0.004400253283,0.0005786978967,0.0001327286477,5.711156591e-05,4.377488705e-05,0.01133714234,0.01517830385,0.01687621276,0.0168531026,0.01471277477,0.01539485997,0.01617198963,0.01488994465,0.01310766322,0.006954550265,0.0009526466753,0.0001902865893,0.0002378370974,0.0002622004594,9.04654439e-05,0.0001661541137,0.0009993428003,0.07403651127,0.08452526499,0.07160230227,0.0752204508,0.07893183638,0.08388649043,0.07663016159,0.0796171983,0.06269001559,0.04667035031,0.01474477793,0.0004898072914,7.7286334e-05,4.223432113e-05,0.0002789340554,0.0001404306125,0.0001095201167,0.0001908319804,0.0001046823802,0.0002545846901,6.013640005e-05,2.307877839e-05,2.95632539e-06,3.676323677e-06,1.033817929e-06,4.953595143e-07,9.716629463e-07,1.98353821e-07,1.214122655e-07,1.925628804e-07,9.47746107e-08,7.143628514e-08,9.558989648e-08,2.638147988e-07,2.882942633e-07,1.281195276e-07,8.837488801e-08,5.175662166e-08,3.187817582e-08,2.540814888e-08,2.09013126e-08,2.822260151e-08,1.918327542e-08,1.052412148e-08,3.166501252e-09,4.81338824e-10,2.476522038e-10,2.45426828e-10,3.383434324e-10,3.742043903e-10,2.978260899e-10,1.325545672e-10,1.651566247e-10,2.204835641e-10,8.267175028e-11,NaN,NaN],
	"sr": 16000,
	"range": [1,115857],
	"minf0": 63.1883,
	"maxf0": 706.3069,
	"thresh": 0.1,
	"relflag": 1,
	"hop": 320,
	"bufsize": 10000,
	"wsize": 640,
	"lpf": 4000,
	"shift": 0,
	"plotthreshold": 0.2
}
