{
    "DU": 49,
    "DV": 325,
    "F-measure": 0.8240601503759399,
    "F-measure Chroma": 0.8511278195488722,
    "FN": 0,
    "FNC": 0,
    "FNCch": 0,
    "FNI": 0,
    "FNIch": 0,
    "FP": 83,
    "GU": 132,
    "GV": 242,
    "Overall Accuracy": 0.732620320855615,
    "Overall Chroma Accuracy": 0.7566844919786097,
    "Precision": 0.732620320855615,
    "Precision Chroma": 0.7566844919786097,
    "Raw Chroma Accuracy": 0.9669421487603306,
    "Raw Pitch Accuracy": 0.9297520661157025,
    "Recall": 0.9415807560137457,
    "Recall Chroma": 0.9725085910652921,
    "TN": 49,
    "TO": 374,
    "TP": 242,
    "TPC": 225,
    "TPCch": 234,
    "TPI": 17,
    "TPIch": 8,
    "Voiced Chroma Accuracy": 0.9669421487603306,
    "Voiced Pitch Accuracy": 0.9297520661157025,
    "Voicing Accuracy": 0.7780748663101604,
    "Voicing Detection": 1.0,
    "Voicing False Alarm": 0.6287878787878788
}