{
    "DU": 10,
    "DV": 289,
    "F-measure": 0.7430830039525691,
    "F-measure Chroma": 0.7430830039525691,
    "FN": 0,
    "FNC": 0,
    "FNCch": 0,
    "FNI": 0,
    "FNIch": 0,
    "FP": 92,
    "GU": 102,
    "GV": 197,
    "Overall Accuracy": 0.6287625418060201,
    "Overall Chroma Accuracy": 0.6287625418060201,
    "Precision": 0.6287625418060201,
    "Precision Chroma": 0.6287625418060201,
    "Raw Chroma Accuracy": 0.9035532994923858,
    "Raw Pitch Accuracy": 0.9035532994923858,
    "Recall": 0.9082125603864735,
    "Recall Chroma": 0.9082125603864735,
    "TN": 10,
    "TO": 299,
    "TP": 197,
    "TPC": 178,
    "TPCch": 178,
    "TPI": 19,
    "TPIch": 19,
    "Voiced Chroma Accuracy": 0.9035532994923858,
    "Voiced Pitch Accuracy": 0.9035532994923858,
    "Voicing Accuracy": 0.6923076923076923,
    "Voicing Detection": 1.0,
    "Voicing False Alarm": 0.9019607843137255
}