{
    "DU": 81,
    "DV": 230,
    "F-measure": 0.9478991596638656,
    "F-measure Chroma": 0.9512605042016808,
    "FN": 20,
    "FNC": 7,
    "FNCch": 11,
    "FNI": 13,
    "FNIch": 9,
    "FP": 7,
    "GU": 68,
    "GV": 243,
    "Overall Accuracy": 0.9067524115755627,
    "Overall Chroma Accuracy": 0.909967845659164,
    "Precision": 0.9690721649484536,
    "Precision Chroma": 0.9725085910652921,
    "Raw Chroma Accuracy": 0.9588477366255144,
    "Raw Pitch Accuracy": 0.9382716049382716,
    "Recall": 0.9276315789473685,
    "Recall Chroma": 0.930921052631579,
    "TN": 61,
    "TO": 311,
    "TP": 223,
    "TPC": 221,
    "TPCch": 222,
    "TPI": 2,
    "TPIch": 1,
    "Voiced Chroma Accuracy": 0.9135802469135802,
    "Voiced Pitch Accuracy": 0.9094650205761317,
    "Voicing Accuracy": 0.9131832797427653,
    "Voicing Detection": 0.9176954732510288,
    "Voicing False Alarm": 0.10294117647058823
}