{
	"f0": [NaN,51.65049136,50.92959602,50.71752267,50.49902449,50.21565637,50.13359528,50.12978327,50.40182798,51.02838697,51.60891699,52.10217855,52.32984814,52.27188653,52.04483558,51.87104279,51.84545288,51.81872807,51.78883192,51.86120807,51.85912005,51.87807827,51.99435779,52.03339452,52.02284607,51.96576238,51.8569078,51.82493575,51.85494335,51.84787568,51.81627459,51.8939169,52.01927787,52.11870839,52.25043578,52.26029868,52.22576237,52.2236968,52.2509943,52.44681714,52.65068554,53.3108577,53.3108577,40.74318912,40.62657972,35.5606535,35.49959424,73.8974179,73.89796067,73.86078175,68.7927525,61.21764517,61.12485839,64.58428383,61.20851503,61.47410911,64.75869315,69.19050938,74.4653279,69.34519427,35.37313988,35.61731588,35.62671576,53.9952266,35.34887861,41.5542899,53.29538709,35.34887861,35.34887861,35.34887861,35.34887861,35.34887861,54.50528578,55.07124161,54.9224708,43.19368317,43.01936909,42.81321678,42.87873271,42.96490493,43.06212529,43.09870961,43.15057968,43.21283081,43.34279564,43.64047238,43.93520709,44.18139904,44.34719204,44.39904766,44.46738565,44.68564963,44.81072754,44.81917802,44.92480959,45.03151357,44.99008129,44.93287771,44.78564473,44.34848924,43.75177069,43.45849939,42.73240389,51.14399075,48.77319667,63.07054428,46.89966618,46.4293659,45.86571371,45.61614195,45.54487126,45.58696636,45.62083537,45.7025454,45.813792,45.77166457,45.68870537,45.72370563,45.77398788,45.80361634,45.93027498,46.09614764,46.20735909,46.32085248,46.37533767,46.31006188,45.89001762,45.28505118,44.57989631,43.92344138,68.74051686,68.72154301,49.02882478,48.63578455,48.38402655,48.1863759,48.03877232,47.92282313,47.90365439,47.86281956,47.67108423,47.44325684,46.18823525,46.03800348,43.33930896,44.53139125,50.97508853,50.63841485,50.27701172,49.96904766,49.6372616,49.53932665,49.66336771,49.84455554,50.22128415,50.66967544,50.93233543,51.23125649,51.53714355,51.7778583,51.89361169,51.88210764,51.7377715,51.57033663,51.42515736,51.3037133,51.20197399,51.03662574,50.78233512,50.52008644,50.24805224,50.04938346,50.08102264,50.1637638,50.23573313,50.10854107,49.60267495,49.99488296,51.14399075,77.10044394,76.93035138,51.46257673,50.8798578,50.47987421,50.19568009,49.92378178,50.27956419,50.20110529,50.16263283,50.08422893,50.06521982,50.04435399,50.05959909,50.10999842,50.62440938,50.31022173,49.99247125,49.77634753,49.69686517,49.68200778,49.70792409,49.71600949,49.73844502,49.81425783,49.86141673,49.8515862,49.85444426,49.80931077,49.69454524,49.53206711,49.32106241,49.12106629,48.82474387,48.28133254,47.78588272,47.47996785,47.33592512,47.29573552,47.44914461,47.75797465,48.00284843,48.00080234,47.88369054,47.78254252,47.55440339,47.23399535,46.85761274,46.70548781,47.06059098,47.63202032,47.96767536,47.99676163,47.91109718,47.87547072,47.77952876,47.88914702,47.9960304,48.02383751,48.09597568,48.09458492,47.96535891,47.21309485,47.0453242,49.51625778,68.78072754,68.80094035,67.41651266,52.71604366,50.94677789,50.74799972,50.51129484,50.27222791,50.2984907,50.38864087,50.60778649,51.06091706,51.38646215,51.62454124,51.82136096,51.85409143,51.74795951,51.72206958,51.72159992,51.72768787,51.78617921,51.83890623,51.88474228,51.88625491,51.87466015,51.85591941,51.75704442,51.63076943,51.55624068,51.50657924,51.50261585,51.58140692,51.69786859,51.86710094,52.08124766,52.25894428,52.30595457,52.24402402,52.13404071,52.0539458,51.9996589,51.97776737,51.98984272,52.0522352,52.06863614,52.03418849,52.04047451,52.06360808,52.06553613,52.02619562,51.98355121,51.98997601,52.04108331,52.05417817,52.03655371,52.04052991,52.02055558,52.0501428,52.10805101,52.1077232,52.1119638,52.10923279,52.13000311,52.17272967,52.13268512,52.05300504,51.98217043,51.90514443,51.87254421,51.88558927,51.93265995,51.97962331,51.94724836,51.90630949,51.93591226,51.97656753,51.95296568,51.92385606,51.91730567,51.9139934,51.88635942,51.8259685,51.80127554,51.87051933,52.02251874,52.23623413,52.57747487,52.99581607,53.23646812,53.38022408,53.35275627,53.23372568,53.32421269,53.88170118,53.50429368,53.45750408,35.34887861,52.47497468,42.50528578,42.0979178,39.33456266,39.74847302,52.02274589,52.16577395,52.39239315,52.29290338,52.13012519,52.74318912,52.5641771,52.15134255,52.25487829,52.42985742,52.35898443,52.14058988,51.75632779,51.96899813,52.01782886,51.98232751,52.15200152,52.22113484,52.57215878,53.04581483,53.32409271,53.2591917,53.03860569,52.91399584,53.8977729,62.80781824,76.93035138,76.93035138,NaN,NaN],
	"ap0": [NaN,0.4855167581,0.1639368994,0.04273529218,0.0417101179,0.01678888561,0.01302939284,0.01271516156,0.03083643138,0.04249761034,0.02745201929,0.01784690557,0.006215005895,0.00593481858,0.008387743902,0.008627965615,0.006292924908,0.005032928229,0.005274624987,0.00634674139,0.005609554301,0.005372922406,0.00421413923,0.003423949834,0.003467676268,0.003958512308,0.003189733618,0.004509253872,0.004837229995,0.00620393738,0.007708665041,0.008566787073,0.009719218455,0.008778246992,0.006321709425,0.01387602359,0.02386253866,0.01660024381,0.01173674178,0.03209535307,0.08682029422,0.2246420228,0.5242262368,0.4273470319,0.56612551,0.7877180697,0.8335239717,0.6504719116,0.6028128526,0.7634225271,0.8162388193,0.6585371524,0.6855406916,0.7025834115,0.6864244505,0.6365547545,0.6570422292,0.6886686236,0.5822755734,0.8443038353,0.7314895338,0.6827829737,0.7839879499,0.713981873,0.6420871519,0.6966291379,0.6048324952,0.5488255217,0.5415015364,0.4772021812,0.3374191034,0.3588037285,0.2437363303,0.3785601856,0.3361599263,0.2359543278,0.1063831582,0.07633227508,0.04317751923,0.02865845914,0.01979423412,0.01052395695,0.006674531784,0.006003349081,0.01392667241,0.01844538958,0.01269216718,0.01151748065,0.005066049046,0.003359242202,0.005786116536,0.01202153645,0.00809697604,0.01063132429,0.01379823384,0.008463881949,0.01017355266,0.01359265712,0.04166779585,0.07898998281,0.09720094627,0.1643609297,0.4455265875,0.8042983252,0.6241463451,0.6212400165,0.3158564804,0.1404045075,0.04973855956,0.01554327477,0.004256741003,0.003431842864,0.004807629467,0.006612036342,0.005865556656,0.01051052377,0.006056143845,0.005194441386,0.003845058032,0.003395798445,0.008163347636,0.006642911154,0.01115008057,0.01500872845,0.02319599905,0.04799080485,0.06317934336,0.1609382251,0.4988468099,0.7873363688,0.78172981,0.714453501,0.3741505382,0.1589251848,0.03675846674,0.02019940317,0.01529528548,0.0137926054,0.01709328175,0.05473923342,0.1522181837,0.2889717546,0.4294621935,0.587273735,0.9085620077,0.772972266,0.7615277001,0.1998500988,0.111440608,0.04758009405,0.03184776935,0.01329099766,0.01579782396,0.02002511665,0.05732025548,0.03285777073,0.03144490961,0.03081636582,0.01990496008,0.01689012974,0.006635240461,0.007441578045,0.0123497261,0.007538691399,0.009543490604,0.008378679149,0.01080697836,0.01562736146,0.02160823521,0.0172871289,0.02263511543,0.01365006123,0.01544699337,0.03573474029,0.04507250487,0.05482867808,0.1262393375,0.2575991775,0.7137213242,0.6613027943,0.9444712762,0.5711682821,0.3457071559,0.05170717536,0.07167724976,0.1740728117,0.05594065872,0.01585443724,0.01239379536,0.01210633221,0.01587744722,0.01406460217,0.01037394517,0.01122748575,0.1774391883,0.1796007665,0.08833615867,0.01598289928,0.007329296606,0.005915912012,0.01798221144,0.02165231303,0.009821152031,0.01106743273,0.008159670492,0.008369481402,0.009183787612,0.01053599131,0.01214269761,0.02601740901,0.05766953245,0.09396603276,0.08173393467,0.1007873696,0.09012852785,0.07311648039,0.05806182747,0.05037335402,0.0796205619,0.08175029264,0.09965050341,0.0666581359,0.03214046386,0.03290564985,0.04294084837,0.06018097808,0.07718618285,0.0657113871,0.1203765602,0.1362725222,0.1319117633,0.110051631,0.05378892316,0.03517428067,0.02427260551,0.03865906682,0.0880099816,0.2033405938,0.1071416058,0.04462192133,0.1561311348,0.2360058264,0.3104986766,0.7931142566,0.6501553311,0.6623852866,0.7715345728,0.424604367,0.1743681371,0.03298458955,0.02998146283,0.00865722304,0.007271523914,0.008602665484,0.01942722738,0.02029841935,0.01125407231,0.009410277419,0.007235316717,0.004561640752,0.009626029942,0.008431932613,0.004778256815,0.005845601104,0.005043297501,0.005014389648,0.004536177722,0.003670575794,0.003156810596,0.003814720396,0.00578871228,0.004402968349,0.003524999092,0.002527982393,0.002883452114,0.003781751683,0.00430958766,0.006972157924,0.007857375928,0.003632720522,0.001977877612,0.002188420222,0.002697555781,0.002654349091,0.002345473997,0.00195467537,0.004063569538,0.006499282902,0.004069949694,0.002309796464,0.003047099539,0.002956431997,0.001685249169,0.001601728441,0.002428018421,0.002231397893,0.001670963483,0.001724823149,0.001823270779,0.001957352106,0.002126768095,0.002791859994,0.002342996407,0.001755257542,0.001246133077,0.001268231916,0.002232215896,0.002131854813,0.002094437915,0.003025878823,0.003656939385,0.003292522719,0.001835857474,0.001447667806,0.002816659178,0.002341168722,0.002688769106,0.002196011211,0.001790813543,0.001683720211,0.002077150362,0.002448865207,0.003129515712,0.002508045589,0.003246637488,0.003052204374,0.003105406188,0.005135952035,0.005167907333,0.009104639837,0.01850095125,0.009148988977,0.004853340059,0.007170773057,0.01703897318,0.02800207009,0.0662042958,0.3171822037,0.5268185333,0.9877194911,0.6520639053,0.5885555377,0.6133235763,0.7328410521,0.4097550625,0.3378233023,0.2074081584,0.1547216343,0.09908017438,0.07901398009,0.1918382066,0.06378812485,0.03210598643,0.1135953541,0.05501116927,0.0110158466,0.006646544041,0.02015877538,0.03693061068,0.01867648487,0.009925255877,0.01001694493,0.01117132887,0.01952962831,0.02498515296,0.0181347114,0.01724775235,0.01850814678,0.03324285674,0.1060597357,0.327540699,1,1,1,NaN,NaN],
	"ap": [NaN,0.4980074458,0.3717438538,0.08672352519,0.04610504465,0.03040194819,0.004506640637,0.006361177793,0.02250861064,0.05356334123,0.05072440734,0.02797373692,0.01347287105,0.004468685561,0.009937777171,0.004587629162,0.003530135377,0.000670166439,0.001501024332,0.003698553416,0.00139077642,0.004035671543,0.003836634312,0.003031862258,0.001032438605,0.001957674053,0.003134647182,0.00157047383,0.001238638967,0.00246397746,0.001554104728,0.007674068557,0.00332371741,0.005776410177,0.003227428634,0.002841522355,0.005906400891,0.003698742234,0.01303686351,0.01023261923,0.006350737496,0.08674084978,0.05442756433,0.268925375,0.239408006,0.2847309574,0.4688983704,0.5713962121,0.4765172197,0.3263292967,0.3702811908,0.4077517118,0.3073066354,0.5710761801,0.6011368199,0.377554186,0.1550314546,0.6817046635,0.2971943736,0.1880262237,0.4018356714,0.3601245528,0.3490574996,0.5986716395,0.3382071302,0.4421724044,0.2755879082,0.3329354208,0.2248294333,0.2696181543,0.2366219436,0.2046800525,0.4138118382,0.5601575823,0.09944340133,0.4663969424,0.05917650173,0.1013199122,0.05063098857,0.02351946012,0.01038831544,0.01127201562,0.006228176313,0.002382535922,0.005099163555,0.01631498554,0.007037544986,0.01317525781,0.004419503289,0.0021651463,0.003526197273,0.005816105627,0.004638859545,0.004017691031,0.008721900951,0.00497806742,0.00845399999,0.004019850736,0.008396384451,0.03472615535,0.04156580164,0.03268016336,0.1376926766,0.5824819353,0.6897432614,0.5269226003,0.3779309328,0.16476504,0.08411974877,0.0296612604,0.003662541993,0.0007290966438,0.001989250126,0.007543739779,0.004502358863,0.005457668673,0.005378713595,0.006494146004,0.002293263011,0.002064816583,0.00721436288,0.006893446117,0.005193680945,0.009621687306,0.002653468167,0.008653549445,0.0406783676,0.0510228962,0.06861127013,0.3289636743,0.3612558977,0.4041991136,0.4172303441,0.5169188195,0.07127311562,0.01969562341,0.01737184688,0.008792060478,0.004637181604,0.006533342483,0.03523885409,0.05668203639,0.1846442118,0.3213953067,0.3310209702,0.5393522407,0.7513867751,0.6425172814,0.2408329899,0.05050409385,0.03138075339,0.01060914102,0.02991214356,0.02010319681,0.06240696868,0.07683137576,0.04197039977,0.04230326672,0.02306131336,0.02428516661,0.006309605929,0.003470134585,0.0124437508,0.01363453022,0.007080057136,0.005964084794,0.004324839686,0.01397691553,0.02133453868,0.01886153017,0.01357244754,0.01290007307,0.006597035616,0.008426585872,0.01060376824,0.02224191917,0.06299635588,0.1104135793,0.3838766901,0.7587644442,0.8541667609,0.5404708,0.5244198772,0.1215120222,0.02827124791,0.0187824486,0.1566700671,0.01560165975,0.007990866629,0.006302521444,0.00574872672,0.009426140929,0.00818519529,0.003155347106,0.02399132594,0.01474077998,0.1400113901,0.03349067028,0.003698422912,0.003684343585,0.003293179124,0.003124896634,0.00417894978,0.01065594508,0.001807394689,0.004254849406,0.004516124231,0.004756534162,0.009870331379,0.01291886155,0.01384868266,0.02523640485,0.08269346358,0.08212948386,0.07810586816,0.01783343891,0.02382826308,0.0191521882,0.03547859707,0.05002549656,0.04873084234,0.07885284939,0.02991527473,0.01823729478,0.04530097074,0.04478823835,0.04157760888,0.03691433014,0.06697252551,0.1909012159,0.2112932692,0.03833802346,0.1004272106,0.01165061239,0.008877682281,0.02123030382,0.01958407472,0.02013626743,0.1594213507,0.03385780702,0.02293605209,0.06983657014,0.03504466144,0.6056896261,0.6073818241,0.4414162295,0.4246602798,0.4472878234,0.3464919683,0.187756494,0.04306787009,0.007652483686,0.004338997803,0.003314210204,0.008348674193,0.03125784565,0.0232316617,0.01177809238,0.01380026283,0.002103128401,0.004114400088,0.004396688368,0.004953973294,0.004023547184,0.003926162577,0.003332687741,0.003316610447,0.001653005776,0.003146601537,0.0009383085993,0.00453703297,0.004672640634,0.001094026682,0.002270217092,0.0006064366866,0.003799500096,0.005561546227,0.006929204218,0.01122592413,0.007394362189,0.001322028143,0.001781585866,0.00191016651,0.002115108693,0.001670542467,0.00142749322,0.0007076374837,0.002014558402,0.007332803658,0.001176006206,0.00133158866,0.001802907541,0.0008434657746,0.001472664348,0.001214737485,0.001177637796,0.00137760456,0.0003168714478,0.0005793246277,0.001136430291,0.0008221071601,0.001242684967,0.001303347318,0.001300465171,0.0007881782164,0.0004319299027,0.0005230177303,0.0008966148751,0.001586433362,0.0009349652529,0.002315074033,0.002332928737,0.001375681325,0.0007252007862,0.001478611645,0.001829200161,0.001806742921,0.001955260205,0.001646458274,0.001104383655,0.001029827096,0.0006650799758,0.0005252023488,0.002170916662,0.001884361527,0.003220735733,0.00183580961,0.004696351978,0.004706006008,0.009014365028,0.01695730524,0.01984181482,0.00488575774,0.002861925076,0.003158767821,0.01152237197,0.01188115142,0.07918491006,0.6138352257,0.1041838251,0.2220065016,0.4175643164,0.399433524,0.3365720825,0.1899516311,0.2157377103,0.408769986,0.007803530212,0.1545919284,0.0239386494,0.01998632388,0.1489687802,0.008897505209,0.01316879109,0.122249571,0.06233088378,0.005404763567,0.003866407381,0.01189241094,0.0337774709,0.008910020397,0.003853825786,0.01041438507,0.002535449845,0.02796150089,0.02133969046,0.003477388061,0.006908257776,0.01010429432,0.01806708556,0.1032433237,0.5000061988,1,1,NaN,NaN],
	"pwr": [NaN,8.347309118e-07,8.885201256e-06,0.03343876343,0.04550342444,0.03206097159,0.02160801745,0.01852810837,0.01235981871,0.01138505757,0.01117985895,0.01535999078,0.01681501794,0.02440957563,0.03731867108,0.02974745178,0.0204049917,0.02070549614,0.01774226794,0.01790743745,0.02042728864,0.02011409084,0.01623850522,0.02172786931,0.02652602725,0.02357681522,0.0260914871,0.02132329112,0.01921545534,0.01681496919,0.01752404013,0.01240594615,0.0125785903,0.01174303354,0.01070000609,0.009120287465,0.01030972242,0.004822802359,0.002571942024,0.001773863794,0.001844696527,0.0006859577028,9.540588233e-05,1.273514648e-05,2.105397787e-05,1.060745898e-05,2.65244564e-06,9.336525728e-07,2.188496913e-05,2.653839566e-05,1.931911026e-05,3.756134016e-05,4.683995427e-05,0.0001010826496,9.028351183e-05,8.054767496e-05,0.0001390580944,3.411964108e-05,2.547602046e-05,4.478223299e-05,2.214020477e-05,1.276888023e-05,6.544942592e-06,6.954259684e-06,4.920124683e-06,2.603641031e-06,8.147921554e-07,2.391658371e-06,2.544320337e-06,3.292692567e-06,3.875841893e-06,5.420521965e-06,5.082042272e-06,6.740819735e-06,0.0002063561448,0.0002176873967,0.001053568112,0.0007483556878,0.001823109897,0.005139759814,0.01036353337,0.01692933475,0.02676055966,0.03092505487,0.03632184701,0.03771290406,0.02752275419,0.0248878804,0.01781154293,0.0159874678,0.01484340216,0.0138717367,0.01349657923,0.01482700383,0.01374861863,0.01474676497,0.01465300198,0.01331122838,0.01103925969,0.006037999278,0.003669209559,0.001977348263,0.000598615582,2.006268101e-05,2.254274909e-05,1.330053216e-05,0.001558223889,0.06223139681,0.07926300092,0.0826262485,0.09125820057,0.06854060801,0.06163420059,0.05537286688,0.04783346572,0.05164230828,0.05400917046,0.05523130026,0.04898997088,0.05193802892,0.05114459675,0.05261546765,0.05426036318,0.05775394179,0.06227685686,0.05574607502,0.0269933931,0.01232486826,0.002601777844,0.0008655706119,0.0008577188327,0.00234480013,0.001265651008,0.0007737707498,0.01950015404,0.02793603924,0.02241021424,0.01593196844,0.01624551308,0.01883812426,0.02205431236,0.01106162684,0.006788806975,0.003988941856,0.006119089832,0.004181950566,0.00357858622,0.002475465461,0.010860492,0.05579584917,0.04980151693,0.04354464178,0.04108911412,0.04158502309,0.03500586761,0.03440181213,0.03622730714,0.05667949318,0.04603514161,0.04030169108,0.02361307435,0.01960419536,0.01936042917,0.01857358003,0.0168605717,0.01463137312,0.0118878099,0.01230385239,0.009403654974,0.009342458938,0.007000024043,0.008077950891,0.005579751957,0.005277285341,0.00551098968,0.004355496867,0.002712169344,0.0008881843458,0.0001894417721,8.436390423e-05,4.999822957e-06,0.00872580833,0.0001499557188,0.08911532172,0.0860120816,0.05293349305,0.004515768262,0.005976188197,0.004819286161,0.005245512358,0.005893600466,0.004623051511,0.0053841826,0.0055682047,0.006136400546,0.006585432513,0.08413877333,0.03865862688,0.0420025581,0.03390618106,0.02840191999,0.02453256071,0.0193221587,0.01882913205,0.01589304851,0.01600416238,0.01488390101,0.01148549704,0.01215974804,0.01040864918,0.007455243069,0.00517139876,0.00417559446,0.003003903302,0.001901613933,0.001363318566,0.001552129448,0.001748206001,0.001623176379,0.001534960307,0.00130465238,0.001452337255,0.002463446997,0.002876616916,0.004137147947,0.003784180601,0.004336751865,0.003366006792,0.00220649222,0.002586665023,0.009498268202,0.08892269956,0.1140986055,0.0487587335,0.03042758154,0.01356075679,0.006263166015,0.005976856067,0.001713789541,0.001991781831,0.002089560469,0.00128136338,0.001145938274,0.0009395107138,0.0003471509267,0.0002312232344,0.001397316395,0.001594211294,0.0005208388592,0.01806023778,0.02834929182,0.02905457789,0.01877473235,0.0174100842,0.01345223154,0.009662048413,0.01005494395,0.01523718193,0.01720902574,0.02393199108,0.0271401796,0.0235726928,0.02353056701,0.02265867322,0.02014181285,0.02239718879,0.0246090783,0.02611125051,0.02862450699,0.02546505196,0.0231329192,0.02311208273,0.02093886758,0.01890190881,0.01684272416,0.01495913902,0.01562056775,0.01820843737,0.01978149737,0.027080639,0.03258610556,0.03782303409,0.03765599373,0.03369853349,0.02789254025,0.02569796782,0.0237316586,0.0272200782,0.02889305616,0.03151885776,0.03398151801,0.03175764421,0.0314599077,0.03430588302,0.03185678662,0.03237861128,0.03093316609,0.0338153485,0.0339909911,0.03384498066,0.03506833824,0.03230197791,0.03324219618,0.03643785754,0.0352596535,0.0380472904,0.03666345402,0.03745504441,0.03734121943,0.03630616162,0.03692820953,0.03448865203,0.02792824869,0.02676508922,0.02609266449,0.02707444754,0.0267771299,0.02624721854,0.02281931236,0.02169160855,0.02282735519,0.02041305974,0.02053104814,0.0227020545,0.02180462331,0.02141967135,0.01883112531,0.0176303179,0.01581536362,0.01672718117,0.01428777819,0.01386060262,0.01715581197,0.021196643,0.01876172791,0.007000318464,0.001475612772,0.0003335166268,1.732652204e-05,8.358455465e-06,1.90791398e-06,3.373391852e-06,2.080778705e-06,1.203189915e-06,3.249804072e-07,1.911164337e-07,2.204866968e-07,1.64278906e-07,1.378465475e-07,1.973307576e-07,1.291163682e-07,2.40203614e-08,1.31924634e-07,1.625204955e-07,3.044210278e-08,3.150272977e-08,1.713672827e-07,2.566195317e-07,1.377980086e-07,4.207372877e-08,7.734025011e-08,1.053607391e-07,5.981785067e-08,5.665005422e-08,3.251141012e-08,1.669048011e-08,1.657953331e-08,8.380616022e-09,7.991751254e-09,4.120734129e-09,6.583487165e-10,0,0,0,NaN,NaN],
	"sr": 16000,
	"range": [1,120465],
	"minf0": 63.1883,
	"maxf0": 706.3069,
	"thresh": 0.1,
	"relflag": 1,
	"hop": 320,
	"bufsize": 10000,
	"wsize": 640,
	"lpf": 4000,
	"shift": 0,
	"plotthreshold": 0.2
}
