{
    "DU": 289,
    "DV": 191,
    "F-measure": 0.4649446494464944,
    "F-measure Chroma": 0.5289052890528905,
    "FN": 100,
    "FNC": 0,
    "FNCch": 11,
    "FNI": 100,
    "FNIch": 89,
    "FP": 47,
    "GU": 236,
    "GV": 244,
    "Overall Accuracy": 0.39375,
    "Overall Chroma Accuracy": 0.4479166666666667,
    "Precision": 0.49736842105263157,
    "Precision Chroma": 0.5657894736842105,
    "Raw Chroma Accuracy": 0.15163934426229508,
    "Raw Pitch Accuracy": 0.0,
    "Recall": 0.43648960739030024,
    "Recall Chroma": 0.49653579676674364,
    "TN": 189,
    "TO": 480,
    "TP": 144,
    "TPC": 0,
    "TPCch": 26,
    "TPI": 144,
    "TPIch": 118,
    "Voiced Chroma Accuracy": 0.10655737704918032,
    "Voiced Pitch Accuracy": 0.0,
    "Voicing Accuracy": 0.69375,
    "Voicing Detection": 0.5901639344262295,
    "Voicing False Alarm": 0.19915254237288135
}