{
    "DU": 39,
    "DV": 420,
    "F-measure": 0.9213483146067416,
    "F-measure Chroma": 0.9573033707865168,
    "FN": 14,
    "FNC": 6,
    "FNCch": 10,
    "FNI": 8,
    "FNIch": 4,
    "FP": 14,
    "GU": 39,
    "GV": 420,
    "Overall Accuracy": 0.8932461873638344,
    "Overall Chroma Accuracy": 0.9281045751633987,
    "Precision": 0.9213483146067416,
    "Precision Chroma": 0.9573033707865168,
    "Raw Chroma Accuracy": 0.9785714285714285,
    "Raw Pitch Accuracy": 0.930952380952381,
    "Recall": 0.9213483146067416,
    "Recall Chroma": 0.9573033707865168,
    "TN": 25,
    "TO": 459,
    "TP": 406,
    "TPC": 385,
    "TPCch": 401,
    "TPI": 21,
    "TPIch": 5,
    "Voiced Chroma Accuracy": 0.9547619047619048,
    "Voiced Pitch Accuracy": 0.9166666666666666,
    "Voicing Accuracy": 0.9389978213507625,
    "Voicing Detection": 0.9666666666666667,
    "Voicing False Alarm": 0.358974358974359
}