{
    "DU": 42,
    "DV": 312,
    "F-measure": 0.9123328380386331,
    "F-measure Chroma": 0.9390787518573552,
    "FN": 0,
    "FNC": 0,
    "FNCch": 0,
    "FNI": 0,
    "FNIch": 0,
    "FP": 35,
    "GU": 77,
    "GV": 277,
    "Overall Accuracy": 0.867231638418079,
    "Overall Chroma Accuracy": 0.8926553672316384,
    "Precision": 0.867231638418079,
    "Precision Chroma": 0.8926553672316384,
    "Raw Chroma Accuracy": 0.9891696750902527,
    "Raw Pitch Accuracy": 0.9566787003610109,
    "Recall": 0.9623824451410659,
    "Recall Chroma": 0.9905956112852664,
    "TN": 42,
    "TO": 354,
    "TP": 277,
    "TPC": 265,
    "TPCch": 274,
    "TPI": 12,
    "TPIch": 3,
    "Voiced Chroma Accuracy": 0.9891696750902527,
    "Voiced Pitch Accuracy": 0.9566787003610109,
    "Voicing Accuracy": 0.9011299435028248,
    "Voicing Detection": 1.0,
    "Voicing False Alarm": 0.45454545454545453
}