{
    "DU": 90,
    "DV": 323,
    "F-measure": 0.8703465982028241,
    "F-measure Chroma": 0.9242618741976893,
    "FN": 37,
    "FNC": 13,
    "FNCch": 32,
    "FNI": 24,
    "FNIch": 5,
    "FP": 10,
    "GU": 63,
    "GV": 350,
    "Overall Accuracy": 0.8208232445520581,
    "Overall Chroma Accuracy": 0.8716707021791767,
    "Precision": 0.901595744680851,
    "Precision Chroma": 0.9574468085106383,
    "Raw Chroma Accuracy": 0.9685714285714285,
    "Raw Pitch Accuracy": 0.8542857142857143,
    "Recall": 0.8411910669975186,
    "Recall Chroma": 0.8933002481389578,
    "TN": 53,
    "TO": 413,
    "TP": 313,
    "TPC": 286,
    "TPCch": 307,
    "TPI": 27,
    "TPIch": 6,
    "Voiced Chroma Accuracy": 0.8771428571428571,
    "Voiced Pitch Accuracy": 0.8171428571428572,
    "Voicing Accuracy": 0.8861985472154964,
    "Voicing Detection": 0.8942857142857142,
    "Voicing False Alarm": 0.15873015873015872
}