{
    "DU": 125,
    "DV": 331,
    "F-measure": 0.9340909090909091,
    "F-measure Chroma": 0.9636363636363636,
    "FN": 17,
    "FNC": 5,
    "FNCch": 10,
    "FNI": 12,
    "FNIch": 7,
    "FP": 15,
    "GU": 123,
    "GV": 333,
    "Overall Accuracy": 0.9013157894736842,
    "Overall Chroma Accuracy": 0.9298245614035088,
    "Precision": 0.9362186788154897,
    "Precision Chroma": 0.9658314350797267,
    "Raw Chroma Accuracy": 0.978978978978979,
    "Raw Pitch Accuracy": 0.924924924924925,
    "Recall": 0.9319727891156463,
    "Recall Chroma": 0.9614512471655329,
    "TN": 108,
    "TO": 456,
    "TP": 316,
    "TPC": 303,
    "TPCch": 316,
    "TPI": 13,
    "TPIch": 0,
    "Voiced Chroma Accuracy": 0.948948948948949,
    "Voiced Pitch Accuracy": 0.9099099099099099,
    "Voicing Accuracy": 0.9298245614035088,
    "Voicing Detection": 0.948948948948949,
    "Voicing False Alarm": 0.12195121951219512
}