{
    "DU": 149,
    "DV": 152,
    "F-measure": 0.9368421052631578,
    "F-measure Chroma": 0.9403508771929824,
    "FN": 32,
    "FNC": 2,
    "FNCch": 3,
    "FNI": 30,
    "FNIch": 29,
    "FP": 0,
    "GU": 117,
    "GV": 184,
    "Overall Accuracy": 0.8870431893687708,
    "Overall Chroma Accuracy": 0.8903654485049833,
    "Precision": 0.9925650557620818,
    "Precision Chroma": 0.9962825278810409,
    "Raw Chroma Accuracy": 0.8369565217391305,
    "Raw Pitch Accuracy": 0.8260869565217391,
    "Recall": 0.8870431893687708,
    "Recall Chroma": 0.8903654485049833,
    "TN": 117,
    "TO": 301,
    "TP": 152,
    "TPC": 150,
    "TPCch": 151,
    "TPI": 2,
    "TPIch": 1,
    "Voiced Chroma Accuracy": 0.8206521739130435,
    "Voiced Pitch Accuracy": 0.8152173913043478,
    "Voicing Accuracy": 0.893687707641196,
    "Voicing Detection": 0.8260869565217391,
    "Voicing False Alarm": 0.0
}