{
	"f0": [NaN,39.28059967,35.88128298,35.93478359,37.1121313,37.67470199,42.21477899,43.54965585,44.2653887,55.18466535,54.43184946,43.67764587,43.97204071,57.07060615,56.70675416,56.63707059,56.66784423,41.22597921,41.46482984,56.61643006,44.81702672,40.30264178,43.9787085,39.09817586,56.65938846,58.51053248,59.2269249,59.38828993,57.89245452,59.66181401,59.29712533,59.0072549,59.68488205,69.43032767,69.55586344,69.40076897,59.48573577,59.40440968,69.53919115,60.91775292,58.58520306,52.60691978,54.4255775,55.10015086,57.54708352,43.61273364,40.11695302,40.00562281,44.45798694,41.56691923,41.22922003,43.00089376,43.51927632,42.81831343,43.10056355,59.24219266,37.42347964,42.9224708,42.72397,43.67764587,42.9224708,42.81447665,42.99025775,43.28639982,43.74992454,44.54112198,45.40011404,46.18400412,47.01472584,47.66628628,47.87609751,47.85097295,47.68329,47.61884755,47.78424206,48.50217536,48.88124912,49.00236451,48.88853336,48.51461991,47.62368344,48.18673601,48.70575934,49.01551196,43.42597872,42.70512341,36.91732291,47.06932222,47.40468436,47.62699654,47.86709917,48.02233005,48.12097992,47.68845896,46.38636535,44.88969538,42.28522716,43.98375199,52.93035138,56.46727057,47.17017961,47.10299314,47.10234737,47.27109018,47.37273531,47.27401965,47.22864663,47.26386405,47.40844813,47.44669934,47.26908177,47.20864114,47.18327347,48.0981647,48.11642255,47.89843188,47.62376814,47.67273255,47.78097698,47.82001233,47.83759961,47.93205273,48.02931088,48.04368927,47.97793374,47.89811333,47.70291715,47.67335816,47.68891113,47.01997972,46.03670986,42.69380809,41.88514092,42.0979178,36.21317869,35.62368344,62.15444483,53.8977729,54.77217231,55.04773596,55.14594414,55.12225909,55.05490783,55.00440977,55.01565027,55.02698878,54.83244726,54.52828617,54.20220156,44.23796469,42.57349722,42.50528578,55.29420366,56.03211111,56.38905509,56.38280614,56.16922048,55.91494158,55.63952854,55.5094147,55.51869642,55.66835902,55.889708,56.12467574,56.35852059,56.51175656,56.48212184,56.39731338,56.3419825,56.34294453,56.45439688,56.48694064,56.35566969,56.22948952,56.21593564,56.13329864,55.62273808,54.83480927,55.45889452,45.53847862,61.80255766,62.4780494,62.4780494,59.21309485,57.60152333,57.61809504,57.70957109,69.48878096,69.99802863,57.66169865,57.74481648,57.85733181,52.67501716,44.11818987,37.16173626,37.21841468,39.73545527,58.90430092,63.14399075,48.81066412,50.08994827,64.19354484,52.88438183,53.7292703,54.2666774,54.84524693,55.28549754,55.48232054,55.42481679,55.18073726,54.58995075,54.85808392,49.01665193,59.35685035,56.76697754,57.1636144,57.69987098,57.97480948,58.11299794,58.24548142,58.21089958,57.44581095,45.14925852,44.99659095,43.84886872,56.8238616,55.4854713,55.71080681,55.95195563,56.06103103,56.07406241,56.02726726,55.86138482,55.47038211,54.85530899,54.37786192,54.45539664,54.9224708,42.07456354,42.41181546,54.22929319,54.06749577,54.06922139,54.06145785,54.04614508,54.15945525,54.33961643,54.29550781,54.02421887,53.7104231,53.20900027,52.84102555,53.01040256,53.22335322,53.36938577,53.38816634,53.38350115,53.45126458,53.63359247,54.15402702,54.21154217,53.93363952,54.30040362,52.77530193,43.01990067,54.91118614,54.63230375,54.61591102,54.81965898,55.36377338,55.56387391,55.50557102,55.33304509,55.08064632,54.6861102,54.29111328,54.0531744,68.58359461,40.07110625,43.45849939,55.30025423,55.43317262,55.39750161,55.22757303,55.07743774,55.13765255,55.2314634,55.24708699,55.16207475,55.02928796,54.91714949,54.84092146,54.71650316,54.58925503,54.72874756,54.9828904,55.22488247,55.41535551,55.41746329,55.18121003,54.88789465,54.62139741,54.48131143,54.5341837,54.64419407,54.6948723,54.71425578,54.71675549,54.66236409,54.56193298,54.4757402,54.47310601,54.49632974,54.67589543,55.03441074,55.30289054,55.33141346,55.38694665,54.8285456,56.69965447,36.31750659,36.47528169,38.81843903,36.43407756,56.47913545,56.5319595,43.48748075,37.01679664,70.68036542,70.34165161,70.6189798,42.56442019,43.26803886,43.35937125,43.46852789,43.57682664,36.36688205,57.22354683,59.46394942,59.27626671,58.89639607,39.85924341,43.52597309,59.10646974,35.71370784,35.72649723,35.88915807,43.19743767,42.48598254,37.60229605,37.18664418,37.21841468,38.23478066,36.73527159,36.33040771,38.28353539,36.54817587,35.98190949,37.52483579,37.3709473,36.40269316,37.71914019,36.47719603,36.44348675,37.48623524,76.93035138,76.93035138,76.93035138,76.93035138,76.93035138,76.93035138,76.93035138,76.93035138,76.93035138,76.93035138,76.93035138,76.93035138,76.93035138,76.93035138,NaN,NaN],
	"ap0": [NaN,0.4853189065,0.681367894,0.5241144847,0.4511532327,0.662659538,0.7166754576,0.6932765112,0.7723891476,0.5896376734,0.4605226767,0.4294677498,0.529981895,0.62922461,0.6522862578,0.5681969499,0.714933666,0.6709901118,0.7873745908,0.743283371,0.6161807125,0.677722841,0.6615411273,0.7933362155,0.6147275297,0.674457539,0.7195959381,0.8207604328,0.7486236164,0.7400535939,0.7204125766,0.7577440534,0.6236782122,0.5779068947,0.5832850047,0.5366399353,0.765899421,0.6639918275,0.6606655297,0.8807802124,0.7186258227,0.7249242208,0.6030345665,0.5880901776,0.8160922014,0.5871157826,0.5490784971,0.5403831947,0.5826288558,0.686197874,0.5083479426,0.6628392588,0.7472835555,0.7209043216,0.8673555631,0.963174575,0.2613645885,0.4857967931,0.3882512462,0.4349436533,0.3746400477,0.1358719704,0.01547599743,0.01978870886,0.03952540985,0.1030110397,0.07948445217,0.07841738706,0.09996188998,0.05413091754,0.01980709976,0.01933645082,0.04731935736,0.06289901331,0.05652329867,0.1686623013,0.08776752381,0.05117388471,0.1128761558,0.4177841706,0.6191128321,0.260435016,0.4872776284,0.9938820715,0.6037742807,0.5368930552,0.5915079269,0.3511912865,0.04835616266,0.02457764348,0.01951906415,0.02816289068,0.07464374091,0.3053565957,0.3770958123,0.5131586655,0.3009743221,0.6944763343,1.058117454,0.6093861488,0.2765719097,0.03555670504,0.008201255689,0.01993980909,0.01072746818,0.009634950236,0.01286393536,0.01707678633,0.03017929239,0.05102438558,0.05736631328,0.04110077701,0.168832962,0.1214849583,0.04415961263,0.03972829366,0.006606019845,0.007052146772,0.009841819494,0.01117944405,0.009656519194,0.01202823629,0.0144874429,0.01530427635,0.0200491558,0.0283906822,0.02539352232,0.03243038242,0.0447252555,0.2252619678,0.6607635182,0.5364139645,0.1380890361,0.3243565157,0.2429667371,0.7041925197,0.3505864872,0.4419014578,0.04088556911,0.007517950329,0.001061663764,0.0003884663476,0.0003347893693,0.0002285056913,0.0006218649339,0.00129611963,0.006035648101,0.02661466255,0.2517412908,0.4799170073,0.3181554075,0.5831733934,0.3816416705,0.05220693193,0.01422433305,0.009300039121,0.004207865155,0.004954141089,0.002797355995,0.001391202603,0.001292176372,0.00242670242,0.003953797407,0.004956730571,0.004098317263,0.004586985314,0.006886739393,0.01890127796,0.02282159955,0.01163405461,0.0071884632,0.005376168728,0.007894048336,0.008360805374,0.009194349381,0.02216125291,0.05407582005,0.1087993308,0.3188078153,1.012957383,0.3720647907,0.4179958392,0.6898601692,0.7704271285,0.7122194011,0.7080080904,0.7488129968,0.706562357,0.8032236397,0.6962799572,0.7164496175,0.7139153347,0.7518478824,0.6929490497,0.6886147228,0.4986435861,0.9481903711,0.750819653,0.7061726276,0.4084232083,0.4780779171,0.2060399581,0.09112865664,0.03224946448,0.02414470954,0.02250344163,0.006540826604,0.001316375665,0.008237584695,0.02664805203,0.06311259122,0.2488157637,1.000102758,0.7263777256,0.06273744617,0.03215278601,0.01020348478,0.003765112076,0.002611181231,0.006724745504,0.03052136041,0.2003568256,0.1507487719,0.3404653744,0.5262131831,0.7902039762,0.06545411239,0.01919770519,0.005843515098,0.0009205972856,0.0005867858328,0.0008364411417,0.003099509518,0.01187425585,0.02197778031,0.04361449271,0.2255398739,0.5704117885,0.5097227481,0.7156522451,0.2847796566,0.06543631567,0.009230014113,0.003464929154,0.002386418851,0.004317891509,0.002452291268,0.006956425793,0.01806674171,0.0407777725,0.08050790285,0.03588131948,0.02178822797,0.0115020278,0.005857933544,0.00376335798,0.00240697606,0.001218647271,0.1012779934,0.100144276,0.05922396962,0.06817423106,0.3809504689,0.906168758,0.6009946262,0.1463714033,0.03623700411,0.01553527294,0.03416092084,0.03376523286,0.01140139049,0.005760267619,0.007587258829,0.01864482925,0.04778937719,0.1336849568,0.7907396486,0.7395765342,0.526270896,0.5887712745,0.08714752155,0.02336537885,0.008166992986,0.006856251941,0.002581137561,0.001845585754,0.001248326346,0.001545352332,0.00206999676,0.002410492577,0.00377572254,0.003554966947,0.003375147626,0.002638272712,0.004899228091,0.01194245205,0.01366020749,0.008508978619,0.008522973268,0.007563355036,0.005674791538,0.008293956823,0.004515187472,0.001037573868,0.001178790734,0.001833946265,0.001961754742,0.001201393337,0.001131958926,0.00194272896,0.00232531316,0.00279959577,0.002478729705,0.004368368838,0.007482536704,0.006973267107,0.01764926895,0.05470256822,0.1880148952,1.052765334,0.2163444545,0.3695094077,0.6594647633,0.7205402703,0.6139319556,0.7376138035,0.6473991078,0.7834292175,0.6786296709,0.8008966554,0.8178444731,0.5308045868,0.5880225426,0.5854618731,0.651443381,0.7307651011,0.7614382196,0.7709766831,0.8086655224,0.754407063,0.8682064102,0.7439883728,0.7306689713,0.81757423,0.593384499,0.451779822,0.7578532932,0.6749725828,0.6190679747,0.5195739397,0.09176436569,0.1484542849,0.3305613244,0.1596647827,0.1546306631,0.5467217401,0.2329912898,0.1352457219,0.3917921138,0.3394040905,0.2261494833,0.581046445,0.4612516248,0.2329229734,0.5024102819,1,1,1,1,1,1,1,1,1,1,1,1,1,1,NaN,NaN],
	"ap": [NaN,0.2502020455,0.1000511838,0.1966021691,0.1097918987,0.1534740116,0.2300987421,0.320297654,0.1953307792,0.1516060747,0.3419102432,0.1049055755,0.1722791972,0.2220506572,0.07380078472,0.3275400626,0.1805929999,0.2342323122,0.1389459366,0.1121309448,0.1481004171,0.1575579625,0.2008398158,0.2154214891,0.3903304001,0.2299125294,0.3091591284,0.2060659418,0.2315848167,0.08596597014,0.156777857,0.2999418494,0.4663729904,0.3208908246,0.2466404416,0.04869842192,0.3389156693,0.2001504005,0.2877737082,0.204234989,0.224646267,0.4527992349,0.4678743774,0.2689016931,0.250554673,0.1646830139,0.1357782428,0.09115066993,0.07308082399,0.01531860423,0.04513500211,0.1917548904,0.1085523975,0.1501832747,0.3132909714,0.3944686118,0.5910122816,0.3967026699,0.08195256722,0.2296483584,0.2448602183,0.2424682666,0.01766649123,0.01467595136,0.02943961963,0.08373335332,0.06198872806,0.07833937174,0.08973510596,0.1013390056,0.02312524848,0.006800945775,0.01411933689,0.01659471669,0.04276545205,0.1521584674,0.09683080312,0.02820777466,0.02501329415,0.07026552465,0.2368633525,0.3361377703,0.1631331145,0.1932921377,0.5384956075,0.1936445912,0.4867723777,0.3279763873,0.1909452929,0.01917312727,0.03005877163,0.004158292714,0.01523015526,0.1213966321,0.2696453923,0.2355320747,0.3942850337,0.2047342698,0.3732353964,0.1729118169,0.6337777192,0.07480517232,0.00616602914,0.01564909884,0.01136719046,0.009717052102,0.003465233934,0.007804400256,0.02171654483,0.005307390025,0.03623530842,0.03158997966,0.007453770988,0.2510681589,0.102808809,0.03066514416,0.01027821291,0.005257788585,0.006921069881,0.005673897424,0.002432998845,0.02041126979,0.002202631984,0.006960727593,0.01112955059,0.01608048646,0.0175124363,0.01357232523,0.01769566481,0.07283965982,0.2802073829,0.7787784971,0.1278333345,0.08494024224,0.09512451472,0.1579301596,0.5603143587,0.5579079354,0.8211846397,0.02171512161,0.007251049798,0.0004229861513,0.0003346554105,0.0001354293016,9.334821026e-05,8.8002306e-05,0.002600667141,0.004847254044,0.008765145759,0.5017355857,0.09465981943,0.198969862,0.902704377,0.5601611954,0.04321781664,0.004938139003,0.01036549903,0.007175281998,0.005498854742,0.001740553284,0.0002506671121,0.001302351872,0.004027632803,0.002996433205,0.006821541476,0.002263347607,0.001106741704,0.001037846631,0.008919449888,0.01299611364,0.01333144269,0.0008377127808,0.006175815518,0.004056291707,0.007229701024,0.004654695913,0.01033458593,0.02671450905,0.03051604177,0.3936888311,0.9121696538,0.6665210505,0.1042471437,0.3047355538,0.4393735089,0.5024946138,0.3027719035,0.2676671934,0.2119442203,0.3170017202,0.147531276,0.1881633393,0.3239222564,0.1846316146,0.1533255123,0.07744033257,0.1050013018,0.1907115515,0.1129460169,0.4688502947,0.4814913254,0.1550095012,0.23141697,0.176873901,0.03850991954,0.0559787408,0.03096479648,0.003702729414,0.0007828571455,0.004703982488,0.01883031862,0.06202429955,0.4301012996,0.346896953,0.7101580754,0.361706738,0.02145622693,0.008669717304,0.001586400776,0.002138466185,0.001876107309,0.01851060636,0.1182945198,0.1242746069,0.07445320055,0.5168705969,0.7527324604,0.2109781601,0.01409078891,0.002057945064,0.0004676249873,0.0006180675584,0.001575726964,0.009206773877,0.02305706785,0.00983321354,0.04714353311,0.3463929421,0.1781588531,0.2259427084,0.6642470262,0.6270929775,0.04800130072,0.00341461157,0.001762509465,0.003133623011,0.004153404708,0.0006309078225,0.0089007801,0.01181138754,0.02007448717,0.01035882141,0.02392385918,0.0277250285,0.006444863926,0.002262321644,0.003004235194,0.001656978635,0.003506448274,0.05305121958,0.2159950697,0.005391402496,0.0730348292,0.4367424787,0.4973920521,0.5910062993,0.6936486197,0.01487155179,0.003454192912,0.04168516687,0.01567935261,0.002456314615,0.008173747297,0.007323011099,0.01170254227,0.0122111729,0.2783436487,0.8112598895,0.4135418393,0.2540050096,0.8951856962,0.1322096912,0.006434074053,0.006310994553,0.004587572954,0.003567779436,0.0005784990907,0.000441299731,0.003024900473,0.001458495024,0.002055583579,0.001696243434,0.002925266611,0.001196212924,0.001589182668,0.004328789266,0.005048142884,0.005680626023,0.008118788297,0.006919443782,0.001988345483,0.003527926136,0.007509769256,0.002576139704,0.001465390757,0.0009903449197,0.0009863309866,0.0007345073732,0.0007701722374,0.001101917345,0.001726197673,0.0004623109617,0.002523262195,0.002495554097,0.007470622914,0.004584706271,0.003985316532,0.007359004481,0.07962199735,0.1280927118,0.08443100881,0.05245350699,0.1005926595,0.1233587513,0.3910140433,0.1776142334,0.1689106671,0.1955140116,0.1535125695,0.4506905906,0.3441142329,0.1283890455,0.3253104192,0.1075045889,0.1141678113,0.2281259131,0.2801175604,0.2642221261,0.348834506,0.1418940747,0.1861269702,0.2102689314,0.2426340319,0.2969814246,0.2898257518,0.1098080632,0.1236233963,0.2455195955,0.4226948548,0.2804295959,0.09646525991,0.02116426061,0.1415944632,0.2477612102,0.01547751238,0.1844059581,0.3726478321,0.01988761832,0.1250582366,0.3858284829,0.07380909843,0.1438384361,0.5852416091,0.1033483082,0.1122554486,0.3846154711,1,1,1,1,1,1,1,1,1,1,1,1,1,NaN,NaN],
	"pwr": [NaN,4.932350084e-06,1.540119652e-06,7.462416453e-07,8.469984038e-07,1.322937149e-06,1.586449759e-06,8.376800213e-07,1.772677214e-06,1.908567264e-06,1.11832816e-06,2.050068627e-06,1.355213761e-06,1.644451316e-06,1.276480543e-06,1.221599463e-06,3.014691215e-06,1.329528072e-06,1.84798091e-06,1.554654913e-06,2.039808283e-06,2.412000289e-06,5.116112703e-07,9.509082768e-07,1.038714264e-06,2.588140631e-06,1.877194262e-06,2.20305202e-06,5.824108472e-07,2.743337195e-06,1.575622077e-06,2.243307228e-06,1.029855933e-06,3.826380882e-06,1.897220504e-06,1.911548529e-06,2.182381678e-06,2.146856244e-06,3.293152081e-06,3.636493972e-06,1.67804805e-06,1.108192591e-06,1.47920803e-06,1.238088062e-06,6.85938541e-07,1.065607765e-06,1.187176564e-06,1.097346239e-06,1.084987405e-06,8.287156621e-07,7.388454976e-07,7.735631072e-07,1.188195181e-06,1.593994659e-06,2.662463756e-06,1.423732187e-05,3.571021478e-05,0.0001136468579,0.0009427503556,0.0004668065916,0.000958960317,0.001252428293,0.002259329519,0.002926692128,0.00350219584,0.004444647191,0.004303067434,0.003288889537,0.003154420078,0.001637715289,0.001003595034,0.001604997938,0.001358318903,0.0007897416263,0.0009411315369,0.001244282708,0.001210766024,0.00337643605,0.003891213581,0.003392637836,0.001230043306,0.0004138166652,8.82935186e-05,3.619367439e-05,2.369304287e-05,3.58615334e-05,7.422379261e-05,5.866871137e-05,0.002208841004,0.002690519135,0.002646692706,0.002297350567,0.001409609427,0.0007078847794,0.0005038989961,0.0003612433631,0.0001804380228,9.469241719e-05,2.912297572e-06,1.014409199e-05,1.59669073e-05,0.003416119815,0.003667100264,0.003490748782,0.003594311589,0.003173463623,0.002667354202,0.00261632431,0.002792719873,0.002409611467,0.001702673148,0.0007115137307,0.0003766926134,0.0003558675256,0.000471262039,0.003029293988,0.00249515298,0.001989231741,0.001751611789,0.001547179156,0.001352760365,0.001308115852,0.001250787886,0.001164020535,0.001233854025,0.0007789032335,0.0006368780589,0.0005319132119,0.0004873192312,0.0004482412755,0.0004309759689,0.0007783817331,0.001160198372,0.001106581439,0.0002283667902,0.0001079377076,9.241717743e-05,0.0002068849615,0.0009422369889,0.002580744537,0.01150883196,0.01944866455,0.02142859236,0.02287631476,0.02454153024,0.02385014495,0.0256349513,0.02228362046,0.02002053733,0.002110628971,0.001714840211,0.006880144585,0.002182292868,0.0001715428346,0.007458722627,0.01594139669,0.01371244294,0.01489749682,0.01555981148,0.0153701704,0.01390570392,0.01202664074,0.01255209091,0.01391904853,0.01227654529,0.01245483207,0.01062625853,0.008991792468,0.00785726397,0.01150724197,0.007853492258,0.00756136016,0.007869353522,0.006750761889,0.006095685063,0.005712940999,0.003047910639,0.0008705873081,5.660647507e-05,3.540141224e-06,4.184533582e-06,1.609762516e-06,1.589738311e-05,1.295961647e-05,1.108416369e-05,4.024768108e-06,4.483537695e-06,4.354088541e-06,4.54199367e-06,1.310610345e-06,2.170972881e-06,2.907847137e-06,1.757406479e-06,1.635471305e-06,1.089235805e-06,9.84894557e-07,1.088305484e-06,4.031904352e-07,1.34691386e-06,2.658502487e-05,0.001355290447,0.004539859343,0.004874854053,0.0087303415,0.01085802911,0.01804945585,0.02199347855,0.02515698521,0.02131917113,0.01975323455,0.01120448865,0.001163393452,5.565579151e-06,6.408939653e-07,2.265787965e-05,6.572839037e-05,0.01666999289,0.01396225255,0.01406087047,0.01189452224,0.008619575573,0.006152917085,0.002790283539,0.005355003839,0.001863295938,0.0001280888235,9.103594061e-05,0.000254154987,0.01130697792,0.03159282072,0.04301507478,0.04724181143,0.04469122644,0.04799873444,0.03490966996,0.02914982103,0.009815350447,0.0005883152757,0.0001674530198,0.0004216253939,0.0006314684773,9.968789524e-05,0.02031613453,0.05633537264,0.06957570644,0.06554475083,0.06018924288,0.06205383301,0.06543447935,0.05151323505,0.02815869422,0.009823615394,0.008205020253,0.0117569475,0.0251433065,0.03581270024,0.03493724948,0.02343216386,0.02022117864,0.01873555308,0.01851349376,0.05689585449,0.009168094282,0.0002161847318,0.0002546508731,0.0009304982547,0.001685184729,0.1762503875,0.3901752209,0.1059125918,0.03940570345,0.03784725287,0.0497104736,0.04637417573,0.04294586711,0.01727718764,0.002394299471,2.334818337e-05,0.0001359269276,7.505695344e-05,0.0002833631958,0.002747886348,0.03713172233,0.05806521047,0.06272547147,0.04188585613,0.0385161108,0.03521074212,0.0351644596,0.029620062,0.02909943526,0.02731229872,0.02524741837,0.02143223347,0.01961419858,0.01857447697,0.02156213092,0.02296659604,0.02655765786,0.02633564091,0.02405127082,0.02057422923,0.02000706688,0.01606509091,0.01375526047,0.01322299628,0.0120672357,0.01244001344,0.01215130988,0.01091188504,0.01027497501,0.008467257774,0.006456436975,0.005328653817,0.005168218,0.004411486659,0.002638238495,0.001053206767,0.000216821987,6.950298337e-06,1.27944068e-06,1.715919044e-06,1.276585983e-06,6.675685044e-07,1.153483447e-06,1.007711827e-06,1.119457872e-06,1.379268096e-06,2.324985072e-06,1.466380587e-06,1.686645132e-06,1.204368924e-06,1.349871542e-06,2.030883175e-06,1.532921034e-06,1.597571584e-06,1.554800095e-06,1.359791027e-06,1.416302728e-06,8.043139729e-07,1.35881629e-06,2.056573274e-06,2.261918721e-06,1.587879878e-06,6.840049105e-07,1.728112383e-06,1.450640755e-06,1.217999621e-06,5.183774236e-06,1.351409352e-06,1.607539654e-07,2.461647933e-07,1.875150321e-07,1.564681621e-08,4.056031078e-08,3.223722902e-08,1.628340894e-09,4.754930691e-09,4.702867175e-09,5.583814551e-10,1.018025199e-09,8.319885077e-10,2.225833147e-10,3.761908486e-10,5.040342664e-10,3.289998226e-11,0,0,0,0,0,0,0,0,0,0,0,0,0,NaN,NaN],
	"sr": 16000,
	"range": [1,122001],
	"minf0": 63.1883,
	"maxf0": 706.3069,
	"thresh": 0.1,
	"relflag": 1,
	"hop": 320,
	"bufsize": 10000,
	"wsize": 640,
	"lpf": 4000,
	"shift": 0,
	"plotthreshold": 0.2
}
