{
    "DU": 26,
    "DV": 299,
    "F-measure": 0.42084168336673344,
    "F-measure Chroma": 0.5531062124248497,
    "FN": 7,
    "FNC": 0,
    "FNCch": 0,
    "FNI": 7,
    "FNIch": 7,
    "FP": 144,
    "GU": 163,
    "GV": 162,
    "Overall Accuracy": 0.3230769230769231,
    "Overall Chroma Accuracy": 0.4246153846153846,
    "Precision": 0.330188679245283,
    "Precision Chroma": 0.4339622641509434,
    "Raw Chroma Accuracy": 0.7345679012345679,
    "Raw Pitch Accuracy": 0.5308641975308642,
    "Recall": 0.580110497237569,
    "Recall Chroma": 0.7624309392265194,
    "TN": 19,
    "TO": 325,
    "TP": 155,
    "TPC": 86,
    "TPCch": 119,
    "TPI": 69,
    "TPIch": 36,
    "Voiced Chroma Accuracy": 0.7345679012345679,
    "Voiced Pitch Accuracy": 0.5308641975308642,
    "Voicing Accuracy": 0.5353846153846153,
    "Voicing Detection": 0.9567901234567902,
    "Voicing False Alarm": 0.8834355828220859
}