{
    "DU": 141,
    "DV": 181,
    "F-measure": 0.6938053097345133,
    "F-measure Chroma": 0.831858407079646,
    "FN": 60,
    "FNC": 17,
    "FNCch": 36,
    "FNI": 43,
    "FNIch": 24,
    "FP": 19,
    "GU": 100,
    "GV": 222,
    "Overall Accuracy": 0.6086956521739131,
    "Overall Chroma Accuracy": 0.7298136645962733,
    "Precision": 0.7480916030534351,
    "Precision Chroma": 0.8969465648854962,
    "Raw Chroma Accuracy": 0.8558558558558559,
    "Raw Pitch Accuracy": 0.5945945945945946,
    "Recall": 0.6468646864686468,
    "Recall Chroma": 0.7755775577557755,
    "TN": 81,
    "TO": 322,
    "TP": 162,
    "TPC": 115,
    "TPCch": 154,
    "TPI": 47,
    "TPIch": 8,
    "Voiced Chroma Accuracy": 0.6936936936936937,
    "Voiced Pitch Accuracy": 0.5180180180180181,
    "Voicing Accuracy": 0.7546583850931677,
    "Voicing Detection": 0.7297297297297297,
    "Voicing False Alarm": 0.19
}