{
    "DU": 163,
    "DV": 175,
    "F-measure": 0.833592534992224,
    "F-measure Chroma": 0.9144634525660964,
    "FN": 22,
    "FNC": 6,
    "FNCch": 13,
    "FNI": 16,
    "FNIch": 9,
    "FP": 11,
    "GU": 152,
    "GV": 186,
    "Overall Accuracy": 0.7928994082840237,
    "Overall Chroma Accuracy": 0.8698224852071006,
    "Precision": 0.8481012658227848,
    "Precision Chroma": 0.930379746835443,
    "Raw Chroma Accuracy": 0.8924731182795699,
    "Raw Pitch Accuracy": 0.7150537634408602,
    "Recall": 0.8195718654434251,
    "Recall Chroma": 0.8990825688073395,
    "TN": 141,
    "TO": 338,
    "TP": 164,
    "TPC": 127,
    "TPCch": 153,
    "TPI": 37,
    "TPIch": 11,
    "Voiced Chroma Accuracy": 0.8225806451612904,
    "Voiced Pitch Accuracy": 0.6827956989247311,
    "Voicing Accuracy": 0.9023668639053254,
    "Voicing Detection": 0.8817204301075269,
    "Voicing False Alarm": 0.07236842105263158
}