{
    "DU": 235,
    "DV": 253,
    "F-measure": 0.7298170075349839,
    "F-measure Chroma": 0.8869752421959096,
    "FN": 43,
    "FNC": 4,
    "FNCch": 11,
    "FNI": 39,
    "FNIch": 32,
    "FP": 4,
    "GU": 196,
    "GV": 292,
    "Overall Accuracy": 0.694672131147541,
    "Overall Chroma Accuracy": 0.8442622950819673,
    "Precision": 0.7617977528089888,
    "Precision Chroma": 0.9258426966292135,
    "Raw Chroma Accuracy": 0.791095890410959,
    "Raw Pitch Accuracy": 0.5171232876712328,
    "Recall": 0.7004132231404959,
    "Recall Chroma": 0.8512396694214877,
    "TN": 192,
    "TO": 488,
    "TP": 249,
    "TPC": 147,
    "TPCch": 220,
    "TPI": 102,
    "TPIch": 29,
    "Voiced Chroma Accuracy": 0.7534246575342466,
    "Voiced Pitch Accuracy": 0.5034246575342466,
    "Voicing Accuracy": 0.9036885245901639,
    "Voicing Detection": 0.8527397260273972,
    "Voicing False Alarm": 0.02040816326530612
}