{
    "DU": 44,
    "DV": 547,
    "F-measure": 0.4800741427247452,
    "F-measure Chroma": 0.7173308619091752,
    "FN": 1,
    "FNC": 0,
    "FNCch": 0,
    "FNI": 1,
    "FNIch": 1,
    "FP": 102,
    "GU": 145,
    "GV": 446,
    "Overall Accuracy": 0.43824027072758037,
    "Overall Chroma Accuracy": 0.6548223350253807,
    "Precision": 0.43898305084745765,
    "Precision Chroma": 0.6559322033898305,
    "Raw Chroma Accuracy": 0.7713004484304933,
    "Raw Pitch Accuracy": 0.484304932735426,
    "Recall": 0.5296523517382413,
    "Recall Chroma": 0.7914110429447853,
    "TN": 43,
    "TO": 591,
    "TP": 445,
    "TPC": 216,
    "TPCch": 344,
    "TPI": 229,
    "TPIch": 101,
    "Voiced Chroma Accuracy": 0.7713004484304933,
    "Voiced Pitch Accuracy": 0.484304932735426,
    "Voicing Accuracy": 0.8257191201353637,
    "Voicing Detection": 0.9977578475336323,
    "Voicing False Alarm": 0.7034482758620689
}