{
    "DU": 94,
    "DV": 245,
    "F-measure": 0.8751926040061633,
    "F-measure Chroma": 0.9337442218798151,
    "FN": 22,
    "FNC": 3,
    "FNCch": 8,
    "FNI": 19,
    "FNIch": 14,
    "FP": 7,
    "GU": 79,
    "GV": 260,
    "Overall Accuracy": 0.8377581120943953,
    "Overall Chroma Accuracy": 0.8938053097345132,
    "Precision": 0.8958990536277602,
    "Precision Chroma": 0.9558359621451105,
    "Raw Chroma Accuracy": 0.9192307692307692,
    "Raw Pitch Accuracy": 0.8269230769230769,
    "Recall": 0.8554216867469879,
    "Recall Chroma": 0.9126506024096386,
    "TN": 72,
    "TO": 339,
    "TP": 238,
    "TPC": 212,
    "TPCch": 231,
    "TPI": 26,
    "TPIch": 7,
    "Voiced Chroma Accuracy": 0.8884615384615384,
    "Voiced Pitch Accuracy": 0.8153846153846154,
    "Voicing Accuracy": 0.9144542772861357,
    "Voicing Detection": 0.9153846153846154,
    "Voicing False Alarm": 0.08860759493670886
}