{
    "DU": 41,
    "DV": 430,
    "F-measure": 0.7960927960927962,
    "F-measure Chroma": 0.8205128205128205,
    "FN": 0,
    "FNC": 0,
    "FNCch": 0,
    "FNI": 0,
    "FNIch": 0,
    "FP": 123,
    "GU": 164,
    "GV": 307,
    "Overall Accuracy": 0.692144373673036,
    "Overall Chroma Accuracy": 0.7133757961783439,
    "Precision": 0.692144373673036,
    "Precision Chroma": 0.7133757961783439,
    "Raw Chroma Accuracy": 0.9609120521172638,
    "Raw Pitch Accuracy": 0.9283387622149837,
    "Recall": 0.9367816091954023,
    "Recall Chroma": 0.9655172413793104,
    "TN": 41,
    "TO": 471,
    "TP": 307,
    "TPC": 285,
    "TPCch": 295,
    "TPI": 22,
    "TPIch": 12,
    "Voiced Chroma Accuracy": 0.9609120521172638,
    "Voiced Pitch Accuracy": 0.9283387622149837,
    "Voicing Accuracy": 0.7388535031847133,
    "Voicing Detection": 1.0,
    "Voicing False Alarm": 0.75
}