{
    "f0": [
        43.350427911783264,
        49.774720419009967,
        43.222655764744786,
        54.832762747867072,
        54.710738994427018,
        54.699741297038074,
        54.688737957876,
        54.849989680651703,
        54.756709123571852,
        54.764416606798257,
        55.466821471378708,
        55.461490188737493,
        55.082921878211181,
        55.23056026015383,
        55.767915324225811,
        55.212503166630412,
        55.036615349408301,
        54.85892897925789,
        55.674426047854737,
        55.753972109823813,
        55.468971595454136,
        55.08923185206001,
        55.089871395935404,
        56.048960315314929,
        55.802859316424048,
        55.55321067889723,
        55.466233706555094,
        55.467697750751071,
        55.665219888181142,
        55.540031435624812,
        55.521006324600854,
        55.598183637498394,
        55.729883757513527,
        55.693917983315217,
        55.502072773252735,
        55.89876785628875,
        56.398094584172739,
        56.655302716661637,
        56.611611847069071,
        56.387005095227082,
        56.423545993026721,
        56.469262454282742,
        56.301491159594484,
        56.388593690860304,
        56.212792141025503,
        56.804024972075055,
        55.976596511287823,
        59.220663123887491,
        59.039610216705128,
        59.078200325490577,
        59.073127308528612,
        59.068051826942494,
        58.888979353114024,
        58.968427516979922,
        58.92285567387411,
        58.877161435642314,
        59.003612123177575,
        58.941533752340035,
        58.585857920099713,
        58.702388982013531,
        59.082577694672786,
        57.274397416666375,
        57.05058335526018,
        56.999136643529525,
        57.113342934761363,
        57.175955512338689,
        57.705221416715474,
        57.466418906850649,
        57.963869210666701,
        58.250013633143617,
        58.279142262036835,
        58.260658585630289,
        58.24215295654318,
        58.195816109442447,
        58.068012648664535,
        57.980286328167473,
        58.108624009080089,
        58.113598022659573,
        58.11857282062865,
        58.123545157005616,
        57.991231100450733,
        57.979969772986578,
        57.984911671654643,
        57.98984874134436,
        58.041891346209262,
        58.027258336252942,
        58.012612947489004,
        57.994828685151916,
        57.977022788129233,
        57.959201909022369,
        57.941361548738641,
        57.943964385322182,
        57.947757162317508,
        57.950952332879382,
        57.91260169394323,
        57.913460540504332,
        57.910473690967393,
        57.888988118550785,
        57.867473453123445,
        57.915504953902619,
        57.929465733377683,
        57.960378790942201,
        58.013286793138789,
        58.066029008872796,
        58.028908071431502,
        58.035373203489129,
        57.994286747214133,
        57.953102625108613,
        57.911820222259138,
        57.941845972621209,
        57.97181973781025,
        57.992744798631705,
        58.018138835531303,
        58.096517985992406,
        58.132070569117602,
        58.167549114174079,
        58.202958551244194,
        58.173608107772239,
        58.165059356515542,
        58.156507485950812,
        58.133854291096455,
        58.048048689145759,
        58.082409383920535,
        58.050872893315713,
        58.019278850381973,
        58.074881862207981,
        58.05101301019527,
        58.027111204304461,
        58.049340494584875,
        58.07154016919791,
        58.075488949914202,
        58.092833241271961,
        58.103468266272394,
        57.943444773344034,
        58.014014938527573,
        58.192052687525923,
        57.921824769071137,
        58.030916284108159,
        57.918949806737281,
        57.95347761408626,
        57.966406227456538,
        57.977475573762305,
        58.051326047350919,
        57.974922029162613,
        57.998645397347289,
        58.007364010062183,
        58.016079273129989,
        57.850792376372823,
        57.683912280378649,
        57.687671246031783,
        57.691427051733946,
        58.038018493383433,
        58.210567158539135,
        57.142557821210765,
        57.564392173427109,
        58.148469464785393,
        58.087695406577311,
        58.170385297829291,
        57.965042426193804,
        57.929495341223976,
        57.633787269764426,
        57.291758618370281,
        57.30669142971157,
        57.401017351021004,
        56.567385642253448,
        56.336857926784717,
        56.623864119825321,
        56.347257545432015,
        57.940499538814805,
        56.194600713332839,
        57.626298358184577,
        49.414283587832777,
        43.505844412194506,
        36.834549067272199,
        36.30247275385026,
        43.108414394162502,
        43.3409328637306,
        37.757960197424111,
        40.556953326327374,
        39.799218449143552,
        39.88059691339555,
        40.933352284336607,
        40.906053538035898,
        52.80937479760162,
        52.93110288902632,
        52.702225686396083,
        52.629300660262622,
        52.76076164253876,
        52.703847743222653,
        52.870892978815903,
        53.299624187857205,
        53.419233695404785,
        53.159705582757283,
        53.105884336276816,
        54.150372476465577,
        53.889874235735093,
        54.703820674216317,
        54.297144373325438,
        53.95008256494981,
        53.246168223273884,
        55.01206069733918,
        57.728714998475752,
        57.88984469883107,
        58.460476033876489,
        58.108351422121409,
        58.322145694752031,
        58.246207202067993,
        58.169934146288966,
        58.177827674874628,
        58.250786649289267,
        58.291068928576962,
        58.690245829186566,
        58.623869072310143,
        58.557239000057649,
        58.490351425092321,
        58.934940967034173,
        58.515453285508599,
        58.634900745249254,
        58.51590539937397,
        58.396089894008909,
        58.7871683022518,
        58.761553155621058,
        62.336714869878676,
        61.853331565583012,
        61.35606477521506,
        61.383631750725918,
        61.343689671551715,
        61.263263289299026,
        61.23332999564478,
        61.255887653281931,
        61.350876705185776,
        61.23535527236259,
        61.357371797846497,
        61.491172969493135,
        61.789936586019593,
        61.47490737690962,
        61.400882870748525,
        61.203028431879147,
        61.237729932263747,
        61.102467021471682,
        61.173317216905758,
        61.243880489119164,
        63.398123144855738,
        63.286876044095003,
        63.076324952391396,
        62.739159771518686,
        62.844657431573026,
        62.740211333028554,
        62.661415200014581,
        62.741328292984711,
        63.251223800169861,
        63.364767990478065,
        63.476971002645058,
        63.414756743089953,
        63.244480993049692,
        63.127054604924737,
        63.008826293037004,
        63.062046627535914,
        63.237903067176738,
        63.177320011955636,
        63.333315781733567,
        63.297902663072037,
        63.318569391122914,
        63.316800455014665,
        63.31503133814202,
        63.139269955201918,
        63.222079317880713,
        63.304494521699375,
        63.386520879456562,
        63.11840645884908,
        63.255052688024172,
        63.253814413142912,
        63.385936339250968,
        63.133160817426109,
        63.417768898371456,
        63.323286817527212,
        62.945203344853752,
        63.548668294164692,
        63.813549867237626,
        63.704598304646076,
        38.610488657454383,
        51.51395716585666,
        42.05108307790033,
        41.876083038202111,
        41.07966667934312,
        40.5727182784833,
        38.920058557626042,
        37.933628225954948,
        62.979612250924404,
        62.482386623678501,
        62.313286695284177,
        62.313085275634279,
        62.227810535455518,
        62.357170305820745,
        62.134546258688566,
        62.22955585120912,
        62.239559092292524,
        62.291829369793753,
        62.343942305215187,
        62.39589884296548,
        62.097943808578513,
        62.26164656608983,
        62.07920517740591,
        62.312009241628871,
        62.227343559913457,
        62.380805013291891,
        62.486510078192261,
        62.440657805730368,
        62.436507605997583,
        63.256116854833472,
        63.240108791616791,
        63.180054476737084,
        63.141897573393742,
        63.10365638532241,
        63.0653305947802,
        63.026919715360272,
        62.988423424207234,
        63.292669069359427,
        62.017289456304503,
        60.640428602338005,
        60.799653879851185,
        60.728509299062836,
        60.442028142325412,
        60.603238049734017,
        60.762960697164885,
        60.747231942160163,
        60.881160161899132,
        60.805632382390513,
        60.983110738958608,
        60.89944243173683,
        60.92220354669135,
        60.937751264683655,
        60.883029357610326,
        60.91121568381277,
        60.859098296595064,
        60.885848113464903,
        60.911884271266324,
        60.917623079531637,
        60.93757719249222,
        60.967340153041526,
        60.987626224874312,
        60.962385788366888,
        60.971447416775398,
        60.973587507913038,
        60.839801885172754,
        60.948490960044069,
        61.018011705770327,
        60.932434346664877,
        60.962962645924307,
        60.993439081283142,
        60.849860408807203,
        61.099247435186236,
        60.863734624423785,
        60.93058577888803,
        55.653671553868023,
        55.59745712750312,
        55.541062142369697,
        55.575995976391894,
        55.656093109640217,
        55.620703121451243,
        55.699020219710107,
        55.662680167138276,
        55.626263758459004,
        55.741828204827485,
        55.663741255998559,
        55.67598421260756,
        56.203827725482334,
        56.773579404370039,
        55.759744232202173,
        56.20222208397567,
        55.895620949497186,
        55.947739671387644,
        56.351754534382039,
        56.225637532144802,
        56.353110698098561,
        56.826290441335807,
        56.591656500879409,
        56.417462037859025,
        56.035372507196669,
        55.644662079983689,
        55.923928484515095,
        56.003118590543295,
        56.351860492327503,
        56.387931888839994,
        55.969593915169092,
        56.036893365326307,
        56.103934696632002,
        55.957741868120721,
        56.025454450938398,
        56.201041365361107,
        56.011421014343853,
        56.072724390056351,
        55.918996900758131,
        55.992964429873332,
        55.994803343208687,
        56.204843555074049,
        55.60309160242609,
        37.423578554609534,
        48.220093548689519,
        59.358506719817278,
        59.345263492924346,
        59.504274314207379,
        59.258257804613933,
        59.18447267416289,
        59.110372770186672,
        59.035953222194301,
        58.961216746032278,
        59.05841757209577,
        58.897174845598187,
        59.137155339050921,
        59.214090215363598,
        59.020641310900686,
        58.825004153802418,
        59.138860783462249,
        59.18199266612865,
        59.008008390030611,
        49.065415753792124,
        49.357020792238217,
        38.318487478197092,
        58.155992006042609,
        58.286873587741766,
        58.067016935772273,
        57.774340165985578,
        57.684529754337476,
        57.804849305397617,
        57.759676858357835,
        58.017105078026425,
        57.876597313368883,
        57.763788215771555,
        57.821046735976154,
        57.820588714778779,
        57.803703045128827,
        57.795028099487951,
        57.908665608647055,
        57.843169218282107,
        58.52743489044019,
        58.482320319303746,
        58.132740886857448,
        57.931966858507565,
        57.728840469475053,
        56.995980630991966,
        59.684511965275419,
        59.339902086037497,
        59.12046572533044,
        59.003662379343211,
        58.886062520433299,
        58.803006187370073,
        58.701800203814102,
        58.608929995729795,
        58.621322699915474,
        58.625638945191803,
        58.674720883855684,
        58.723664064401248,
        58.774904657257025,
        58.786741600110119,
        58.798567263499557,
        58.982652823037412,
        58.905788133956349,
        58.828580652469221,
        58.751027307381108,
        58.84539417761146,
        58.984353205496873,
        57.011271385232206,
        57.02538927934377,
        57.105291289525709,
        57.324375021702735,
        57.122195687244449,
        57.350312401790056,
        57.786119298652871,
        57.759014910555571,
        58.32460735197715,
        57.99550433778429,
        58.05255318431977,
        58.289869685253038,
        58.34353067165442,
        58.188919563260598,
        58.265714119927452,
        57.37811903356932,
        58.064907830006391,
        57.748921609739199,
        58.077354156381233,
        58.318550887542116,
        58.246730107836399,
        58.389996298386365,
        58.325682900352646,
        58.16385812123395,
        57.875671550517289,
        56.070342566460539,
        56.317642335091193,
        56.563939380787758,
        56.631563831869087,
        56.78641904678917,
        56.546838170853363,
        56.29379083140077,
        56.036992366229342,
        56.288056405220885,
        56.040853542152682,
        53.420375109517828,
        53.303900039060835,
        53.01264181713514,
        53.147942262592508,
        53.282194957592225,
        53.065657635871617,
        53.327801766002978,
        53.408113865687866,
        53.402836543748862,
        53.893679112416862,
        53.682855141825158,
        53.489159713724121,
        53.492936016938522,
        53.549003515378772,
        53.40485249647562,
        53.593871307627516,
        53.696154408929559,
        53.839985505268146,
        53.982632895720165,
        54.296376523069206,
        54.17038302794078,
        53.802532858690242,
        53.893058411002201,
        53.983117472580531,
        54.244975258896339,
        53.923325290100451,
        54.038308892955413,
        53.538958127359123,
        53.631485843185942,
        54.069857705847035,
        54.390924142228783,
        53.539827684062907,
        53.783919902121205,
        53.546419440693811,
        53.616039026441456,
        53.471780455724975,
        53.36355842246261,
        53.06192714794328,
        53.906576228681033,
        54.173019891774125,
        53.87790515226267,
        53.625775682589378,
        54.024529977375082,
        53.511947937335471,
        53.527253111696837,
        54.128109233203389,
        54.01281496999664,
        53.896749147975257,
        53.779899939642476,
        53.488258113250005,
        35.923254790663705,
        37.098224039085885,
        38.495916625890175,
        41.373299030926155,
        43.353699199946718,
        48.938097460674818,
        0.0,
        0.0,
        0.0,
        0.0,
        0.0,
        0.0,
        0.0,
        0.0,
        0.0,
        0.0,
        0.0,
        0.0,
        0.0,
        0.0,
        0.0,
        0.0,
        0.0,
        0.0,
        0.0,
        0.0,
        0.0,
        0.0,
        0.0,
        0.0,
        0.0,
        0.0,
        0.0,
        0.0,
        0.0,
        0.0,
        0.0,
        0.0,
        0.0,
        0.0,
        0.0,
        0.0,
        0.0,
        0.0,
        0.0,
        0.0,
        0.0,
        0.0,
        0.0,
        0.0,
        0.0,
        0.0,
        0.0,
        0.0,
        0.0,
        0.0,
        0.0,
        0.0,
        0.0,
        0.0,
        0.0,
        0.0
    ],
    "time": [
        0.02,
        0.040000000000000001,
        0.059999999999999998,
        0.080000000000000002,
        0.10000000000000001,
        0.12,
        0.14000000000000001,
        0.16,
        0.17999999999999999,
        0.20000000000000001,
        0.22,
        0.23999999999999999,
        0.26000000000000001,
        0.28000000000000003,
        0.29999999999999999,
        0.32000000000000001,
        0.34000000000000002,
        0.35999999999999999,
        0.38,
        0.40000000000000002,
        0.41999999999999998,
        0.44,
        0.46000000000000002,
        0.47999999999999998,
        0.5,
        0.52000000000000002,
        0.54000000000000004,
        0.56000000000000005,
        0.57999999999999996,
        0.59999999999999998,
        0.62,
        0.64000000000000001,
        0.66000000000000003,
        0.68000000000000005,
        0.69999999999999996,
        0.71999999999999997,
        0.73999999999999999,
        0.76000000000000001,
        0.78000000000000003,
        0.80000000000000004,
        0.81999999999999995,
        0.83999999999999997,
        0.85999999999999999,
        0.88,
        0.90000000000000002,
        0.92000000000000004,
        0.93999999999999995,
        0.95999999999999996,
        0.97999999999999998,
        1.0,
        1.02,
        1.04,
        1.0600000000000001,
        1.0800000000000001,
        1.1000000000000001,
        1.1200000000000001,
        1.1399999999999999,
        1.1599999999999999,
        1.1799999999999999,
        1.2,
        1.22,
        1.24,
        1.26,
        1.28,
        1.3,
        1.3200000000000001,
        1.3400000000000001,
        1.3600000000000001,
        1.3799999999999999,
        1.3999999999999999,
        1.4199999999999999,
        1.4399999999999999,
        1.46,
        1.48,
        1.5,
        1.52,
        1.54,
        1.5600000000000001,
        1.5800000000000001,
        1.6000000000000001,
        1.6200000000000001,
        1.6399999999999999,
        1.6599999999999999,
        1.6799999999999999,
        1.7,
        1.72,
        1.74,
        1.76,
        1.78,
        1.8,
        1.8200000000000001,
        1.8400000000000001,
        1.8600000000000001,
        1.8799999999999999,
        1.8999999999999999,
        1.9199999999999999,
        1.9399999999999999,
        1.96,
        1.98,
        2.0,
        2.02,
        2.04,
        2.0600000000000001,
        2.0800000000000001,
        2.1000000000000001,
        2.1200000000000001,
        2.1400000000000001,
        2.1600000000000001,
        2.1800000000000002,
        2.2000000000000002,
        2.2200000000000002,
        2.2400000000000002,
        2.2599999999999998,
        2.2799999999999998,
        2.2999999999999998,
        2.3199999999999998,
        2.3399999999999999,
        2.3599999999999999,
        2.3799999999999999,
        2.3999999999999999,
        2.4199999999999999,
        2.4399999999999999,
        2.46,
        2.48,
        2.5,
        2.52,
        2.54,
        2.5600000000000001,
        2.5800000000000001,
        2.6000000000000001,
        2.6200000000000001,
        2.6400000000000001,
        2.6600000000000001,
        2.6800000000000002,
        2.7000000000000002,
        2.7200000000000002,
        2.7400000000000002,
        2.7599999999999998,
        2.7799999999999998,
        2.7999999999999998,
        2.8199999999999998,
        2.8399999999999999,
        2.8599999999999999,
        2.8799999999999999,
        2.8999999999999999,
        2.9199999999999999,
        2.9399999999999999,
        2.96,
        2.98,
        3.0,
        3.02,
        3.04,
        3.0600000000000001,
        3.0800000000000001,
        3.1000000000000001,
        3.1200000000000001,
        3.1400000000000001,
        3.1600000000000001,
        3.1800000000000002,
        3.2000000000000002,
        3.2200000000000002,
        3.2400000000000002,
        3.2599999999999998,
        3.2799999999999998,
        3.2999999999999998,
        3.3199999999999998,
        3.3399999999999999,
        3.3599999999999999,
        3.3799999999999999,
        3.3999999999999999,
        3.4199999999999999,
        3.4399999999999999,
        3.46,
        3.48,
        3.5,
        3.52,
        3.54,
        3.5600000000000001,
        3.5800000000000001,
        3.6000000000000001,
        3.6200000000000001,
        3.6400000000000001,
        3.6600000000000001,
        3.6800000000000002,
        3.7000000000000002,
        3.7200000000000002,
        3.7400000000000002,
        3.7599999999999998,
        3.7799999999999998,
        3.7999999999999998,
        3.8199999999999998,
        3.8399999999999999,
        3.8599999999999999,
        3.8799999999999999,
        3.8999999999999999,
        3.9199999999999999,
        3.9399999999999999,
        3.96,
        3.98,
        4.0,
        4.0199999999999996,
        4.04,
        4.0599999999999996,
        4.0800000000000001,
        4.0999999999999996,
        4.1200000000000001,
        4.1399999999999997,
        4.1600000000000001,
        4.1799999999999997,
        4.2000000000000002,
        4.2199999999999998,
        4.2400000000000002,
        4.2599999999999998,
        4.2800000000000002,
        4.2999999999999998,
        4.3200000000000003,
        4.3399999999999999,
        4.3600000000000003,
        4.3799999999999999,
        4.4000000000000004,
        4.4199999999999999,
        4.4400000000000004,
        4.46,
        4.4800000000000004,
        4.5,
        4.5199999999999996,
        4.54,
        4.5599999999999996,
        4.5800000000000001,
        4.5999999999999996,
        4.6200000000000001,
        4.6399999999999997,
        4.6600000000000001,
        4.6799999999999997,
        4.7000000000000002,
        4.7199999999999998,
        4.7400000000000002,
        4.7599999999999998,
        4.7800000000000002,
        4.7999999999999998,
        4.8200000000000003,
        4.8399999999999999,
        4.8600000000000003,
        4.8799999999999999,
        4.9000000000000004,
        4.9199999999999999,
        4.9400000000000004,
        4.96,
        4.9800000000000004,
        5.0,
        5.0199999999999996,
        5.04,
        5.0599999999999996,
        5.0800000000000001,
        5.0999999999999996,
        5.1200000000000001,
        5.1399999999999997,
        5.1600000000000001,
        5.1799999999999997,
        5.2000000000000002,
        5.2199999999999998,
        5.2400000000000002,
        5.2599999999999998,
        5.2800000000000002,
        5.2999999999999998,
        5.3200000000000003,
        5.3399999999999999,
        5.3600000000000003,
        5.3799999999999999,
        5.4000000000000004,
        5.4199999999999999,
        5.4400000000000004,
        5.46,
        5.4800000000000004,
        5.5,
        5.5199999999999996,
        5.54,
        5.5599999999999996,
        5.5800000000000001,
        5.5999999999999996,
        5.6200000000000001,
        5.6399999999999997,
        5.6600000000000001,
        5.6799999999999997,
        5.7000000000000002,
        5.7199999999999998,
        5.7400000000000002,
        5.7599999999999998,
        5.7800000000000002,
        5.7999999999999998,
        5.8200000000000003,
        5.8399999999999999,
        5.8600000000000003,
        5.8799999999999999,
        5.9000000000000004,
        5.9199999999999999,
        5.9400000000000004,
        5.96,
        5.9800000000000004,
        6.0,
        6.0199999999999996,
        6.04,
        6.0599999999999996,
        6.0800000000000001,
        6.0999999999999996,
        6.1200000000000001,
        6.1399999999999997,
        6.1600000000000001,
        6.1799999999999997,
        6.2000000000000002,
        6.2199999999999998,
        6.2400000000000002,
        6.2599999999999998,
        6.2800000000000002,
        6.2999999999999998,
        6.3200000000000003,
        6.3399999999999999,
        6.3600000000000003,
        6.3799999999999999,
        6.4000000000000004,
        6.4199999999999999,
        6.4400000000000004,
        6.46,
        6.4800000000000004,
        6.5,
        6.5199999999999996,
        6.54,
        6.5599999999999996,
        6.5800000000000001,
        6.5999999999999996,
        6.6200000000000001,
        6.6399999999999997,
        6.6600000000000001,
        6.6799999999999997,
        6.7000000000000002,
        6.7199999999999998,
        6.7400000000000002,
        6.7599999999999998,
        6.7800000000000002,
        6.7999999999999998,
        6.8200000000000003,
        6.8399999999999999,
        6.8600000000000003,
        6.8799999999999999,
        6.9000000000000004,
        6.9199999999999999,
        6.9400000000000004,
        6.96,
        6.9800000000000004,
        7.0,
        7.0199999999999996,
        7.04,
        7.0599999999999996,
        7.0800000000000001,
        7.0999999999999996,
        7.1200000000000001,
        7.1399999999999997,
        7.1600000000000001,
        7.1799999999999997,
        7.2000000000000002,
        7.2199999999999998,
        7.2400000000000002,
        7.2599999999999998,
        7.2800000000000002,
        7.2999999999999998,
        7.3200000000000003,
        7.3399999999999999,
        7.3600000000000003,
        7.3799999999999999,
        7.4000000000000004,
        7.4199999999999999,
        7.4400000000000004,
        7.46,
        7.4800000000000004,
        7.5,
        7.5199999999999996,
        7.54,
        7.5599999999999996,
        7.5800000000000001,
        7.5999999999999996,
        7.6200000000000001,
        7.6399999999999997,
        7.6600000000000001,
        7.6799999999999997,
        7.7000000000000002,
        7.7199999999999998,
        7.7400000000000002,
        7.7599999999999998,
        7.7800000000000002,
        7.7999999999999998,
        7.8200000000000003,
        7.8399999999999999,
        7.8600000000000003,
        7.8799999999999999,
        7.9000000000000004,
        7.9199999999999999,
        7.9400000000000004,
        7.96,
        7.9800000000000004,
        8.0,
        8.0199999999999996,
        8.0399999999999991,
        8.0600000000000005,
        8.0800000000000001,
        8.0999999999999996,
        8.1199999999999992,
        8.1400000000000006,
        8.1600000000000001,
        8.1799999999999997,
        8.1999999999999993,
        8.2200000000000006,
        8.2400000000000002,
        8.2599999999999998,
        8.2799999999999994,
        8.3000000000000007,
        8.3200000000000003,
        8.3399999999999999,
        8.3599999999999994,
        8.3800000000000008,
        8.4000000000000004,
        8.4199999999999999,
        8.4399999999999995,
        8.4600000000000009,
        8.4800000000000004,
        8.5,
        8.5199999999999996,
        8.5399999999999991,
        8.5600000000000005,
        8.5800000000000001,
        8.5999999999999996,
        8.6199999999999992,
        8.6400000000000006,
        8.6600000000000001,
        8.6799999999999997,
        8.6999999999999993,
        8.7200000000000006,
        8.7400000000000002,
        8.7599999999999998,
        8.7799999999999994,
        8.8000000000000007,
        8.8200000000000003,
        8.8399999999999999,
        8.8599999999999994,
        8.8800000000000008,
        8.9000000000000004,
        8.9199999999999999,
        8.9399999999999995,
        8.9600000000000009,
        8.9800000000000004,
        9.0,
        9.0199999999999996,
        9.0399999999999991,
        9.0600000000000005,
        9.0800000000000001,
        9.0999999999999996,
        9.1199999999999992,
        9.1400000000000006,
        9.1600000000000001,
        9.1799999999999997,
        9.1999999999999993,
        9.2200000000000006,
        9.2400000000000002,
        9.2599999999999998,
        9.2799999999999994,
        9.3000000000000007,
        9.3200000000000003,
        9.3399999999999999,
        9.3599999999999994,
        9.3800000000000008,
        9.4000000000000004,
        9.4199999999999999,
        9.4399999999999995,
        9.4600000000000009,
        9.4800000000000004,
        9.5,
        9.5199999999999996,
        9.5399999999999991,
        9.5600000000000005,
        9.5800000000000001,
        9.5999999999999996,
        9.6199999999999992,
        9.6400000000000006,
        9.6600000000000001,
        9.6799999999999997,
        9.6999999999999993,
        9.7200000000000006,
        9.7400000000000002,
        9.7599999999999998,
        9.7799999999999994,
        9.8000000000000007,
        9.8200000000000003,
        9.8399999999999999,
        9.8599999999999994,
        9.8800000000000008,
        9.9000000000000004,
        9.9199999999999999,
        9.9399999999999995,
        9.9600000000000009,
        9.9800000000000004,
        10.0,
        10.02,
        10.039999999999999,
        10.06,
        10.08,
        10.1,
        10.119999999999999,
        10.140000000000001,
        10.16,
        10.18,
        10.199999999999999,
        10.220000000000001,
        10.24,
        10.26,
        10.279999999999999,
        10.300000000000001,
        10.32,
        10.34,
        10.359999999999999,
        10.380000000000001,
        10.4,
        10.42,
        10.44,
        10.460000000000001,
        10.48,
        10.5,
        10.52,
        10.539999999999999,
        10.56,
        10.58,
        10.6,
        10.619999999999999,
        10.640000000000001,
        10.66,
        10.68,
        10.699999999999999,
        10.720000000000001,
        10.74,
        10.76,
        10.779999999999999,
        10.800000000000001,
        10.82,
        10.84,
        10.859999999999999,
        10.880000000000001,
        10.9,
        10.92,
        10.94,
        10.960000000000001,
        10.98,
        11.0,
        11.02,
        11.039999999999999,
        11.06,
        11.08,
        11.1,
        11.119999999999999,
        11.140000000000001,
        11.16,
        11.18,
        11.199999999999999,
        11.220000000000001,
        11.24,
        11.26,
        11.279999999999999,
        11.300000000000001,
        11.32,
        11.34,
        11.359999999999999,
        11.380000000000001,
        11.4,
        11.42,
        11.44,
        11.460000000000001,
        11.48,
        11.5,
        11.52,
        11.539999999999999,
        11.56,
        11.58,
        11.6,
        11.619999999999999,
        11.640000000000001,
        11.66,
        11.68,
        11.699999999999999,
        11.720000000000001,
        11.74,
        11.76,
        11.779999999999999,
        11.800000000000001,
        11.82,
        11.84,
        11.859999999999999,
        11.880000000000001,
        11.9,
        11.92,
        11.94,
        11.960000000000001,
        11.98,
        12.0,
        12.02,
        12.039999999999999,
        12.06,
        12.08,
        12.1,
        12.119999999999999,
        12.140000000000001,
        12.16,
        12.18
    ]
}