{
	"f0": [NaN,38.23037272,37.38834103,39.39130901,57.7858074,60.1190495,62.69896066,62.84601795,62.83881132,62.78634631,62.72150013,62.69459588,62.63520108,62.63028352,62.67974113,62.65887871,62.54658112,62.53246511,62.76954803,63.06364299,62.84356163,62.74534708,62.71525098,62.87330407,63.14399075,63.48682058,69.54120178,69.67901191,69.65685631,69.586679,69.54158046,69.53247071,69.63841454,69.88830894,70.22712888,70.38701915,70.44581751,70.6916795,71.03745136,71.05863989,71.01585661,70.89054718,70.92767977,70.86834401,70.83351683,70.83913424,70.8644753,70.93096528,70.97108028,70.96083676,70.95332343,70.92392195,70.99162564,70.9014033,70.67851245,70.50795827,69.57168012,68.89993862,68.96011583,69.0905042,69.09362307,68.93340582,68.82239937,68.81109301,68.69872935,68.79627732,68.89306749,68.88546178,69.44143954,69.25989267,69.2234731,69.23783336,69.15788905,69.20902,69.21749983,69.05580299,68.86066605,68.90814715,69.13625503,49.9839799,68.98935262,69.17399484,69.17399484,64.93035138,63.83657672,63.74103645,63.62154754,63.8647282,64.24110989,64.20849579,64.17682194,64.08750933,64.93035138,65.12900454,65.35941224,65.69016581,65.67139442,65.81518653,65.94702773,65.93125976,65.91940844,65.83618001,65.54572405,65.69991543,65.90737709,65.90969529,66.23539099,66.40358636,66.55624966,66.64944076,66.62411934,66.61855022,66.64026792,66.74723138,67.03277905,67.81749358,68.54990389,68.83260036,68.93233253,68.94319573,68.98289869,68.98148643,68.88032174,68.88462888,68.88563492,68.86684272,68.83516095,68.79210095,68.78018764,68.84975933,68.8918397,68.89369275,68.9125056,68.95702327,69.02257081,69.05951567,69.04537007,69.06415613,69.12371442,69.15105109,69.14292287,69.11953531,69.09018435,69.08749978,69.08273594,69.03832924,68.98610649,68.98670099,69.01414312,69.06715437,69.09466571,69.14089028,69.19777517,69.20279129,69.18682296,69.16751756,69.12370303,69.08722996,69.01511763,69.00861149,69.03934037,69.0650907,69.13050403,69.12763175,69.0951865,69.05561571,69.00540092,69.04353724,69.05495731,69.05837386,57.12176251,57.03507979,56.91189045,56.67197003,56.23796469,56.46727057,56.68127219,56.97699439,56.84637308,56.68372496,56.69494551,56.92907047,49.48604269,49.98638294,48.87226062,37.00172648,37.0000196,45.78580198,61.10349809,60.85814956,60.94608059,61.29309809,61.69222593,61.86966201,61.27363068,61.25741523,61.23477661,61.33063099,61.59925179,61.77028041,61.30932983,61.60141984,62.03417627,62.04690675,62.03622652,62.1307765,61.95689936,61.81670699,61.71067324,61.59400513,61.57373809,61.59672105,61.59058795,61.60671815,61.6553268,61.60983004,61.59513776,61.78757283,61.88790577,61.63058308,61.50776897,61.66742291,61.67400749,61.577917,61.47361596,61.58780597,61.92906126,61.63082929,61.30197525,60.20077599,57.41612942,56.88314494,57.27728715,57.4572603,57.28504496,57.71858933,58.1898506,58.62619449,58.6553301,58.72611281,58.55899938,58.65445368,58.71151904,58.8176454,59.78617168,60.68419529,62.23993971,62.64033722,62.7116535,62.48510786,62.27415282,61.91290182,61.69649697,61.78983412,61.88127157,61.96297558,62.25976801,62.02419999,61.7763172,61.98711977,61.96447363,62.04990998,62.16160906,61.97632753,61.98038533,61.96562552,62.24886775,62.4780494,63.48682058,39.04740752,39.05933366,38.64084,58.6327578,58.90420476,58.8350814,58.4513925,57.84986714,58.66060787,58.16354076,57.93749517,62.4780494,46.21304817,65.1916816,65.27967814,65.44733271,65.32213539,65.38791691,65.40166109,65.18495344,65.26933643,65.34461646,65.47866566,66.63147036,66.9990836,66.99009695,67.01524046,66.7865507,66.93578002,67.03107359,67.06571699,67.14185908,67.0403436,66.83121123,66.78073062,67.08855223,66.85620468,66.7366109,66.6526382,66.97976384,67.14447386,67.12419276,67.12683751,67.2923729,67.14987098,67.00972113,66.99068242,66.96027596,66.99767199,67.02482546,66.81130389,66.69966331,67.10658288,67.0937183,67.04736846,67.07989233,67.04407193,67.01124664,67.01694315,67.02869844,67.13117506,67.17001346,67.08071704,66.78162083,66.7951837,66.88721004,66.83396508,66.66676792,66.90034609,66.76786027,66.51970892,66.72064273,66.84136805,66.88280129,66.8392425,66.80532392,66.71864559,42.97322275,66.99899158,66.80707394,66.80114288,66.76641349,66.79240577,39.20262232,39.16913917,39.11097409,39.32498786,67.35960469,67.16088538,67.34995772,67.24588791,67.22751698,35.83602186,35.81517432,66.87223086,66.9307618,50.44271318,NaN,NaN],
	"ap0": [NaN,0.3506830612,0.5826309845,0.7482181582,0.8151305268,0.6939162755,0.06569749811,0.05542822937,0.02610120914,0.01439817016,0.0126303557,0.003936211178,0.001837232642,0.001377787386,0.0007541291626,0.001521082134,0.002627400783,0.005433058942,0.01881321509,0.02734979385,0.03444055925,0.05639797329,0.0763792814,0.1113722349,0.139428671,0.4300625601,0.1217237466,0.05676715792,0.03028010041,0.01425795397,0.01008844794,0.008796283975,0.01094290708,0.0324947522,0.01824196956,0.01830039231,0.02865733654,0.02581103185,0.006917188013,0.006134500992,0.01163026291,0.02417432815,0.008357921429,0.003075718114,0.002254616205,0.00200540995,0.001873966773,0.001366685316,0.0008956979071,0.001592841931,0.002835233219,0.005224374731,0.007337482456,0.01013017902,0.00656993919,0.01568882732,0.08196652262,0.06234952408,0.100962995,0.07800759459,0.05853921337,0.04593209901,0.0400486997,0.05565693723,0.03897461946,0.0381357226,0.03809475659,0.05453931509,0.04234004873,0.04584390554,0.0355678658,0.02910429947,0.02090004996,0.007251476178,0.005488232057,0.01306897543,0.03437831763,0.2516888705,0.5934976124,0.4285716413,0.3580422799,0.2183388406,0.2306664209,0.5118165426,0.159861434,0.1783921281,0.09554788632,0.05599834901,0.04112334766,0.01949886084,0.01365742701,0.04549373462,0.1752736517,0.05413151033,0.05001271506,0.05023745388,0.06148269909,0.04052886779,0.01521306661,0.01603099085,0.02420930802,0.1041876113,0.3014076428,0.491388881,0.3895531307,0.2562194679,0.1495822247,0.08561290457,0.06509291206,0.04000177112,0.02643970976,0.02045702179,0.01322254642,0.02229951616,0.06664083402,0.1544103143,0.1524620115,0.1591204617,0.1404525906,0.04756122684,0.03539818637,0.03369092654,0.01765671166,0.0111997131,0.006831150119,0.0049976437,0.00351747017,0.002728182344,0.002470751648,0.002434991645,0.002117750099,0.001718278636,0.00156943893,0.003387461706,0.009073126677,0.01379055523,0.007660405075,0.003984059116,0.004023162133,0.004272586847,0.003854075825,0.00360063644,0.002749074782,0.002330003097,0.002577018091,0.003697181062,0.003553540918,0.004535926589,0.01042513866,0.0136144223,0.009900881426,0.01151632193,0.01277981207,0.01877465299,0.02652478132,0.03703581841,0.05575637885,0.1481527216,0.2799126213,0.1260702842,0.1021925057,0.06611356801,0.04484723918,0.04413342126,0.0403560156,0.05597111683,0.07769448939,0.08690751111,0.07735089942,0.1546719004,0.1039434875,0.1669119508,0.1937174953,0.1969196185,0.2431729876,0.1741067568,0.2194748564,0.2273897644,0.1765235938,0.3049139785,0.3761889669,0.5914935535,0.7960856522,0.7536530373,0.7803223315,0.7619880911,0.7007924269,1.404555382,0.1019283685,0.02274785288,0.009508184072,0.01301325,0.01906180845,0.0293030173,0.01943536923,0.0201499756,0.02755493654,0.01691214869,0.03579775285,0.1627269161,0.132512049,0.06878583256,0.02312482685,0.006913094016,0.0058394173,0.0173594423,0.01583374032,0.004138338186,0.005795896877,0.003134022744,0.001830956045,0.005413567522,0.02417458054,0.01706986705,0.003610553402,0.001329106694,0.002020640811,0.004439206923,0.002691005237,0.003011777113,0.00174495905,0.002140069083,0.001900397156,0.001428256552,0.0009653039885,0.003364007115,0.003851907078,0.01053346484,0.01428503522,0.1471232874,0.09958371068,0.04628248076,0.03504876832,0.03105538546,0.07323126634,0.08957170274,0.03556923029,0.04865496285,0.07799657477,0.1103824627,0.04940268088,0.05045931253,0.08019742127,0.0428858563,0.1289601008,0.1632194912,0.1226492985,0.07600366088,0.1051061471,0.04337039693,0.04177829927,0.03081446717,0.0380463325,0.03300594205,0.01071350338,0.01587704466,0.03659031629,0.03822920815,0.04868002005,0.01570173204,0.005278596006,0.01202845374,0.01109933723,0.00537215956,0.009051629581,0.02866333536,0.03481945744,0.1893060122,1.203467183,0.3113510254,0.3479143534,0.2968063873,0.2003536852,0.1124381424,0.1020414365,0.1291694975,0.1572876821,0.109492155,0.1224183677,0.147207219,0.827466342,0.2720175108,0.06027165019,0.03874453876,0.03277424814,0.04807102423,0.1234333635,0.1751838515,0.1497866357,0.1054515463,0.04310398933,0.05463394477,0.09632493881,0.03746409093,0.01974162665,0.02376690868,0.04004388751,0.02827798549,0.04208934741,0.09126029324,0.1697712673,0.1333019555,0.1310631375,0.203555749,0.151794794,0.09151320487,0.06948445159,0.1890779608,0.1242691482,0.05734470451,0.0512825954,0.1056639831,0.1628366504,0.09557040973,0.04742814954,0.02560581504,0.01452731447,0.01376991836,0.02018409647,0.03217434249,0.02648968922,0.04260573235,0.05098928219,0.04979897841,0.02098746391,0.01362102535,0.01229884965,0.01268154785,0.02393398,0.04308121826,0.04272491715,0.05575813398,0.1679134639,0.2069974489,0.2382079848,0.1973172001,0.1200974904,0.1510673302,0.1811880279,0.2134777551,0.3014433246,0.2919207718,0.1653339449,0.1183223633,0.1918315364,0.3757901584,0.3152567115,0.2757500591,0.1733536716,0.2392691194,0.3165710752,0.384488655,0.3533660328,0.5337727076,0.3625227433,0.4236359959,0.2606707758,0.1460911611,0.1925900763,0.2642935776,0.4284823,0.3144037538,0.4753325982,0.4788850557,1.0153584,0.5282185317,NaN,NaN],
	"ap": [NaN,0.2086362456,0.07928044233,0.2562607894,0.6138929904,0.5084776642,0.2927404145,0.3646174428,0.00350923874,0.01871142668,0.01826026842,0.024699458,0.0007980463843,0.0004477288219,0.002241426633,0.0001982490521,0.001365172078,0.0005729140159,0.009133326776,0.005684953207,0.01405133328,0.03222559474,0.02170635009,0.02178134236,0.08023483872,0.1118365641,0.6669608763,0.7784196286,0.0164474561,0.02214131816,0.006874502215,0.004562688409,0.0115371585,0.01397368881,0.01721217487,0.05543455527,0.002344142704,0.01327095882,0.04245190272,0.002520408558,0.00286851349,0.002424954572,0.1756184554,0.02519741765,0.0009342744684,0.0008982842107,0.0004232585147,0.00176740652,0.0008742655257,0.0003477478199,0.0009292586241,0.001549671856,0.002646248883,0.00267406504,0.01088289898,0.007997675887,0.03515455431,0.135295264,0.01834944667,0.02083455576,0.4686197903,0.06745488574,0.02604209248,0.004785017649,0.07251762757,0.01298587295,0.08981121991,0.02535729285,0.0399422286,0.00831221027,0.003645030766,0.02016994278,0.01374604902,0.004729003557,0.006276786118,0.002706924211,0.01021623386,0.01133532851,0.1014718442,0.3320223179,0.1440169325,0.552134956,0.3776955996,0.401552207,0.765205113,0.007450695541,0.1409689659,0.041252958,0.05540321167,0.01630460941,0.007870443614,0.007751336881,0.02718094697,0.1505136192,0.03101595349,0.01961398751,0.06664924023,0.03992843496,0.1533245007,0.0039064437,0.01671090345,0.001986155879,0.02505160733,0.03753962376,0.05453803632,0.2741348162,0.1951573342,0.1477583061,0.01072088741,0.03623129137,0.004296049956,0.01036905992,0.01574111628,0.001110911865,0.01999448635,0.04441315663,0.1142323304,0.04216758701,0.1355543905,0.05354117316,0.01399042361,0.002255689622,0.04227415483,0.007631571849,0.004503015522,0.004768808072,0.002685308846,0.001802346438,0.001421677684,0.002290045995,0.001611908713,0.001333804007,0.001288167242,0.001075683346,0.002507676047,0.005763998824,0.003790414412,0.003232161911,0.00439834324,0.001124023868,0.003633519524,0.0007286675448,0.003109871359,0.001615417716,0.001549834864,0.001353191568,0.003570369245,0.002038761712,0.001932398123,0.005075140615,0.008708156903,0.005269833645,0.01163920649,0.003936552138,0.01441345586,0.008156758841,0.003364674425,0.02488931845,0.0114284538,0.1075302495,0.08019612286,0.06142076763,0.0799124105,0.02089326495,0.04988681871,0.008718938834,0.02056497975,0.01601368797,0.04196925085,0.02043375108,0.05351258833,0.0881606743,0.01779300329,0.1309985574,0.027765034,0.3992528442,0.04935301568,0.2275069061,0.1704818523,0.08560535548,0.3807259783,0.103435224,0.5315027058,0.4032639675,0.4134436409,0.3782891159,0.3890087128,0.4776634374,0.575331089,0.1996194345,0.05102007093,0.001672978536,0.01240224946,0.027843087,0.02257437432,0.003923249745,0.001268930028,0.03860886048,0.01653726533,0.001951175652,0.08610799644,0.08037480216,0.1344186639,0.02196766329,0.005544136638,0.0003119702962,0.01283857154,0.0128314316,0.0007064346726,0.004261233529,0.003294142184,0.0003856173329,0.002360529781,0.01658829992,0.03214801992,0.004720241957,0.0002654324895,0.003435984662,0.002543041061,0.005801401812,0.0008365556144,0.004022926522,0.0001288576097,0.001888642253,0.001895623912,0.001302590337,0.008077375948,0.002601461008,0.02413853853,0.04079039996,0.2802962836,0.03398102997,0.08785663476,0.01559163285,0.01593223892,0.02484984328,0.1004551314,0.02084059863,0.06556818519,0.04198189903,0.01056283248,0.02508735474,0.02217520455,0.1273608545,0.05095642824,0.1165545248,0.1396613572,0.02795201446,0.07175235862,0.03546507263,0.01936788201,0.06421876166,0.00271573125,0.004473560191,0.07018456862,0.006846522491,0.01259372209,0.02903843497,0.02078829175,0.03619276284,0.02099310439,0.00101832768,0.003206915087,0.006334107854,0.004963456907,0.0005467084421,0.02042832143,0.01859148029,0.0649397944,0.1618736853,0.169971488,0.1633192752,0.510443241,0.1712410304,0.03851936486,0.02493587016,0.08139538435,0.331035959,0.07708544008,0.09774132764,0.4626240236,0.3412145436,0.4477118842,0.03826247338,0.004832348854,0.00405411089,0.01962543447,0.02150233005,0.2175456674,0.01174614967,0.05281115982,0.05651326312,0.08699305354,0.1550693206,0.04597954227,0.01206775992,0.004053280427,0.2265659607,0.01296542323,0.02970032053,0.1170005691,0.04871485852,0.05019862583,0.04460778569,0.1076662187,0.04067978436,0.2127450829,0.04079548652,0.03867471786,0.3111015625,0.02560445661,0.05944055758,0.1227777224,0.07308290347,0.1283901467,0.03532402233,0.0216822655,0.00565195525,0.005662305677,0.009082646959,0.03840064603,0.01964972276,0.01571689855,0.01614317024,0.1344640844,0.03112888505,0.01132550845,0.006888338636,0.006639567283,0.01478523206,0.00598911983,0.01781842904,0.0330398762,0.02822512889,0.1442278178,0.1155259873,0.1019086873,0.008787175064,0.03834183586,0.01347665265,0.0336900699,0.3261875465,0.1221077068,0.1375072558,0.01034149669,0.1853693934,0.4787133061,0.02942859431,0.2736004825,0.05933059833,0.02951229047,0.3501545575,0.1218572215,0.2019513966,0.2765715597,0.1419245295,0.51951765,0.1709896219,0.01656058232,0.0375442502,0.1101244844,0.1465928448,0.1935069397,0.08326553979,0.3364036147,0.8074817045,NaN,NaN],
	"pwr": [NaN,1.238893163e-07,1.483924804e-07,1.132276186e-07,1.958348944e-07,1.69716219e-06,2.56085778e-06,1.877744408e-05,0.009829508483,0.0202995099,0.02595655332,0.006699030596,0.04952552237,0.07509213617,0.08683232407,0.1241300645,0.1013249304,0.05730830842,0.03967869053,0.01080474214,0.002920503641,0.003959442232,0.001526851188,0.001258197656,0.0007275125633,0.001808177067,0.0004478536131,0.0002439161738,0.01348794384,0.008843642907,0.03389985571,0.04930932939,0.03878439979,0.06171374608,0.04362693411,0.007652666043,0.1043328663,0.02485395138,0.0257007478,0.05309041395,0.1278800334,0.07907392254,0.006363603472,0.0105016946,0.06951184937,0.1250139709,0.07013121503,0.03985304134,0.06197385718,0.06366731953,0.06219711477,0.03009061684,0.01295721933,0.01180806208,0.0117132485,0.07007329586,0.207870456,0.007869547911,0.05939346738,0.05535816582,0.01667947916,0.0432878078,0.1220547614,0.3006173392,0.06843170158,0.0230851465,0.02522130313,0.01731586621,0.009573482349,0.005964767309,0.03849932463,0.01542724671,0.01241279231,0.02035929529,0.01746617276,0.03152692691,0.02019041307,0.006927607057,0.002725328451,0.002901490632,0.000762226923,0.002003208032,0.0004892939065,0.003881480296,0.002237929706,0.01151948732,0.01949549419,0.005591324534,0.01618171775,0.009585783397,0.01635689643,0.03682582601,0.03240983849,0.00227053798,0.01337879059,0.06580674656,0.01360597754,0.03522257807,0.007839622201,0.05962650394,0.02408438359,0.03049538899,0.06749662066,0.01311188788,0.01157197643,0.008066873801,0.005584475656,0.006710395626,0.01616791491,0.01308857208,0.0111303568,0.02804170137,0.02071299333,0.03290296569,0.01855708253,0.007504147393,0.008452417727,0.01067883813,0.005517356408,0.007791954285,0.005780596856,0.01028298983,0.003628079672,0.0111910633,0.006706012924,0.01057841783,0.01511768245,0.0144579742,0.01435017762,0.01422788651,0.01214248502,0.01572193354,0.01541705297,0.0172859291,0.01437656207,0.006340498844,0.002094912085,0.003194609074,0.005492549684,0.006696711583,0.005487152811,0.006436227851,0.005995317892,0.008858503843,0.01198807732,0.01034825907,0.006117886121,0.004196332974,0.003861349654,0.002414569508,0.0007171215996,0.001631282851,0.0009545206436,0.00132399389,0.0008514173846,0.001024934649,0.001052004703,0.0007797924771,0.0004467097543,6.879341641e-05,0.0002486001582,0.0003882067931,0.0002351474319,0.0001915434712,0.0001305747858,0.0001105348928,7.246656708e-05,8.123395593e-05,4.924186321e-05,3.739065206e-05,3.02638315e-05,2.285266046e-05,2.578759543e-05,1.621130802e-05,4.507856992e-05,2.474150776e-06,2.239884307e-05,1.498008779e-05,5.196575935e-06,1.040297519e-05,1.405955075e-06,3.673499558e-06,1.562662511e-06,3.062268346e-06,3.931530315e-06,5.550618412e-06,1.011795957e-05,8.891377658e-06,2.20313389e-05,3.207111098e-05,0.001741958719,0.01553074107,0.00957380919,0.0105486936,0.00420461786,0.001961199501,0.004035925991,0.0009067019696,0.0009185865364,0.0007731019128,0.0003225527916,0.001158789249,0.0002665629335,0.005091373133,0.01452655495,0.01646578027,0.0040108795,0.002457185406,0.0045235127,0.007897796195,0.02357384986,0.05722989077,0.04782797674,0.008136935977,0.001256293005,0.01473469896,0.03159532892,0.02194261658,0.01017307747,0.005277378239,0.006875840135,0.004695171947,0.002702603635,0.004138208941,0.009290501864,0.009125913803,0.005760095592,0.005492231997,0.006419918371,0.01779703129,0.006370634846,0.009485610287,0.007809269037,0.01492379879,0.03613098857,0.05218031038,0.01090874614,0.03609283384,0.00471827607,0.004166653807,0.001366657167,0.001698134739,0.003298548062,0.0004135955984,0.00313196979,0.001872051791,0.002029085838,0.004078409899,0.009861769377,0.002260390873,0.003605068349,0.005920768055,0.0208452168,0.02760978831,0.006026486554,0.03125520447,0.02757794558,0.00314424705,0.002112933091,0.0005546340223,0.002083067823,0.004360893822,0.001498007462,0.001195154541,0.001257966431,0.001492165906,0.000318946741,0.0001233842703,0.0003230214794,0.0008236364923,0.0004493664774,0.000265023307,0.0007729758629,0.0008082542561,0.0008411151766,0.002829355509,0.002041843597,0.0006108040644,0.000284108145,0.001121993481,0.002192720621,0.0002580127117,0.0001386431139,0.004655995242,0.0105630976,0.006324744251,0.005283440984,0.003511189996,0.003233868999,0.00610394245,0.0005455703085,0.002264183374,0.006580693783,0.006764549996,0.00967729812,0.01336699141,0.01269471516,0.001209927242,0.01859340678,0.01809479309,0.01281231887,0.008136762937,0.004412667867,0.004858054008,0.0007397316131,0.0005229122844,0.000348191847,0.002803391314,0.0002706768563,0.0001919764109,0.0006620381135,0.0005754996367,0.0002237153805,0.0001591874525,1.122994694e-05,9.302039396e-05,0.0001197931919,0.0001848472117,0.0002005104033,0.0001218218888,4.436982134e-05,3.188817202e-05,1.383126946e-05,1.040491626e-05,3.735481564e-07,8.262083049e-06,1.579983367e-05,6.738014814e-06,6.784311888e-06,6.91799376e-06,3.462765207e-06,1.224625127e-06,5.280019998e-07,7.297435743e-08,9.405283312e-09,2.526243698e-07,8.598675604e-08,8.911660334e-08,9.389878492e-08,9.68618633e-08,9.963640798e-08,1.736002148e-08,6.654129658e-08,5.163974968e-08,1.415454108e-07,3.054746151e-08,1.145340038e-08,1.777400795e-08,1.425552889e-08,3.050563224e-08,4.502277896e-08,1.338859788e-08,1.095051399e-08,7.476653007e-09,4.239816009e-09,1.268787478e-08,1.453463388e-08,2.172865767e-09,1.375301508e-08,2.037565935e-08,9.488211529e-09,1.041715971e-08,5.151995969e-09,6.052909435e-09,6.386511621e-09,1.740184143e-09,NaN,NaN],
	"sr": 16000,
	"range": [1,117848],
	"minf0": 63.1883,
	"maxf0": 706.3069,
	"thresh": 0.1,
	"relflag": 1,
	"hop": 320,
	"bufsize": 10000,
	"wsize": 640,
	"lpf": 4000,
	"shift": 0,
	"plotthreshold": 0.2
}
