{
    "DU": 44,
    "DV": 414,
    "F-measure": 0.6050632911392406,
    "F-measure Chroma": 0.729113924050633,
    "FN": 14,
    "FNC": 2,
    "FNCch": 8,
    "FNI": 12,
    "FNIch": 6,
    "FP": 112,
    "GU": 142,
    "GV": 316,
    "Overall Accuracy": 0.5218340611353712,
    "Overall Chroma Accuracy": 0.62882096069869,
    "Precision": 0.5382882882882883,
    "Precision Chroma": 0.6486486486486487,
    "Raw Chroma Accuracy": 0.8417721518987342,
    "Raw Pitch Accuracy": 0.6677215189873418,
    "Recall": 0.6907514450867052,
    "Recall Chroma": 0.8323699421965318,
    "TN": 30,
    "TO": 458,
    "TP": 302,
    "TPC": 209,
    "TPCch": 258,
    "TPI": 93,
    "TPIch": 44,
    "Voiced Chroma Accuracy": 0.8164556962025317,
    "Voiced Pitch Accuracy": 0.6613924050632911,
    "Voicing Accuracy": 0.7248908296943232,
    "Voicing Detection": 0.9556962025316456,
    "Voicing False Alarm": 0.7887323943661971
}