{
    "DU": 14,
    "DV": 487,
    "F-measure": 0.7123893805309734,
    "F-measure Chroma": 0.8075221238938053,
    "FN": 0,
    "FNC": 0,
    "FNCch": 0,
    "FNI": 0,
    "FNIch": 0,
    "FP": 98,
    "GU": 112,
    "GV": 389,
    "Overall Accuracy": 0.6427145708582834,
    "Overall Chroma Accuracy": 0.7285429141716567,
    "Precision": 0.6427145708582834,
    "Precision Chroma": 0.7285429141716567,
    "Raw Chroma Accuracy": 0.9023136246786633,
    "Raw Pitch Accuracy": 0.7917737789203085,
    "Recall": 0.7990074441687345,
    "Recall Chroma": 0.9057071960297767,
    "TN": 14,
    "TO": 501,
    "TP": 389,
    "TPC": 308,
    "TPCch": 351,
    "TPI": 81,
    "TPIch": 38,
    "Voiced Chroma Accuracy": 0.9023136246786633,
    "Voiced Pitch Accuracy": 0.7917737789203085,
    "Voicing Accuracy": 0.8043912175648703,
    "Voicing Detection": 1.0,
    "Voicing False Alarm": 0.875
}