{
    "f0": [
        0.0,
        0.0,
        0.0,
        0.0,
        0.0,
        0.0,
        0.0,
        0.0,
        0.0,
        0.0,
        0.0,
        0.0,
        0.0,
        0.0,
        0.0,
        55.324805483274993,
        55.550022569844387,
        0.0,
        0.0,
        0.0,
        0.0,
        0.0,
        0.0,
        0.0,
        0.0,
        0.0,
        0.0,
        0.0,
        0.0,
        0.0,
        0.0,
        0.0,
        0.0,
        0.0,
        0.0,
        0.0,
        0.0,
        0.0,
        0.0,
        0.0,
        0.0,
        0.0,
        0.0,
        0.0,
        0.0,
        49.323214447118261,
        48.717122620390938,
        49.764067360282141,
        50.701423941712335,
        51.106891933934691,
        50.8205053234568,
        50.442634239714515,
        50.40255496629684,
        50.421263086179891,
        50.336464346074571,
        50.245151041439257,
        50.10085241339398,
        50.149288955732047,
        50.168737690124004,
        50.160898392335497,
        50.208652105113273,
        50.248311642292606,
        50.204716175680062,
        50.304635871455147,
        50.529578716462879,
        50.447873525201928,
        50.541535835657534,
        50.454939004618026,
        50.381237937742092,
        50.494163066800361,
        50.341864519213459,
        50.400765426936474,
        50.512735764199256,
        50.581743874984831,
        50.705488655606466,
        50.545899768843761,
        50.480250101115963,
        50.319637246747547,
        50.661581512755305,
        50.480456637982286,
        50.178450252577164,
        49.421286978240644,
        54.685827162076166,
        54.479846363329628,
        54.202530576931935,
        55.633458614232808,
        55.567078990000027,
        55.980435539372465,
        56.024492812008276,
        56.149511833888809,
        56.469864113682895,
        56.235363793895118,
        56.494872852716398,
        56.323667853863739,
        56.163046975302521,
        56.528467656006903,
        56.877119472967323,
        57.096112245048069,
        57.062440447209774,
        57.159941112868978,
        56.945013212529815,
        57.042988759501462,
        57.150620787120758,
        57.003924813513194,
        57.076332579716279,
        56.981285793568226,
        56.968796778584874,
        57.035592106389913,
        57.110615760209434,
        56.97056620549376,
        56.567524740326121,
        57.082690072608671,
        56.937816791833541,
        56.904650348967124,
        56.953769463957045,
        56.917366697638968,
        56.751142454586358,
        56.768658904753764,
        57.786484160844509,
        58.920751674972799,
        58.980563518983331,
        58.888827511554659,
        58.595035883821907,
        58.750710382538777,
        58.492248488537072,
        58.171177616218799,
        58.451467121454741,
        58.740498329191674,
        58.965369707587001,
        59.05964467022676,
        58.812622362624879,
        58.9489941839038,
        59.131472209705692,
        59.483890999123616,
        59.628435699121219,
        59.404409627035456,
        59.74442869977144,
        59.649414249198649,
        59.645704519368557,
        59.64528198168955,
        59.537947991990336,
        59.788041304590749,
        59.829723197964825,
        59.67265395404516,
        59.653001595759079,
        59.565406122765751,
        59.393700838569657,
        59.246497516833877,
        59.412499562566268,
        59.245340547457722,
        58.911080245361717,
        59.421412608042431,
        56.917097623875307,
        57.242250241103577,
        57.302416935726932,
        57.472521526130308,
        57.830680384423644,
        58.300737481350197,
        58.517976782079742,
        58.643028508077705,
        58.753536185781016,
        59.016405353059774,
        58.574069095988406,
        58.620157081871241,
        58.401944329723491,
        58.483364084038428,
        58.553181197984969,
        58.509569970555297,
        58.671715352783927,
        58.30016831699465,
        58.377689662872882,
        58.398722740619419,
        58.386203963007446,
        58.116060293980617,
        58.079790017671712,
        57.969484488274219,
        57.975890102820856,
        58.226453364406353,
        58.136237263259055,
        58.251192141352675,
        58.30031424151106,
        58.46297884690086,
        58.675225576728401,
        58.272068039583758,
        58.183049884862598,
        58.04097208338149,
        58.188405047542787,
        57.872107406360627,
        58.165951823231467,
        56.456114688970999,
        56.893836079241296,
        56.431902330983121,
        56.292697578060064,
        56.353702766140152,
        56.615958390721872,
        56.637727468930095,
        56.578900292257302,
        56.621236570501672,
        56.400442903740291,
        56.645031298150542,
        56.706603733512509,
        56.686120604790332,
        56.65393566031679,
        56.596714710940994,
        56.683143037103562,
        56.709265894251224,
        56.752619998256073,
        56.727653024558641,
        56.723388169996397,
        56.744230595201017,
        56.735662776821286,
        56.780743432190192,
        56.704165941586169,
        56.663951949210251,
        56.598135503295296,
        56.52366335153549,
        56.630398530037979,
        56.574334015508271,
        56.576964902457945,
        56.711074287807293,
        56.609565819309154,
        56.688355667909541,
        56.648871979434439,
        56.684566531414674,
        56.715189621520395,
        56.490066671210087,
        56.53650710949055,
        56.553570477461392,
        56.55569821989139,
        57.086908051960847,
        56.982259378147035,
        56.648924659295602,
        56.253403435044525,
        55.71864990868616,
        55.785528789304863,
        56.119451212342561,
        56.343516504538258,
        55.62144953425301,
        55.776183065110871,
        55.066730851695937,
        55.364338209154653,
        55.505255311305532,
        55.434219235021416,
        55.578536656130794,
        55.630902475966884,
        55.603279017026424,
        55.758422025707269,
        55.139545867538573,
        54.661532383655391,
        55.042167800229436,
        55.393753737569611,
        54.712568570718105,
        55.61940664377822,
        57.128031060189002,
        0.0,
        0.0,
        0.0,
        0.0,
        0.0,
        0.0,
        0.0,
        0.0,
        0.0,
        0.0,
        0.0,
        0.0,
        0.0,
        0.0,
        53.298178918894038,
        53.349586101636334,
        53.217489908805007,
        52.641111143175507,
        52.885246388637185,
        52.926294957661064,
        52.639796610613203,
        52.475400593392649,
        52.539929650048421,
        52.482011144601103,
        52.962592599220656,
        52.732964940428047,
        52.676737874847355,
        53.003720191776118,
        53.191467912990646,
        53.433967393451539,
        53.488512578691392,
        53.293540301994234,
        52.998251495116889,
        52.864552798251864,
        52.930150547994231,
        53.107297662803688,
        53.124148279763091,
        53.276253845374846,
        53.193453233066201,
        53.442448867667181,
        53.492349348495935,
        53.44638291574001,
        53.732299018656946,
        53.530801120061639,
        53.684187262910108,
        53.534173823289741,
        52.362240451082869,
        51.748673683643261,
        53.852833290477889,
        53.111667770457544,
        53.72952315498835,
        54.15023368852912,
        54.570944916270172,
        53.633780161867165,
        52.80220867483267,
        51.761916032705827,
        52.944758397204851,
        52.926948219414669,
        53.422467296988302,
        53.122522994745239,
        53.742109681302864,
        53.462292624268244,
        53.814945175466704,
        53.072655330569845,
        53.959961031628325,
        53.060553782197161,
        52.376965122461897,
        65.76073569081089,
        65.516321414048718,
        65.631746911108479,
        53.397365370997981,
        52.630951238256188,
        55.363733721180708,
        53.504799451445784,
        55.408358537791969,
        53.01433639343832,
        50.596389018204079,
        50.383305699004495,
        50.625012166730301,
        51.433110098796959,
        51.534049946839318,
        50.279333833328444,
        51.742868586760125,
        52.472417217583939,
        53.568303910376954,
        54.155348995723344,
        54.708535091156136,
        54.641580940660134,
        54.700620338262993,
        54.705010742033636,
        54.565271115556158,
        54.366562497581789,
        54.181994801342938,
        54.035219686248993,
        54.105163161696645,
        54.253897460204428,
        54.261336936955637,
        54.565333250175584,
        54.634475244664067,
        54.475559629758465,
        54.58106786619814,
        54.935254276996766,
        54.584888141218016,
        55.571596768811446,
        54.991890532337841,
        55.390562465238517,
        55.120752444809064,
        55.162600028010715,
        55.994565327153083,
        55.402435075979312,
        55.250633767744446,
        54.860175038982817,
        54.723818311502512,
        54.798392221712838,
        55.592686952508373,
        54.443042903192733,
        52.4652881484324,
        52.83188358423326,
        54.764782729867193,
        0.0,
        0.0,
        0.0,
        0.0,
        0.0,
        0.0,
        0.0,
        0.0,
        0.0,
        0.0,
        0.0,
        0.0,
        0.0,
        0.0,
        0.0,
        0.0,
        0.0,
        0.0,
        0.0,
        0.0,
        0.0,
        0.0,
        0.0,
        0.0,
        0.0,
        0.0,
        0.0,
        0.0,
        0.0,
        0.0,
        0.0,
        0.0,
        0.0,
        0.0,
        0.0,
        0.0,
        0.0,
        0.0,
        0.0,
        0.0,
        0.0,
        0.0,
        0.0,
        0.0,
        0.0,
        0.0,
        0.0,
        0.0,
        0.0,
        0.0,
        0.0,
        0.0,
        0.0,
        0.0,
        0.0,
        0.0,
        0.0,
        0.0,
        0.0,
        0.0,
        0.0,
        0.0,
        0.0,
        0.0,
        0.0,
        0.0,
        0.0,
        0.0,
        0.0,
        0.0,
        0.0,
        0.0,
        0.0,
        0.0,
        0.0,
        0.0,
        0.0
    ],
    "time": [
        0.02,
        0.040000000000000001,
        0.059999999999999998,
        0.080000000000000002,
        0.10000000000000001,
        0.12,
        0.14000000000000001,
        0.16,
        0.17999999999999999,
        0.20000000000000001,
        0.22,
        0.23999999999999999,
        0.26000000000000001,
        0.28000000000000003,
        0.29999999999999999,
        0.32000000000000001,
        0.34000000000000002,
        0.35999999999999999,
        0.38,
        0.40000000000000002,
        0.41999999999999998,
        0.44,
        0.46000000000000002,
        0.47999999999999998,
        0.5,
        0.52000000000000002,
        0.54000000000000004,
        0.56000000000000005,
        0.57999999999999996,
        0.59999999999999998,
        0.62,
        0.64000000000000001,
        0.66000000000000003,
        0.68000000000000005,
        0.69999999999999996,
        0.71999999999999997,
        0.73999999999999999,
        0.76000000000000001,
        0.78000000000000003,
        0.80000000000000004,
        0.81999999999999995,
        0.83999999999999997,
        0.85999999999999999,
        0.88,
        0.90000000000000002,
        0.92000000000000004,
        0.93999999999999995,
        0.95999999999999996,
        0.97999999999999998,
        1.0,
        1.02,
        1.04,
        1.0600000000000001,
        1.0800000000000001,
        1.1000000000000001,
        1.1200000000000001,
        1.1399999999999999,
        1.1599999999999999,
        1.1799999999999999,
        1.2,
        1.22,
        1.24,
        1.26,
        1.28,
        1.3,
        1.3200000000000001,
        1.3400000000000001,
        1.3600000000000001,
        1.3799999999999999,
        1.3999999999999999,
        1.4199999999999999,
        1.4399999999999999,
        1.46,
        1.48,
        1.5,
        1.52,
        1.54,
        1.5600000000000001,
        1.5800000000000001,
        1.6000000000000001,
        1.6200000000000001,
        1.6399999999999999,
        1.6599999999999999,
        1.6799999999999999,
        1.7,
        1.72,
        1.74,
        1.76,
        1.78,
        1.8,
        1.8200000000000001,
        1.8400000000000001,
        1.8600000000000001,
        1.8799999999999999,
        1.8999999999999999,
        1.9199999999999999,
        1.9399999999999999,
        1.96,
        1.98,
        2.0,
        2.02,
        2.04,
        2.0600000000000001,
        2.0800000000000001,
        2.1000000000000001,
        2.1200000000000001,
        2.1400000000000001,
        2.1600000000000001,
        2.1800000000000002,
        2.2000000000000002,
        2.2200000000000002,
        2.2400000000000002,
        2.2599999999999998,
        2.2799999999999998,
        2.2999999999999998,
        2.3199999999999998,
        2.3399999999999999,
        2.3599999999999999,
        2.3799999999999999,
        2.3999999999999999,
        2.4199999999999999,
        2.4399999999999999,
        2.46,
        2.48,
        2.5,
        2.52,
        2.54,
        2.5600000000000001,
        2.5800000000000001,
        2.6000000000000001,
        2.6200000000000001,
        2.6400000000000001,
        2.6600000000000001,
        2.6800000000000002,
        2.7000000000000002,
        2.7200000000000002,
        2.7400000000000002,
        2.7599999999999998,
        2.7799999999999998,
        2.7999999999999998,
        2.8199999999999998,
        2.8399999999999999,
        2.8599999999999999,
        2.8799999999999999,
        2.8999999999999999,
        2.9199999999999999,
        2.9399999999999999,
        2.96,
        2.98,
        3.0,
        3.02,
        3.04,
        3.0600000000000001,
        3.0800000000000001,
        3.1000000000000001,
        3.1200000000000001,
        3.1400000000000001,
        3.1600000000000001,
        3.1800000000000002,
        3.2000000000000002,
        3.2200000000000002,
        3.2400000000000002,
        3.2599999999999998,
        3.2799999999999998,
        3.2999999999999998,
        3.3199999999999998,
        3.3399999999999999,
        3.3599999999999999,
        3.3799999999999999,
        3.3999999999999999,
        3.4199999999999999,
        3.4399999999999999,
        3.46,
        3.48,
        3.5,
        3.52,
        3.54,
        3.5600000000000001,
        3.5800000000000001,
        3.6000000000000001,
        3.6200000000000001,
        3.6400000000000001,
        3.6600000000000001,
        3.6800000000000002,
        3.7000000000000002,
        3.7200000000000002,
        3.7400000000000002,
        3.7599999999999998,
        3.7799999999999998,
        3.7999999999999998,
        3.8199999999999998,
        3.8399999999999999,
        3.8599999999999999,
        3.8799999999999999,
        3.8999999999999999,
        3.9199999999999999,
        3.9399999999999999,
        3.96,
        3.98,
        4.0,
        4.0199999999999996,
        4.04,
        4.0599999999999996,
        4.0800000000000001,
        4.0999999999999996,
        4.1200000000000001,
        4.1399999999999997,
        4.1600000000000001,
        4.1799999999999997,
        4.2000000000000002,
        4.2199999999999998,
        4.2400000000000002,
        4.2599999999999998,
        4.2800000000000002,
        4.2999999999999998,
        4.3200000000000003,
        4.3399999999999999,
        4.3600000000000003,
        4.3799999999999999,
        4.4000000000000004,
        4.4199999999999999,
        4.4400000000000004,
        4.46,
        4.4800000000000004,
        4.5,
        4.5199999999999996,
        4.54,
        4.5599999999999996,
        4.5800000000000001,
        4.5999999999999996,
        4.6200000000000001,
        4.6399999999999997,
        4.6600000000000001,
        4.6799999999999997,
        4.7000000000000002,
        4.7199999999999998,
        4.7400000000000002,
        4.7599999999999998,
        4.7800000000000002,
        4.7999999999999998,
        4.8200000000000003,
        4.8399999999999999,
        4.8600000000000003,
        4.8799999999999999,
        4.9000000000000004,
        4.9199999999999999,
        4.9400000000000004,
        4.96,
        4.9800000000000004,
        5.0,
        5.0199999999999996,
        5.04,
        5.0599999999999996,
        5.0800000000000001,
        5.0999999999999996,
        5.1200000000000001,
        5.1399999999999997,
        5.1600000000000001,
        5.1799999999999997,
        5.2000000000000002,
        5.2199999999999998,
        5.2400000000000002,
        5.2599999999999998,
        5.2800000000000002,
        5.2999999999999998,
        5.3200000000000003,
        5.3399999999999999,
        5.3600000000000003,
        5.3799999999999999,
        5.4000000000000004,
        5.4199999999999999,
        5.4400000000000004,
        5.46,
        5.4800000000000004,
        5.5,
        5.5199999999999996,
        5.54,
        5.5599999999999996,
        5.5800000000000001,
        5.5999999999999996,
        5.6200000000000001,
        5.6399999999999997,
        5.6600000000000001,
        5.6799999999999997,
        5.7000000000000002,
        5.7199999999999998,
        5.7400000000000002,
        5.7599999999999998,
        5.7800000000000002,
        5.7999999999999998,
        5.8200000000000003,
        5.8399999999999999,
        5.8600000000000003,
        5.8799999999999999,
        5.9000000000000004,
        5.9199999999999999,
        5.9400000000000004,
        5.96,
        5.9800000000000004,
        6.0,
        6.0199999999999996,
        6.04,
        6.0599999999999996,
        6.0800000000000001,
        6.0999999999999996,
        6.1200000000000001,
        6.1399999999999997,
        6.1600000000000001,
        6.1799999999999997,
        6.2000000000000002,
        6.2199999999999998,
        6.2400000000000002,
        6.2599999999999998,
        6.2800000000000002,
        6.2999999999999998,
        6.3200000000000003,
        6.3399999999999999,
        6.3600000000000003,
        6.3799999999999999,
        6.4000000000000004,
        6.4199999999999999,
        6.4400000000000004,
        6.46,
        6.4800000000000004,
        6.5,
        6.5199999999999996,
        6.54,
        6.5599999999999996,
        6.5800000000000001,
        6.5999999999999996,
        6.6200000000000001,
        6.6399999999999997,
        6.6600000000000001,
        6.6799999999999997,
        6.7000000000000002,
        6.7199999999999998,
        6.7400000000000002,
        6.7599999999999998,
        6.7800000000000002,
        6.7999999999999998,
        6.8200000000000003,
        6.8399999999999999,
        6.8600000000000003,
        6.8799999999999999,
        6.9000000000000004,
        6.9199999999999999,
        6.9400000000000004,
        6.96,
        6.9800000000000004,
        7.0,
        7.0199999999999996,
        7.04,
        7.0599999999999996,
        7.0800000000000001,
        7.0999999999999996,
        7.1200000000000001,
        7.1399999999999997,
        7.1600000000000001,
        7.1799999999999997,
        7.2000000000000002,
        7.2199999999999998,
        7.2400000000000002,
        7.2599999999999998,
        7.2800000000000002,
        7.2999999999999998,
        7.3200000000000003,
        7.3399999999999999,
        7.3600000000000003,
        7.3799999999999999,
        7.4000000000000004,
        7.4199999999999999,
        7.4400000000000004,
        7.46,
        7.4800000000000004,
        7.5,
        7.5199999999999996,
        7.54,
        7.5599999999999996,
        7.5800000000000001,
        7.5999999999999996,
        7.6200000000000001,
        7.6399999999999997,
        7.6600000000000001,
        7.6799999999999997,
        7.7000000000000002,
        7.7199999999999998,
        7.7400000000000002,
        7.7599999999999998,
        7.7800000000000002,
        7.7999999999999998,
        7.8200000000000003,
        7.8399999999999999,
        7.8600000000000003,
        7.8799999999999999,
        7.9000000000000004,
        7.9199999999999999,
        7.9400000000000004,
        7.96,
        7.9800000000000004,
        8.0,
        8.0199999999999996,
        8.0399999999999991,
        8.0600000000000005,
        8.0800000000000001,
        8.0999999999999996,
        8.1199999999999992,
        8.1400000000000006,
        8.1600000000000001,
        8.1799999999999997,
        8.1999999999999993,
        8.2200000000000006,
        8.2400000000000002,
        8.2599999999999998,
        8.2799999999999994,
        8.3000000000000007,
        8.3200000000000003,
        8.3399999999999999,
        8.3599999999999994,
        8.3800000000000008,
        8.4000000000000004,
        8.4199999999999999,
        8.4399999999999995,
        8.4600000000000009,
        8.4800000000000004,
        8.5,
        8.5199999999999996,
        8.5399999999999991,
        8.5600000000000005,
        8.5800000000000001,
        8.5999999999999996,
        8.6199999999999992,
        8.6400000000000006,
        8.6600000000000001,
        8.6799999999999997,
        8.6999999999999993,
        8.7200000000000006,
        8.7400000000000002,
        8.7599999999999998,
        8.7799999999999994,
        8.8000000000000007,
        8.8200000000000003,
        8.8399999999999999,
        8.8599999999999994,
        8.8800000000000008,
        8.9000000000000004,
        8.9199999999999999,
        8.9399999999999995,
        8.9600000000000009,
        8.9800000000000004,
        9.0
    ]
}