{
    "f0": [
        41.945337422293697,
        46.821715490988836,
        45.339682459209108,
        44.98992632389303,
        45.91421461819332,
        45.455119608122573,
        46.6444994457392,
        46.075899751847352,
        42.807275040770456,
        40.667413197662675,
        42.631827890886768,
        42.749475423420868,
        43.87582968282409,
        43.759119831923371,
        43.670325319725443,
        42.678642064466302,
        41.626687553027665,
        40.216495069114352,
        40.077733439657599,
        40.914130188440545,
        42.261497236511744,
        40.393137602399534,
        42.238162510760596,
        41.023380970653335,
        50.633644906715318,
        50.244166512245513,
        50.276177034806437,
        50.546917781692223,
        49.808326741996488,
        49.285091944095974,
        48.893340892493889,
        48.759882219054845,
        48.491178827870826,
        48.218241166176163,
        48.452658692457376,
        49.073275308217461,
        47.585798321062065,
        47.9536195483266,
        47.4830878154727,
        47.306463880594357,
        47.652585379874481,
        47.634962539606228,
        47.61732688363756,
        47.771935014089536,
        48.529286388916987,
        48.261137193519389,
        48.197383974443611,
        48.295517984297305,
        48.255815344026104,
        48.07624742391841,
        48.179819718066696,
        48.282773983589429,
        48.035365103475776,
        47.979243018576057,
        47.997718807750573,
        48.84815869705514,
        48.560067854641176,
        48.992777385117414,
        50.002084801670655,
        50.249052918477524,
        52.985876730500166,
        53.777432477598296,
        53.685693769583409,
        53.678869794163461,
        53.62937354324103,
        53.579739786461609,
        53.529961880183798,
        53.528403582297145,
        53.746522457419687,
        54.002434134501051,
        54.250859124115657,
        53.790896304591939,
        53.643642402700962,
        53.504122084529051,
        54.03792847992132,
        54.272806361091099,
        54.294962897763952,
        53.894743725477724,
        0.0,
        0.0,
        53.822862686937718,
        53.995129668029577,
        53.288406471977922,
        53.288403449220816,
        53.1144062963184,
        53.026746671477781,
        52.894417894534726,
        52.895570100668536,
        52.89672532204812,
        52.940059020686917,
        53.043757325886396,
        53.116809167818793,
        53.204511479994764,
        53.199321185837888,
        53.272723255917597,
        53.288175765837636,
        52.982677250764638,
        53.334222369834535,
        53.215617894452699,
        53.261021561900513,
        53.269424369789988,
        53.277824564745899,
        53.308159835317639,
        53.327491418803007,
        53.346798524621853,
        53.708917670157085,
        53.698204773717499,
        53.659504511461883,
        53.620718979026037,
        53.407846401531742,
        53.62345983599868,
        53.65035069440853,
        54.113171751757065,
        53.997874784622013,
        54.608227782749069,
        53.57206155245504,
        54.694995716742753,
        54.511480312807109,
        54.633948025627461,
        54.787938579963551,
        54.223215425346282,
        54.167844836268515,
        54.360996084512351,
        54.087927109862555,
        54.020204704967753,
        54.079214613936728,
        54.138024067982791,
        54.196635904771341,
        54.160237763262352,
        54.211167197661752,
        54.191542687014703,
        54.188048498130527,
        54.212835879864215,
        54.19901603236255,
        54.372142508841577,
        54.391574639361991,
        54.137300190999056,
        54.627279899459509,
        54.583032624895736,
        54.636164240252739,
        54.623153466964339,
        54.610137154339085,
        54.769368595849102,
        54.503899430475975,
        54.615760509098692,
        54.226968992938154,
        54.253511887414824,
        54.280015622489621,
        54.306477465499313,
        54.505167034553338,
        54.442661520084364,
        54.070982557737764,
        53.849736765967343,
        54.390150650114116,
        54.30603274819758,
        54.408055075584187,
        54.372134082422946,
        55.380066157454635,
        55.471913623318564,
        41.965767955199034,
        43.315439220450457,
        48.473664577660948,
        36.180651008428072,
        45.329427480670098,
        46.183489523857887,
        50.260937709872408,
        45.33759228262781,
        0.0,
        0.0,
        0.0,
        52.979681562759041,
        41.381930143293573,
        53.415676103691425,
        53.587939612707757,
        53.673543444070894,
        53.72629268884031,
        53.778880372212846,
        53.831307287759017,
        53.798288853676638,
        53.80238406016089,
        53.726832314257322,
        53.770722713559309,
        53.814506473981787,
        53.816241256808134,
        53.664958929525042,
        53.58137246937352,
        53.805562788728963,
        53.696385456135715,
        54.037689153446649,
        54.038544009055464,
        54.033127591511843,
        53.862125485071076,
        53.773235979809598,
        52.416495651778284,
        52.585419735288063,
        52.373628995087884,
        52.450263655203578,
        52.502835187380761,
        52.393085849907116,
        52.615483661161612,
        52.835060703229473,
        53.051893664782312,
        53.266047333475399,
        53.460220015873759,
        53.660831177522681,
        54.027162052288723,
        54.129824207577464,
        54.009883856742043,
        54.244855588515875,
        53.790374585633089,
        54.165864827329678,
        54.077959405859048,
        54.190999028296957,
        53.975618923089932,
        54.158907744204264,
        54.286050610699967,
        51.432706005841808,
        50.81833460792862,
        50.627156882629436,
        50.433842573359854,
        50.410612283300544,
        50.387349050705993,
        50.364052784599352,
        50.340725012133227,
        50.361048809954646,
        50.381348891992602,
        50.57388764771612,
        50.679333797028377,
        50.652430746382791,
        50.358419774568063,
        50.538532900354014,
        50.691314171720492,
        51.027655558992272,
        50.67703634594114,
        50.613235831301708,
        50.745075216669875,
        50.685198714795632,
        49.974920215633922,
        49.402609283299199,
        49.70316100784234,
        49.521949511965076,
        49.578211299530594,
        49.709592916950925,
        49.839979642210857,
        49.969395366211188,
        50.609590592837137,
        50.807939222824785,
        51.004041076605816,
        50.825392963225944,
        50.699970878355494,
        50.71817749965971,
        50.736365106975981,
        50.227213926293331,
        50.5289820102346,
        51.180802287445815,
        50.750590606991068,
        50.465338304560731,
        50.775203414923119,
        50.675406494586625,
        50.802701423571278,
        50.929070441227395,
        0.0,
        38.762134456651474,
        40.172144304176427,
        38.404339022249424,
        38.174908155295725,
        47.825709214459025,
        47.90539182755748,
        47.810718007699649,
        48.522672814639741,
        48.469842443732468,
        48.633608179845503,
        48.72361004772722,
        48.813148334748483,
        48.552468631125038,
        48.662957315651056,
        48.714477796708472,
        48.620925719468147,
        48.526869210826518,
        48.77512639097381,
        49.166444936812255,
        49.127833414838051,
        49.546169879626206,
        49.480127003168022,
        49.221150972816012,
        49.056327238461364,
        49.012732740068351,
        49.25041017674576,
        48.94721766677165,
        48.730482149174662,
        48.807372952453875,
        48.883923637646404,
        49.132394558295786,
        49.292644483422634,
        49.143685312683701,
        48.993433332945656,
        49.014124978230484,
        49.269935774271779,
        49.522023569032598,
        49.420738115426296,
        49.406158354119093,
        49.391566303969675,
        49.486972282060037,
        49.322426808365421,
        49.564931359535557,
        49.119330305777012,
        49.314924788729257,
        49.508335812166145,
        49.525616592530923,
        49.630008804012718,
        49.340768728792924,
        49.133675067782413,
        50.170006144515014,
        50.128297077798322,
        50.527603377814188,
        50.127543356448697,
        50.421026038126548,
        49.477699997061379,
        49.610657190877326,
        50.05407522208457,
        50.486419112527742,
        50.558472731767083,
        50.640251851827486,
        50.542660488050529,
        50.226977813731722,
        50.528310147924827,
        50.093032384630888,
        49.376747436402198,
        50.109963097404645,
        50.567102079019548,
        50.244920404600052,
        50.302056651267648,
        49.831683093307312,
        47.932844402694577,
        47.623171634073195,
        46.575676378035155,
        46.366720353522538,
        44.46479093836497,
        45.409000675744636,
        46.955680373847329,
        47.016464187069019,
        46.87947871781904,
        46.236807729014338,
        43.446274662958764,
        42.794445639401566,
        42.122293979812042,
        42.089850604894899,
        41.621135070887561,
        41.814679666862013,
        43.913564117338943,
        45.785281635605543,
        48.279290905446459,
        49.046538177682322,
        45.421912136612299,
        45.514895043903458,
        45.846934981835879,
        47.57436288790386,
        49.870565206488799,
        50.340837960436502,
        50.686212082616606,
        43.468783924822077,
        35.889565145679029,
        48.506031803962159,
        35.016814805601669,
        36.764898792430486,
        37.789171628536636,
        38.756214511338676,
        39.361537070547264,
        0.0,
        0.0,
        0.0,
        0.0,
        0.0,
        0.0,
        0.0,
        0.0,
        0.0,
        0.0,
        0.0,
        0.0,
        0.0,
        0.0,
        0.0,
        0.0,
        0.0,
        0.0,
        0.0,
        0.0,
        0.0,
        0.0,
        0.0,
        0.0,
        0.0,
        0.0,
        0.0,
        0.0,
        0.0,
        0.0,
        0.0,
        0.0,
        0.0,
        0.0,
        0.0,
        0.0,
        0.0,
        0.0,
        0.0,
        0.0,
        0.0,
        0.0,
        0.0,
        0.0,
        0.0,
        0.0,
        0.0,
        0.0,
        0.0,
        0.0,
        0.0,
        0.0,
        0.0,
        0.0,
        0.0,
        0.0,
        0.0,
        0.0,
        0.0
    ],
    "time": [
        0.02,
        0.040000000000000001,
        0.059999999999999998,
        0.080000000000000002,
        0.10000000000000001,
        0.12,
        0.14000000000000001,
        0.16,
        0.17999999999999999,
        0.20000000000000001,
        0.22,
        0.23999999999999999,
        0.26000000000000001,
        0.28000000000000003,
        0.29999999999999999,
        0.32000000000000001,
        0.34000000000000002,
        0.35999999999999999,
        0.38,
        0.40000000000000002,
        0.41999999999999998,
        0.44,
        0.46000000000000002,
        0.47999999999999998,
        0.5,
        0.52000000000000002,
        0.54000000000000004,
        0.56000000000000005,
        0.57999999999999996,
        0.59999999999999998,
        0.62,
        0.64000000000000001,
        0.66000000000000003,
        0.68000000000000005,
        0.69999999999999996,
        0.71999999999999997,
        0.73999999999999999,
        0.76000000000000001,
        0.78000000000000003,
        0.80000000000000004,
        0.81999999999999995,
        0.83999999999999997,
        0.85999999999999999,
        0.88,
        0.90000000000000002,
        0.92000000000000004,
        0.93999999999999995,
        0.95999999999999996,
        0.97999999999999998,
        1.0,
        1.02,
        1.04,
        1.0600000000000001,
        1.0800000000000001,
        1.1000000000000001,
        1.1200000000000001,
        1.1399999999999999,
        1.1599999999999999,
        1.1799999999999999,
        1.2,
        1.22,
        1.24,
        1.26,
        1.28,
        1.3,
        1.3200000000000001,
        1.3400000000000001,
        1.3600000000000001,
        1.3799999999999999,
        1.3999999999999999,
        1.4199999999999999,
        1.4399999999999999,
        1.46,
        1.48,
        1.5,
        1.52,
        1.54,
        1.5600000000000001,
        1.5800000000000001,
        1.6000000000000001,
        1.6200000000000001,
        1.6399999999999999,
        1.6599999999999999,
        1.6799999999999999,
        1.7,
        1.72,
        1.74,
        1.76,
        1.78,
        1.8,
        1.8200000000000001,
        1.8400000000000001,
        1.8600000000000001,
        1.8799999999999999,
        1.8999999999999999,
        1.9199999999999999,
        1.9399999999999999,
        1.96,
        1.98,
        2.0,
        2.02,
        2.04,
        2.0600000000000001,
        2.0800000000000001,
        2.1000000000000001,
        2.1200000000000001,
        2.1400000000000001,
        2.1600000000000001,
        2.1800000000000002,
        2.2000000000000002,
        2.2200000000000002,
        2.2400000000000002,
        2.2599999999999998,
        2.2799999999999998,
        2.2999999999999998,
        2.3199999999999998,
        2.3399999999999999,
        2.3599999999999999,
        2.3799999999999999,
        2.3999999999999999,
        2.4199999999999999,
        2.4399999999999999,
        2.46,
        2.48,
        2.5,
        2.52,
        2.54,
        2.5600000000000001,
        2.5800000000000001,
        2.6000000000000001,
        2.6200000000000001,
        2.6400000000000001,
        2.6600000000000001,
        2.6800000000000002,
        2.7000000000000002,
        2.7200000000000002,
        2.7400000000000002,
        2.7599999999999998,
        2.7799999999999998,
        2.7999999999999998,
        2.8199999999999998,
        2.8399999999999999,
        2.8599999999999999,
        2.8799999999999999,
        2.8999999999999999,
        2.9199999999999999,
        2.9399999999999999,
        2.96,
        2.98,
        3.0,
        3.02,
        3.04,
        3.0600000000000001,
        3.0800000000000001,
        3.1000000000000001,
        3.1200000000000001,
        3.1400000000000001,
        3.1600000000000001,
        3.1800000000000002,
        3.2000000000000002,
        3.2200000000000002,
        3.2400000000000002,
        3.2599999999999998,
        3.2799999999999998,
        3.2999999999999998,
        3.3199999999999998,
        3.3399999999999999,
        3.3599999999999999,
        3.3799999999999999,
        3.3999999999999999,
        3.4199999999999999,
        3.4399999999999999,
        3.46,
        3.48,
        3.5,
        3.52,
        3.54,
        3.5600000000000001,
        3.5800000000000001,
        3.6000000000000001,
        3.6200000000000001,
        3.6400000000000001,
        3.6600000000000001,
        3.6800000000000002,
        3.7000000000000002,
        3.7200000000000002,
        3.7400000000000002,
        3.7599999999999998,
        3.7799999999999998,
        3.7999999999999998,
        3.8199999999999998,
        3.8399999999999999,
        3.8599999999999999,
        3.8799999999999999,
        3.8999999999999999,
        3.9199999999999999,
        3.9399999999999999,
        3.96,
        3.98,
        4.0,
        4.0199999999999996,
        4.04,
        4.0599999999999996,
        4.0800000000000001,
        4.0999999999999996,
        4.1200000000000001,
        4.1399999999999997,
        4.1600000000000001,
        4.1799999999999997,
        4.2000000000000002,
        4.2199999999999998,
        4.2400000000000002,
        4.2599999999999998,
        4.2800000000000002,
        4.2999999999999998,
        4.3200000000000003,
        4.3399999999999999,
        4.3600000000000003,
        4.3799999999999999,
        4.4000000000000004,
        4.4199999999999999,
        4.4400000000000004,
        4.46,
        4.4800000000000004,
        4.5,
        4.5199999999999996,
        4.54,
        4.5599999999999996,
        4.5800000000000001,
        4.5999999999999996,
        4.6200000000000001,
        4.6399999999999997,
        4.6600000000000001,
        4.6799999999999997,
        4.7000000000000002,
        4.7199999999999998,
        4.7400000000000002,
        4.7599999999999998,
        4.7800000000000002,
        4.7999999999999998,
        4.8200000000000003,
        4.8399999999999999,
        4.8600000000000003,
        4.8799999999999999,
        4.9000000000000004,
        4.9199999999999999,
        4.9400000000000004,
        4.96,
        4.9800000000000004,
        5.0,
        5.0199999999999996,
        5.04,
        5.0599999999999996,
        5.0800000000000001,
        5.0999999999999996,
        5.1200000000000001,
        5.1399999999999997,
        5.1600000000000001,
        5.1799999999999997,
        5.2000000000000002,
        5.2199999999999998,
        5.2400000000000002,
        5.2599999999999998,
        5.2800000000000002,
        5.2999999999999998,
        5.3200000000000003,
        5.3399999999999999,
        5.3600000000000003,
        5.3799999999999999,
        5.4000000000000004,
        5.4199999999999999,
        5.4400000000000004,
        5.46,
        5.4800000000000004,
        5.5,
        5.5199999999999996,
        5.54,
        5.5599999999999996,
        5.5800000000000001,
        5.5999999999999996,
        5.6200000000000001,
        5.6399999999999997,
        5.6600000000000001,
        5.6799999999999997,
        5.7000000000000002,
        5.7199999999999998,
        5.7400000000000002,
        5.7599999999999998,
        5.7800000000000002,
        5.7999999999999998,
        5.8200000000000003,
        5.8399999999999999,
        5.8600000000000003,
        5.8799999999999999,
        5.9000000000000004,
        5.9199999999999999,
        5.9400000000000004,
        5.96,
        5.9800000000000004,
        6.0,
        6.0199999999999996,
        6.04,
        6.0599999999999996,
        6.0800000000000001,
        6.0999999999999996,
        6.1200000000000001,
        6.1399999999999997,
        6.1600000000000001,
        6.1799999999999997,
        6.2000000000000002,
        6.2199999999999998,
        6.2400000000000002,
        6.2599999999999998,
        6.2800000000000002,
        6.2999999999999998,
        6.3200000000000003,
        6.3399999999999999,
        6.3600000000000003,
        6.3799999999999999,
        6.4000000000000004,
        6.4199999999999999,
        6.4400000000000004,
        6.46,
        6.4800000000000004,
        6.5,
        6.5199999999999996,
        6.54,
        6.5599999999999996,
        6.5800000000000001,
        6.5999999999999996,
        6.6200000000000001,
        6.6399999999999997,
        6.6600000000000001,
        6.6799999999999997,
        6.7000000000000002,
        6.7199999999999998,
        6.7400000000000002,
        6.7599999999999998,
        6.7800000000000002,
        6.7999999999999998,
        6.8200000000000003,
        6.8399999999999999,
        6.8600000000000003,
        6.8799999999999999,
        6.9000000000000004,
        6.9199999999999999,
        6.9400000000000004,
        6.96,
        6.9800000000000004,
        7.0,
        7.0199999999999996,
        7.04,
        7.0599999999999996,
        7.0800000000000001,
        7.0999999999999996,
        7.1200000000000001,
        7.1399999999999997,
        7.1600000000000001,
        7.1799999999999997,
        7.2000000000000002,
        7.2199999999999998,
        7.2400000000000002,
        7.2599999999999998,
        7.2800000000000002,
        7.2999999999999998,
        7.3200000000000003,
        7.3399999999999999,
        7.3600000000000003,
        7.3799999999999999,
        7.4000000000000004,
        7.4199999999999999,
        7.4400000000000004,
        7.46,
        7.4800000000000004,
        7.5,
        7.5199999999999996,
        7.54,
        7.5599999999999996,
        7.5800000000000001,
        7.5999999999999996,
        7.6200000000000001,
        7.6399999999999997,
        7.6600000000000001,
        7.6799999999999997,
        7.7000000000000002,
        7.7199999999999998,
        7.7400000000000002,
        7.7599999999999998,
        7.7800000000000002,
        7.7999999999999998,
        7.8200000000000003,
        7.8399999999999999,
        7.8600000000000003,
        7.8799999999999999,
        7.9000000000000004,
        7.9199999999999999,
        7.9400000000000004,
        7.96,
        7.9800000000000004,
        8.0,
        8.0199999999999996,
        8.0399999999999991,
        8.0600000000000005,
        8.0800000000000001,
        8.0999999999999996,
        8.1199999999999992,
        8.1400000000000006,
        8.1600000000000001,
        8.1799999999999997,
        8.1999999999999993,
        8.2200000000000006,
        8.2400000000000002,
        8.2599999999999998,
        8.2799999999999994,
        8.3000000000000007,
        8.3200000000000003,
        8.3399999999999999,
        8.3599999999999994,
        8.3800000000000008,
        8.4000000000000004,
        8.4199999999999999,
        8.4399999999999995,
        8.4600000000000009,
        8.4800000000000004,
        8.5,
        8.5199999999999996,
        8.5399999999999991
    ]
}