{
    "DU": 0,
    "DV": 402,
    "F-measure": 0.6833333333333333,
    "F-measure Chroma": 0.7666666666666666,
    "FN": 0,
    "FNC": 0,
    "FNCch": 0,
    "FNI": 0,
    "FNIch": 0,
    "FP": 84,
    "GU": 84,
    "GV": 318,
    "Overall Accuracy": 0.6119402985074627,
    "Overall Chroma Accuracy": 0.6865671641791045,
    "Precision": 0.6119402985074627,
    "Precision Chroma": 0.6865671641791045,
    "Raw Chroma Accuracy": 0.8679245283018868,
    "Raw Pitch Accuracy": 0.7735849056603774,
    "Recall": 0.7735849056603774,
    "Recall Chroma": 0.8679245283018868,
    "TN": 0,
    "TO": 402,
    "TP": 318,
    "TPC": 246,
    "TPCch": 276,
    "TPI": 72,
    "TPIch": 42,
    "Voiced Chroma Accuracy": 0.8679245283018868,
    "Voiced Pitch Accuracy": 0.7735849056603774,
    "Voicing Accuracy": 0.7910447761194029,
    "Voicing Detection": 1.0,
    "Voicing False Alarm": 1.0
}