{
    "DU": 0,
    "DV": 386,
    "F-measure": 0.6218750000000001,
    "F-measure Chroma": 0.7218749999999999,
    "FN": 0,
    "FNC": 0,
    "FNCch": 0,
    "FNI": 0,
    "FNIch": 0,
    "FP": 132,
    "GU": 132,
    "GV": 254,
    "Overall Accuracy": 0.5155440414507773,
    "Overall Chroma Accuracy": 0.5984455958549223,
    "Precision": 0.5155440414507773,
    "Precision Chroma": 0.5984455958549223,
    "Raw Chroma Accuracy": 0.9094488188976378,
    "Raw Pitch Accuracy": 0.7834645669291339,
    "Recall": 0.7834645669291339,
    "Recall Chroma": 0.9094488188976378,
    "TN": 0,
    "TO": 386,
    "TP": 254,
    "TPC": 199,
    "TPCch": 231,
    "TPI": 55,
    "TPIch": 23,
    "Voiced Chroma Accuracy": 0.9094488188976378,
    "Voiced Pitch Accuracy": 0.7834645669291339,
    "Voicing Accuracy": 0.6580310880829016,
    "Voicing Detection": 1.0,
    "Voicing False Alarm": 1.0
}