{
    "DU": 101,
    "DV": 400,
    "F-measure": 0.654292343387471,
    "F-measure Chroma": 0.7888631090487239,
    "FN": 48,
    "FNC": 13,
    "FNCch": 32,
    "FNI": 35,
    "FNIch": 16,
    "FP": 92,
    "GU": 145,
    "GV": 356,
    "Overall Accuracy": 0.562874251497006,
    "Overall Chroma Accuracy": 0.6786427145708582,
    "Precision": 0.6225165562913907,
    "Precision Chroma": 0.7505518763796909,
    "Raw Chroma Accuracy": 0.8960674157303371,
    "Raw Pitch Accuracy": 0.6797752808988764,
    "Recall": 0.6894865525672371,
    "Recall Chroma": 0.8312958435207825,
    "TN": 53,
    "TO": 501,
    "TP": 308,
    "TPC": 229,
    "TPCch": 287,
    "TPI": 79,
    "TPIch": 21,
    "Voiced Chroma Accuracy": 0.8061797752808989,
    "Voiced Pitch Accuracy": 0.6432584269662921,
    "Voicing Accuracy": 0.720558882235529,
    "Voicing Detection": 0.8651685393258427,
    "Voicing False Alarm": 0.6344827586206897
}