{
	"f0": [NaN,76.93035138,76.93035138,76.93035138,76.93035138,76.93035138,76.93035138,76.93035138,76.93035138,68.49094105,58.9446811,37.34927824,36.73817965,43.01284693,43.78826823,44.13697091,35.34887861,37.67296043,37.6376828,36.84734843,36.99210636,45.78580198,40.83651733,37.91565014,39.05933366,44.53475515,43.97526013,43.78826823,43.69936748,43.99648315,44.36595963,45.19044147,44.81329574,45.26513138,47.29856716,47.70140876,48.18673601,47.7782279,46.52395645,37.42557963,50.76398148,51.11246985,51.67864661,51.57991693,51.48738883,51.89580096,52.16333606,51.87715443,51.6992088,51.66385406,51.66481934,51.66081541,36.88589658,36.8872213,41.50429368,53.4095643,53.33942723,53.07344286,52.92518721,53.13742783,53.18632429,53.31562792,53.48846216,53.58791797,53.84622491,54.16807577,54.38061792,54.08733965,54.05920574,54.23031753,54.38145545,54.22134554,54.11899371,54.04903396,54.1077301,54.02441291,53.7106723,53.51111403,53.50750704,53.68050823,53.67529432,53.57128144,53.48401086,53.61559048,53.71141623,53.74082712,53.66251989,53.65118137,53.66924053,53.67422165,53.72015747,53.74301159,53.74185701,53.91805542,53.91770331,53.90975609,53.98661295,54.00231253,53.91800215,53.8620373,53.80118451,53.55185754,53.71270907,53.83891504,53.69991543,53.73598807,53.77035271,53.67783686,53.68481344,53.7077941,46.54970563,37.72929211,37.20456095,37.3373659,47.43874716,46.03670986,45.89588331,48.94466134,49.3709473,50.26439942,50.31601626,51.83464801,52.55802863,53.22720691,53.71069936,54.01429111,54.25714528,54.52592071,54.26696693,54.38527348,54.52754505,55.93708486,56.5954518,56.79686092,56.88257133,56.92337181,56.85256793,56.85234153,56.97675889,56.83545348,56.69991577,56.83738897,57.26195751,57.86598004,57.91267123,57.80899395,57.77136094,57.98668445,58.04114129,58.00396052,58.03149645,58.04646965,57.94407321,57.58721486,57.1421135,56.94830438,56.80961351,56.42545536,56.01165637,56.01165637,54.70559343,54.26882139,47.76273913,56.23796469,54.9224708,54.05403921,53.50429368,53.89637423,54.13806503,53.81022539,53.67112597,53.67614084,53.64681175,53.52953116,53.34295536,53.3111266,53.36830653,53.44277703,53.47322661,53.46574182,53.49644158,53.62417112,53.70193089,53.81324302,53.87200059,53.7208776,53.73508008,53.98611156,53.96770845,53.73871768,53.64900483,53.60737702,53.61317309,53.79933048,53.879491,53.82476018,53.71895855,53.60479021,53.76493784,53.62870463,53.57927399,53.65841855,53.61650279,53.84983776,54.0979178,54.10566603,53.81888993,53.76059945,62.40830747,63.48682058,63.50362126,64.46132063,52.72008211,52.88259482,53.83234675,53.61169276,53.58400191,53.89268267,53.96494727,53.63514016,45.78827912,57.10805866,57.08195925,57.16485163,57.21767237,57.20509726,57.06149084,56.9896704,57.10471965,56.93833944,56.43723346,56.23796469,56.40206686,57.37053362,59.53930362,59.29857042,59.1975674,59.12005753,59.01215743,58.94993772,58.89753898,59.0460331,59.19694554,59.47492168,59.85171287,60.05210472,60.04457777,60.09596285,60.24700478,60.19335069,60.11727966,60.12675583,60.06734093,60.06855684,60.05303165,59.99997441,59.99450318,60.01864598,60.10206561,60.17750029,60.15203007,60.10664023,60.09960811,60.12926384,60.1225568,60.11473865,60.07669381,60.05428202,60.07599115,60.00153258,59.92892547,59.99457069,59.9396851,59.74932303,59.64606027,59.43818828,59.40566495,60.06475861,60.4625577,60.44133275,60.34879905,60.36389782,60.36957298,60.21921659,59.66930661,59.44716705,60.20991577,60.05405607,59.97465164,60.1588151,60.22845389,60.91732291,60.75852118,60.89829245,60.98038703,60.86847729,60.79464347,60.83479179,60.88256393,60.83503098,60.79234387,60.81884994,60.91362252,60.98670788,61.02901741,61.04758613,61.00378038,60.88384788,60.72465478,60.65497651,60.56603139,59.86171864,58.96051983,58.95723128,58.81305607,58.70352275,58.61989271,58.461739,58.45829006,58.47766498,58.34882818,58.32368579,58.37693686,58.29334107,58.13242028,57.82682113,57.6636292,57.66169865,45.77532037,36.99210636,55.24772932,56.23796469,56.93520015,56.51551809,56.48617398,56.6092744,56.56723809,56.51983831,56.58471897,56.6392662,56.65515184,56.8292966,56.98150316,57.1816338,57.3745214,57.48465451,57.82845223,57.65828039,57.60785686,57.59811118,57.49336102,57.53400014,57.64003802,57.65138822,57.66656151,57.70260484,57.7537135,57.77619838,57.79995867,57.76087599,57.70778765,57.65549375,57.63713763,57.67779842,57.74704397,57.7964412,57.8199419,57.72994712,57.58894495,57.53628506,57.51719533,57.48108346,57.39527159,57.33100147,57.3428293,57.36187534,57.38085474,57.3738639,57.31990038,57.26533783,57.15081593,57.08823122,57.16960613,57.29945961,57.38066407,57.57283137,57.42154738,57.40904842,57.41026605,57.52845392,57.63188053,57.65307039,38.52238036,38.43334918,38.47772044,45.38936363,57.1631308,57.41612942,57.14814519,57.11831884,57.35478355,57.34986957,57.29795303,38.37460794,38.21974713,38.39657941,38.22609963,37.89663832,44.58527767,57.41612942,38.49015521,37.87402815,37.44772056,39.39264766,56.62921187,56.64444356,37.19997264,37.28098986,37.26856003,37.2521712,37.37231306,44.39244266,44.17117463,42.32273189,42.463646,46.86288328,46.48745162,37.2742429,37.19360777,36.11754902,37.14695346,37.21783626,37.89283898,37.83387774,39.28348991,39.30698894,37.26437876,40.58593948,40.67052908,37.94590009,42.49912559,42.40254162,42.35802075,43.00684897,43.24727114,37.45282968,37.91218502,37.60778829,42.71262168,35.34887861,35.34887861,41.32864868,37.60229605,37.97112598,36.32458199,55.52185115,48.47528169,44.81702672,37.65827527,37.674383,37.58897836,38.80781824,38.70798877,37.60229605,38.31079906,39.94823406,36.74231538,40.19354484,40.01414075,36.96251659,38.64214864,38.64214864,38.37213017,38.03994304,38.47440009,39.67956186,35.34887861,36.29659291,38.23478066,38.35809405,37.10489073,38.31724978,40.34296574,40.52171664,37.85364918,35.97343959,36.18673601,36.15671584,38.96808657,36.91732291,35.62368344,35.34887861,35.49555281,35.46056417,35.34887861,40.00298948,35.76273913,35.38299161,38.11441628,44.52507476,67.34995772,39.61715249,36.62137826,35.47200127,36.3665127,39.01715985,39.70458874,38.39657941,37.3709473,42.97533295,35.34887861,76.93035138,35.79767827,35.34887861,35.34887861,37.10489073,NaN,NaN,NaN],
	"ap0": [NaN,1,1,1,1,1,1,1,1,0.5859946599,1.318934722,0.6846916156,0.6474897804,0.6426644224,0.5681297581,0.6852742134,0.7781774561,0.6702168504,0.5793638211,0.3389218231,0.4697101551,1.581178007,0.6344156204,0.4414215498,0.619598068,0.5836690933,0.232303552,0.2569495386,0.258491939,0.1174278757,0.2855780181,0.3075497232,0.2339064261,0.5950186619,0.3535247789,0.3699142131,0.5380393991,0.5347212111,0.2982905348,0.5592134974,0.2605260794,0.244206258,0.3571527145,0.2014717204,0.1638093038,0.1269529588,0.09615216014,0.1769920727,0.2413043032,0.2639011766,0.1068951756,0.397583206,0.3649002306,0.3370258181,0.525517882,0.2133626177,0.1150885242,0.04212931908,0.05632205336,0.06239953672,0.03426506344,0.02343919524,0.01062757898,0.01522762667,0.01980071623,0.02944671777,0.03489626028,0.02618378867,0.02667447766,0.0235772819,0.01361498731,0.01203526257,0.02365463596,0.06018920448,0.08418193425,0.3346449826,0.2186184319,0.1196688831,0.06608843184,0.019136145,0.01617219506,0.02765561264,0.01811007896,0.007367954979,0.008553917546,0.008166364944,0.009587878188,0.009583656039,0.005737917674,0.005978276022,0.01556260545,0.02556695116,0.03525390924,0.03225247258,0.01330249364,0.006299293004,0.01105950646,0.01633523184,0.01559512693,0.02164250974,0.04329410355,0.06310053291,0.1187968207,0.1137275305,0.09006202092,0.09301463511,0.0682199719,0.05556627264,0.04471571282,0.3278214309,0.6889617863,0.5699910597,0.6076988726,0.565750849,0.5580352431,0.3102144735,0.2429012633,0.2611937115,0.2221248642,0.1531249022,0.1336870819,0.2616993871,0.1758752678,0.225086734,0.1207482225,0.05533532852,0.10729738,0.2471955535,0.1918237795,0.06323917917,0.09562077687,0.1608202977,0.05865653344,0.01817740072,0.01713982782,0.007137672802,0.007288963283,0.01765074255,0.02388352298,0.02521289903,0.05631370904,0.179178398,0.2436332511,0.09682541704,0.0384948916,0.03015665442,0.04414438287,0.04379871672,0.02771114742,0.02150271029,0.01267609639,0.01074768349,0.019520019,0.04116850108,0.03255137295,0.03296408829,0.06314571329,0.1770489194,0.1170379564,0.1097536719,0.165455292,0.2416579871,0.7537593968,0.5809722181,0.2904428279,0.3714151242,0.4204369893,0.3374232808,0.1988106031,0.09072846715,0.04467865038,0.03152920064,0.02583229345,0.03375752567,0.02426474126,0.01164872408,0.01228751873,0.008113462655,0.003896859686,0.002905395921,0.003978255607,0.004811708418,0.003820861032,0.007287303883,0.02417408143,0.04615852062,0.04922460477,0.05612905154,0.02456407254,0.01179117426,0.01395900296,0.02307181396,0.03943579077,0.07566875206,0.1134206775,0.1402511907,0.1849571823,0.1368064337,0.1312662735,0.1890804274,0.1964102205,0.2328879171,0.2347502796,0.2818008417,0.3270837413,0.4116976641,0.4500005908,0.4681000336,0.6430023382,0.2835722375,0.2736471898,0.2710883368,0.1438748335,0.1344768111,0.0843883273,0.1146377197,0.107601281,0.1504734995,0.1746562704,0.3750469256,0.3970566963,0.3499362829,0.2119675584,0.06076413559,0.02470840001,0.01312074537,0.01462339838,0.01952437463,0.04386279678,0.06426058631,0.04898293547,0.1106014323,0.2098196479,0.5572301465,0.2394893437,0.1171925312,0.06477323039,0.05642927587,0.03359767801,0.01746915684,0.03620197587,0.06181933562,0.06574038395,0.09095900088,0.08631339327,0.06738506934,0.05569034602,0.04122670109,0.0238203329,0.01607962396,0.00993114719,0.0113872854,0.0207548155,0.01442616872,0.01404130613,0.02120083924,0.01720054234,0.008847569268,0.007498896296,0.004545539205,0.003846753057,0.002579628395,0.002523782736,0.003110822381,0.003000884006,0.003839296518,0.00618290918,0.00551437007,0.005505733852,0.01205262462,0.02200126073,0.009612399794,0.01114880977,0.01642385021,0.008867418949,0.01088927786,0.02629468475,0.06958142093,0.01842644174,0.006153955207,0.004161884611,0.00344619644,0.006689930402,0.01735516858,0.07229732156,0.1439767224,0.2329221873,0.2508061809,0.2586906512,0.1627695079,0.1527083338,0.1700628958,0.04470058689,0.01544659662,0.00842563765,0.006321570593,0.00971803035,0.008951117606,0.004178497602,0.003684245687,0.00395987305,0.003387083059,0.003331512329,0.002118220274,0.002344577705,0.002892655804,0.00300109809,0.005858919535,0.01442954844,0.03050490432,0.08336368591,0.2011492643,0.1627606434,0.2193101489,0.1993629217,0.1022794189,0.0563442356,0.03733455187,0.05746965015,0.05387873383,0.0318907911,0.02043478811,0.01142090585,0.009749782163,0.02117505055,0.09407908856,0.08954038397,0.6469852257,0.6119420196,0.5316005483,0.4251088901,0.4666280166,0.255688755,0.1238109761,0.1293616169,0.2434586625,0.2838683434,0.1433729079,0.1257655115,0.08559985734,0.0515124811,0.04111241467,0.03670209734,0.06511254814,0.1567174845,0.2304655217,0.0716022547,0.04888539055,0.04469788719,0.04628320764,0.02707852016,0.01395046911,0.01224010768,0.01500386684,0.01598456902,0.02571191214,0.01945440109,0.007264106724,0.004294031146,0.003436860722,0.002379968911,0.003450428377,0.003686544429,0.004601118167,0.005285383188,0.00339278822,0.003398903439,0.003211504417,0.0018332443,0.002593524096,0.004318361229,0.006015261541,0.008977861936,0.006591492869,0.002834052985,0.0012228512,0.001089688034,0.001479125657,0.001585049275,0.002265091435,0.002650918264,0.004405151828,0.0135760249,0.04187215676,0.09679381906,0.229357486,0.2051799812,0.06743458773,0.1118909427,0.1218754023,0.1674778405,0.1503271658,0.09697960633,0.1303726979,0.1452448406,0.1508191438,0.1621355813,0.1821295753,0.1925366781,0.1205878109,0.1338602362,0.2216609841,0.4146129,0.2491720911,0.2499037477,0.3506944731,0.5450927305,0.7927206755,0.7492661718,0.511441383,0.4214090369,0.6011337098,0.6338246162,0.8170062891,0.6324703224,0.7717222216,0.7160918486,0.5285003898,0.704875328,0.6774775925,0.6155387828,0.7633219417,0.7612638845,0.5631342901,0.6075425782,0.6438481356,0.5608768383,0.5552103653,0.5451502159,0.5391954129,0.5845217455,0.6093210452,0.7234024889,0.6657177663,0.5150819256,0.5869203169,0.6645640626,0.6487552901,0.6915750233,0.626074783,0.7483321376,0.5266107209,0.4638380529,0.6131837241,0.6633922837,0.6120077965,0.5755239282,0.5315549738,0.7499607699,0.7345125332,1.036881571,0.824558724,0.5664828764,0.6061255229,0.76130423,0.6449967551,0.7069194482,0.8311283391,0.559092403,0.7075446973,0.631962965,0.3811966695,0.4024690404,0.5092012723,0.6560592976,0.825492561,0.7500726966,0.6155395272,0.4327487229,0.4063314904,0.2370490805,0.1189297598,0.2489311545,0.4202288407,0.7467187109,0.9677849442,0.6732765877,0.41934959,0.3928961257,0.5811348081,0.4328087867,0.4988852649,0.4340870978,0.5854678709,0.6094962571,0.2532454787,0.1889579188,0.5219510109,0.6536913697,0.3842258289,0.5232100199,1.319455171,0.7287330602,0.8847822577,0.9210854471,0.7521243604,1.343167903,0.8810842535,0.8568183716,3.27340522,1.062027231,1.162201785,0.8079848815,0.6335793197,0.8084062499,0.9947449215,0.6841130127,0.6544034751,0.6355812818,0.6568868308,1.012893469,1,0.7401420303,0.6632714762,0.6638415056,4.058411816,NaN,NaN,NaN],
	"ap": [NaN,1,1,1,1,1,1,1,1,1,1,0.3612762927,0.2462441731,0.2861010049,0.1515788757,0.2918902199,0.2274867112,0.1588262173,0.1951174039,0.1101418577,0.08943689297,0.396706927,0.4138295296,0.4312657109,0.2910148462,0.6992453949,0.1910932066,0.1529702225,0.09188985192,0.2046333427,0.04553280745,0.1294066117,0.3499937503,0.1828332225,0.3970748626,0.2350134583,0.1851630567,0.1660063471,0.09872491318,0.5013735076,0.7632297487,0.1386067054,0.236680504,0.328152142,0.08280328229,0.05687294048,0.1175161643,0.01196721565,0.1245785557,0.06463667422,0.2153337466,0.0454950743,0.1267846834,0.2509344648,0.6234540907,0.2237748976,0.145973525,0.1734577125,0.03718485683,0.03095125836,0.04971951078,0.01446559299,0.002268354709,0.01054174912,0.004811970204,0.02254383648,0.01999019053,0.01529748541,0.0149972263,0.01366286117,0.02669929547,0.002113553203,0.001676924717,0.01277414816,0.07215769647,0.02473819804,0.06860590337,0.1107437201,0.05556407871,0.06837443726,0.007528515972,0.004308127864,0.02806882496,0.01692632434,0.002155342586,0.006030896732,0.006309133421,0.004744361547,0.003027407304,0.002531612847,0.002747129447,0.003256703923,0.002610415904,0.02037904649,0.01022059246,0.003504250323,0.004246781174,0.00187221655,0.007426886267,0.01164860774,0.02506861943,0.01496558539,0.09875846972,0.02518581227,0.03966457432,0.04108006452,0.03215144476,0.05160058199,0.01119606728,0.0192688296,0.505162831,0.2622337071,0.1459518372,0.4594565673,0.778933611,0.1866226797,0.09936110686,0.631094511,0.5113144334,0.1500695546,0.1503908225,0.3708217685,0.4854348114,0.08201002073,0.1343152289,0.07136836476,0.03138055664,0.06143488129,0.3582706404,0.3306558606,0.03099592162,0.05848813134,0.1952589546,0.01171244449,0.002349940982,0.008554913972,0.005850101897,0.0009108999109,0.01652411584,0.01998212749,0.00837611763,0.08593586043,0.1910035922,0.1207178479,0.0510557794,0.01664495716,0.02041986939,0.03507440984,0.01638164237,0.006533539422,0.0157968816,0.003163480573,0.005892753645,0.01959976482,0.0337984298,0.02779644151,0.01615853026,0.01756146928,0.1550108577,0.06635458812,0.2443227203,0.05386533814,0.4385506288,0.1996298299,0.426946585,0.1378036787,0.2567118622,0.150510857,0.184448245,0.03006793581,0.05268093325,0.01847157311,0.01887987528,0.01308488606,0.01681556184,0.008322191399,0.004624760738,0.009676970759,0.005752891542,0.002153951089,0.0008411304206,0.001520234127,0.003486260382,0.001564211513,0.002046878064,0.01496458717,0.01499050537,0.02244092455,0.03484364988,0.01819388722,0.006470163223,0.004759369818,0.01464176735,0.01671045004,0.06649819139,0.1242171601,0.0713201274,0.04109926626,0.06493764128,0.1059073636,0.08124932278,0.06291428818,0.162272664,0.07689608605,0.1194973936,0.1592871318,0.159752025,0.2397324566,0.213656288,0.6932752555,0.445839591,0.1477372504,0.3949567714,0.05642789844,0.1155997143,0.1373951473,0.02133959316,0.05966576916,0.07655248878,0.07925696475,0.1243176315,0.07734782162,0.1656673738,0.2240025354,0.012440298,0.008346502299,0.003117038064,0.003495334067,0.01531980908,0.03018797379,0.01996335881,0.05352502291,0.05826354542,0.2482832721,0.5710764512,0.4268470001,0.07730635235,0.004300050257,0.04246490121,0.0218204269,0.01789439613,0.0139145561,0.1338192167,0.01868545581,0.09981634008,0.1178947999,0.0549844285,0.05084095327,0.0304790636,0.003132364738,0.01135407553,0.006339014512,0.004895640193,0.02750666118,0.006820159752,0.007069996896,0.01284004286,0.006525920789,0.002514476049,0.003511881803,0.001497950571,0.001928824955,0.00110245357,0.001177937606,0.001619126266,0.002060086064,0.001963196817,0.003212346938,0.003119042051,0.001522136877,0.004125015281,0.02998762864,0.01116073424,0.008860804909,0.006864058703,0.006238805939,0.002165324022,0.02651826981,0.04778133016,0.02261461322,0.001663760837,0.002633525933,0.002063159904,0.00583180961,0.02070183264,0.02755251907,0.3432209457,0.05188385281,0.09269890607,0.3875856748,0.02415500389,0.02462261361,0.1206060209,0.05378715052,0.002998392934,0.006196691047,0.001929076988,0.004109231114,0.002272028399,0.002322384633,0.002082280371,0.001611871202,0.001767645643,0.0025551836,0.001848206539,0.0005114948869,0.00286103902,0.002269774306,0.00614200963,0.002901219859,0.02497965901,0.08602781073,0.3962521921,0.04179036048,0.06087758668,0.05361571465,0.06991103398,0.05780311254,0.006457606302,0.0278372722,0.0464099085,0.008445923914,0.01527548203,0.01034985528,0.004208457978,0.008577060157,0.03110793113,0.05074391681,0.1074365652,0.4358968804,0.6527317465,0.2316206649,0.2237812766,0.4942356219,0.03968891569,0.0813313549,0.1759733007,0.2342418483,0.185948846,0.02345326684,0.03367443945,0.0439003762,0.0357874995,0.02354821659,0.04986730876,0.07013828871,0.09655522298,0.08115256639,0.01879632627,0.01323682967,0.0365791986,0.01995318104,0.007410819874,0.004624556958,0.009338888131,0.006916576991,0.01841255855,0.02701038962,0.002788195118,0.003695785792,0.002251876144,0.001224220612,0.001525798373,0.002501621663,0.001259261943,0.003360430098,0.001338695152,0.002289286842,0.003304523771,0.0006351721617,0.001296967193,0.002559638698,0.003293633548,0.003651446038,0.004812957329,0.00220309984,0.0007590251855,0.0003768899638,0.001165173979,0.0007293540077,0.001214424968,0.001273587283,0.0009060040929,0.001034514664,0.0307494088,0.01536064365,0.1465974676,0.07104229824,0.0163289433,0.05708109191,0.03390247882,0.1442143261,0.03056614696,0.03875891523,0.07194791443,0.03970106327,0.08131808032,0.1763307207,0.053928624,0.1139742966,0.05367406928,0.04828561019,0.1475428105,0.0962941947,0.03636056387,0.06770637695,0.05470411261,0.06890828299,0.07832532905,0.1019484835,0.07023577147,0.08527476496,0.06733229486,0.1574706286,0.09760166629,0.1017740727,0.1182160329,0.09099802254,0.07935710341,0.1136776201,0.0636865229,0.1079599045,0.1447995493,0.1028464629,0.05307429626,0.1125460426,0.06093989867,0.0807571032,0.09625621701,0.1032946171,0.1253978249,0.1052711216,0.09919747357,0.1332842929,0.1578815622,0.1360229238,0.1167411444,0.1418562414,0.05936521805,0.07061584187,0.08326594652,0.1064418545,0.08095842706,0.1454742107,0.08778125968,0.1052629903,0.1006302849,0.05177526172,0.1138629143,0.1355620111,0.09165012373,0.1745753544,0.3528988213,0.2909774696,0.3228812239,0.7932207418,0.5420879923,0.4621750934,0.2724071488,0.2963136873,0.2905693277,0.300951325,0.08179975934,0.1649933116,0.1615307244,0.2001320739,0.1962231855,0.4056250776,0.100853064,0.2188268905,0.1845586653,0.07417074456,0.09371525923,0.09619575097,0.3141095613,0.3736786401,0.5769231017,0.2808167006,0.170785113,0.1487312834,0.364937014,0.1909314735,0.2145145417,0.1540762543,0.4529815383,0.2262786625,0.1241327474,0.104973629,0.5026184282,0.2275665261,0.2116828446,0.5000002497,0.5000005505,0.4429548459,0.3590579512,0.3367980732,0.5000002252,0.5000001967,0.5000001057,0.5000001718,1,0.5000035056,0.5000002581,0.3463652875,0.500001228,0.5000003991,0.5000001638,0.500000158,0.1746102061,0.5000445462,0.5000005132,1,1,0.5000001465,0.1997168512,0.5000009859,NaN,NaN,NaN],
	"pwr": [NaN,0,0,0,0,0,0,0,0,0,0,2.728758482e-06,5.092130341e-06,4.973604885e-06,6.989141604e-06,3.127847091e-06,3.313650304e-06,2.168801921e-06,4.625747726e-06,2.087097081e-06,3.297130872e-06,2.256321985e-06,1.655907899e-06,8.094262095e-05,0.0001494540291,0.0001179482354,0.000369236653,0.001391501648,0.008395021846,0.006040327275,0.01722013014,0.02296043499,0.004972956985,0.02810145719,0.01971273714,0.007178940537,0.009020967254,0.01166794728,0.005608272945,0.003473067184,0.005909492223,0.009883743972,0.02349847083,0.001310926211,0.006280316461,0.006183803208,0.008977422363,0.005749902153,0.002728439156,0.003170185675,0.004763960395,0.002337984343,0.008614887362,0.004686146192,0.009079848699,0.002703061909,0.01522184342,0.02271369034,0.02441108274,0.02682068903,0.0166678659,0.02052027398,0.02329351961,0.03015832766,0.06304426108,0.04231690914,0.03285117495,0.01263731601,0.01722584297,0.01960111672,0.01667248968,0.01664056685,0.0437382244,0.04982310516,0.02029264225,0.01452872991,0.003348759637,0.01618866568,0.03458101352,0.03921314903,0.05632196644,0.08389172522,0.0520148864,0.04048296364,0.05073786672,0.03955837596,0.03146249734,0.02938807869,0.0385247616,0.03312420427,0.03064811451,0.02390093585,0.01150910211,0.006038186834,0.003876577299,0.007520867872,0.01298405164,0.01192205494,0.008380306036,0.005930692069,0.003329982454,0.0008061561853,0.0002800703259,0.0001145765809,0.0001286823575,0.0001139049423,0.0001376233106,8.706791758e-05,6.103973393e-05,3.933508848e-05,5.488982949e-05,6.36517736e-05,5.285529662e-05,2.32595905e-05,7.408627462e-05,2.969645455e-05,0.0002201785647,0.0002364870262,0.0002721806275,0.002525550984,0.005037545934,0.01209896904,0.004069245188,0.01842028385,0.009407306217,0.006411924904,0.01849191346,0.02695241668,0.003544485722,0.00462300521,0.01007257852,0.02132754685,0.006490844831,0.03765928481,0.03556098405,0.04578420354,0.06733632442,0.1238757495,0.07180496007,0.02913727417,0.02536892782,0.01293083473,0.0003184945201,0.002458207465,0.003064431289,0.02698672443,0.03449661981,0.02196934953,0.008525867011,0.01137676194,0.01019149199,0.01412362036,0.01928949863,0.01208611777,0.009818047658,0.007443562179,0.03871567008,0.07876378679,0.02657577862,0.02773579289,0.07078351985,0.04397681427,0.04173263785,0.01877791559,0.001869777095,0.004292643518,0.001065508555,0.003583930518,0.008515075426,0.01029310641,0.009430725651,0.03060437748,0.02941445351,0.03554313125,0.02058055393,0.0136201541,0.02439375433,0.01501342949,0.02214229733,0.02811111989,0.03192911168,0.03124795197,0.02937142117,0.02367567067,0.01727573179,0.01420097429,0.003570286882,0.002971888083,0.002707632324,0.002607453298,0.002013277878,0.001635306586,0.0009761225055,0.0007136106422,0.0002540751267,4.957497488e-05,9.165786959e-05,6.183211028e-05,3.732578224e-05,5.91292543e-05,2.681524832e-05,3.162996925e-05,1.763931532e-05,1.456513123e-05,5.105704605e-06,9.548064535e-06,7.309683906e-06,3.745822263e-06,1.175510883e-05,5.00635244e-06,0.0001815340021,0.01580995973,0.001782430838,0.05262545625,0.02763413313,0.02736955044,0.04090490133,0.05835183177,0.02610414875,0.01706755446,0.02060042078,0.01316677779,0.05056266984,0.03558730564,0.08653349439,0.09977998927,0.1003176537,0.1073327644,0.1108188095,0.0611776443,0.03826013144,0.04785479945,0.01418715566,0.003822180831,0.001763349068,0.001187493959,0.04915200761,0.1375504768,0.1120119512,0.15717122,0.176741657,0.07281492517,0.007864388517,0.05806833674,0.03214891806,0.04007402719,0.08351893371,0.101220893,0.1448246936,0.1634857762,0.07743683281,0.1050102385,0.08435928523,0.02547704882,0.02608333014,0.02610160546,0.01841433302,0.01405877603,0.01425920735,0.01798024395,0.02317682272,0.02941803213,0.02822865027,0.02732734496,0.02778749475,0.02339855516,0.01851492242,0.01312926726,0.008324916677,0.008866405039,0.006535859432,0.00272365958,0.005715885278,0.01104502606,0.003698631067,0.009432346663,0.008157047742,0.008955707115,0.01120348625,0.01796437212,0.07783837392,0.05729790335,0.0966045878,0.0994744978,0.04774558994,0.02343973383,0.01371350219,0.006675098616,0.004628990773,0.0114686796,0.00170086868,0.004410463579,0.003067861835,0.008879225684,0.07695385705,0.08692861329,0.0731623148,0.05312995033,0.05937571553,0.06967426771,0.06118963303,0.03545024227,0.02333718014,0.03536608283,0.0416073543,0.04409029249,0.04138191464,0.03098534147,0.02546619635,0.03293096181,0.02800816609,0.02543148894,0.005457872752,0.03232715054,0.02266556614,0.01797885134,0.01388567006,0.01978877619,0.02394925273,0.01550645601,0.01246441426,0.0166619189,0.0127644652,0.0146113678,0.01583349873,0.01169085689,0.003326677539,0.004565794101,0.005038650989,0.009056974869,0.06801515671,0.0221581639,0.02381838309,0.01528272662,0.08530605012,0.07179475816,0.01491501355,0.02376147572,0.006673510741,0.01600408921,0.01703728976,0.02221262894,0.02133578649,0.03721721285,0.02605754016,0.008180046216,0.003330989849,0.003747090541,0.01134652189,0.007812857784,0.006406188326,0.006559765876,0.009291229368,0.007550225809,0.005477505285,0.003832014794,0.002508171054,0.001805355223,0.004491097328,0.004739424501,0.005568248426,0.005767192329,0.004356687677,0.002902502077,0.002686653216,0.002722523449,0.002494142192,0.002338382672,0.002558437914,0.002890868611,0.002553016086,0.002083008233,0.001512905727,0.001426054496,0.001706278711,0.003376138308,0.004976335458,0.005230722752,0.004809384252,0.005593110941,0.005509089394,0.00386686957,0.003863203332,0.002545021218,0.001013654908,0.0003113737039,4.467187701e-05,8.488341887e-05,6.025699034e-05,2.489703647e-05,2.887954954e-05,2.744324358e-05,1.138921622e-05,1.177689308e-05,1.588931852e-05,1.179609229e-05,5.205581878e-06,2.096678232e-05,8.133944247e-06,8.643812892e-06,1.056426163e-05,6.2425217e-06,3.858182958e-06,4.853366658e-06,3.615095346e-06,2.68915185e-06,2.462523181e-06,1.806345728e-06,1.784462659e-06,1.329578571e-06,2.130394304e-06,2.306643797e-06,1.953237483e-06,2.042497483e-06,1.766930067e-06,1.257712068e-06,1.714635796e-06,1.805994e-06,1.882915672e-06,2.237744632e-06,2.159958487e-06,2.79814149e-06,1.813840374e-06,2.491895286e-06,2.106254964e-06,2.594636799e-06,2.118067169e-06,2.529409233e-06,2.756797443e-06,2.436905442e-06,2.34792327e-06,2.33326845e-06,2.239049692e-06,2.764494583e-06,2.349231682e-06,2.33782165e-06,3.130941887e-06,2.258372695e-06,2.357030485e-06,1.943095036e-06,2.114273416e-06,2.838300607e-06,3.105881912e-06,2.134093349e-06,1.891917344e-06,2.187879929e-06,1.96734822e-06,1.83100941e-06,1.745951412e-06,1.761888376e-06,2.564579811e-06,2.678723926e-06,2.83859264e-06,3.785315772e-06,2.833772183e-06,2.362404321e-06,7.632550463e-07,6.825604546e-07,6.863529353e-07,4.774680464e-07,2.275560282e-07,2.425812664e-07,2.286171164e-07,2.009341506e-07,1.21820301e-07,7.903137202e-08,2.959989953e-08,4.419598554e-08,2.959619526e-08,2.135752586e-08,2.452371908e-08,1.984964391e-08,1.859695573e-08,1.38219146e-08,4.174433651e-09,1.658697614e-09,1.037196352e-09,1.240189431e-09,1.800376489e-09,1.088492997e-09,1.152739951e-10,1.29175709e-09,4.272995796e-10,7.043053794e-10,3.930199425e-10,2.530251383e-10,5.649991549e-10,8.506453447e-10,5.997295593e-10,1.866659471e-10,6.058253348e-10,1.434566761e-10,7.950314661e-11,2.168083526e-11,4.846819009e-10,1.199385157e-10,2.487908087e-11,2.167575223e-10,1.92636439e-10,3.23159589e-10,0,1.583482967e-11,0,3.118564291e-10,4.520511453e-11,1.132995833e-12,3.389306838e-10,0,4.059082903e-10,0,6.416592542e-12,0,0,0,4.161618591e-10,5.630544977e-11,NaN,NaN,NaN],
	"sr": 16000,
	"range": [1,165975],
	"minf0": 63.1883,
	"maxf0": 706.3069,
	"thresh": 0.1,
	"relflag": 1,
	"hop": 320,
	"bufsize": 10000,
	"wsize": 640,
	"lpf": 4000,
	"shift": 0,
	"plotthreshold": 0.2
}
