{
    "DU": 155,
    "DV": 200,
    "F-measure": 0.710217755443886,
    "F-measure Chroma": 0.8073701842546063,
    "FN": 82,
    "FNC": 46,
    "FNCch": 73,
    "FNI": 36,
    "FNIch": 9,
    "FP": 31,
    "GU": 104,
    "GV": 251,
    "Overall Accuracy": 0.5971830985915493,
    "Overall Chroma Accuracy": 0.6788732394366197,
    "Precision": 0.7765567765567766,
    "Precision Chroma": 0.8827838827838828,
    "Raw Chroma Accuracy": 0.9601593625498008,
    "Raw Pitch Accuracy": 0.7370517928286853,
    "Recall": 0.654320987654321,
    "Recall Chroma": 0.7438271604938271,
    "TN": 73,
    "TO": 355,
    "TP": 169,
    "TPC": 139,
    "TPCch": 168,
    "TPI": 30,
    "TPIch": 1,
    "Voiced Chroma Accuracy": 0.6693227091633466,
    "Voiced Pitch Accuracy": 0.5537848605577689,
    "Voicing Accuracy": 0.6816901408450704,
    "Voicing Detection": 0.6733067729083665,
    "Voicing False Alarm": 0.2980769230769231
}