{
    "DU": 142,
    "DV": 164,
    "F-measure": 0.6206896551724138,
    "F-measure Chroma": 0.8045977011494253,
    "FN": 71,
    "FNC": 21,
    "FNCch": 52,
    "FNI": 50,
    "FNIch": 19,
    "FP": 19,
    "GU": 90,
    "GV": 216,
    "Overall Accuracy": 0.5294117647058824,
    "Overall Chroma Accuracy": 0.6862745098039216,
    "Precision": 0.6893617021276596,
    "Precision Chroma": 0.8936170212765957,
    "Raw Chroma Accuracy": 0.8842592592592593,
    "Raw Pitch Accuracy": 0.5185185185185185,
    "Recall": 0.5644599303135889,
    "Recall Chroma": 0.7317073170731707,
    "TN": 71,
    "TO": 306,
    "TP": 145,
    "TPC": 91,
    "TPCch": 139,
    "TPI": 54,
    "TPIch": 6,
    "Voiced Chroma Accuracy": 0.6435185185185185,
    "Voiced Pitch Accuracy": 0.4212962962962963,
    "Voicing Accuracy": 0.7058823529411765,
    "Voicing Detection": 0.6712962962962963,
    "Voicing False Alarm": 0.2111111111111111
}