{
	"f0": [NaN,55.1325912,54.18870277,54.1730751,54.34074629,54.521685,54.76283319,54.9361467,55.44669776,67.63094809,67.46762526,67.55900585,66.755147,67.30480902,67.9132925,68.5798301,69.17399484,55.61437874,55.21044617,54.83019432,54.54441319,54.45750922,54.48409517,55.08352965,55.722787,55.39619219,54.88901042,55.34995772,55.18015878,55.09208182,55.13489482,55.12679769,67.78826823,66.72061916,64.19354484,54.48250366,54.14573515,53.8414615,53.63067541,53.56973972,53.60004039,53.87269382,54.27734479,54.70726035,55.06392074,55.49970845,55.70550271,55.78380289,55.85892876,55.89694259,55.66181076,55.39219298,55.34759099,55.53030818,55.58818267,55.52705581,55.50780519,55.49466233,55.43258386,55.42617036,55.53905499,55.60733535,55.47395664,54.96631479,54.50528578,54.68369189,54.79007018,55.07663724,54.38214865,54.11366348,53.58805149,53.37056327,53.45192007,53.4431842,53.49110236,53.41332367,53.43303314,53.45865676,53.49734237,53.64903858,53.72867778,53.69197139,53.42588597,53.32064508,53.30239366,52.68321368,52.37709571,52.29365346,52.13172279,51.93137958,51.92130964,51.95963457,51.98804586,52.00462711,52.10488031,51.75450824,50.93589139,64.55802863,66.0979178,65.62914469,64.93035138,65.26075861,53.9028674,53.78986335,53.3970904,52.99508393,52.9143329,52.83827869,52.76182845,52.97989473,53.19330374,53.67017861,53.85606316,53.8055137,53.80825706,53.89603327,53.89357747,54.00389267,54.19258371,54.1876663,54.18884271,54.19051746,54.21212738,54.23249951,54.24402929,54.21113818,54.22873618,54.27476776,54.83024332,56.42635768,56.24593028,55.72542899,56.69965447,46.63228003,74.36967264,68.70367554,66.45366495,64.11590133,60.0442468,58.98203007,58.98036033,59.04591274,59.13327737,59.16644016,58.89265402,58.61792947,58.9446811,56.76654984,46.68036542,45.66169865,44.81157113,44.74944208,59.65289582,59.45061169,59.43849716,64.75184221,61.83677829,60.59473491,60.09192598,59.9934052,59.96005949,59.99896766,59.98912648,60.08330562,60.10082715,60.08578464,60.12999479,60.184772,60.2015435,60.1833353,60.20314903,60.26560507,60.24813416,60.1710872,60.200123,60.264097,60.15639779,59.97822384,59.99778236,60.00512991,59.86319413,59.3949341,59.22208234,58.68036542,61.19931715,63.2247652,52.44913048,52.62375439,53.50429368,47.72282397,60.0442468,57.2095359,57.36669134,57.44619644,69.45529793,57.40350299,57.35198041,57.34440611,57.25747109,57.36450027,57.92111847,58.1156362,58.35631202,58.60956323,58.83501428,58.9724133,58.94158368,58.87106895,58.90762442,58.82763965,58.66232624,58.62466045,58.65424779,58.72371209,58.80318483,58.9102795,58.85051135,58.7043434,58.72177753,58.75500363,58.78356467,58.73733582,58.73860257,58.74791293,58.65994633,58.61856014,58.6468215,58.73796959,58.8687006,58.97406793,59.05080777,59.08072993,58.87681088,58.39493798,58.68036542,59.73031016,60.01379548,58.85579817,58.59780481,59.43351976,59.80784702,59.83574435,66.9224708,66.9224708,66.0979178,59.90289967,55.63538286,71.42915851,67.74201462,67.68381933,67.88670309,68.86114187,68.75151112,62.81381555,62.56053584,68.48402943,68.38867767,71.45195395,64.66514836,44.23246079,44.2108137,44.21770281,73.20742602,72.546115,46.26308687,68.71533613,62.3851571,55.71977343,55.34995772,47.71774439,51.96441158,57.41703325,57.51066789,58.04073026,58.62291453,58.79735263,59.10924885,71.78096092,71.86600512,71.548521,62.15444483,60.48203392,58.13600922,59.00621146,39.678729,58.94765736,59.20445411,59.47928283,59.78663088,59.90864661,60.06135786,72.1935392,72.3423337,72.42245673,60.27384015,60.19154852,60.15942644,60.11979589,60.09196965,59.13406917,60.33766184,72.16640951,72.16921178,72.24657361,57.83188447,58.16062857,58.3898196,58.45051951,58.61704937,58.85963232,59.12532742,59.44952744,60.08102285,72.05011806,59.95865857,59.59553933,59.01306063,58.94497524,59.00721504,59.67554657,59.80994843,59.46980946,59.30670082,59.02087128,58.87832322,58.68969077,58.71477348,58.74884884,58.81465718,58.93942541,58.85334639,58.31686222,55.78826823,57.2502003,57.63024122,57.80212734,76.93035138,76.93035138,76.93035138,53.13162427,56.56914767,56.33470737,56.06855206,56.03389581,56.11361014,56.13215938,56.01423451,56.05924668,56.21615958,56.21408502,56.25317008,56.32043213,56.36811397,56.28566238,55.97321977,55.88616319,55.64338957,55.27123267,55.37775753,67.30767102,70.16354076,69.66581691,71.21309485,69.17399484,55.26001293,55.29675749,55.56772588,55.69463331,68.08912815,68.2172045,67.63766733,66.9224708,67.29111699,68.23796469,68.12803513,56.37008574,56.23796469,55.13489482,55.56772588,56.23796469,56.4030431,56.23627044,43.83357638,56.35467179,56.37012034,56.03730742,55.56772588,55.34977768,55.32645148,54.71262168,35.57374211,63.86569757,64.58206799,47.43542911,39.68122919,44.32768727,44.76998228,59.64215979,51.40047456,60.33040771,76.93035138,76.93035138,NaN,NaN],
	"ap0": [NaN,0.3874207509,0.1329842967,0.06294502736,0.0391233112,0.04604064625,0.06207986552,0.1324591859,0.2129064691,0.0929221226,0.07694341346,0.1263803547,0.1085298281,0.7083856784,0.3848494237,0.436615141,0.6593099567,0.4134186148,0.2740429769,0.2513310231,0.1540109452,0.1804259585,0.3330912649,0.4440689023,0.3524296783,0.3634919674,0.5413735488,0.5448583491,0.238531756,0.1095430271,0.2257819202,0.4029204554,0.2702524259,0.3329133143,0.5882160656,0.4395208016,0.1895025025,0.1520773436,0.1908418161,0.1922601027,0.2553533792,0.3066016293,0.2269301477,0.226264123,0.1752129184,0.1157290775,0.09613451338,0.08127917682,0.07576628202,0.1347053547,0.1874389126,0.2052587864,0.1805479868,0.129780316,0.09924453028,0.08336432966,0.05783837622,0.03958077453,0.07766051384,0.1239407973,0.1505482472,0.1773973203,0.1506834781,0.3183055268,0.2755037026,0.1123353118,0.1382219514,0.1549579172,0.1531467344,0.1188362648,0.1530694209,0.1497920388,0.1115046065,0.1093405837,0.1174429412,0.1115916752,0.09528769345,0.0694671845,0.06084593271,0.08807408381,0.08627667075,0.0878425423,0.1733328655,0.2114603499,0.163950292,0.07828366909,0.0294374572,0.03169937053,0.05600282405,0.07940373895,0.04742162108,0.01997537026,0.06141343247,0.1635545072,0.1785909931,0.3005440957,0.5519329483,0.2733051743,0.374603816,0.3832461691,0.6030815273,1.077493659,0.1956886054,0.1140115313,0.1718585448,0.09827416145,0.09948334904,0.1299313073,0.1471312255,0.08699704529,0.07990534026,0.1220243993,0.1016788902,0.09844356531,0.07343299913,0.04989113484,0.07722425416,0.1524614319,0.2409118056,0.1365642194,0.105097112,0.08613729439,0.06278188794,0.06159381082,0.05937066889,0.05124701792,0.1274073935,0.3046322153,0.5489410206,0.3708937626,0.2700601312,0.2194097497,0.5398376529,0.9349103221,0.6959620828,0.5218765893,0.6004991373,0.6693744801,0.2161402778,0.07689479162,0.02899302024,0.01813616314,0.02650336174,0.07018895526,0.1397090744,0.198467387,0.2743914128,0.3811950202,0.7067201382,0.351133353,0.4033374321,0.6125890713,0.4600683719,0.5370413269,0.7975018365,0.2929033967,0.1817115283,0.2286286485,0.1558785087,0.05166353993,0.03636726476,0.04831505086,0.0375772305,0.03519303179,0.0373513599,0.03693475834,0.02793326818,0.02853496972,0.02402668706,0.0139173955,0.01054381024,0.0101152796,0.007950481703,0.007772614972,0.007782703836,0.007742281569,0.01846944612,0.03241859603,0.03650948294,0.04782581775,0.07515425966,0.07399204892,0.08811090837,0.3421218812,0.5130184204,0.6844454217,0.6833322556,0.6830209632,0.7046036474,0.7261649895,0.5954722903,0.07294532968,0.0357360634,0.02272878562,0.04879713445,0.02895032285,0.05300834527,0.07854953068,0.1420827872,0.2409811396,0.1136810581,0.06745950613,0.05750446216,0.06600978571,0.05169757297,0.03093687283,0.04225936505,0.03717079424,0.03527636917,0.04260860986,0.04804181721,0.0484757021,0.04262238008,0.04788979445,0.04456432297,0.04416382835,0.04401813896,0.02793772616,0.03510772614,0.04440440113,0.03985925545,0.03157712498,0.02850585649,0.01502507511,0.01540887628,0.01350987651,0.01347638091,0.0172501399,0.02602366409,0.02435576235,0.01731893529,0.02128314525,0.03973548502,0.08417091083,0.152515647,0.2169660044,0.2221765517,0.2327348564,0.460777021,0.3143796247,0.0890740794,0.1078724979,0.7106784762,0.585439012,0.6469472349,0.9610732651,0.8628011485,0.8119895093,0.6505085589,0.6226450548,0.7006887268,0.5684422294,0.578197045,0.6990393465,0.7319765798,0.6644620192,0.730542588,0.6079636781,0.6025017358,0.5219921795,0.4351364422,0.6119203702,0.5858934162,0.6732014685,0.4574187403,0.454862256,0.7670192266,0.5229264563,0.592985347,0.7528838625,0.7452413776,0.946781711,0.1313259673,0.1518808493,0.04415623536,0.05518176369,0.06895205716,0.188403428,0.3118376471,0.4588714336,0.7199070675,0.42855331,0.7787651331,0.5312549718,0.4397940167,0.3504001588,0.07986510957,0.05333502233,0.0611466933,0.03930203219,0.02208920282,0.0239478011,0.02537695263,0.06339641373,0.02401251462,0.0148435975,0.02483349629,0.064882767,0.08049189606,0.1550297197,0.6584787175,0.1264291039,0.1160587446,0.1582185616,0.1113272098,0.04891664394,0.01848865708,0.02230623183,0.02797459605,0.03602342385,0.03524682159,0.09736534253,0.05755660889,0.09013953716,0.07296351498,0.07712501212,0.07122684754,0.4099722238,0.3429200453,0.2737947496,0.6462648723,0.109392065,0.1034570321,0.07766757051,0.06692136444,0.1426939998,0.20524059,0.1903647699,0.1857882102,0.1178396146,0.1276413007,0.4469685388,0.6813382034,0.4201741115,0.2334374428,0.2090043437,0.20415432,0.2547508048,0.6924929106,0.6748271758,0.16944533,0.1256594589,0.05676706384,0.03150658844,0.03379663744,0.04667023574,0.06428493756,0.0569053814,0.04131929916,0.02909269063,0.03101095936,0.04519493245,0.05130898246,0.05660525804,0.03547750758,0.03798871604,0.1161919001,0.3640501918,0.5411530224,0.454612242,0.5455735852,0.2724683579,0.4515944067,0.5500398608,0.3443820656,0.1692151863,0.4437993015,0.6537466575,0.4011620306,0.3454144214,0.7164371407,0.60025674,0.367746075,0.329206525,0.7663057475,0.5169324784,0.4859507363,0.3779614874,0.3350980025,0.4102796321,0.5740442231,0.5720098396,0.4009094815,0.3766874296,0.3305251151,0.5194018583,0.1343342072,0.08416520411,0.1481022538,0.6270479656,0.7471170211,0.6785932256,0.8875954852,0.6714792678,0.7464205831,0.587904643,0.7693472814,0.959036463,0.6105691876,1,1,1,NaN,NaN],
	"ap": [NaN,0.1795934842,0.2905315029,0.339917578,0.006801284831,0.01972015823,0.03755536683,0.007015112343,0.04148088965,0.05258598816,0.06729444233,0.02509362677,0.08179788844,0.03884898442,0.7779479196,0.2853893139,0.1737380708,0.5241819576,0.1602731537,0.2615267243,0.1010007463,0.08297277073,0.1092137454,0.2839594517,0.1007675898,0.3086573423,0.1156766958,0.4149685751,0.3134826288,0.2470576773,0.03201123047,0.2312228656,0.1046999996,0.07086175345,0.2806500493,0.1835927258,0.4511206467,0.09838275234,0.1081303477,0.1756332678,0.1918635857,0.1300321295,0.3022311742,0.4403986363,0.1327670082,0.1449459922,0.08963182362,0.05883392322,0.0174323639,0.03168242571,0.1085614629,0.1421352401,0.09582622001,0.1518299994,0.05785697105,0.05268878943,0.03021575052,0.01957199138,0.02014134829,0.03694981611,0.05657368473,0.06026471281,0.1275267456,0.1518328679,0.1219940745,0.193057574,0.03486036808,0.09122454027,0.04683054475,0.1589351947,0.1542403593,0.1021164254,0.05828128245,0.07524125983,0.05628029686,0.04365886028,0.04128755476,0.03511046369,0.07227931569,0.01846645157,0.06590543172,0.05897005122,0.1299904732,0.104158059,0.08089074311,0.1783825477,0.05405482438,0.008305443805,0.01797553908,0.03629104139,0.052969908,0.03806589815,0.0009128561779,0.04759697712,0.07471737965,0.05346334455,0.2319215245,0.3510401616,0.1358549015,0.4160324093,0.2706925927,0.2684569055,0.7037500586,0.5282372897,0.05829775793,0.09869836155,0.03338730375,0.04799772103,0.08696026855,0.06897212729,0.1252445921,0.09351971389,0.07702236459,0.07467884525,0.02927133432,0.02464702424,0.02050011962,0.04596031914,0.0816610072,0.1216698121,0.09174655986,0.02357084631,0.02898297189,0.08159030152,0.02454008242,0.03766066764,0.03193697405,0.05075015074,0.2077210684,0.5140832185,0.2946759309,0.298867114,0.1575540023,0.4155729306,0.1751916856,0.402249118,0.4089796405,0.4417627705,0.5287782534,0.05815384971,0.04753212932,0.003214938569,0.00872864311,0.01308997328,0.03734993631,0.1458154477,0.1205400759,0.09850544832,0.704744402,0.1095973968,0.279258873,0.1878483487,0.3032668634,0.201871226,0.1708991808,0.3954104175,0.3678151596,0.5085757948,0.206644041,0.0590966719,0.05352873841,0.0207858043,0.03094605958,0.01510919668,0.03780547309,0.005563739857,0.05108028453,0.01639878502,0.01020257768,0.00846171334,0.003331905107,0.002771574342,0.004797914124,0.003694444224,0.0008558914902,0.003407248328,0.001904052396,0.01345175972,0.0236707388,0.01623549636,0.02836200841,0.0384085565,0.007372042016,0.02282077028,0.5563817578,0.09438895332,0.4510097723,0.3088411743,0.3968151873,0.5901704797,0.5519365293,0.7658567323,0.4659325421,0.01820930643,0.03734564829,0.004838399661,0.01886699095,0.009882551085,0.0616135021,0.03855367311,0.1042400588,0.1226223344,0.04388199875,0.019466225,0.07551686436,0.04830303555,0.02411090611,0.03461142097,0.02172259525,0.01264899836,0.03994780697,0.01563424102,0.02620420583,0.02748224291,0.01965457595,0.05464581725,0.005664438037,0.03396651962,0.004233660574,0.01240867112,0.007220960746,0.009380059634,0.01330261378,0.009147802238,0.006534959271,0.01097844771,0.005860506145,0.006076318882,0.006499576714,0.01178825609,0.01493975587,0.005933084516,0.01046341977,0.02450857383,0.1648343648,0.04040653557,0.1518947343,0.1392248113,0.07430116068,0.4930440201,0.3889900202,0.042830735,0.8331486111,0.6079973355,0.4882102373,0.5546292248,0.7316216009,0.4994560386,0.3802278658,0.3994289143,0.2748627791,0.6470037213,0.3604958955,0.471803619,0.5667889594,0.6822241692,0.3190975546,0.6836109628,0.5351749814,0.2929749642,0.3926084166,0.2421159539,0.5937453912,0.3483894019,0.3253846376,0.5575889055,0.5929627991,0.7716878163,0.6692984648,0.587488213,0.6808801122,0.1815555815,0.4703766047,0.2224323367,0.1259255843,0.05283816222,0.02251590641,0.09334364631,0.218361333,0.08518732465,0.5816371225,0.2324987236,0.5835749446,0.4291539461,0.3286272692,0.2371007932,0.2780499675,0.01107884966,0.007365113098,0.03261997049,0.02417887349,0.08844175944,0.009020342957,0.004349714037,0.01676939512,0.00355108454,0.0168026163,0.00179776361,0.03793893945,0.02630320362,0.02818377639,0.08680830671,0.2548013269,0.1608195712,0.2754154035,0.03434406764,0.02214311655,0.006400506893,0.005806021389,0.01026417256,0.01674863954,0.007423658484,0.06071771369,0.03094736537,0.01415399537,0.07608503241,0.05345919739,0.1026540835,0.1531350559,0.3100487272,0.09262491122,0.2516898404,0.2887948609,0.0594389952,0.05671867451,0.04672914239,0.06693644998,0.1174046206,0.1827046198,0.1402582851,0.05295812193,0.06592791119,0.5034736073,0.3664230983,0.443790273,0.1462946203,0.8857721754,0.1299634412,0.09043202639,0.5098127283,0.3764321827,0.5285431405,0.02866929463,0.01774801044,0.005767013264,0.007512762119,0.0155249178,0.03345407165,0.06083423911,0.01258571612,0.01810511745,0.01959526001,0.009913721817,0.01681814536,0.009958345711,0.04602804211,0.01234237285,0.07904670394,0.1140632873,0.1126101092,0.8819720867,0.5255234913,0.1259092439,0.04542739811,0.2030180972,0.2433681949,0.01957332052,0.7163327527,0.1859372937,0.5354202553,0.0618926272,0.4502451338,0.7203606337,0.1770874226,0.2404981391,0.1803050384,0.109022118,0.2547306633,0.2764524455,0.08461834782,0.2602535042,0.2714515454,0.2972795091,0.1842111927,0.3170011152,0.1188306239,0.2965235354,0.3579672852,0.01189431791,0.2366682587,0.3620065713,0.1402266876,0.1947080676,0.6359420413,0.5000006411,0.5000003723,0.4994899234,0.333034218,0.4844685754,1,1,1,NaN,NaN],
	"pwr": [NaN,1.396103749e-05,8.772093168e-05,0.003831404612,0.0251670158,0.009868096221,0.01050422792,0.005868302519,0.005452172477,0.01129569148,0.01374471456,0.003939322354,0.003815284959,0.001440452584,6.101414555e-06,6.350276318e-05,0.0006467058621,0.01004441203,0.03588306102,0.01453623357,0.009141977979,0.007437226881,0.006583976268,0.002912016138,0.003979533876,0.002693297756,0.003632580374,0.0001588746069,0.001951429869,0.001132882359,0.001004900757,0.0003013563931,0.0003924556882,0.0002405886383,0.0002146368558,0.001770729495,0.01846489404,0.01823300234,0.008525787396,0.001779246429,0.001864613081,0.002428883557,0.003477005161,0.003156509335,0.004487478807,0.01032593209,0.006657956588,0.00886683412,0.03826233704,0.03134641255,0.01226495791,0.004397528344,0.002638672944,0.004112089074,0.005259215356,0.006189396261,0.005598450853,0.006089963354,0.006774404644,0.003066658072,0.002563075211,0.00203652761,0.001022113934,0.0004024972391,0.0001504604152,5.663622033e-05,0.0001260454578,0.0002999639192,0.001028666643,0.0021937214,0.006561210534,0.004585611062,0.001356911438,0.001935595285,0.002650746772,0.001721884636,0.00133275383,0.0008955876168,0.0007810753118,0.0009693081746,0.001445162518,0.00244005628,0.001327917936,0.001456419353,0.00161819959,0.001180761572,0.0008886033161,0.001107674679,0.001519646099,0.001352489699,0.001244925077,0.001365045991,0.002288307159,0.001385270409,0.0002709429791,0.0005432815052,0.0003265739472,9.13545633e-05,7.01534662e-05,6.021647911e-06,1.132983902e-05,9.287063055e-06,4.837922862e-05,0.001186179883,0.02768317527,0.008867488359,0.0037937828,0.005825215288,0.001275471914,0.001602040471,0.002864521294,0.005638959866,0.003130666837,0.007257936381,0.01140567918,0.002993581367,0.005067297412,0.003887302937,0.001838949403,0.001388601221,0.0007668792427,0.002978205556,0.007382486647,0.006083269539,0.006986191335,0.005964115504,0.003359602641,0.002905272602,0.002056782154,0.0004317020769,0.0006704310099,0.002313566751,0.003473793698,0.0003554305805,7.44800715e-05,8.753044828e-06,2.343050409e-05,3.378792415e-05,1.311871761e-05,0.0001238397907,0.001509944576,0.008180829902,0.0163878739,0.008163561855,0.003709716767,0.00111304676,0.001553295968,0.0003908981781,1.304729129e-05,1.113647262e-06,3.239904939e-06,2.465204859e-06,2.503946151e-06,1.678702993e-05,4.787852515e-05,2.126139523e-05,6.516168783e-06,0.0003169633542,0.004052367926,0.002612484494,0.006945597181,0.009159846619,0.003595357033,0.002519927038,0.002334927121,0.001723300478,0.002079120731,0.003609591631,0.002979263435,0.003547813228,0.002996511213,0.004179701808,0.003385827957,0.002947187657,0.002905206708,0.003183223298,0.003190315424,0.002638290224,0.001413930136,0.0006451828729,0.000420530846,0.000208385823,0.0006277669947,0.0002629785599,3.561409111e-05,2.932316266e-06,9.009065549e-06,3.341683945e-05,1.718712908e-05,8.264471075e-05,3.709889315e-05,0.0002272428869,0.0001277191393,0.01961180571,0.01837290691,0.02925055797,0.02040010852,0.007658460743,0.002870280836,0.00612661524,0.006586391276,0.001557082729,0.01031916777,0.007658800044,0.009691808312,0.0204351002,0.01956151624,0.01078820377,0.01263825071,0.02009132828,0.009498685441,0.008387833371,0.003828404001,0.004923644429,0.009728513338,0.01759254633,0.01508984599,0.0142994958,0.009974681063,0.006972956017,0.01028751175,0.007346358573,0.004947024934,0.005736086606,0.005037625976,0.002435645719,0.001807917556,0.002051018123,0.00300590816,0.003332226817,0.003368544765,0.003644300581,0.003252106158,0.001194232814,0.0003692332398,2.217954373e-05,9.591541285e-05,0.0001735106273,6.640149254e-05,9.597417577e-07,3.328476809e-06,1.639831943e-05,2.361353623e-05,1.90948528e-06,4.569692591e-06,7.654331264e-06,6.857601661e-07,1.234296314e-06,5.341266794e-06,3.000162432e-06,5.39108564e-06,2.408801243e-06,1.276517363e-06,4.978984922e-06,7.508356553e-06,2.414517246e-05,1.163960041e-05,2.506594606e-05,1.26036448e-05,2.143485956e-05,2.455057489e-05,7.469427588e-05,2.914071963e-05,4.840337445e-06,2.878771861e-05,4.54582974e-06,8.899281334e-06,2.6970585e-06,6.916607526e-06,9.135097029e-05,0.000374236615,0.0005362831027,0.00028222155,0.002333908593,0.05213383644,0.02944047657,0.3184081794,0.07876940444,0.0120553171,0.01790666936,0.1171149963,0.01444497808,0.002331465425,4.266356828e-05,0.0003666288679,0.001238440237,0.0007688143921,0.004177541157,0.006005861919,0.003850562886,0.006827786336,0.01291791103,0.04960463455,0.110749867,0.09468038841,0.01165436431,0.02483457014,0.05843005703,0.006923486166,0.01097453143,0.0007008525494,0.0001675303072,9.13165561e-05,0.000130505798,0.001918113936,0.0001246680312,0.006528578834,0.008184484293,0.01424570821,0.03115131768,0.06704005279,0.03413075357,0.004131039315,0.005001785258,0.02442835993,0.01296570928,0.004418659105,0.001880277748,4.275001204e-05,7.880527528e-06,4.219512031e-05,4.951588684e-05,0.000304556888,0.04666424597,0.05809125638,0.1482347325,0.01335071821,0.003914745512,0.01736868453,0.01723909836,0.01188456089,0.01484077676,0.01226271724,0.001740100433,0.001281926519,0.0001129175705,6.463253901e-05,2.08121112e-05,8.549222358e-05,5.713112202e-05,1.595859067e-05,0.0004112786213,0.01543763896,0.01046378053,0.007853534956,0.00711686655,0.006825278551,0.005295643898,0.005508090079,0.004227164422,0.004767020943,0.003535301752,0.00169201748,0.001641206019,0.001080199252,0.00157811026,0.003052579368,0.001229161691,0.0001353937692,6.917927477e-05,4.868375767e-06,2.00932242e-06,2.294409387e-05,5.365396727e-05,7.021744271e-05,4.225124102e-05,2.021664721e-05,5.564709067e-07,3.112593588e-06,3.237322988e-06,1.422263295e-06,8.543109998e-07,1.201156175e-06,7.545060821e-07,1.022464213e-07,5.754015728e-07,1.05008918e-07,1.288042116e-08,6.525447191e-08,1.444691167e-07,6.304009767e-08,8.536543438e-09,1.180920963e-08,1.375615017e-08,1.071103126e-08,1.334654345e-08,2.427775224e-09,6.133786397e-10,1.236141168e-08,3.385862493e-09,5.67373145e-10,5.984273903e-10,6.794039162e-10,2.044561363e-10,6.357418552e-11,7.082802764e-11,9.951377578e-11,2.144329206e-10,1.673832239e-10,0,0,0,NaN,NaN],
	"sr": 16000,
	"range": [1,129280],
	"minf0": 63.1883,
	"maxf0": 706.3069,
	"thresh": 0.1,
	"relflag": 1,
	"hop": 320,
	"bufsize": 10000,
	"wsize": 640,
	"lpf": 4000,
	"shift": 0,
	"plotthreshold": 0.2
}
