{
    "f0": [
        46.180813594343363,
        50.627439678732351,
        37.700587407016286,
        50.033258292869732,
        50.172925781755438,
        49.249472695364425,
        50.278491055659778,
        49.237273052870236,
        49.032539565391076,
        47.486233524580236,
        46.189728959651987,
        40.942112773614653,
        45.983957707424111,
        41.816586092875262,
        49.314505515691963,
        43.496218117422202,
        46.969685660685691,
        47.622450295285333,
        47.54477642489492,
        46.209257167491259,
        46.301579623395313,
        45.594954108072095,
        45.818723108198114,
        46.039635634469164,
        43.936020763317728,
        45.331711796235972,
        44.79546241554273,
        44.739758849863804,
        44.683874353693099,
        44.790274690835616,
        44.493741501188211,
        44.640206530519926,
        44.949110726970844,
        44.465655305081199,
        44.587153709319516,
        44.707806654456085,
        44.787649335956985,
        44.887032926898186,
        44.801960407717004,
        44.716467618512645,
        44.802815426225358,
        45.119523518696106,
        44.967830872356856,
        45.184076598258528,
        45.397649753463412,
        44.901898565897561,
        45.136527240167055,
        45.317801428987401,
        45.323202372299299,
        57.333979214822904,
        57.381912031968454,
        57.601982258306236,
        57.207120092079236,
        57.551057339939177,
        57.456146466917673,
        57.753293042077708,
        57.42995737654401,
        57.361418111468154,
        55.50941230352062,
        54.805675011855691,
        51.03988870267726,
        45.630221536252854,
        45.303618057390523,
        45.189851925685744,
        45.075331990788101,
        44.960054199626214,
        56.960531934295574,
        57.02874490499665,
        56.922697417790914,
        57.138187879357176,
        57.213206820308983,
        57.06655087241586,
        56.918639502975928,
        42.32993887606689,
        43.699383983511495,
        37.3313224435514,
        0.0,
        45.406563581079624,
        44.699841490305843,
        45.708611525655336,
        37.311982057708548,
        44.045234160769851,
        56.844551304919008,
        56.851422044985085,
        56.684298703512027,
        56.432944628015271,
        56.21984788448114,
        56.15512459295666,
        56.526252615356348,
        56.666635437131426,
        56.91683218321441,
        56.934870118796468,
        57.239710239919731,
        57.224922254135848,
        57.14287578228749,
        56.387532577970717,
        57.14064040930495,
        57.597811384339479,
        57.148887534717055,
        56.932581180506965,
        56.762393165418921,
        56.841837203584468,
        57.017618063990398,
        56.923136426031888,
        56.972954794738996,
        57.143714206874407,
        57.252956831614448,
        57.217282774710782,
        57.181537469538263,
        57.145714617728537,
        55.727106617560835,
        57.973295484030601,
        57.755038021422905,
        58.826793593077973,
        59.639979729643073,
        59.622680374919149,
        59.73582088202285,
        59.499209325909703,
        59.294023206883679,
        59.17612722084435,
        59.184563679420037,
        59.192992908994789,
        59.201424342390006,
        59.158264627977914,
        58.831887408328086,
        58.470124412680903,
        58.115517637135497,
        57.745901637137365,
        57.402273851607887,
        57.464828067540864,
        57.340866801173192,
        57.38337196473185,
        57.442342897286558,
        57.143102113320296,
        56.837187008855643,
        56.526484645863803,
        56.382007152866692,
        56.994520091813129,
        57.184202497707737,
        56.68377289287551,
        55.280437902632194,
        0.0,
        0.0,
        0.0,
        39.851861714081501,
        37.651424276600387,
        61.620068085215493,
        46.347026891842546,
        62.146613299577069,
        62.091726083706931,
        62.379493832637657,
        62.566612843504267,
        62.971524624184781,
        63.216586346066642,
        63.532652004676287,
        63.770690440834599,
        63.867235009236055,
        63.82345275917767,
        63.820800230187309,
        64.140371306963303,
        63.930953168044184,
        63.854844006936119,
        63.882557597343471,
        64.061054242148884,
        64.163245537486716,
        64.199385095410221,
        64.235447762881691,
        64.09743938902082,
        63.642211446155599,
        63.858614412207729,
        63.8662400391555,
        63.627421352793874,
        63.594817215026566,
        63.107739131642504,
        61.787286749356817,
        61.319182386377172,
        61.195150255511784,
        61.063573739812242,
        60.934340146321304,
        60.804134586554866,
        60.672942265677236,
        60.733062686256659,
        60.792978842039858,
        60.852688412401086,
        60.912188862360118,
        60.889027104259611,
        60.957899964870315,
        61.131764619477593,
        61.160310244493431,
        60.910880375913699,
        60.878363663507869,
        46.022115688728846,
        45.727856142800462,
        39.791519382561923,
        41.326869442917847,
        41.661961163731959,
        41.828541395239412,
        62.849219663412022,
        63.05409555556848,
        63.428835059842079,
        63.537525455456844,
        63.645540995898017,
        63.578892822415661,
        63.745568898746981,
        63.750742129771922,
        62.948022434841732,
        63.082768507329725,
        62.71871602889,
        63.06967776775911,
        62.619329887060601,
        61.897303899414553,
        62.93437421154826,
        63.912815875724633,
        65.011166246503379,
        65.43572158534711,
        57.781293626260819,
        57.841276359464587,
        57.984495359564676,
        58.085208771883075,
        58.031902806292038,
        58.376544154408776,
        58.530978809648495,
        58.247903274877189,
        58.44387636807069,
        58.237590273168919,
        58.302818053274009,
        57.798439670305008,
        57.376332025490527,
        56.719814154117884,
        55.930846112661655,
        55.926333047525745,
        56.503378996850003,
        57.169571479017343,
        57.231511013372234,
        57.293227333751815,
        57.216054275955194,
        57.069880582054182,
        57.163351677980735,
        57.25632074524276,
        57.141792083910552,
        57.15380824844047,
        57.215606079130097,
        57.078400562274282,
        57.228163632212812,
        57.179595788110063,
        57.16391425882459,
        57.474527563694515,
        57.465762043600201,
        57.028644266901878,
        56.443880653026966,
        56.081658186229824,
        56.681178948539142,
        56.943645948290111,
        58.203735873469469,
        45.370128461782087,
        45.246144185942057,
        48.501412517738956,
        46.129647729732163,
        46.969452074543867,
        46.314476789164402,
        47.137976749790937,
        47.016177719593067,
        44.637831690996876,
        44.975827538460813,
        44.809796152461701,
        44.10178749677798,
        41.837367986952721,
        40.223790767267332,
        36.574707603370214,
        62.503642419199281,
        52.663120753839323,
        56.98649590924947,
        58.449032195137185,
        57.572017084021176,
        56.648193149748046,
        54.965553189839703,
        38.913765587784283,
        38.403649980074441,
        56.580483632087564,
        56.468705241418839,
        56.867931137853532,
        56.83506442807878,
        56.802136477166563,
        56.595148885261445,
        56.720545122895004,
        56.692762369553826,
        56.664932632240962,
        57.148792273747993,
        57.0406253586033,
        56.434184032502927,
        55.455968249777342,
        57.433322149717362,
        57.237360581642164,
        57.039153035239067,
        57.010918597035584,
        56.896572282111755,
        56.997103560540076,
        57.313984928941736,
        57.625173762857266,
        58.273695781275556,
        58.511896234983553,
        58.938786805597431,
        59.190366981717091,
        59.438342514153987,
        59.333058438379702,
        59.494368446357178,
        59.42929736851984,
        59.246066159252187,
        58.413841986033262,
        58.827397608351006,
        59.231304226985372,
        59.542047861744507,
        59.187289939018591,
        59.14203030354755,
        59.096653151112861,
        58.918389406861344,
        58.977740277079278,
        59.037300419650819,
        59.096658449581142,
        59.155813656561186,
        58.865012056892766,
        58.67247855519355,
        58.937390055186064,
        59.681233510373957,
        40.7879502278453,
        51.349903599238971,
        0.0,
        0.0,
        51.973151671680561,
        46.196231850581171,
        48.536014841375504,
        51.108626764556945,
        59.363259003289777,
        59.414432934882036,
        59.637717717715745,
        59.423580873257265,
        59.311373349104215,
        59.318127902444658,
        59.173814398323934,
        59.21996178180602,
        59.178038458271317,
        61.803565469917011,
        60.800020223981548,
        59.938067953894624,
        59.603094130078652,
        59.483828551072932,
        59.363735642723988,
        59.415064841512994,
        59.542853410447592,
        59.457731533686676,
        59.982275552038672,
        60.037561690521649,
        60.663186647838579,
        60.99385670539148,
        61.103145337749716,
        61.49125820770449,
        61.384944146225962,
        60.444996364086734,
        59.547398867132607,
        59.394567730133986,
        59.853215192443514,
        59.450997838591505,
        59.728119699094343,
        59.509255791167348,
        59.030496199625617,
        59.013683080920003,
        58.996851444335242,
        58.806008439482667,
        58.701231020632335,
        58.723772768701693,
        58.73035302271262,
        58.814376304374605,
        58.741815486628006,
        58.41330974388444,
        57.859480615982193,
        57.573122983740141,
        57.480062008164865,
        57.113191423304087,
        57.050822822277148,
        57.343877021559905,
        57.013254839600371,
        56.774562347919485,
        56.678787677516603,
        56.733159547918518,
        56.775253300949132,
        56.649289880510324,
        57.224056991801497,
        56.961093967484317,
        56.506995460141127,
        56.137008750557285,
        56.052604461162431,
        55.820857556742268,
        0.0,
        44.733146042318197,
        56.760517118419457,
        44.242726367987302,
        55.945417198890638,
        55.595662737331565,
        55.213255347288701,
        55.159427295073613,
        54.937114357853744,
        55.476373635011598,
        55.56382435103076,
        55.579174095592307,
        55.456350319310452,
        55.332650229702203,
        55.380320636836501,
        56.23356654386351,
        56.815441652295448,
        57.662982453418053,
        58.678570464907189,
        56.94631406195905,
        56.989200656884762,
        57.151314757167995,
        57.31192248499007,
        57.481259057591522,
        57.816167808339465,
        58.14472158905825,
        58.46716043559519,
        58.783695967220879,
        58.920558206352489,
        58.968888392781096,
        59.017081862057097,
        58.537820597183462,
        58.044910950753433,
        58.382225602966329,
        57.622092800480381,
        57.452575538215982,
        56.794342097368094,
        56.365139967511183,
        56.465869645116889,
        56.566021469852416,
        56.665594920900674,
        56.764601333145514,
        56.863043493094906,
        57.133191193485587,
        57.140590375482915,
        57.277713413561493,
        56.999770688662281,
        57.016791591940169,
        56.928465291152051,
        56.959684669876331,
        56.897033722859149,
        56.925278269314902,
        56.927143817900834,
        56.929010271701294,
        56.756882606517955,
        56.510045489433665,
        56.408308480164457,
        56.305972528681494,
        56.054046429322355,
        56.303456360998872,
        56.572595005819636,
        56.773893292238711,
        56.830407566049296,
        56.78389398343657,
        56.737255014756002,
        56.686838333968282,
        56.714009214376361,
        56.712840888056263,
        56.711672562900148,
        57.068337770796681,
        57.367296761207449,
        57.336272268543254,
        57.091689936676879,
        57.124489539371993,
        57.350760749163236,
        56.211300494269295,
        56.307274867994259,
        56.598767170750676,
        57.012964448337456,
        57.005548974829082,
        57.398484081760046,
        57.677730199827906,
        0.0,
        0.0,
        0.0,
        0.0,
        0.0,
        0.0,
        44.64630589066234,
        44.989133411461907,
        44.815138220384441,
        44.987403208729404,
        45.213493794424721,
        0.0,
        0.0,
        0.0,
        0.0,
        0.0,
        0.0,
        0.0,
        0.0,
        0.0,
        0.0,
        0.0,
        0.0,
        0.0,
        0.0,
        0.0,
        0.0,
        0.0,
        0.0,
        0.0,
        0.0,
        0.0,
        0.0,
        0.0,
        0.0,
        0.0,
        0.0,
        0.0,
        0.0,
        0.0,
        0.0,
        0.0,
        0.0,
        0.0,
        0.0,
        0.0,
        0.0,
        0.0
    ],
    "time": [
        0.02,
        0.040000000000000001,
        0.059999999999999998,
        0.080000000000000002,
        0.10000000000000001,
        0.12,
        0.14000000000000001,
        0.16,
        0.17999999999999999,
        0.20000000000000001,
        0.22,
        0.23999999999999999,
        0.26000000000000001,
        0.28000000000000003,
        0.29999999999999999,
        0.32000000000000001,
        0.34000000000000002,
        0.35999999999999999,
        0.38,
        0.40000000000000002,
        0.41999999999999998,
        0.44,
        0.46000000000000002,
        0.47999999999999998,
        0.5,
        0.52000000000000002,
        0.54000000000000004,
        0.56000000000000005,
        0.57999999999999996,
        0.59999999999999998,
        0.62,
        0.64000000000000001,
        0.66000000000000003,
        0.68000000000000005,
        0.69999999999999996,
        0.71999999999999997,
        0.73999999999999999,
        0.76000000000000001,
        0.78000000000000003,
        0.80000000000000004,
        0.81999999999999995,
        0.83999999999999997,
        0.85999999999999999,
        0.88,
        0.90000000000000002,
        0.92000000000000004,
        0.93999999999999995,
        0.95999999999999996,
        0.97999999999999998,
        1.0,
        1.02,
        1.04,
        1.0600000000000001,
        1.0800000000000001,
        1.1000000000000001,
        1.1200000000000001,
        1.1399999999999999,
        1.1599999999999999,
        1.1799999999999999,
        1.2,
        1.22,
        1.24,
        1.26,
        1.28,
        1.3,
        1.3200000000000001,
        1.3400000000000001,
        1.3600000000000001,
        1.3799999999999999,
        1.3999999999999999,
        1.4199999999999999,
        1.4399999999999999,
        1.46,
        1.48,
        1.5,
        1.52,
        1.54,
        1.5600000000000001,
        1.5800000000000001,
        1.6000000000000001,
        1.6200000000000001,
        1.6399999999999999,
        1.6599999999999999,
        1.6799999999999999,
        1.7,
        1.72,
        1.74,
        1.76,
        1.78,
        1.8,
        1.8200000000000001,
        1.8400000000000001,
        1.8600000000000001,
        1.8799999999999999,
        1.8999999999999999,
        1.9199999999999999,
        1.9399999999999999,
        1.96,
        1.98,
        2.0,
        2.02,
        2.04,
        2.0600000000000001,
        2.0800000000000001,
        2.1000000000000001,
        2.1200000000000001,
        2.1400000000000001,
        2.1600000000000001,
        2.1800000000000002,
        2.2000000000000002,
        2.2200000000000002,
        2.2400000000000002,
        2.2599999999999998,
        2.2799999999999998,
        2.2999999999999998,
        2.3199999999999998,
        2.3399999999999999,
        2.3599999999999999,
        2.3799999999999999,
        2.3999999999999999,
        2.4199999999999999,
        2.4399999999999999,
        2.46,
        2.48,
        2.5,
        2.52,
        2.54,
        2.5600000000000001,
        2.5800000000000001,
        2.6000000000000001,
        2.6200000000000001,
        2.6400000000000001,
        2.6600000000000001,
        2.6800000000000002,
        2.7000000000000002,
        2.7200000000000002,
        2.7400000000000002,
        2.7599999999999998,
        2.7799999999999998,
        2.7999999999999998,
        2.8199999999999998,
        2.8399999999999999,
        2.8599999999999999,
        2.8799999999999999,
        2.8999999999999999,
        2.9199999999999999,
        2.9399999999999999,
        2.96,
        2.98,
        3.0,
        3.02,
        3.04,
        3.0600000000000001,
        3.0800000000000001,
        3.1000000000000001,
        3.1200000000000001,
        3.1400000000000001,
        3.1600000000000001,
        3.1800000000000002,
        3.2000000000000002,
        3.2200000000000002,
        3.2400000000000002,
        3.2599999999999998,
        3.2799999999999998,
        3.2999999999999998,
        3.3199999999999998,
        3.3399999999999999,
        3.3599999999999999,
        3.3799999999999999,
        3.3999999999999999,
        3.4199999999999999,
        3.4399999999999999,
        3.46,
        3.48,
        3.5,
        3.52,
        3.54,
        3.5600000000000001,
        3.5800000000000001,
        3.6000000000000001,
        3.6200000000000001,
        3.6400000000000001,
        3.6600000000000001,
        3.6800000000000002,
        3.7000000000000002,
        3.7200000000000002,
        3.7400000000000002,
        3.7599999999999998,
        3.7799999999999998,
        3.7999999999999998,
        3.8199999999999998,
        3.8399999999999999,
        3.8599999999999999,
        3.8799999999999999,
        3.8999999999999999,
        3.9199999999999999,
        3.9399999999999999,
        3.96,
        3.98,
        4.0,
        4.0199999999999996,
        4.04,
        4.0599999999999996,
        4.0800000000000001,
        4.0999999999999996,
        4.1200000000000001,
        4.1399999999999997,
        4.1600000000000001,
        4.1799999999999997,
        4.2000000000000002,
        4.2199999999999998,
        4.2400000000000002,
        4.2599999999999998,
        4.2800000000000002,
        4.2999999999999998,
        4.3200000000000003,
        4.3399999999999999,
        4.3600000000000003,
        4.3799999999999999,
        4.4000000000000004,
        4.4199999999999999,
        4.4400000000000004,
        4.46,
        4.4800000000000004,
        4.5,
        4.5199999999999996,
        4.54,
        4.5599999999999996,
        4.5800000000000001,
        4.5999999999999996,
        4.6200000000000001,
        4.6399999999999997,
        4.6600000000000001,
        4.6799999999999997,
        4.7000000000000002,
        4.7199999999999998,
        4.7400000000000002,
        4.7599999999999998,
        4.7800000000000002,
        4.7999999999999998,
        4.8200000000000003,
        4.8399999999999999,
        4.8600000000000003,
        4.8799999999999999,
        4.9000000000000004,
        4.9199999999999999,
        4.9400000000000004,
        4.96,
        4.9800000000000004,
        5.0,
        5.0199999999999996,
        5.04,
        5.0599999999999996,
        5.0800000000000001,
        5.0999999999999996,
        5.1200000000000001,
        5.1399999999999997,
        5.1600000000000001,
        5.1799999999999997,
        5.2000000000000002,
        5.2199999999999998,
        5.2400000000000002,
        5.2599999999999998,
        5.2800000000000002,
        5.2999999999999998,
        5.3200000000000003,
        5.3399999999999999,
        5.3600000000000003,
        5.3799999999999999,
        5.4000000000000004,
        5.4199999999999999,
        5.4400000000000004,
        5.46,
        5.4800000000000004,
        5.5,
        5.5199999999999996,
        5.54,
        5.5599999999999996,
        5.5800000000000001,
        5.5999999999999996,
        5.6200000000000001,
        5.6399999999999997,
        5.6600000000000001,
        5.6799999999999997,
        5.7000000000000002,
        5.7199999999999998,
        5.7400000000000002,
        5.7599999999999998,
        5.7800000000000002,
        5.7999999999999998,
        5.8200000000000003,
        5.8399999999999999,
        5.8600000000000003,
        5.8799999999999999,
        5.9000000000000004,
        5.9199999999999999,
        5.9400000000000004,
        5.96,
        5.9800000000000004,
        6.0,
        6.0199999999999996,
        6.04,
        6.0599999999999996,
        6.0800000000000001,
        6.0999999999999996,
        6.1200000000000001,
        6.1399999999999997,
        6.1600000000000001,
        6.1799999999999997,
        6.2000000000000002,
        6.2199999999999998,
        6.2400000000000002,
        6.2599999999999998,
        6.2800000000000002,
        6.2999999999999998,
        6.3200000000000003,
        6.3399999999999999,
        6.3600000000000003,
        6.3799999999999999,
        6.4000000000000004,
        6.4199999999999999,
        6.4400000000000004,
        6.46,
        6.4800000000000004,
        6.5,
        6.5199999999999996,
        6.54,
        6.5599999999999996,
        6.5800000000000001,
        6.5999999999999996,
        6.6200000000000001,
        6.6399999999999997,
        6.6600000000000001,
        6.6799999999999997,
        6.7000000000000002,
        6.7199999999999998,
        6.7400000000000002,
        6.7599999999999998,
        6.7800000000000002,
        6.7999999999999998,
        6.8200000000000003,
        6.8399999999999999,
        6.8600000000000003,
        6.8799999999999999,
        6.9000000000000004,
        6.9199999999999999,
        6.9400000000000004,
        6.96,
        6.9800000000000004,
        7.0,
        7.0199999999999996,
        7.04,
        7.0599999999999996,
        7.0800000000000001,
        7.0999999999999996,
        7.1200000000000001,
        7.1399999999999997,
        7.1600000000000001,
        7.1799999999999997,
        7.2000000000000002,
        7.2199999999999998,
        7.2400000000000002,
        7.2599999999999998,
        7.2800000000000002,
        7.2999999999999998,
        7.3200000000000003,
        7.3399999999999999,
        7.3600000000000003,
        7.3799999999999999,
        7.4000000000000004,
        7.4199999999999999,
        7.4400000000000004,
        7.46,
        7.4800000000000004,
        7.5,
        7.5199999999999996,
        7.54,
        7.5599999999999996,
        7.5800000000000001,
        7.5999999999999996,
        7.6200000000000001,
        7.6399999999999997,
        7.6600000000000001,
        7.6799999999999997,
        7.7000000000000002,
        7.7199999999999998,
        7.7400000000000002,
        7.7599999999999998,
        7.7800000000000002,
        7.7999999999999998,
        7.8200000000000003,
        7.8399999999999999,
        7.8600000000000003,
        7.8799999999999999,
        7.9000000000000004,
        7.9199999999999999,
        7.9400000000000004,
        7.96,
        7.9800000000000004,
        8.0,
        8.0199999999999996,
        8.0399999999999991,
        8.0600000000000005,
        8.0800000000000001,
        8.0999999999999996,
        8.1199999999999992,
        8.1400000000000006,
        8.1600000000000001,
        8.1799999999999997,
        8.1999999999999993,
        8.2200000000000006,
        8.2400000000000002,
        8.2599999999999998,
        8.2799999999999994,
        8.3000000000000007,
        8.3200000000000003,
        8.3399999999999999,
        8.3599999999999994,
        8.3800000000000008,
        8.4000000000000004,
        8.4199999999999999,
        8.4399999999999995,
        8.4600000000000009,
        8.4800000000000004,
        8.5,
        8.5199999999999996,
        8.5399999999999991,
        8.5600000000000005,
        8.5800000000000001,
        8.5999999999999996,
        8.6199999999999992,
        8.6400000000000006,
        8.6600000000000001,
        8.6799999999999997,
        8.6999999999999993,
        8.7200000000000006,
        8.7400000000000002,
        8.7599999999999998,
        8.7799999999999994,
        8.8000000000000007,
        8.8200000000000003,
        8.8399999999999999,
        8.8599999999999994,
        8.8800000000000008,
        8.9000000000000004,
        8.9199999999999999,
        8.9399999999999995,
        8.9600000000000009,
        8.9800000000000004,
        9.0,
        9.0199999999999996,
        9.0399999999999991,
        9.0600000000000005,
        9.0800000000000001,
        9.0999999999999996,
        9.1199999999999992,
        9.1400000000000006,
        9.1600000000000001,
        9.1799999999999997,
        9.1999999999999993,
        9.2200000000000006,
        9.2400000000000002,
        9.2599999999999998,
        9.2799999999999994,
        9.3000000000000007,
        9.3200000000000003,
        9.3399999999999999,
        9.3599999999999994,
        9.3800000000000008,
        9.4000000000000004,
        9.4199999999999999,
        9.4399999999999995,
        9.4600000000000009,
        9.4800000000000004,
        9.5,
        9.5199999999999996,
        9.5399999999999991,
        9.5600000000000005,
        9.5800000000000001,
        9.5999999999999996,
        9.6199999999999992,
        9.6400000000000006,
        9.6600000000000001,
        9.6799999999999997,
        9.6999999999999993,
        9.7200000000000006,
        9.7400000000000002,
        9.7599999999999998,
        9.7799999999999994,
        9.8000000000000007,
        9.8200000000000003,
        9.8399999999999999,
        9.8599999999999994,
        9.8800000000000008,
        9.9000000000000004,
        9.9199999999999999,
        9.9399999999999995,
        9.9600000000000009,
        9.9800000000000004,
        10.0,
        10.02,
        10.039999999999999,
        10.06,
        10.08,
        10.1,
        10.119999999999999,
        10.140000000000001,
        10.16,
        10.18,
        10.199999999999999,
        10.220000000000001,
        10.24,
        10.26,
        10.279999999999999,
        10.300000000000001,
        10.32,
        10.34,
        10.359999999999999,
        10.380000000000001,
        10.4,
        10.42,
        10.44
    ]
}