{
    "f0": [
        36.506669311100261,
        42.706520110147565,
        43.094280776118204,
        61.903139563956948,
        61.956598055635709,
        61.83589727097911,
        61.740404052552975,
        61.799436272928041,
        61.964972019382749,
        61.902177010451759,
        61.839153462681537,
        61.761077944494488,
        61.690095680718535,
        61.957911046364345,
        60.581148978980309,
        61.024040905521758,
        60.292001748540009,
        61.112754766965935,
        61.355385037944288,
        61.336228593283309,
        61.101267531811985,
        61.651804251022,
        61.219511765470045,
        62.159885987747572,
        62.839989426346193,
        62.86620574293822,
        62.96270824541206,
        62.999246023255402,
        62.891386200296047,
        62.057193805666948,
        62.077955112154115,
        62.492152224949308,
        62.355844974644818,
        61.964387904287783,
        61.167030190372209,
        60.883359420358289,
        59.609709039723285,
        58.775153880409178,
        57.266488923858304,
        57.183269870163741,
        58.10238221968909,
        57.924093569650744,
        57.409759450024623,
        57.731770181357696,
        57.694038930942902,
        57.65622299482802,
        57.268569803990609,
        57.462879364048732,
        57.724893544681343,
        57.774629576153984,
        58.100685343186242,
        57.971498489491147,
        57.777667413737475,
        57.264113292085931,
        55.837277034448434,
        55.457922901340723,
        53.772143576402712,
        53.483865778030868,
        55.393318908765508,
        57.455764075100376,
        56.35353579977437,
        57.09363430112839,
        57.157992251002554,
        56.130708311575958,
        56.207307450162745,
        56.475470509062987,
        56.471313852489295,
        57.072791201877095,
        56.541650624173883,
        55.975111090715309,
        55.741850122522578,
        56.78342704698742,
        56.50080113150689,
        56.362968753393147,
        56.660577503407183,
        56.523806522145826,
        56.602113101677475,
        56.680067081864571,
        57.269400923855862,
        57.419650368860204,
        57.568602403154557,
        57.716290753674798,
        58.034992052757303,
        58.263559953850688,
        57.642831425654713,
        56.764379811109634,
        55.789120696256148,
        55.626761608313856,
        56.875729953757961,
        58.014216507152049,
        58.305214590840848,
        58.27127586485247,
        58.204793192959642,
        58.138049809322069,
        57.897057458340683,
        57.741113067968527,
        57.882009360874477,
        57.937847206583086,
        57.861389754564826,
        57.949490622231423,
        58.091873901479708,
        58.20597485678941,
        59.084557820392732,
        59.386343876302455,
        60.964595782160131,
        61.126488113595393,
        61.585329244800661,
        61.468927483253275,
        61.744952688904597,
        61.957478161068103,
        62.453692979638163,
        62.79747228553083,
        62.754052989867645,
        62.677596904961248,
        62.60080167050112,
        62.695927350696564,
        62.487946148898118,
        62.410422585984421,
        62.438147802442813,
        61.556791684007855,
        63.074815147775411,
        63.28444237999247,
        62.840791494131238,
        62.517760034904747,
        62.464133317957938,
        62.51419238054708,
        62.564107113346125,
        62.574340179142681,
        62.776595051289846,
        62.881868944242441,
        62.98650660446588,
        62.740761208288454,
        62.806520843828231,
        62.491314586981012,
        62.487288454190256,
        62.483263162095852,
        61.746172292612229,
        61.535632024376078,
        61.55336192515928,
        61.609372769815039,
        61.472129136038227,
        61.48789516906627,
        61.35425899801016,
        61.483758492774008,
        61.496109901392195,
        61.566604557807139,
        61.950706426178172,
        61.646283606742386,
        61.36468195062492,
        61.236321736576294,
        60.8536457379262,
        59.704350468506327,
        37.16308619723484,
        35.108567677691475,
        44.445719417567254,
        53.842841644562526,
        60.072143514013923,
        59.092633656291866,
        59.732146088434504,
        59.818849958726432,
        59.821088362147151,
        59.788914194678561,
        59.633560015209824,
        59.711292237688887,
        60.054193878075978,
        59.733419624069164,
        59.649686241361906,
        59.443832058718691,
        59.640031279908406,
        59.834031886145205,
        60.198144685179315,
        60.554756951377875,
        61.74884667261415,
        61.947720212094438,
        62.07698614825393,
        61.888994971298807,
        61.963189012481784,
        61.447905252329477,
        61.909050956365746,
        61.788381333896993,
        61.723442415712341,
        61.816785464986395,
        61.780305943987969,
        61.60023219023747,
        60.428928672696003,
        60.556176769165432,
        59.950673170981673,
        60.956908314305679,
        61.85107976605596,
        62.701327135002487,
        62.327150764476485,
        62.299733321053047,
        62.267654738118502,
        62.235516605404904,
        62.546150764666251,
        62.712848595975132,
        62.596913921024424,
        62.563528943715937,
        62.530079519853899,
        62.610109916618661,
        62.689770356111922,
        62.419308666131215,
        62.900917030919338,
        61.517118088655387,
        62.038963910066016,
        63.431488677150362,
        63.550504200068801,
        63.75291112707103,
        63.952978991072449,
        63.947115047392316,
        64.120671215898142,
        63.668744703257502,
        63.539132068488144,
        63.811942610886057,
        63.859774648684137,
        63.9074732591395,
        63.781044775525707,
        63.753462310642028,
        63.675938329898401,
        63.598064025076226,
        62.804094284289519,
        63.030142528972959,
        62.961658178214719,
        63.257691245557353,
        63.548745598257312,
        63.517308122592226,
        63.449311414228283,
        63.524077299472012,
        63.46689104542682,
        63.40951358246506,
        63.503773335601068,
        63.290478348926989,
        63.216415279112105,
        63.58266800816849,
        63.385911416133609,
        63.186894639676545,
        62.985563346331531,
        62.432108992506819,
        62.721013101715158,
        64.64964725412247,
        65.081086736492949,
        65.262496839823399,
        65.197930300138879,
        65.354657335874563,
        66.124792217572491,
        66.570256890869501,
        67.251557011769933,
        67.614585269309714,
        67.58671813690728,
        67.321269396866299,
        66.645407180806686,
        64.894250508544005,
        63.712212170994903,
        62.714405855115501,
        62.1910970944692,
        61.027539035895558,
        60.797179748283391,
        60.398571970858292,
        59.901310034540487,
        59.389341806284257,
        59.373506090165414,
        59.44627798573282,
        59.518744178246365,
        59.590911421601113,
        60.507451703350327,
        60.80741141506752,
        60.813229274918427,
        60.964114425743418,
        60.514614073676896,
        60.643726869578408,
        60.352291837222644,
        60.314857229096901,
        60.490880439364545,
        60.04691702656141,
        60.149703365963788,
        60.222177062479382,
        60.135150494414809,
        60.047684311548949,
        54.090802404517476,
        54.206536920137538,
        45.374140688846396,
        57.462667748430135,
        57.411633225639974,
        57.360447891893074,
        57.820846357883859,
        57.211530818222869,
        57.091163204170641,
        57.55913225082864,
        57.827406822232312,
        57.834354978155147,
        57.443021743375297,
        57.327021628764399,
        57.310541460008757,
        57.41618091615517,
        57.521182037749412,
        57.709988879372155,
        57.681049509548828,
        58.153688168710588,
        58.052518158322385,
        57.97252016941728,
        57.87866328791668,
        57.815336177383656,
        57.751777701029496,
        58.030813372949623,
        58.055164235816548,
        57.855132472309307,
        57.970247439054788,
        58.304192287771684,
        58.631820545944457,
        58.139941958889764,
        58.337993260004431,
        58.141326972643867,
        58.026153852031342,
        58.040366081239,
        57.892467847788915,
        57.803086351396438,
        58.026045201922045,
        58.246172565684965,
        57.575525099272113,
        58.086524857034391,
        58.495005559843982,
        58.049053418580492,
        57.31449202051818,
        0.0,
        0.0,
        0.0,
        0.0,
        0.0,
        0.0,
        45.82606173684934,
        52.618447148872463,
        57.711533107393841,
        58.223263914919457,
        0.0,
        0.0,
        0.0,
        0.0,
        0.0,
        0.0,
        0.0,
        0.0,
        0.0,
        0.0,
        0.0,
        0.0,
        0.0,
        0.0,
        0.0,
        0.0,
        0.0,
        0.0,
        0.0,
        0.0,
        0.0
    ],
    "time": [
        0.02,
        0.040000000000000001,
        0.059999999999999998,
        0.080000000000000002,
        0.10000000000000001,
        0.12,
        0.14000000000000001,
        0.16,
        0.17999999999999999,
        0.20000000000000001,
        0.22,
        0.23999999999999999,
        0.26000000000000001,
        0.28000000000000003,
        0.29999999999999999,
        0.32000000000000001,
        0.34000000000000002,
        0.35999999999999999,
        0.38,
        0.40000000000000002,
        0.41999999999999998,
        0.44,
        0.46000000000000002,
        0.47999999999999998,
        0.5,
        0.52000000000000002,
        0.54000000000000004,
        0.56000000000000005,
        0.57999999999999996,
        0.59999999999999998,
        0.62,
        0.64000000000000001,
        0.66000000000000003,
        0.68000000000000005,
        0.69999999999999996,
        0.71999999999999997,
        0.73999999999999999,
        0.76000000000000001,
        0.78000000000000003,
        0.80000000000000004,
        0.81999999999999995,
        0.83999999999999997,
        0.85999999999999999,
        0.88,
        0.90000000000000002,
        0.92000000000000004,
        0.93999999999999995,
        0.95999999999999996,
        0.97999999999999998,
        1.0,
        1.02,
        1.04,
        1.0600000000000001,
        1.0800000000000001,
        1.1000000000000001,
        1.1200000000000001,
        1.1399999999999999,
        1.1599999999999999,
        1.1799999999999999,
        1.2,
        1.22,
        1.24,
        1.26,
        1.28,
        1.3,
        1.3200000000000001,
        1.3400000000000001,
        1.3600000000000001,
        1.3799999999999999,
        1.3999999999999999,
        1.4199999999999999,
        1.4399999999999999,
        1.46,
        1.48,
        1.5,
        1.52,
        1.54,
        1.5600000000000001,
        1.5800000000000001,
        1.6000000000000001,
        1.6200000000000001,
        1.6399999999999999,
        1.6599999999999999,
        1.6799999999999999,
        1.7,
        1.72,
        1.74,
        1.76,
        1.78,
        1.8,
        1.8200000000000001,
        1.8400000000000001,
        1.8600000000000001,
        1.8799999999999999,
        1.8999999999999999,
        1.9199999999999999,
        1.9399999999999999,
        1.96,
        1.98,
        2.0,
        2.02,
        2.04,
        2.0600000000000001,
        2.0800000000000001,
        2.1000000000000001,
        2.1200000000000001,
        2.1400000000000001,
        2.1600000000000001,
        2.1800000000000002,
        2.2000000000000002,
        2.2200000000000002,
        2.2400000000000002,
        2.2599999999999998,
        2.2799999999999998,
        2.2999999999999998,
        2.3199999999999998,
        2.3399999999999999,
        2.3599999999999999,
        2.3799999999999999,
        2.3999999999999999,
        2.4199999999999999,
        2.4399999999999999,
        2.46,
        2.48,
        2.5,
        2.52,
        2.54,
        2.5600000000000001,
        2.5800000000000001,
        2.6000000000000001,
        2.6200000000000001,
        2.6400000000000001,
        2.6600000000000001,
        2.6800000000000002,
        2.7000000000000002,
        2.7200000000000002,
        2.7400000000000002,
        2.7599999999999998,
        2.7799999999999998,
        2.7999999999999998,
        2.8199999999999998,
        2.8399999999999999,
        2.8599999999999999,
        2.8799999999999999,
        2.8999999999999999,
        2.9199999999999999,
        2.9399999999999999,
        2.96,
        2.98,
        3.0,
        3.02,
        3.04,
        3.0600000000000001,
        3.0800000000000001,
        3.1000000000000001,
        3.1200000000000001,
        3.1400000000000001,
        3.1600000000000001,
        3.1800000000000002,
        3.2000000000000002,
        3.2200000000000002,
        3.2400000000000002,
        3.2599999999999998,
        3.2799999999999998,
        3.2999999999999998,
        3.3199999999999998,
        3.3399999999999999,
        3.3599999999999999,
        3.3799999999999999,
        3.3999999999999999,
        3.4199999999999999,
        3.4399999999999999,
        3.46,
        3.48,
        3.5,
        3.52,
        3.54,
        3.5600000000000001,
        3.5800000000000001,
        3.6000000000000001,
        3.6200000000000001,
        3.6400000000000001,
        3.6600000000000001,
        3.6800000000000002,
        3.7000000000000002,
        3.7200000000000002,
        3.7400000000000002,
        3.7599999999999998,
        3.7799999999999998,
        3.7999999999999998,
        3.8199999999999998,
        3.8399999999999999,
        3.8599999999999999,
        3.8799999999999999,
        3.8999999999999999,
        3.9199999999999999,
        3.9399999999999999,
        3.96,
        3.98,
        4.0,
        4.0199999999999996,
        4.04,
        4.0599999999999996,
        4.0800000000000001,
        4.0999999999999996,
        4.1200000000000001,
        4.1399999999999997,
        4.1600000000000001,
        4.1799999999999997,
        4.2000000000000002,
        4.2199999999999998,
        4.2400000000000002,
        4.2599999999999998,
        4.2800000000000002,
        4.2999999999999998,
        4.3200000000000003,
        4.3399999999999999,
        4.3600000000000003,
        4.3799999999999999,
        4.4000000000000004,
        4.4199999999999999,
        4.4400000000000004,
        4.46,
        4.4800000000000004,
        4.5,
        4.5199999999999996,
        4.54,
        4.5599999999999996,
        4.5800000000000001,
        4.5999999999999996,
        4.6200000000000001,
        4.6399999999999997,
        4.6600000000000001,
        4.6799999999999997,
        4.7000000000000002,
        4.7199999999999998,
        4.7400000000000002,
        4.7599999999999998,
        4.7800000000000002,
        4.7999999999999998,
        4.8200000000000003,
        4.8399999999999999,
        4.8600000000000003,
        4.8799999999999999,
        4.9000000000000004,
        4.9199999999999999,
        4.9400000000000004,
        4.96,
        4.9800000000000004,
        5.0,
        5.0199999999999996,
        5.04,
        5.0599999999999996,
        5.0800000000000001,
        5.0999999999999996,
        5.1200000000000001,
        5.1399999999999997,
        5.1600000000000001,
        5.1799999999999997,
        5.2000000000000002,
        5.2199999999999998,
        5.2400000000000002,
        5.2599999999999998,
        5.2800000000000002,
        5.2999999999999998,
        5.3200000000000003,
        5.3399999999999999,
        5.3600000000000003,
        5.3799999999999999,
        5.4000000000000004,
        5.4199999999999999,
        5.4400000000000004,
        5.46,
        5.4800000000000004,
        5.5,
        5.5199999999999996,
        5.54,
        5.5599999999999996,
        5.5800000000000001,
        5.5999999999999996,
        5.6200000000000001,
        5.6399999999999997,
        5.6600000000000001,
        5.6799999999999997,
        5.7000000000000002,
        5.7199999999999998,
        5.7400000000000002,
        5.7599999999999998,
        5.7800000000000002,
        5.7999999999999998,
        5.8200000000000003,
        5.8399999999999999,
        5.8600000000000003,
        5.8799999999999999,
        5.9000000000000004,
        5.9199999999999999,
        5.9400000000000004,
        5.96,
        5.9800000000000004,
        6.0,
        6.0199999999999996,
        6.04,
        6.0599999999999996,
        6.0800000000000001,
        6.0999999999999996,
        6.1200000000000001,
        6.1399999999999997,
        6.1600000000000001,
        6.1799999999999997,
        6.2000000000000002,
        6.2199999999999998,
        6.2400000000000002,
        6.2599999999999998,
        6.2800000000000002,
        6.2999999999999998,
        6.3200000000000003,
        6.3399999999999999,
        6.3600000000000003,
        6.3799999999999999,
        6.4000000000000004,
        6.4199999999999999,
        6.4400000000000004,
        6.46,
        6.4800000000000004,
        6.5,
        6.5199999999999996,
        6.54,
        6.5599999999999996,
        6.5800000000000001,
        6.5999999999999996,
        6.6200000000000001,
        6.6399999999999997,
        6.6600000000000001,
        6.6799999999999997,
        6.7000000000000002,
        6.7199999999999998,
        6.7400000000000002,
        6.7599999999999998,
        6.7800000000000002,
        6.7999999999999998,
        6.8200000000000003,
        6.8399999999999999,
        6.8600000000000003,
        6.8799999999999999,
        6.9000000000000004,
        6.9199999999999999,
        6.9400000000000004,
        6.96,
        6.9800000000000004,
        7.0,
        7.0199999999999996,
        7.04,
        7.0599999999999996,
        7.0800000000000001
    ]
}