{
    "DU": 17,
    "DV": 332,
    "F-measure": 0.244131455399061,
    "F-measure Chroma": 0.5352112676056338,
    "FN": 5,
    "FNC": 0,
    "FNCch": 0,
    "FNI": 5,
    "FNIch": 5,
    "FP": 54,
    "GU": 66,
    "GV": 283,
    "Overall Accuracy": 0.22349570200573066,
    "Overall Chroma Accuracy": 0.4899713467048711,
    "Precision": 0.22674418604651161,
    "Precision Chroma": 0.49709302325581395,
    "Raw Chroma Accuracy": 0.5618374558303887,
    "Raw Pitch Accuracy": 0.2332155477031802,
    "Recall": 0.26440677966101694,
    "Recall Chroma": 0.5796610169491525,
    "TN": 12,
    "TO": 349,
    "TP": 278,
    "TPC": 66,
    "TPCch": 159,
    "TPI": 212,
    "TPIch": 119,
    "Voiced Chroma Accuracy": 0.5618374558303887,
    "Voiced Pitch Accuracy": 0.2332155477031802,
    "Voicing Accuracy": 0.830945558739255,
    "Voicing Detection": 0.9823321554770318,
    "Voicing False Alarm": 0.8181818181818182
}