{
    "DU": 210,
    "DV": 305,
    "F-measure": 0.6815144766146993,
    "F-measure Chroma": 0.8151447661469933,
    "FN": 98,
    "FNC": 7,
    "FNCch": 12,
    "FNI": 91,
    "FNIch": 86,
    "FP": 34,
    "GU": 146,
    "GV": 369,
    "Overall Accuracy": 0.5941747572815534,
    "Overall Chroma Accuracy": 0.7106796116504854,
    "Precision": 0.7338129496402878,
    "Precision Chroma": 0.8776978417266187,
    "Raw Chroma Accuracy": 0.7208672086720868,
    "Raw Pitch Accuracy": 0.5447154471544715,
    "Recall": 0.6361746361746362,
    "Recall Chroma": 0.760914760914761,
    "TN": 112,
    "TO": 515,
    "TP": 271,
    "TPC": 194,
    "TPCch": 254,
    "TPI": 77,
    "TPIch": 17,
    "Voiced Chroma Accuracy": 0.6883468834688347,
    "Voiced Pitch Accuracy": 0.5257452574525745,
    "Voicing Accuracy": 0.7436893203883496,
    "Voicing Detection": 0.7344173441734417,
    "Voicing False Alarm": 0.2328767123287671
}