{
    "DU": 153,
    "DV": 198,
    "F-measure": 0.6903225806451614,
    "F-measure Chroma": 0.8322580645161289,
    "FN": 65,
    "FNC": 2,
    "FNCch": 28,
    "FNI": 63,
    "FNIch": 37,
    "FP": 17,
    "GU": 105,
    "GV": 246,
    "Overall Accuracy": 0.6096866096866097,
    "Overall Chroma Accuracy": 0.7350427350427351,
    "Precision": 0.7482517482517482,
    "Precision Chroma": 0.9020979020979021,
    "Raw Chroma Accuracy": 0.8048780487804879,
    "Raw Pitch Accuracy": 0.5203252032520326,
    "Recall": 0.6407185628742516,
    "Recall Chroma": 0.7724550898203593,
    "TN": 88,
    "TO": 351,
    "TP": 181,
    "TPC": 126,
    "TPCch": 170,
    "TPI": 55,
    "TPIch": 11,
    "Voiced Chroma Accuracy": 0.6910569105691057,
    "Voiced Pitch Accuracy": 0.5121951219512195,
    "Voicing Accuracy": 0.7663817663817664,
    "Voicing Detection": 0.7357723577235772,
    "Voicing False Alarm": 0.1619047619047619
}