{
    "DU": 138,
    "DV": 208,
    "F-measure": 0.47931034482758617,
    "F-measure Chroma": 0.7103448275862069,
    "FN": 92,
    "FNC": 9,
    "FNCch": 24,
    "FNI": 83,
    "FNIch": 68,
    "FP": 20,
    "GU": 66,
    "GV": 280,
    "Overall Accuracy": 0.40173410404624277,
    "Overall Chroma Accuracy": 0.5953757225433526,
    "Precision": 0.547244094488189,
    "Precision Chroma": 0.8110236220472441,
    "Raw Chroma Accuracy": 0.6571428571428571,
    "Raw Pitch Accuracy": 0.36428571428571427,
    "Recall": 0.4263803680981595,
    "Recall Chroma": 0.6319018404907976,
    "TN": 46,
    "TO": 346,
    "TP": 188,
    "TPC": 93,
    "TPCch": 160,
    "TPI": 95,
    "TPIch": 28,
    "Voiced Chroma Accuracy": 0.5714285714285714,
    "Voiced Pitch Accuracy": 0.33214285714285713,
    "Voicing Accuracy": 0.6763005780346821,
    "Voicing Detection": 0.6714285714285714,
    "Voicing False Alarm": 0.30303030303030304
}