{
    "f0": [
        43.904388293605827,
        55.924750027375183,
        56.097015098414047,
        56.269280124503013,
        56.439008270631831,
        56.607501196426512,
        57.285902635462925,
        56.987582205953416,
        56.926411879185451,
        56.865021002261429,
        56.803412927126892,
        56.371319530673667,
        55.92816373122902,
        55.639047590301701,
        55.603789214632492,
        57.201773032871515,
        55.564252267972549,
        54.267244824553579,
        54.110066119578249,
        39.593570207168945,
        57.379282041204874,
        57.382643745615141,
        42.315035657181994,
        35.412866210728581,
        55.771100903699022,
        43.923200191978452,
        56.438863096470946,
        44.207216915000316,
        56.897832131168954,
        57.25859449258391,
        50.24666928519288,
        36.779391474229179,
        38.650342872652125,
        38.443977594093425,
        38.452483736275489,
        38.329908156691353,
        38.225733078408332,
        37.947750901070208,
        38.080696909835844,
        35.24759649356178,
        37.825356299966586,
        38.135001529758796,
        57.125853298931901,
        57.555251075426789,
        57.4469352130441,
        57.209989928473597,
        57.377573919026794,
        57.543551155382815,
        58.250034791067399,
        58.496318358500254,
        58.603981389309382,
        59.12110518122509,
        58.897921685452239,
        58.914038028725614,
        58.797607233403795,
        58.844307286464343,
        58.851274514841705,
        58.805002310874421,
        59.173521013877036,
        58.894501543686602,
        58.778014682493179,
        59.255828410281417,
        58.831373244907809,
        58.769935994105282,
        58.708284361356718,
        59.027709927432298,
        59.027408736817129,
        59.027105441042139,
        58.959730663856135,
        59.098053005824944,
        59.035372461494376,
        58.84581512180614,
        58.771570730657238,
        58.697007567630664,
        58.708851173814864,
        58.710831021746493,
        58.819978585829631,
        58.525518549326286,
        58.495904276115859,
        58.503826710355696,
        58.507962093020218,
        58.856821750289512,
        58.871255418568211,
        58.96819925179156,
        58.907591797437846,
        58.740919625521983,
        58.968980538375973,
        59.054672928394268,
        57.901269664420525,
        57.869425191538937,
        56.356907081082724,
        59.328051173412348,
        59.532688424483595,
        59.568102037963875,
        59.67445458546441,
        59.395148009260978,
        59.357236687472266,
        59.686753452367725,
        59.501089383099199,
        60.025842302577956,
        60.776902803660946,
        61.031439835917254,
        61.16339203097337,
        61.179456698456498,
        61.326862142534836,
        61.05826495264165,
        61.175560793763474,
        60.836327148724678,
        60.853534247941568,
        60.945638402424933,
        60.941574769902267,
        60.91643368419313,
        60.944276988128642,
        61.10737581721046,
        61.188058473698042,
        61.308672053038222,
        61.2344620798522,
        61.159930652722323,
        61.112552163462063,
        61.065043595899368,
        61.017404296370913,
        60.969633543406069,
        61.036203329989576,
        61.102520045962564,
        61.042197724844243,
        60.981660607763857,
        60.932474538907407,
        60.904844225361011,
        60.877167730728317,
        60.849446983021338,
        60.850023835905944,
        60.998702944955681,
        61.245111459079936,
        61.782158927870981,
        61.14539600458491,
        61.194541432981381,
        61.24354780614167,
        61.162395066095087,
        61.196418597898244,
        60.850627507365878,
        60.874654763579684,
        60.790654279212021,
        60.833885179835683,
        61.841942441442832,
        61.456571563287397,
        61.90160346057931,
        61.751274301136981,
        61.708850180715842,
        61.084343002944465,
        60.566991591884545,
        60.47825207173679,
        60.167062257391201,
        60.642576911970195,
        60.101995408604722,
        60.797044701606069,
        47.522205035688543,
        37.315525590027271,
        36.683841657290969,
        44.545206106118968,
        59.191087551463312,
        58.875785548216456,
        59.02645599363121,
        59.542803608295806,
        58.80491687480967,
        59.940175525518626,
        59.963714434880544,
        59.808541558102426,
        59.288530141800763,
        59.283627914770349,
        59.278725265036563,
        59.273819156330575,
        59.94791671322006,
        59.37407246206849,
        59.309077492441141,
        59.152857703774217,
        59.085202929244339,
        59.169006625385819,
        59.252403428930023,
        59.335401451002888,
        59.418003533997648,
        59.500213301715519,
        59.408039743547008,
        59.43872741241659,
        59.274009752312267,
        59.344206436800448,
        59.177627666198347,
        59.599488164083944,
        59.223265427847593,
        59.323401580472009,
        59.202859127146546,
        59.361157528021415,
        59.460277558324634,
        59.558835420492954,
        59.404484895530778,
        59.296322094448513,
        59.506388651910626,
        60.421785908787498,
        60.78422285651736,
        61.215427224854729,
        61.485282077447216,
        61.475688109053735,
        61.400912652671771,
        61.325814663439935,
        61.076389725895702,
        61.084083132203396,
        60.980666440576144,
        61.040480605659255,
        61.10009261203426,
        61.331767595529875,
        61.47559355775067,
        61.31057246596302,
        61.215223907077032,
        61.255821864908675,
        60.910349683428763,
        60.756437770592342,
        43.608000649514551,
        0.0,
        0.0,
        0.0,
        51.376936434942451,
        42.116062749766265,
        61.219176763701356,
        38.631901605670464,
        56.661791009085846,
        58.51615297195255,
        0.0,
        0.0,
        0.0,
        59.772900770956028,
        39.866235169753367,
        57.734968654782733,
        38.979967506997603,
        45.36210953988121,
        61.58299067957077,
        39.559690453782167,
        41.600739013568145,
        46.988874185190113,
        59.826947413663724,
        59.93133001210451,
        60.207347826883961,
        60.56671993155669,
        60.819665332328654,
        60.768134756973403,
        60.723486103289275,
        59.787188802647925,
        38.685183188569169,
        39.391580120317983,
        36.933963091014526,
        38.229312498460146,
        37.988181136496344,
        37.603963794302061,
        36.394604829225898,
        35.897830624411583,
        69.057692318277176,
        43.848770274615191,
        38.128818460555792,
        38.430864830956587,
        43.358834072895846,
        69.585990489623711,
        69.672288610041377,
        43.702569304907172,
        43.614448743097228,
        43.614452664564496,
        43.466940810307143,
        44.400270114645622,
        44.232584972955571,
        43.023261608926795,
        43.453032631781561,
        44.868939107380918,
        0.0,
        0.0,
        0.0,
        45.268547334455519,
        47.888168844674034,
        41.471986634220578,
        68.997519081892804,
        38.992492684164866,
        44.531971515766713,
        44.58867859613261,
        44.295441769664656,
        41.021441009606789,
        69.084629496587553,
        69.031837453901318,
        44.854278758252832,
        44.854278758252832,
        43.791984437347352,
        40.984571545960229,
        38.868912808399173,
        39.430643823516363,
        0.0,
        0.0,
        0.0,
        0.0,
        44.358727585870696,
        43.470720024017432,
        34.925989718630426,
        39.718496627931692,
        66.049025700353994,
        66.189958125037577,
        66.155756515308227,
        66.055029234750151,
        66.498900006321691,
        66.606742936809013,
        65.98813653689723,
        66.501465081348385,
        66.501351307299188,
        66.17501876868765,
        66.009457175755003,
        66.269900652565866,
        66.572463301574459,
        66.6732520712427,
        66.773457509499011,
        66.87308762021317,
        67.144414411609475,
        67.499218338430566,
        67.454235323954933,
        67.201453399980892,
        67.393455981176686,
        67.697229878037788,
        67.995765340073902,
        68.289239977391347,
        68.228067079780715,
        69.021827915143277,
        68.910816611569018,
        68.56857733925122,
        69.016419694161272,
        68.851420854424276,
        68.989223491922104,
        69.209553391967731,
        68.49787058080625,
        69.288322527686304,
        69.317849832988131,
        69.327280892792132,
        69.315086261632089,
        69.316133243209322,
        69.336212184824475,
        69.333097000192765,
        69.154949532505725,
        69.235868177749282,
        69.413158654908202,
        69.366838325572587,
        69.341593230534244,
        69.442932804547084,
        69.389762176346821,
        69.041550119038064,
        69.009579336271315,
        68.466555661477742,
        68.344108900778821,
        68.220789925694106,
        67.976767236320342,
        67.96239209509848,
        67.831732377659463,
        67.758759984192821,
        67.828302214495125,
        68.151330434217058,
        68.170335805756537,
        68.329319250038807,
        68.326214753053719,
        68.106536953405268,
        67.994058885816656,
        39.999836926370882,
        43.740451650279759,
        0.0,
        0.0,
        0.0,
        40.737937480208586,
        0.0,
        0.0,
        50.872190841765743,
        46.484322991938683,
        43.736838033501982,
        41.518447551908551,
        41.853507343086591,
        41.647888000718041,
        41.052866514592566,
        41.569420860149862,
        39.85795668794902,
        38.343175027247419,
        35.584415666441757,
        35.742004052891517,
        36.168772091544454,
        35.403941503068765,
        38.861324397022877,
        66.43939159732291,
        66.112285102754868,
        66.121707022361974,
        66.382338995860394,
        66.515802489662235,
        67.05236562557036,
        67.028144132004371,
        66.17663864809893,
        66.233319707265352,
        51.185192793530859,
        44.669034403008069,
        43.607033876474986,
        42.520385578131425,
        42.599104360880972,
        41.850942367716769,
        42.006977971739744,
        38.406883702301641,
        42.945616711381078,
        66.86522332115922,
        67.302819353892104,
        67.379871039659861,
        67.631569160701162,
        67.619634235345302,
        67.551649338583914,
        67.483396414864444,
        67.414870755322141,
        67.594290172553443,
        67.507362753697862,
        67.660179057199585,
        67.693097039114008,
        67.611226318120316,
        67.82276887481693,
        69.241144303808497,
        42.165618735407847,
        40.630952858775807,
        43.48843796778182,
        43.983530182951256,
        42.471737461644643,
        43.59263488495003,
        42.388786570110426,
        44.063768122324618,
        46.334885418940743,
        48.357833475252832,
        0.0,
        70.15089865471721,
        70.15089865471721,
        69.976905871124188,
        69.976905871124188,
        69.976905871124188,
        69.976910407994708,
        69.976911523618426,
        69.802918933549492,
        69.714965813638486,
        69.626563538609801,
        69.880539498907368,
        70.097842222310277,
        70.154764265858944,
        70.633090286028704,
        70.54488154465102,
        44.061495474658685,
        44.404320795360846,
        43.310059806998204,
        43.365506041937003,
        43.318076614692103,
        43.270518282622874,
        42.891356973238942,
        42.036512082194086,
        43.13342267514782,
        42.078576401282348,
        41.882489042029242,
        38.634678573138707,
        35.728294133087715,
        35.553031172720495,
        35.375974663665602,
        69.629471225205734,
        44.940280971573813,
        69.105261450358299,
        69.181999709171563,
        68.945534779713512,
        68.705795256444972,
        69.060596636327091,
        69.092534326913949,
        69.282709869481081,
        69.904436978284608,
        70.122552596143521,
        69.820948273323239,
        69.230215965953363,
        68.938449453932776,
        68.991470154848287,
        69.21987707794689,
        69.184897458649019,
        68.78787657497314,
        69.079496656596376,
        44.257962403617036,
        0.0,
        0.0,
        0.0,
        0.0,
        0.0,
        40.47750091271125,
        43.965957647197754,
        65.986981939584226,
        64.974806779509407,
        64.709247133159039,
        64.439551974853771,
        64.508412734275097,
        64.891177071959362,
        65.624377757745236,
        65.889088107357949,
        66.184251250779965,
        66.457541406469218,
        66.560921183238108,
        66.574641775322021,
        66.105576142902194,
        66.210384291682672,
        66.135476856123859,
        65.975035499778429,
        66.198984948299056,
        66.113002960492921,
        65.923632187627021,
        66.127128408483571,
        66.234339680559032,
        66.725521811667889,
        66.667380838287613,
        65.849470280026182,
        65.657391284484902,
        66.14634179246859,
        66.084090793624455,
        65.802022991236981,
        61.977177630070535,
        61.973705875408193,
        61.442913762912426,
        62.014147476802876,
        66.002628287993289,
        65.895893004748686,
        0.0,
        0.0,
        63.002253227029328,
        0.0,
        50.683040435757675,
        65.058705380613077,
        0.0,
        0.0,
        0.0,
        0.0,
        0.0,
        0.0,
        0.0,
        0.0,
        0.0,
        0.0,
        0.0,
        0.0,
        0.0,
        0.0,
        0.0,
        0.0,
        0.0,
        0.0,
        0.0,
        0.0,
        0.0,
        0.0,
        0.0,
        0.0,
        0.0,
        0.0,
        0.0,
        0.0,
        0.0,
        0.0,
        0.0
    ],
    "time": [
        0.02,
        0.040000000000000001,
        0.059999999999999998,
        0.080000000000000002,
        0.10000000000000001,
        0.12,
        0.14000000000000001,
        0.16,
        0.17999999999999999,
        0.20000000000000001,
        0.22,
        0.23999999999999999,
        0.26000000000000001,
        0.28000000000000003,
        0.29999999999999999,
        0.32000000000000001,
        0.34000000000000002,
        0.35999999999999999,
        0.38,
        0.40000000000000002,
        0.41999999999999998,
        0.44,
        0.46000000000000002,
        0.47999999999999998,
        0.5,
        0.52000000000000002,
        0.54000000000000004,
        0.56000000000000005,
        0.57999999999999996,
        0.59999999999999998,
        0.62,
        0.64000000000000001,
        0.66000000000000003,
        0.68000000000000005,
        0.69999999999999996,
        0.71999999999999997,
        0.73999999999999999,
        0.76000000000000001,
        0.78000000000000003,
        0.80000000000000004,
        0.81999999999999995,
        0.83999999999999997,
        0.85999999999999999,
        0.88,
        0.90000000000000002,
        0.92000000000000004,
        0.93999999999999995,
        0.95999999999999996,
        0.97999999999999998,
        1.0,
        1.02,
        1.04,
        1.0600000000000001,
        1.0800000000000001,
        1.1000000000000001,
        1.1200000000000001,
        1.1399999999999999,
        1.1599999999999999,
        1.1799999999999999,
        1.2,
        1.22,
        1.24,
        1.26,
        1.28,
        1.3,
        1.3200000000000001,
        1.3400000000000001,
        1.3600000000000001,
        1.3799999999999999,
        1.3999999999999999,
        1.4199999999999999,
        1.4399999999999999,
        1.46,
        1.48,
        1.5,
        1.52,
        1.54,
        1.5600000000000001,
        1.5800000000000001,
        1.6000000000000001,
        1.6200000000000001,
        1.6399999999999999,
        1.6599999999999999,
        1.6799999999999999,
        1.7,
        1.72,
        1.74,
        1.76,
        1.78,
        1.8,
        1.8200000000000001,
        1.8400000000000001,
        1.8600000000000001,
        1.8799999999999999,
        1.8999999999999999,
        1.9199999999999999,
        1.9399999999999999,
        1.96,
        1.98,
        2.0,
        2.02,
        2.04,
        2.0600000000000001,
        2.0800000000000001,
        2.1000000000000001,
        2.1200000000000001,
        2.1400000000000001,
        2.1600000000000001,
        2.1800000000000002,
        2.2000000000000002,
        2.2200000000000002,
        2.2400000000000002,
        2.2599999999999998,
        2.2799999999999998,
        2.2999999999999998,
        2.3199999999999998,
        2.3399999999999999,
        2.3599999999999999,
        2.3799999999999999,
        2.3999999999999999,
        2.4199999999999999,
        2.4399999999999999,
        2.46,
        2.48,
        2.5,
        2.52,
        2.54,
        2.5600000000000001,
        2.5800000000000001,
        2.6000000000000001,
        2.6200000000000001,
        2.6400000000000001,
        2.6600000000000001,
        2.6800000000000002,
        2.7000000000000002,
        2.7200000000000002,
        2.7400000000000002,
        2.7599999999999998,
        2.7799999999999998,
        2.7999999999999998,
        2.8199999999999998,
        2.8399999999999999,
        2.8599999999999999,
        2.8799999999999999,
        2.8999999999999999,
        2.9199999999999999,
        2.9399999999999999,
        2.96,
        2.98,
        3.0,
        3.02,
        3.04,
        3.0600000000000001,
        3.0800000000000001,
        3.1000000000000001,
        3.1200000000000001,
        3.1400000000000001,
        3.1600000000000001,
        3.1800000000000002,
        3.2000000000000002,
        3.2200000000000002,
        3.2400000000000002,
        3.2599999999999998,
        3.2799999999999998,
        3.2999999999999998,
        3.3199999999999998,
        3.3399999999999999,
        3.3599999999999999,
        3.3799999999999999,
        3.3999999999999999,
        3.4199999999999999,
        3.4399999999999999,
        3.46,
        3.48,
        3.5,
        3.52,
        3.54,
        3.5600000000000001,
        3.5800000000000001,
        3.6000000000000001,
        3.6200000000000001,
        3.6400000000000001,
        3.6600000000000001,
        3.6800000000000002,
        3.7000000000000002,
        3.7200000000000002,
        3.7400000000000002,
        3.7599999999999998,
        3.7799999999999998,
        3.7999999999999998,
        3.8199999999999998,
        3.8399999999999999,
        3.8599999999999999,
        3.8799999999999999,
        3.8999999999999999,
        3.9199999999999999,
        3.9399999999999999,
        3.96,
        3.98,
        4.0,
        4.0199999999999996,
        4.04,
        4.0599999999999996,
        4.0800000000000001,
        4.0999999999999996,
        4.1200000000000001,
        4.1399999999999997,
        4.1600000000000001,
        4.1799999999999997,
        4.2000000000000002,
        4.2199999999999998,
        4.2400000000000002,
        4.2599999999999998,
        4.2800000000000002,
        4.2999999999999998,
        4.3200000000000003,
        4.3399999999999999,
        4.3600000000000003,
        4.3799999999999999,
        4.4000000000000004,
        4.4199999999999999,
        4.4400000000000004,
        4.46,
        4.4800000000000004,
        4.5,
        4.5199999999999996,
        4.54,
        4.5599999999999996,
        4.5800000000000001,
        4.5999999999999996,
        4.6200000000000001,
        4.6399999999999997,
        4.6600000000000001,
        4.6799999999999997,
        4.7000000000000002,
        4.7199999999999998,
        4.7400000000000002,
        4.7599999999999998,
        4.7800000000000002,
        4.7999999999999998,
        4.8200000000000003,
        4.8399999999999999,
        4.8600000000000003,
        4.8799999999999999,
        4.9000000000000004,
        4.9199999999999999,
        4.9400000000000004,
        4.96,
        4.9800000000000004,
        5.0,
        5.0199999999999996,
        5.04,
        5.0599999999999996,
        5.0800000000000001,
        5.0999999999999996,
        5.1200000000000001,
        5.1399999999999997,
        5.1600000000000001,
        5.1799999999999997,
        5.2000000000000002,
        5.2199999999999998,
        5.2400000000000002,
        5.2599999999999998,
        5.2800000000000002,
        5.2999999999999998,
        5.3200000000000003,
        5.3399999999999999,
        5.3600000000000003,
        5.3799999999999999,
        5.4000000000000004,
        5.4199999999999999,
        5.4400000000000004,
        5.46,
        5.4800000000000004,
        5.5,
        5.5199999999999996,
        5.54,
        5.5599999999999996,
        5.5800000000000001,
        5.5999999999999996,
        5.6200000000000001,
        5.6399999999999997,
        5.6600000000000001,
        5.6799999999999997,
        5.7000000000000002,
        5.7199999999999998,
        5.7400000000000002,
        5.7599999999999998,
        5.7800000000000002,
        5.7999999999999998,
        5.8200000000000003,
        5.8399999999999999,
        5.8600000000000003,
        5.8799999999999999,
        5.9000000000000004,
        5.9199999999999999,
        5.9400000000000004,
        5.96,
        5.9800000000000004,
        6.0,
        6.0199999999999996,
        6.04,
        6.0599999999999996,
        6.0800000000000001,
        6.0999999999999996,
        6.1200000000000001,
        6.1399999999999997,
        6.1600000000000001,
        6.1799999999999997,
        6.2000000000000002,
        6.2199999999999998,
        6.2400000000000002,
        6.2599999999999998,
        6.2800000000000002,
        6.2999999999999998,
        6.3200000000000003,
        6.3399999999999999,
        6.3600000000000003,
        6.3799999999999999,
        6.4000000000000004,
        6.4199999999999999,
        6.4400000000000004,
        6.46,
        6.4800000000000004,
        6.5,
        6.5199999999999996,
        6.54,
        6.5599999999999996,
        6.5800000000000001,
        6.5999999999999996,
        6.6200000000000001,
        6.6399999999999997,
        6.6600000000000001,
        6.6799999999999997,
        6.7000000000000002,
        6.7199999999999998,
        6.7400000000000002,
        6.7599999999999998,
        6.7800000000000002,
        6.7999999999999998,
        6.8200000000000003,
        6.8399999999999999,
        6.8600000000000003,
        6.8799999999999999,
        6.9000000000000004,
        6.9199999999999999,
        6.9400000000000004,
        6.96,
        6.9800000000000004,
        7.0,
        7.0199999999999996,
        7.04,
        7.0599999999999996,
        7.0800000000000001,
        7.0999999999999996,
        7.1200000000000001,
        7.1399999999999997,
        7.1600000000000001,
        7.1799999999999997,
        7.2000000000000002,
        7.2199999999999998,
        7.2400000000000002,
        7.2599999999999998,
        7.2800000000000002,
        7.2999999999999998,
        7.3200000000000003,
        7.3399999999999999,
        7.3600000000000003,
        7.3799999999999999,
        7.4000000000000004,
        7.4199999999999999,
        7.4400000000000004,
        7.46,
        7.4800000000000004,
        7.5,
        7.5199999999999996,
        7.54,
        7.5599999999999996,
        7.5800000000000001,
        7.5999999999999996,
        7.6200000000000001,
        7.6399999999999997,
        7.6600000000000001,
        7.6799999999999997,
        7.7000000000000002,
        7.7199999999999998,
        7.7400000000000002,
        7.7599999999999998,
        7.7800000000000002,
        7.7999999999999998,
        7.8200000000000003,
        7.8399999999999999,
        7.8600000000000003,
        7.8799999999999999,
        7.9000000000000004,
        7.9199999999999999,
        7.9400000000000004,
        7.96,
        7.9800000000000004,
        8.0,
        8.0199999999999996,
        8.0399999999999991,
        8.0600000000000005,
        8.0800000000000001,
        8.0999999999999996,
        8.1199999999999992,
        8.1400000000000006,
        8.1600000000000001,
        8.1799999999999997,
        8.1999999999999993,
        8.2200000000000006,
        8.2400000000000002,
        8.2599999999999998,
        8.2799999999999994,
        8.3000000000000007,
        8.3200000000000003,
        8.3399999999999999,
        8.3599999999999994,
        8.3800000000000008,
        8.4000000000000004,
        8.4199999999999999,
        8.4399999999999995,
        8.4600000000000009,
        8.4800000000000004,
        8.5,
        8.5199999999999996,
        8.5399999999999991,
        8.5600000000000005,
        8.5800000000000001,
        8.5999999999999996,
        8.6199999999999992,
        8.6400000000000006,
        8.6600000000000001,
        8.6799999999999997,
        8.6999999999999993,
        8.7200000000000006,
        8.7400000000000002,
        8.7599999999999998,
        8.7799999999999994,
        8.8000000000000007,
        8.8200000000000003,
        8.8399999999999999,
        8.8599999999999994,
        8.8800000000000008,
        8.9000000000000004,
        8.9199999999999999,
        8.9399999999999995,
        8.9600000000000009,
        8.9800000000000004,
        9.0,
        9.0199999999999996,
        9.0399999999999991,
        9.0600000000000005,
        9.0800000000000001,
        9.0999999999999996,
        9.1199999999999992,
        9.1400000000000006,
        9.1600000000000001,
        9.1799999999999997,
        9.1999999999999993,
        9.2200000000000006,
        9.2400000000000002,
        9.2599999999999998,
        9.2799999999999994,
        9.3000000000000007,
        9.3200000000000003,
        9.3399999999999999,
        9.3599999999999994,
        9.3800000000000008,
        9.4000000000000004,
        9.4199999999999999,
        9.4399999999999995,
        9.4600000000000009,
        9.4800000000000004,
        9.5,
        9.5199999999999996,
        9.5399999999999991,
        9.5600000000000005,
        9.5800000000000001,
        9.5999999999999996,
        9.6199999999999992,
        9.6400000000000006,
        9.6600000000000001,
        9.6799999999999997,
        9.6999999999999993,
        9.7200000000000006,
        9.7400000000000002,
        9.7599999999999998,
        9.7799999999999994,
        9.8000000000000007,
        9.8200000000000003,
        9.8399999999999999,
        9.8599999999999994,
        9.8800000000000008,
        9.9000000000000004,
        9.9199999999999999,
        9.9399999999999995,
        9.9600000000000009,
        9.9800000000000004,
        10.0,
        10.02,
        10.039999999999999,
        10.06,
        10.08,
        10.1,
        10.119999999999999,
        10.140000000000001,
        10.16,
        10.18,
        10.199999999999999,
        10.220000000000001,
        10.24,
        10.26,
        10.279999999999999,
        10.300000000000001,
        10.32,
        10.34,
        10.359999999999999,
        10.380000000000001,
        10.4,
        10.42,
        10.44,
        10.460000000000001,
        10.48,
        10.5,
        10.52,
        10.539999999999999,
        10.56,
        10.58,
        10.6,
        10.619999999999999,
        10.640000000000001,
        10.66,
        10.68,
        10.699999999999999,
        10.720000000000001,
        10.74,
        10.76,
        10.779999999999999,
        10.800000000000001,
        10.82,
        10.84,
        10.859999999999999,
        10.880000000000001,
        10.9,
        10.92,
        10.94,
        10.960000000000001,
        10.98,
        11.0,
        11.02,
        11.039999999999999,
        11.06,
        11.08,
        11.1
    ]
}