{
    "DU": 161,
    "DV": 402,
    "F-measure": 0.948051948051948,
    "F-measure Chroma": 0.9406307977736549,
    "FN": 48,
    "FNC": 8,
    "FNCch": 17,
    "FNI": 40,
    "FNIch": 31,
    "FP": 0,
    "GU": 113,
    "GV": 450,
    "Overall Accuracy": 0.9076376554174067,
    "Overall Chroma Accuracy": 0.9005328596802842,
    "Precision": 0.9922330097087378,
    "Precision Chroma": 0.9844660194174757,
    "Raw Chroma Accuracy": 0.9133333333333333,
    "Raw Pitch Accuracy": 0.9022222222222223,
    "Recall": 0.9076376554174067,
    "Recall Chroma": 0.9005328596802842,
    "TN": 113,
    "TO": 563,
    "TP": 402,
    "TPC": 398,
    "TPCch": 394,
    "TPI": 4,
    "TPIch": 8,
    "Voiced Chroma Accuracy": 0.8755555555555555,
    "Voiced Pitch Accuracy": 0.8844444444444445,
    "Voicing Accuracy": 0.9147424511545293,
    "Voicing Detection": 0.8933333333333333,
    "Voicing False Alarm": 0.0
}