{
    "DU": 190,
    "DV": 389,
    "F-measure": 0.9036363636363637,
    "F-measure Chroma": 0.94,
    "FN": 20,
    "FNC": 10,
    "FNCch": 14,
    "FNI": 10,
    "FNIch": 6,
    "FP": 38,
    "GU": 208,
    "GV": 371,
    "Overall Accuracy": 0.8583765112262521,
    "Overall Chroma Accuracy": 0.8929188255613126,
    "Precision": 0.889087656529517,
    "Precision Chroma": 0.924865831842576,
    "Raw Chroma Accuracy": 0.9730458221024259,
    "Raw Pitch Accuracy": 0.9083557951482479,
    "Recall": 0.9186691312384473,
    "Recall Chroma": 0.955637707948244,
    "TN": 170,
    "TO": 579,
    "TP": 351,
    "TPC": 327,
    "TPCch": 347,
    "TPI": 24,
    "TPIch": 4,
    "Voiced Chroma Accuracy": 0.9353099730458221,
    "Voiced Pitch Accuracy": 0.8814016172506739,
    "Voicing Accuracy": 0.8998272884283247,
    "Voicing Detection": 0.9460916442048517,
    "Voicing False Alarm": 0.18269230769230768
}