{
    "DU": 81,
    "DV": 228,
    "F-measure": 0.8888888888888888,
    "F-measure Chroma": 0.9097222222222222,
    "FN": 8,
    "FNC": 3,
    "FNCch": 4,
    "FNI": 5,
    "FNIch": 4,
    "FP": 34,
    "GU": 107,
    "GV": 202,
    "Overall Accuracy": 0.8284789644012945,
    "Overall Chroma Accuracy": 0.8478964401294499,
    "Precision": 0.8504983388704319,
    "Precision Chroma": 0.8704318936877077,
    "Raw Chroma Accuracy": 0.9554455445544554,
    "Raw Pitch Accuracy": 0.9207920792079208,
    "Recall": 0.9309090909090909,
    "Recall Chroma": 0.9527272727272728,
    "TN": 73,
    "TO": 309,
    "TP": 194,
    "TPC": 183,
    "TPCch": 189,
    "TPI": 11,
    "TPIch": 5,
    "Voiced Chroma Accuracy": 0.9356435643564357,
    "Voiced Pitch Accuracy": 0.905940594059406,
    "Voicing Accuracy": 0.8640776699029126,
    "Voicing Detection": 0.9603960396039604,
    "Voicing False Alarm": 0.3177570093457944
}