{
    "DU": 365,
    "DV": 229,
    "F-measure": 0.9328558639212174,
    "F-measure Chroma": 0.936436884512086,
    "FN": 71,
    "FNC": 0,
    "FNCch": 16,
    "FNI": 71,
    "FNIch": 55,
    "FP": 0,
    "GU": 294,
    "GV": 300,
    "Overall Accuracy": 0.877104377104377,
    "Overall Chroma Accuracy": 0.8804713804713805,
    "Precision": 0.9961759082217974,
    "Precision Chroma": 1.0,
    "Raw Chroma Accuracy": 0.8166666666666667,
    "Raw Pitch Accuracy": 0.7566666666666667,
    "Recall": 0.877104377104377,
    "Recall Chroma": 0.8804713804713805,
    "TN": 294,
    "TO": 594,
    "TP": 229,
    "TPC": 227,
    "TPCch": 229,
    "TPI": 2,
    "TPIch": 0,
    "Voiced Chroma Accuracy": 0.7633333333333333,
    "Voiced Pitch Accuracy": 0.7566666666666667,
    "Voicing Accuracy": 0.8804713804713805,
    "Voicing Detection": 0.7633333333333333,
    "Voicing False Alarm": 0.0
}