{
    "DU": 227,
    "DV": 230,
    "F-measure": 0.3625,
    "F-measure Chroma": 0.5175,
    "FN": 85,
    "FNC": 0,
    "FNCch": 9,
    "FNI": 85,
    "FNIch": 76,
    "FP": 29,
    "GU": 171,
    "GV": 286,
    "Overall Accuracy": 0.3172866520787746,
    "Overall Chroma Accuracy": 0.45295404814004375,
    "Precision": 0.3897849462365591,
    "Precision Chroma": 0.5564516129032258,
    "Raw Chroma Accuracy": 0.25874125874125875,
    "Raw Pitch Accuracy": 0.01048951048951049,
    "Recall": 0.338785046728972,
    "Recall Chroma": 0.48364485981308414,
    "TN": 142,
    "TO": 457,
    "TP": 201,
    "TPC": 3,
    "TPCch": 65,
    "TPI": 198,
    "TPIch": 136,
    "Voiced Chroma Accuracy": 0.22727272727272727,
    "Voiced Pitch Accuracy": 0.01048951048951049,
    "Voicing Accuracy": 0.75054704595186,
    "Voicing Detection": 0.7027972027972028,
    "Voicing False Alarm": 0.1695906432748538
}