{
    "f0": [
        0.0,
        0.0,
        43.349959099987963,
        42.832531306854335,
        42.649029044499969,
        42.647121253257808,
        42.487682163300249,
        42.358351399739547,
        42.297931782330494,
        42.444880010351021,
        42.606693284634787,
        42.75903256650713,
        42.757829993738227,
        42.774727499054428,
        42.796383561455684,
        42.815626232789477,
        42.925808763097386,
        0.0,
        0.0,
        0.0,
        0.0,
        0.0,
        0.0,
        0.0,
        54.810169598133193,
        47.337322550767638,
        47.163328665873649,
        46.989334517004366,
        47.054629109843205,
        47.235255694675701,
        47.591659956769746,
        48.045972441285301,
        48.628639176565216,
        49.124728238756859,
        49.208460626512746,
        49.264673108998288,
        49.173268180823158,
        49.429406944217149,
        49.681809357709547,
        49.848277688477829,
        49.949080822686831,
        49.880864942017531,
        49.848566242540144,
        49.989923701787092,
        50.257736781622732,
        51.13775547293136,
        50.824080681109926,
        50.661716559114161,
        50.646577204865579,
        50.495923615021496,
        50.378993902643664,
        50.475794451700395,
        50.623828706550512,
        50.744957985816484,
        50.800889281874106,
        50.828265853875735,
        50.889352596759458,
        50.902841727304093,
        50.766014499744507,
        50.494428793294972,
        50.45880973535342,
        50.47540581258302,
        50.302139727100894,
        50.127123762876494,
        0.0,
        53.338327899631665,
        53.681150597879892,
        51.764210344958286,
        51.549778712220117,
        51.360702202413471,
        51.296500508544455,
        51.320299800531757,
        51.497565499629729,
        51.555326555054236,
        52.060464823879613,
        52.507458582098202,
        52.736134189766283,
        52.911166662816356,
        53.011149600659699,
        52.985404402592131,
        52.941359905070904,
        52.732364228830527,
        52.430448851333807,
        51.995232917823785,
        51.548790072212753,
        50.916538641033306,
        50.675212702832454,
        51.065988699290628,
        51.913442487865382,
        51.973535349534799,
        51.522060635220583,
        51.248843698540441,
        51.149209058480061,
        51.131989667385014,
        51.041101682821896,
        51.09785209827379,
        51.205309840876211,
        51.286830946917746,
        51.155677771599549,
        51.023524985129221,
        50.749898047312847,
        50.543380583740174,
        49.988130638421296,
        49.766558404777136,
        49.707503534070128,
        49.604998197816244,
        49.446200090075962,
        49.521638856690117,
        49.696387855715876,
        49.869392469101747,
        49.98980136220343,
        49.960673751954225,
        49.942101793825387,
        50.016521993051953,
        50.104323788075732,
        50.184866547122091,
        50.014862917006134,
        49.925051275475852,
        49.546679559506543,
        48.957997448855856,
        47.926108613882768,
        46.881146133163718,
        45.769032326204936,
        45.128015515765867,
        44.671357327347415,
        44.816253455640329,
        44.867268059818642,
        45.136659497558199,
        45.292935798012067,
        45.447812796048041,
        45.284284515592901,
        45.508363072768773,
        45.729576074899171,
        45.77400025712155,
        45.731309716659737,
        45.688514703952414,
        45.817869832217696,
        45.753182590613768,
        45.753264261477639,
        45.944914892847649,
        46.10229088205179,
        46.086702968358239,
        46.046438111759926,
        45.943623245013171,
        45.840193080089897,
        45.706141305107991,
        45.571046946396237,
        45.475862802414241,
        46.16417471629012,
        46.422839470853319,
        46.201225545403339,
        46.082951896791499,
        46.082737673137927,
        46.24784184337399,
        46.658269843699415,
        47.229357627428655,
        47.7000052056339,
        48.071051499930462,
        48.27478760846347,
        48.308577889781624,
        48.290442905158699,
        48.113699466902254,
        47.665676028050861,
        46.994875076206633,
        0.0,
        0.0,
        0.0,
        0.0,
        0.0,
        0.0,
        49.153357333230545,
        48.09135613251636,
        47.741598098544735,
        47.729709436953904,
        47.555715437046317,
        47.636001923954183,
        47.761019235673771,
        47.828952339921486,
        47.808819291271398,
        47.805874597762227,
        47.714285823710412,
        47.77060898854333,
        47.826747503122917,
        47.938840078175687,
        47.956717272317952,
        47.974576025024312,
        48.075395029272002,
        48.134431134408608,
        48.077656833398521,
        48.094027588383739,
        48.273513484849119,
        48.084080795598297,
        47.95095672926994,
        47.886378116617678,
        48.036634819584904,
        48.138233896351686,
        48.140357412375508,
        48.183066985487045,
        48.201081233162697,
        48.057372260342653,
        47.964323623714279,
        48.166336291910369,
        48.343058533726442,
        48.355362546901645,
        47.742383132042107,
        47.935031784289947,
        48.125558145764359,
        48.48628265088648,
        48.228141107132977,
        49.120081835411447,
        51.021810503683064,
        49.895229754672044,
        48.882021838151083,
        48.67723456705675,
        48.266546939283899,
        48.173475082887443,
        48.387868546761688,
        48.599643401141705,
        48.938962074201896,
        49.271761619711384,
        49.56901544648963,
        49.77201909097537,
        49.897678515425184,
        50.024536422231954,
        50.062428965709437,
        50.097142335313976,
        50.225834210674883,
        50.306962076797632,
        50.34194740424266,
        50.310943737054771,
        50.280588874139283,
        50.18290841356675,
        50.0240208377583,
        49.727379688496377,
        49.495039290072491,
        49.050364389292483,
        48.1743408737713,
        47.124427743831063,
        46.234892577549203,
        45.526318387092701,
        45.512976414603244,
        45.540630221397869,
        45.744470828821044,
        45.859068165873957,
        45.666362291236155,
        45.220468631730903,
        44.718123850567174,
        45.499974001513451,
        45.863608319875539,
        45.702405994636202,
        45.813522786099561,
        45.633499061167534,
        46.71463887088504,
        46.971610273670805,
        46.715770920963017,
        46.298514079145633,
        46.199548462532121,
        46.210334255657294,
        46.324132354548233,
        46.348346591646234,
        46.392768611565089,
        46.42698547343926,
        46.319409955533345,
        46.156059432246536,
        46.047521969866366,
        45.960522992188615,
        45.861919921171044,
        45.827035994524593,
        45.948751861299556,
        46.171519891254121,
        46.325732976781872,
        46.252110338232129,
        46.18480705109301,
        46.038107799143788,
        45.890153786903184,
        45.847754755711676,
        45.959015557084939,
        46.07730564862063,
        46.244238310277382,
        46.385289509296832,
        46.403910896903881,
        46.35170188009684,
        46.120813772010045,
        45.970054435178454,
        45.867581905440538,
        45.969193852772875,
        46.126586536880794,
        46.182573192453958,
        46.191530404849196,
        46.206692667727154,
        46.144906983922695,
        46.003456245242674,
        46.055675989221562,
        46.153902694116368,
        46.173899890896976,
        46.107528025486246,
        45.967382814320935,
        45.863190128620573,
        45.803470388373327,
        45.743543777985018,
        45.683404321000069,
        45.62306235924536,
        45.562504617476961,
        45.327741612570449,
        44.650852021676485,
        43.826608688668905,
        43.389613613820032,
        43.518718641373496,
        44.087252502581634,
        43.898483733940665,
        44.354378375340858,
        43.250527554524226,
        45.753941421659398,
        45.963985099289317,
        49.595009972393072,
        51.063022929274595,
        53.141473133579154,
        53.620266527560545,
        53.450068384301169,
        53.409576614293854,
        53.982262685971477,
        54.798660847608204,
        54.565519833844093,
        52.541692918265923,
        51.804061216002765,
        50.750137522092665,
        50.624337083462564,
        51.011663846893434,
        53.458693662897531,
        51.2586382123379,
        53.638669749156051,
        53.581420692970774,
        51.170279305579299,
        48.902178054547718,
        48.671495136174435,
        49.005802211889225,
        49.374822613777283,
        49.366299949216852,
        49.934316347764252,
        49.941105320542505,
        50.165917077602558,
        50.436251508872587,
        50.850877797518535,
        51.208419021757528,
        51.719648464231931,
        52.144226352560075,
        52.419828245820163,
        52.409824024807207,
        52.122499973062332,
        52.10236356139653,
        52.222034330779707,
        52.337851773183679,
        52.569407365478739,
        52.733113957175263,
        52.841958303627635,
        52.976644452932192,
        53.145011022941816,
        53.189124612922996,
        53.182853528900921,
        53.140662798125874,
        53.134901045618577,
        52.966221866737868,
        52.78924111474921,
        52.323439884972274,
        51.640598016177684,
        50.686620155499568,
        49.632263767058696,
        48.359394105031797,
        47.066877492686594,
        45.798195445369139,
        44.871628430510484,
        44.668718688382185,
        44.623260389801032,
        44.147973062937837,
        44.393339858587645,
        44.389683269375283,
        44.997628361683233,
        45.481188951351911,
        45.745604962547119,
        45.58049323495483,
        45.464375616467763,
        45.494292965698122,
        45.431947321531297,
        45.365374724871394,
        45.309032857251111,
        45.319482548524498,
        45.279139648303214,
        45.342186542150557,
        45.496057363327374,
        45.71707876081647,
        45.727530335395215,
        45.314797411997212,
        45.560450619201944,
        45.187869530581672,
        0.0,
        0.0,
        0.0,
        46.841535175201685,
        46.491781389526572,
        46.052132793621638,
        45.892291015420753,
        45.847874796123321,
        45.765411600207969,
        45.969638956155585,
        46.148945845275549,
        46.270664416297862,
        46.355893766642666,
        46.464875585843373,
        46.522141722109708,
        46.504809807157955,
        46.426785320408953,
        46.391995301521533,
        46.161317278539272,
        45.499720789478189,
        44.748919155960188,
        0.0,
        0.0,
        0.0,
        45.07092341448913,
        45.07092341448913,
        45.243185594031651,
        45.243185594031651,
        45.275644242811424,
        45.349628753801056,
        45.309195650759378,
        45.137290790168393,
        45.030134216566125,
        45.09711531156654,
        45.108612384198722,
        45.148035160561477,
        45.345702634158357,
        45.463035967135099,
        45.57556338730749,
        45.162037177153337,
        45.796180646067015,
        44.479754863095032,
        42.714271876052571,
        40.748093158923545,
        40.284593185065368,
        39.713554894121046,
        46.632504588719833,
        46.294535668905525,
        46.125200417060412,
        45.9541901080038,
        45.769878679148221,
        45.498737417040715,
        45.223284130480948,
        45.115635536857738,
        45.263688736112883,
        45.379527474643751,
        45.474788035204185,
        45.668431624919549,
        45.98336323741794,
        46.058158874251731,
        46.185308226002753,
        44.870077522213805,
        44.92522397367209,
        0.0,
        49.137932173881353,
        36.99440190087855,
        37.616937916889889,
        46.283926000050663,
        45.756604751817548,
        45.791120294050373,
        45.741219977531799,
        45.691177834305989,
        45.640985920863692,
        45.668511273800945,
        45.695991723438908,
        45.727329928350372,
        45.814990240772666,
        45.969300553623597,
        45.953254855972858,
        46.016194738580303,
        46.169756815655198,
        46.103004144564537,
        45.923099840256597,
        44.379555518525692,
        45.271711997483777,
        45.888879725495357,
        47.275903935974242,
        48.876223216932942,
        52.51798215244925,
        54.293662970827725,
        55.904039039851966,
        53.592685706078477,
        52.102455975127768,
        50.513554968593482,
        51.574187108369713,
        52.848702032623173,
        53.907882591209344,
        53.728705090872893,
        53.696397075081144,
        0.0,
        0.0,
        0.0,
        0.0,
        0.0,
        0.0,
        0.0,
        0.0,
        0.0,
        0.0,
        0.0,
        0.0,
        0.0,
        0.0,
        0.0,
        0.0,
        0.0,
        0.0,
        0.0,
        0.0,
        0.0,
        0.0,
        0.0,
        0.0,
        0.0,
        0.0,
        0.0,
        0.0,
        0.0,
        0.0,
        0.0,
        0.0,
        0.0,
        0.0,
        0.0,
        0.0,
        0.0,
        0.0,
        0.0,
        0.0,
        0.0,
        0.0,
        0.0,
        0.0,
        0.0,
        0.0,
        0.0,
        0.0,
        0.0,
        0.0,
        0.0,
        0.0,
        0.0,
        0.0,
        0.0,
        0.0,
        0.0,
        0.0,
        0.0,
        0.0,
        0.0,
        0.0,
        0.0,
        0.0,
        0.0,
        0.0,
        0.0,
        0.0,
        0.0,
        0.0,
        0.0,
        0.0,
        0.0,
        0.0,
        0.0,
        0.0,
        0.0,
        0.0,
        0.0,
        0.0,
        0.0,
        0.0,
        0.0,
        0.0,
        0.0,
        0.0,
        0.0,
        0.0,
        0.0,
        0.0,
        0.0,
        0.0,
        0.0,
        0.0,
        0.0,
        0.0,
        0.0,
        0.0,
        0.0,
        0.0,
        0.0,
        0.0,
        0.0,
        0.0,
        0.0,
        0.0,
        0.0,
        0.0,
        0.0,
        0.0,
        0.0,
        0.0,
        0.0,
        0.0,
        0.0,
        0.0,
        0.0,
        0.0,
        0.0,
        0.0,
        0.0,
        0.0,
        0.0,
        0.0,
        0.0,
        0.0,
        0.0,
        0.0,
        0.0,
        0.0,
        0.0,
        0.0,
        0.0,
        0.0,
        0.0,
        0.0,
        0.0,
        0.0,
        0.0,
        0.0,
        0.0,
        0.0,
        0.0,
        0.0,
        0.0,
        0.0,
        0.0,
        0.0,
        0.0,
        0.0,
        0.0
    ],
    "time": [
        0.02,
        0.040000000000000001,
        0.059999999999999998,
        0.080000000000000002,
        0.10000000000000001,
        0.12,
        0.14000000000000001,
        0.16,
        0.17999999999999999,
        0.20000000000000001,
        0.22,
        0.23999999999999999,
        0.26000000000000001,
        0.28000000000000003,
        0.29999999999999999,
        0.32000000000000001,
        0.34000000000000002,
        0.35999999999999999,
        0.38,
        0.40000000000000002,
        0.41999999999999998,
        0.44,
        0.46000000000000002,
        0.47999999999999998,
        0.5,
        0.52000000000000002,
        0.54000000000000004,
        0.56000000000000005,
        0.57999999999999996,
        0.59999999999999998,
        0.62,
        0.64000000000000001,
        0.66000000000000003,
        0.68000000000000005,
        0.69999999999999996,
        0.71999999999999997,
        0.73999999999999999,
        0.76000000000000001,
        0.78000000000000003,
        0.80000000000000004,
        0.81999999999999995,
        0.83999999999999997,
        0.85999999999999999,
        0.88,
        0.90000000000000002,
        0.92000000000000004,
        0.93999999999999995,
        0.95999999999999996,
        0.97999999999999998,
        1.0,
        1.02,
        1.04,
        1.0600000000000001,
        1.0800000000000001,
        1.1000000000000001,
        1.1200000000000001,
        1.1399999999999999,
        1.1599999999999999,
        1.1799999999999999,
        1.2,
        1.22,
        1.24,
        1.26,
        1.28,
        1.3,
        1.3200000000000001,
        1.3400000000000001,
        1.3600000000000001,
        1.3799999999999999,
        1.3999999999999999,
        1.4199999999999999,
        1.4399999999999999,
        1.46,
        1.48,
        1.5,
        1.52,
        1.54,
        1.5600000000000001,
        1.5800000000000001,
        1.6000000000000001,
        1.6200000000000001,
        1.6399999999999999,
        1.6599999999999999,
        1.6799999999999999,
        1.7,
        1.72,
        1.74,
        1.76,
        1.78,
        1.8,
        1.8200000000000001,
        1.8400000000000001,
        1.8600000000000001,
        1.8799999999999999,
        1.8999999999999999,
        1.9199999999999999,
        1.9399999999999999,
        1.96,
        1.98,
        2.0,
        2.02,
        2.04,
        2.0600000000000001,
        2.0800000000000001,
        2.1000000000000001,
        2.1200000000000001,
        2.1400000000000001,
        2.1600000000000001,
        2.1800000000000002,
        2.2000000000000002,
        2.2200000000000002,
        2.2400000000000002,
        2.2599999999999998,
        2.2799999999999998,
        2.2999999999999998,
        2.3199999999999998,
        2.3399999999999999,
        2.3599999999999999,
        2.3799999999999999,
        2.3999999999999999,
        2.4199999999999999,
        2.4399999999999999,
        2.46,
        2.48,
        2.5,
        2.52,
        2.54,
        2.5600000000000001,
        2.5800000000000001,
        2.6000000000000001,
        2.6200000000000001,
        2.6400000000000001,
        2.6600000000000001,
        2.6800000000000002,
        2.7000000000000002,
        2.7200000000000002,
        2.7400000000000002,
        2.7599999999999998,
        2.7799999999999998,
        2.7999999999999998,
        2.8199999999999998,
        2.8399999999999999,
        2.8599999999999999,
        2.8799999999999999,
        2.8999999999999999,
        2.9199999999999999,
        2.9399999999999999,
        2.96,
        2.98,
        3.0,
        3.02,
        3.04,
        3.0600000000000001,
        3.0800000000000001,
        3.1000000000000001,
        3.1200000000000001,
        3.1400000000000001,
        3.1600000000000001,
        3.1800000000000002,
        3.2000000000000002,
        3.2200000000000002,
        3.2400000000000002,
        3.2599999999999998,
        3.2799999999999998,
        3.2999999999999998,
        3.3199999999999998,
        3.3399999999999999,
        3.3599999999999999,
        3.3799999999999999,
        3.3999999999999999,
        3.4199999999999999,
        3.4399999999999999,
        3.46,
        3.48,
        3.5,
        3.52,
        3.54,
        3.5600000000000001,
        3.5800000000000001,
        3.6000000000000001,
        3.6200000000000001,
        3.6400000000000001,
        3.6600000000000001,
        3.6800000000000002,
        3.7000000000000002,
        3.7200000000000002,
        3.7400000000000002,
        3.7599999999999998,
        3.7799999999999998,
        3.7999999999999998,
        3.8199999999999998,
        3.8399999999999999,
        3.8599999999999999,
        3.8799999999999999,
        3.8999999999999999,
        3.9199999999999999,
        3.9399999999999999,
        3.96,
        3.98,
        4.0,
        4.0199999999999996,
        4.04,
        4.0599999999999996,
        4.0800000000000001,
        4.0999999999999996,
        4.1200000000000001,
        4.1399999999999997,
        4.1600000000000001,
        4.1799999999999997,
        4.2000000000000002,
        4.2199999999999998,
        4.2400000000000002,
        4.2599999999999998,
        4.2800000000000002,
        4.2999999999999998,
        4.3200000000000003,
        4.3399999999999999,
        4.3600000000000003,
        4.3799999999999999,
        4.4000000000000004,
        4.4199999999999999,
        4.4400000000000004,
        4.46,
        4.4800000000000004,
        4.5,
        4.5199999999999996,
        4.54,
        4.5599999999999996,
        4.5800000000000001,
        4.5999999999999996,
        4.6200000000000001,
        4.6399999999999997,
        4.6600000000000001,
        4.6799999999999997,
        4.7000000000000002,
        4.7199999999999998,
        4.7400000000000002,
        4.7599999999999998,
        4.7800000000000002,
        4.7999999999999998,
        4.8200000000000003,
        4.8399999999999999,
        4.8600000000000003,
        4.8799999999999999,
        4.9000000000000004,
        4.9199999999999999,
        4.9400000000000004,
        4.96,
        4.9800000000000004,
        5.0,
        5.0199999999999996,
        5.04,
        5.0599999999999996,
        5.0800000000000001,
        5.0999999999999996,
        5.1200000000000001,
        5.1399999999999997,
        5.1600000000000001,
        5.1799999999999997,
        5.2000000000000002,
        5.2199999999999998,
        5.2400000000000002,
        5.2599999999999998,
        5.2800000000000002,
        5.2999999999999998,
        5.3200000000000003,
        5.3399999999999999,
        5.3600000000000003,
        5.3799999999999999,
        5.4000000000000004,
        5.4199999999999999,
        5.4400000000000004,
        5.46,
        5.4800000000000004,
        5.5,
        5.5199999999999996,
        5.54,
        5.5599999999999996,
        5.5800000000000001,
        5.5999999999999996,
        5.6200000000000001,
        5.6399999999999997,
        5.6600000000000001,
        5.6799999999999997,
        5.7000000000000002,
        5.7199999999999998,
        5.7400000000000002,
        5.7599999999999998,
        5.7800000000000002,
        5.7999999999999998,
        5.8200000000000003,
        5.8399999999999999,
        5.8600000000000003,
        5.8799999999999999,
        5.9000000000000004,
        5.9199999999999999,
        5.9400000000000004,
        5.96,
        5.9800000000000004,
        6.0,
        6.0199999999999996,
        6.04,
        6.0599999999999996,
        6.0800000000000001,
        6.0999999999999996,
        6.1200000000000001,
        6.1399999999999997,
        6.1600000000000001,
        6.1799999999999997,
        6.2000000000000002,
        6.2199999999999998,
        6.2400000000000002,
        6.2599999999999998,
        6.2800000000000002,
        6.2999999999999998,
        6.3200000000000003,
        6.3399999999999999,
        6.3600000000000003,
        6.3799999999999999,
        6.4000000000000004,
        6.4199999999999999,
        6.4400000000000004,
        6.46,
        6.4800000000000004,
        6.5,
        6.5199999999999996,
        6.54,
        6.5599999999999996,
        6.5800000000000001,
        6.5999999999999996,
        6.6200000000000001,
        6.6399999999999997,
        6.6600000000000001,
        6.6799999999999997,
        6.7000000000000002,
        6.7199999999999998,
        6.7400000000000002,
        6.7599999999999998,
        6.7800000000000002,
        6.7999999999999998,
        6.8200000000000003,
        6.8399999999999999,
        6.8600000000000003,
        6.8799999999999999,
        6.9000000000000004,
        6.9199999999999999,
        6.9400000000000004,
        6.96,
        6.9800000000000004,
        7.0,
        7.0199999999999996,
        7.04,
        7.0599999999999996,
        7.0800000000000001,
        7.0999999999999996,
        7.1200000000000001,
        7.1399999999999997,
        7.1600000000000001,
        7.1799999999999997,
        7.2000000000000002,
        7.2199999999999998,
        7.2400000000000002,
        7.2599999999999998,
        7.2800000000000002,
        7.2999999999999998,
        7.3200000000000003,
        7.3399999999999999,
        7.3600000000000003,
        7.3799999999999999,
        7.4000000000000004,
        7.4199999999999999,
        7.4400000000000004,
        7.46,
        7.4800000000000004,
        7.5,
        7.5199999999999996,
        7.54,
        7.5599999999999996,
        7.5800000000000001,
        7.5999999999999996,
        7.6200000000000001,
        7.6399999999999997,
        7.6600000000000001,
        7.6799999999999997,
        7.7000000000000002,
        7.7199999999999998,
        7.7400000000000002,
        7.7599999999999998,
        7.7800000000000002,
        7.7999999999999998,
        7.8200000000000003,
        7.8399999999999999,
        7.8600000000000003,
        7.8799999999999999,
        7.9000000000000004,
        7.9199999999999999,
        7.9400000000000004,
        7.96,
        7.9800000000000004,
        8.0,
        8.0199999999999996,
        8.0399999999999991,
        8.0600000000000005,
        8.0800000000000001,
        8.0999999999999996,
        8.1199999999999992,
        8.1400000000000006,
        8.1600000000000001,
        8.1799999999999997,
        8.1999999999999993,
        8.2200000000000006,
        8.2400000000000002,
        8.2599999999999998,
        8.2799999999999994,
        8.3000000000000007,
        8.3200000000000003,
        8.3399999999999999,
        8.3599999999999994,
        8.3800000000000008,
        8.4000000000000004,
        8.4199999999999999,
        8.4399999999999995,
        8.4600000000000009,
        8.4800000000000004,
        8.5,
        8.5199999999999996,
        8.5399999999999991,
        8.5600000000000005,
        8.5800000000000001,
        8.5999999999999996,
        8.6199999999999992,
        8.6400000000000006,
        8.6600000000000001,
        8.6799999999999997,
        8.6999999999999993,
        8.7200000000000006,
        8.7400000000000002,
        8.7599999999999998,
        8.7799999999999994,
        8.8000000000000007,
        8.8200000000000003,
        8.8399999999999999,
        8.8599999999999994,
        8.8800000000000008,
        8.9000000000000004,
        8.9199999999999999,
        8.9399999999999995,
        8.9600000000000009,
        8.9800000000000004,
        9.0,
        9.0199999999999996,
        9.0399999999999991,
        9.0600000000000005,
        9.0800000000000001,
        9.0999999999999996,
        9.1199999999999992,
        9.1400000000000006,
        9.1600000000000001,
        9.1799999999999997,
        9.1999999999999993,
        9.2200000000000006,
        9.2400000000000002,
        9.2599999999999998,
        9.2799999999999994,
        9.3000000000000007,
        9.3200000000000003,
        9.3399999999999999,
        9.3599999999999994,
        9.3800000000000008,
        9.4000000000000004,
        9.4199999999999999,
        9.4399999999999995,
        9.4600000000000009,
        9.4800000000000004,
        9.5,
        9.5199999999999996,
        9.5399999999999991,
        9.5600000000000005,
        9.5800000000000001,
        9.5999999999999996,
        9.6199999999999992,
        9.6400000000000006,
        9.6600000000000001,
        9.6799999999999997,
        9.6999999999999993,
        9.7200000000000006,
        9.7400000000000002,
        9.7599999999999998,
        9.7799999999999994,
        9.8000000000000007,
        9.8200000000000003,
        9.8399999999999999,
        9.8599999999999994,
        9.8800000000000008,
        9.9000000000000004,
        9.9199999999999999,
        9.9399999999999995,
        9.9600000000000009,
        9.9800000000000004,
        10.0,
        10.02,
        10.039999999999999,
        10.06,
        10.08,
        10.1,
        10.119999999999999,
        10.140000000000001,
        10.16,
        10.18,
        10.199999999999999,
        10.220000000000001,
        10.24,
        10.26,
        10.279999999999999,
        10.300000000000001,
        10.32,
        10.34,
        10.359999999999999,
        10.380000000000001,
        10.4,
        10.42,
        10.44,
        10.460000000000001,
        10.48,
        10.5,
        10.52,
        10.539999999999999,
        10.56,
        10.58,
        10.6,
        10.619999999999999,
        10.640000000000001,
        10.66,
        10.68,
        10.699999999999999,
        10.720000000000001,
        10.74,
        10.76,
        10.779999999999999,
        10.800000000000001,
        10.82,
        10.84,
        10.859999999999999,
        10.880000000000001,
        10.9,
        10.92,
        10.94,
        10.960000000000001,
        10.98,
        11.0,
        11.02,
        11.039999999999999,
        11.06,
        11.08,
        11.1,
        11.119999999999999,
        11.140000000000001,
        11.16,
        11.18,
        11.199999999999999,
        11.220000000000001,
        11.24,
        11.26,
        11.279999999999999,
        11.300000000000001,
        11.32,
        11.34,
        11.359999999999999,
        11.380000000000001,
        11.4,
        11.42,
        11.44,
        11.460000000000001,
        11.48,
        11.5,
        11.52,
        11.539999999999999,
        11.56,
        11.58,
        11.6,
        11.619999999999999,
        11.640000000000001,
        11.66,
        11.68,
        11.699999999999999,
        11.720000000000001,
        11.74,
        11.76,
        11.779999999999999,
        11.800000000000001,
        11.82,
        11.84,
        11.859999999999999,
        11.880000000000001,
        11.9,
        11.92,
        11.94,
        11.960000000000001,
        11.98,
        12.0,
        12.02,
        12.039999999999999,
        12.06,
        12.08,
        12.1,
        12.119999999999999,
        12.140000000000001,
        12.16,
        12.18,
        12.199999999999999,
        12.220000000000001,
        12.24,
        12.26,
        12.279999999999999,
        12.300000000000001,
        12.32,
        12.34,
        12.359999999999999,
        12.380000000000001,
        12.4,
        12.42,
        12.44,
        12.460000000000001,
        12.48,
        12.5,
        12.52,
        12.539999999999999,
        12.56,
        12.58,
        12.6,
        12.619999999999999,
        12.640000000000001,
        12.66,
        12.68,
        12.699999999999999,
        12.720000000000001,
        12.74,
        12.76,
        12.779999999999999,
        12.800000000000001,
        12.82,
        12.84,
        12.859999999999999,
        12.880000000000001
    ]
}