{
    "DU": 132,
    "DV": 278,
    "F-measure": 0.22253129346314324,
    "F-measure Chroma": 0.48678720445062584,
    "FN": 55,
    "FNC": 0,
    "FNCch": 0,
    "FNI": 55,
    "FNIch": 55,
    "FP": 46,
    "GU": 123,
    "GV": 287,
    "Overall Accuracy": 0.1951219512195122,
    "Overall Chroma Accuracy": 0.4268292682926829,
    "Precision": 0.22535211267605634,
    "Precision Chroma": 0.49295774647887325,
    "Raw Chroma Accuracy": 0.34146341463414637,
    "Raw Pitch Accuracy": 0.010452961672473868,
    "Recall": 0.21978021978021978,
    "Recall Chroma": 0.4807692307692308,
    "TN": 77,
    "TO": 410,
    "TP": 232,
    "TPC": 3,
    "TPCch": 98,
    "TPI": 229,
    "TPIch": 134,
    "Voiced Chroma Accuracy": 0.34146341463414637,
    "Voiced Pitch Accuracy": 0.010452961672473868,
    "Voicing Accuracy": 0.7536585365853659,
    "Voicing Detection": 0.8083623693379791,
    "Voicing False Alarm": 0.37398373983739835
}