{
    "DU": 129,
    "DV": 375,
    "F-measure": 0.9448491155046826,
    "F-measure Chroma": 0.9490114464099896,
    "FN": 47,
    "FNC": 2,
    "FNCch": 4,
    "FNI": 45,
    "FNIch": 43,
    "FP": 0,
    "GU": 82,
    "GV": 422,
    "Overall Accuracy": 0.9007936507936508,
    "Overall Chroma Accuracy": 0.9047619047619048,
    "Precision": 0.9934354485776805,
    "Precision Chroma": 0.9978118161925602,
    "Raw Chroma Accuracy": 0.8957345971563981,
    "Raw Pitch Accuracy": 0.8862559241706162,
    "Recall": 0.9007936507936508,
    "Recall Chroma": 0.9047619047619048,
    "TN": 82,
    "TO": 504,
    "TP": 375,
    "TPC": 372,
    "TPCch": 374,
    "TPI": 3,
    "TPIch": 1,
    "Voiced Chroma Accuracy": 0.8862559241706162,
    "Voiced Pitch Accuracy": 0.8815165876777251,
    "Voicing Accuracy": 0.9067460317460317,
    "Voicing Detection": 0.8886255924170616,
    "Voicing False Alarm": 0.0
}