{
    "f0": [
        0.0,
        0.0,
        0.0,
        0.0,
        0.0,
        0.0,
        0.0,
        0.0,
        0.0,
        0.0,
        0.0,
        0.0,
        0.0,
        0.0,
        0.0,
        0.0,
        0.0,
        0.0,
        0.0,
        0.0,
        0.0,
        0.0,
        0.0,
        0.0,
        0.0,
        0.0,
        0.0,
        0.0,
        0.0,
        0.0,
        0.0,
        0.0,
        0.0,
        0.0,
        0.0,
        0.0,
        0.0,
        0.0,
        0.0,
        38.920162534113999,
        37.53173781258235,
        37.821125081023403,
        38.183001046382536,
        38.309496440343167,
        38.248027931296491,
        38.285042154197782,
        38.277600664749457,
        38.183358739731865,
        38.157336811695515,
        38.041051489557475,
        37.94000230691973,
        37.944571021109724,
        38.103490496601381,
        38.428825631791462,
        38.761988005872283,
        39.142155362832717,
        39.48526023135161,
        39.650215888716865,
        39.732004664167995,
        39.700441999665479,
        39.483983933386703,
        39.235557911050712,
        38.865057443426991,
        38.590810258953859,
        38.377550553507461,
        38.342665262161646,
        38.137957370984168,
        37.761335201099499,
        37.4252840570744,
        36.842300692034961,
        37.385154887489449,
        38.093356291196756,
        38.272550537041653,
        38.321454519386691,
        38.760407657712086,
        39.454013138177892,
        40.375754236821919,
        40.609791948891086,
        40.849637462146973,
        41.097956907705466,
        41.443293906734255,
        41.340943219536754,
        40.416653775314828,
        40.636167917945038,
        0.0,
        0.0,
        0.0,
        0.0,
        0.0,
        0.0,
        42.353092910198079,
        41.937451412272409,
        41.862961699296719,
        41.788158809846728,
        41.889905879786404,
        42.132159766032757,
        42.229625326810279,
        42.230954171994171,
        42.24017090884162,
        42.335729600009977,
        42.388022865297508,
        42.352873213999338,
        42.355613898738511,
        42.354182730840449,
        42.353078789574653,
        42.438538287944766,
        42.539917712168226,
        42.491568852780397,
        42.277760431906302,
        42.058479163393059,
        41.838082882379879,
        41.721407438831093,
        42.089157389254694,
        42.335474621260985,
        0.0,
        0.0,
        43.354039829832047,
        42.925475747661473,
        42.463004571548382,
        42.272643218394776,
        42.198863479384798,
        42.209481435146046,
        42.318659949023015,
        42.512869373912849,
        42.571107897816937,
        42.472432099820402,
        42.384366937393715,
        42.266827112023989,
        41.486675427730809,
        41.721424937174412,
        42.633636865037644,
        42.866946966840352,
        42.903872305025097,
        0.0,
        0.0,
        0.0,
        42.63944667910927,
        41.881627859004141,
        41.662307750582414,
        41.574703376575222,
        41.676552267616167,
        41.77566498154853,
        41.768159953657857,
        41.676924877559642,
        41.66581349873821,
        41.729798717731285,
        41.856636219277732,
        41.996469426915318,
        42.108075213114923,
        42.217826915105107,
        42.318618054030132,
        42.279722068374575,
        42.127750667556796,
        41.957622200386623,
        41.883222238715341,
        41.937967402966954,
        42.009333060306325,
        42.11590676830474,
        42.141532636695402,
        41.977377648983655,
        42.031779270601326,
        42.000872031944581,
        42.411190052316641,
        42.715784387810402,
        42.846219266879942,
        43.069192974330605,
        43.548826471100142,
        44.147323491258888,
        44.204952970100223,
        44.056493901354848,
        43.798436245104376,
        43.653562426193687,
        43.483465948405907,
        43.548403563931885,
        43.539055550889756,
        43.511939275857173,
        43.676024307461788,
        43.950404975033464,
        44.108734185591906,
        44.043182292398313,
        43.878481815327653,
        43.770821268032776,
        43.825083392625686,
        43.987563572625646,
        44.211940257801231,
        44.366008181013434,
        44.353898402274368,
        44.376832215192749,
        44.176733952851528,
        43.772786901222801,
        43.533493036415933,
        43.372930138702273,
        0.0,
        0.0,
        0.0,
        0.0,
        0.0,
        0.0,
        0.0,
        0.0,
        0.0,
        0.0,
        0.0,
        44.285431267433928,
        44.297475104000171,
        44.270304597118809,
        44.250789389409945,
        44.277397002848375,
        44.267160642063516,
        44.256182531142144,
        44.282460338079851,
        44.391009159527769,
        44.504487288063302,
        44.617015330031819,
        44.851833894739002,
        45.260106333988034,
        45.792486513865377,
        46.195379060077904,
        46.384822857063789,
        46.48869764227485,
        46.513895489427028,
        46.368958208244791,
        46.069155154582404,
        45.837194836658959,
        45.547174277390013,
        45.500794010000199,
        45.619524558605249,
        45.770595382183586,
        46.07586129735445,
        46.288974672325629,
        46.431784829779886,
        46.354354875204493,
        46.161002912459033,
        45.923614318691619,
        45.617636018503418,
        45.468824230749981,
        45.596454195096427,
        45.883412845163988,
        46.176229126320479,
        46.413932709966858,
        46.426447040584677,
        46.187415059534672,
        45.888794206633378,
        45.638464469530106,
        45.648966932653401,
        45.942414519915488,
        46.282373974987799,
        46.37733377992506,
        46.355038908525458,
        46.070769315977543,
        45.72035362321585,
        45.467861160885548,
        45.398175471877217,
        45.419255495003171,
        45.846324247546697,
        46.372836393766633,
        46.420512299690095,
        45.360664228825698,
        44.153266105716369,
        42.842426371521157,
        42.064853657169159,
        0.0,
        43.939461528068541,
        44.40189968919784,
        41.666871896312742,
        0.0,
        0.0,
        0.0,
        0.0,
        0.0,
        0.0,
        0.0,
        0.0,
        0.0,
        0.0,
        0.0,
        0.0,
        0.0,
        35.289687262067197,
        37.352875120550053,
        0.0,
        0.0,
        0.0,
        0.0,
        0.0,
        65.849117366277284,
        67.273516745111422,
        0.0,
        0.0,
        0.0,
        0.0,
        0.0,
        0.0,
        0.0,
        0.0,
        0.0,
        0.0,
        36.272469991003966,
        35.239437479985668,
        34.588686635353042,
        33.937934794297526,
        33.886244743192812,
        34.445609432350011,
        35.289712633318814,
        35.705940438550925,
        35.942499612986595,
        36.030439086563476,
        36.247808561743128,
        36.16020884023866,
        36.045448683397069,
        36.082840897168666,
        36.139498059770048,
        36.427518134971777,
        37.80406035407114,
        33.585734044164411,
        35.944347346304326,
        35.629587021144431,
        37.223405315461363,
        37.666818924022635,
        37.871596631784975,
        37.898702871213359,
        38.01797055071011,
        37.967697511147897,
        38.188507958263585,
        39.266129670738231,
        38.519891762021871,
        37.9481208201667,
        38.977854247224187,
        39.703836878062646,
        0.0,
        39.232135167213606,
        36.609869538267418,
        0.0,
        0.0,
        0.0,
        0.0,
        0.0,
        38.487979276563188,
        37.628130367319706,
        37.301032836006584,
        37.809390850107953,
        38.773126913443889,
        40.255013094975716,
        40.57896782305491,
        40.633263160358794,
        40.389524003108093,
        39.873947855834501,
        42.251498119111567,
        0.0,
        0.0,
        0.0,
        0.0,
        0.0,
        0.0,
        0.0,
        0.0,
        0.0,
        42.572800279945383,
        42.405827656041758,
        42.00005677065807,
        41.467406133650961,
        41.225283729092091,
        41.119763204651314,
        41.185787392881224,
        41.423180374985094,
        41.639528579073811,
        41.810652365911345,
        41.949708749007776,
        41.985205597325532,
        41.832352687047731,
        41.771804965709677,
        41.86656681523543,
        42.099652640531808,
        42.306213780869825,
        42.38068790000807,
        42.2123887505604,
        41.984575243048837,
        41.737918957891587,
        41.605648184321048,
        40.910473240177723,
        0.0,
        0.0,
        0.0,
        0.0,
        0.0,
        0.0,
        44.358310288074541,
        42.833564250114335,
        42.482276791711463,
        42.361907799421054,
        42.191007543342081,
        42.182521889662326,
        42.106805168771885,
        42.145187861681627,
        0.0,
        0.0,
        0.0,
        42.071457491898954,
        41.864192223790283,
        41.601105789282002,
        41.631732380884507,
        0.0,
        0.0,
        0.0,
        0.0,
        0.0,
        0.0,
        0.0,
        0.0,
        38.356757915721275,
        38.022303250227459,
        38.165380694682682,
        38.322387098203407,
        38.360738764832043,
        38.218797184230766,
        38.247256390538915,
        38.37096420729938,
        38.57303821400339,
        38.654192758125667,
        38.711082190088007,
        38.638601261001916,
        38.618324769895601,
        38.702698795947818,
        38.793697155972907,
        38.793551197196827,
        38.721587788806886,
        38.723270291449239,
        38.743741245314958,
        38.744261699504328,
        38.820196426656736,
        38.891582626713117,
        39.024572973602723,
        39.039029628167818,
        38.469746041166481,
        36.749316724957936,
        0.0,
        0.0,
        41.92784125751362,
        42.427732542635574,
        42.424953030207014,
        42.309162443697232,
        41.881780312248814,
        41.278306836178054,
        41.02487203427426,
        40.790395825965682,
        40.824387445436969,
        41.149052162121592,
        41.733624394778381,
        42.248315823110808,
        42.364730988326059,
        42.095289047687025,
        41.765849986640639,
        41.50139607440417,
        41.35758874488063,
        41.254778035106149,
        41.2955584947997,
        41.402855723187663,
        41.432750193282743,
        41.104771665702735,
        40.902038926065259,
        40.76225257834728,
        41.334048679431604,
        41.623467104584591,
        41.639276323704046,
        0.0,
        0.0,
        0.0,
        43.041112245489401,
        42.226909695945395,
        42.162952561694425,
        42.188407298199493,
        42.232264448295126,
        42.367363521545315,
        42.390277646459189,
        42.598451851690172,
        42.583325333411565,
        42.447910934135962,
        42.263708094390239,
        42.094419957255568,
        41.707898196526507,
        42.425025532191725,
        42.210519686055754,
        43.035421063065151,
        42.757772487420986,
        41.548003974445123,
        0.0,
        42.674000596753018,
        42.332992742079441,
        42.239010385905587,
        42.206034513395146,
        42.176299520247802,
        42.200680335946181,
        42.170524341707974,
        42.222827875218542,
        42.413338749036178,
        42.551709020979551,
        42.603183929336645,
        42.48029919903459,
        42.314997796767699,
        42.270794835997656,
        42.319876880822065,
        42.394124974483894,
        42.406232064401109,
        42.374929047082318,
        42.40430299546329,
        42.443567667508049,
        42.485492627898189,
        42.630475863786465,
        42.728977612054635,
        43.136094777999716,
        42.361423903639071,
        41.087626653847764,
        42.429042069544948,
        42.782763997106095,
        42.969400261390575,
        44.490940960539859,
        0.0,
        0.0,
        0.0,
        45.047991061881703,
        44.7963894162542,
        44.495492257221834,
        44.289333774177798,
        44.071718463051852,
        44.070101850121411,
        44.169213468866559,
        44.167466063172441,
        44.04157066426766,
        44.009150233459621,
        44.105938940474161,
        44.16644283579781,
        44.144167208037288,
        44.198821861189131,
        44.273434194362828,
        44.332308403158791,
        44.338391120177242,
        44.307420985990653,
        44.279371257900422,
        44.322131964764253,
        44.401274401682329,
        44.430244593276761,
        44.440486604245443,
        44.479522286530575,
        44.507835538814639,
        43.954675796323869,
        44.166018234831689,
        44.508405013837532,
        44.354594015817213,
        44.82374694031077,
        0.0,
        0.0,
        0.0,
        0.0,
        0.0,
        0.0,
        0.0,
        0.0,
        0.0,
        0.0,
        0.0,
        0.0,
        0.0,
        0.0,
        0.0,
        0.0,
        0.0,
        45.016065792259923,
        44.673649307515092,
        44.883141969685035,
        44.710635870343076,
        0.0,
        0.0,
        0.0,
        0.0,
        0.0,
        0.0,
        0.0,
        0.0,
        0.0,
        0.0,
        0.0,
        0.0,
        0.0,
        0.0,
        0.0,
        0.0,
        0.0,
        0.0,
        0.0,
        0.0,
        0.0,
        0.0,
        0.0,
        0.0,
        0.0,
        0.0,
        0.0,
        0.0,
        0.0,
        0.0,
        0.0,
        0.0,
        0.0,
        0.0,
        0.0,
        0.0,
        0.0,
        0.0,
        0.0,
        0.0,
        0.0,
        0.0,
        0.0,
        0.0,
        0.0,
        0.0,
        0.0,
        0.0,
        0.0,
        0.0,
        0.0,
        0.0,
        0.0,
        0.0,
        0.0,
        0.0,
        0.0,
        0.0,
        0.0,
        0.0,
        0.0,
        0.0,
        0.0,
        0.0,
        0.0,
        0.0,
        0.0,
        0.0,
        0.0,
        0.0,
        0.0,
        0.0,
        0.0,
        0.0,
        0.0,
        0.0,
        0.0,
        0.0,
        0.0,
        0.0,
        0.0,
        0.0,
        0.0,
        0.0,
        0.0,
        0.0,
        0.0,
        0.0,
        0.0,
        0.0,
        0.0,
        0.0,
        0.0,
        0.0,
        0.0,
        0.0,
        0.0,
        0.0,
        0.0,
        0.0,
        0.0,
        0.0,
        0.0,
        0.0,
        0.0,
        0.0,
        0.0,
        0.0,
        0.0,
        0.0,
        0.0,
        0.0,
        0.0,
        0.0,
        0.0,
        0.0,
        0.0,
        0.0,
        0.0,
        0.0,
        0.0,
        0.0,
        0.0,
        0.0,
        0.0,
        0.0,
        0.0,
        0.0,
        0.0,
        0.0,
        0.0,
        0.0,
        0.0,
        0.0,
        0.0,
        0.0,
        0.0,
        0.0,
        0.0,
        0.0,
        0.0,
        0.0,
        0.0,
        0.0,
        0.0,
        0.0,
        0.0,
        0.0,
        0.0,
        0.0,
        0.0,
        0.0
    ],
    "time": [
        0.02,
        0.040000000000000001,
        0.059999999999999998,
        0.080000000000000002,
        0.10000000000000001,
        0.12,
        0.14000000000000001,
        0.16,
        0.17999999999999999,
        0.20000000000000001,
        0.22,
        0.23999999999999999,
        0.26000000000000001,
        0.28000000000000003,
        0.29999999999999999,
        0.32000000000000001,
        0.34000000000000002,
        0.35999999999999999,
        0.38,
        0.40000000000000002,
        0.41999999999999998,
        0.44,
        0.46000000000000002,
        0.47999999999999998,
        0.5,
        0.52000000000000002,
        0.54000000000000004,
        0.56000000000000005,
        0.57999999999999996,
        0.59999999999999998,
        0.62,
        0.64000000000000001,
        0.66000000000000003,
        0.68000000000000005,
        0.69999999999999996,
        0.71999999999999997,
        0.73999999999999999,
        0.76000000000000001,
        0.78000000000000003,
        0.80000000000000004,
        0.81999999999999995,
        0.83999999999999997,
        0.85999999999999999,
        0.88,
        0.90000000000000002,
        0.92000000000000004,
        0.93999999999999995,
        0.95999999999999996,
        0.97999999999999998,
        1.0,
        1.02,
        1.04,
        1.0600000000000001,
        1.0800000000000001,
        1.1000000000000001,
        1.1200000000000001,
        1.1399999999999999,
        1.1599999999999999,
        1.1799999999999999,
        1.2,
        1.22,
        1.24,
        1.26,
        1.28,
        1.3,
        1.3200000000000001,
        1.3400000000000001,
        1.3600000000000001,
        1.3799999999999999,
        1.3999999999999999,
        1.4199999999999999,
        1.4399999999999999,
        1.46,
        1.48,
        1.5,
        1.52,
        1.54,
        1.5600000000000001,
        1.5800000000000001,
        1.6000000000000001,
        1.6200000000000001,
        1.6399999999999999,
        1.6599999999999999,
        1.6799999999999999,
        1.7,
        1.72,
        1.74,
        1.76,
        1.78,
        1.8,
        1.8200000000000001,
        1.8400000000000001,
        1.8600000000000001,
        1.8799999999999999,
        1.8999999999999999,
        1.9199999999999999,
        1.9399999999999999,
        1.96,
        1.98,
        2.0,
        2.02,
        2.04,
        2.0600000000000001,
        2.0800000000000001,
        2.1000000000000001,
        2.1200000000000001,
        2.1400000000000001,
        2.1600000000000001,
        2.1800000000000002,
        2.2000000000000002,
        2.2200000000000002,
        2.2400000000000002,
        2.2599999999999998,
        2.2799999999999998,
        2.2999999999999998,
        2.3199999999999998,
        2.3399999999999999,
        2.3599999999999999,
        2.3799999999999999,
        2.3999999999999999,
        2.4199999999999999,
        2.4399999999999999,
        2.46,
        2.48,
        2.5,
        2.52,
        2.54,
        2.5600000000000001,
        2.5800000000000001,
        2.6000000000000001,
        2.6200000000000001,
        2.6400000000000001,
        2.6600000000000001,
        2.6800000000000002,
        2.7000000000000002,
        2.7200000000000002,
        2.7400000000000002,
        2.7599999999999998,
        2.7799999999999998,
        2.7999999999999998,
        2.8199999999999998,
        2.8399999999999999,
        2.8599999999999999,
        2.8799999999999999,
        2.8999999999999999,
        2.9199999999999999,
        2.9399999999999999,
        2.96,
        2.98,
        3.0,
        3.02,
        3.04,
        3.0600000000000001,
        3.0800000000000001,
        3.1000000000000001,
        3.1200000000000001,
        3.1400000000000001,
        3.1600000000000001,
        3.1800000000000002,
        3.2000000000000002,
        3.2200000000000002,
        3.2400000000000002,
        3.2599999999999998,
        3.2799999999999998,
        3.2999999999999998,
        3.3199999999999998,
        3.3399999999999999,
        3.3599999999999999,
        3.3799999999999999,
        3.3999999999999999,
        3.4199999999999999,
        3.4399999999999999,
        3.46,
        3.48,
        3.5,
        3.52,
        3.54,
        3.5600000000000001,
        3.5800000000000001,
        3.6000000000000001,
        3.6200000000000001,
        3.6400000000000001,
        3.6600000000000001,
        3.6800000000000002,
        3.7000000000000002,
        3.7200000000000002,
        3.7400000000000002,
        3.7599999999999998,
        3.7799999999999998,
        3.7999999999999998,
        3.8199999999999998,
        3.8399999999999999,
        3.8599999999999999,
        3.8799999999999999,
        3.8999999999999999,
        3.9199999999999999,
        3.9399999999999999,
        3.96,
        3.98,
        4.0,
        4.0199999999999996,
        4.04,
        4.0599999999999996,
        4.0800000000000001,
        4.0999999999999996,
        4.1200000000000001,
        4.1399999999999997,
        4.1600000000000001,
        4.1799999999999997,
        4.2000000000000002,
        4.2199999999999998,
        4.2400000000000002,
        4.2599999999999998,
        4.2800000000000002,
        4.2999999999999998,
        4.3200000000000003,
        4.3399999999999999,
        4.3600000000000003,
        4.3799999999999999,
        4.4000000000000004,
        4.4199999999999999,
        4.4400000000000004,
        4.46,
        4.4800000000000004,
        4.5,
        4.5199999999999996,
        4.54,
        4.5599999999999996,
        4.5800000000000001,
        4.5999999999999996,
        4.6200000000000001,
        4.6399999999999997,
        4.6600000000000001,
        4.6799999999999997,
        4.7000000000000002,
        4.7199999999999998,
        4.7400000000000002,
        4.7599999999999998,
        4.7800000000000002,
        4.7999999999999998,
        4.8200000000000003,
        4.8399999999999999,
        4.8600000000000003,
        4.8799999999999999,
        4.9000000000000004,
        4.9199999999999999,
        4.9400000000000004,
        4.96,
        4.9800000000000004,
        5.0,
        5.0199999999999996,
        5.04,
        5.0599999999999996,
        5.0800000000000001,
        5.0999999999999996,
        5.1200000000000001,
        5.1399999999999997,
        5.1600000000000001,
        5.1799999999999997,
        5.2000000000000002,
        5.2199999999999998,
        5.2400000000000002,
        5.2599999999999998,
        5.2800000000000002,
        5.2999999999999998,
        5.3200000000000003,
        5.3399999999999999,
        5.3600000000000003,
        5.3799999999999999,
        5.4000000000000004,
        5.4199999999999999,
        5.4400000000000004,
        5.46,
        5.4800000000000004,
        5.5,
        5.5199999999999996,
        5.54,
        5.5599999999999996,
        5.5800000000000001,
        5.5999999999999996,
        5.6200000000000001,
        5.6399999999999997,
        5.6600000000000001,
        5.6799999999999997,
        5.7000000000000002,
        5.7199999999999998,
        5.7400000000000002,
        5.7599999999999998,
        5.7800000000000002,
        5.7999999999999998,
        5.8200000000000003,
        5.8399999999999999,
        5.8600000000000003,
        5.8799999999999999,
        5.9000000000000004,
        5.9199999999999999,
        5.9400000000000004,
        5.96,
        5.9800000000000004,
        6.0,
        6.0199999999999996,
        6.04,
        6.0599999999999996,
        6.0800000000000001,
        6.0999999999999996,
        6.1200000000000001,
        6.1399999999999997,
        6.1600000000000001,
        6.1799999999999997,
        6.2000000000000002,
        6.2199999999999998,
        6.2400000000000002,
        6.2599999999999998,
        6.2800000000000002,
        6.2999999999999998,
        6.3200000000000003,
        6.3399999999999999,
        6.3600000000000003,
        6.3799999999999999,
        6.4000000000000004,
        6.4199999999999999,
        6.4400000000000004,
        6.46,
        6.4800000000000004,
        6.5,
        6.5199999999999996,
        6.54,
        6.5599999999999996,
        6.5800000000000001,
        6.5999999999999996,
        6.6200000000000001,
        6.6399999999999997,
        6.6600000000000001,
        6.6799999999999997,
        6.7000000000000002,
        6.7199999999999998,
        6.7400000000000002,
        6.7599999999999998,
        6.7800000000000002,
        6.7999999999999998,
        6.8200000000000003,
        6.8399999999999999,
        6.8600000000000003,
        6.8799999999999999,
        6.9000000000000004,
        6.9199999999999999,
        6.9400000000000004,
        6.96,
        6.9800000000000004,
        7.0,
        7.0199999999999996,
        7.04,
        7.0599999999999996,
        7.0800000000000001,
        7.0999999999999996,
        7.1200000000000001,
        7.1399999999999997,
        7.1600000000000001,
        7.1799999999999997,
        7.2000000000000002,
        7.2199999999999998,
        7.2400000000000002,
        7.2599999999999998,
        7.2800000000000002,
        7.2999999999999998,
        7.3200000000000003,
        7.3399999999999999,
        7.3600000000000003,
        7.3799999999999999,
        7.4000000000000004,
        7.4199999999999999,
        7.4400000000000004,
        7.46,
        7.4800000000000004,
        7.5,
        7.5199999999999996,
        7.54,
        7.5599999999999996,
        7.5800000000000001,
        7.5999999999999996,
        7.6200000000000001,
        7.6399999999999997,
        7.6600000000000001,
        7.6799999999999997,
        7.7000000000000002,
        7.7199999999999998,
        7.7400000000000002,
        7.7599999999999998,
        7.7800000000000002,
        7.7999999999999998,
        7.8200000000000003,
        7.8399999999999999,
        7.8600000000000003,
        7.8799999999999999,
        7.9000000000000004,
        7.9199999999999999,
        7.9400000000000004,
        7.96,
        7.9800000000000004,
        8.0,
        8.0199999999999996,
        8.0399999999999991,
        8.0600000000000005,
        8.0800000000000001,
        8.0999999999999996,
        8.1199999999999992,
        8.1400000000000006,
        8.1600000000000001,
        8.1799999999999997,
        8.1999999999999993,
        8.2200000000000006,
        8.2400000000000002,
        8.2599999999999998,
        8.2799999999999994,
        8.3000000000000007,
        8.3200000000000003,
        8.3399999999999999,
        8.3599999999999994,
        8.3800000000000008,
        8.4000000000000004,
        8.4199999999999999,
        8.4399999999999995,
        8.4600000000000009,
        8.4800000000000004,
        8.5,
        8.5199999999999996,
        8.5399999999999991,
        8.5600000000000005,
        8.5800000000000001,
        8.5999999999999996,
        8.6199999999999992,
        8.6400000000000006,
        8.6600000000000001,
        8.6799999999999997,
        8.6999999999999993,
        8.7200000000000006,
        8.7400000000000002,
        8.7599999999999998,
        8.7799999999999994,
        8.8000000000000007,
        8.8200000000000003,
        8.8399999999999999,
        8.8599999999999994,
        8.8800000000000008,
        8.9000000000000004,
        8.9199999999999999,
        8.9399999999999995,
        8.9600000000000009,
        8.9800000000000004,
        9.0,
        9.0199999999999996,
        9.0399999999999991,
        9.0600000000000005,
        9.0800000000000001,
        9.0999999999999996,
        9.1199999999999992,
        9.1400000000000006,
        9.1600000000000001,
        9.1799999999999997,
        9.1999999999999993,
        9.2200000000000006,
        9.2400000000000002,
        9.2599999999999998,
        9.2799999999999994,
        9.3000000000000007,
        9.3200000000000003,
        9.3399999999999999,
        9.3599999999999994,
        9.3800000000000008,
        9.4000000000000004,
        9.4199999999999999,
        9.4399999999999995,
        9.4600000000000009,
        9.4800000000000004,
        9.5,
        9.5199999999999996,
        9.5399999999999991,
        9.5600000000000005,
        9.5800000000000001,
        9.5999999999999996,
        9.6199999999999992,
        9.6400000000000006,
        9.6600000000000001,
        9.6799999999999997,
        9.6999999999999993,
        9.7200000000000006,
        9.7400000000000002,
        9.7599999999999998,
        9.7799999999999994,
        9.8000000000000007,
        9.8200000000000003,
        9.8399999999999999,
        9.8599999999999994,
        9.8800000000000008,
        9.9000000000000004,
        9.9199999999999999,
        9.9399999999999995,
        9.9600000000000009,
        9.9800000000000004,
        10.0,
        10.02,
        10.039999999999999,
        10.06,
        10.08,
        10.1,
        10.119999999999999,
        10.140000000000001,
        10.16,
        10.18,
        10.199999999999999,
        10.220000000000001,
        10.24,
        10.26,
        10.279999999999999,
        10.300000000000001,
        10.32,
        10.34,
        10.359999999999999,
        10.380000000000001,
        10.4,
        10.42,
        10.44,
        10.460000000000001,
        10.48,
        10.5,
        10.52,
        10.539999999999999,
        10.56,
        10.58,
        10.6,
        10.619999999999999,
        10.640000000000001,
        10.66,
        10.68,
        10.699999999999999,
        10.720000000000001,
        10.74,
        10.76,
        10.779999999999999,
        10.800000000000001,
        10.82,
        10.84,
        10.859999999999999,
        10.880000000000001,
        10.9,
        10.92,
        10.94,
        10.960000000000001,
        10.98,
        11.0,
        11.02,
        11.039999999999999,
        11.06,
        11.08,
        11.1,
        11.119999999999999,
        11.140000000000001,
        11.16,
        11.18,
        11.199999999999999,
        11.220000000000001,
        11.24,
        11.26,
        11.279999999999999,
        11.300000000000001,
        11.32,
        11.34,
        11.359999999999999,
        11.380000000000001,
        11.4,
        11.42,
        11.44,
        11.460000000000001,
        11.48,
        11.5,
        11.52,
        11.539999999999999,
        11.56,
        11.58,
        11.6,
        11.619999999999999,
        11.640000000000001,
        11.66,
        11.68,
        11.699999999999999,
        11.720000000000001,
        11.74,
        11.76,
        11.779999999999999,
        11.800000000000001,
        11.82,
        11.84,
        11.859999999999999,
        11.880000000000001,
        11.9,
        11.92,
        11.94,
        11.960000000000001,
        11.98,
        12.0,
        12.02,
        12.039999999999999,
        12.06,
        12.08,
        12.1,
        12.119999999999999,
        12.140000000000001,
        12.16,
        12.18,
        12.199999999999999,
        12.220000000000001,
        12.24,
        12.26,
        12.279999999999999,
        12.300000000000001,
        12.32,
        12.34,
        12.359999999999999,
        12.380000000000001,
        12.4,
        12.42,
        12.44,
        12.460000000000001,
        12.48,
        12.5,
        12.52,
        12.539999999999999,
        12.56,
        12.58,
        12.6,
        12.619999999999999,
        12.640000000000001,
        12.66,
        12.68,
        12.699999999999999,
        12.720000000000001,
        12.74,
        12.76,
        12.779999999999999,
        12.800000000000001,
        12.82,
        12.84,
        12.859999999999999,
        12.880000000000001,
        12.9,
        12.92,
        12.94,
        12.960000000000001,
        12.98,
        13.0,
        13.02,
        13.039999999999999,
        13.06,
        13.08,
        13.1,
        13.119999999999999,
        13.140000000000001,
        13.16,
        13.18,
        13.199999999999999,
        13.220000000000001,
        13.24,
        13.26,
        13.279999999999999,
        13.300000000000001,
        13.32,
        13.34,
        13.359999999999999,
        13.380000000000001,
        13.4,
        13.42,
        13.44,
        13.460000000000001,
        13.48,
        13.5,
        13.52,
        13.539999999999999,
        13.56,
        13.58,
        13.6,
        13.619999999999999,
        13.640000000000001,
        13.66,
        13.68,
        13.699999999999999,
        13.720000000000001,
        13.74,
        13.76,
        13.779999999999999,
        13.800000000000001,
        13.82,
        13.84,
        13.859999999999999,
        13.880000000000001,
        13.9,
        13.92,
        13.94,
        13.960000000000001,
        13.98,
        14.0,
        14.02,
        14.039999999999999,
        14.06,
        14.08,
        14.1,
        14.119999999999999,
        14.140000000000001,
        14.16,
        14.18,
        14.199999999999999,
        14.220000000000001,
        14.24,
        14.26,
        14.279999999999999,
        14.300000000000001,
        14.32,
        14.34,
        14.359999999999999,
        14.380000000000001,
        14.4,
        14.42,
        14.44
    ]
}