{
	"f0": [NaN,53.34927611,53.3395677,53.68274542,68.68300118,68.14195042,68.12954063,68.67417096,68.68584246,70.42563399,69.69716401,69.31491619,68.96592816,69.03081987,68.93404211,63.44443372,52.85137079,43.01121704,42.66376516,52.23104609,51.48682058,51.31455706,43.26728301,35.34887861,40.73002829,46.30423082,67.73238761,60.78193051,60.63511063,60.23029919,60.04064876,59.84888909,59.64536075,59.65751522,59.66066504,59.54201763,59.43572411,59.27576521,59.08338416,58.89075894,58.58356688,58.0677445,58.95370232,58.90607488,69.50292911,68.66003862,68.66665075,65.96869462,63.92800097,64.34488686,64.54733633,64.64069357,64.62736557,64.51408074,64.42521271,64.31684374,64.14647977,64.04586807,64.07767575,64.06476814,63.77359306,63.31967014,62.12358317,62.80781824,63.48682058,61.83677829,61.81498633,65.01289508,65.13611075,65.34273349,65.5063926,65.63414361,65.64285239,65.62360221,65.619384,65.49822586,65.36583623,65.23335044,64.97145441,64.55367345,63.93312768,64.38866863,64.82826604,64.88814677,64.55802863,68.16593834,65.69991543,62.5628784,63.02685583,63.38263231,63.663488,63.79799041,63.83593137,63.8413846,63.80362905,63.75705759,63.75927511,63.78777851,63.84511061,63.83669018,63.60391129,63.27046106,57.16212841,63.48682058,51.16617226,63.09668168,60.0442468,61.77104511,61.66776179,61.71062714,61.98053458,61.92041156,61.50278071,60.83954207,60.09519356,58.35865965,56.79856197,55.73828118,55.08748832,54.81095113,54.89033899,55.24348118,55.88278491,56.03913282,56.11192494,56.08848432,55.99894798,55.89202544,55.70265213,55.46963661,55.31738315,55.36097505,55.69374028,56.21331799,56.57963014,56.74549577,56.75751824,56.59241199,56.35049103,56.16087553,56.07254078,56.35424731,56.72194148,56.99299692,57.18218999,57.22208302,57.13916777,56.96735628,56.71754951,56.54678549,56.47606134,56.48506282,56.56704735,56.6243316,56.63993285,56.68945682,56.73052908,56.63698178,56.58160703,56.53268754,56.25344072,55.84970585,56.01165637,55.04163215,55.0377587,55.13489482,54.30040362,53.21526752,52.74318912,68.52928968,68.43125239,68.14978744,61.7816155,62.4780494,60.30941757,58.33576235,58.28572175,57.70504221,57.28128809,56.54997228,55.60495115,54.03187167,50.80781824,47.30329132,46.9446811,48.56087391,52.51647693,52.53847726,52.20475218,55.09362706,56.16602116,70.1034754,57.69573242,57.30593056,57.34967911,57.42848796,57.55743834,57.64683218,57.66025522,57.56386558,58.13196946,58.87756878,58.7385196,58.57131368,58.42617023,58.28254707,58.15750335,58.09922147,58.07227801,58.32704944,59.02188362,59.29029887,59.41347227,59.25417135,58.93599866,58.78138496,58.65030587,58.64952902,58.83804003,58.97055477,59.01733338,59.12905742,59.30792287,59.37582732,59.28553959,59.08705147,58.94246822,58.89344653,58.71303308,59.47856973,58.28988229,58.07244493,57.84196161,57.72253015,57.75956506,57.80614524,57.82356596,57.9262479,58.12120927,58.3757451,58.1309348,57.17399484,56.93520015,57.91080137,57.91080137,51.05067893,42.5291591,42.83667204,73.10505174,60.3388033,59.68906796,59.72035084,59.56413531,59.33942995,59.11861192,59.01511647,58.97367678,58.96935527,58.95642515,58.90974071,58.83463686,58.80598542,58.82525919,58.87387695,58.96584548,59.00695262,58.77543149,57.23715743,57.56293433,47.62368344,60.33040771,58.72495436,58.60655816,58.40509427,58.14066228,58.07527618,58.16983139,58.20809593,58.16313387,58.1044253,58.08612417,58.07649955,58.01877205,57.90456974,57.88357999,58.00734178,58.14780166,57.41547207,58.00240612,57.8864021,57.02076359,59.55247537,59.52515166,59.5041292,59.4322367,59.35853332,59.32133817,59.31168533,59.35722214,59.40380603,59.38787176,59.38191816,59.39126592,59.29445156,59.10273325,58.854939,58.31286099,58.10452464,76.93035138,76.93035138,67.26764215,67.05939493,55.22026543,55.62601092,56.17146156,56.58417014,56.85274078,56.95102972,56.94680774,57.00787412,57.30416198,57.41094543,57.50013674,57.92642636,58.00846212,57.4022503,57.17752838,57.65435131,57.11317227,57.60931141,60.31309884,61.37851323,61.2854187,61.056249,60.86287424,72.94525405,73.04722887,73.21088768,73.5212281,73.90378179,74.22879738,74.57113102,74.9138406,75.07490228,75.01711761,74.94854654,74.98017675,74.95880838,74.88967971,74.78961898,74.56154553,74.12579022,73.44525705,60.99015173,60.96085166,61.19527858,61.38032274,61.39581377,61.46885502,61.5259805,61.46928271,61.35702039,61.29515067,61.36663553,61.44397491,61.41629576,61.44178369,61.5342994,61.523555,61.22167583,58.06364344,58.20212491,60.04210305,60.22481232,60.20218607,60.13069159,60.12191089,60.13295508,60.06417714,60.00342697,60.01869554,60.13896169,60.26357219,60.37080764,60.6508806,61.01463644,61.36991412,61.68719114,61.95198948,61.9842344,61.89791317,61.87121325,61.94282444,61.93353673,61.92734369,61.97088961,61.95590601,61.93394214,61.91807933,61.83849345,61.78400858,61.82302524,61.81154384,61.69149698,61.61072271,61.64200991,61.61691755,61.54181046,61.59800212,61.73441817,61.77638236,61.71264481,61.72073301,61.69569813,61.64108066,61.67626548,61.68402242,61.63830127,61.5793952,61.57797738,61.61766282,61.6112007,61.58786378,61.66130605,61.79290797,61.81477824,61.82086653,61.79217096,61.75820565,61.79294696,61.8018772,61.75506471,61.71745499,61.70072598,61.6897894,61.69328498,61.69476553,61.6868422,61.681836,61.66440584,61.66341015,61.65013318,61.63155919,61.62257615,61.62189963,61.62184561,61.59639496,61.57166331,61.57367775,61.62073941,61.6312859,61.56647612,61.54938595,61.61099517,61.65007325,61.65858692,61.63943903,61.60907624,61.57358857,61.488035,61.41037169,61.40311756,61.41307794,61.4117549,61.49137215,61.6038292,61.66106897,61.71733825,61.81096736,61.92421313,61.89884679,61.76923644,61.73961538,61.99147072,62.16124925,62.09808343,62.03161137,62.07389607,52.19354484,50.58961642,42.9224708,35.34887861,35.34887861,35.34887861,51.83657672,53.80028006,53.8977729,47.43849547,51.83657672,51.66081541,52.34933341,59.62368344,44.23796469,76.93035138,76.93035138,76.93035138,76.93035138,76.93035138,76.93035138,76.93035138,76.93035138,76.93035138,76.93035138,76.93035138,76.93035138,76.93035138,76.93035138,76.93035138,76.93035138,76.93035138,76.93035138,76.93035138,76.93035138,76.93035138,76.93035138,76.93035138,76.93035138,76.93035138,76.93035138,76.93035138,76.93035138,76.93035138,76.93035138,76.93035138,76.93035138,76.93035138,76.93035138,76.93035138,76.93035138,76.93035138,76.93035138,76.93035138,76.93035138,76.93035138,76.93035138,76.93035138,76.93035138,76.93035138,76.93035138,76.93035138,76.93035138,76.93035138,76.93035138,76.93035138,76.93035138,76.93035138,76.93035138,76.93035138,76.93035138,76.93035138,76.93035138,76.93035138,76.93035138,76.93035138,76.93035138,76.93035138,76.93035138,76.93035138,76.93035138,76.93035138,76.93035138,76.93035138,76.93035138,76.93035138,76.93035138,76.93035138,76.93035138,76.93035138,76.93035138,76.93035138,76.93035138,76.93035138,76.93035138,76.93035138,76.93035138,76.93035138,76.93035138,76.93035138,76.93035138,76.93035138,76.93035138,76.93035138,76.93035138,76.93035138,76.93035138,76.93035138,76.93035138,76.93035138,76.93035138,76.93035138,76.93035138,76.93035138,76.93035138,76.93035138,76.93035138,76.93035138,76.93035138,76.93035138,76.93035138,76.93035138,76.93035138,76.93035138,76.93035138,76.93035138,76.93035138,76.93035138,76.93035138,76.93035138,76.93035138,76.93035138,76.93035138,76.93035138,76.93035138,76.93035138,76.93035138,76.93035138,76.93035138,76.93035138,76.93035138,76.93035138,76.93035138,76.93035138,76.93035138,76.93035138,76.93035138,76.93035138,76.93035138,76.93035138,76.93035138,76.93035138,76.93035138,76.93035138,76.93035138,76.93035138,76.93035138,76.93035138,76.93035138,76.93035138,76.93035138,76.93035138,76.93035138,76.93035138,76.93035138,76.93035138,76.93035138,76.93035138,76.93035138,76.93035138,76.93035138,76.93035138,76.93035138,76.93035138,76.93035138,76.93035138,76.93035138,76.93035138,76.93035138,76.93035138,76.93035138,76.93035138,76.93035138,76.93035138,76.93035138,76.93035138,76.93035138,76.93035138,76.93035138,NaN,NaN],
	"ap0": [NaN,0.5391122286,0.4985124731,0.6309834794,0.6601250713,0.6100157837,0.5590767076,0.4652197108,0.6491439977,0.9284048126,0.6798115389,0.549477571,0.5586935397,0.4581967028,0.5578868703,0.8894971878,0.6803216853,0.721609117,0.561899508,0.4822680529,0.5637218472,0.5536362553,0.6867296396,0.7257554277,0.6533366029,0.7982048418,0.7346286504,0.1106036882,0.04788663769,0.02752136298,0.01251913436,0.01313175775,0.004026944592,0.00355149827,0.003306082319,0.003468848396,0.00555295925,0.006767399272,0.001938142048,0.008700210083,0.02778770444,0.1459957336,0.5854592709,0.7372512014,0.8513955387,0.7941521616,0.7085723394,0.8582637664,0.03638147619,0.01351682061,0.00258233073,0.0003957894201,0.0006291658224,0.001175125742,0.0004673970916,0.002075493227,0.00110466435,0.0006750625948,0.001510469213,0.003115561955,0.01824282379,0.0370854374,0.2471048418,0.2633032141,0.4758810408,0.6424768495,0.8312192584,0.05313357382,0.02334447703,0.009212058614,0.00312293605,0.001809620297,0.001334608356,0.0006575099535,0.001068851937,0.0038216707,0.002313724834,0.00343562884,0.01476658386,0.03626966523,0.05631888856,0.3825617025,0.2180735928,0.3011071572,0.5890755835,0.347244585,0.778673447,0.08143896928,0.0288965726,0.009070391337,0.00507601432,0.0009002108226,0.000495770522,0.0006324642589,0.0007265748475,0.0004411620052,0.0006930247856,0.0009421210785,0.00151703233,0.003525588139,0.02500260575,0.05442418741,0.6870095525,0.5844423708,0.5704449816,0.3208081354,1.410624379,0.1467938911,0.09716194914,0.01654256211,0.005523778602,0.0113745341,0.03288511779,0.06906401246,0.1100607696,0.1300470952,0.0611498934,0.02544324905,0.01465721428,0.006678616427,0.00257524856,0.03127676834,0.02471368025,0.005571239351,0.001158914688,0.001387515663,0.001422874936,0.002144664483,0.004866509437,0.006250472654,0.006490648539,0.004479344487,0.01343392172,0.01241666786,0.005434226742,0.003235555384,0.003460689411,0.00698207817,0.005112946132,0.004570365463,0.003621244613,0.009063709029,0.007125105234,0.004831746782,0.002794760801,0.002591238391,0.003141320039,0.004983770657,0.005190458664,0.005074747884,0.006390559397,0.005570795158,0.005250422612,0.004870935564,0.003802731753,0.003249857631,0.003402121056,0.004398005798,0.006073931966,0.01540112757,0.03519031996,0.07928962915,0.4383804162,0.6892910902,0.5979650089,0.5355384936,0.5365831046,0.5001166819,0.4684917361,0.6916524378,0.499776053,0.3795753978,0.5431364044,0.5068114125,0.3074819112,0.1795505875,0.08161824412,0.05431301296,0.04972165402,0.06081818852,0.1036630072,0.1304842078,0.4971314877,0.1734959299,0.2327426778,0.8318071167,0.5849841551,0.5586626002,0.6813230967,0.7604275003,0.4259639697,0.1598435774,0.1487364979,0.07184254919,0.007610259128,0.006635836461,0.00532093051,0.005329783749,0.06204147074,0.3696729821,0.3152609423,0.07472850418,0.03241323882,0.01038001706,0.008231085943,0.006741137575,0.005919130363,0.006184857902,0.02319681693,0.08174361822,0.02217097931,0.00755482625,0.0117449806,0.02064501063,0.01362564611,0.01675137831,0.01108088622,0.007949309315,0.005793996762,0.003173385045,0.002089125507,0.007842966745,0.00536289917,0.001715892726,0.004063451404,0.01223846826,0.03119502374,0.1038069589,0.1858038961,0.8791032548,0.119615129,0.06781048758,0.01740344249,0.00174188669,0.001846173054,0.001054218085,0.001320260619,0.009714680497,0.01948976853,0.01715768585,0.05542560719,0.2270106882,0.2447330978,0.3144424365,0.4173837699,0.736983023,0.6269197916,0.8187628748,0.6311576934,0.4182384175,0.05019221624,0.01828721073,0.01301000612,0.01188538619,0.003050067644,0.001981582291,0.0007551241773,0.0006908070006,0.0005088070606,0.001291991066,0.0005551682201,0.0002404674382,0.0004492381351,0.000641372985,0.00350005636,0.01890549805,0.09635568406,0.1574714373,0.4781049385,0.7021855789,0.6168024131,0.05343429755,0.01695271577,0.02201463063,0.01594993588,0.004009707495,0.002632486057,0.0006539743728,0.00215773935,0.001601458277,0.001763196342,0.002118154085,0.004983343047,0.009063072501,0.01332506667,0.02739673569,0.07480519388,0.2666392437,0.09536556856,0.1487943139,1.438568574,0.1077455737,0.03070787652,0.005444695024,0.003632581804,0.000915647396,0.0007495570266,0.0007558288677,0.001118181387,0.0005537492542,0.0007624917541,0.0007235497948,0.0006766473145,0.005248458147,0.008733176919,0.09132636117,0.403519756,0.7029661227,0.3357299692,0.3404947137,0.4739963835,0.4298798273,0.1346169719,0.1064643118,0.09550095343,0.0431887574,0.01785438579,0.005505297344,0.008354762505,0.01800841515,0.01868028498,0.007734790089,0.03012488338,0.03714665653,0.0377866181,0.1301104871,0.1326119412,0.1684411329,0.2674787874,0.5924434172,0.8602346813,0.07611838855,0.03597546175,0.01310012766,0.006174195613,0.04957718605,0.03813971005,0.04398885048,0.05024277442,0.04149573502,0.03193151575,0.03699209674,0.04489657628,0.05673736675,0.06160931032,0.0589450437,0.06777269252,0.07159559663,0.0728995083,0.07852816109,0.07880598555,0.08848448941,0.1058439579,0.007792614398,0.005743665364,0.01029493344,0.001757172404,0.001124582146,0.002015491601,0.001202004092,0.002399488043,0.002554007566,0.001080648595,0.002769900207,0.001269352458,0.001799999991,0.002558570887,0.00336829244,0.01743852223,0.09799923775,0.1525001117,0.07958076938,0.05595352661,0.01283396662,0.003423933998,0.002112727484,0.001914656066,0.001918841661,0.001484659684,0.001184517932,0.001598635693,0.002563615657,0.001811658952,0.002295760037,0.006544209195,0.006627553732,0.00417498673,0.006444096434,0.002847212235,0.001521246693,0.00136701374,0.001188320918,0.001553178437,0.001496575452,0.001428692285,0.001560427835,0.001456918084,0.001444470415,0.001613999352,0.001925543075,0.001359300566,0.001419400467,0.001673168597,0.001981428828,0.001543314272,0.001752110018,0.001943862978,0.001501778298,0.002556799142,0.002333023352,0.001381870642,0.001686027873,0.001927108992,0.002564262639,0.001894802357,0.001537144109,0.001325961439,0.001676320976,0.001981654725,0.001827248565,0.001402671009,0.001194855151,0.001343412461,0.003055819516,0.002293565716,0.00162228736,0.001531879798,0.001834534052,0.001854485032,0.001857631222,0.001568399916,0.001717546635,0.001902217266,0.001825445745,0.001470007791,0.001299223213,0.001301451396,0.001587851601,0.001818588229,0.002002879788,0.00219089805,0.001880123384,0.001468933863,0.001395368116,0.001613752954,0.001693600816,0.001540740934,0.00158776886,0.001661707097,0.002008340077,0.002121363759,0.002367859451,0.002466450984,0.002217640395,0.001747133333,0.001775348538,0.002084786436,0.002015594046,0.002013940712,0.00257281022,0.002038637633,0.001704369022,0.001930341287,0.002614076667,0.003375578702,0.002436133872,0.002600137234,0.003653681846,0.004413288987,0.003050420449,0.003050954617,0.004203389652,0.005830365156,0.009826582902,0.006335234255,0.01187384436,0.03383992579,0.1715527905,0.8260030621,0.510198229,0.576190078,0.5680989777,0.4571369796,0.4897942529,0.5282030068,0.4781458057,0.5862413134,0.8010062479,0.7657662168,0.6197376033,0.6226645058,1.095329582,1,1,1,1,1,1,1,1,1,1,1,1,1,1,1,1,1,1,1,1,1,1,1,1,1,1,1,1,1,1,1,1,1,1,1,1,1,1,1,1,1,1,1,1,1,1,1,1,1,1,1,1,1,1,1,1,1,1,1,1,1,1,1,1,1,1,1,1,1,1,1,1,1,1,1,1,1,1,1,1,1,1,1,1,1,1,1,1,1,1,1,1,1,1,1,1,1,1,1,1,1,1,1,1,1,1,1,1,1,1,1,1,1,1,1,1,1,1,1,1,1,1,1,1,1,1,1,1,1,1,1,1,1,1,1,1,1,1,1,1,1,1,1,1,1,1,1,1,1,1,1,1,1,1,1,1,1,1,1,1,1,1,1,1,1,1,1,1,1,1,1,1,1,1,1,NaN,NaN],
	"ap": [NaN,0.3187249309,0.1936970448,0.2897042924,0.215469833,0.2243269366,0.2427373855,0.4881593428,0.6425222401,0.5848851508,0.4132789642,0.1157277101,0.081817807,0.2196214305,0.2364363781,0.3895255907,0.5499311069,0.2900876179,0.2123279938,0.287438831,0.2654718092,0.1746811276,0.190732119,0.4610730627,0.1847480598,0.525353418,0.4940409316,0.5430318661,0.3906884286,0.02065794573,0.04088416193,0.007953924153,0.007888966181,0.00179220573,0.001835802062,0.004127943284,0.002094778681,0.00796465868,0.002058929956,0.002187041679,0.01018401197,0.007643222371,0.5365677288,0.3380151126,0.5613782758,0.609782289,0.487956223,0.4474672098,0.4466461,0.3226474729,0.02265243204,0.001307318034,0.0001698611283,0.002022067642,0.0008926604651,0.0008455920339,0.002952077041,0.001085502625,0.0001757364287,0.0005438938597,0.01120457346,0.01502261131,0.04904032461,0.3575967737,0.2440229934,0.1108536254,0.2692427571,0.3592732691,0.4705451947,0.02675550018,0.01380130624,0.002855008649,0.0004481459906,0.0006630418647,0.0001405774292,0.003147492796,0.00469437565,0.002731174423,0.00755777321,0.02360676098,0.00783122467,0.1718423852,0.2475805684,0.09897835537,0.03228705921,0.3133136709,0.2315080648,0.2411852918,0.1531731364,0.0233714412,0.01822577155,0.003430685589,0.0005668054512,0.0001265077723,0.0002943700053,0.001200449421,0.0002656322791,0.0005431742662,0.0003788801404,0.0004132273917,0.008787666265,0.0138932834,0.7021785429,0.2631527697,0.518846397,0.4150156737,0.2025644306,0.2421869547,0.5615187896,0.01066583282,0.01833049459,0.0007105547769,0.05107101932,0.09320880704,0.1418656187,0.2944686795,0.1118805438,0.04414314824,0.03769096687,0.004029203547,0.009876203581,0.003262180043,0.03905398649,0.03260061448,0.0006835531985,0.0005242895896,0.0007500164252,0.002238933417,0.006052605678,0.004577202914,0.001411948143,0.002455723524,0.01197991525,0.02815869914,0.01374661714,0.003249077128,0.001914063275,0.002102102797,0.00473287019,0.003666105387,0.002332600956,0.002929887313,0.01419262723,0.005601125165,0.001791553655,0.001844668431,0.0006136329757,0.0008056456902,0.003006210432,0.005922173739,0.0008778365557,0.002494571336,0.003715223554,0.001935621051,0.001433531174,0.001396397349,0.001637816698,0.0004819086019,0.0004308889055,0.001655835599,0.007091845845,0.009214934306,0.07672443965,0.2592255283,0.4999640131,0.3503118191,0.2690676992,0.3141629377,0.3500350464,0.7923499347,0.2879315991,0.5549019551,0.2049222942,0.5318010504,0.5071598792,0.2208207134,0.1043601695,0.05172925932,0.03508441412,0.06588712484,0.05817800569,0.1328548807,0.3281893104,0.2816308552,0.04884420138,0.353210451,0.4728541376,0.2916148887,0.5839157748,0.3648478234,0.4142909248,0.794592015,0.3194656915,0.1307125901,0.009140895969,0.006587324197,0.004337738925,0.003718376241,0.00170811392,0.005377097264,0.1004634431,0.1238114895,0.1765542326,0.02304665069,0.01625418373,0.01152496437,0.005703895818,0.001527833932,0.004222387031,0.01522091383,0.1542508989,0.01085780267,0.003535663964,0.00823950308,0.02645011113,0.01331108093,0.01588198944,0.002647120691,0.01649242152,0.00334579628,0.0008847269547,0.004307789297,0.02040400354,0.001968793487,0.003446782161,0.01245795764,0.008566525356,0.006181470974,0.1565839003,0.09346321988,0.2258625865,0.3569584305,0.04383828346,0.001724893113,0.001374189319,0.0005524119804,0.0007606884248,0.002496102481,0.01196000669,0.01327684979,0.01499447876,0.04495617472,0.0764045339,0.2438086184,0.13273694,0.4950848141,0.3142363557,0.4206925214,0.6670230663,0.5365883445,0.3731978652,0.2945261241,0.008863926692,0.02311759072,0.01035436446,0.001831488287,0.001063619311,0.0003158961435,0.0001461669954,0.0004819447259,0.002925915662,0.0001474054521,0.0002450559144,0.0006412488318,0.001661391165,0.0009099959936,0.01777580905,0.09759996423,0.1973048288,0.433394081,0.8205129898,0.4184139924,0.2980097967,0.03887869447,0.04611530881,0.004195314601,0.009966887193,0.001296537839,0.001190391554,0.002814458286,0.001424910019,0.001059568401,0.002949487458,0.006939679262,0.002634279819,0.01201167004,0.00920905176,0.1101904821,0.04780189042,0.03534806806,0.1200849675,0.5286857497,0.5626336975,0.007675348679,0.00322693889,0.001462962774,0.0002907850731,0.0005628908458,0.001044852886,0.0007402235685,0.0002860679688,0.0005973625275,0.0004923906972,0.002858677477,0.0118089077,0.01209209381,0.07981942855,0.4195635177,0.02594002646,0.01790851065,0.09140514037,0.1246659382,0.944004598,0.2478992772,0.2728677471,0.1083886437,0.02943954249,0.008629699034,0.0006970529515,0.005188931363,0.02877012585,0.006485906812,0.002250635531,0.03665728488,0.006309495673,0.02278214844,0.2678653574,0.09965184903,0.1505493504,0.8678323613,0.2385026334,0.5886676672,0.5620507604,0.01658825655,0.02004708228,0.0885204965,0.03017297265,0.01773774222,0.01098111219,0.05964307607,0.01701556026,0.0104333797,0.008757026187,0.01770253335,0.02684254868,0.02854600238,0.02630923641,0.03675910664,0.04428887686,0.03190400292,0.02758142073,0.03483492352,0.06785799399,0.03638206476,0.0004496917699,0.01881780458,0.0110861405,0.002297642971,0.001074355626,0.001298598592,0.001610831775,0.006734590229,0.001328087764,0.001742170288,0.002195007066,0.0005087885802,0.0006295802668,0.0008489171095,0.0004255511965,0.01650330509,0.320281435,0.1372870441,0.1285111102,0.0840727509,0.002305879064,0.002374938356,0.001024974945,0.0006934025849,0.002315285852,0.0005174003123,0.0006210176489,0.002393203461,0.001363381109,0.0006542016054,0.007990186478,0.01035345949,0.007012120659,0.008625709564,0.006256050935,0.0007672633473,0.001216468229,0.0004861989351,0.0004215187853,0.00025997554,0.0005689373972,0.0006232126941,0.0009420730882,0.0008888024023,0.0004158958026,0.002319617547,0.001577261119,0.001249884737,0.0008062757221,0.0009310969266,0.001503756404,0.0003514818554,0.001182608707,0.001986720669,0.0007611245799,0.003668796589,0.000578973758,0.001506722,0.0005858590428,0.0003337481077,0.0008876649597,0.002222254417,0.001362147561,0.000941781764,0.001171769225,0.0009238911316,0.002171490969,0.0006773995662,0.0003789712179,0.0006122084157,0.003239415519,0.001700004964,0.001481422389,0.0006926895036,0.0002162000447,0.0006391547144,0.001663009084,0.001455590894,0.0005176894473,0.0004436232039,0.001342167111,0.001222705219,0.0007442455799,0.0005308148791,0.0003589550403,0.0003339886782,0.001576369326,0.001978947384,0.0008030969662,0.00034658775,0.0005678572491,0.00111568271,0.002376130283,0.0007907404987,0.0003202812586,0.0004737596168,0.0008612037598,0.001165866504,0.0005979748855,0.0009291832971,0.001628959034,0.0009308584517,0.00157806824,0.0007384608767,0.0005989292122,0.0007570557045,0.001703026836,0.001628201298,0.0001816370601,0.000815798235,0.0006882130288,0.001181960988,0.001987236296,0.001898791012,0.001777342416,0.003351429307,0.001839849791,0.001186605133,0.001228426258,0.003924768339,0.009135763436,0.008927979375,0.003060871561,0.01764185185,0.2618923896,0.1653136125,0.1694856847,0.3300659799,0.235128453,0.2203343219,0.3290445579,0.3052337264,0.1337144922,0.6528727809,0.3476161922,0.4962179237,0.5947032239,0.6157091938,0.5000007711,1,1,1,1,1,1,1,1,1,1,1,1,1,1,1,1,1,1,1,1,1,1,1,1,1,1,1,1,1,1,1,1,1,1,1,1,1,1,1,1,1,1,1,1,1,1,1,1,1,1,1,1,1,1,1,1,1,1,1,1,1,1,1,1,1,1,1,1,1,1,1,1,1,1,1,1,1,1,1,1,1,1,1,1,1,1,1,1,1,1,1,1,1,1,1,1,1,1,1,1,1,1,1,1,1,1,1,1,1,1,1,1,1,1,1,1,1,1,1,1,1,1,1,1,1,1,1,1,1,1,1,1,1,1,1,1,1,1,1,1,1,1,1,1,1,1,1,1,1,1,1,1,1,1,1,1,1,1,1,1,1,1,1,1,1,1,1,1,1,1,1,1,1,1,NaN,NaN],
	"pwr": [NaN,4.239249339e-07,1.429689585e-06,2.561512741e-06,8.128709463e-06,5.272794544e-06,1.076862663e-05,1.731685458e-05,3.277310002e-06,1.494873067e-05,1.388138978e-05,2.224738316e-05,2.276819871e-05,1.721692307e-05,1.840161184e-05,1.988320399e-05,4.668155162e-06,3.173182598e-06,2.431403022e-06,9.345193984e-07,5.074194632e-07,5.206773242e-07,8.16646796e-07,2.035470111e-06,2.182379633e-06,1.460057871e-06,7.594714661e-07,0.0001279348754,5.997865995e-05,0.03684385099,0.06316232033,0.09927096921,0.06485314621,0.03665454904,0.0251410068,0.01547016189,0.01299349465,0.01441517324,0.01541411828,0.01604640516,0.01736077225,0.01270905649,0.0002991379114,7.649337717e-05,5.997722446e-05,0.0002708656829,0.0002745394272,0.0002134629207,0.0002575252134,4.699901454e-05,0.02106549509,0.05586833824,0.05686599221,0.05365611966,0.05081366922,0.04785222644,0.04476556166,0.0361460187,0.03631903625,0.03550819511,0.03625913574,0.03579162862,0.0177453753,0.0001657796507,4.249551217e-05,1.469196286e-05,1.250300589e-05,4.710415554e-05,2.497138419e-06,0.07818700895,0.146865446,0.1962382275,0.1994334695,0.1858194348,0.186100243,0.18592065,0.1770049925,0.144056052,0.0937229769,0.07756881548,0.04174046988,0.006774566815,5.816921081e-05,2.939163552e-05,2.4882357e-05,6.105215563e-06,3.169602926e-06,0.0002753167536,0.002778514582,0.03532682873,0.0662519734,0.08179172815,0.09499840359,0.1017819288,0.0953658854,0.08698752652,0.08396725793,0.07458578989,0.06948359088,0.06749448184,0.06084446283,0.05215841636,0.01831614395,0.0005233780248,2.741124335e-05,9.190903417e-06,1.464491771e-05,1.6909203e-05,6.23075918e-05,0.1852531735,0.06515292066,0.05691218901,0.059861665,0.06268444526,0.05109877548,0.05152362449,0.02180713305,0.0429738178,0.0261930794,0.01811165313,0.01176421798,0.00982533425,0.00993558476,0.01297846304,0.03930544333,0.03996282469,0.0380525452,0.03067135462,0.02547862737,0.01712329111,0.01188360696,0.005710642214,0.003747466036,0.004028637479,0.005754285155,0.006558811994,0.009362359575,0.007873116948,0.005449886849,0.004200386174,0.003185392805,0.002173769368,0.002677876246,0.002906396407,0.003695141538,0.004084367937,0.004890162125,0.004535339561,0.003980427705,0.003017052007,0.002557636215,0.00216631722,0.001644350628,0.002095112931,0.002618105905,0.002632586855,0.002722670071,0.003111887802,0.003290637716,0.003321296749,0.003364970159,0.001169418359,0.0003110213053,3.968443878e-05,1.555141643e-05,4.121693093e-06,2.701062819e-06,1.221812029e-06,8.117859452e-07,2.066387291e-06,2.092835331e-07,4.793862019e-06,9.837202168e-06,1.694515835e-05,0.000121580369,7.393816815e-05,0.0003281114287,0.0006076057901,0.0005909269572,0.001123988215,0.0009361084999,0.0007787331659,0.0005889131364,0.0002698997574,0.0003971230279,0.0001441338095,1.028452161e-05,1.353704608e-06,2.447670594e-07,1.150518626e-06,2.182989652e-06,3.729354902e-06,0.003120696292,0.1687158978,0.04435826743,0.1001811878,0.06822100898,0.03853427791,0.02917338459,0.03055574033,0.0009423508945,0.0001787909673,0.004396402065,0.04893236825,0.09238585638,0.09285636783,0.08622081193,0.0860738342,0.08025420403,0.06650250846,0.09735804331,0.05889183803,0.07175376957,0.07788923378,0.09289653257,0.1404990297,0.1556268146,0.1059688989,0.06245268811,0.04922075117,0.05200570048,0.05408547294,0.06016053595,0.06482143806,0.06363107978,0.06172890658,0.06475360269,0.07614587944,0.004261806205,0.0009134128933,7.710166231e-05,4.689546623e-05,0.09300903711,0.06695989387,0.07173818202,0.06322569495,0.07159161369,0.082844531,0.1064698942,0.07836462785,0.02342910781,0.011876014,0.0007579333192,0.0001572675849,3.308187867e-05,6.995407217e-06,5.786889527e-06,2.677681668e-06,7.440202406e-06,4.556981305e-06,1.311022177e-05,0.000282555984,0.03275368081,0.1106684638,0.2011738125,0.118695751,0.08425962432,0.06566998639,0.07097853452,0.0689473644,0.08371064371,0.0930494495,0.09390766366,0.09488984473,0.1008997125,0.09579659375,0.07680966473,0.02054831907,0.005201601501,0.0001909350269,0.0002260157732,0.0001618505082,0.0004990152852,0.03317748409,0.08062559399,0.09702430338,0.1123629327,0.1061965925,0.1034364159,0.1059511342,0.09845828348,0.07715448428,0.06089921488,0.05954359471,0.07125943199,0.08338814767,0.04461616012,0.01038196041,0.0007375554403,0.0001217074908,4.380970785e-05,9.679232165e-06,9.006848434e-05,0.02527659638,0.07150132867,0.1541695969,0.1621943741,0.1417707703,0.1127752744,0.09814235402,0.1038058307,0.1105964723,0.1047676613,0.1058961177,0.1034501991,0.08758242805,0.07096375266,0.01375139386,0.005653791385,0.007809248748,0.008756241137,0.009363639068,0.006241655191,0.02904954875,0.06925837899,0.07683683379,0.0761010835,0.05789672927,0.05927823266,0.08088279294,0.07950446527,0.02674438699,0.04362598071,0.06211802589,0.01452023199,0.01060044595,0.0001832134906,0.0001080190987,2.256870576e-05,4.418477669e-06,2.280468312e-06,8.597609383e-07,4.713507664e-05,0.01551424295,0.01722504379,0.03331749651,0.1569691056,0.1661351965,0.23019835,0.1902431685,0.2216797159,0.2470961856,0.2565967098,0.2232600846,0.1591345361,0.1394359162,0.2095459613,0.2070019971,0.1572134603,0.1548997248,0.1253577444,0.18055022,0.1866529905,0.1360433452,0.1272280658,0.1065942871,0.08055871943,0.06883070508,0.06669122326,0.05497892615,0.0530688811,0.05467056627,0.05373748132,0.05180315743,0.04221726699,0.03913563264,0.03801358079,0.03680824048,0.03289688266,0.02391411507,0.01128699555,0.0007207145229,0.001518974898,0.002392682847,0.01995876144,0.02016714681,0.02206340731,0.02258666902,0.02315993799,0.02095609682,0.02038295935,0.01913077704,0.01432754658,0.01426853257,0.01353977675,0.01142779966,0.01132457035,0.01009608151,0.01446046314,0.01202356371,0.01545401907,0.01639671851,0.01552616047,0.01348675681,0.01412893923,0.01313575118,0.01202301973,0.0122463034,0.01159890954,0.01183439663,0.01141328141,0.01131867175,0.01153685762,0.01245920305,0.0120411594,0.01186055137,0.01191106704,0.01126521042,0.0112886473,0.01175502731,0.01204762604,0.01233451309,0.0132178469,0.01214822382,0.01186769194,0.01179143644,0.0121250669,0.01132776086,0.01089267844,0.01064823791,0.009653728405,0.009707943377,0.0102990875,0.01002051259,0.008808789472,0.008154727434,0.008444773036,0.008575850959,0.007911910899,0.00719650672,0.006598608142,0.006491379673,0.006712142295,0.006524246636,0.005660119598,0.005780080257,0.005528871594,0.005436700227,0.005352580311,0.005415546985,0.005878863745,0.005087309993,0.004512279384,0.004721815246,0.005018854267,0.005028591832,0.004608214174,0.004251012163,0.004099774716,0.003944408991,0.00366538702,0.003816615196,0.004298539722,0.004041311383,0.003619187006,0.003552902148,0.003155385339,0.003160661544,0.003031180984,0.003008236492,0.002990874428,0.002535088585,0.002264170655,0.002139973595,0.001800961492,0.001718547408,0.001558457717,0.001391275069,0.001173624718,0.00106961733,0.001192580094,0.001033473071,0.0009884456938,0.0006977346971,0.0005535532021,0.0005204254107,0.0003124314619,0.0001215079288,3.972549772e-06,1.255766027e-06,1.013587391e-06,7.121540023e-07,7.295906342e-07,5.978112399e-07,8.392683468e-07,9.797614845e-07,5.278264001e-07,9.039694122e-07,2.464322297e-09,4.045138455e-10,2.740911508e-10,1.518055797e-10,7.199368587e-11,0,0,0,0,0,0,0,0,0,0,0,0,0,0,0,0,0,0,0,0,0,0,0,0,0,0,0,0,0,0,0,0,0,0,0,0,0,0,0,0,0,0,0,0,0,0,0,0,0,0,0,0,0,0,0,0,0,0,0,0,0,0,0,0,0,0,0,0,0,0,0,0,0,0,0,0,0,0,0,0,0,0,0,0,0,0,0,0,0,0,0,0,0,0,0,0,0,0,0,0,0,0,0,0,0,0,0,0,0,0,0,0,0,0,0,0,0,0,0,0,0,0,0,0,0,0,0,0,0,0,0,0,0,0,0,0,0,0,0,0,0,0,0,0,0,0,0,0,0,0,0,0,0,0,0,0,0,0,0,0,0,0,0,0,0,0,0,0,0,0,0,0,0,0,NaN,NaN],
	"sr": 16000,
	"range": [1,214020],
	"minf0": 63.1883,
	"maxf0": 706.3069,
	"thresh": 0.1,
	"relflag": 1,
	"hop": 320,
	"bufsize": 10000,
	"wsize": 640,
	"lpf": 4000,
	"shift": 0,
	"plotthreshold": 0.2
}
