{
    "DU": 127,
    "DV": 299,
    "F-measure": 0.2311688311688312,
    "F-measure Chroma": 0.3116883116883116,
    "FN": 45,
    "FNC": 0,
    "FNCch": 17,
    "FNI": 45,
    "FNIch": 28,
    "FP": 37,
    "GU": 119,
    "GV": 307,
    "Overall Accuracy": 0.20892018779342722,
    "Overall Chroma Accuracy": 0.28169014084507044,
    "Precision": 0.2335958005249344,
    "Precision Chroma": 0.31496062992125984,
    "Raw Chroma Accuracy": 0.1791530944625407,
    "Raw Pitch Accuracy": 0.02280130293159609,
    "Recall": 0.22879177377892032,
    "Recall Chroma": 0.30848329048843187,
    "TN": 82,
    "TO": 426,
    "TP": 262,
    "TPC": 7,
    "TPCch": 38,
    "TPI": 255,
    "TPIch": 224,
    "Voiced Chroma Accuracy": 0.1237785016286645,
    "Voiced Pitch Accuracy": 0.02280130293159609,
    "Voicing Accuracy": 0.8075117370892019,
    "Voicing Detection": 0.8534201954397395,
    "Voicing False Alarm": 0.31092436974789917
}