{
    "f0": [
        0.0,
        0.0,
        0.0,
        62.846535228486985,
        61.608772854285519,
        60.398984406735707,
        53.199874548983061,
        54.907008116886459,
        55.339604610303333,
        55.429823224924533,
        55.767030787675765,
        56.053016642428361,
        56.28994180116122,
        56.477312166694233,
        56.511522707340831,
        56.629813357516888,
        56.718291096720307,
        56.689499930337682,
        56.559029155426835,
        56.364341508970284,
        55.84968916208917,
        55.319268817452297,
        52.886880329625484,
        53.01011544623664,
        53.350646131821158,
        53.050631112456927,
        53.129104309277835,
        53.331628308092156,
        53.617225900030014,
        53.882599748993357,
        54.267549924336031,
        54.056454052380161,
        54.970693694947357,
        55.287743406208833,
        55.528977038872029,
        55.629011550938131,
        55.802082061088619,
        56.000097562187349,
        56.116436505334974,
        56.137041505491659,
        56.275713080082099,
        56.413283939269547,
        56.420581259596446,
        56.412626825208193,
        56.41464904819226,
        56.415065071615416,
        56.408902327679876,
        56.496369918293517,
        56.625754952563447,
        56.636086832889646,
        56.617674546859135,
        56.697230412923382,
        56.763799149872,
        56.792374735910791,
        56.845327920647733,
        56.947761782421125,
        57.132886173738292,
        57.459975131407155,
        57.930488703594314,
        58.174441823822903,
        58.251061395174901,
        58.286227037633751,
        58.249062890892318,
        58.210161814516859,
        58.20488391800545,
        58.244144422393092,
        58.247102158744788,
        58.224459862368761,
        58.237307400836812,
        58.250149878006191,
        58.36428453261648,
        58.473750690564238,
        58.519832258900934,
        58.58909082287488,
        58.690404846741558,
        58.780644331369267,
        58.870416875237865,
        58.910116850265503,
        59.069135445558047,
        59.241898695687738,
        59.320011966073977,
        59.373251679892789,
        59.390733959184047,
        59.342565160714344,
        59.303615517963166,
        59.273876017914759,
        59.244606472193006,
        59.256226851283387,
        59.249158135529939,
        59.268083802839023,
        59.299814123982102,
        59.342696234835607,
        59.366823423878493,
        59.365761368374812,
        59.288396519523793,
        58.973859129790398,
        58.483485358918983,
        58.238814314929165,
        57.990632346874897,
        59.757364081090714,
        59.609179225221368,
        59.484003350507862,
        59.37673556810428,
        59.340867087219664,
        59.413985890816704,
        59.506048899095262,
        59.752368448259119,
        60.0931358544929,
        60.469402196340155,
        60.723534526132298,
        60.884973172477771,
        60.908481488829892,
        60.938633069837621,
        61.032244627794014,
        61.041079604127319,
        61.029932893597099,
        61.092673705633388,
        61.118425461998868,
        61.097424171834021,
        61.100606218455113,
        61.141373296602744,
        61.15297566980496,
        61.166040920301384,
        61.192941210893444,
        61.219820427598826,
        61.180565856160193,
        61.111122329640914,
        61.045673189182075,
        60.996567893030871,
        60.961850913573102,
        60.910842079709724,
        60.869080294787075,
        60.919199191152529,
        60.974572511527789,
        60.998437975204652,
        61.008968680475192,
        61.03028872337547,
        61.074890484814105,
        61.055932036918271,
        61.039267341266772,
        61.003109580605567,
        61.030425766080882,
        61.076744602111759,
        61.119017985871601,
        61.198647883689503,
        61.265641628401781,
        61.291319421741058,
        61.268918667674761,
        61.248225103979742,
        61.302817966044827,
        61.370028206525333,
        61.457570283912275,
        61.475760480556978,
        61.461874683508647,
        61.41141362802454,
        61.343033757671108,
        61.294507234655676,
        61.22899292038057,
        61.19994801349398,
        61.097725516021029,
        60.863738464482715,
        60.855087358439548,
        60.787518946918929,
        60.564659862113324,
        60.206138565642952,
        59.662569033896659,
        59.127508601966667,
        58.82827272041061,
        58.752782024345883,
        58.75828170657708,
        58.832745092092985,
        58.894735085262461,
        59.3053897121532,
        59.536961698412149,
        59.849355373448894,
        59.587738256881664,
        58.763484698627956,
        58.770502994008048,
        59.862344889604231,
        59.859360587433173,
        59.616877809380682,
        59.455437251065064,
        59.481283874110218,
        59.568579244632289,
        59.65794357175983,
        59.776360331754162,
        59.91965819710672,
        59.996749428607714,
        60.022202327129911,
        59.984541473696297,
        59.948139521181169,
        59.92862316400489,
        59.863393188920988,
        59.75639537670061,
        59.669632588560141,
        59.600216690293045,
        59.646324934043413,
        59.811773518336345,
        60.088855037161515,
        60.095911471189098,
        60.024096023981819,
        59.971588737975907,
        59.987469974860758,
        60.199114955009485,
        60.506690775145806,
        60.876636003793216,
        61.229470666357628,
        61.469745564803915,
        61.632717747307048,
        61.614380942699874,
        61.588690012987577,
        61.545288827888939,
        61.561309482107049,
        61.552457343231723,
        61.528190344494419,
        61.530915265486428,
        61.523974573815806,
        61.482414631550526,
        61.343366371325679,
        61.178196509185611,
        61.075623051532276,
        61.073740392033741,
        61.071857465580436,
        60.7202184860055,
        60.71297406196723,
        60.702965542731661,
        61.037163898916162,
        60.840400176826613,
        60.852559593338555,
        52.053640199923308,
        53.459386133464506,
        53.617408348915532,
        0.0,
        48.001630584960083,
        48.513369170801916,
        53.945954844090025,
        53.375649940071682,
        52.78591464227403,
        0.0,
        0.0,
        0.0,
        0.0,
        54.572493722244829,
        73.176057018734241,
        53.532004139082758,
        52.825278420239556,
        49.026404751434058,
        47.450402693356693,
        47.601726263169788,
        59.810454688640753,
        60.106606152018855,
        60.236154964930449,
        59.917819993850671,
        60.24273546180531,
        59.616593867748016,
        60.575758513688392,
        45.311215987148643,
        37.010536560709376,
        53.894648913827822,
        66.085433649897979,
        66.449857489760561,
        66.806768108518554,
        67.230125366114009,
        67.582562714817414,
        67.784167312704795,
        67.891295849963797,
        67.905786369828661,
        67.996042741836021,
        68.135818488495147,
        68.192270888724792,
        68.220528655157366,
        68.262728173230656,
        68.304825119332051,
        68.172826077892509,
        68.239489664905605,
        0.0,
        0.0,
        0.0,
        0.0,
        50.414206640201158,
        50.24020853288048,
        41.019810608814439,
        68.438329778254655,
        68.438329778254655,
        68.264338230356543,
        68.368939875675366,
        68.358510812762134,
        68.505714253576954,
        68.592923951294566,
        68.534959230295115,
        68.543610891450683,
        68.552258231188546,
        68.560898832406764,
        68.395539536802801,
        68.101347299517158,
        68.01543154411668,
        67.913174116824734,
        0.0,
        0.0,
        44.194628330662042,
        0.0,
        0.0,
        43.69278499542942,
        0.0,
        53.890118533845126,
        65.462123206605384,
        65.462124654626621,
        65.462127598936092,
        65.597355931296775,
        65.760612625892719,
        65.976146568989236,
        66.160367894538894,
        66.214589066258839,
        66.222039768277114,
        66.252794252815448,
        66.265842918234881,
        66.304921594569933,
        66.447672968267668,
        66.64353888925416,
        66.80169452957027,
        66.802029934536947,
        66.984330891191362,
        66.959927503508254,
        67.068739271144707,
        67.170948350051674,
        67.368672969149301,
        67.656792586354101,
        68.037653744292314,
        68.303283871011317,
        68.524080524744235,
        68.678387643847032,
        68.723515025883785,
        68.751926943876967,
        68.796077209996525,
        68.800200331181372,
        68.812812713457731,
        68.871773548524047,
        68.916356838956816,
        68.937174471233519,
        68.973422597733375,
        68.999178667346087,
        68.954388248706664,
        68.916344780232762,
        68.918362028635897,
        68.948525376398919,
        68.964593290182037,
        68.987662687164161,
        68.965291130132613,
        68.873366595587399,
        68.64193880244126,
        68.412666593040498,
        68.048974240640689,
        67.722916309095083,
        68.046462304770998,
        67.776796462498069,
        67.61788637809245,
        67.57830856635492,
        67.671962915145613,
        67.780057753457129,
        67.910880229910447,
        68.027885574922678,
        68.015071820244273,
        67.97701180012676,
        67.971826507953111,
        67.974281747809641,
        67.924940439551762,
        67.838680540609516,
        67.799323016198628,
        67.656034769028921,
        67.360250519968233,
        0.0,
        0.0,
        0.0,
        56.541357142693542,
        0.0,
        0.0,
        0.0,
        53.830365684550799,
        65.783009026811641,
        65.734274073325523,
        65.720208855318234,
        65.817150432640403,
        65.876487194053283,
        65.877079696997669,
        65.897091019160115,
        65.939403248803799,
        65.982844413829525,
        65.98006412145692,
        66.006207246245665,
        65.989313905244131,
        65.900796708700241,
        65.81182455358416,
        65.722391360330519,
        65.632492285680172,
        65.714385657121341,
        65.692265095941025,
        44.264457205074969,
        43.022663882953573,
        42.593930800833945,
        42.522783900199983,
        38.62193518396554,
        38.456822745087976,
        66.222386593335955,
        66.208966493218981,
        66.28462914572674,
        66.554446099026066,
        67.031801120285039,
        67.425028995514452,
        67.704110563743114,
        67.852936751706565,
        67.81841647723175,
        67.741351678504202,
        67.686784507449843,
        67.660847166124,
        67.6669279570323,
        67.671064455457625,
        67.675199965770929,
        67.676103435063709,
        67.545688565365012,
        67.579628968019492,
        67.663729567543456,
        67.735913178827445,
        67.848033682881692,
        67.946281127144701,
        68.105936371716723,
        68.405727575864887,
        68.416695777269055,
        68.474505113778548,
        68.586679098969768,
        68.604578871351237,
        68.541969917000415,
        68.523336279091865,
        68.632747422021055,
        68.801632421854208,
        68.866490088304104,
        68.882021329372378,
        68.950331758308621,
        68.97362822055787,
        68.951114494208866,
        68.899523066258709,
        68.847777473951794,
        68.825682760045822,
        68.810787981061068,
        68.79225809997024,
        68.773708364578127,
        68.668012480657652,
        68.431556158694264,
        69.199934512268385,
        69.155848007769308,
        70.248136771176377,
        70.381695693768904,
        70.394122438163194,
        70.424928649454387,
        70.516929587187093,
        70.680281337269776,
        70.871144387367167,
        71.047313351352287,
        71.30186315396206,
        71.48164490924438,
        71.375741110333053,
        71.116202035898795,
        71.117290095766279,
        70.838239921227142,
        70.638581156531714,
        70.069106549863506,
        69.640318281635473,
        69.323434583732549,
        69.142905595716883,
        69.138734611769792,
        69.233326036567433,
        69.330075485490667,
        69.361809644290091,
        69.378953110288165,
        69.419324585136692,
        69.434783624398904,
        69.407323653549327,
        69.406459235209439,
        69.339251457146133,
        69.340205156829413,
        69.259260503597829,
        69.177939155248438,
        68.922237846283252,
        0.0,
        0.0,
        0.0,
        0.0,
        47.444689132506973,
        47.444684896098934,
        0.0,
        49.207705394682705,
        64.236344285253679,
        64.06234945780875,
        64.006040273875584,
        63.981460335097623,
        64.098562997950836,
        64.426087813992012,
        64.987016863081152,
        65.530340398943977,
        66.005857513207388,
        66.360968085269889,
        66.545825523745222,
        66.512621306258566,
        66.311291486331299,
        66.166134968276097,
        66.052099615918422,
        65.949400905565952,
        65.936684723506858,
        65.972169547312731,
        65.9741159742306,
        66.005607686204229,
        66.013178822859118,
        66.025868911412303,
        66.058382492857746,
        66.068028651922276,
        66.028017474569282,
        65.987913611684434,
        65.947715224889919,
        65.485180954079453,
        65.009949175154361,
        65.530070441345273,
        0.0,
        0.0,
        0.0,
        61.821563116511491,
        0.0,
        0.0,
        0.0,
        0.0,
        0.0,
        0.0,
        0.0,
        60.691051737032083,
        63.54826521834898,
        53.401834340075119,
        53.2278370203002,
        53.570665135245193,
        52.711028576973419,
        54.149486292651815,
        53.897341004954789,
        65.230500439952024,
        65.256079321891846,
        65.334706136073819,
        65.438646744667551,
        65.529212078020734,
        65.442174588344031,
        65.190520766073604,
        65.361482892246229,
        0.0,
        0.0,
        51.220337359557263,
        0.0,
        44.997241609653301,
        44.290518488791641,
        66.060805901823969,
        42.269862647249681,
        38.342977596201486,
        66.227198697595597,
        66.29726924811257,
        66.467873961634538,
        66.664676733072596,
        66.882103224760016,
        67.100220804006455,
        67.281000201202815,
        67.64931926747137,
        67.429693074778854,
        67.499818071379494,
        67.551747260692295,
        67.592709059834135,
        67.634373290462989,
        67.6525475398997,
        67.682335625682711,
        67.741160590387523,
        67.776373767053471,
        67.758943184947057,
        67.772441529242272,
        67.792880482739804,
        67.767168777676787,
        67.739981560519681,
        67.774240834523098,
        67.934112995415603,
        67.856374857999469,
        67.855166488977204,
        67.987822083712331,
        68.080973218933181,
        68.018787981927531,
        68.028194217088924,
        68.041231777450307,
        67.941469552011114,
        67.921682042765696,
        67.934316067167785,
        67.938875578717457,
        67.864976149375082,
        68.080248930618183,
        67.623743024740364,
        67.306789503521244,
        67.751378306388276,
        67.752977216069269,
        67.622076235389869,
        67.700255059859941,
        0.0,
        0.0,
        0.0,
        0.0,
        0.0,
        0.0,
        0.0,
        0.0,
        0.0,
        0.0,
        0.0,
        0.0,
        0.0,
        0.0,
        0.0,
        0.0,
        0.0,
        0.0,
        0.0,
        0.0,
        0.0,
        0.0,
        0.0,
        0.0,
        0.0,
        0.0,
        0.0,
        0.0,
        0.0,
        0.0,
        0.0,
        0.0,
        0.0,
        0.0,
        0.0,
        0.0,
        0.0,
        0.0,
        0.0,
        0.0,
        0.0,
        0.0,
        0.0,
        0.0,
        0.0,
        0.0,
        0.0,
        0.0,
        0.0,
        0.0,
        0.0,
        0.0,
        0.0,
        0.0,
        0.0,
        0.0,
        0.0,
        0.0,
        0.0,
        0.0,
        0.0,
        0.0,
        0.0,
        0.0,
        0.0,
        0.0,
        0.0,
        0.0,
        0.0,
        0.0,
        0.0,
        0.0,
        0.0,
        0.0,
        0.0,
        0.0,
        0.0,
        0.0,
        0.0,
        0.0,
        0.0,
        0.0,
        0.0,
        0.0,
        0.0,
        0.0,
        0.0,
        0.0,
        0.0,
        0.0,
        0.0,
        0.0,
        0.0,
        0.0,
        0.0,
        0.0,
        0.0,
        0.0,
        0.0,
        0.0,
        0.0,
        0.0,
        0.0,
        0.0,
        0.0,
        0.0,
        0.0,
        0.0,
        0.0,
        0.0,
        0.0,
        0.0,
        0.0,
        0.0,
        0.0,
        0.0,
        0.0,
        0.0,
        0.0,
        0.0,
        0.0,
        0.0,
        0.0,
        0.0,
        0.0,
        0.0,
        0.0,
        0.0,
        0.0,
        0.0,
        0.0,
        0.0,
        0.0,
        0.0,
        0.0,
        0.0,
        0.0,
        0.0,
        0.0,
        0.0,
        0.0,
        0.0,
        0.0,
        0.0,
        0.0,
        0.0,
        0.0
    ],
    "time": [
        0.02,
        0.040000000000000001,
        0.059999999999999998,
        0.080000000000000002,
        0.10000000000000001,
        0.12,
        0.14000000000000001,
        0.16,
        0.17999999999999999,
        0.20000000000000001,
        0.22,
        0.23999999999999999,
        0.26000000000000001,
        0.28000000000000003,
        0.29999999999999999,
        0.32000000000000001,
        0.34000000000000002,
        0.35999999999999999,
        0.38,
        0.40000000000000002,
        0.41999999999999998,
        0.44,
        0.46000000000000002,
        0.47999999999999998,
        0.5,
        0.52000000000000002,
        0.54000000000000004,
        0.56000000000000005,
        0.57999999999999996,
        0.59999999999999998,
        0.62,
        0.64000000000000001,
        0.66000000000000003,
        0.68000000000000005,
        0.69999999999999996,
        0.71999999999999997,
        0.73999999999999999,
        0.76000000000000001,
        0.78000000000000003,
        0.80000000000000004,
        0.81999999999999995,
        0.83999999999999997,
        0.85999999999999999,
        0.88,
        0.90000000000000002,
        0.92000000000000004,
        0.93999999999999995,
        0.95999999999999996,
        0.97999999999999998,
        1.0,
        1.02,
        1.04,
        1.0600000000000001,
        1.0800000000000001,
        1.1000000000000001,
        1.1200000000000001,
        1.1399999999999999,
        1.1599999999999999,
        1.1799999999999999,
        1.2,
        1.22,
        1.24,
        1.26,
        1.28,
        1.3,
        1.3200000000000001,
        1.3400000000000001,
        1.3600000000000001,
        1.3799999999999999,
        1.3999999999999999,
        1.4199999999999999,
        1.4399999999999999,
        1.46,
        1.48,
        1.5,
        1.52,
        1.54,
        1.5600000000000001,
        1.5800000000000001,
        1.6000000000000001,
        1.6200000000000001,
        1.6399999999999999,
        1.6599999999999999,
        1.6799999999999999,
        1.7,
        1.72,
        1.74,
        1.76,
        1.78,
        1.8,
        1.8200000000000001,
        1.8400000000000001,
        1.8600000000000001,
        1.8799999999999999,
        1.8999999999999999,
        1.9199999999999999,
        1.9399999999999999,
        1.96,
        1.98,
        2.0,
        2.02,
        2.04,
        2.0600000000000001,
        2.0800000000000001,
        2.1000000000000001,
        2.1200000000000001,
        2.1400000000000001,
        2.1600000000000001,
        2.1800000000000002,
        2.2000000000000002,
        2.2200000000000002,
        2.2400000000000002,
        2.2599999999999998,
        2.2799999999999998,
        2.2999999999999998,
        2.3199999999999998,
        2.3399999999999999,
        2.3599999999999999,
        2.3799999999999999,
        2.3999999999999999,
        2.4199999999999999,
        2.4399999999999999,
        2.46,
        2.48,
        2.5,
        2.52,
        2.54,
        2.5600000000000001,
        2.5800000000000001,
        2.6000000000000001,
        2.6200000000000001,
        2.6400000000000001,
        2.6600000000000001,
        2.6800000000000002,
        2.7000000000000002,
        2.7200000000000002,
        2.7400000000000002,
        2.7599999999999998,
        2.7799999999999998,
        2.7999999999999998,
        2.8199999999999998,
        2.8399999999999999,
        2.8599999999999999,
        2.8799999999999999,
        2.8999999999999999,
        2.9199999999999999,
        2.9399999999999999,
        2.96,
        2.98,
        3.0,
        3.02,
        3.04,
        3.0600000000000001,
        3.0800000000000001,
        3.1000000000000001,
        3.1200000000000001,
        3.1400000000000001,
        3.1600000000000001,
        3.1800000000000002,
        3.2000000000000002,
        3.2200000000000002,
        3.2400000000000002,
        3.2599999999999998,
        3.2799999999999998,
        3.2999999999999998,
        3.3199999999999998,
        3.3399999999999999,
        3.3599999999999999,
        3.3799999999999999,
        3.3999999999999999,
        3.4199999999999999,
        3.4399999999999999,
        3.46,
        3.48,
        3.5,
        3.52,
        3.54,
        3.5600000000000001,
        3.5800000000000001,
        3.6000000000000001,
        3.6200000000000001,
        3.6400000000000001,
        3.6600000000000001,
        3.6800000000000002,
        3.7000000000000002,
        3.7200000000000002,
        3.7400000000000002,
        3.7599999999999998,
        3.7799999999999998,
        3.7999999999999998,
        3.8199999999999998,
        3.8399999999999999,
        3.8599999999999999,
        3.8799999999999999,
        3.8999999999999999,
        3.9199999999999999,
        3.9399999999999999,
        3.96,
        3.98,
        4.0,
        4.0199999999999996,
        4.04,
        4.0599999999999996,
        4.0800000000000001,
        4.0999999999999996,
        4.1200000000000001,
        4.1399999999999997,
        4.1600000000000001,
        4.1799999999999997,
        4.2000000000000002,
        4.2199999999999998,
        4.2400000000000002,
        4.2599999999999998,
        4.2800000000000002,
        4.2999999999999998,
        4.3200000000000003,
        4.3399999999999999,
        4.3600000000000003,
        4.3799999999999999,
        4.4000000000000004,
        4.4199999999999999,
        4.4400000000000004,
        4.46,
        4.4800000000000004,
        4.5,
        4.5199999999999996,
        4.54,
        4.5599999999999996,
        4.5800000000000001,
        4.5999999999999996,
        4.6200000000000001,
        4.6399999999999997,
        4.6600000000000001,
        4.6799999999999997,
        4.7000000000000002,
        4.7199999999999998,
        4.7400000000000002,
        4.7599999999999998,
        4.7800000000000002,
        4.7999999999999998,
        4.8200000000000003,
        4.8399999999999999,
        4.8600000000000003,
        4.8799999999999999,
        4.9000000000000004,
        4.9199999999999999,
        4.9400000000000004,
        4.96,
        4.9800000000000004,
        5.0,
        5.0199999999999996,
        5.04,
        5.0599999999999996,
        5.0800000000000001,
        5.0999999999999996,
        5.1200000000000001,
        5.1399999999999997,
        5.1600000000000001,
        5.1799999999999997,
        5.2000000000000002,
        5.2199999999999998,
        5.2400000000000002,
        5.2599999999999998,
        5.2800000000000002,
        5.2999999999999998,
        5.3200000000000003,
        5.3399999999999999,
        5.3600000000000003,
        5.3799999999999999,
        5.4000000000000004,
        5.4199999999999999,
        5.4400000000000004,
        5.46,
        5.4800000000000004,
        5.5,
        5.5199999999999996,
        5.54,
        5.5599999999999996,
        5.5800000000000001,
        5.5999999999999996,
        5.6200000000000001,
        5.6399999999999997,
        5.6600000000000001,
        5.6799999999999997,
        5.7000000000000002,
        5.7199999999999998,
        5.7400000000000002,
        5.7599999999999998,
        5.7800000000000002,
        5.7999999999999998,
        5.8200000000000003,
        5.8399999999999999,
        5.8600000000000003,
        5.8799999999999999,
        5.9000000000000004,
        5.9199999999999999,
        5.9400000000000004,
        5.96,
        5.9800000000000004,
        6.0,
        6.0199999999999996,
        6.04,
        6.0599999999999996,
        6.0800000000000001,
        6.0999999999999996,
        6.1200000000000001,
        6.1399999999999997,
        6.1600000000000001,
        6.1799999999999997,
        6.2000000000000002,
        6.2199999999999998,
        6.2400000000000002,
        6.2599999999999998,
        6.2800000000000002,
        6.2999999999999998,
        6.3200000000000003,
        6.3399999999999999,
        6.3600000000000003,
        6.3799999999999999,
        6.4000000000000004,
        6.4199999999999999,
        6.4400000000000004,
        6.46,
        6.4800000000000004,
        6.5,
        6.5199999999999996,
        6.54,
        6.5599999999999996,
        6.5800000000000001,
        6.5999999999999996,
        6.6200000000000001,
        6.6399999999999997,
        6.6600000000000001,
        6.6799999999999997,
        6.7000000000000002,
        6.7199999999999998,
        6.7400000000000002,
        6.7599999999999998,
        6.7800000000000002,
        6.7999999999999998,
        6.8200000000000003,
        6.8399999999999999,
        6.8600000000000003,
        6.8799999999999999,
        6.9000000000000004,
        6.9199999999999999,
        6.9400000000000004,
        6.96,
        6.9800000000000004,
        7.0,
        7.0199999999999996,
        7.04,
        7.0599999999999996,
        7.0800000000000001,
        7.0999999999999996,
        7.1200000000000001,
        7.1399999999999997,
        7.1600000000000001,
        7.1799999999999997,
        7.2000000000000002,
        7.2199999999999998,
        7.2400000000000002,
        7.2599999999999998,
        7.2800000000000002,
        7.2999999999999998,
        7.3200000000000003,
        7.3399999999999999,
        7.3600000000000003,
        7.3799999999999999,
        7.4000000000000004,
        7.4199999999999999,
        7.4400000000000004,
        7.46,
        7.4800000000000004,
        7.5,
        7.5199999999999996,
        7.54,
        7.5599999999999996,
        7.5800000000000001,
        7.5999999999999996,
        7.6200000000000001,
        7.6399999999999997,
        7.6600000000000001,
        7.6799999999999997,
        7.7000000000000002,
        7.7199999999999998,
        7.7400000000000002,
        7.7599999999999998,
        7.7800000000000002,
        7.7999999999999998,
        7.8200000000000003,
        7.8399999999999999,
        7.8600000000000003,
        7.8799999999999999,
        7.9000000000000004,
        7.9199999999999999,
        7.9400000000000004,
        7.96,
        7.9800000000000004,
        8.0,
        8.0199999999999996,
        8.0399999999999991,
        8.0600000000000005,
        8.0800000000000001,
        8.0999999999999996,
        8.1199999999999992,
        8.1400000000000006,
        8.1600000000000001,
        8.1799999999999997,
        8.1999999999999993,
        8.2200000000000006,
        8.2400000000000002,
        8.2599999999999998,
        8.2799999999999994,
        8.3000000000000007,
        8.3200000000000003,
        8.3399999999999999,
        8.3599999999999994,
        8.3800000000000008,
        8.4000000000000004,
        8.4199999999999999,
        8.4399999999999995,
        8.4600000000000009,
        8.4800000000000004,
        8.5,
        8.5199999999999996,
        8.5399999999999991,
        8.5600000000000005,
        8.5800000000000001,
        8.5999999999999996,
        8.6199999999999992,
        8.6400000000000006,
        8.6600000000000001,
        8.6799999999999997,
        8.6999999999999993,
        8.7200000000000006,
        8.7400000000000002,
        8.7599999999999998,
        8.7799999999999994,
        8.8000000000000007,
        8.8200000000000003,
        8.8399999999999999,
        8.8599999999999994,
        8.8800000000000008,
        8.9000000000000004,
        8.9199999999999999,
        8.9399999999999995,
        8.9600000000000009,
        8.9800000000000004,
        9.0,
        9.0199999999999996,
        9.0399999999999991,
        9.0600000000000005,
        9.0800000000000001,
        9.0999999999999996,
        9.1199999999999992,
        9.1400000000000006,
        9.1600000000000001,
        9.1799999999999997,
        9.1999999999999993,
        9.2200000000000006,
        9.2400000000000002,
        9.2599999999999998,
        9.2799999999999994,
        9.3000000000000007,
        9.3200000000000003,
        9.3399999999999999,
        9.3599999999999994,
        9.3800000000000008,
        9.4000000000000004,
        9.4199999999999999,
        9.4399999999999995,
        9.4600000000000009,
        9.4800000000000004,
        9.5,
        9.5199999999999996,
        9.5399999999999991,
        9.5600000000000005,
        9.5800000000000001,
        9.5999999999999996,
        9.6199999999999992,
        9.6400000000000006,
        9.6600000000000001,
        9.6799999999999997,
        9.6999999999999993,
        9.7200000000000006,
        9.7400000000000002,
        9.7599999999999998,
        9.7799999999999994,
        9.8000000000000007,
        9.8200000000000003,
        9.8399999999999999,
        9.8599999999999994,
        9.8800000000000008,
        9.9000000000000004,
        9.9199999999999999,
        9.9399999999999995,
        9.9600000000000009,
        9.9800000000000004,
        10.0,
        10.02,
        10.039999999999999,
        10.06,
        10.08,
        10.1,
        10.119999999999999,
        10.140000000000001,
        10.16,
        10.18,
        10.199999999999999,
        10.220000000000001,
        10.24,
        10.26,
        10.279999999999999,
        10.300000000000001,
        10.32,
        10.34,
        10.359999999999999,
        10.380000000000001,
        10.4,
        10.42,
        10.44,
        10.460000000000001,
        10.48,
        10.5,
        10.52,
        10.539999999999999,
        10.56,
        10.58,
        10.6,
        10.619999999999999,
        10.640000000000001,
        10.66,
        10.68,
        10.699999999999999,
        10.720000000000001,
        10.74,
        10.76,
        10.779999999999999,
        10.800000000000001,
        10.82,
        10.84,
        10.859999999999999,
        10.880000000000001,
        10.9,
        10.92,
        10.94,
        10.960000000000001,
        10.98,
        11.0,
        11.02,
        11.039999999999999,
        11.06,
        11.08,
        11.1,
        11.119999999999999,
        11.140000000000001,
        11.16,
        11.18,
        11.199999999999999,
        11.220000000000001,
        11.24,
        11.26,
        11.279999999999999,
        11.300000000000001,
        11.32,
        11.34,
        11.359999999999999,
        11.380000000000001,
        11.4,
        11.42,
        11.44,
        11.460000000000001,
        11.48,
        11.5,
        11.52,
        11.539999999999999,
        11.56,
        11.58,
        11.6,
        11.619999999999999,
        11.640000000000001,
        11.66,
        11.68,
        11.699999999999999,
        11.720000000000001,
        11.74,
        11.76,
        11.779999999999999,
        11.800000000000001,
        11.82,
        11.84,
        11.859999999999999,
        11.880000000000001,
        11.9,
        11.92,
        11.94,
        11.960000000000001,
        11.98,
        12.0,
        12.02,
        12.039999999999999,
        12.06,
        12.08,
        12.1,
        12.119999999999999,
        12.140000000000001,
        12.16,
        12.18,
        12.199999999999999,
        12.220000000000001,
        12.24,
        12.26,
        12.279999999999999,
        12.300000000000001,
        12.32,
        12.34,
        12.359999999999999,
        12.380000000000001,
        12.4,
        12.42,
        12.44,
        12.460000000000001,
        12.48,
        12.5,
        12.52,
        12.539999999999999,
        12.56,
        12.58,
        12.6,
        12.619999999999999,
        12.640000000000001,
        12.66,
        12.68,
        12.699999999999999,
        12.720000000000001,
        12.74,
        12.76,
        12.779999999999999,
        12.800000000000001,
        12.82,
        12.84,
        12.859999999999999,
        12.880000000000001,
        12.9,
        12.92,
        12.94,
        12.960000000000001,
        12.98,
        13.0,
        13.02,
        13.039999999999999,
        13.06,
        13.08,
        13.1,
        13.119999999999999,
        13.140000000000001,
        13.16,
        13.18,
        13.199999999999999,
        13.220000000000001,
        13.24,
        13.26,
        13.279999999999999,
        13.300000000000001,
        13.32,
        13.34,
        13.359999999999999,
        13.380000000000001,
        13.4,
        13.42,
        13.44,
        13.460000000000001,
        13.48,
        13.5,
        13.52,
        13.539999999999999,
        13.56,
        13.58,
        13.6,
        13.619999999999999,
        13.640000000000001,
        13.66,
        13.68,
        13.699999999999999,
        13.720000000000001,
        13.74,
        13.76,
        13.779999999999999,
        13.800000000000001,
        13.82,
        13.84,
        13.859999999999999,
        13.880000000000001,
        13.9,
        13.92,
        13.94,
        13.960000000000001,
        13.98,
        14.0,
        14.02,
        14.039999999999999,
        14.06,
        14.08,
        14.1,
        14.119999999999999,
        14.140000000000001,
        14.16,
        14.18,
        14.199999999999999,
        14.220000000000001,
        14.24,
        14.26,
        14.279999999999999,
        14.300000000000001,
        14.32,
        14.34,
        14.359999999999999,
        14.380000000000001,
        14.4,
        14.42,
        14.44,
        14.460000000000001,
        14.48,
        14.5,
        14.52,
        14.539999999999999,
        14.56,
        14.58,
        14.6,
        14.619999999999999,
        14.640000000000001,
        14.66,
        14.68,
        14.699999999999999,
        14.720000000000001,
        14.74,
        14.76,
        14.779999999999999,
        14.800000000000001,
        14.82,
        14.84,
        14.859999999999999,
        14.880000000000001,
        14.9,
        14.92
    ]
}