{
    "DU": 0,
    "DV": 223,
    "F-measure": 0.8415841584158416,
    "F-measure Chroma": 0.8861386138613861,
    "FN": 0,
    "FNC": 0,
    "FNCch": 0,
    "FNI": 0,
    "FNIch": 0,
    "FP": 42,
    "GU": 42,
    "GV": 181,
    "Overall Accuracy": 0.7623318385650224,
    "Overall Chroma Accuracy": 0.8026905829596412,
    "Precision": 0.7623318385650224,
    "Precision Chroma": 0.8026905829596412,
    "Raw Chroma Accuracy": 0.988950276243094,
    "Raw Pitch Accuracy": 0.9392265193370166,
    "Recall": 0.9392265193370166,
    "Recall Chroma": 0.988950276243094,
    "TN": 0,
    "TO": 223,
    "TP": 181,
    "TPC": 170,
    "TPCch": 179,
    "TPI": 11,
    "TPIch": 2,
    "Voiced Chroma Accuracy": 0.988950276243094,
    "Voiced Pitch Accuracy": 0.9392265193370166,
    "Voicing Accuracy": 0.8116591928251121,
    "Voicing Detection": 1.0,
    "Voicing False Alarm": 1.0
}