{
    "f0": [
        0.0,
        0.0,
        0.0,
        0.0,
        0.0,
        62.05221167812914,
        61.393811570511218,
        61.876159799886892,
        62.254586789244698,
        62.560562981453032,
        62.82176120712812,
        62.874361541332028,
        63.005886369221081,
        63.112683074727165,
        63.147341904311588,
        63.150296630968064,
        63.146074051203698,
        63.201025087467094,
        63.275434671747007,
        63.397414518193663,
        63.448500613180336,
        63.531659040528346,
        63.670968105087347,
        63.866978214092086,
        64.070802220788792,
        64.132897347495202,
        64.126677148865582,
        64.176850506749602,
        64.191776437596985,
        64.206813026907369,
        64.212502571506988,
        64.174667325593873,
        64.112766718902193,
        64.063155981389187,
        63.993084455313564,
        63.94992991238896,
        63.869187628580889,
        63.756316985980419,
        63.695813150471096,
        63.747453910345428,
        63.725500357527984,
        63.620864474944348,
        63.392904806519098,
        63.264703184948658,
        62.713126601357132,
        62.460183236522951,
        62.035430867190506,
        61.50211008391112,
        61.738358484956812,
        61.608905393448566,
        61.572482652251708,
        61.533236831409283,
        61.540199722384848,
        61.614360688408837,
        61.642803588178857,
        61.670842276914065,
        61.670660761238231,
        61.737397738843448,
        61.921932245769796,
        61.904659170250639,
        62.006942890669855,
        62.123526486483364,
        62.140066848433008,
        62.089037937930875,
        59.036322615321602,
        60.655329159171302,
        60.086634859268649,
        0.0,
        0.0,
        0.0,
        0.0,
        60.142592697740611,
        59.767522850183141,
        59.893984868687866,
        60.128346566880616,
        60.348397282730318,
        60.525102262209884,
        60.5977959664569,
        60.946793277519696,
        60.90536359412819,
        60.889297588255218,
        60.863386875227889,
        60.859006047271428,
        60.894696766489858,
        60.960836515226376,
        61.046695896693805,
        60.966442599576084,
        60.104348127117945,
        60.123887991689763,
        60.161989430790825,
        59.939683086735123,
        62.039064433496051,
        75.939089068751841,
        0.0,
        0.0,
        0.0,
        61.147093212557323,
        60.892472112068958,
        60.902450217490781,
        60.853307423445806,
        72.637933554280295,
        72.682509976413726,
        72.72444282598947,
        60.758879097257193,
        60.854983561742017,
        60.979380316210509,
        61.072337701562489,
        61.212403675318463,
        61.362005420383973,
        61.584828007939784,
        61.751168444516509,
        62.062079456031157,
        61.991320576859835,
        62.106821839941318,
        62.165587460413199,
        62.179182098417691,
        62.154822784415323,
        62.084186701295486,
        62.014359590883487,
        61.961252556572305,
        61.94428583707797,
        61.951935090751292,
        62.003250471276829,
        62.003694767845182,
        62.029320005488856,
        62.042521284352439,
        61.980329925913864,
        61.800173343945708,
        61.271776622156402,
        60.825968088209294,
        59.853054292069743,
        59.015709625738964,
        57.891936448375318,
        57.189426712185721,
        56.858567268418106,
        56.864114562877745,
        56.977439997048819,
        57.111188423531658,
        57.310783232354879,
        57.305619097367874,
        57.459396341446833,
        57.617924491300421,
        57.670536367358054,
        57.639430685029609,
        57.625258316871331,
        57.586214524449431,
        57.51226875369796,
        57.51057484911091,
        57.515646746994918,
        57.486952481433903,
        57.502269636925874,
        57.750418738987889,
        57.864094924266233,
        58.027361268546088,
        57.55951358533413,
        57.670672631923892,
        57.834931640669595,
        58.829107855689735,
        58.037418020615974,
        0.0,
        60.908048425662244,
        60.748251202080219,
        60.970563402481019,
        61.095102179946792,
        61.124037558984512,
        61.176373999256704,
        61.171409221290446,
        61.171743293399459,
        61.206511323093451,
        61.219052554844509,
        61.227262236679096,
        61.143424472907057,
        61.264932128354403,
        60.658525404730291,
        59.936912724728082,
        0.0,
        0.0,
        0.0,
        0.0,
        0.0,
        0.0,
        0.0,
        0.0,
        0.0,
        0.0,
        60.062940657236894,
        59.468110318891746,
        59.253355425639434,
        59.410370645520359,
        59.507983290362652,
        59.547398867132607,
        59.640272476358305,
        59.730989335019956,
        59.864539062131342,
        0.0,
        0.0,
        0.0,
        0.0,
        0.0,
        0.0,
        0.0,
        0.0,
        61.250460903210922,
        61.211631709861322,
        61.163518557816495,
        61.116339184827147,
        61.088974400077255,
        61.048321153507622,
        61.048537838736344,
        61.084037634222014,
        61.109042682141713,
        61.226304698581451,
        61.291085117978326,
        61.35768737254984,
        61.374512913336382,
        61.380491958201588,
        61.345741262641283,
        61.309473447070935,
        61.238350359611651,
        61.149650167913158,
        61.113125900649727,
        61.025127758409127,
        60.990805580523684,
        60.92398218414661,
        60.715979496107131,
        60.369391553380538,
        0.0,
        0.0,
        0.0,
        0.0,
        0.0,
        58.721856381376703,
        58.738396960650782,
        58.893108763556448,
        59.027442964878105,
        59.236798533662764,
        59.472601490323896,
        59.529928922129805,
        59.538938306873149,
        59.477258043941006,
        59.341757524280411,
        59.209898146483354,
        58.948913744657069,
        58.955143023588199,
        58.838170818937286,
        58.794822242018775,
        58.908239235004714,
        59.141357616585601,
        59.401558497646491,
        59.4715782421559,
        59.555030661242334,
        59.620214873924084,
        59.594809642470878,
        59.407870475099521,
        59.298816305784143,
        59.040917612719412,
        58.912375892347804,
        58.876637812015041,
        58.86868265968365,
        58.911628618802538,
        58.972822053496657,
        59.047514986979422,
        59.154145944490693,
        59.377794755612818,
        59.291017065425336,
        59.050864423666312,
        59.055490784441069,
        59.009713781307049,
        59.027763333448078,
        59.058257706868261,
        59.081050915509671,
        59.131113329762464,
        59.226557856674631,
        59.300800309572971,
        59.283101682430704,
        59.409905695243069,
        59.559298424583908,
        59.723283917668866,
        60.129012058757262,
        58.521616114411529,
        0.0,
        0.0,
        0.0,
        0.0,
        0.0,
        0.0,
        0.0,
        0.0,
        0.0,
        0.0,
        0.0,
        0.0,
        0.0,
        0.0,
        0.0,
        0.0,
        0.0,
        0.0,
        0.0,
        0.0,
        0.0,
        0.0,
        0.0,
        0.0,
        0.0,
        0.0,
        0.0,
        0.0,
        0.0,
        0.0,
        0.0,
        0.0,
        0.0,
        0.0,
        0.0,
        0.0,
        0.0,
        0.0,
        0.0,
        0.0,
        0.0,
        0.0,
        0.0,
        0.0,
        0.0,
        0.0,
        0.0,
        0.0,
        0.0,
        0.0,
        0.0,
        0.0,
        0.0,
        0.0,
        0.0,
        0.0,
        0.0,
        0.0,
        0.0,
        0.0,
        0.0,
        0.0,
        0.0,
        0.0,
        0.0,
        0.0,
        0.0,
        0.0,
        0.0,
        0.0,
        0.0,
        0.0,
        0.0,
        0.0,
        0.0,
        0.0,
        0.0,
        0.0,
        0.0,
        0.0,
        0.0,
        0.0,
        0.0,
        0.0,
        0.0,
        0.0,
        0.0,
        0.0,
        0.0
    ],
    "time": [
        0.02,
        0.040000000000000001,
        0.059999999999999998,
        0.080000000000000002,
        0.10000000000000001,
        0.12,
        0.14000000000000001,
        0.16,
        0.17999999999999999,
        0.20000000000000001,
        0.22,
        0.23999999999999999,
        0.26000000000000001,
        0.28000000000000003,
        0.29999999999999999,
        0.32000000000000001,
        0.34000000000000002,
        0.35999999999999999,
        0.38,
        0.40000000000000002,
        0.41999999999999998,
        0.44,
        0.46000000000000002,
        0.47999999999999998,
        0.5,
        0.52000000000000002,
        0.54000000000000004,
        0.56000000000000005,
        0.57999999999999996,
        0.59999999999999998,
        0.62,
        0.64000000000000001,
        0.66000000000000003,
        0.68000000000000005,
        0.69999999999999996,
        0.71999999999999997,
        0.73999999999999999,
        0.76000000000000001,
        0.78000000000000003,
        0.80000000000000004,
        0.81999999999999995,
        0.83999999999999997,
        0.85999999999999999,
        0.88,
        0.90000000000000002,
        0.92000000000000004,
        0.93999999999999995,
        0.95999999999999996,
        0.97999999999999998,
        1.0,
        1.02,
        1.04,
        1.0600000000000001,
        1.0800000000000001,
        1.1000000000000001,
        1.1200000000000001,
        1.1399999999999999,
        1.1599999999999999,
        1.1799999999999999,
        1.2,
        1.22,
        1.24,
        1.26,
        1.28,
        1.3,
        1.3200000000000001,
        1.3400000000000001,
        1.3600000000000001,
        1.3799999999999999,
        1.3999999999999999,
        1.4199999999999999,
        1.4399999999999999,
        1.46,
        1.48,
        1.5,
        1.52,
        1.54,
        1.5600000000000001,
        1.5800000000000001,
        1.6000000000000001,
        1.6200000000000001,
        1.6399999999999999,
        1.6599999999999999,
        1.6799999999999999,
        1.7,
        1.72,
        1.74,
        1.76,
        1.78,
        1.8,
        1.8200000000000001,
        1.8400000000000001,
        1.8600000000000001,
        1.8799999999999999,
        1.8999999999999999,
        1.9199999999999999,
        1.9399999999999999,
        1.96,
        1.98,
        2.0,
        2.02,
        2.04,
        2.0600000000000001,
        2.0800000000000001,
        2.1000000000000001,
        2.1200000000000001,
        2.1400000000000001,
        2.1600000000000001,
        2.1800000000000002,
        2.2000000000000002,
        2.2200000000000002,
        2.2400000000000002,
        2.2599999999999998,
        2.2799999999999998,
        2.2999999999999998,
        2.3199999999999998,
        2.3399999999999999,
        2.3599999999999999,
        2.3799999999999999,
        2.3999999999999999,
        2.4199999999999999,
        2.4399999999999999,
        2.46,
        2.48,
        2.5,
        2.52,
        2.54,
        2.5600000000000001,
        2.5800000000000001,
        2.6000000000000001,
        2.6200000000000001,
        2.6400000000000001,
        2.6600000000000001,
        2.6800000000000002,
        2.7000000000000002,
        2.7200000000000002,
        2.7400000000000002,
        2.7599999999999998,
        2.7799999999999998,
        2.7999999999999998,
        2.8199999999999998,
        2.8399999999999999,
        2.8599999999999999,
        2.8799999999999999,
        2.8999999999999999,
        2.9199999999999999,
        2.9399999999999999,
        2.96,
        2.98,
        3.0,
        3.02,
        3.04,
        3.0600000000000001,
        3.0800000000000001,
        3.1000000000000001,
        3.1200000000000001,
        3.1400000000000001,
        3.1600000000000001,
        3.1800000000000002,
        3.2000000000000002,
        3.2200000000000002,
        3.2400000000000002,
        3.2599999999999998,
        3.2799999999999998,
        3.2999999999999998,
        3.3199999999999998,
        3.3399999999999999,
        3.3599999999999999,
        3.3799999999999999,
        3.3999999999999999,
        3.4199999999999999,
        3.4399999999999999,
        3.46,
        3.48,
        3.5,
        3.52,
        3.54,
        3.5600000000000001,
        3.5800000000000001,
        3.6000000000000001,
        3.6200000000000001,
        3.6400000000000001,
        3.6600000000000001,
        3.6800000000000002,
        3.7000000000000002,
        3.7200000000000002,
        3.7400000000000002,
        3.7599999999999998,
        3.7799999999999998,
        3.7999999999999998,
        3.8199999999999998,
        3.8399999999999999,
        3.8599999999999999,
        3.8799999999999999,
        3.8999999999999999,
        3.9199999999999999,
        3.9399999999999999,
        3.96,
        3.98,
        4.0,
        4.0199999999999996,
        4.04,
        4.0599999999999996,
        4.0800000000000001,
        4.0999999999999996,
        4.1200000000000001,
        4.1399999999999997,
        4.1600000000000001,
        4.1799999999999997,
        4.2000000000000002,
        4.2199999999999998,
        4.2400000000000002,
        4.2599999999999998,
        4.2800000000000002,
        4.2999999999999998,
        4.3200000000000003,
        4.3399999999999999,
        4.3600000000000003,
        4.3799999999999999,
        4.4000000000000004,
        4.4199999999999999,
        4.4400000000000004,
        4.46,
        4.4800000000000004,
        4.5,
        4.5199999999999996,
        4.54,
        4.5599999999999996,
        4.5800000000000001,
        4.5999999999999996,
        4.6200000000000001,
        4.6399999999999997,
        4.6600000000000001,
        4.6799999999999997,
        4.7000000000000002,
        4.7199999999999998,
        4.7400000000000002,
        4.7599999999999998,
        4.7800000000000002,
        4.7999999999999998,
        4.8200000000000003,
        4.8399999999999999,
        4.8600000000000003,
        4.8799999999999999,
        4.9000000000000004,
        4.9199999999999999,
        4.9400000000000004,
        4.96,
        4.9800000000000004,
        5.0,
        5.0199999999999996,
        5.04,
        5.0599999999999996,
        5.0800000000000001,
        5.0999999999999996,
        5.1200000000000001,
        5.1399999999999997,
        5.1600000000000001,
        5.1799999999999997,
        5.2000000000000002,
        5.2199999999999998,
        5.2400000000000002,
        5.2599999999999998,
        5.2800000000000002,
        5.2999999999999998,
        5.3200000000000003,
        5.3399999999999999,
        5.3600000000000003,
        5.3799999999999999,
        5.4000000000000004,
        5.4199999999999999,
        5.4400000000000004,
        5.46,
        5.4800000000000004,
        5.5,
        5.5199999999999996,
        5.54,
        5.5599999999999996,
        5.5800000000000001,
        5.5999999999999996,
        5.6200000000000001,
        5.6399999999999997,
        5.6600000000000001,
        5.6799999999999997,
        5.7000000000000002,
        5.7199999999999998,
        5.7400000000000002,
        5.7599999999999998,
        5.7800000000000002,
        5.7999999999999998,
        5.8200000000000003,
        5.8399999999999999,
        5.8600000000000003,
        5.8799999999999999,
        5.9000000000000004,
        5.9199999999999999,
        5.9400000000000004,
        5.96,
        5.9800000000000004,
        6.0,
        6.0199999999999996,
        6.04,
        6.0599999999999996,
        6.0800000000000001,
        6.0999999999999996,
        6.1200000000000001,
        6.1399999999999997,
        6.1600000000000001,
        6.1799999999999997,
        6.2000000000000002,
        6.2199999999999998,
        6.2400000000000002,
        6.2599999999999998,
        6.2800000000000002,
        6.2999999999999998,
        6.3200000000000003,
        6.3399999999999999,
        6.3600000000000003,
        6.3799999999999999,
        6.4000000000000004,
        6.4199999999999999,
        6.4400000000000004,
        6.46,
        6.4800000000000004,
        6.5,
        6.5199999999999996,
        6.54,
        6.5599999999999996,
        6.5800000000000001,
        6.5999999999999996,
        6.6200000000000001,
        6.6399999999999997,
        6.6600000000000001,
        6.6799999999999997,
        6.7000000000000002,
        6.7199999999999998,
        6.7400000000000002,
        6.7599999999999998,
        6.7800000000000002,
        6.7999999999999998,
        6.8200000000000003,
        6.8399999999999999,
        6.8600000000000003,
        6.8799999999999999,
        6.9000000000000004,
        6.9199999999999999,
        6.9400000000000004,
        6.96,
        6.9800000000000004,
        7.0,
        7.0199999999999996,
        7.04,
        7.0599999999999996,
        7.0800000000000001,
        7.0999999999999996,
        7.1200000000000001,
        7.1399999999999997,
        7.1600000000000001,
        7.1799999999999997,
        7.2000000000000002,
        7.2199999999999998,
        7.2400000000000002,
        7.2599999999999998,
        7.2800000000000002,
        7.2999999999999998,
        7.3200000000000003,
        7.3399999999999999,
        7.3600000000000003,
        7.3799999999999999
    ]
}