{
    "DU": 201,
    "DV": 292,
    "F-measure": 0.9507853403141361,
    "F-measure Chroma": 0.9675392670157068,
    "FN": 12,
    "FNC": 0,
    "FNCch": 0,
    "FNI": 12,
    "FNIch": 12,
    "FP": 19,
    "GU": 208,
    "GV": 285,
    "Overall Accuracy": 0.920892494929006,
    "Overall Chroma Accuracy": 0.9371196754563894,
    "Precision": 0.9438669438669439,
    "Precision Chroma": 0.9604989604989606,
    "Raw Chroma Accuracy": 0.9578947368421052,
    "Raw Pitch Accuracy": 0.9298245614035088,
    "Recall": 0.9578059071729957,
    "Recall Chroma": 0.9746835443037974,
    "TN": 189,
    "TO": 493,
    "TP": 273,
    "TPC": 265,
    "TPCch": 273,
    "TPI": 8,
    "TPIch": 0,
    "Voiced Chroma Accuracy": 0.9578947368421052,
    "Voiced Pitch Accuracy": 0.9298245614035088,
    "Voicing Accuracy": 0.9371196754563894,
    "Voicing Detection": 0.9578947368421052,
    "Voicing False Alarm": 0.09134615384615384
}