{
    "f0": [
        0.0,
        0.0,
        0.0,
        0.0,
        0.0,
        0.0,
        0.0,
        0.0,
        0.0,
        0.0,
        0.0,
        0.0,
        0.0,
        0.0,
        0.0,
        0.0,
        0.0,
        0.0,
        0.0,
        0.0,
        0.0,
        0.0,
        0.0,
        0.0,
        0.0,
        0.0,
        0.0,
        0.0,
        0.0,
        0.0,
        0.0,
        0.0,
        0.0,
        0.0,
        0.0,
        0.0,
        0.0,
        0.0,
        0.0,
        0.0,
        0.0,
        0.0,
        0.0,
        0.0,
        0.0,
        0.0,
        0.0,
        0.0,
        0.0,
        65.70205052883594,
        65.818146139614811,
        63.245236065693334,
        64.646590290064083,
        0.0,
        46.808194623227465,
        47.016696019135452,
        46.729221854572536,
        46.534475840237036,
        46.395187070075153,
        46.233411043728509,
        46.135520873160502,
        46.210548080286031,
        46.293267654228977,
        46.241409732680467,
        46.153692585869976,
        46.042761881489724,
        45.916264540244129,
        45.843354497899185,
        45.771602570013712,
        45.714024382028441,
        45.675739473947004,
        45.723629073784544,
        45.778452632202516,
        45.877154318217698,
        45.976705057631577,
        46.105439795745731,
        46.290877277263824,
        46.345294997214168,
        46.429915472098116,
        46.546312517871016,
        46.777825080121985,
        47.47696873402738,
        47.8229735664084,
        45.900570901045199,
        45.293870737612828,
        0.0,
        0.0,
        50.220944737950575,
        50.480176705967096,
        50.513483316940693,
        50.468749644506801,
        50.332657996614799,
        50.251195095658247,
        50.217919552399493,
        50.251675605164074,
        50.318005230984937,
        50.350052498558441,
        50.39016540524316,
        50.380153847311313,
        50.424421499278026,
        50.392437961209495,
        50.349846133283968,
        50.419681016648575,
        50.485345028106792,
        50.494357177025861,
        50.57130111948328,
        50.704562789927238,
        50.783596518113406,
        50.969573546408995,
        51.067800353064698,
        50.657641553882939,
        49.761409914778213,
        50.208541902411547,
        0.0,
        0.0,
        53.726575623503223,
        53.753794914675289,
        53.813789090809664,
        53.947437336270482,
        54.003790449950984,
        54.000572208909958,
        53.939494904485336,
        53.863669785051542,
        53.822933405748842,
        53.808462177428055,
        53.77793155282238,
        53.75896350005025,
        53.730310669154932,
        53.713804923077774,
        53.662061552487252,
        53.58357249831635,
        53.488861113165456,
        53.427472928971881,
        53.884251507036041,
        54.052414222106549,
        54.102992895168114,
        53.716856222993933,
        53.522045754438125,
        0.0,
        0.0,
        0.0,
        0.0,
        0.0,
        54.096508939536328,
        51.498700663570673,
        50.900679632771116,
        50.201805507968558,
        50.280266711592418,
        50.38602597026059,
        50.536628424783373,
        50.712826135841965,
        50.962592479045625,
        51.240957891248712,
        51.452100834985124,
        51.680941366851755,
        51.819072110835378,
        51.970555757682021,
        52.066799888064338,
        52.243113177978657,
        52.392976183400023,
        52.425721927558619,
        52.449882620224614,
        52.425492040334134,
        52.42066667641501,
        52.433789619662036,
        52.465114925372077,
        52.387533675116842,
        52.414799475798418,
        52.456904066415461,
        52.455658345620463,
        52.491688687685269,
        52.618903344688704,
        52.643474135462291,
        52.658547951085566,
        52.671733880310214,
        52.613780510793504,
        52.549838740807218,
        52.404352434645702,
        0.0,
        0.0,
        35.843226657812153,
        0.0,
        0.0,
        0.0,
        0.0,
        0.0,
        0.0,
        0.0,
        0.0,
        0.0,
        0.0,
        0.0,
        0.0,
        48.675022521204255,
        48.041692024913353,
        48.082935203164944,
        48.190384756984869,
        48.253811452433453,
        48.129984174767309,
        48.103021206087028,
        48.174654659867983,
        48.264709426340048,
        48.250135483296596,
        48.133403256551873,
        48.023981044108211,
        48.037741089814645,
        48.303595978565305,
        48.325381896965077,
        48.261031859795324,
        48.295430553858957,
        48.78010186083911,
        49.225745920147759,
        49.332031250003595,
        49.288712114688714,
        49.282720023966363,
        49.21584322927437,
        49.215927983397449,
        49.297008805347232,
        49.365728915351553,
        49.48241469229238,
        49.529612072209993,
        49.566669175719014,
        49.522717096276978,
        49.607328183963013,
        49.936920287335376,
        50.115714997022209,
        49.504235563742128,
        48.984095138387971,
        47.395965629833825,
        47.430628800858386,
        48.008109006365089,
        0.0,
        0.0,
        0.0,
        0.0,
        0.0,
        0.0,
        0.0,
        0.0,
        0.0,
        0.0,
        0.0,
        0.0,
        0.0,
        0.0,
        0.0,
        0.0,
        0.0,
        0.0,
        0.0,
        0.0,
        0.0,
        0.0,
        0.0,
        0.0,
        0.0,
        0.0,
        0.0,
        0.0,
        0.0,
        0.0,
        0.0,
        46.738656603006838,
        50.553442906490581,
        47.848996852695421,
        45.402243328228195,
        45.146543307262952,
        45.067644072279862,
        45.06862119938981,
        45.00018728703408,
        44.744699787935772,
        44.933011564451931,
        44.872807731844077,
        44.961201150804705,
        44.966843151494068,
        44.710269700433315,
        44.382940411707722,
        44.900943324111573,
        45.004413454674143,
        44.956413139678368,
        45.240147180808236,
        44.835339705401978,
        44.862221744756262,
        45.5081462047538,
        44.626267813280293,
        44.138597624322131,
        43.361987515466154,
        43.822056824940013,
        44.457796015404845,
        43.499135866552521,
        44.548782989120106,
        43.622666529704006,
        45.97802145922401,
        46.164198260195015,
        47.390776798155144,
        47.686044056866521,
        48.744452453919664,
        46.005093473504644,
        44.856437785787541,
        42.162880437113287,
        43.454516377479493,
        0.0,
        0.0,
        0.0,
        0.0,
        0.0,
        0.0,
        0.0,
        0.0,
        0.0,
        0.0,
        0.0,
        0.0,
        0.0,
        0.0,
        0.0,
        0.0,
        0.0,
        0.0,
        0.0,
        0.0,
        0.0,
        0.0,
        0.0,
        0.0,
        0.0,
        0.0,
        0.0,
        0.0,
        0.0,
        0.0,
        0.0,
        0.0,
        0.0,
        0.0,
        46.202810702647234,
        45.896152216866078,
        45.688397032203596,
        46.066768553524916,
        45.69618448096098,
        46.042837603912297,
        46.353288893660022,
        46.411198164492802,
        46.383087038611698,
        46.360500890965305,
        46.539329011691351,
        46.531015041852754,
        46.601455118297494,
        46.542791459874095,
        46.429923152222479,
        46.367471524301578,
        46.378179834780013,
        46.403974026540673,
        46.423337281331172,
        46.449314885900002,
        46.523185394905965,
        46.568194673070039,
        46.543984323670436,
        46.468688248423319,
        46.317799851749186,
        46.210960165875477,
        46.236031817057629,
        46.341741697432198,
        46.39694054977506,
        46.400490232569595,
        46.458694764101125,
        46.464014956358866,
        46.455276081761568,
        46.486056489813777,
        46.511869842069451,
        46.575186233897512,
        46.65660585152969,
        46.759784043884515,
        47.397810958678647,
        47.575299446594357,
        47.244409192799381,
        47.085481769005824,
        47.685842445241747,
        0.0,
        0.0,
        0.0,
        0.0,
        0.0,
        0.0,
        0.0,
        0.0,
        0.0,
        0.0,
        44.507998594850832,
        44.359928792064409,
        44.312834181669089,
        44.230493818437864,
        44.299490827877321,
        44.239119560040052,
        44.332045047970325,
        44.658053521145121,
        44.858587816939099,
        45.098445392375815,
        45.239388153873868,
        45.308930356849444,
        45.245750067254477,
        45.209859474015623,
        45.171856647568319,
        45.091603910275268,
        45.024183078294392,
        45.139305213841695,
        45.305996547372736,
        45.279606258181019,
        45.323218901005859,
        45.052388691719159,
        44.697778957622504,
        44.464622442699991,
        44.048239757950412,
        43.933768274302594,
        43.835072010298589,
        43.736684310680658,
        43.693826080911862,
        43.849025778333981,
        43.829101321963321,
        44.124967610598439,
        44.192367685869002,
        44.317240171803114,
        44.335731165475273,
        44.267569142229931,
        44.618371870217018,
        44.910117798394559,
        44.10951544119127,
        42.728402657780066,
        37.786217461846604,
        33.290873243594589,
        32.314052167184613,
        0.0,
        0.0,
        0.0,
        0.0,
        0.0,
        0.0,
        0.0,
        48.934937123313759,
        48.749094424302058,
        48.729370930000805,
        48.753953590303148,
        48.645407866100705,
        48.695940885748513,
        48.651801646289044,
        48.63363931137426,
        48.721899878843487,
        48.730178277529646,
        48.749409623987248,
        48.739727954389132,
        48.729297336808806,
        48.713782110996199,
        48.687197742239164,
        48.657423126626526,
        48.630255471397803,
        48.569784156354764,
        48.556419182635537,
        48.481202312328946,
        48.50386847471502,
        48.469520051844754,
        48.293721148041222,
        48.298416079446149,
        48.346297252525574,
        48.371486776436377,
        48.43888218766056,
        48.414930146757875,
        48.510753812361983,
        48.628422978510841,
        48.617827625266003,
        48.68117622090157,
        48.680040454920771,
        48.771524666722151,
        48.802372463968538,
        48.759261821775155,
        48.675249720755588,
        48.579408999994797,
        48.600093899586334,
        48.769593136259836,
        48.822769860764637,
        48.778096003190363,
        48.697620697351233,
        48.672369220679556,
        48.726185708059646,
        48.844552977736306,
        48.902135844725805,
        48.75314545012619,
        0.0,
        0.0,
        0.0,
        0.0,
        0.0,
        0.0,
        0.0,
        0.0,
        0.0,
        0.0,
        0.0,
        0.0,
        0.0,
        0.0,
        0.0,
        0.0,
        0.0,
        0.0,
        0.0,
        0.0,
        0.0,
        0.0,
        0.0,
        0.0,
        0.0,
        0.0,
        0.0,
        0.0,
        0.0,
        0.0,
        0.0,
        0.0,
        0.0,
        0.0
    ],
    "time": [
        0.02,
        0.040000000000000001,
        0.059999999999999998,
        0.080000000000000002,
        0.10000000000000001,
        0.12,
        0.14000000000000001,
        0.16,
        0.17999999999999999,
        0.20000000000000001,
        0.22,
        0.23999999999999999,
        0.26000000000000001,
        0.28000000000000003,
        0.29999999999999999,
        0.32000000000000001,
        0.34000000000000002,
        0.35999999999999999,
        0.38,
        0.40000000000000002,
        0.41999999999999998,
        0.44,
        0.46000000000000002,
        0.47999999999999998,
        0.5,
        0.52000000000000002,
        0.54000000000000004,
        0.56000000000000005,
        0.57999999999999996,
        0.59999999999999998,
        0.62,
        0.64000000000000001,
        0.66000000000000003,
        0.68000000000000005,
        0.69999999999999996,
        0.71999999999999997,
        0.73999999999999999,
        0.76000000000000001,
        0.78000000000000003,
        0.80000000000000004,
        0.81999999999999995,
        0.83999999999999997,
        0.85999999999999999,
        0.88,
        0.90000000000000002,
        0.92000000000000004,
        0.93999999999999995,
        0.95999999999999996,
        0.97999999999999998,
        1.0,
        1.02,
        1.04,
        1.0600000000000001,
        1.0800000000000001,
        1.1000000000000001,
        1.1200000000000001,
        1.1399999999999999,
        1.1599999999999999,
        1.1799999999999999,
        1.2,
        1.22,
        1.24,
        1.26,
        1.28,
        1.3,
        1.3200000000000001,
        1.3400000000000001,
        1.3600000000000001,
        1.3799999999999999,
        1.3999999999999999,
        1.4199999999999999,
        1.4399999999999999,
        1.46,
        1.48,
        1.5,
        1.52,
        1.54,
        1.5600000000000001,
        1.5800000000000001,
        1.6000000000000001,
        1.6200000000000001,
        1.6399999999999999,
        1.6599999999999999,
        1.6799999999999999,
        1.7,
        1.72,
        1.74,
        1.76,
        1.78,
        1.8,
        1.8200000000000001,
        1.8400000000000001,
        1.8600000000000001,
        1.8799999999999999,
        1.8999999999999999,
        1.9199999999999999,
        1.9399999999999999,
        1.96,
        1.98,
        2.0,
        2.02,
        2.04,
        2.0600000000000001,
        2.0800000000000001,
        2.1000000000000001,
        2.1200000000000001,
        2.1400000000000001,
        2.1600000000000001,
        2.1800000000000002,
        2.2000000000000002,
        2.2200000000000002,
        2.2400000000000002,
        2.2599999999999998,
        2.2799999999999998,
        2.2999999999999998,
        2.3199999999999998,
        2.3399999999999999,
        2.3599999999999999,
        2.3799999999999999,
        2.3999999999999999,
        2.4199999999999999,
        2.4399999999999999,
        2.46,
        2.48,
        2.5,
        2.52,
        2.54,
        2.5600000000000001,
        2.5800000000000001,
        2.6000000000000001,
        2.6200000000000001,
        2.6400000000000001,
        2.6600000000000001,
        2.6800000000000002,
        2.7000000000000002,
        2.7200000000000002,
        2.7400000000000002,
        2.7599999999999998,
        2.7799999999999998,
        2.7999999999999998,
        2.8199999999999998,
        2.8399999999999999,
        2.8599999999999999,
        2.8799999999999999,
        2.8999999999999999,
        2.9199999999999999,
        2.9399999999999999,
        2.96,
        2.98,
        3.0,
        3.02,
        3.04,
        3.0600000000000001,
        3.0800000000000001,
        3.1000000000000001,
        3.1200000000000001,
        3.1400000000000001,
        3.1600000000000001,
        3.1800000000000002,
        3.2000000000000002,
        3.2200000000000002,
        3.2400000000000002,
        3.2599999999999998,
        3.2799999999999998,
        3.2999999999999998,
        3.3199999999999998,
        3.3399999999999999,
        3.3599999999999999,
        3.3799999999999999,
        3.3999999999999999,
        3.4199999999999999,
        3.4399999999999999,
        3.46,
        3.48,
        3.5,
        3.52,
        3.54,
        3.5600000000000001,
        3.5800000000000001,
        3.6000000000000001,
        3.6200000000000001,
        3.6400000000000001,
        3.6600000000000001,
        3.6800000000000002,
        3.7000000000000002,
        3.7200000000000002,
        3.7400000000000002,
        3.7599999999999998,
        3.7799999999999998,
        3.7999999999999998,
        3.8199999999999998,
        3.8399999999999999,
        3.8599999999999999,
        3.8799999999999999,
        3.8999999999999999,
        3.9199999999999999,
        3.9399999999999999,
        3.96,
        3.98,
        4.0,
        4.0199999999999996,
        4.04,
        4.0599999999999996,
        4.0800000000000001,
        4.0999999999999996,
        4.1200000000000001,
        4.1399999999999997,
        4.1600000000000001,
        4.1799999999999997,
        4.2000000000000002,
        4.2199999999999998,
        4.2400000000000002,
        4.2599999999999998,
        4.2800000000000002,
        4.2999999999999998,
        4.3200000000000003,
        4.3399999999999999,
        4.3600000000000003,
        4.3799999999999999,
        4.4000000000000004,
        4.4199999999999999,
        4.4400000000000004,
        4.46,
        4.4800000000000004,
        4.5,
        4.5199999999999996,
        4.54,
        4.5599999999999996,
        4.5800000000000001,
        4.5999999999999996,
        4.6200000000000001,
        4.6399999999999997,
        4.6600000000000001,
        4.6799999999999997,
        4.7000000000000002,
        4.7199999999999998,
        4.7400000000000002,
        4.7599999999999998,
        4.7800000000000002,
        4.7999999999999998,
        4.8200000000000003,
        4.8399999999999999,
        4.8600000000000003,
        4.8799999999999999,
        4.9000000000000004,
        4.9199999999999999,
        4.9400000000000004,
        4.96,
        4.9800000000000004,
        5.0,
        5.0199999999999996,
        5.04,
        5.0599999999999996,
        5.0800000000000001,
        5.0999999999999996,
        5.1200000000000001,
        5.1399999999999997,
        5.1600000000000001,
        5.1799999999999997,
        5.2000000000000002,
        5.2199999999999998,
        5.2400000000000002,
        5.2599999999999998,
        5.2800000000000002,
        5.2999999999999998,
        5.3200000000000003,
        5.3399999999999999,
        5.3600000000000003,
        5.3799999999999999,
        5.4000000000000004,
        5.4199999999999999,
        5.4400000000000004,
        5.46,
        5.4800000000000004,
        5.5,
        5.5199999999999996,
        5.54,
        5.5599999999999996,
        5.5800000000000001,
        5.5999999999999996,
        5.6200000000000001,
        5.6399999999999997,
        5.6600000000000001,
        5.6799999999999997,
        5.7000000000000002,
        5.7199999999999998,
        5.7400000000000002,
        5.7599999999999998,
        5.7800000000000002,
        5.7999999999999998,
        5.8200000000000003,
        5.8399999999999999,
        5.8600000000000003,
        5.8799999999999999,
        5.9000000000000004,
        5.9199999999999999,
        5.9400000000000004,
        5.96,
        5.9800000000000004,
        6.0,
        6.0199999999999996,
        6.04,
        6.0599999999999996,
        6.0800000000000001,
        6.0999999999999996,
        6.1200000000000001,
        6.1399999999999997,
        6.1600000000000001,
        6.1799999999999997,
        6.2000000000000002,
        6.2199999999999998,
        6.2400000000000002,
        6.2599999999999998,
        6.2800000000000002,
        6.2999999999999998,
        6.3200000000000003,
        6.3399999999999999,
        6.3600000000000003,
        6.3799999999999999,
        6.4000000000000004,
        6.4199999999999999,
        6.4400000000000004,
        6.46,
        6.4800000000000004,
        6.5,
        6.5199999999999996,
        6.54,
        6.5599999999999996,
        6.5800000000000001,
        6.5999999999999996,
        6.6200000000000001,
        6.6399999999999997,
        6.6600000000000001,
        6.6799999999999997,
        6.7000000000000002,
        6.7199999999999998,
        6.7400000000000002,
        6.7599999999999998,
        6.7800000000000002,
        6.7999999999999998,
        6.8200000000000003,
        6.8399999999999999,
        6.8600000000000003,
        6.8799999999999999,
        6.9000000000000004,
        6.9199999999999999,
        6.9400000000000004,
        6.96,
        6.9800000000000004,
        7.0,
        7.0199999999999996,
        7.04,
        7.0599999999999996,
        7.0800000000000001,
        7.0999999999999996,
        7.1200000000000001,
        7.1399999999999997,
        7.1600000000000001,
        7.1799999999999997,
        7.2000000000000002,
        7.2199999999999998,
        7.2400000000000002,
        7.2599999999999998,
        7.2800000000000002,
        7.2999999999999998,
        7.3200000000000003,
        7.3399999999999999,
        7.3600000000000003,
        7.3799999999999999,
        7.4000000000000004,
        7.4199999999999999,
        7.4400000000000004,
        7.46,
        7.4800000000000004,
        7.5,
        7.5199999999999996,
        7.54,
        7.5599999999999996,
        7.5800000000000001,
        7.5999999999999996,
        7.6200000000000001,
        7.6399999999999997,
        7.6600000000000001,
        7.6799999999999997,
        7.7000000000000002,
        7.7199999999999998,
        7.7400000000000002,
        7.7599999999999998,
        7.7800000000000002,
        7.7999999999999998,
        7.8200000000000003,
        7.8399999999999999,
        7.8600000000000003,
        7.8799999999999999,
        7.9000000000000004,
        7.9199999999999999,
        7.9400000000000004,
        7.96,
        7.9800000000000004,
        8.0,
        8.0199999999999996,
        8.0399999999999991,
        8.0600000000000005,
        8.0800000000000001,
        8.0999999999999996,
        8.1199999999999992,
        8.1400000000000006,
        8.1600000000000001,
        8.1799999999999997,
        8.1999999999999993,
        8.2200000000000006,
        8.2400000000000002,
        8.2599999999999998,
        8.2799999999999994,
        8.3000000000000007,
        8.3200000000000003,
        8.3399999999999999,
        8.3599999999999994,
        8.3800000000000008,
        8.4000000000000004,
        8.4199999999999999,
        8.4399999999999995,
        8.4600000000000009,
        8.4800000000000004,
        8.5,
        8.5199999999999996,
        8.5399999999999991,
        8.5600000000000005,
        8.5800000000000001,
        8.5999999999999996,
        8.6199999999999992,
        8.6400000000000006,
        8.6600000000000001,
        8.6799999999999997,
        8.6999999999999993,
        8.7200000000000006,
        8.7400000000000002,
        8.7599999999999998,
        8.7799999999999994,
        8.8000000000000007,
        8.8200000000000003,
        8.8399999999999999,
        8.8599999999999994,
        8.8800000000000008,
        8.9000000000000004,
        8.9199999999999999,
        8.9399999999999995,
        8.9600000000000009,
        8.9800000000000004,
        9.0,
        9.0199999999999996,
        9.0399999999999991,
        9.0600000000000005,
        9.0800000000000001,
        9.0999999999999996,
        9.1199999999999992,
        9.1400000000000006,
        9.1600000000000001,
        9.1799999999999997,
        9.1999999999999993,
        9.2200000000000006,
        9.2400000000000002,
        9.2599999999999998,
        9.2799999999999994,
        9.3000000000000007,
        9.3200000000000003,
        9.3399999999999999,
        9.3599999999999994,
        9.3800000000000008,
        9.4000000000000004,
        9.4199999999999999,
        9.4399999999999995,
        9.4600000000000009,
        9.4800000000000004,
        9.5,
        9.5199999999999996,
        9.5399999999999991,
        9.5600000000000005,
        9.5800000000000001,
        9.5999999999999996,
        9.6199999999999992,
        9.6400000000000006,
        9.6600000000000001,
        9.6799999999999997,
        9.6999999999999993,
        9.7200000000000006,
        9.7400000000000002,
        9.7599999999999998,
        9.7799999999999994,
        9.8000000000000007,
        9.8200000000000003,
        9.8399999999999999,
        9.8599999999999994,
        9.8800000000000008,
        9.9000000000000004,
        9.9199999999999999,
        9.9399999999999995,
        9.9600000000000009,
        9.9800000000000004,
        10.0,
        10.02,
        10.039999999999999,
        10.06,
        10.08,
        10.1,
        10.119999999999999,
        10.140000000000001,
        10.16,
        10.18,
        10.199999999999999,
        10.220000000000001,
        10.24,
        10.26,
        10.279999999999999,
        10.300000000000001,
        10.32,
        10.34,
        10.359999999999999,
        10.380000000000001,
        10.4
    ]
}