{
    "DU": 15,
    "DV": 454,
    "F-measure": 0.6526054590570719,
    "F-measure Chroma": 0.7344913151364765,
    "FN": 0,
    "FNC": 0,
    "FNCch": 0,
    "FNI": 0,
    "FNIch": 0,
    "FP": 132,
    "GU": 147,
    "GV": 322,
    "Overall Accuracy": 0.5607675906183369,
    "Overall Chroma Accuracy": 0.6311300639658849,
    "Precision": 0.5607675906183369,
    "Precision Chroma": 0.6311300639658849,
    "Raw Chroma Accuracy": 0.8726708074534162,
    "Raw Pitch Accuracy": 0.7701863354037267,
    "Recall": 0.7804154302670623,
    "Recall Chroma": 0.8783382789317508,
    "TN": 15,
    "TO": 469,
    "TP": 322,
    "TPC": 248,
    "TPCch": 281,
    "TPI": 74,
    "TPIch": 41,
    "Voiced Chroma Accuracy": 0.8726708074534162,
    "Voiced Pitch Accuracy": 0.7701863354037267,
    "Voicing Accuracy": 0.7185501066098081,
    "Voicing Detection": 1.0,
    "Voicing False Alarm": 0.8979591836734694
}