{
    "DU": 328,
    "DV": 178,
    "F-measure": 0.5073170731707316,
    "F-measure Chroma": 0.5073170731707316,
    "FN": 120,
    "FNC": 0,
    "FNCch": 23,
    "FNI": 120,
    "FNIch": 97,
    "FP": 72,
    "GU": 280,
    "GV": 226,
    "Overall Accuracy": 0.41106719367588934,
    "Overall Chroma Accuracy": 0.41106719367588934,
    "Precision": 0.538860103626943,
    "Precision Chroma": 0.538860103626943,
    "Raw Chroma Accuracy": 0.10176991150442478,
    "Raw Pitch Accuracy": 0.0,
    "Recall": 0.4792626728110599,
    "Recall Chroma": 0.4792626728110599,
    "TN": 208,
    "TO": 506,
    "TP": 106,
    "TPC": 0,
    "TPCch": 0,
    "TPI": 106,
    "TPIch": 106,
    "Voiced Chroma Accuracy": 0.0,
    "Voiced Pitch Accuracy": 0.0,
    "Voicing Accuracy": 0.6205533596837944,
    "Voicing Detection": 0.4690265486725664,
    "Voicing False Alarm": 0.2571428571428571
}