{
    "f0": [
        0.0,
        0.0,
        0.0,
        0.0,
        0.0,
        66.463118597884929,
        64.692702140305599,
        0.0,
        0.0,
        43.573636165207638,
        43.370369564578162,
        43.371429009365464,
        43.280231055595635,
        43.350748870883429,
        43.285675349860092,
        43.333862570030469,
        43.406690509578709,
        43.435130070419532,
        43.487520658102447,
        43.084165281356242,
        43.299327737307252,
        43.573233175940047,
        43.378112028647728,
        43.387096448622543,
        43.427386872508606,
        43.434082441908451,
        43.476850980274051,
        43.421944728786926,
        43.461957452120011,
        43.538986368694111,
        43.479338118529142,
        43.42404914907253,
        43.326146574493791,
        42.984475174531454,
        42.797699458651898,
        42.58302439098339,
        42.296175884725827,
        41.762695929640969,
        43.721168554566319,
        44.407917130600794,
        44.093823094338447,
        43.350894114173236,
        43.277509483239712,
        43.261281904562999,
        43.311584832103975,
        43.273200958890875,
        43.257368966740444,
        43.076297064617322,
        42.97452476332677,
        42.87265446407261,
        43.008092429207643,
        43.221604617306319,
        43.135443442738904,
        43.163509253816436,
        44.662941923213026,
        44.89191633849898,
        44.740991261080268,
        44.447355931695945,
        43.940159772076534,
        43.917139697042487,
        43.933699312517973,
        44.274353301433123,
        44.452185110834527,
        44.661557093666104,
        45.029567192943773,
        45.293793988432355,
        45.432798648768909,
        45.550663012683586,
        45.536275704708331,
        45.466740396899141,
        45.396892832412732,
        45.327117072354703,
        45.31414767589095,
        45.309763019777805,
        45.309994136159816,
        45.15577778012107,
        45.024403736858247,
        44.912520752649421,
        44.999393585307494,
        45.097909240785285,
        45.209088388793305,
        45.518166368016928,
        46.157517275660979,
        47.269258235256196,
        48.011390754787456,
        49.086025448854116,
        49.329411315578433,
        49.250205422537007,
        49.021602504337672,
        48.842616090180741,
        48.558499838750386,
        48.245612721325358,
        48.175310382389753,
        48.163721856155817,
        48.176489834332976,
        48.140369358467666,
        48.054709257963765,
        48.017948287519864,
        48.000754128301736,
        47.985980554184394,
        47.984026120143227,
        48.077881996256814,
        48.11386000089427,
        48.139882581355707,
        48.179943621761097,
        48.210967063292927,
        48.249928594715101,
        48.354868033658278,
        48.375850513783647,
        48.208694627656996,
        47.872421995817049,
        47.84184103866572,
        47.752120551946973,
        47.972157153549304,
        47.763957078566193,
        0.0,
        0.0,
        51.127229926578721,
        48.297513021701981,
        48.246401063995535,
        48.303185165335059,
        48.391756303108039,
        48.378387534583446,
        48.291261092576505,
        48.298950060746677,
        48.247557678561989,
        48.240666428468984,
        48.237513494530667,
        48.231889391267195,
        48.289855171038553,
        48.390838304586282,
        48.395412158436606,
        48.379156129815911,
        48.291203442017448,
        48.249502547767456,
        48.180047485379831,
        48.201620187246036,
        48.224764592871409,
        48.200350609636814,
        48.191053889436702,
        48.243976032368295,
        48.149625233249253,
        47.991672918888987,
        47.674855779175608,
        47.016735521329053,
        46.022773364675359,
        44.79479655602043,
        44.607722320053604,
        45.017368624999364,
        45.16115574618825,
        45.311624076061484,
        45.40953773121128,
        45.352799758095287,
        45.429837857426733,
        45.357435926609966,
        45.250882372855131,
        45.192464467244626,
        45.114819750209335,
        45.121585176649148,
        45.175608479018933,
        45.19712945098788,
        45.129953539949639,
        45.092671734564462,
        45.136051917188055,
        45.170861486611358,
        45.191013328779761,
        45.253520153003038,
        45.333770726298013,
        45.406015825504518,
        45.360855978004423,
        45.470073522294982,
        45.631899146894199,
        45.532627026881485,
        45.357866360578235,
        45.036521965102047,
        44.695887406038132,
        44.097009958249913,
        46.352148319695011,
        45.593590763684759,
        45.72929752932216,
        0.0,
        0.0,
        58.083096263410724,
        55.607792562488321,
        42.986580937906083,
        42.913887718478108,
        42.8417776208438,
        42.858235962760702,
        42.84747987566643,
        42.923758052732239,
        42.989129965655444,
        43.025024674478466,
        43.097359629885709,
        43.137061569549871,
        43.218008746578029,
        43.247873057100293,
        43.274076660262011,
        43.267971738117339,
        43.259959533545015,
        43.22867696249061,
        43.226142912643844,
        43.287463671814642,
        43.356404841857191,
        43.455545563165117,
        43.477818520033715,
        43.556348590223827,
        43.525495524563887,
        43.544671229854167,
        43.560725591878118,
        43.582182182172112,
        43.671802115189557,
        43.75434250064562,
        43.766787084338361,
        43.694749325732751,
        43.673540629734909,
        43.592599717920386,
        43.508596887087165,
        43.473773397494789,
        43.539853866027002,
        43.631295012281349,
        43.756253354605022,
        43.751254484207323,
        43.624484109299672,
        43.581123940584234,
        43.557767230120277,
        43.517180377517619,
        43.434221819263776,
        43.40094565146606,
        43.474642793590789,
        43.516765784138855,
        43.538843893598496,
        43.544237607300275,
        43.604130333185076,
        43.637612183296213,
        43.682364072406948,
        43.692309748117147,
        43.66777861377011,
        43.58490444415235,
        43.504952903543511,
        43.306798832133609,
        42.77388630862481,
        42.508790637770289,
        42.527586628108971,
        41.775057289035637,
        42.399112767705105,
        0.0,
        0.0,
        43.617627568059923,
        43.4334608293616,
        43.488040890808591,
        43.46923783838956,
        43.422231608378837,
        43.424514752194632,
        43.411708430243635,
        43.438796701642062,
        43.442547967860236,
        43.454566108808208,
        43.434989494449979,
        43.36247987542594,
        43.300696064774009,
        43.321881872009655,
        43.362175049863609,
        43.364807929048197,
        43.380349670579172,
        43.43586084034137,
        43.526112641767725,
        43.62781323073493,
        43.678234137858837,
        43.663685491370906,
        43.656796498241668,
        43.656901608628701,
        43.46288643712365,
        43.281689709019048,
        43.070457509132254,
        42.916134689959193,
        42.73680829631958,
        42.714385561474472,
        42.996528488088543,
        44.351493925727837,
        45.345413060691257,
        45.613501346386627,
        45.695876521448142,
        45.60937161227919,
        45.375894889183456,
        45.192705559556842,
        45.048386255545594,
        44.965279144870308,
        44.961221498998086,
        44.978651901587369,
        44.949341815228351,
        44.869357597311378,
        44.879650311509309,
        44.92009191113393,
        44.898354013507848,
        44.932680087602726,
        44.984216071070804,
        45.077625949714673,
        45.12732061111447,
        45.133172217759451,
        45.163945205307414,
        45.151280277748185,
        45.16134254531805,
        44.994157358374949,
        44.70443586373851,
        43.616068063028322,
        42.931317048069459,
        41.777150467667447,
        40.693233334382029,
        39.899557853698141,
        38.86627252892859,
        0.0,
        0.0,
        0.0,
        0.0,
        0.0,
        38.872473138910877,
        38.788341600288085,
        38.788023679646408,
        38.873448026457403,
        39.043979630847268,
        39.368762991912305,
        39.407876633894332,
        39.576673924799174,
        39.768010279660203,
        40.008235163117547,
        40.144801675985875,
        40.327422602183283,
        40.456292062028957,
        40.628809183833141,
        40.574999174586026,
        40.469990175404561,
        40.37502978227397,
        40.338777618484833,
        40.367912110786726,
        40.44120200337953,
        0.0,
        0.0,
        0.0,
        0.0,
        0.0,
        0.0,
        0.0,
        0.0,
        0.0,
        0.0,
        0.0,
        0.0,
        0.0,
        0.0,
        0.0,
        0.0,
        0.0,
        0.0,
        0.0,
        0.0,
        0.0,
        0.0,
        0.0,
        0.0,
        0.0,
        0.0,
        0.0,
        0.0,
        0.0,
        0.0,
        0.0,
        0.0,
        0.0,
        0.0,
        0.0,
        0.0,
        0.0,
        0.0
    ],
    "time": [
        0.02,
        0.040000000000000001,
        0.059999999999999998,
        0.080000000000000002,
        0.10000000000000001,
        0.12,
        0.14000000000000001,
        0.16,
        0.17999999999999999,
        0.20000000000000001,
        0.22,
        0.23999999999999999,
        0.26000000000000001,
        0.28000000000000003,
        0.29999999999999999,
        0.32000000000000001,
        0.34000000000000002,
        0.35999999999999999,
        0.38,
        0.40000000000000002,
        0.41999999999999998,
        0.44,
        0.46000000000000002,
        0.47999999999999998,
        0.5,
        0.52000000000000002,
        0.54000000000000004,
        0.56000000000000005,
        0.57999999999999996,
        0.59999999999999998,
        0.62,
        0.64000000000000001,
        0.66000000000000003,
        0.68000000000000005,
        0.69999999999999996,
        0.71999999999999997,
        0.73999999999999999,
        0.76000000000000001,
        0.78000000000000003,
        0.80000000000000004,
        0.81999999999999995,
        0.83999999999999997,
        0.85999999999999999,
        0.88,
        0.90000000000000002,
        0.92000000000000004,
        0.93999999999999995,
        0.95999999999999996,
        0.97999999999999998,
        1.0,
        1.02,
        1.04,
        1.0600000000000001,
        1.0800000000000001,
        1.1000000000000001,
        1.1200000000000001,
        1.1399999999999999,
        1.1599999999999999,
        1.1799999999999999,
        1.2,
        1.22,
        1.24,
        1.26,
        1.28,
        1.3,
        1.3200000000000001,
        1.3400000000000001,
        1.3600000000000001,
        1.3799999999999999,
        1.3999999999999999,
        1.4199999999999999,
        1.4399999999999999,
        1.46,
        1.48,
        1.5,
        1.52,
        1.54,
        1.5600000000000001,
        1.5800000000000001,
        1.6000000000000001,
        1.6200000000000001,
        1.6399999999999999,
        1.6599999999999999,
        1.6799999999999999,
        1.7,
        1.72,
        1.74,
        1.76,
        1.78,
        1.8,
        1.8200000000000001,
        1.8400000000000001,
        1.8600000000000001,
        1.8799999999999999,
        1.8999999999999999,
        1.9199999999999999,
        1.9399999999999999,
        1.96,
        1.98,
        2.0,
        2.02,
        2.04,
        2.0600000000000001,
        2.0800000000000001,
        2.1000000000000001,
        2.1200000000000001,
        2.1400000000000001,
        2.1600000000000001,
        2.1800000000000002,
        2.2000000000000002,
        2.2200000000000002,
        2.2400000000000002,
        2.2599999999999998,
        2.2799999999999998,
        2.2999999999999998,
        2.3199999999999998,
        2.3399999999999999,
        2.3599999999999999,
        2.3799999999999999,
        2.3999999999999999,
        2.4199999999999999,
        2.4399999999999999,
        2.46,
        2.48,
        2.5,
        2.52,
        2.54,
        2.5600000000000001,
        2.5800000000000001,
        2.6000000000000001,
        2.6200000000000001,
        2.6400000000000001,
        2.6600000000000001,
        2.6800000000000002,
        2.7000000000000002,
        2.7200000000000002,
        2.7400000000000002,
        2.7599999999999998,
        2.7799999999999998,
        2.7999999999999998,
        2.8199999999999998,
        2.8399999999999999,
        2.8599999999999999,
        2.8799999999999999,
        2.8999999999999999,
        2.9199999999999999,
        2.9399999999999999,
        2.96,
        2.98,
        3.0,
        3.02,
        3.04,
        3.0600000000000001,
        3.0800000000000001,
        3.1000000000000001,
        3.1200000000000001,
        3.1400000000000001,
        3.1600000000000001,
        3.1800000000000002,
        3.2000000000000002,
        3.2200000000000002,
        3.2400000000000002,
        3.2599999999999998,
        3.2799999999999998,
        3.2999999999999998,
        3.3199999999999998,
        3.3399999999999999,
        3.3599999999999999,
        3.3799999999999999,
        3.3999999999999999,
        3.4199999999999999,
        3.4399999999999999,
        3.46,
        3.48,
        3.5,
        3.52,
        3.54,
        3.5600000000000001,
        3.5800000000000001,
        3.6000000000000001,
        3.6200000000000001,
        3.6400000000000001,
        3.6600000000000001,
        3.6800000000000002,
        3.7000000000000002,
        3.7200000000000002,
        3.7400000000000002,
        3.7599999999999998,
        3.7799999999999998,
        3.7999999999999998,
        3.8199999999999998,
        3.8399999999999999,
        3.8599999999999999,
        3.8799999999999999,
        3.8999999999999999,
        3.9199999999999999,
        3.9399999999999999,
        3.96,
        3.98,
        4.0,
        4.0199999999999996,
        4.04,
        4.0599999999999996,
        4.0800000000000001,
        4.0999999999999996,
        4.1200000000000001,
        4.1399999999999997,
        4.1600000000000001,
        4.1799999999999997,
        4.2000000000000002,
        4.2199999999999998,
        4.2400000000000002,
        4.2599999999999998,
        4.2800000000000002,
        4.2999999999999998,
        4.3200000000000003,
        4.3399999999999999,
        4.3600000000000003,
        4.3799999999999999,
        4.4000000000000004,
        4.4199999999999999,
        4.4400000000000004,
        4.46,
        4.4800000000000004,
        4.5,
        4.5199999999999996,
        4.54,
        4.5599999999999996,
        4.5800000000000001,
        4.5999999999999996,
        4.6200000000000001,
        4.6399999999999997,
        4.6600000000000001,
        4.6799999999999997,
        4.7000000000000002,
        4.7199999999999998,
        4.7400000000000002,
        4.7599999999999998,
        4.7800000000000002,
        4.7999999999999998,
        4.8200000000000003,
        4.8399999999999999,
        4.8600000000000003,
        4.8799999999999999,
        4.9000000000000004,
        4.9199999999999999,
        4.9400000000000004,
        4.96,
        4.9800000000000004,
        5.0,
        5.0199999999999996,
        5.04,
        5.0599999999999996,
        5.0800000000000001,
        5.0999999999999996,
        5.1200000000000001,
        5.1399999999999997,
        5.1600000000000001,
        5.1799999999999997,
        5.2000000000000002,
        5.2199999999999998,
        5.2400000000000002,
        5.2599999999999998,
        5.2800000000000002,
        5.2999999999999998,
        5.3200000000000003,
        5.3399999999999999,
        5.3600000000000003,
        5.3799999999999999,
        5.4000000000000004,
        5.4199999999999999,
        5.4400000000000004,
        5.46,
        5.4800000000000004,
        5.5,
        5.5199999999999996,
        5.54,
        5.5599999999999996,
        5.5800000000000001,
        5.5999999999999996,
        5.6200000000000001,
        5.6399999999999997,
        5.6600000000000001,
        5.6799999999999997,
        5.7000000000000002,
        5.7199999999999998,
        5.7400000000000002,
        5.7599999999999998,
        5.7800000000000002,
        5.7999999999999998,
        5.8200000000000003,
        5.8399999999999999,
        5.8600000000000003,
        5.8799999999999999,
        5.9000000000000004,
        5.9199999999999999,
        5.9400000000000004,
        5.96,
        5.9800000000000004,
        6.0,
        6.0199999999999996,
        6.04,
        6.0599999999999996,
        6.0800000000000001,
        6.0999999999999996,
        6.1200000000000001,
        6.1399999999999997,
        6.1600000000000001,
        6.1799999999999997,
        6.2000000000000002,
        6.2199999999999998,
        6.2400000000000002,
        6.2599999999999998,
        6.2800000000000002,
        6.2999999999999998,
        6.3200000000000003,
        6.3399999999999999,
        6.3600000000000003,
        6.3799999999999999,
        6.4000000000000004,
        6.4199999999999999,
        6.4400000000000004,
        6.46,
        6.4800000000000004,
        6.5,
        6.5199999999999996,
        6.54,
        6.5599999999999996,
        6.5800000000000001,
        6.5999999999999996,
        6.6200000000000001,
        6.6399999999999997,
        6.6600000000000001,
        6.6799999999999997,
        6.7000000000000002,
        6.7199999999999998,
        6.7400000000000002,
        6.7599999999999998,
        6.7800000000000002,
        6.7999999999999998,
        6.8200000000000003,
        6.8399999999999999,
        6.8600000000000003,
        6.8799999999999999,
        6.9000000000000004,
        6.9199999999999999,
        6.9400000000000004,
        6.96,
        6.9800000000000004,
        7.0,
        7.0199999999999996,
        7.04,
        7.0599999999999996,
        7.0800000000000001,
        7.0999999999999996,
        7.1200000000000001,
        7.1399999999999997,
        7.1600000000000001,
        7.1799999999999997,
        7.2000000000000002,
        7.2199999999999998,
        7.2400000000000002,
        7.2599999999999998,
        7.2800000000000002,
        7.2999999999999998,
        7.3200000000000003,
        7.3399999999999999,
        7.3600000000000003,
        7.3799999999999999,
        7.4000000000000004,
        7.4199999999999999,
        7.4400000000000004,
        7.46
    ]
}