{
    "DU": 73,
    "DV": 398,
    "F-measure": 0.057571964956195244,
    "F-measure Chroma": 0.13516896120150187,
    "FN": 54,
    "FNC": 0,
    "FNCch": 3,
    "FNI": 54,
    "FNIch": 51,
    "FP": 89,
    "GU": 108,
    "GV": 363,
    "Overall Accuracy": 0.04883227176220807,
    "Overall Chroma Accuracy": 0.11464968152866242,
    "Precision": 0.05515587529976019,
    "Precision Chroma": 0.12949640287769784,
    "Raw Chroma Accuracy": 0.1046831955922865,
    "Raw Pitch Accuracy": 0.011019283746556474,
    "Recall": 0.060209424083769635,
    "Recall Chroma": 0.14136125654450263,
    "TN": 19,
    "TO": 471,
    "TP": 309,
    "TPC": 4,
    "TPCch": 35,
    "TPI": 305,
    "TPIch": 274,
    "Voiced Chroma Accuracy": 0.09641873278236915,
    "Voiced Pitch Accuracy": 0.011019283746556474,
    "Voicing Accuracy": 0.6963906581740976,
    "Voicing Detection": 0.8512396694214877,
    "Voicing False Alarm": 0.8240740740740741
}