{
	"f0": [NaN,45.06563871,45.49012178,41.79856151,41.65474314,44.36188371,62.7187475,62.25665967,61.92536717,61.88369506,61.93289217,62.00490075,62.10182536,62.20632681,62.26404539,62.22605235,62.03067662,61.86527026,61.77669709,61.67347224,61.55186223,61.54047386,61.72305992,62.04279773,62.31797621,62.58664832,62.79469338,62.81109206,62.82647237,62.9103667,62.90912296,62.81254592,62.7102996,62.62874756,62.54661295,62.49389794,62.51378948,62.47824105,62.34553259,62.3055402,62.23637689,62.01290195,61.85469728,61.74346758,61.67920206,61.65365728,61.64554607,61.68325717,61.73613547,61.69695347,61.63291177,61.61582676,61.60902552,61.59451954,61.60530072,61.67362027,61.72184837,61.62322201,61.47551453,61.27535049,60.66416319,57.20171668,43.86987327,41.47704028,41.3108577,55.34995772,60.57364344,59.51631512,59.03519027,58.67517965,58.71576083,58.82181501,58.88501455,58.84186125,58.74568468,58.67653458,58.5000722,58.03954947,57.36809646,56.89529842,56.78000585,56.79608348,56.88181008,56.92794113,56.9627369,57.12186731,57.30075651,57.33424947,57.23235111,57.11587597,57.01756915,57.15148893,57.30310075,57.36851368,57.43936156,57.4212104,57.39615896,57.45621267,57.33943313,56.7406483,55.60798038,55.12548582,46.54970563,43.45849939,40.90204401,56.16830676,56.27686952,56.50433833,56.82233909,56.85094117,56.9207631,57.06714999,57.18646433,57.19396027,57.18864905,57.2409775,57.32779968,57.33900958,57.28092734,57.26217941,57.31948933,57.31519905,57.21536232,57.05254024,56.86824996,57.02695182,57.59636537,58.14522861,58.15589452,58.02140733,57.86820464,57.81949771,57.82076862,57.83257633,57.75622939,57.2050406,56.47611596,56.23796469,58.41340099,57.87356057,57.68509169,57.40173769,57.23501012,57.20984169,57.3486808,57.69492156,58.01888443,58.13923379,58.20409246,58.16554758,58.06704137,57.99700194,58.19160795,58.5346331,58.72354824,58.79529927,58.75451369,58.62230995,58.43482377,58.26165633,58.096927,58.01799667,58.1451928,58.30787437,58.47887271,58.66285314,58.70649878,58.55724373,58.35274156,58.0707936,57.70437294,57.33068052,57.63517741,58.57224384,59.10105214,35.34887861,36.27228127,36.31319536,37.55179085,37.60288637,37.61804432,37.28549811,36.3709808,36.32068609,37.53192469,36.31193732,36.26693427,41.7383121,45.12109256,41.6998846,36.40060711,36.34970838,41.58906608,36.30260401,36.3100172,41.74231537,50.01400681,55.13489482,42.50528578,48.58216954,58.94125469,58.42002457,58.1458964,58.24914495,58.38018577,58.521104,58.6239646,58.67492462,58.66312082,58.68036542,48.76871822,41.8589407,50.80781824,62.54057895,62.27766095,61.98795113,62.16992382,62.41712769,62.99171746,63.56819209,63.9455488,64.33405594,64.5193199,64.60957525,64.60782647,64.58397359,64.64134881,64.68292316,64.7014636,64.7597004,64.76413313,64.78720241,64.8347212,64.72153474,64.33802936,63.59286281,62.85274212,62.58856742,62.44136898,62.62092934,62.77270389,62.80797334,62.82636931,62.8437161,62.87267814,62.84705138,62.78987576,62.78224939,62.8531987,62.89051595,62.88771742,62.87647799,62.77393969,62.41487645,61.76013939,61.34510736,51.41961316,47.90612194,48.47528169,36.11236783,60.9792911,60.86625688,60.77604586,60.67618536,60.68400289,60.90717419,61.28312126,61.72904869,62.17616591,62.38939058,62.37184513,62.24097084,62.0713041,61.93160386,61.83663503,61.84183997,61.90198066,61.9616232,62.01568443,61.98716117,61.93758768,61.74267371,61.32806069,60.89489535,60.55770678,60.33433099,60.20564374,60.16925187,60.10782663,60.00269368,59.89843403,59.72666011,59.36372591,58.71141752,57.98833965,57.63716982,57.63132983,57.69085187,57.70851245,57.68509563,57.72311322,57.87850401,58.08800029,58.12731252,57.68564683,57.1927632,56.69965447,47.84124691,61.52483579,60.63390267,60.47158577,60.37671803,60.42604473,60.57457277,60.82857252,61.14942517,61.4492999,61.61446952,61.71588362,61.7413047,61.66306693,61.58510855,61.60815818,61.7138068,61.82094448,61.85691525,61.86145981,61.86440648,61.84574809,61.78797567,61.73355517,61.73128917,61.77194234,61.82104136,61.8318209,61.82459651,61.80851117,61.7617535,61.73618874,61.76936697,61.78232966,61.73293242,61.70869334,61.72942824,61.78875021,61.84108786,61.87517774,61.88956291,61.88904006,61.89042754,61.89391531,61.88283374,61.86150227,61.86674586,61.89918969,61.95208423,61.97055562,61.94787261,61.91800437,61.92137587,61.93121303,61.92549786,61.94391459,62.00801706,62.07287094,62.03028122,61.96022565,61.97682778,62.05028164,62.14025651,62.17984935,62.09973279,62.02706342,61.97693344,61.81734713,61.61298605,61.47882609,61.10992405,60.55482111,60.19222773,60.17219226,60.35552142,60.51332863,60.52901639,60.45813808,60.36858887,60.2555817,60.15436232,60.0723537,59.98379041,59.88744694,59.75895121,59.61790374,59.48763279,59.40898268,59.37784649,59.48475576,59.68314088,59.85274834,59.93027728,59.90835611,59.90617619,59.96594862,59.99269931,59.97177856,59.9190483,59.88406687,59.98297878,60.18859561,60.3825615,60.50811121,60.52302365,60.4044358,60.21498287,60.0827945,60.10517705,60.2660549,60.40191465,60.46985268,60.62469924,60.78951897,60.78256809,60.71081468,60.58089896,60.43139522,60.37882373,60.37968994,60.37102213,60.33309881,60.26552529,60.24186667,60.28549466,60.43916891,60.59615516,60.6569191,60.62237664,60.54757644,60.40793148,60.20472362,60.118842,60.23976427,60.08087442,64.22103013,52.17290567,52.20520941,36.32382925,41.72572516,36.30901354,35.34887861,35.34887861,35.34887861,35.34887861,35.34887861,35.34887861,35.34887861,35.34887861,35.34887861,35.34887861,35.34887861,35.34887861,35.34887861,35.34887861,35.34887861,35.34887861,35.34887861,35.34887861,35.83268807,35.90292079,35.83268807,35.83268807,35.61125852,59.71626302,40.98925699,40.31116245,36.22254231,76.93035138,67.34995772,36.22254231,36.22254231,35.34887861,50.39657941,NaN,NaN,NaN],
	"ap0": [NaN,0.2713480237,0.4685861514,0.7434991037,0.7654662318,0.8418042905,0.1391702093,0.04691378702,0.007825469233,0.0022135442,0.001424599859,0.001163168825,0.001681333666,0.001451826786,0.0009135182051,0.001259304098,0.002216230875,0.001259677507,0.0007247803343,0.0009082628421,0.0009297339978,0.001121959702,0.00376946258,0.00443663612,0.004631544445,0.006318055153,0.005145072209,0.003948501242,0.003657075979,0.003446311775,0.003972388739,0.004003324877,0.003387880107,0.003123868128,0.002383410371,0.002558061722,0.002957014606,0.003569949922,0.004082384024,0.003754015376,0.005232527221,0.004233360005,0.001663921691,0.0007962208528,0.0005245364656,0.0005678897445,0.0004670292454,0.0004598704029,0.0003920081327,0.0006900780826,0.0005899928776,0.0004699498042,0.0003486990859,0.0004534961247,0.0008578999938,0.00147729615,0.001423190862,0.00236918095,0.01103998374,0.03391559853,0.1150901686,1.091439799,0.741989798,0.6311979831,0.6840462006,0.6446570711,0.2953475522,0.05991133636,0.02777074175,0.003120590624,0.001348467886,0.001820563838,0.001511211608,0.003920521938,0.005468659364,0.002469491669,0.004825125562,0.01005830978,0.01216456584,0.0032804408,0.002132381832,0.001760796855,0.001677079713,0.001516923816,0.001715590389,0.003337164948,0.002406271738,0.001539041605,0.00243722034,0.001917187988,0.001522731778,0.01712015206,0.01171685573,0.003837329561,0.00108911509,0.000773827034,0.0007343729292,0.001219155261,0.02430524944,0.07780059582,0.09299450223,1.175402737,0.4175284984,0.7994296425,0.5790065835,0.3548911568,0.0486177616,0.01108797587,0.004630892787,0.00309595966,0.001382925981,0.002287350628,0.001177123205,0.0005467368392,0.0007060121372,0.001030187995,0.0009194068214,0.0008871781811,0.000980224862,0.0008030411456,0.0008171979716,0.0009214719707,0.0009536083802,0.001933207421,0.001431556602,0.006643781942,0.01539657125,0.00299354549,0.001046854942,0.00122198317,0.001310025291,0.0008974090548,0.0009002311809,0.001289940794,0.02310277647,0.06600599814,0.03239791941,0.2698872185,0.2544749757,0.03729706478,0.01371590596,0.002379221562,0.0008880362654,0.0004980849243,0.003227075755,0.006273874861,0.001192520131,0.001120222552,0.0008302134329,0.0008543179524,0.001134467063,0.001801026347,0.005183815479,0.002244929855,0.00119952913,0.0006481309572,0.000492391611,0.001603296155,0.001657853674,0.00136773319,0.001722067645,0.001560125983,0.002005569598,0.001634213695,0.001895099205,0.001490117001,0.0008465733417,0.001894357323,0.002716990624,0.005699187998,0.01249640158,0.03453565591,0.1852695304,0.2686300574,0.7462123329,0.657376503,0.4193714243,0.7234472679,0.7645984536,0.5938597986,0.6534105275,0.7114725843,0.5470324364,0.7882638467,0.628372012,0.6892642291,0.6135393261,0.6691877614,0.5227169905,0.58643833,0.6282670162,0.7118245647,0.7542147906,0.753553133,0.5210848335,0.7515232494,0.9835761113,0.4345100189,0.2875700225,0.6397417464,0.2754799967,0.1933272923,0.09076438586,0.007048039249,0.002358225885,0.001826202387,0.001268338273,0.003198811894,0.02198690774,0.1970137344,1.167793692,0.6351495173,1.151489129,0.0991247043,0.06595837534,0.01691267764,0.01007819348,0.02024485657,0.02269250278,0.01159024927,0.01036488799,0.003595604403,0.001231253544,0.0009274058986,0.0008233230321,0.00111491907,0.001529192318,0.001206742238,0.001217906569,0.001843644224,0.002731382434,0.002875611287,0.001797587604,0.002798427837,0.01098831087,0.0198067798,0.009458155436,0.004506600067,0.002347292299,0.002710832937,0.0008596079192,0.001061886776,0.001016575188,0.0008969325852,0.0008978739349,0.0009929113391,0.0008768582408,0.0007522153634,0.0009390170909,0.0008625121592,0.0008367112347,0.0009881219995,0.001977100841,0.0210300413,0.03896295204,0.06171000368,0.6108207489,0.5497973352,0.6411505594,0.5942247995,0.2054905166,0.03059739301,0.00297241657,0.001905720904,0.001835812798,0.003120201481,0.005041770541,0.007442805363,0.00555289468,0.001460013494,0.001092830551,0.001838457207,0.001271569055,0.00128696514,0.0007699723223,0.0006171522083,0.0009651384189,0.0009596499999,0.0005025513943,0.0006623244502,0.001155758462,0.003474283705,0.005470961694,0.004580155478,0.002050172707,0.001332973271,0.0004846170751,0.0002936846598,0.0004747397522,0.0004695545076,0.0007185296017,0.002030030192,0.006721352105,0.01478076906,0.009372774128,0.001675576129,0.001085175919,0.0006352711505,0.0004809323442,0.0005296141947,0.0007238566238,0.001510248965,0.003016685408,0.01840664785,0.08111724296,0.2817164269,0.5215546934,0.627974009,0.5785554483,0.04769682793,0.01854063759,0.001898374845,0.00162536317,0.002005813923,0.002318133284,0.003625717075,0.00163221439,0.000891614589,0.0004913642594,0.0004680650046,0.000935663868,0.0006315160189,0.0007588985659,0.001026056432,0.0006984955463,0.0006156840242,0.0005833643526,0.0005755003798,0.0006298445266,0.00065484228,0.0007449606507,0.0007828750229,0.0005830660729,0.0006781718922,0.0008183433341,0.0005335740704,0.0005640397965,0.0006313279466,0.0004740878323,0.0007024582286,0.0007580853471,0.0006540382599,0.0005788659907,0.0006175308407,0.0006830197944,0.0006807058969,0.000768165337,0.000781601034,0.0007169504659,0.0006760875513,0.000864226047,0.0009173510586,0.0008056535305,0.0009133799403,0.001097300089,0.001173469471,0.0008179323562,0.0006721321685,0.0007945881769,0.0009636250631,0.0009494674295,0.001026165237,0.001121529351,0.001483049722,0.001349985953,0.001352040467,0.001252747295,0.001441576553,0.001461952883,0.001950000931,0.00217181794,0.001934834798,0.001487877123,0.001410563231,0.002304465986,0.001731167674,0.001306934786,0.006795715272,0.007833471564,0.001342104946,0.0007521528585,0.001557078317,0.0005983755351,0.0002927339516,0.0004145890527,0.000462368285,0.000583420913,0.0004977570505,0.0005858314203,0.0004370536765,0.000648579779,0.0006279876124,0.0008821860801,0.0005670069977,0.0004369794302,0.0003658029409,0.001169469644,0.001172497315,0.000742151078,0.0004972273262,0.0005728786536,0.0005236780055,0.0004270299886,0.0003971056557,0.0004827554357,0.0004897802101,0.0003630756725,0.001389472815,0.001593975595,0.001060370928,0.0007078382048,0.0004038020982,0.001102080348,0.001226783139,0.0007195833746,0.0008063551348,0.001154846192,0.0006230338498,0.0005742665734,0.001840310088,0.0006939908541,0.000617779882,0.0006829227755,0.001527143826,0.001445820006,0.001428567536,0.001637764195,0.001525487636,0.001424382104,0.001454540917,0.001826662052,0.002662664276,0.003817122151,0.002777986241,0.002121355749,0.00283408039,0.003229782683,0.004646740706,0.005292595122,0.01335627878,0.04603439679,0.2195249995,0.6633615331,0.6366177878,0.7132096644,0.5461569934,0.6731733412,0.5510048487,0.3582593745,0.4006191347,0.333123263,0.1982737569,0.3284316099,0.2447272985,0.1911412972,0.2930785529,0.2464875918,0.1968137266,0.3168401595,0.2647274288,0.2084049341,0.311694646,0.3005039251,0.2315297526,0.3012084464,0.2789779686,0.2543151955,0.3292276478,0.2822939092,0.2634314506,0.505385755,0.7081220752,0.6754282786,0.9443701714,1.016266656,1,1.992359884,0.4661842326,0.5281430434,1.138311904,0.497706422,NaN,NaN,NaN],
	"ap": [NaN,0.2607099599,0.3822937023,0.4157688216,0.43978802,0.381004412,0.3782321975,0.481313778,0.02133021047,0.00230822462,0.001804942084,0.0009395587354,0.0005624847862,0.00116391504,0.0006336256238,0.0004164707981,0.002869546507,0.002236064772,0.0007187379631,0.001486398976,0.0008859726363,0.0003387077119,0.002142071698,0.004853187574,0.005527781203,0.006143810289,0.003934231827,0.001727840887,0.003300747614,0.003084962771,0.001173810434,0.0006161988106,0.003471582702,0.001152896194,0.003673242179,0.0004841792149,0.0007464425106,0.001104376077,0.001113257053,0.0008565692351,0.002427329232,0.004524678651,0.004937612261,0.0008107194064,0.0006192851182,0.0002457867621,0.0002002473106,0.0004573146064,0.0005108939479,0.0003701983999,0.0002061702141,0.0001016610887,0.0001846421092,0.0001274525448,0.0001008291277,0.0005474417079,0.000435989952,0.0007691653868,0.0009947291316,0.001488550031,0.01628500529,0.7034425973,0.3936744268,0.6378012764,0.2940615251,0.5960992007,0.7863328393,0.3242381228,0.2163617383,0.009986031655,0.0008861723767,0.002198881378,0.001072710241,0.001118524739,0.001901443843,0.005401201921,0.004102519089,0.01158487937,0.02663765363,0.01319892117,0.001699134905,0.001213414612,0.001735227918,0.00147422376,0.001039333532,0.001943668257,0.002468600307,0.0002942757147,0.001436261216,0.002479897469,0.001256326192,0.0004462433845,0.004835290606,0.0275425908,0.0007396735757,0.0005208440277,0.0003669986336,0.0004022426206,0.0007149734731,0.02385013182,0.03228360959,0.2005465472,0.9220102614,0.6289586844,0.2298964147,0.8622022744,0.4351291154,0.0854835861,0.006255615127,0.004488632557,0.003598436278,0.001736492431,0.000853271702,0.0005259602805,0.0002153507534,0.0006288725295,0.0008678152927,0.0004557877006,0.0007088168962,0.000314056778,0.0008556863915,0.0001982626244,0.001440714496,0.002023925407,0.001918583357,0.002165699098,0.01585287783,0.01679339325,0.001421392388,0.0008020875327,0.001288128548,0.0003903557838,0.000664264841,0.0003353397197,0.0003864520985,0.01518660842,0.0157794397,0.01330748773,0.3523981158,0.10527414,0.104789396,0.002989665305,0.001389768239,0.0004751965051,0.001125854256,0.00752578935,0.004782706895,0.0003257912499,0.0008062340063,0.0004059702315,0.0008399235662,0.0005151470898,0.002387450785,0.004991618962,0.001479567014,0.0009211985187,0.0006356806425,0.001233420388,0.002151048734,0.000936447793,0.001773931666,0.001141227231,0.002656194846,0.001707438865,0.001737385865,0.001417959094,0.0002470523739,0.0009337978086,0.00400966882,0.002934191884,0.00752284526,0.005822300714,0.02593484914,0.5656093977,0.06912227919,0.527471899,0.2490179298,0.2374495957,0.6689268847,0.5051356154,0.2209207406,0.490947649,0.1410823262,0.3703344928,0.3663806802,0.2970416996,0.4970011536,0.4426881729,0.2067971381,0.2953335783,0.3409218688,0.3975009801,0.457032336,0.4672565528,0.2172627949,0.5001749461,0.5061053526,0.7629921135,0.3143598029,0.7984630384,0.3831501961,0.2859866661,0.1239397052,0.04366083795,0.001000814244,0.00143290885,0.001331568854,0.000442893885,0.0006141747526,0.006074317478,0.3809085416,0.2461219613,0.499986092,0.3565021917,0.3149144352,0.05611666328,0.005300750432,0.01152811709,0.01634168472,0.0167281575,0.03119998639,0.009403041745,0.0007778201615,0.000830011045,0.0002984156234,0.0003223990594,0.0002384607911,0.0006875689225,7.860319554e-05,0.0004429801781,0.00110882724,0.001207711283,0.0007417858631,0.00236550144,0.0100963132,0.02861619004,0.03156578034,0.02587716381,0.003313911662,0.003360756543,0.001493473524,0.0002659178464,0.0005756233209,0.0003780087572,0.0002442273885,0.0004475944944,0.0004847978585,0.0004878380044,0.0009986389141,0.0005450142863,0.000401328583,0.0001535967821,0.0004104654149,0.006241161871,0.02396690273,0.02330252183,0.3122440761,0.8343079695,0.3609554486,0.2046642618,0.7930931919,0.4896487448,0.06172008767,0.003029922067,0.0009138527502,0.002208722527,0.006070896534,0.007783220351,0.006617393598,0.002724089918,0.0004564396679,0.001827356894,0.002365201628,0.002050346435,0.0006640856227,0.0002600837261,0.0003810878784,0.000349579082,0.0002177126027,0.0001946889098,0.000297696619,0.001560054266,0.009742403707,0.01557294747,0.006597436435,0.002886698439,0.001178751782,0.000149870674,0.0003728091367,0.0008492856396,0.0005724771135,0.00188921883,0.005742433364,0.02209250085,0.02618997076,0.006618719112,0.0006943897708,0.0006161023621,0.0006539646688,0.0001923428928,0.0007486426647,0.001750889955,0.002594100223,0.0001897528766,0.01206689101,0.01038032084,0.1820735676,0.5305912655,0.479042371,0.9810573008,0.1271925943,0.005379309498,0.001416094781,0.002180100361,0.003481815976,0.005311179548,0.004111584649,0.001148013558,0.0008795369977,0.0002458082224,0.0002897218632,0.0007212402036,0.0003099185773,0.0008497207519,0.0003952841855,0.000276482766,0.0001067972466,0.0003566664098,0.0004580890124,0.0003717918654,0.0001951176111,0.0002837880585,0.0003923147376,0.0005563684067,0.0001606877118,0.0004467582414,0.0002780062699,0.000215872282,0.0006002729411,0.0001942503323,0.0003778008934,0.0008829644277,0.0002745436446,0.0001759291237,0.0003045607552,0.0003314699431,0.0002967103109,0.0003343823599,0.0005014135194,0.0002129853131,0.0006051112865,0.000679737593,0.0002065976295,0.0002184932225,0.0004022520092,0.0006041881118,0.0003958834711,0.0007609891111,0.000103594499,0.0004572904474,0.0005416682391,0.0003714350845,0.0005405926653,0.0006166686025,0.0007008597819,0.0006128710386,0.001266378446,0.0006452496582,0.0004277640703,0.0005704224085,0.001079892307,0.002464832987,0.000363406184,0.0008588563341,0.00117139323,0.003384387843,0.001511383156,0.005682924069,0.02125062677,0.0069446272,0.0001950672965,0.002033220389,0.001417870286,0.0001274181797,0.0003547591173,0.0003438965406,0.0008372685901,0.0005492159877,0.0003433297591,0.0005113376663,0.0006037279985,0.001305106109,0.00112054934,0.001628120458,0.0005210376885,0.0003831407226,0.0004392636727,0.002702026664,0.002145032581,0.0003882739069,0.0002671043492,0.0001906384007,0.0003567962626,0.0002443319501,0.0002950676616,0.0002495975921,0.0003143415389,0.000544270617,0.003337398452,0.001866892397,0.0008243717604,0.0003883962823,0.00136978089,0.002550426695,0.000992181744,0.000317555542,0.001248959116,0.001533581194,0.0003061146113,0.001437660699,0.001839573395,0.0003519627269,0.0003224970454,0.001365054944,0.001539027531,0.0003810856507,0.0009064159675,0.0002501794681,0.0005819108638,0.001070407171,0.0009409620908,0.0008050873205,0.0007465896179,0.002156134864,0.001541533873,0.001760770044,0.001326449683,0.001383705009,0.003695557081,0.002342617854,0.003765981405,0.04064396217,0.5201375266,0.4849156557,0.3344973463,0.1478644904,0.3808951018,0.2812403051,0.3166269432,0.1410351875,0.3282416129,0.0877265987,0.1845444082,0.1683605571,0.06039252914,0.173142733,0.215862648,0.08076734038,0.1102280958,0.224350666,0.1214888901,0.1416081171,0.1847017481,0.08997991685,0.1837393611,0.2028033718,0.09894196188,0.1422227145,0.2299270333,0.08920218016,0.1833308372,0.3832148919,0.3403622457,0.4399984238,0.5000031767,1,1,0.5000021033,0.1183226775,0.4166684782,0.500001707,NaN,NaN,NaN],
	"pwr": [NaN,5.301172536e-06,1.260620201e-05,0.0005553481784,0.0004758557879,0.001793625285,0.0002859609827,0.001725312083,0.06767165168,0.05352469226,0.06878983637,0.07622003107,0.07058001827,0.05933850072,0.04579946598,0.039726103,0.03419591336,0.03370445808,0.05383042259,0.06959792023,0.06816118582,0.06978162029,0.06609569504,0.05051379572,0.02878541243,0.01661184008,0.007450415531,0.004632394627,0.003872752654,0.00458637139,0.005123156492,0.006780796154,0.00726779037,0.006392274411,0.005619959926,0.005182875822,0.005116311986,0.005078383495,0.005182948299,0.005675747907,0.007405204384,0.01175024636,0.03287543671,0.07706858109,0.1100202622,0.119660988,0.1024971157,0.08704121946,0.07778823014,0.06959082666,0.06056501448,0.07315760462,0.06584510195,0.05847049656,0.05332270779,0.05306546,0.0439888097,0.04134630077,0.04395331825,0.05629134861,0.05678588953,0.001907892423,0.0004696821192,0.001672050692,0.002185281897,0.002672925393,0.001372532552,0.0001535511729,0.007392511214,0.08696463358,0.06198230939,0.05254459818,0.04834672081,0.03906042703,0.02717667146,0.01135216808,0.009464990572,0.009273747719,0.009219080874,0.01033709274,0.01252197672,0.01933878664,0.02151267871,0.02094880237,0.01929259707,0.01809416766,0.0182744404,0.01349192861,0.01260465876,0.01281248858,0.01508104814,0.01677396174,0.01817951841,0.02232210642,0.05240524106,0.0458247963,0.04712298669,0.0496211252,0.05040682569,0.04456155365,0.02179295102,0.005243864049,0.0002488183283,0.0002864135869,0.00616117189,0.003488381732,0.002562922951,0.03770719508,0.1412901582,0.08630022841,0.07388417765,0.06603544312,0.05860098481,0.04282094996,0.04320873892,0.04028923582,0.0444159678,0.03911089994,0.03930312342,0.03859750707,0.04374019049,0.04538863406,0.04071326602,0.04307272609,0.04605537059,0.05072040709,0.07171012316,0.04578170461,0.02911698941,0.03924439967,0.04021200627,0.04379243523,0.04179725308,0.04155174896,0.04318321572,0.03951714594,0.004960331932,0.003650853671,0.0002187885204,0.0003185211143,0.01135703718,0.1466996457,0.1092133634,0.1034657543,0.1013576759,0.09295229695,0.07363356167,0.05793958543,0.05841116533,0.07209299219,0.08255029016,0.07960866471,0.06868811637,0.061902875,0.06815546132,0.07955126326,0.08363900813,0.0809656396,0.0826399791,0.07408500924,0.06138721553,0.05215544623,0.04380887299,0.04090050076,0.04028654391,0.0436848006,0.04645848303,0.04993997391,0.05019851157,0.04345618038,0.03344131867,0.01937297531,0.005362017703,8.329321073e-05,0.0001143887532,1.840318868e-05,2.199199342e-05,2.6688857e-05,2.067023952e-05,2.513560428e-05,5.915480358e-05,3.093349191e-05,3.518854642e-05,3.236927712e-05,1.714844251e-05,7.422880825e-05,4.022241027e-05,3.734155175e-05,6.990055239e-05,3.71915071e-05,3.812552051e-05,5.671294756e-05,3.12318568e-05,7.106827342e-05,4.03918164e-05,2.080896154e-05,2.970781694e-05,2.861699092e-05,0.0002382687176,0.00133885858,0.0002239270988,0.006071556141,0.03666504495,0.05396758447,0.06955527984,0.06798223864,0.07217774218,0.08127258405,0.08027145162,0.05751685321,0.001164936518,0.0008426024845,0.0005755160892,0.001646755605,0.0006795673194,0.04437615997,0.0359300361,0.02753673616,0.01455218234,0.003237703267,0.004942526436,0.01211242595,0.009883292365,0.01061863916,0.01405389951,0.01665049301,0.01836536537,0.01884541408,0.02052593617,0.02111551134,0.02230099038,0.02299762197,0.02381041084,0.02527242262,0.04163440254,0.05111617306,0.03756531329,0.04349716594,0.1178926508,0.06579937733,0.05273541001,0.04857581035,0.0541104218,0.05718853078,0.05580226404,0.05246984201,0.05222940126,0.05299272897,0.04387028988,0.03844574394,0.0463637377,0.05065533974,0.05338962395,0.05605861115,0.05197280585,0.01763103919,0.005087109576,0.0001371380663,0.0005767839044,0.008152382374,0.001203689287,0.009896779102,0.06057108315,0.1950454466,0.1686812205,0.140253932,0.1201681754,0.09305212856,0.06468327774,0.04184701861,0.02896344762,0.027697833,0.02532711975,0.03262558906,0.04335416907,0.05693534273,0.06296842805,0.05602282378,0.05296083475,0.04846555669,0.05015619719,0.06253436825,0.06383641522,0.09058467459,0.14207113,0.1658285081,0.1701138377,0.150786028,0.1364701046,0.1239446034,0.118858355,0.1128529402,0.1120246515,0.1096618078,0.09785439431,0.09543028435,0.08822671691,0.07566929375,0.07256442504,0.06950398021,0.07357157935,0.08673302117,0.08750202468,0.08357569436,0.06800333713,0.006795066993,0.0003319446657,0.0001887148962,0.0001679579623,0.004046790099,0.004918200504,0.2711655396,0.2436412564,0.2045141468,0.1697249778,0.1593434799,0.1452861565,0.1220058995,0.1091486524,0.1010951706,0.0894659643,0.09132553338,0.1103738206,0.1092247297,0.097697969,0.08191165764,0.07603465668,0.07239064394,0.06661223083,0.06673084638,0.06541730011,0.06977807798,0.07831775149,0.07407158498,0.06523065463,0.06321168461,0.06414738219,0.06481542023,0.06392929568,0.07154344041,0.06758620001,0.05523365386,0.05926373575,0.06458360398,0.06467835753,0.05886184424,0.05340370296,0.05010741286,0.04576499444,0.04496886242,0.04677075473,0.04455217157,0.0437760251,0.04413844106,0.04293334031,0.04339802243,0.04252745511,0.03999220127,0.03541305948,0.03875369993,0.04117846455,0.03724727176,0.03841570375,0.03407727631,0.03481853759,0.03061113421,0.02617796771,0.03003447736,0.03512137528,0.03029026296,0.02473522752,0.02214149454,0.02284478561,0.0234741058,0.02718492376,0.02910460775,0.039904575,0.05631289236,0.06344467562,0.092956628,0.1004515309,0.1044261949,0.1136046117,0.1289659757,0.1337787382,0.145523285,0.146637214,0.1505853817,0.1519209363,0.1374607237,0.1414120091,0.1459911699,0.1489380202,0.1445634717,0.1285550892,0.1165289314,0.09799999308,0.08608157522,0.08989152697,0.08285425586,0.09150165096,0.08890823736,0.07569015758,0.08052655475,0.08311181547,0.08300446182,0.07804412593,0.07298445765,0.0660325612,0.06787818669,0.06587139142,0.06437798266,0.06702482082,0.0647534494,0.06489874524,0.06003383038,0.05325991584,0.05245128287,0.05484952627,0.05287465583,0.04651326134,0.04376872367,0.04381682215,0.04492592191,0.04276116302,0.03931367814,0.03150108049,0.0253080202,0.02164688548,0.0189374272,0.01624032037,0.01401394909,0.01143820844,0.01017999506,0.00890328591,0.007766599215,0.006714261236,0.005993852373,0.006061476408,0.005492525586,0.002484651765,0.0005874591912,7.622138461e-05,8.014396536e-06,7.916714233e-06,1.96674735e-05,1.216321426e-05,1.145621384e-05,9.684131149e-06,1.987443772e-05,2.011983572e-05,1.618287166e-05,1.571054743e-05,5.480284733e-06,4.257778793e-06,2.330398475e-06,8.567347279e-07,6.965552658e-07,4.226407843e-07,1.300698308e-07,1.018948021e-07,8.934371789e-08,3.756639936e-08,2.561412077e-08,1.648376791e-08,9.035937283e-09,8.145773308e-09,5.899086155e-09,1.822111879e-09,1.222125221e-09,8.570432279e-10,4.912539318e-10,2.391394494e-10,1.09272903e-10,9.641020441e-13,0,0,0,2.699485724e-11,2.108308978e-11,3.060684518e-11,NaN,NaN,NaN],
	"sr": 16000,
	"range": [1,154722],
	"minf0": 63.1883,
	"maxf0": 706.3069,
	"thresh": 0.1,
	"relflag": 1,
	"hop": 320,
	"bufsize": 10000,
	"wsize": 640,
	"lpf": 4000,
	"shift": 0,
	"plotthreshold": 0.2
}
