{
    "DU": 39,
    "DV": 476,
    "F-measure": 0.8405172413793104,
    "F-measure Chroma": 0.877155172413793,
    "FN": 0,
    "FNC": 0,
    "FNCch": 0,
    "FNI": 0,
    "FNIch": 0,
    "FP": 102,
    "GU": 141,
    "GV": 374,
    "Overall Accuracy": 0.7572815533980582,
    "Overall Chroma Accuracy": 0.7902912621359224,
    "Precision": 0.7572815533980582,
    "Precision Chroma": 0.7902912621359224,
    "Raw Chroma Accuracy": 0.983957219251337,
    "Raw Pitch Accuracy": 0.9385026737967914,
    "Recall": 0.9443099273607748,
    "Recall Chroma": 0.9854721549636803,
    "TN": 39,
    "TO": 515,
    "TP": 374,
    "TPC": 351,
    "TPCch": 368,
    "TPI": 23,
    "TPIch": 6,
    "Voiced Chroma Accuracy": 0.983957219251337,
    "Voiced Pitch Accuracy": 0.9385026737967914,
    "Voicing Accuracy": 0.8019417475728156,
    "Voicing Detection": 1.0,
    "Voicing False Alarm": 0.723404255319149
}