{
    "DU": 239,
    "DV": 310,
    "F-measure": 0.899904671115348,
    "F-measure Chroma": 0.9418493803622497,
    "FN": 46,
    "FNC": 3,
    "FNCch": 9,
    "FNI": 43,
    "FNIch": 37,
    "FP": 3,
    "GU": 196,
    "GV": 353,
    "Overall Accuracy": 0.8597449908925319,
    "Overall Chroma Accuracy": 0.8998178506375227,
    "Precision": 0.9383697813121272,
    "Precision Chroma": 0.9821073558648111,
    "Raw Chroma Accuracy": 0.8781869688385269,
    "Raw Pitch Accuracy": 0.7988668555240793,
    "Recall": 0.8644688644688645,
    "Recall Chroma": 0.9047619047619048,
    "TN": 193,
    "TO": 549,
    "TP": 307,
    "TPC": 279,
    "TPCch": 301,
    "TPI": 28,
    "TPIch": 6,
    "Voiced Chroma Accuracy": 0.8526912181303116,
    "Voiced Pitch Accuracy": 0.7903682719546742,
    "Voicing Accuracy": 0.9107468123861566,
    "Voicing Detection": 0.8696883852691218,
    "Voicing False Alarm": 0.015306122448979591
}