{
    "DU": 210,
    "DV": 357,
    "F-measure": 0.9123134328358209,
    "F-measure Chroma": 0.9309701492537313,
    "FN": 62,
    "FNC": 1,
    "FNCch": 4,
    "FNI": 61,
    "FNIch": 58,
    "FP": 0,
    "GU": 148,
    "GV": 419,
    "Overall Accuracy": 0.8624338624338624,
    "Overall Chroma Accuracy": 0.8800705467372134,
    "Precision": 0.9683168316831683,
    "Precision Chroma": 0.9881188118811881,
    "Raw Chroma Accuracy": 0.847255369928401,
    "Raw Pitch Accuracy": 0.8162291169451074,
    "Recall": 0.8624338624338624,
    "Recall Chroma": 0.8800705467372134,
    "TN": 148,
    "TO": 567,
    "TP": 357,
    "TPC": 341,
    "TPCch": 351,
    "TPI": 16,
    "TPIch": 6,
    "Voiced Chroma Accuracy": 0.837708830548926,
    "Voiced Pitch Accuracy": 0.8138424821002387,
    "Voicing Accuracy": 0.890652557319224,
    "Voicing Detection": 0.8520286396181385,
    "Voicing False Alarm": 0.0
}