{
    "DU": 14,
    "DV": 306,
    "F-measure": 0.6781609195402298,
    "F-measure Chroma": 0.7318007662835249,
    "FN": 0,
    "FNC": 0,
    "FNCch": 0,
    "FNI": 0,
    "FNIch": 0,
    "FP": 118,
    "GU": 132,
    "GV": 188,
    "Overall Accuracy": 0.553125,
    "Overall Chroma Accuracy": 0.596875,
    "Precision": 0.553125,
    "Precision Chroma": 0.596875,
    "Raw Chroma Accuracy": 0.9414893617021277,
    "Raw Pitch Accuracy": 0.8670212765957447,
    "Recall": 0.8762376237623762,
    "Recall Chroma": 0.9455445544554455,
    "TN": 14,
    "TO": 320,
    "TP": 188,
    "TPC": 163,
    "TPCch": 177,
    "TPI": 25,
    "TPIch": 11,
    "Voiced Chroma Accuracy": 0.9414893617021277,
    "Voiced Pitch Accuracy": 0.8670212765957447,
    "Voicing Accuracy": 0.63125,
    "Voicing Detection": 1.0,
    "Voicing False Alarm": 0.8939393939393939
}