{
    "DU": 131,
    "DV": 221,
    "F-measure": 0.8792846497764532,
    "F-measure Chroma": 0.932935916542474,
    "FN": 22,
    "FNC": 6,
    "FNCch": 14,
    "FNI": 16,
    "FNIch": 8,
    "FP": 11,
    "GU": 120,
    "GV": 232,
    "Overall Accuracy": 0.8380681818181818,
    "Overall Chroma Accuracy": 0.8892045454545454,
    "Precision": 0.8939393939393939,
    "Precision Chroma": 0.9484848484848485,
    "Raw Chroma Accuracy": 0.9396551724137931,
    "Raw Pitch Accuracy": 0.8275862068965517,
    "Recall": 0.8651026392961877,
    "Recall Chroma": 0.9178885630498533,
    "TN": 109,
    "TO": 352,
    "TP": 210,
    "TPC": 186,
    "TPCch": 204,
    "TPI": 24,
    "TPIch": 6,
    "Voiced Chroma Accuracy": 0.8793103448275862,
    "Voiced Pitch Accuracy": 0.8017241379310345,
    "Voicing Accuracy": 0.90625,
    "Voicing Detection": 0.9051724137931034,
    "Voicing False Alarm": 0.09166666666666666
}