{
    "f0": [
        0.0,
        0.0,
        0.0,
        0.0,
        0.0,
        0.0,
        0.0,
        0.0,
        0.0,
        0.0,
        0.0,
        0.0,
        0.0,
        0.0,
        0.0,
        0.0,
        0.0,
        0.0,
        0.0,
        0.0,
        0.0,
        0.0,
        0.0,
        0.0,
        0.0,
        0.0,
        0.0,
        0.0,
        0.0,
        0.0,
        0.0,
        0.0,
        0.0,
        0.0,
        0.0,
        0.0,
        0.0,
        0.0,
        48.164474084355888,
        48.113304239280865,
        49.263880833861094,
        50.067404630798272,
        51.57285974862792,
        52.529285853554043,
        52.997790015560994,
        53.555018849048167,
        53.890040931426654,
        54.351909213541148,
        54.990653917230958,
        54.988447621756265,
        55.021215529212242,
        53.702640368368527,
        54.069893216830053,
        53.70926189074104,
        53.786467350509028,
        53.964340108442215,
        0.0,
        0.0,
        57.146033769336263,
        56.98083620415369,
        56.789335175296102,
        56.681046852480407,
        56.67979806208384,
        56.668865557360576,
        56.687274870555505,
        56.705354384019437,
        56.747833669268388,
        56.750261727804343,
        56.773445619596465,
        56.742189319048691,
        56.720343749675216,
        56.71886224894903,
        56.756578146500736,
        56.742561044430559,
        56.627027346724695,
        56.605915414974028,
        56.554745887240117,
        56.528119689377476,
        56.466395947804855,
        56.370718108952971,
        56.473592880748598,
        56.506849640483047,
        56.617183555798555,
        56.811414363567721,
        57.342257213544407,
        57.580629144731148,
        57.725491145788041,
        57.748690476472802,
        57.732972959360353,
        57.614230324541204,
        57.438571249924181,
        57.423068750460743,
        57.42111295969373,
        57.394851933908384,
        57.403053986324366,
        57.496790079990362,
        57.637470288221678,
        57.747143756030908,
        57.807041854774894,
        57.827357609058787,
        57.626269365687989,
        57.736058462755864,
        58.720964901531737,
        57.856588465660828,
        56.496933613625373,
        0.0,
        0.0,
        0.0,
        0.0,
        0.0,
        58.978947416387271,
        58.768907233676195,
        58.786049570784584,
        58.864999126879354,
        58.96799781404237,
        58.977158613238529,
        59.019687144792712,
        59.055480092391328,
        59.03175837822063,
        58.978798537849137,
        58.964557207255169,
        58.971489140178853,
        59.003924452018694,
        59.026239202409833,
        59.059298201806399,
        59.057773630428464,
        59.249997467659014,
        59.133190945291062,
        58.935967508216827,
        59.041442655650961,
        0.0,
        0.0,
        0.0,
        36.123071842538067,
        33.059818952522654,
        0.0,
        0.0,
        61.187911428458129,
        61.284548269528358,
        61.22192818689993,
        61.213636885350518,
        61.17819842556387,
        61.19642613183872,
        61.200087485931618,
        61.239091073063534,
        61.241230302762922,
        61.165227229280369,
        61.146550822698899,
        61.080670389577314,
        61.071204482502566,
        60.94715464180387,
        61.119186459434097,
        60.375146978898442,
        60.768905548520095,
        60.705588937357525,
        61.270639535243006,
        62.1228315617345,
        59.774828033734323,
        58.953223116559364,
        58.650821680469967,
        58.657714458508707,
        58.761907766562899,
        58.83238102765602,
        58.853187448164938,
        58.883495207928995,
        58.913057535529916,
        58.910520086014465,
        58.911909281757922,
        58.892370392984482,
        58.926581763980181,
        58.965267918825504,
        58.981856081906201,
        59.031595047584617,
        58.979141216281484,
        58.943204908481896,
        58.899902594387306,
        58.895257103832741,
        58.925993027775938,
        58.940003065867714,
        58.969932165793828,
        59.049979170543878,
        59.055226346449359,
        59.026216732127963,
        58.974295216913774,
        58.915985956551467,
        58.954721495956122,
        59.022969364745755,
        59.043981339153092,
        59.052594395235992,
        59.040794864939414,
        59.019509764656334,
        59.030100017808287,
        59.0815981879257,
        59.087144459285966,
        59.055337251563984,
        59.119185559036843,
        59.126758865142129,
        59.159740087311143,
        59.113354094118463,
        59.269149727502267,
        59.161350028420507,
        58.169775938913361,
        0.0,
        0.0,
        0.0,
        0.0,
        0.0,
        0.0,
        0.0,
        61.999688554782161,
        62.372355196357994,
        62.65001025669082,
        62.726632827735351,
        62.641800032529602,
        62.707074137936829,
        62.891263180678102,
        62.968023742124423,
        62.867342022960649,
        62.874604457103089,
        62.719989723547762,
        62.682765517220787,
        62.751579437997108,
        62.84219679218188,
        62.663712966121665,
        62.615000072778606,
        64.231737975427023,
        0.0,
        0.0,
        0.0,
        0.0,
        0.0,
        0.0,
        60.167028243799521,
        60.167410253882821,
        60.181118698126355,
        60.093509428727955,
        59.972877124236931,
        59.898074446175926,
        59.897081098932162,
        59.901389229454807,
        59.849151649664172,
        59.830149477414103,
        59.879565116763771,
        59.897097341213708,
        59.924654379240145,
        59.908776255646075,
        59.852298687651427,
        60.043484912223732,
        60.139121406754796,
        60.917908429376681,
        59.7773279196891,
        58.194207910209208,
        0.0,
        0.0,
        0.0,
        0.0,
        0.0,
        0.0,
        0.0,
        0.0,
        0.0,
        0.0,
        0.0,
        0.0,
        0.0,
        0.0,
        0.0,
        0.0,
        0.0,
        0.0,
        0.0,
        0.0,
        0.0,
        0.0,
        0.0,
        0.0,
        0.0,
        0.0,
        0.0,
        0.0,
        0.0,
        0.0,
        53.61811640841934,
        53.696559834734643,
        54.052592235174977,
        54.503357039185531,
        54.995677862179285,
        55.137262159764546,
        55.369529242327488,
        55.704782195014801,
        55.961151580141454,
        56.297929027009857,
        0.0,
        0.0,
        0.0,
        0.0,
        0.0,
        0.0,
        0.0,
        0.0,
        0.0,
        0.0,
        0.0,
        0.0,
        0.0,
        0.0,
        0.0,
        0.0,
        0.0,
        0.0,
        0.0,
        0.0,
        0.0,
        0.0,
        0.0,
        0.0,
        0.0,
        0.0,
        0.0,
        0.0
    ],
    "time": [
        0.02,
        0.040000000000000001,
        0.059999999999999998,
        0.080000000000000002,
        0.10000000000000001,
        0.12,
        0.14000000000000001,
        0.16,
        0.17999999999999999,
        0.20000000000000001,
        0.22,
        0.23999999999999999,
        0.26000000000000001,
        0.28000000000000003,
        0.29999999999999999,
        0.32000000000000001,
        0.34000000000000002,
        0.35999999999999999,
        0.38,
        0.40000000000000002,
        0.41999999999999998,
        0.44,
        0.46000000000000002,
        0.47999999999999998,
        0.5,
        0.52000000000000002,
        0.54000000000000004,
        0.56000000000000005,
        0.57999999999999996,
        0.59999999999999998,
        0.62,
        0.64000000000000001,
        0.66000000000000003,
        0.68000000000000005,
        0.69999999999999996,
        0.71999999999999997,
        0.73999999999999999,
        0.76000000000000001,
        0.78000000000000003,
        0.80000000000000004,
        0.81999999999999995,
        0.83999999999999997,
        0.85999999999999999,
        0.88,
        0.90000000000000002,
        0.92000000000000004,
        0.93999999999999995,
        0.95999999999999996,
        0.97999999999999998,
        1.0,
        1.02,
        1.04,
        1.0600000000000001,
        1.0800000000000001,
        1.1000000000000001,
        1.1200000000000001,
        1.1399999999999999,
        1.1599999999999999,
        1.1799999999999999,
        1.2,
        1.22,
        1.24,
        1.26,
        1.28,
        1.3,
        1.3200000000000001,
        1.3400000000000001,
        1.3600000000000001,
        1.3799999999999999,
        1.3999999999999999,
        1.4199999999999999,
        1.4399999999999999,
        1.46,
        1.48,
        1.5,
        1.52,
        1.54,
        1.5600000000000001,
        1.5800000000000001,
        1.6000000000000001,
        1.6200000000000001,
        1.6399999999999999,
        1.6599999999999999,
        1.6799999999999999,
        1.7,
        1.72,
        1.74,
        1.76,
        1.78,
        1.8,
        1.8200000000000001,
        1.8400000000000001,
        1.8600000000000001,
        1.8799999999999999,
        1.8999999999999999,
        1.9199999999999999,
        1.9399999999999999,
        1.96,
        1.98,
        2.0,
        2.02,
        2.04,
        2.0600000000000001,
        2.0800000000000001,
        2.1000000000000001,
        2.1200000000000001,
        2.1400000000000001,
        2.1600000000000001,
        2.1800000000000002,
        2.2000000000000002,
        2.2200000000000002,
        2.2400000000000002,
        2.2599999999999998,
        2.2799999999999998,
        2.2999999999999998,
        2.3199999999999998,
        2.3399999999999999,
        2.3599999999999999,
        2.3799999999999999,
        2.3999999999999999,
        2.4199999999999999,
        2.4399999999999999,
        2.46,
        2.48,
        2.5,
        2.52,
        2.54,
        2.5600000000000001,
        2.5800000000000001,
        2.6000000000000001,
        2.6200000000000001,
        2.6400000000000001,
        2.6600000000000001,
        2.6800000000000002,
        2.7000000000000002,
        2.7200000000000002,
        2.7400000000000002,
        2.7599999999999998,
        2.7799999999999998,
        2.7999999999999998,
        2.8199999999999998,
        2.8399999999999999,
        2.8599999999999999,
        2.8799999999999999,
        2.8999999999999999,
        2.9199999999999999,
        2.9399999999999999,
        2.96,
        2.98,
        3.0,
        3.02,
        3.04,
        3.0600000000000001,
        3.0800000000000001,
        3.1000000000000001,
        3.1200000000000001,
        3.1400000000000001,
        3.1600000000000001,
        3.1800000000000002,
        3.2000000000000002,
        3.2200000000000002,
        3.2400000000000002,
        3.2599999999999998,
        3.2799999999999998,
        3.2999999999999998,
        3.3199999999999998,
        3.3399999999999999,
        3.3599999999999999,
        3.3799999999999999,
        3.3999999999999999,
        3.4199999999999999,
        3.4399999999999999,
        3.46,
        3.48,
        3.5,
        3.52,
        3.54,
        3.5600000000000001,
        3.5800000000000001,
        3.6000000000000001,
        3.6200000000000001,
        3.6400000000000001,
        3.6600000000000001,
        3.6800000000000002,
        3.7000000000000002,
        3.7200000000000002,
        3.7400000000000002,
        3.7599999999999998,
        3.7799999999999998,
        3.7999999999999998,
        3.8199999999999998,
        3.8399999999999999,
        3.8599999999999999,
        3.8799999999999999,
        3.8999999999999999,
        3.9199999999999999,
        3.9399999999999999,
        3.96,
        3.98,
        4.0,
        4.0199999999999996,
        4.04,
        4.0599999999999996,
        4.0800000000000001,
        4.0999999999999996,
        4.1200000000000001,
        4.1399999999999997,
        4.1600000000000001,
        4.1799999999999997,
        4.2000000000000002,
        4.2199999999999998,
        4.2400000000000002,
        4.2599999999999998,
        4.2800000000000002,
        4.2999999999999998,
        4.3200000000000003,
        4.3399999999999999,
        4.3600000000000003,
        4.3799999999999999,
        4.4000000000000004,
        4.4199999999999999,
        4.4400000000000004,
        4.46,
        4.4800000000000004,
        4.5,
        4.5199999999999996,
        4.54,
        4.5599999999999996,
        4.5800000000000001,
        4.5999999999999996,
        4.6200000000000001,
        4.6399999999999997,
        4.6600000000000001,
        4.6799999999999997,
        4.7000000000000002,
        4.7199999999999998,
        4.7400000000000002,
        4.7599999999999998,
        4.7800000000000002,
        4.7999999999999998,
        4.8200000000000003,
        4.8399999999999999,
        4.8600000000000003,
        4.8799999999999999,
        4.9000000000000004,
        4.9199999999999999,
        4.9400000000000004,
        4.96,
        4.9800000000000004,
        5.0,
        5.0199999999999996,
        5.04,
        5.0599999999999996,
        5.0800000000000001,
        5.0999999999999996,
        5.1200000000000001,
        5.1399999999999997,
        5.1600000000000001,
        5.1799999999999997,
        5.2000000000000002,
        5.2199999999999998,
        5.2400000000000002,
        5.2599999999999998,
        5.2800000000000002,
        5.2999999999999998,
        5.3200000000000003,
        5.3399999999999999,
        5.3600000000000003,
        5.3799999999999999,
        5.4000000000000004,
        5.4199999999999999,
        5.4400000000000004,
        5.46,
        5.4800000000000004,
        5.5,
        5.5199999999999996,
        5.54,
        5.5599999999999996,
        5.5800000000000001,
        5.5999999999999996,
        5.6200000000000001,
        5.6399999999999997,
        5.6600000000000001,
        5.6799999999999997,
        5.7000000000000002,
        5.7199999999999998,
        5.7400000000000002,
        5.7599999999999998,
        5.7800000000000002,
        5.7999999999999998,
        5.8200000000000003,
        5.8399999999999999,
        5.8600000000000003,
        5.8799999999999999,
        5.9000000000000004,
        5.9199999999999999,
        5.9400000000000004,
        5.96,
        5.9800000000000004,
        6.0,
        6.0199999999999996,
        6.04,
        6.0599999999999996,
        6.0800000000000001,
        6.0999999999999996,
        6.1200000000000001,
        6.1399999999999997,
        6.1600000000000001,
        6.1799999999999997,
        6.2000000000000002,
        6.2199999999999998,
        6.2400000000000002,
        6.2599999999999998,
        6.2800000000000002,
        6.2999999999999998,
        6.3200000000000003,
        6.3399999999999999,
        6.3600000000000003,
        6.3799999999999999,
        6.4000000000000004
    ]
}