{
    "DU": 68,
    "DV": 239,
    "F-measure": 0.8704663212435233,
    "F-measure Chroma": 0.8877374784110534,
    "FN": 7,
    "FNC": 0,
    "FNCch": 0,
    "FNI": 7,
    "FNIch": 7,
    "FP": 28,
    "GU": 89,
    "GV": 218,
    "Overall Accuracy": 0.8208469055374593,
    "Overall Chroma Accuracy": 0.8371335504885994,
    "Precision": 0.84,
    "Precision Chroma": 0.8566666666666667,
    "Raw Chroma Accuracy": 0.8990825688073395,
    "Raw Pitch Accuracy": 0.8761467889908257,
    "Recall": 0.9032258064516129,
    "Recall Chroma": 0.921146953405018,
    "TN": 61,
    "TO": 307,
    "TP": 211,
    "TPC": 191,
    "TPCch": 196,
    "TPI": 20,
    "TPIch": 15,
    "Voiced Chroma Accuracy": 0.8990825688073395,
    "Voiced Pitch Accuracy": 0.8761467889908257,
    "Voicing Accuracy": 0.8859934853420195,
    "Voicing Detection": 0.9678899082568807,
    "Voicing False Alarm": 0.3146067415730337
}