{
    "DU": 300,
    "DV": 193,
    "F-measure": 0.8558558558558559,
    "F-measure Chroma": 0.8828828828828829,
    "FN": 95,
    "FNC": 12,
    "FNCch": 27,
    "FNI": 83,
    "FNIch": 68,
    "FP": 3,
    "GU": 208,
    "GV": 285,
    "Overall Accuracy": 0.77079107505071,
    "Overall Chroma Accuracy": 0.795131845841785,
    "Precision": 0.9547738693467337,
    "Precision Chroma": 0.9849246231155779,
    "Raw Chroma Accuracy": 0.7508771929824561,
    "Raw Pitch Accuracy": 0.656140350877193,
    "Recall": 0.7755102040816326,
    "Recall Chroma": 0.8,
    "TN": 205,
    "TO": 493,
    "TP": 190,
    "TPC": 175,
    "TPCch": 187,
    "TPI": 15,
    "TPIch": 3,
    "Voiced Chroma Accuracy": 0.656140350877193,
    "Voiced Pitch Accuracy": 0.6140350877192983,
    "Voicing Accuracy": 0.8012170385395537,
    "Voicing Detection": 0.6666666666666666,
    "Voicing False Alarm": 0.014423076923076924
}