{
    "DU": 153,
    "DV": 225,
    "F-measure": 0.8115107913669064,
    "F-measure Chroma": 0.8949640287769784,
    "FN": 17,
    "FNC": 8,
    "FNCch": 11,
    "FNI": 9,
    "FNIch": 6,
    "FP": 44,
    "GU": 180,
    "GV": 198,
    "Overall Accuracy": 0.746031746031746,
    "Overall Chroma Accuracy": 0.8227513227513228,
    "Precision": 0.7811634349030471,
    "Precision Chroma": 0.8614958448753463,
    "Raw Chroma Accuracy": 0.9393939393939394,
    "Raw Pitch Accuracy": 0.7777777777777778,
    "Recall": 0.844311377245509,
    "Recall Chroma": 0.9311377245508982,
    "TN": 136,
    "TO": 378,
    "TP": 181,
    "TPC": 146,
    "TPCch": 175,
    "TPI": 35,
    "TPIch": 6,
    "Voiced Chroma Accuracy": 0.8838383838383839,
    "Voiced Pitch Accuracy": 0.7373737373737373,
    "Voicing Accuracy": 0.8386243386243386,
    "Voicing Detection": 0.9141414141414141,
    "Voicing False Alarm": 0.24444444444444444
}