{
    "DU": 167,
    "DV": 225,
    "F-measure": 0.7591036414565826,
    "F-measure Chroma": 0.8823529411764706,
    "FN": 51,
    "FNC": 8,
    "FNCch": 15,
    "FNI": 43,
    "FNIch": 36,
    "FP": 19,
    "GU": 135,
    "GV": 257,
    "Overall Accuracy": 0.6913265306122449,
    "Overall Chroma Accuracy": 0.8035714285714286,
    "Precision": 0.7947214076246334,
    "Precision Chroma": 0.9237536656891495,
    "Raw Chroma Accuracy": 0.8326848249027238,
    "Raw Pitch Accuracy": 0.6342412451361867,
    "Recall": 0.7265415549597856,
    "Recall Chroma": 0.8445040214477212,
    "TN": 116,
    "TO": 392,
    "TP": 206,
    "TPC": 155,
    "TPCch": 199,
    "TPI": 51,
    "TPIch": 7,
    "Voiced Chroma Accuracy": 0.77431906614786,
    "Voiced Pitch Accuracy": 0.603112840466926,
    "Voicing Accuracy": 0.8214285714285714,
    "Voicing Detection": 0.8015564202334631,
    "Voicing False Alarm": 0.14074074074074075
}