{
	"f0": [171.3659987,170.8622044,169.8562075,168.7260839,168.4516601,167.931324,166.8928591,166.2219059,166.1328342,166.3372726,166.2291387,166.1062381,164.9057714,163.7798361,159.6594824,158.2648952,160.2064278,163.6068131,163.9941656,0,0,0,256.2968452,257.8586144,258.2547421,259.3276343,259.8948068,257.9168012,256.845522,260.5770506,270.0603357,272.5353972,266.1018297,268.2517295,275.4501449,280.8972496,277.8455339,268.5183558,269.465656,268.650053,270.2077675,272.9037577,274.9335776,283.3524449,268.8496888,256.288572,247.0733952,243.0343028,242.1573491,240.1443878,239.9775856,240.0580455,241.1939834,241.4796967,242.7986789,243.9706241,243.6411559,242.4078125,242.4861582,242.1156757,234.0364348,234.3788861,245.2283,241.9235976,243.9096852,244.2379862,246.6821975,241.8032542,237.1574152,228.5476328,223.0745069,220.2184174,217.7850279,216.4350477,216.3196449,216.7602712,219.1960201,221.3080262,220.5705537,220.7960518,221.933372,224.8922048,225.4860366,226.176525,227.5680555,228.7461853,230.1163152,233.6175465,233.5231228,232.6529583,233.1010786,232.70786,228.9416576,228.6035115,228.9835388,230.1645371,231.1864735,232.0111996,234.0961381,234.1074314,233.6139031,233.6918688,233.2440611,233.928719,232.1897322,229.1241888,229.2460556,230.4706461,229.7637302,232.4918645,235.6871718,236.1384943,234.9394096,233.929446,233.1115357,233.1973304,232.6504861,231.6833322,231.0004705,230.5916888,230.4248342,229.7647384,228.9985589,228.4094958,227.7509965,227.4978609,227.3275918,228.0071999,228.4988766,228.9595089,231.1433322,230.9453899,234.0598546,238.2842333,238.6562498,239.6344547,239.2770187,239.3089197,239.6911454,239.9823077,241.447277,243.1053054,242.8337905,240.6818134,240.4470751,240.7189043,236.0706075,234.8272992,237.1045086,235.9999883,233.6826585,233.7558833,231.7675264,229.7897636,232.1292029,232.7186257,230.4690942,230.2382552,229.9279454,230.0878618,230.4639577,230.321963,233.6398228,235.0538658,234.0915784,232.667111,230.3726025,230.4085874,231.129769,230.6534575,230.1510186,231.3968628,228.0828123,238.1436699,237.4327605,236.8297967,235.1021073,231.2896348,229.9040587,233.3112593,233.4982386,232.2389455,234.6003288,234.6783264,224.4636093,0,0,0,0,0,0,0,0,0,0,212.1803552,205.4459739,203.9578643,205.092837,214.6306352,222.4737009,225.065343,226.7537117,226.7618656,226.3397639,227.8782786,227.3680153,227.1772384,229.2049799,230.1793701,230.3570742,228.9825147,226.3625073,223.5855286,223.4791168,233.0536106,236.4925659,0,0,0,0,0,238.7592565,240.2147152,240.2242918,240.140001,239.8099242,241.1831785,233.6500603,233.7962129,232.8307317,233.4523957,235.3618885,236.8226363,237.4453207,236.8066393,237.0305998,236.7809616,235.1289839,235.9182695,235.0355188,235.2217811,233.7860853,231.1357524,230.6905999,230.4031521,230.3106368,229.9500402,229.3450605,229.0583579,228.5097214,227.9123935,227.8516471,228.0172349,228.8396063,230.2216928,229.4924128,227.3444507,225.5808386,223.627034,220.0850228,222.6847255,222.1696514,227.5082861,242.9798343,247.2551792,242.9707061,241.7989726,240.7813554,239.5264881,238.4134247,238.6438577,238.0490847,238.6950563,238.7932821,239.1218214,240.1555007,240.7976033,240.8542387,240.3360942,240.3715946,238.4622661,239.2549491,239.144322,238.6530283,240.0096486,243.0638956,238.7166471,235.3717624,232.54391,230.2737159,229.6778389,230.4720824,230.0120609,228.1606973,227.9885189,228.4504996,228.6024389,229.0520095,230.5460112,229.8689285,226.2657417,226.1679148,226.8562713,227.9346147,229.1143105,222.1015934,208.4627179,199.6950535,196.465132,197.5155947,198.1581181,199.8281809,201.5241056,202.0379311,200.9261239,199.3811128,201.1742736,199.8084105,199.9325164,200.855235,202.2403671,197.8145961,183.0891417,180.3949677,180.764832,178.9063902,177.1040215,176.7388109,177.9410091,185.6381959,187.9762543,185.0352609,183.0916636,186.0094178,186.144649,180.2781275,177.0772603,172.3134994,182.7858937,188.670471,185.5724494,181.9240956,177.7219631,0,0,0,182.3472572,189.1957666,189.6100177,185.3766016,184.1485614,188.570723,0,0,0,0,0,383.9384625,385.4564321,375.8671551,0,0,0,0,0,0,0,184.9617618,184.2632589,180.9938134,180.8280314,182.4519311,180.8923252,182.7832241,185.9934875,186.2691675,180.7510826,175.9257883,179.3274809,182.3371829,182.845852,180.3901676,180.7679176,181.4580467,181.2697227,179.1381371,179.6480172,178.7942849,181.2725976,182.0310634,181.0274268,184.1766837,179.9894486,182.7085158,183.0373625,180.3806002,0,0,0,0,0,0,0,0,0,0,0,0,0,0],
	"score": [0.6885370815,0.7966008857,0.8433399505,0.7883931735,0.8095553764,0.8584278544,0.8865576959,0.8940745089,0.8566677095,0.8553541458,0.8619035278,0.8529595514,0.8144523439,0.7893847935,0.643057614,0.6714094947,0.6767301772,0.5504687439,0.4302099209,0.2449832679,0.2635055982,0.2206588025,0.5321373949,0.7833418733,0.868325975,0.9064156424,0.8776022609,0.7767769328,0.6439014712,0.5265022458,0.661013663,0.6859241634,0.7212756841,0.7997047504,0.6895299929,0.6766196541,0.3346552059,0.551041913,0.7397659043,0.793220032,0.8020942179,0.8239504075,0.6304927678,0.5724056275,0.520586735,0.5362466368,0.6010729513,0.6563670603,0.6121931263,0.7518619771,0.8501845422,0.8691415086,0.7658588873,0.755149853,0.7732701922,0.8670377553,0.9100957532,0.90975713,0.8721836938,0.7654057197,0.6567215382,0.6961148749,0.5745791679,0.403297209,0.4536469067,0.4906459712,0.4491169022,0.6970572375,0.8088591096,0.8306159827,0.8781181559,0.8741026548,0.8485806895,0.8195527941,0.8434081931,0.8536822261,0.8559325243,0.8387973892,0.8430858784,0.8602349778,0.8949818565,0.9079526963,0.9000052407,0.8746769033,0.9085287879,0.9088754422,0.8683700702,0.8910136605,0.866854471,0.8713634134,0.8796701217,0.9094177653,0.9150074988,0.9199708907,0.9393079336,0.9477641123,0.9529178358,0.9447708699,0.9033188266,0.9114775627,0.9189737688,0.8979457997,0.8974517241,0.9277629884,0.9251775238,0.9125235994,0.7902472865,0.8015932529,0.7949360496,0.843195525,0.8964981834,0.9290173256,0.9205633289,0.9048651288,0.9072069964,0.9232183244,0.9401079744,0.9534880049,0.9548699321,0.9494152994,0.9377185708,0.9113543516,0.9341137835,0.9359685873,0.9289504437,0.900814142,0.9015429976,0.9027215194,0.823264144,0.8013393266,0.8708919026,0.8603372756,0.7761699373,0.8248148943,0.9094312248,0.9356268969,0.9451044038,0.9478852127,0.9520955894,0.9407056157,0.9203415747,0.8586297263,0.7993779994,0.8284884194,0.9033609637,0.8809238417,0.8105590525,0.8602807783,0.8812027574,0.8058267726,0.8355263626,0.9042258578,0.9308997756,0.943905501,0.9486256586,0.9392107904,0.9310332377,0.939944185,0.9535683435,0.9476100333,0.9309375496,0.9435268472,0.9286028478,0.8908168369,0.8485077571,0.8795903891,0.8854767393,0.8717792304,0.8849708133,0.9097885308,0.8750945866,0.6604375479,0.4209099215,0.4710528557,0.7129357124,0.8599962546,0.9011798546,0.9235692658,0.9065364217,0.8719287276,0.8906887703,0.9227843668,0.9080411092,0.7634119962,0.427387208,0.1402740286,0.2800341266,0.1759576461,0.2706138906,0.3331527471,0.248250438,0.2422948695,0.3119928675,0.3814830939,0.2858116833,0.4121681748,0.7839800932,0.8948581663,0.9300092897,0.8962120944,0.9098159148,0.9218340317,0.9410343344,0.9479370001,0.9550099106,0.9630439522,0.9603053258,0.9445151521,0.9450138317,0.9335014542,0.9489542282,0.9487561475,0.9313773716,0.9142972947,0.8398124386,0.6208633705,0.2879979232,0.3929806119,0.2161762309,0.2454539424,0.2881384736,0.2760161076,0.5586585264,0.7695965558,0.8513223676,0.8344374431,0.7153635669,0.5863966981,0.6522126739,0.7299564659,0.8022896567,0.867858316,0.8885393267,0.8945865255,0.9022417157,0.9024183189,0.9185644322,0.8913462046,0.845513655,0.8730713414,0.9132222667,0.869787606,0.4402183674,0.2878592449,0.5845605001,0.7458095204,0.8761896086,0.909654954,0.9000775668,0.9137019432,0.9365691424,0.9480837215,0.9467590727,0.9434622152,0.9060820122,0.8952439681,0.8856968412,0.9077059414,0.9208117095,0.8756608625,0.7783130177,0.5911284487,0.5511218058,0.6852771761,0.7439720737,0.8199507858,0.8801191652,0.924443027,0.9398168838,0.9369402245,0.9096263053,0.9154944739,0.9227506477,0.9147949525,0.926484616,0.9413468949,0.9503545856,0.9455234525,0.9049408223,0.8801295401,0.8660885943,0.849566157,0.8768245123,0.921622525,0.9339390209,0.875469209,0.7347182118,0.8037828401,0.8829563543,0.8869980671,0.9123442136,0.917272394,0.9309105342,0.9379474874,0.9463809432,0.9471591796,0.9450404086,0.9223254157,0.8846704288,0.8653437986,0.8517631779,0.847461696,0.879360522,0.8652938265,0.8820381842,0.8863387983,0.7267136969,0.7629437755,0.8195323823,0.8805593108,0.8837424997,0.9142983672,0.9271209575,0.9147497099,0.8799551887,0.7549057463,0.577092099,0.6897868647,0.7412232672,0.7456168513,0.7052671937,0.6039547846,0.6303840538,0.7010668421,0.563937845,0.6134644572,0.7354778068,0.8450523747,0.8452823465,0.7922107251,0.6463714201,0.7369625841,0.7631368995,0.7554493489,0.8027844216,0.6658422357,0.4642219195,0.4114196313,0.4635583735,0.5511083243,0.6943202856,0.6633695687,0.6598795412,0.5381998243,0.3344102612,0.2282653619,0.2686588208,0.3301423974,0.5427158136,0.7073794716,0.6706361752,0.3793834673,0.4622871235,0.3471513221,0.4913600474,0.3248752377,0.4152675596,0.3770219749,0.45189668,0.6066183334,0.4777659201,0.4254821614,0.2193484535,0.3110923501,0.3750067606,0.2638860311,0.2060407751,0.2785916267,0.5898551737,0.7150262651,0.7588789194,0.7078520873,0.5301192735,0.5192147293,0.6760105116,0.6954512503,0.7387257906,0.663170605,0.7958521703,0.837263915,0.8206243894,0.8151017435,0.8756347058,0.9077696446,0.9186196558,0.8799093987,0.740573307,0.7420748084,0.7820586012,0.8191195638,0.8465662954,0.8323444673,0.7519280538,0.4296723412,0.4754235873,0.5152313783,0.4359243527,0.2446775867,0.2203367412,0.2672201491,0.3675688169,0.1687794709,0.1607512565,0.1372007885,0.1860164129,0.3753451285,0.2730932143,0.2985612691,0.1466684568,0.03666711421,0.1601836399]
}
