{
    "DU": 142,
    "DV": 401,
    "F-measure": 0.7975334018499486,
    "F-measure Chroma": 0.8633093525179857,
    "FN": 0,
    "FNC": 0,
    "FNCch": 0,
    "FNI": 0,
    "FNIch": 0,
    "FP": 113,
    "GU": 255,
    "GV": 288,
    "Overall Accuracy": 0.714548802946593,
    "Overall Chroma Accuracy": 0.7734806629834254,
    "Precision": 0.714548802946593,
    "Precision Chroma": 0.7734806629834254,
    "Raw Chroma Accuracy": 0.9652777777777778,
    "Raw Pitch Accuracy": 0.8541666666666666,
    "Recall": 0.9023255813953488,
    "Recall Chroma": 0.9767441860465116,
    "TN": 142,
    "TO": 543,
    "TP": 288,
    "TPC": 246,
    "TPCch": 278,
    "TPI": 42,
    "TPIch": 10,
    "Voiced Chroma Accuracy": 0.9652777777777778,
    "Voiced Pitch Accuracy": 0.8541666666666666,
    "Voicing Accuracy": 0.7918968692449355,
    "Voicing Detection": 1.0,
    "Voicing False Alarm": 0.44313725490196076
}