{
	"f0": [NaN,50.64214864,50.97508853,44.42268192,45.17399484,47.6967568,47.21309485,57.91080137,53.3108577,53.11955917,52.19354484,38.17245988,37.88661011,45.49771399,44.8629469,46.02642158,56.46727057,55.78826823,54.71262168,54.50528578,53.69991543,52.15894399,53.11955917,49.01176426,37.44482153,37.58843373,37.83733846,37.65525153,42.81686784,52.83886386,54.21795494,54.24681543,54.4974685,54.4727618,54.06503776,54.25662439,54.35761354,54.50370813,55.08592311,55.98819888,56.22503645,56.29695348,56.13054846,56.0929337,55.92712658,55.91984035,56.0324863,55.99159905,55.89711796,55.97962213,55.90510481,56.16696104,56.05448121,55.97564979,56.19875279,56.11061865,55.91490339,56.24530179,56.36360356,56.3394218,55.9102065,55.57484814,55.13489482,51.45459897,44.61593029,38.3277694,56.60882365,62.43591165,63.28528258,63.55996083,63.95460039,64.12244176,64.55802863,65.00585286,65.18432773,65.38225379,65.65937938,65.68977234,65.49614052,65.06296335,65.48100375,65.38955079,65.37284874,65.70573026,65.95785231,66.18625393,66.33197358,66.46198549,66.51657701,66.01913287,65.83352875,66.18224476,66.15565665,66.17026502,66.3035301,66.47163854,66.40891296,66.63180769,66.49948156,66.42063451,66.40389921,66.37199057,66.22365522,66.06628521,65.91143326,66.13753766,66.25436547,66.3243971,66.26304666,66.10429771,66.12035138,66.11141774,66.0377524,66.04687685,66.11285048,66.12798088,66.12590355,66.13268195,66.11885393,66.07038675,66.14492196,66.21446853,66.27110425,66.32963539,66.46176182,66.48807988,66.37263867,66.35630119,66.38762954,66.40370228,66.39705716,66.34301395,66.23711334,66.21476204,65.42658132,65.87454711,66.2074342,65.09951752,64.62499278,63.48682058,63.06204922,62.59500549,63.73549933,64.11006418,63.811801,63.77658916,63.48682058,44.88538411,44.33015342,63.0936944,63.14399075,63.14148762,62.25253486,62.22059903,62.18680362,61.99554211,62.25837662,62.45867144,62.505415,62.59089432,62.74278547,63.08707524,62.95067696,62.88429568,62.99814668,63.28221767,63.19210584,63.09319322,63.03216196,63.09569801,63.3256188,63.2792611,63.29262742,63.34982714,63.42408059,63.46263435,63.50089558,63.72080159,63.90284173,63.79556928,64.01106149,64.20672487,64.42327794,64.84979375,64.94284734,64.96291288,64.89669646,64.94720175,64.9818963,64.94232988,64.95172185,65.01381198,65.13331324,65.17484935,65.28234445,65.36260854,64.87609487,65.28904669,65.26358092,65.28067454,65.3386786,65.17623171,65.34490697,65.3911763,65.36353701,65.45105216,65.8561565,66.1731221,66.32084472,66.34222907,66.22193341,66.39385775,66.04670153,65.94954541,65.8724891,65.79983781,65.88177181,65.75995763,65.78692228,65.75068733,65.72519608,65.7316403,65.32391671,65.40465427,65.31823736,65.23094767,65.28081771,65.35669655,65.54246641,65.68981687,65.88819993,66.16637163,66.20506017,66.25402337,66.26584688,66.08553577,66.13153177,66.34890925,66.04935641,66.20795422,66.42854011,66.49377769,66.54827326,66.53699021,66.4843738,66.40777409,66.32739578,66.31903012,66.15932125,66.24566069,66.43578913,66.61895773,66.56765913,66.47636834,66.46153451,66.43163908,66.37404715,66.36442489,66.18698866,65.73722195,65.94850749,66.17371146,66.2585164,66.2956515,66.31359411,66.30023169,66.37041336,66.28966613,66.05720782,66.11247581,66.36218226,66.40642203,66.40262699,66.36508118,66.26977086,65.89212807,65.67348744,65.61341653,65.25345097,65.35808974,65.35951705,65.31593033,65.30566232,65.34349881,65.35667832,65.45993899,65.33588686,65.19194854,65.09694696,64.88456859,65.07185371,65.1406301,65.12172982,65.07623658,65.20149328,65.28571827,65.29569687,65.38437598,65.3841288,65.29511813,65.20700206,65.15100058,65.1065386,64.02767497,64.19354484,64.15424919,64.36089146,64.47997954,64.69786246,64.971237,65.1685228,65.24414962,65.34220249,65.35959645,65.31837479,65.38776795,65.30537938,65.20444281,65.21158449,65.23910158,65.31178107,65.37877022,65.42687226,65.41520074,65.47321345,65.44535971,65.24416641,64.63752806,63.90681507,63.73079497,63.47998158,62.58695527,62.5787751,62.55273238,62.5297941,62.53767505,62.53999908,62.36623943,61.89199155,61.01612232,61.59170139,62.06382599,62.33732521,62.34379328,62.3444119,62.05984126,61.86318305,61.64734486,61.89500193,62.23473113,61.96781915,61.91942965,62.32841955,62.05721226,61.21215216,61.72078945,61.91603845,62.12816497,62.20915339,62.30378933,62.37638485,61.96242613,61.79768011,61.85302946,62.15444483,61.20211115,62.31165678,46.28547281,61.52483579,61.89178846,61.84359839,61.71799521,62.4780494,61.52483579,52.76489263,44.87848125,49.75901864,62.33530031,62.1055279,61.80730675,61.49016932,62.4780494,61.82943211,62.02104104,46.24985504,49.74594117,63.88827099,62.67960869,62.34430197,62.07840096,61.56215009,61.16252269,37.6239522,64.09573022,61.56852206,62.00684194,62.2086506,61.92402898,62.05146751,62.07609632,61.10270248,61.49251319,61.99758484,61.98741284,61.78090593,61.819652,61.76986922,61.38739416,62.04893821,61.43761978,61.63845219,61.65747887,61.89824071,63.14399075,62.50895015,62.20270813,62.06318062,62.7533037,61.21841468,60.52065512,50.64214864,43.26514982,52.01414075,76.93035138,76.93035138,76.93035138,76.93035138,76.93035138,76.93035138,76.93035138,NaN,NaN],
	"ap0": [NaN,0.498347686,0.4860183928,0.7442024022,0.4728396663,0.3479318636,0.5171196058,0.5459680881,0.2846064899,0.3405549895,0.547947938,0.3073165919,0.5647391202,0.6960129641,0.7536088978,0.6620321802,0.3524422952,0.3126939553,0.2554435996,0.2859824468,0.5008914268,0.5886994811,0.5581151134,0.515354491,0.2445908907,0.3641716289,0.5201649419,0.46731393,0.8593886581,0.6159296142,0.5684279455,0.1053600231,0.04909359381,0.03671578913,0.03410195287,0.02480048907,0.01362275352,0.02259214253,0.06447813459,0.0339476221,0.01741158237,0.01254879248,0.03108987659,0.09231032783,0.06380964486,0.02131195195,0.01321061938,0.01450950205,0.01722072093,0.03640868929,0.06443510805,0.1473043562,0.1408155842,0.06169009196,0.04230324859,0.04063241429,0.05357491113,0.06682565908,0.09885203468,0.06673047198,0.04139545838,0.06427082137,0.2956570774,0.4972276577,0.5075027065,0.6506252601,0.6423804685,0.2915616217,0.04447057698,0.04931319647,0.1235985217,0.2533040394,0.298850059,0.0681085,0.03925481337,0.04527294972,0.06160145123,0.07409741471,0.0877301475,0.1161409186,0.05754860131,0.03379165695,0.02151750443,0.01328093531,0.008630732779,0.006077595513,0.005088317451,0.01268453148,0.05057861316,0.05107648533,0.03184215718,0.01300442416,0.005986188771,0.006616981333,0.01426678234,0.02686051923,0.02537070298,0.01176350174,0.00417820657,0.001793952588,0.003362668323,0.00861698961,0.01728363319,0.04014282133,0.04334812071,0.01142733231,0.002072353536,0.002180411051,0.003811331321,0.004637597062,0.004570233097,0.003566857669,0.003369018778,0.004239667199,0.003457926708,0.002416990844,0.002821398402,0.005118682165,0.01236716089,0.01032516766,0.004411677466,0.004066337167,0.01171795057,0.0242208442,0.01870860603,0.006715579234,0.003508786942,0.001822124317,0.003771129042,0.008802364408,0.01244095881,0.01855413259,0.06493926943,0.1374332132,0.1213476895,0.06009023316,0.1994172882,0.1071394491,0.1600301747,0.1879982076,0.1101306969,0.1412197332,0.2450685646,0.07965475902,0.07190714503,0.08559164365,0.5330772742,0.3915239884,0.4098492863,0.2543688153,0.1857007189,0.1704566252,0.0634023145,0.04134433288,0.03343953796,0.08318379174,0.1008557242,0.09562163128,0.1343437869,0.03311859972,0.01919058041,0.05313844219,0.04364413491,0.01744169482,0.01467650205,0.06737432791,0.09731203061,0.1140345805,0.06278904986,0.04519430891,0.09474376341,0.03657803154,0.009194050357,0.005559929445,0.005652133102,0.02555658787,0.08286884187,0.1902223432,0.129623782,0.1338250632,0.0539191394,0.03679978315,0.02522316172,0.04301991142,0.02269936639,0.01795630347,0.01185628158,0.008339160206,0.0061370455,0.005968541818,0.01289595273,0.01333715537,0.007892221014,0.009532200597,0.01607375758,0.02955793965,0.1316648945,0.2270478591,0.5517051161,0.1807733395,0.03870978544,0.01149777543,0.005126468431,0.004390159271,0.01109572419,0.04758183934,0.06273160929,0.0291560385,0.02248346699,0.01980432949,0.03217552119,0.04416625966,0.01982234269,0.02030162289,0.05630615767,0.02815606101,0.02366844295,0.03414557126,0.09751672675,0.05319842156,0.03987120141,0.1753574159,0.1852890509,0.06504848753,0.02465788966,0.00489078593,0.009931218344,0.02308313078,0.1313653123,0.1402529617,0.07429939714,0.06511739371,0.02396160401,0.01286902317,0.03178625187,0.02961072819,0.01552458102,0.02484657764,0.03074036638,0.02526834418,0.01118564256,0.006725268243,0.0055072265,0.002754370747,0.002232501191,0.003793280492,0.007897388143,0.02396779757,0.03896241233,0.07899758382,0.04192466493,0.02318211714,0.01623400139,0.00523043818,0.004128022012,0.007102652485,0.01133570559,0.01928311497,0.0442003944,0.1092707788,0.03754607197,0.01086222689,0.003627375502,0.00762922978,0.01554413729,0.02227087744,0.02161130644,0.02211242772,0.05613896824,0.03626057979,0.01628325684,0.005211129369,0.00346420124,0.005454092454,0.01736035168,0.05075366143,0.02718037681,0.01381788865,0.02922885454,0.009169037873,0.004061277882,0.003859831902,0.006014268709,0.004567345043,0.003677060825,0.00527406803,0.01354515258,0.02036053946,0.02508373702,0.02518661884,0.02022641511,0.01244498247,0.01007294787,0.008651041608,0.006290464536,0.0113601629,0.01851737424,0.01185764933,0.01147548669,0.01028530715,0.007921353898,0.00814497547,0.02218828176,0.1020075487,0.1764205264,0.1700613981,0.09009470666,0.0748267655,0.03466667291,0.01027704214,0.009164124188,0.01516275877,0.02580682301,0.03121023876,0.01870024871,0.00971429456,0.01412331173,0.01886496574,0.01536857428,0.0109055807,0.008999921564,0.01591840039,0.03144101563,0.01666762564,0.004876755089,0.002308296361,0.01114900953,0.04607194439,0.1098975079,0.106731232,0.1108741935,0.128279196,0.05461176017,0.02709099776,0.03733294505,0.05538709697,0.08330606908,0.1310357834,0.1305009299,0.05952874944,0.03898959699,0.03751094794,0.01877693946,0.01055251157,0.0252903063,0.03781015956,0.05419616821,0.0851587596,0.07253340119,0.03491228111,0.03104105738,0.02828970073,0.0291902443,0.114621169,0.2073132244,0.09037845254,0.1309006596,0.1271821466,0.0900447614,0.04258040101,0.03475933994,0.07219366302,0.0737263114,0.0743826024,0.1280048167,0.1561713454,0.8123323236,1.110416132,0.1326567291,0.07028732833,0.06632696504,0.1271984131,0.2941248267,0.4376431923,0.8490631106,0.6008216039,0.7068036248,0.343015855,0.1603012851,0.2310175548,0.3106595542,0.1619832463,0.3910373824,0.5659940565,0.514877014,0.6728597933,0.2562616494,0.1571341636,0.1211390298,0.117778872,0.2158438723,0.4091246113,0.3401413838,0.4460001741,0.4265942879,0.1822227598,0.1920737381,0.2737665889,0.3359426339,0.4087765409,0.3153263868,0.2268455569,0.02763597295,0.01465511916,0.09610238256,0.2595813729,0.2386305972,0.2190848661,0.3232135136,0.186829056,0.1084333565,0.1133059342,0.2222635502,0.1533032719,0.04697290623,0.04562758092,0.1021996289,0.2889669928,0.3211355557,0.2523177811,0.8506723849,0.5880465417,1,1,1,1,1,1,1,1,NaN,NaN],
	"ap": [NaN,0.6095898262,0.111701711,0.550734642,0.8212702653,0.2286062199,0.1995035573,0.420946453,0.8447279673,0.3436439637,0.153777261,0.1512565223,0.1810052196,0.3530384795,0.3537509716,0.2999266602,0.5886591265,0.2403585766,0.1597547117,0.06760285569,0.1467309498,0.2865572631,0.2355176449,0.5707663357,0.382995471,0.03744607898,0.1584127314,0.2581112712,0.3941973646,0.2693599949,0.4207362514,0.6799398076,0.4633245877,0.02324879182,0.02071117844,0.02833240762,0.008255325361,0.008897379142,0.01008680212,0.02281698618,0.02972950665,0.007837839886,0.01181779214,0.00625755521,0.1149102351,0.2853713046,0.0187769967,0.00505593168,0.004558332077,0.00593734997,0.03649231779,0.04225531206,0.0333370386,0.1661051766,0.0471669622,0.03791501736,0.04470335912,0.01444010256,0.01033894711,0.03623270293,0.0264957522,0.03061494632,0.02374850703,0.5856335169,0.3272235996,0.3400380571,0.2596697762,0.5340880004,0.5909831915,0.05740333507,0.02041177108,0.03338679587,0.6753712294,0.1408860631,0.02996114771,0.01669923407,0.02031486736,0.05817982336,0.04296982272,0.02319338211,0.04665551029,0.06734691537,0.01642772393,0.04035959922,0.01772328877,0.01056242628,0.007132654495,0.003276183913,0.007127201806,0.01575445449,0.0475038698,0.02119349268,0.03278028075,0.001504773898,0.004509328395,0.02235688376,0.001266322233,0.0333621738,0.01252697762,0.00787623678,0.001210848322,0.001291476635,0.004678268501,0.01572009269,0.02971263861,0.03022493307,0.04724540203,0.001530142808,0.00140079074,0.003014160745,0.001126272218,0.003592308375,0.002477220003,0.0008183082055,0.00512941819,0.001977037763,0.0009604743696,0.0005236024641,0.001963778331,0.006460838595,0.004488646656,0.0006349880371,0.001730288362,0.02002618712,0.005368048525,0.01578103905,0.007977202344,0.003936319146,0.0004828663316,0.0003918102984,0.0002297482451,0.005375517434,0.01526804627,0.02235076253,0.08564061243,0.1829375143,0.1064238694,0.06790297508,0.04564784989,0.0529134683,0.2368571862,0.09349257035,0.06652861085,0.1350673894,0.0341800964,0.05362446052,0.01714656378,0.1056110527,0.2115492528,0.1667068234,0.3462390864,0.2988847452,0.0553479594,0.2588804643,0.01416352557,0.01410783573,0.02872090849,0.01709400874,0.02610320056,0.1360468349,0.09394707773,0.02843370537,0.0066503101,0.03242279547,0.005602736636,0.008794535941,0.006171565869,0.05663325179,0.02880172035,0.03212310836,0.004399107514,0.03863182907,0.1496714983,0.00851008434,0.001734428699,0.0006339635192,0.0001752224851,0.03948971317,0.1980505827,0.02534468691,0.01240895308,0.07507657297,0.08184383267,0.02227913911,0.01727200325,0.07204314352,0.009222908378,0.01861398127,0.003076395376,0.002220362072,0.001157660339,0.005836679403,0.01469263036,0.007893744362,0.0009250220676,0.007101854011,0.004590975808,0.4371652713,0.2784807186,0.2492410815,0.01197299326,0.0331524073,0.005257679283,0.002572568164,0.0002752665767,0.00126338109,0.03480101356,0.1362859305,0.02386958053,0.02526469486,0.00405063058,0.01509954647,0.03725865941,0.0558411497,0.0006810630229,0.06600532005,0.01302700897,0.05327015085,0.005303455546,0.01870419642,0.07959956103,0.00777836794,0.1122859887,0.7224670374,0.05015280482,0.05485642692,0.005542110489,0.0006061920755,0.01779443608,0.1273196933,0.06042554182,0.1024538995,0.04675685097,0.02956824714,0.003697037464,0.007242157222,0.05067511887,0.003574467854,0.008706236789,0.01529821962,0.01293358211,0.004554072508,0.006371199787,0.0006355401883,0.001790853406,0.0006073736597,5.33149724e-05,0.008003459793,0.002663744283,0.03564129091,0.02070862448,0.03436833318,0.007777627044,0.02252661451,0.005725513941,0.0006498506234,0.001965526238,0.004311022849,0.007911923422,0.01725982616,0.08875182037,0.05928872257,0.03039502929,0.0005482283081,0.005157733009,0.008539366996,0.009531583185,0.02043948657,0.009025448079,0.02374009124,0.02580447628,0.02500366566,0.01313566785,0.0009604010437,0.0004450050064,0.0071220881,0.0397220225,0.03054322727,0.004800229877,0.008200591026,0.01516214809,0.001283808853,0.001771749527,0.009067236312,0.00125666063,0.0006337376253,0.0009154211698,0.002233516229,0.00330111119,0.009198009343,0.004295168279,0.007702390008,0.005269870833,0.006500027268,0.01244202792,0.004995556995,0.006942641195,0.007243729247,0.00561994272,0.01012252788,0.002701982048,0.002207382625,0.004867578521,0.08340403041,0.03671215017,0.03805220009,0.06188519814,0.03669279981,0.06576544162,0.06418373877,0.00288460869,0.003691308245,0.003246189453,0.006493799823,0.02885797353,0.007184095783,0.0009808518244,0.01183633499,0.007669040335,0.01055385491,0.002918280631,0.001071835085,0.01595494299,0.02185616479,0.01576928459,0.006420907118,0.002460978309,0.01485189284,0.03445975331,0.01766211386,0.02485761012,0.06332945338,0.01733612133,0.5400145238,0.006370343973,0.01193828105,0.03200202469,0.0239446126,0.05968023291,0.1902481488,0.1069096096,0.05210227125,0.01609078102,0.005782804437,0.008700175496,0.01301961855,0.007794813114,0.05514563806,0.08191620164,0.1148881699,0.006846050834,0.05526822295,0.03282501537,0.02301917438,0.04020417102,0.06483650981,0.2277995808,0.2434437265,0.01152626251,0.02664305822,0.05274693161,0.01202025658,0.06660511121,0.03720254887,0.02685547182,0.04626482139,0.2325640549,0.2933237705,0.5720091569,0.1499105041,0.07679169493,0.008107418616,0.2232389178,0.4630268876,0.757442572,0.5296449595,0.7072016492,0.7255127596,0.5724117138,0.09570739076,0.2185514109,0.2107949564,0.1209145024,0.1476891603,0.3952272163,0.174238396,0.2896298145,0.6226509173,0.1956555333,0.0656798759,0.06518357345,0.03011469188,0.1735290419,0.2947136099,0.198832039,0.244191506,0.1284316382,0.1367082479,0.1945556917,0.0330591663,0.4782057621,0.03243358552,0.1182515135,0.08522267253,0.004545930403,0.02859654049,0.1412762563,0.3097503144,0.05949210859,0.4988965916,0.302933915,0.01863965052,0.08296968345,0.2526814339,0.1779324137,0.09335100585,0.0124295567,0.07211710836,0.2002901667,0.4550941016,0.3600877755,0.2889901308,1,1,1,1,1,1,1,1,NaN,NaN],
	"pwr": [NaN,4.1009509e-06,1.059264596e-05,3.342189424e-05,2.394273098e-05,2.790841418e-05,2.529878202e-06,1.304811609e-06,1.241807412e-06,1.09044377e-06,1.76031117e-05,1.961591674e-05,1.430136927e-05,1.698299092e-05,6.426352908e-06,4.757689792e-06,2.890502413e-06,4.818299576e-06,1.687028218e-05,3.083679864e-05,3.183730388e-05,7.841702421e-06,1.866474957e-05,4.727107084e-06,2.434546747e-05,0.0006151268224,0.0006137521849,0.0004822185778,0.0006002201861,0.0002499191847,0.0007002389865,0.0001567614974,0.0003579757378,0.04827376065,0.04598172358,0.02028455359,0.03762028689,0.03770451862,0.03107365438,0.007931034034,0.004709402483,0.02504930339,0.0202375166,0.02036521567,0.003044942754,0.0005316891968,0.02746633674,0.06137978367,0.09733271126,0.05611190702,0.01868137381,0.006093175745,0.004263231753,0.002323427681,0.007147196447,0.01765118615,0.03411313782,0.01434952889,0.005819917963,0.00239067292,0.005310399273,0.008856231255,0.02024753438,0.004176876615,0.001070831062,0.001655581742,0.001696989975,0.0002924880872,0.006876672713,0.02577619738,0.07674667193,0.0392814619,0.0006000495285,0.0001842213011,0.003442456193,0.02284188709,0.04535236484,0.02082403056,0.02275715137,0.03543034596,0.00187279795,0.005503655557,0.01815964117,0.02000502258,0.06439392982,0.1584060042,0.09170963761,0.06210652393,0.01727568833,0.001803099101,0.001399248455,0.001582423557,0.007656255822,0.09288643164,0.1907015806,0.0868772283,0.01693337632,0.003598027486,0.006334456851,0.02956892732,0.1144358231,0.1284182319,0.08263944582,0.02077432095,0.001718121212,0.0006613571467,0.004786062591,0.02101262181,0.01357480106,0.0121419689,0.01260647086,0.02267404994,0.03877037531,0.05379836361,0.04982714679,0.04610365033,0.08339368761,0.07403113246,0.03033932046,0.01153717111,0.009116187809,0.027392098,0.04430477988,0.02406668837,0.006936399646,0.004059565368,0.01082966448,0.02936780613,0.0587459559,0.06635353741,0.05960219087,0.04006379921,0.009569955718,0.001005194518,0.0005203811088,0.0004315927226,0.001527854755,0.005376908393,0.005809826121,0.0685610927,0.008864707733,0.009230686362,0.005421704718,0.001786067043,0.006708666728,0.02395539967,0.01136498608,0.004740051198,0.005159486806,0.001429707415,0.00136607223,0.001847649857,0.008893100897,0.001223248922,0.1953211786,0.08424576408,0.01426272407,0.002003879892,0.0006432408468,0.0002079135189,0.002751359982,0.03346236331,0.03737526246,0.01358765213,0.1339935583,0.06710509885,0.005836345059,0.01499533167,0.01352210158,0.06978955601,0.03306754869,0.01914202458,0.009115985358,0.03997738588,0.0621901824,0.06791976974,0.05516140038,0.08891867169,0.001332105637,0.001240847157,0.001326133549,0.0001309214163,0.001644446875,0.0107388864,0.01183719542,0.01036647789,0.06166218231,0.107506554,0.1556826759,0.09482742298,0.1293203615,0.1032289113,0.1193244147,0.1270997798,0.2194254113,0.119140034,0.01606349888,0.002061674506,0.002209979025,0.0007330850982,0.003137626026,0.02492686043,0.01994294247,0.1063310568,0.3201064613,0.1074599088,0.006187134674,0.002727774614,0.003775355774,0.03684161111,0.02852219946,0.00523277394,0.004338003284,0.003839660848,0.01949933743,0.0006727825319,0.001930935764,0.0005423665255,0.008469282561,0.01022442769,0.003407307479,0.04776283239,0.003462108026,0.001122691581,0.02225916792,0.04935310121,0.06478337253,0.117642862,0.03091148644,0.001084496914,0.0001138901717,0.0001070163844,0.001830703975,0.005724512671,0.03347879061,0.01819049798,0.007756013414,0.01874919414,0.004726580684,0.001514670219,0.0005724553028,0.001632487439,0.003819352855,0.01069235691,0.02444426618,0.04464967717,0.06220326887,0.03073534266,0.002001638007,0.0002332800685,8.139917298e-05,0.0001705936792,0.0007382811327,0.001042621966,0.01591942859,0.07498544719,0.05852966721,0.0252781591,0.005959159196,0.0003052326093,5.445817868e-05,0.0005947641983,0.007943578152,0.03084099628,0.01696600106,0.005356560793,0.003002875363,0.002770796839,0.000637159618,0.0001305642495,0.0003149094897,0.001289617276,0.005234370442,0.01569116124,0.01759940914,0.008880489953,0.001988361831,0.003802091575,0.007464861629,0.006228447578,0.02844510471,0.2276954762,0.2287602308,0.1193451571,0.06453107604,0.03828397967,0.03883917166,0.03652443212,0.06401394974,0.01482436311,0.007001210366,0.01470528574,0.07647431649,0.1226952881,0.06972276925,0.04238761358,0.04392095406,0.01958730011,0.02667661021,0.04917273757,0.1705738648,0.3978445258,0.2668271916,0.04858562266,0.000739800209,0.01117948231,0.01228500353,0.003902035832,0.006685842001,0.01397587417,0.04012811702,0.06837891948,0.1412434686,0.0767500099,0.03232882976,0.02611860792,0.06943782507,0.05068606735,0.07427772323,0.06549492063,0.04952785368,0.02582234797,0.01509754754,0.004765002915,0.009694280742,0.01891771108,0.04813520924,0.05880415031,0.02274700833,0.02448092717,0.02298496594,0.0571886337,0.01111514157,0.0001855098268,0.01627228618,0.02387523659,0.03999244879,0.02765364801,0.01050257511,0.0007310062051,0.0003817870063,0.005828582762,0.03052873786,0.02107371395,0.02529998455,0.007495262246,0.005404375855,0.02003271369,0.003163773885,0.000276447384,0.005314425777,0.02003617106,0.03699554174,0.00530364941,0.002995149652,0.002575211997,3.177578718e-05,1.227670379e-05,0.0005116435319,0.001771891524,0.001023886994,0.001907786516,0.002647217589,0.003753038779,0.001915344687,0.0001368867665,3.278567204e-06,9.041791835e-07,2.575023765e-07,1.252422706e-06,0.0001255699726,0.0004650672416,0.000162435511,3.180066207e-05,1.225323062e-07,2.105666668e-08,2.80320193e-08,5.994684964e-08,5.591449787e-08,2.067804937e-06,7.761607108e-06,6.991592324e-06,1.572510834e-07,1.872443578e-07,5.293819125e-09,1.827817833e-09,5.276216012e-09,4.241345972e-09,1.58917819e-07,1.745350017e-06,3.351704897e-07,8.277187329e-08,5.846286667e-08,1.655272927e-07,5.698339253e-08,4.461706273e-10,8.32812922e-10,1.481689934e-09,4.070078552e-09,8.892393547e-09,4.675834245e-09,5.269041912e-09,3.093985769e-09,2.425210636e-09,6.648617267e-08,1.545834495e-08,2.921609138e-08,2.592267085e-08,9.987252985e-09,2.384090519e-10,1.077654402e-10,1.834356446e-09,1.538835221e-09,1.06714045e-09,4.55091742e-10,3.824961971e-09,1.700384777e-08,1.253497358e-08,3.042116173e-09,4.228416738e-10,1.160827066e-09,1.245349156e-10,0,0,0,0,0,0,0,0,NaN,NaN],
	"sr": 16000,
	"range": [1,138240],
	"minf0": 63.1883,
	"maxf0": 706.3069,
	"thresh": 0.1,
	"relflag": 1,
	"hop": 320,
	"bufsize": 10000,
	"wsize": 640,
	"lpf": 4000,
	"shift": 0,
	"plotthreshold": 0.2
}
