{
    "f0": [
        36.557582694414911,
        50.152083761179917,
        50.324346993397938,
        51.003350014744768,
        50.886464173501736,
        50.927491526563287,
        50.918983650109304,
        51.08405119378228,
        50.987741984383376,
        51.035001835693237,
        51.547314338417372,
        51.820461710058822,
        52.879225264526653,
        53.272979347653859,
        53.254642332226162,
        53.320668796052409,
        53.314592302469336,
        52.948696292274782,
        52.931938321825655,
        52.915162520172629,
        52.724375985261617,
        53.131382047915011,
        52.945248544678996,
        52.935549639140284,
        52.92584370378048,
        52.916136906739411,
        52.732424139823351,
        52.63489786794392,
        52.937812088720982,
        53.128643253864922,
        52.689247694462765,
        51.658850973843727,
        49.261119274743663,
        48.836148144500427,
        48.7191104166196,
        48.784429339049481,
        48.853268936684117,
        48.919959458706671,
        48.786459503525478,
        48.861400277527913,
        48.682570187177618,
        48.644269751054935,
        48.877505579260827,
        48.575387393064759,
        49.704105305245804,
        49.02482701896011,
        48.749647509133467,
        47.671692771900396,
        47.431654540522047,
        47.075842483762464,
        46.712565867090333,
        46.328716891447407,
        49.099050262719174,
        49.849595292311143,
        49.808479578933856,
        49.767265985834285,
        49.490468888245452,
        47.624709163491332,
        47.691198641155282,
        46.243372208184958,
        46.217926273714149,
        46.899163455773163,
        48.520815285417925,
        49.566729985245551,
        50.0539801337749,
        50.06575582710191,
        49.603251316706363,
        49.528909491973295,
        47.113229699706579,
        46.398625331701993,
        46.334579725792011,
        46.443446622365308,
        49.239888117783494,
        49.628303113947837,
        49.759988865125884,
        48.598972361717308,
        47.735267229969956,
        46.826193947223167,
        46.875501121432542,
        46.934599523751473,
        48.509051914727024,
        49.271446442389603,
        49.443324275919494,
        49.004201494881428,
        47.382081398848307,
        47.268412381355247,
        48.649496863580708,
        48.87598140305154,
        49.099541109321208,
        48.432243790801778,
        48.132962381077242,
        48.473316759481733,
        49.077370825539873,
        48.824206356865488,
        48.269165700037419,
        48.529460700238147,
        48.883958094988195,
        49.231342137440691,
        49.914725312308818,
        49.701250186289428,
        49.311113544867069,
        48.113222063409523,
        46.554288678418914,
        44.840964732007379,
        46.278739616788997,
        48.82350926163484,
        49.33881001269966,
        48.884729468767475,
        48.418413561167469,
        48.450923480351229,
        48.915366849061215,
        49.309344239976426,
        49.001215208853822,
        47.799495699835319,
        43.963745977727839,
        41.680520704359395,
        49.302213040932649,
        52.712617551436452,
        65.126542319356389,
        65.463973196301893,
        53.569937672082716,
        48.249922594126659,
        63.8425362982697,
        48.220047682563205,
        62.803876152446492,
        64.639198883353842,
        64.573124565409699,
        64.760517714746683,
        63.961367979890873,
        64.388235831601278,
        36.721998510408184,
        37.767935060116599,
        49.420916723294241,
        49.353767854730449,
        49.078167827025943,
        49.07647703096977,
        49.16517810841286,
        49.112512325066888,
        50.33417390591508,
        49.799203318801275,
        50.10300398116383,
        49.732711930935878,
        49.493235021507857,
        46.476382737421545,
        44.757671623851365,
        45.118601780803196,
        43.784743158156019,
        43.959219837864687,
        44.442077776985457,
        45.104448655458604,
        46.658620069721813,
        46.202125179594475,
        45.846876532124561,
        46.105269702591706,
        45.883403722285244,
        45.858193960810411,
        45.733325139874793,
        46.000629939398983,
        46.050327152439301,
        46.032684436553836,
        46.200632909515271,
        46.366969923267106,
        47.974642824504215,
        49.44562048534938,
        49.131730589856119,
        49.232115073313068,
        49.266503199768323,
        49.159503895986902,
        49.213448599621593,
        49.267225858275964,
        49.234943495144506,
        49.410449508973031,
        49.460191271342083,
        49.682060469379046,
        48.928279558092072,
        48.789743661866524,
        49.227254777789589,
        49.175734406110955,
        49.124060255489596,
        49.244494968931249,
        49.530639903360573,
        51.708049521391644,
        51.477790377109152,
        51.330798617502417,
        51.311309095066072,
        51.57028677745906,
        51.593440624604263,
        51.616566661150884,
        51.465666151427534,
        51.313440404622746,
        51.502696285358979,
        51.434999756698858,
        0.0,
        0.0,
        43.000202980338813,
        43.000202980338813,
        46.195190753102622,
        46.021197600758533,
        51.938286416423139,
        50.525283985617975,
        51.136523961413353,
        51.202409862053059,
        51.531290104384738,
        52.237076276055753,
        51.84410028107466,
        51.44199645654129,
        51.875005388828718,
        51.387143598212361,
        50.844561422490685,
        50.984395757926606,
        52.436585870008528,
        52.83110748496324,
        52.623483589814398,
        52.991692947901242,
        49.574204907586285,
        49.451567663987397,
        49.176190933975455,
        49.145957320468739,
        48.976635914616089,
        48.875989077737557,
        48.774753698276143,
        48.845181921684762,
        49.005609654138809,
        49.11988880780347,
        0.0,
        0.0,
        48.938248648930411,
        48.764255275155534,
        0.0,
        0.0,
        0.0,
        0.0,
        0.0,
        48.792484978358651,
        49.637155094974858,
        44.364311548711044,
        44.536573792212863,
        44.536573792212863,
        45.164077253405956,
        43.734555583321274,
        45.865577560949632,
        45.835043746431609,
        45.752443466843182,
        45.669448256323626,
        45.758313846419249,
        45.846724561951604,
        45.632388817694086,
        45.734706185587683,
        46.080649703786392,
        45.950743173473413,
        45.925434566281019,
        45.84730306061185,
        45.926148140635682,
        45.902316038595089,
        46.065248882661244,
        45.974799444787386,
        46.129788242595488,
        46.071640545505332,
        46.354964539403653,
        46.358209704859121,
        46.189160615557171,
        45.762488781136412,
        45.058454686677123,
        44.464146977399892,
        42.888528766046406,
        42.603370105517435,
        44.047151257903302,
        44.899832264918018,
        47.154274214358338,
        47.814286469093844,
        48.578721560596946,
        49.310828897755812,
        49.485912219011013,
        49.922282819721005,
        51.064765487436247,
        51.629293140622593,
        51.185804299346728,
        50.929051779831155,
        50.740281995942865,
        51.143189351857735,
        51.13114862576488,
        51.145740616734471,
        51.160321972893172,
        51.234108921565209,
        51.278123568044315,
        51.318314324518276,
        51.358411884837516,
        51.570684441483124,
        51.442546020881863,
        51.281953300271951,
        51.293871142163553,
        51.303042815608947,
        51.312211381472139,
        51.147377324959066,
        51.200373856422786,
        51.21814928012401,
        51.235909765102214,
        50.891510954846538,
        51.024218576116347,
        51.155915007401447,
        51.28661717156416,
        51.416343336945957,
        51.717362866035458,
        51.40146169075183,
        51.327284794708476,
        50.240893413391689,
        49.280313978554645,
        49.338595154110067,
        49.581099705291052,
        50.190903110722388,
        50.252065697026865,
        51.422711282700419,
        51.479909625643188,
        51.000646920170517,
        50.922705962297691,
        49.63964063014437,
        49.260522119631212,
        49.382429224685396,
        50.102671347225638,
        50.345150369664218,
        50.807152736796581,
        51.257147513885826,
        51.168424561969552,
        51.079244465228001,
        51.161868109392572,
        50.181375583506934,
        49.142001027455265,
        49.516929376914106,
        49.95145517527628,
        50.342414882248619,
        51.252574404545349,
        52.040475216898514,
        51.942870181439261,
        50.706345311767762,
        49.200662095584775,
        51.018221390706508,
        50.201065702268593,
        49.343422459449258,
        49.285744404763889,
        50.389220791807247,
        50.125807448820069,
        51.218476212939819,
        51.970366254288209,
        50.912837260531163,
        51.153494851125913,
        49.723559463903868,
        49.443149673623395,
        49.623328308984469,
        50.002951870227676,
        50.102217041923538,
        50.848510493462797,
        51.935297482754926,
        51.546081966037988,
        51.631102489824023,
        51.989612611480915,
        49.837537226084649,
        49.810807850640757,
        50.112824936500353,
        50.112474685641452,
        50.112120679078046,
        50.623493761031128,
        50.661420363620806,
        50.929668936177762,
        50.045781887247784,
        49.972522036048694,
        49.071627823358313,
        49.837068649328963,
        50.163978289552261,
        50.158028483450295,
        50.064158787878497,
        50.858700126516275,
        50.756882665980896,
        50.233175486745182,
        49.911729211081372,
        49.473162208742309,
        49.423091324401369,
        49.685233937981913,
        49.872343286912432,
        50.435507627277616,
        50.271471922567741,
        50.881417601315491,
        50.567042858009856,
        51.086035036758815,
        0.0,
        69.187298230489716,
        50.149167737157128,
        72.236141028565342,
        53.191022047509499,
        46.397121158113634,
        46.908853242254096,
        0.0,
        0.0,
        0.0,
        0.0,
        0.0,
        53.410619713084323,
        42.751027516661523,
        43.14210059588936,
        43.524527903567865,
        44.203524753004416,
        44.355740622601516,
        44.229520876584793,
        47.033473116929073,
        46.450373958177011,
        48.704390666316186,
        49.149697351402253,
        50.699179585209748,
        53.108064435065359,
        55.304331738021446,
        57.388768883115759,
        60.196956763269462,
        62.032689069332022,
        61.441460786464134,
        48.399842808322802,
        48.549686990250549,
        48.524253965231281,
        48.498781593575927,
        48.816092242645482,
        48.806258825868937,
        48.717554708696277,
        49.010896596926287,
        49.204795364414302,
        49.256400289385141,
        48.671131791237983,
        48.834989837136568,
        48.913849768847186,
        48.859947596965334,
        48.773351694430232,
        48.815304295089213,
        48.642150791071693,
        49.076450416649109,
        49.093644316236087,
        49.069178946222493,
        49.250964343007787,
        49.149434682627458,
        49.032741174883853,
        48.748595441454839,
        48.924336308868959,
        49.076765433063649,
        48.888789240800079,
        49.091805303456255,
        49.026623644375874,
        49.005022851780829,
        49.00830189663813,
        49.011580445378314,
        49.463626523338021,
        50.314896231422466,
        50.931522284347096,
        50.733283668238478,
        51.011792853477502,
        50.904557847306101,
        51.057951370906338,
        50.824212779460339,
        50.25382268639072,
        50.516305435328412,
        50.256419789860146,
        50.845754030874886,
        50.571873896268485,
        51.239914578849735,
        51.095802098157606,
        50.810040807365468,
        50.519481570837897,
        49.33595563026995,
        49.060743817434869,
        47.932775581710558,
        47.186097309622973,
        46.845716942492444,
        46.787209538212196,
        48.380793812679535,
        48.784796005482619,
        48.567013109352075,
        48.749457911007497,
        48.705575278513351,
        48.677331671684485,
        48.813421964034248,
        49.083180173810447,
        49.282588773637698,
        49.855316392918255,
        49.879089636357136,
        49.007837049271828,
        49.001243812698235,
        49.224039388925874,
        48.890203047151232,
        48.850227645102962,
        49.131359792814678,
        49.407999659705922,
        49.50629418016468,
        50.369752518418494,
        50.65731418619513,
        50.498624531170869,
        49.801205214507107,
        49.583679896819689,
        48.933410220546719,
        48.825467467607346,
        49.278196475373626,
        49.719102088649606,
        48.906093824125065,
        48.208431277797047,
        53.184564486805314,
        51.577659466893707,
        51.331571606487316,
        51.169635292349824,
        51.134222343558761,
        51.034696853551409,
        50.964100169405263,
        50.878411523107033,
        50.969337087865938,
        50.940536802725589,
        50.84441072645965,
        50.953868628325942,
        51.089363448681617,
        51.526838291901946,
        51.275566766097811,
        50.768604697199663,
        50.719497833573953,
        51.15508538479223,
        50.909645448239502,
        50.399740626724039,
        50.688342318821341,
        51.181017373410413,
        50.8520972458901,
        51.911519031680939,
        51.72340119584355,
        50.99675967516572,
        51.128135119270887,
        51.442236526963057,
        51.133425363005635,
        50.991272841685067,
        50.933573060452431,
        51.175602076635791,
        51.048020650584874,
        50.878221671604976,
        51.406589508964075,
        51.141996969862049,
        51.143445300963258,
        51.144893621269247,
        51.146341710070232,
        50.441064696488148,
        0.0,
        0.0,
        0.0,
        0.0,
        0.0,
        0.0,
        0.0,
        0.0,
        0.0,
        0.0,
        0.0,
        0.0,
        0.0,
        0.0,
        0.0,
        0.0,
        0.0,
        0.0,
        0.0,
        0.0,
        0.0,
        0.0,
        0.0,
        0.0,
        0.0,
        0.0,
        0.0,
        0.0,
        0.0,
        0.0,
        0.0,
        0.0,
        0.0,
        0.0,
        0.0,
        0.0,
        0.0,
        0.0,
        0.0
    ],
    "time": [
        0.02,
        0.040000000000000001,
        0.059999999999999998,
        0.080000000000000002,
        0.10000000000000001,
        0.12,
        0.14000000000000001,
        0.16,
        0.17999999999999999,
        0.20000000000000001,
        0.22,
        0.23999999999999999,
        0.26000000000000001,
        0.28000000000000003,
        0.29999999999999999,
        0.32000000000000001,
        0.34000000000000002,
        0.35999999999999999,
        0.38,
        0.40000000000000002,
        0.41999999999999998,
        0.44,
        0.46000000000000002,
        0.47999999999999998,
        0.5,
        0.52000000000000002,
        0.54000000000000004,
        0.56000000000000005,
        0.57999999999999996,
        0.59999999999999998,
        0.62,
        0.64000000000000001,
        0.66000000000000003,
        0.68000000000000005,
        0.69999999999999996,
        0.71999999999999997,
        0.73999999999999999,
        0.76000000000000001,
        0.78000000000000003,
        0.80000000000000004,
        0.81999999999999995,
        0.83999999999999997,
        0.85999999999999999,
        0.88,
        0.90000000000000002,
        0.92000000000000004,
        0.93999999999999995,
        0.95999999999999996,
        0.97999999999999998,
        1.0,
        1.02,
        1.04,
        1.0600000000000001,
        1.0800000000000001,
        1.1000000000000001,
        1.1200000000000001,
        1.1399999999999999,
        1.1599999999999999,
        1.1799999999999999,
        1.2,
        1.22,
        1.24,
        1.26,
        1.28,
        1.3,
        1.3200000000000001,
        1.3400000000000001,
        1.3600000000000001,
        1.3799999999999999,
        1.3999999999999999,
        1.4199999999999999,
        1.4399999999999999,
        1.46,
        1.48,
        1.5,
        1.52,
        1.54,
        1.5600000000000001,
        1.5800000000000001,
        1.6000000000000001,
        1.6200000000000001,
        1.6399999999999999,
        1.6599999999999999,
        1.6799999999999999,
        1.7,
        1.72,
        1.74,
        1.76,
        1.78,
        1.8,
        1.8200000000000001,
        1.8400000000000001,
        1.8600000000000001,
        1.8799999999999999,
        1.8999999999999999,
        1.9199999999999999,
        1.9399999999999999,
        1.96,
        1.98,
        2.0,
        2.02,
        2.04,
        2.0600000000000001,
        2.0800000000000001,
        2.1000000000000001,
        2.1200000000000001,
        2.1400000000000001,
        2.1600000000000001,
        2.1800000000000002,
        2.2000000000000002,
        2.2200000000000002,
        2.2400000000000002,
        2.2599999999999998,
        2.2799999999999998,
        2.2999999999999998,
        2.3199999999999998,
        2.3399999999999999,
        2.3599999999999999,
        2.3799999999999999,
        2.3999999999999999,
        2.4199999999999999,
        2.4399999999999999,
        2.46,
        2.48,
        2.5,
        2.52,
        2.54,
        2.5600000000000001,
        2.5800000000000001,
        2.6000000000000001,
        2.6200000000000001,
        2.6400000000000001,
        2.6600000000000001,
        2.6800000000000002,
        2.7000000000000002,
        2.7200000000000002,
        2.7400000000000002,
        2.7599999999999998,
        2.7799999999999998,
        2.7999999999999998,
        2.8199999999999998,
        2.8399999999999999,
        2.8599999999999999,
        2.8799999999999999,
        2.8999999999999999,
        2.9199999999999999,
        2.9399999999999999,
        2.96,
        2.98,
        3.0,
        3.02,
        3.04,
        3.0600000000000001,
        3.0800000000000001,
        3.1000000000000001,
        3.1200000000000001,
        3.1400000000000001,
        3.1600000000000001,
        3.1800000000000002,
        3.2000000000000002,
        3.2200000000000002,
        3.2400000000000002,
        3.2599999999999998,
        3.2799999999999998,
        3.2999999999999998,
        3.3199999999999998,
        3.3399999999999999,
        3.3599999999999999,
        3.3799999999999999,
        3.3999999999999999,
        3.4199999999999999,
        3.4399999999999999,
        3.46,
        3.48,
        3.5,
        3.52,
        3.54,
        3.5600000000000001,
        3.5800000000000001,
        3.6000000000000001,
        3.6200000000000001,
        3.6400000000000001,
        3.6600000000000001,
        3.6800000000000002,
        3.7000000000000002,
        3.7200000000000002,
        3.7400000000000002,
        3.7599999999999998,
        3.7799999999999998,
        3.7999999999999998,
        3.8199999999999998,
        3.8399999999999999,
        3.8599999999999999,
        3.8799999999999999,
        3.8999999999999999,
        3.9199999999999999,
        3.9399999999999999,
        3.96,
        3.98,
        4.0,
        4.0199999999999996,
        4.04,
        4.0599999999999996,
        4.0800000000000001,
        4.0999999999999996,
        4.1200000000000001,
        4.1399999999999997,
        4.1600000000000001,
        4.1799999999999997,
        4.2000000000000002,
        4.2199999999999998,
        4.2400000000000002,
        4.2599999999999998,
        4.2800000000000002,
        4.2999999999999998,
        4.3200000000000003,
        4.3399999999999999,
        4.3600000000000003,
        4.3799999999999999,
        4.4000000000000004,
        4.4199999999999999,
        4.4400000000000004,
        4.46,
        4.4800000000000004,
        4.5,
        4.5199999999999996,
        4.54,
        4.5599999999999996,
        4.5800000000000001,
        4.5999999999999996,
        4.6200000000000001,
        4.6399999999999997,
        4.6600000000000001,
        4.6799999999999997,
        4.7000000000000002,
        4.7199999999999998,
        4.7400000000000002,
        4.7599999999999998,
        4.7800000000000002,
        4.7999999999999998,
        4.8200000000000003,
        4.8399999999999999,
        4.8600000000000003,
        4.8799999999999999,
        4.9000000000000004,
        4.9199999999999999,
        4.9400000000000004,
        4.96,
        4.9800000000000004,
        5.0,
        5.0199999999999996,
        5.04,
        5.0599999999999996,
        5.0800000000000001,
        5.0999999999999996,
        5.1200000000000001,
        5.1399999999999997,
        5.1600000000000001,
        5.1799999999999997,
        5.2000000000000002,
        5.2199999999999998,
        5.2400000000000002,
        5.2599999999999998,
        5.2800000000000002,
        5.2999999999999998,
        5.3200000000000003,
        5.3399999999999999,
        5.3600000000000003,
        5.3799999999999999,
        5.4000000000000004,
        5.4199999999999999,
        5.4400000000000004,
        5.46,
        5.4800000000000004,
        5.5,
        5.5199999999999996,
        5.54,
        5.5599999999999996,
        5.5800000000000001,
        5.5999999999999996,
        5.6200000000000001,
        5.6399999999999997,
        5.6600000000000001,
        5.6799999999999997,
        5.7000000000000002,
        5.7199999999999998,
        5.7400000000000002,
        5.7599999999999998,
        5.7800000000000002,
        5.7999999999999998,
        5.8200000000000003,
        5.8399999999999999,
        5.8600000000000003,
        5.8799999999999999,
        5.9000000000000004,
        5.9199999999999999,
        5.9400000000000004,
        5.96,
        5.9800000000000004,
        6.0,
        6.0199999999999996,
        6.04,
        6.0599999999999996,
        6.0800000000000001,
        6.0999999999999996,
        6.1200000000000001,
        6.1399999999999997,
        6.1600000000000001,
        6.1799999999999997,
        6.2000000000000002,
        6.2199999999999998,
        6.2400000000000002,
        6.2599999999999998,
        6.2800000000000002,
        6.2999999999999998,
        6.3200000000000003,
        6.3399999999999999,
        6.3600000000000003,
        6.3799999999999999,
        6.4000000000000004,
        6.4199999999999999,
        6.4400000000000004,
        6.46,
        6.4800000000000004,
        6.5,
        6.5199999999999996,
        6.54,
        6.5599999999999996,
        6.5800000000000001,
        6.5999999999999996,
        6.6200000000000001,
        6.6399999999999997,
        6.6600000000000001,
        6.6799999999999997,
        6.7000000000000002,
        6.7199999999999998,
        6.7400000000000002,
        6.7599999999999998,
        6.7800000000000002,
        6.7999999999999998,
        6.8200000000000003,
        6.8399999999999999,
        6.8600000000000003,
        6.8799999999999999,
        6.9000000000000004,
        6.9199999999999999,
        6.9400000000000004,
        6.96,
        6.9800000000000004,
        7.0,
        7.0199999999999996,
        7.04,
        7.0599999999999996,
        7.0800000000000001,
        7.0999999999999996,
        7.1200000000000001,
        7.1399999999999997,
        7.1600000000000001,
        7.1799999999999997,
        7.2000000000000002,
        7.2199999999999998,
        7.2400000000000002,
        7.2599999999999998,
        7.2800000000000002,
        7.2999999999999998,
        7.3200000000000003,
        7.3399999999999999,
        7.3600000000000003,
        7.3799999999999999,
        7.4000000000000004,
        7.4199999999999999,
        7.4400000000000004,
        7.46,
        7.4800000000000004,
        7.5,
        7.5199999999999996,
        7.54,
        7.5599999999999996,
        7.5800000000000001,
        7.5999999999999996,
        7.6200000000000001,
        7.6399999999999997,
        7.6600000000000001,
        7.6799999999999997,
        7.7000000000000002,
        7.7199999999999998,
        7.7400000000000002,
        7.7599999999999998,
        7.7800000000000002,
        7.7999999999999998,
        7.8200000000000003,
        7.8399999999999999,
        7.8600000000000003,
        7.8799999999999999,
        7.9000000000000004,
        7.9199999999999999,
        7.9400000000000004,
        7.96,
        7.9800000000000004,
        8.0,
        8.0199999999999996,
        8.0399999999999991,
        8.0600000000000005,
        8.0800000000000001,
        8.0999999999999996,
        8.1199999999999992,
        8.1400000000000006,
        8.1600000000000001,
        8.1799999999999997,
        8.1999999999999993,
        8.2200000000000006,
        8.2400000000000002,
        8.2599999999999998,
        8.2799999999999994,
        8.3000000000000007,
        8.3200000000000003,
        8.3399999999999999,
        8.3599999999999994,
        8.3800000000000008,
        8.4000000000000004,
        8.4199999999999999,
        8.4399999999999995,
        8.4600000000000009,
        8.4800000000000004,
        8.5,
        8.5199999999999996,
        8.5399999999999991,
        8.5600000000000005,
        8.5800000000000001,
        8.5999999999999996,
        8.6199999999999992,
        8.6400000000000006,
        8.6600000000000001,
        8.6799999999999997,
        8.6999999999999993,
        8.7200000000000006,
        8.7400000000000002,
        8.7599999999999998,
        8.7799999999999994,
        8.8000000000000007,
        8.8200000000000003,
        8.8399999999999999,
        8.8599999999999994,
        8.8800000000000008,
        8.9000000000000004,
        8.9199999999999999,
        8.9399999999999995,
        8.9600000000000009,
        8.9800000000000004,
        9.0,
        9.0199999999999996,
        9.0399999999999991,
        9.0600000000000005,
        9.0800000000000001,
        9.0999999999999996,
        9.1199999999999992,
        9.1400000000000006,
        9.1600000000000001,
        9.1799999999999997,
        9.1999999999999993,
        9.2200000000000006,
        9.2400000000000002,
        9.2599999999999998,
        9.2799999999999994,
        9.3000000000000007,
        9.3200000000000003,
        9.3399999999999999,
        9.3599999999999994,
        9.3800000000000008,
        9.4000000000000004,
        9.4199999999999999,
        9.4399999999999995,
        9.4600000000000009,
        9.4800000000000004,
        9.5,
        9.5199999999999996,
        9.5399999999999991,
        9.5600000000000005,
        9.5800000000000001,
        9.5999999999999996,
        9.6199999999999992,
        9.6400000000000006,
        9.6600000000000001,
        9.6799999999999997,
        9.6999999999999993,
        9.7200000000000006,
        9.7400000000000002,
        9.7599999999999998,
        9.7799999999999994,
        9.8000000000000007,
        9.8200000000000003,
        9.8399999999999999,
        9.8599999999999994,
        9.8800000000000008,
        9.9000000000000004,
        9.9199999999999999,
        9.9399999999999995,
        9.9600000000000009,
        9.9800000000000004,
        10.0,
        10.02,
        10.039999999999999,
        10.06,
        10.08,
        10.1,
        10.119999999999999,
        10.140000000000001,
        10.16,
        10.18,
        10.199999999999999,
        10.220000000000001,
        10.24,
        10.26,
        10.279999999999999,
        10.300000000000001,
        10.32,
        10.34,
        10.359999999999999,
        10.380000000000001,
        10.4,
        10.42,
        10.44,
        10.460000000000001,
        10.48,
        10.5,
        10.52,
        10.539999999999999,
        10.56,
        10.58,
        10.6,
        10.619999999999999,
        10.640000000000001,
        10.66,
        10.68,
        10.699999999999999,
        10.720000000000001,
        10.74,
        10.76,
        10.779999999999999,
        10.800000000000001,
        10.82,
        10.84,
        10.859999999999999,
        10.880000000000001,
        10.9,
        10.92,
        10.94,
        10.960000000000001,
        10.98,
        11.0,
        11.02,
        11.039999999999999,
        11.06,
        11.08,
        11.1,
        11.119999999999999,
        11.140000000000001,
        11.16,
        11.18,
        11.199999999999999,
        11.220000000000001,
        11.24,
        11.26,
        11.279999999999999,
        11.300000000000001,
        11.32,
        11.34,
        11.359999999999999,
        11.380000000000001,
        11.4,
        11.42,
        11.44,
        11.460000000000001,
        11.48,
        11.5,
        11.52,
        11.539999999999999
    ]
}