{
    "DU": 193,
    "DV": 342,
    "F-measure": 0.7629083245521602,
    "F-measure Chroma": 0.8493150684931505,
    "FN": 41,
    "FNC": 9,
    "FNCch": 21,
    "FNI": 32,
    "FNIch": 20,
    "FP": 80,
    "GU": 232,
    "GV": 303,
    "Overall Accuracy": 0.6766355140186916,
    "Overall Chroma Accuracy": 0.7532710280373832,
    "Precision": 0.7327935222672065,
    "Precision Chroma": 0.8157894736842105,
    "Raw Chroma Accuracy": 0.8976897689768977,
    "Raw Pitch Accuracy": 0.7227722772277227,
    "Recall": 0.7956043956043956,
    "Recall Chroma": 0.8857142857142857,
    "TN": 152,
    "TO": 535,
    "TP": 262,
    "TPC": 210,
    "TPCch": 251,
    "TPI": 52,
    "TPIch": 11,
    "Voiced Chroma Accuracy": 0.8283828382838284,
    "Voiced Pitch Accuracy": 0.693069306930693,
    "Voicing Accuracy": 0.7738317757009345,
    "Voicing Detection": 0.8646864686468647,
    "Voicing False Alarm": 0.3448275862068966
}