{
    "f0": [
        48.218404654258066,
        56.463353072211191,
        56.806178020416226,
        57.485182564522482,
        57.800339472369842,
        57.388793582449338,
        58.221058479991157,
        58.527621779446655,
        59.111241148313894,
        59.539735709760663,
        59.67467676027335,
        59.599907690031429,
        60.116100747502387,
        60.217929998742662,
        60.169104195659898,
        60.16789625761551,
        60.166690266965617,
        60.343969273800852,
        60.410444163403113,
        60.357052070460803,
        60.019412817762735,
        59.646541324265257,
        59.106048133549585,
        59.142366637227077,
        59.284375026866428,
        59.884585138256092,
        60.070100190198637,
        60.253648298373491,
        60.26127446534398,
        60.006320587758523,
        59.450717515644662,
        59.542479109457886,
        59.633755951019204,
        59.724551987124521,
        59.640880722399217,
        59.55680521077889,
        59.984050361510121,
        60.105140955498989,
        60.12026252885164,
        60.135366900630814,
        60.150464141057874,
        59.991549646526309,
        60.062948700947103,
        60.067893688509223,
        59.931944327502833,
        59.838160095302371,
        59.894401379806176,
        60.40056305686057,
        59.968333841520966,
        53.020729213567833,
        53.865615527629721,
        48.095794993079537,
        47.753538070896504,
        60.305467077649723,
        60.187907943429565,
        60.11943431394289,
        59.675905177045792,
        59.756938086003444,
        59.842370859101095,
        59.782183409105507,
        59.707373992220219,
        60.151210845021986,
        60.251353675567238,
        60.343072416725533,
        59.903751067895271,
        59.613616428511904,
        42.833937207575708,
        42.964551104712129,
        63.587222102428399,
        64.047295551168432,
        64.059284461577164,
        64.071265127636394,
        64.083239076513635,
        64.020512180815757,
        64.566306666137834,
        64.77123960204321,
        65.306997654209013,
        65.316033232656352,
        65.232375345728556,
        65.105905325655328,
        64.978504614396797,
        64.85016096257786,
        64.546863535437325,
        64.326944487415474,
        64.231549754835513,
        63.897718336774282,
        63.679047440258657,
        63.580546558410951,
        63.762582261175453,
        63.704658621107697,
        63.510963322075042,
        63.383769036709367,
        63.221063379952795,
        63.579295185780651,
        63.586074654151687,
        63.938001735635972,
        63.587287777717158,
        63.518891880423148,
        63.305470586316993,
        62.988826161575673,
        62.717573458284519,
        62.927696148794155,
        62.883363233396942,
        62.83891650009349,
        62.575887308138526,
        62.665847674262622,
        62.755343049955435,
        63.016643748598213,
        63.701149659323526,
        63.805601112184014,
        64.324218563551639,
        64.277782142032066,
        64.231220830293339,
        64.184533954741809,
        63.787963118882217,
        63.212252385304296,
        62.530845476877765,
        62.545315735348687,
        60.402165225967259,
        60.827053946684181,
        61.064151031478005,
        62.56691580030455,
        63.025632788836802,
        63.040869585507565,
        63.784800442743396,
        61.905010153428776,
        61.765845416804538,
        62.089438866841249,
        62.449300511605045,
        62.607177994423857,
        63.869124654539974,
        49.972539986137662,
        49.713182109875,
        50.294544577588447,
        50.025235303732188,
        50.356705016350418,
        50.411464427514758,
        50.601397728563384,
        50.347125486719662,
        50.269043546330593,
        50.6121766424464,
        50.08063248063592,
        50.124037301602854,
        48.35817558397698,
        46.39152316605059,
        45.528894691441664,
        43.108603291137165,
        43.112488388566845,
        62.267206541297931,
        50.004018464134909,
        62.396058852683481,
        62.348269888244609,
        62.217205293975553,
        62.085140948386424,
        62.124326739254464,
        61.966516863922521,
        61.699829648276285,
        62.664644479648082,
        47.726659022702599,
        43.138895976458336,
        62.297613077498752,
        43.142083249644756,
        62.020842336600083,
        50.431958055641502,
        38.139046090174894,
        49.993331048603466,
        49.594052221884667,
        37.315235372975344,
        64.24124490956261,
        64.66384573753858,
        64.902382818603115,
        65.22371860989557,
        65.323013627807043,
        65.242843350938131,
        65.397334315634396,
        65.550458826785174,
        65.832633751954276,
        66.557977760865782,
        66.866572093959846,
        66.833952100736482,
        67.104285927530256,
        67.124590618405207,
        66.918346226112149,
        66.999805321942588,
        66.958240096286772,
        66.431451709043927,
        66.98479361916722,
        67.155429856498444,
        66.979055413161348,
        67.100724616784703,
        67.080778259511391,
        66.882329824230339,
        67.114921242933264,
        67.069030568079867,
        66.853059279730786,
        66.966452556547111,
        66.929855533065904,
        66.893181026671641,
        66.87858277044073,
        66.852887973825858,
        66.827154984567571,
        66.716296864419462,
        66.776016365119503,
        66.77349165094347,
        66.757112360336109,
        66.919912937117132,
        66.827312895434204,
        66.834145353942446,
        66.857875907387367,
        66.957105208372454,
        66.902420640706652,
        66.838269328632137,
        66.773879462598856,
        66.894652350470608,
        66.841577633509033,
        66.78833970405411,
        66.878980465599327,
        66.934797005698528,
        66.884545682671899,
        66.944453880024639,
        66.923605011525353,
        66.918159368535356,
        66.935036437382479,
        66.859963064667895,
        66.725980560926288,
        66.805020728662967,
        66.883701719303204,
        66.788034078026442,
        66.823355143438206,
        66.858604248111916,
        66.71978610583254,
        66.792612404303327,
        37.111315517074736,
        48.021796942295325,
        47.817166335136399,
        42.203927815800888,
        54.763674666755392,
        39.364139508137292,
        45.487321408122874,
        66.19338978666201,
        47.636424688187034,
        48.255670074248094,
        47.634149911134799,
        46.989486461697787,
        42.946008705202502,
        43.463802473133264,
        46.904847002213401,
        47.52755700856973,
        47.601323235734043,
        47.589570508771438,
        44.997522741616066,
        45.750226659729734,
        46.45055285205882,
        48.485351892549346,
        49.878535149945634,
        48.08778613229974,
        46.090205255015562,
        44.840466610912628,
        44.815964751650668,
        45.017803981354533,
        45.217313703653119,
        0.0,
        0.0,
        0.0,
        0.0,
        0.0,
        0.0,
        0.0,
        0.0,
        0.0,
        0.0,
        0.0,
        0.0,
        0.0,
        0.0,
        0.0,
        0.0,
        0.0,
        0.0,
        0.0,
        0.0,
        0.0,
        0.0,
        0.0,
        0.0,
        0.0,
        0.0,
        0.0,
        0.0,
        0.0,
        0.0,
        0.0,
        0.0,
        0.0,
        0.0,
        0.0,
        0.0,
        0.0,
        0.0,
        0.0,
        0.0,
        0.0,
        0.0,
        0.0,
        0.0,
        0.0,
        0.0,
        0.0,
        0.0,
        0.0,
        0.0
    ],
    "time": [
        0.02,
        0.040000000000000001,
        0.059999999999999998,
        0.080000000000000002,
        0.10000000000000001,
        0.12,
        0.14000000000000001,
        0.16,
        0.17999999999999999,
        0.20000000000000001,
        0.22,
        0.23999999999999999,
        0.26000000000000001,
        0.28000000000000003,
        0.29999999999999999,
        0.32000000000000001,
        0.34000000000000002,
        0.35999999999999999,
        0.38,
        0.40000000000000002,
        0.41999999999999998,
        0.44,
        0.46000000000000002,
        0.47999999999999998,
        0.5,
        0.52000000000000002,
        0.54000000000000004,
        0.56000000000000005,
        0.57999999999999996,
        0.59999999999999998,
        0.62,
        0.64000000000000001,
        0.66000000000000003,
        0.68000000000000005,
        0.69999999999999996,
        0.71999999999999997,
        0.73999999999999999,
        0.76000000000000001,
        0.78000000000000003,
        0.80000000000000004,
        0.81999999999999995,
        0.83999999999999997,
        0.85999999999999999,
        0.88,
        0.90000000000000002,
        0.92000000000000004,
        0.93999999999999995,
        0.95999999999999996,
        0.97999999999999998,
        1.0,
        1.02,
        1.04,
        1.0600000000000001,
        1.0800000000000001,
        1.1000000000000001,
        1.1200000000000001,
        1.1399999999999999,
        1.1599999999999999,
        1.1799999999999999,
        1.2,
        1.22,
        1.24,
        1.26,
        1.28,
        1.3,
        1.3200000000000001,
        1.3400000000000001,
        1.3600000000000001,
        1.3799999999999999,
        1.3999999999999999,
        1.4199999999999999,
        1.4399999999999999,
        1.46,
        1.48,
        1.5,
        1.52,
        1.54,
        1.5600000000000001,
        1.5800000000000001,
        1.6000000000000001,
        1.6200000000000001,
        1.6399999999999999,
        1.6599999999999999,
        1.6799999999999999,
        1.7,
        1.72,
        1.74,
        1.76,
        1.78,
        1.8,
        1.8200000000000001,
        1.8400000000000001,
        1.8600000000000001,
        1.8799999999999999,
        1.8999999999999999,
        1.9199999999999999,
        1.9399999999999999,
        1.96,
        1.98,
        2.0,
        2.02,
        2.04,
        2.0600000000000001,
        2.0800000000000001,
        2.1000000000000001,
        2.1200000000000001,
        2.1400000000000001,
        2.1600000000000001,
        2.1800000000000002,
        2.2000000000000002,
        2.2200000000000002,
        2.2400000000000002,
        2.2599999999999998,
        2.2799999999999998,
        2.2999999999999998,
        2.3199999999999998,
        2.3399999999999999,
        2.3599999999999999,
        2.3799999999999999,
        2.3999999999999999,
        2.4199999999999999,
        2.4399999999999999,
        2.46,
        2.48,
        2.5,
        2.52,
        2.54,
        2.5600000000000001,
        2.5800000000000001,
        2.6000000000000001,
        2.6200000000000001,
        2.6400000000000001,
        2.6600000000000001,
        2.6800000000000002,
        2.7000000000000002,
        2.7200000000000002,
        2.7400000000000002,
        2.7599999999999998,
        2.7799999999999998,
        2.7999999999999998,
        2.8199999999999998,
        2.8399999999999999,
        2.8599999999999999,
        2.8799999999999999,
        2.8999999999999999,
        2.9199999999999999,
        2.9399999999999999,
        2.96,
        2.98,
        3.0,
        3.02,
        3.04,
        3.0600000000000001,
        3.0800000000000001,
        3.1000000000000001,
        3.1200000000000001,
        3.1400000000000001,
        3.1600000000000001,
        3.1800000000000002,
        3.2000000000000002,
        3.2200000000000002,
        3.2400000000000002,
        3.2599999999999998,
        3.2799999999999998,
        3.2999999999999998,
        3.3199999999999998,
        3.3399999999999999,
        3.3599999999999999,
        3.3799999999999999,
        3.3999999999999999,
        3.4199999999999999,
        3.4399999999999999,
        3.46,
        3.48,
        3.5,
        3.52,
        3.54,
        3.5600000000000001,
        3.5800000000000001,
        3.6000000000000001,
        3.6200000000000001,
        3.6400000000000001,
        3.6600000000000001,
        3.6800000000000002,
        3.7000000000000002,
        3.7200000000000002,
        3.7400000000000002,
        3.7599999999999998,
        3.7799999999999998,
        3.7999999999999998,
        3.8199999999999998,
        3.8399999999999999,
        3.8599999999999999,
        3.8799999999999999,
        3.8999999999999999,
        3.9199999999999999,
        3.9399999999999999,
        3.96,
        3.98,
        4.0,
        4.0199999999999996,
        4.04,
        4.0599999999999996,
        4.0800000000000001,
        4.0999999999999996,
        4.1200000000000001,
        4.1399999999999997,
        4.1600000000000001,
        4.1799999999999997,
        4.2000000000000002,
        4.2199999999999998,
        4.2400000000000002,
        4.2599999999999998,
        4.2800000000000002,
        4.2999999999999998,
        4.3200000000000003,
        4.3399999999999999,
        4.3600000000000003,
        4.3799999999999999,
        4.4000000000000004,
        4.4199999999999999,
        4.4400000000000004,
        4.46,
        4.4800000000000004,
        4.5,
        4.5199999999999996,
        4.54,
        4.5599999999999996,
        4.5800000000000001,
        4.5999999999999996,
        4.6200000000000001,
        4.6399999999999997,
        4.6600000000000001,
        4.6799999999999997,
        4.7000000000000002,
        4.7199999999999998,
        4.7400000000000002,
        4.7599999999999998,
        4.7800000000000002,
        4.7999999999999998,
        4.8200000000000003,
        4.8399999999999999,
        4.8600000000000003,
        4.8799999999999999,
        4.9000000000000004,
        4.9199999999999999,
        4.9400000000000004,
        4.96,
        4.9800000000000004,
        5.0,
        5.0199999999999996,
        5.04,
        5.0599999999999996,
        5.0800000000000001,
        5.0999999999999996,
        5.1200000000000001,
        5.1399999999999997,
        5.1600000000000001,
        5.1799999999999997,
        5.2000000000000002,
        5.2199999999999998,
        5.2400000000000002,
        5.2599999999999998,
        5.2800000000000002,
        5.2999999999999998,
        5.3200000000000003,
        5.3399999999999999,
        5.3600000000000003,
        5.3799999999999999,
        5.4000000000000004,
        5.4199999999999999,
        5.4400000000000004,
        5.46,
        5.4800000000000004,
        5.5,
        5.5199999999999996,
        5.54,
        5.5599999999999996,
        5.5800000000000001,
        5.5999999999999996,
        5.6200000000000001,
        5.6399999999999997,
        5.6600000000000001,
        5.6799999999999997,
        5.7000000000000002,
        5.7199999999999998,
        5.7400000000000002,
        5.7599999999999998,
        5.7800000000000002,
        5.7999999999999998,
        5.8200000000000003,
        5.8399999999999999,
        5.8600000000000003,
        5.8799999999999999,
        5.9000000000000004,
        5.9199999999999999,
        5.9400000000000004,
        5.96,
        5.9800000000000004,
        6.0,
        6.0199999999999996,
        6.04,
        6.0599999999999996,
        6.0800000000000001,
        6.0999999999999996,
        6.1200000000000001,
        6.1399999999999997,
        6.1600000000000001,
        6.1799999999999997,
        6.2000000000000002,
        6.2199999999999998
    ]
}