{
    "DU": 18,
    "DV": 235,
    "F-measure": 0.4864864864864865,
    "F-measure Chroma": 0.7297297297297297,
    "FN": 0,
    "FNC": 0,
    "FNCch": 0,
    "FNI": 0,
    "FNIch": 0,
    "FP": 62,
    "GU": 80,
    "GV": 173,
    "Overall Accuracy": 0.4268774703557312,
    "Overall Chroma Accuracy": 0.6403162055335968,
    "Precision": 0.4268774703557312,
    "Precision Chroma": 0.6403162055335968,
    "Raw Chroma Accuracy": 0.8323699421965318,
    "Raw Pitch Accuracy": 0.5202312138728323,
    "Recall": 0.5654450261780105,
    "Recall Chroma": 0.8481675392670157,
    "TN": 18,
    "TO": 253,
    "TP": 173,
    "TPC": 90,
    "TPCch": 144,
    "TPI": 83,
    "TPIch": 29,
    "Voiced Chroma Accuracy": 0.8323699421965318,
    "Voiced Pitch Accuracy": 0.5202312138728323,
    "Voicing Accuracy": 0.7549407114624506,
    "Voicing Detection": 1.0,
    "Voicing False Alarm": 0.775
}