{
	"f0": [NaN,59.39296313,59.14340528,59.10562247,59.04212126,54.01799546,52.12083882,52.24492074,59.26680546,58.56067044,58.33960724,58.58253382,58.5401689,58.05503645,57.32918572,56.69965447,56.60672305,56.62509862,56.75349814,57.41612942,41.95239998,42.06983056,43.34995772,36.65992703,52.10852971,50.4780494,54.50838497,56.69965447,58.42002457,57.57839561,57.6954487,56.82129377,56.42022999,56.69965447,56.19060464,55.8818529,55.75477655,56.23796469,55.78826823,55.43920416,55.80256239,56.01165637,55.34911041,54.870648,54.5922353,54.88409971,55.09506659,54.51534236,53.94533626,53.50429368,51.48682058,50.15444483,48.01066916,50.55282904,42.03579953,43.22542975,50.97508853,52.19354484,52.09995042,52.36980111,64.98390566,64.89586189,64.93716338,65.05255887,65.2474677,65.41206049,65.49263361,65.97082385,66.34443846,66.59201253,66.98288556,67.22590188,67.47223688,67.72850932,67.87015657,67.75948934,67.73402016,67.8449863,67.78869715,67.85570053,68.1842165,68.25991259,68.2290728,68.55026501,58.9446811,39.92513109,39.31455706,37.72455926,46.77381333,42.51543156,66.0979178,65.52348157,65.74935796,65.64282512,65.58216082,65.60059968,65.76087121,66.10293124,66.06800204,65.78565104,65.69991543,66.33536084,56.69965447,49.68010446,48.87093638,46.53073755,65.39042668,66.16265447,66.22773905,66.20526534,66.14090841,66.04122931,66.01225453,66.04205015,66.2342141,66.18909584,65.88916639,65.8986029,66.06006698,66.11744212,66.18239983,66.04014241,66.9224708,66.96408626,67.78826823,68.91584416,69.35571171,69.29120865,68.99495077,69.05121022,69.71561263,70.07905467,70.38403829,70.44389501,70.58670888,70.80098323,70.86791222,70.65790556,70.57748736,70.56245579,70.56114625,70.70812478,71.14101862,71.11514702,70.74657497,70.51544643,70.68036542,70.68036542,71.03589437,66.46949519,66.43393382,64.4387179,56.44903424,60.0442468,62.77042737,62.88220147,62.76683901,61.52483579,60.94946661,61.21841468,59.76273913,58.16354076,58.42002457,57.41612942,53.06219564,43.09901596,43.11913652,42.88671556,57.17399484,57.91080137,59.68197091,59.60289274,59.50162564,59.37571512,59.15054735,59.20177885,59.25828875,59.48573577,58.69445537,58.79963735,58.99732579,59.05070577,59.70317001,59.6384002,59.45079543,59.67307512,60.3198113,60.56589632,60.67319946,60.75028678,60.88877997,60.92438613,60.9810738,61.08763838,61.11065222,61.08358893,60.96601517,60.97807582,61.1667223,61.81774129,62.78138697,63.14399075,62.89056162,63.24880116,63.47821666,63.4564669,63.14502131,63.08303314,63.0850082,63.02545059,63.1132392,63.48682058,63.00532896,62.80781824,62.80781824,63.83657672,63.11037714,62.964826,62.91091326,62.8678126,62.87028526,62.73729951,62.72462685,62.8883038,63.14399075,62.80706321,63.14399075,61.12367279,70.16354076,60.91732291,50.66247359,51.24841665,62.64687178,63.10439787,63.4360561,63.7817466,63.9747574,63.9497785,64.06115324,64.62284029,65.34977131,65.40653151,65.54114817,66.02568475,66.12928723,65.8593124,65.63737981,65.5332013,65.55205651,65.60724469,65.64475535,65.80048328,66.06636487,66.11081633,65.71887634,66.0979178,66.12830626,62.4780494,59.21309485,58.37711254,58.1809183,56.93520015,56.91004008,58.45775059,58.29537784,58.24492293,58.21513043,58.57642927,59.01721533,59.10061464,59.24492801,59.35210223,58.9101914,58.9446811,58.6884999,58.57084189,58.59801566,63.83657672,62.06330062,59.86155036,70.46236666,70.95790301,71.58506259,71.88360952,71.90680807,58.98372533,59.91638643,53.32834349,60.34655394,57.65192614,49.06721424,73.29321143,73.46151272,74.15444483,72.29591714,70.47220391,70.44223417,70.68036542,61.52483579,51.66081541,58.68036542,58.83534498,58.91398979,58.87535535,58.56767366,58.46270057,58.79347595,59.00829098,59.10499209,58.85011949,58.66340706,59.01288501,59.26906302,59.37639229,59.39505523,59.30087963,59.53025838,60.04586737,60.13717997,60.3193199,60.48231942,60.91732291,61.08440725,61.52483579,60.28754473,59.77953393,58.95912417,57.92661477,57.13666433,57.63235964,58.43543018,58.89770838,58.93355178,58.9001588,58.91930997,58.90467181,58.93479034,58.84092769,58.74618233,58.85982698,59.00821001,59.03270045,59.09384035,59.23110098,59.25047976,59.12860948,59.06167471,59.13153348,59.20549281,59.14327891,58.97137448,58.84362556,58.75876754,58.7224795,58.71441056,58.90744914,59.13031736,59.07880175,58.95906132,59.0075171,59.09788213,59.06024583,59.10679023,58.62988308,58.16354076,57.7021001,52.55802863,57.29909781,76.93035138,75.44600217,54.27951409,54.65632896,54.22139631,53.6184291,52.01414075,53.27026999,55.26518283,73.52483579,76.93035138,76.93035138,76.93035138,76.93035138,76.93035138,76.93035138,76.93035138,76.93035138,76.93035138,76.93035138,76.93035138,76.93035138,76.93035138,76.93035138,76.93035138,76.93035138,76.93035138,76.93035138,76.93035138,76.93035138,76.93035138,76.93035138,76.93035138,76.93035138,76.93035138,76.93035138,76.93035138,76.93035138,76.93035138,76.93035138,76.93035138,76.93035138,76.93035138,76.93035138,76.93035138,76.93035138,76.93035138,76.93035138,76.93035138,76.93035138,76.93035138,76.93035138,76.93035138,76.93035138,76.93035138,76.93035138,76.93035138,76.93035138,76.93035138,76.93035138,76.93035138,76.93035138,76.93035138,76.93035138,76.93035138,76.93035138,76.93035138,76.93035138,76.93035138,76.93035138,76.93035138,76.93035138,76.93035138,76.93035138,76.93035138,76.93035138,76.93035138,76.93035138,76.93035138,76.93035138,76.93035138,76.93035138,76.93035138,76.93035138,76.93035138,76.93035138,76.93035138,76.93035138,76.93035138,76.93035138,76.93035138,76.93035138,76.93035138,76.93035138,76.93035138,76.93035138,76.93035138,76.93035138,76.93035138,76.93035138,76.93035138,76.93035138,76.93035138,76.93035138,76.93035138,76.93035138,76.93035138,76.93035138,76.93035138,76.93035138,76.93035138,76.93035138,76.93035138,76.93035138,76.93035138,76.93035138,76.93035138,76.93035138,76.93035138,76.93035138,76.93035138,76.93035138,76.93035138,76.93035138,76.93035138,76.93035138,76.93035138,76.93035138,76.93035138,76.93035138,76.93035138,76.93035138,76.93035138,76.93035138,76.93035138,76.93035138,76.93035138,76.93035138,76.93035138,76.93035138,76.93035138,76.93035138,76.93035138,76.93035138,76.93035138,76.93035138,76.93035138,76.93035138,76.93035138,76.93035138,76.93035138,NaN,NaN,NaN],
	"ap0": [NaN,0.2723820105,0.3775049679,0.500098997,0.4423660653,0.5423296733,0.592476034,0.5873322155,0.7474033745,0.67166712,0.1213317813,0.05323088032,0.07297350731,0.1771138119,0.3546659179,0.2357677096,0.1669851365,0.06789993889,0.07203804864,0.4297237211,0.4212461961,0.4809410072,0.4830554314,0.6340853074,0.3534067339,0.5390743199,0.5951283934,0.3726640183,0.1977663716,0.182498799,0.1246071833,0.09397159906,0.07118953485,0.1624451764,0.1128878518,0.0766940551,0.1550532457,0.2391645923,0.2189143844,0.05075584518,0.1199469945,0.1574542495,0.1626810078,0.05414838064,0.04033480987,0.04585539395,0.03651183653,0.06617706057,0.1190615376,0.3413984431,0.5251497069,0.3629555225,0.3123233057,0.6493175572,0.5772236476,0.5653637645,0.7234327354,0.4959513979,0.487789077,0.5671416199,0.171144162,0.1009384188,0.05380775465,0.03185471591,0.04572839536,0.07426110467,0.1399215419,0.2291633048,0.1471734364,0.07663232268,0.04305428508,0.07303879339,0.08566341251,0.05710389754,0.04873863389,0.08369875277,0.08571875254,0.07659934335,0.05296879578,0.05161638818,0.09090068566,0.08009447312,0.05795091758,0.1060602071,1.052147637,0.5747684151,0.5090868145,0.5260130026,0.6140667705,0.7204005838,0.715280783,0.1355587067,0.0482124304,0.04144350217,0.04606224384,0.03399055979,0.06106258619,0.08134583083,0.08341304017,0.1538484644,0.4024116336,0.4393782461,1.089135888,0.5965827547,0.512791255,0.6346092646,0.1983205094,0.09769815986,0.04337750455,0.03089391809,0.03591824267,0.08771773614,0.1748176465,0.1144917598,0.07504279049,0.05690512224,0.04052860987,0.04390176635,0.03188350273,0.03799634366,0.1294691021,0.3331428836,0.595766876,0.3230433284,0.2495268277,0.1450374754,0.04315130464,0.05976606431,0.1415950833,0.2150264155,0.2234261687,0.1371610364,0.08316823822,0.04859849562,0.03317407815,0.01190829661,0.009487953054,0.01519581462,0.02261264194,0.03225767409,0.04130913979,0.04372239502,0.06893436318,0.108883583,0.1483625989,0.2320578553,0.3320680457,0.3854011831,0.4061822418,0.2619112639,0.1890155693,0.6580057019,0.4807637762,0.4885560419,0.2482331761,0.1244284842,0.1759776214,0.3558580578,0.420997576,0.41191893,0.3486539043,0.4000633417,0.4549797571,0.4779135126,0.5872159904,0.4479629024,0.4137787438,0.4426436015,0.4549235228,0.3638718473,0.08565983913,0.04391040465,0.03422692946,0.06837632222,0.1031275209,0.1205500735,0.2092486717,0.190045938,0.163378163,0.07992637741,0.06397051188,0.1083107372,0.1632584831,0.07493036169,0.0316090165,0.07764992753,0.05133744749,0.03131616105,0.02022978762,0.02284208875,0.02299470042,0.01784725658,0.01043714268,0.01306837981,0.02154099252,0.02199324917,0.03041933881,0.05867845708,0.2170639014,0.2973530591,0.2249279761,0.1634970748,0.0662746682,0.029515045,0.03316609538,0.03592830356,0.02587329528,0.01820605414,0.02671668329,0.06681969013,0.1045795066,0.1053022526,0.06610416459,0.3334186475,0.6991713923,0.2437544647,0.147668527,0.07535222666,0.0999444987,0.1764129301,0.0404749047,0.08061324164,0.09984818822,0.1725893066,0.2631979014,0.277591924,0.3268122058,0.1714124481,0.4011234434,1.036215562,0.3788660876,0.6597037622,0.1027168091,0.08126018269,0.07670518181,0.06394347963,0.03870576768,0.05464112509,0.09488824027,0.1710337698,0.2737648836,0.1131259073,0.06650396673,0.04820267411,0.02727142849,0.05699390735,0.04502292324,0.02509218731,0.02475280387,0.02137434957,0.04618545054,0.08082745106,0.08667039823,0.1493970208,0.3792050988,0.3298217008,0.2315285479,0.4579009544,0.4730597012,0.4368672895,0.5249016537,0.6357944388,0.5767420384,0.1458152402,0.03104352351,0.01688731794,0.0275122555,0.05854801877,0.07093845931,0.08926199778,0.08022332393,0.1320220987,0.2027874711,0.2126677215,0.1755371013,0.1147429579,0.3997120448,0.510837896,0.3777123209,0.7814274166,0.638918545,0.4356977486,0.3641563863,0.5459988967,0.7763098165,0.6521247639,0.4831218129,0.4822571467,0.6030933977,0.5787251355,0.681550014,0.269953496,0.2771695219,0.4879894968,0.5738171752,0.3660283213,0.2699674231,0.9359929264,0.6415535813,0.4596913752,0.3454167439,0.06553338428,0.02818402267,0.0362395747,0.0340538219,0.02419808932,0.02522518795,0.02655824378,0.0355925693,0.05857986087,0.02210583248,0.02176204112,0.02627012723,0.02351821538,0.02125898764,0.03798248936,0.1152229762,0.1223781736,0.09484004073,0.08042513318,0.1099651923,0.2051363355,0.2639098173,0.3612091903,0.2828443273,0.1200527991,0.09790278433,0.05607237134,0.0342461109,0.05134664404,0.06921202055,0.03412458718,0.01910190917,0.01652783999,0.01122202891,0.01097833483,0.02122230024,0.03871205179,0.03578794682,0.01638712278,0.0102188373,0.0147324817,0.01418666421,0.006538273341,0.003308815719,0.00393594882,0.002521485513,0.003373213955,0.005339083101,0.006073431555,0.005137336417,0.01255547971,0.01981630409,0.0162421627,0.01680866016,0.02120140518,0.01845574588,0.01969033787,0.0216004927,0.0282142883,0.02884386701,0.08708718051,0.2156549537,0.2980025828,0.2598140488,0.2004546278,0.3524708254,0.9488404372,0.769178654,0.7441789359,0.5939745438,0.4677114714,0.2945163455,0.3088779653,0.5422666838,0.5037851279,0.8111734222,1,1,1,1,1,1,1,1,1,1,1,1,1,1,1,1,1,1,1,1,1,1,1,1,1,1,1,1,1,1,1,1,1,1,1,1,1,1,1,1,1,1,1,1,1,1,1,1,1,1,1,1,1,1,1,1,1,1,1,1,1,1,1,1,1,1,1,1,1,1,1,1,1,1,1,1,1,1,1,1,1,1,1,1,1,1,1,1,1,1,1,1,1,1,1,1,1,1,1,1,1,1,1,1,1,1,1,1,1,1,1,1,1,1,1,1,1,1,1,1,1,1,1,1,1,1,1,1,1,1,1,1,1,1,1,1,1,1,1,1,1,1,NaN,NaN,NaN],
	"ap": [NaN,0.2660584919,0.1476558128,0.3880067349,0.3406256452,0.3182262164,0.6867126827,0.4201194011,0.4048554936,0.4394338968,0.508727542,0.2699539275,0.003635483316,0.04286401432,0.05946936601,0.3227748923,0.1025933695,0.0205169506,0.05815506204,0.05798800276,0.3759498277,0.1925316212,0.3351581204,0.1650919985,0.3004389317,0.08944838369,0.5247176901,0.4765586938,0.2339308824,0.4452904441,0.01112872286,0.01146005142,0.03966118568,0.1478618087,0.08927738734,0.06121268076,0.05650515313,0.1533567936,0.0945852826,0.1537324974,0.02614759883,0.004066441633,0.03078360137,0.05475504445,0.09983806324,0.01929323707,0.03847245159,0.01923186627,0.06028549525,0.1014522081,0.1037157152,0.2652407492,0.1516188317,0.1140662525,0.3378237923,0.4404843625,0.6567603388,0.3065342656,0.5045628706,0.4495194083,0.167395373,0.1760399213,0.01887836353,0.01824674153,0.01500104082,0.01628018399,0.03809211466,0.07638816317,0.2697411204,0.1620562007,0.06938307562,0.02475115645,0.1348397239,0.01966868131,0.01682377307,0.007271158824,0.05097613916,0.05534612354,0.004614910737,0.01265158461,0.006143622097,0.1286412673,0.02938719607,0.01685741525,0.6112297492,0.3546856423,0.2195161472,0.2749165894,0.2071863585,0.3797137195,0.8397548055,0.3575903861,0.2263197311,0.0281058673,0.003612732059,0.01246088621,0.009606802951,0.02783223879,0.05707244959,0.06080580807,0.004094558554,0.1648975608,0.38503705,0.3766406442,0.1300735609,0.3716726902,0.5486993268,0.1625087951,0.02333684848,0.01611064243,0.04259667558,0.01004768768,0.01213101069,0.0389495324,0.2460010816,0.03654342633,0.01919306149,0.02424882578,0.01904886627,0.05337799923,0.00337320184,0.01456530134,0.04013621511,0.1948394642,0.1206034624,0.07948586706,0.07926285028,0.02589264972,0.01554556969,0.01780752712,0.08973419222,0.1113372265,0.04074192568,0.09565898036,0.0181315176,0.06371061439,0.008668916879,0.004869016892,0.004135686189,0.0005394704569,0.00712715182,0.01521490479,0.04905076754,0.002230557888,0.02096403432,0.113062405,0.02788132144,0.3715582824,0.5491285163,0.7296788235,0.4996710546,0.1227421393,0.7116112746,0.6710573814,0.708618581,0.3797979095,0.07530357495,0.1011342176,0.3814309996,0.3319164279,0.2437301418,0.2797122639,0.117753892,0.3517262681,0.0794336943,0.6115390804,0.3466869924,0.06742237162,0.4563961853,0.3513204312,0.4638524986,0.2086472828,0.01078266491,0.0200961312,0.03088536863,0.06293531682,0.01281339391,0.06024476461,0.3501848983,0.04567094384,0.01946395759,0.01752930229,0.2712410904,0.08464483011,0.03994693074,0.009895981043,0.03055070809,0.07700233882,0.01762645153,0.02092629003,0.006041455548,0.01955719217,0.008402857514,0.004777961946,0.005864133448,0.01559312974,0.005844974605,0.01727948547,0.03311270597,0.02871537255,0.609344951,0.08123226169,0.08339774873,0.01315882944,0.01122915058,0.02216269812,0.02124984504,0.03068539078,0.007775015235,0.001410647971,0.03772559063,0.09498655351,0.1297381292,0.01233394341,0.1718207682,0.4517497711,0.2507027508,0.1334944231,0.08805241599,0.04177496047,0.1281537141,0.02388267015,0.02272933288,0.07847479664,0.1185504137,0.09938151151,0.4487825748,0.6525471065,0.924666957,0.4982018189,0.4314595107,0.2807079422,0.4789629293,0.2857904994,0.02013707451,0.002185214209,0.09867506499,0.02022887505,0.01109133438,0.05036090523,0.182255668,0.2327477207,0.1204811525,0.03864709698,0.0213759807,0.01229921851,0.006146851882,0.03868039803,0.003267696226,0.009716687315,0.009335836788,0.008781482853,0.04867572722,0.008433929536,0.02375478803,0.3270910934,0.5271435609,0.1000017068,0.09566902873,0.1931560355,0.5494874493,0.3463589084,0.2754348945,0.2597495437,0.2811474957,0.06875555269,0.007633885716,0.0116404685,0.05538492781,0.03536185349,0.02190586273,0.01332526515,0.04228018026,0.06489321166,0.1065694486,0.04326516062,0.01698163061,0.4961337141,0.1334772347,0.4284186235,0.8024345039,0.4190670144,0.528334965,0.1675099049,0.1411101035,0.4072596703,0.2665503601,0.297560992,0.1962353385,0.5262568546,0.5051886249,0.6518985909,0.3219840312,0.05173208542,0.7283600177,0.276010703,0.1755291299,0.04162111228,0.8695654558,0.1537541818,0.361058524,0.6194882252,0.008704514896,0.01332526729,0.001753358905,0.00468227218,0.02599801633,0.01285454101,0.01785137185,0.04803390027,0.005246901136,0.01374105147,0.02389073524,0.00718529235,0.02632629952,0.002619811638,0.02452780701,0.08962659821,0.06764298159,0.04387272166,0.02758090913,0.0518790437,0.09344726342,0.2626863584,0.1078954418,0.1698256677,0.1680243858,0.1836083443,0.08372773302,0.02223363372,0.03809731608,0.02637904503,0.05466580331,0.005492915809,0.009297940167,0.009877750707,0.003242441726,0.00975255471,0.02922120407,0.009015937525,0.008120722813,0.00336379343,0.0087356481,0.009029977738,0.002434112882,0.0006084796837,0.005680587805,0.0004804376816,0.0004833212878,0.002070537284,0.005298514426,0.001535159878,0.004482319169,0.009392806551,0.003842857018,0.01695688486,0.01339552973,0.01384372856,0.02664968558,0.008342286759,0.009929053658,0.02573539219,0.001693052572,0.06337556753,0.06037571152,0.5988325913,0.1479386102,0.3052977665,0.7291278251,0.642170844,0.4682296938,0.3361940368,0.230775526,0.5337454368,0.09529519626,0.4270176361,0.3891154228,0.5000003423,1,1,1,1,1,1,1,1,1,1,1,1,1,1,1,1,1,1,1,1,1,1,1,1,1,1,1,1,1,1,1,1,1,1,1,1,1,1,1,1,1,1,1,1,1,1,1,1,1,1,1,1,1,1,1,1,1,1,1,1,1,1,1,1,1,1,1,1,1,1,1,1,1,1,1,1,1,1,1,1,1,1,1,1,1,1,1,1,1,1,1,1,1,1,1,1,1,1,1,1,1,1,1,1,1,1,1,1,1,1,1,1,1,1,1,1,1,1,1,1,1,1,1,1,1,1,1,1,1,1,1,1,1,1,1,1,1,1,1,1,1,NaN,NaN,NaN],
	"pwr": [NaN,6.711206305e-07,4.102595389e-06,3.170668203e-06,1.248523468e-05,9.019049212e-06,3.481425384e-06,5.315154987e-06,1.019306869e-05,8.264134836e-06,1.192704413e-05,7.554982264e-06,8.934957773e-05,0.0001446260868,4.769854853e-05,7.885113371e-06,3.851400965e-05,0.002948975067,0.01947407768,0.01928025406,0.001868005159,0.00306894979,0.002271284522,0.002444383709,0.002339433567,0.002258384814,0.000296600035,6.480499114e-05,9.083425376e-06,2.057173156e-06,6.382665901e-05,0.003653065325,0.01556461372,0.01713315682,0.009897411052,0.008968268803,0.009662852054,0.006889204006,0.001645964504,0.002306988806,0.0004177227927,0.0005888198722,0.000853966257,0.002161024244,0.0008703615078,0.01022463257,0.007896382879,0.008264024548,0.008824987826,0.005467766915,0.002308991474,0.0002777385073,0.0006863012903,0.0002282188041,4.079793135e-05,2.418998434e-05,0.0002237326518,7.288154302e-05,4.182612796e-05,6.216194816e-05,3.248423739e-05,0.0001562625343,0.006458521833,0.02214007943,0.01970096111,0.01245000336,0.005816553945,0.002871426252,0.0006343923686,0.001878245637,0.01325535054,0.01431133677,0.004877244979,0.003185175423,0.01360756316,0.01079613927,0.007015762056,0.02267772051,0.021683127,0.01353257644,0.01387549769,0.006636802639,0.02022793433,0.01619051439,0.002384467161,0.0001988552251,0.001559033973,0.001149274267,0.0003219666285,0.0001463999085,0.0001310779724,4.428499301e-05,0.0003001344784,0.07339259196,0.2006428856,0.2491868272,0.03492627052,0.04539485834,0.009090550675,0.02383708425,0.06468977261,0.007932210715,0.008854956749,0.0008414101043,0.003391202092,0.0008298811594,0.0004883240689,0.001036175083,0.03567522815,0.1368551932,0.1592558855,0.0317502265,0.01485008799,0.03076021192,0.003478956256,0.01083308187,0.03761449001,0.02525725317,0.03587126659,0.03612184732,0.01843152052,0.02958237664,0.04146236929,0.003504242961,0.03503119652,0.0735868052,0.0564921442,0.01760602279,0.01377720521,0.01421495856,0.003250566166,0.001417035212,0.002052455495,0.003435055161,0.01617090158,0.01747194392,0.009454457385,0.008394116263,0.005168914086,0.0137359137,0.02911905025,0.1063102919,0.05141387263,0.02436251357,0.1108109267,0.02177895254,0.01867569171,0.006995884596,0.004958429145,0.001847165631,0.0001341475229,5.362549359e-05,1.100493141e-05,7.742200024e-06,0.000198374536,0.002167933802,0.03439945527,0.1004727484,0.02280541582,0.01744115427,0.03857457417,0.02560217809,0.02773309213,0.00647869321,0.009691751588,0.002575559128,0.005372106831,0.007340887536,0.001392066808,0.0004150091208,0.0002021207233,0.006484089331,0.06725170672,0.05669251214,0.02249056632,0.008904257407,0.005429807073,0.003918289816,0.001877689744,0.004946512958,0.007016909145,0.02228352177,0.003672260862,0.0003471559456,0.0008850455794,0.001992842794,0.006314163165,0.009937289933,0.1124588704,0.08147145603,0.02799850654,0.0227149958,0.01892788179,0.02138753873,0.02100351204,0.01939351149,0.02922142391,0.02681486888,0.02571184272,0.01187213972,0.002359949966,0.02831718729,0.04551809205,0.01535554351,0.009930789698,0.01051810397,0.00796252975,0.007896260775,0.0102905886,0.0122396995,0.01100166528,0.03360030228,0.009043758814,0.001724889919,2.261626315e-05,3.133876705e-07,1.657970947e-05,0.002421455093,0.01639995851,0.04465700003,0.02308689555,0.008784478012,0.006311082688,0.00418650753,0.01563440283,0.02112092571,0.003220494152,8.988002375e-05,3.76545581e-05,1.566812741e-06,3.074004631e-06,1.754451428e-05,8.296896669e-05,7.145548605e-05,0.02947360274,0.07491265383,0.008616725665,0.03953850118,0.01995035549,0.01070977973,0.006017257768,0.01857008734,0.006810588507,0.02267988444,0.02149168665,0.01995732398,0.009498697437,0.01096298981,0.02156153244,0.02303898858,0.01564745862,0.01747327929,0.0280612342,0.02280369986,0.01446534647,0.00865121177,0.0006969120338,0.003749589395,0.0003585999984,5.610707049e-05,5.161903849e-06,0.00014965425,9.295429028e-05,0.0001795846655,0.0006350003536,0.01456573219,0.1063540016,0.05035907272,0.01173459515,0.0161853906,0.02836362911,0.007898124576,0.006262556072,0.005488968983,0.01583531914,0.006374565697,0.004300363188,0.0003246336282,2.860212355e-05,1.333035287e-06,1.140320571e-07,2.468491347e-07,7.48819064e-07,5.488356137e-06,1.211202687e-05,1.349238354e-05,1.007641324e-05,1.493632358e-05,4.562407808e-05,2.345120958e-05,3.278314784e-05,5.099760068e-06,5.249756765e-06,6.483142109e-05,1.735275271e-05,1.187284712e-05,7.736787003e-06,8.675848331e-06,7.836836241e-06,5.845148046e-06,0.0004040795673,0.000844783558,0.0274125252,0.06835224474,0.04256985791,0.02202673566,0.01497681674,0.01382576221,0.03678061947,0.0243857537,0.01168678339,0.009214659056,0.01195163591,0.02118516701,0.02536089911,0.01456091249,0.01246755556,0.01464880942,0.006103896258,0.01554747833,0.01075997947,0.008073634755,0.004299892765,0.003585866468,0.01240817883,0.002075676488,0.003676728839,0.01263089183,0.008875638473,0.005161270177,0.00283008784,0.005122935552,0.007962951262,0.03969053788,0.02194839138,0.01506639063,0.01169993408,0.006039952239,0.003807715183,0.00542176061,0.005884894808,0.009064792694,0.0130764919,0.01204035642,0.01362145255,0.01243449681,0.01145142261,0.007705390662,0.006058680335,0.006743858957,0.00645684068,0.005989202404,0.005453988716,0.004063270528,0.003066128808,0.002556498911,0.001831569345,0.002415164978,0.002991554009,0.002670140323,0.002413720034,0.001115331097,0.001234530684,0.0005994809541,0.0003019891601,7.688668604e-05,4.218936591e-05,2.070204841e-06,9.032310513e-09,7.672833695e-09,3.026294769e-08,2.03329492e-07,6.99199262e-07,1.252019245e-06,3.748485751e-06,7.142938081e-08,1.023307552e-08,1.621499125e-10,0,0,0,0,0,0,0,0,0,0,0,0,0,0,0,0,0,0,0,0,0,0,0,0,0,0,0,0,0,0,0,0,0,0,0,0,0,0,0,0,0,0,0,0,0,0,0,0,0,0,0,0,0,0,0,0,0,0,0,0,0,0,0,0,0,0,0,0,0,0,0,0,0,0,0,0,0,0,0,0,0,0,0,0,0,0,0,0,0,0,0,0,0,0,0,0,0,0,0,0,0,0,0,0,0,0,0,0,0,0,0,0,0,0,0,0,0,0,0,0,0,0,0,0,0,0,0,0,0,0,0,0,0,0,0,0,0,0,0,0,0,NaN,NaN,NaN],
	"sr": 16000,
	"range": [1,166912],
	"minf0": 63.1883,
	"maxf0": 706.3069,
	"thresh": 0.1,
	"relflag": 1,
	"hop": 320,
	"bufsize": 10000,
	"wsize": 640,
	"lpf": 4000,
	"shift": 0,
	"plotthreshold": 0.2
}
