{
    "f0": [
        48.627482345159493,
        48.627484259661912,
        59.436679923293269,
        55.491806401099019,
        49.486256916661183,
        49.592685570438135,
        43.204341463068559,
        35.627973661461951,
        45.781567876444548,
        46.228391880154803,
        50.978539419127479,
        48.716818514162718,
        48.218953001091521,
        46.654501998981686,
        46.874844973103137,
        46.742663484016418,
        47.823028652629588,
        47.900694631125617,
        47.978023813870713,
        46.188965628680009,
        46.553590603520611,
        46.91069217363021,
        46.553855190455963,
        48.018006855243534,
        46.029046067505362,
        46.276303811701162,
        46.396712463722807,
        50.220889675798247,
        40.785536406516286,
        47.182392810058751,
        45.148138774049585,
        52.505372810421918,
        48.650765029142576,
        48.779368194815845,
        48.733025960974473,
        48.548329210787799,
        46.47464061027808,
        41.87109893052935,
        43.522546905354751,
        44.008735756517126,
        44.481639364098996,
        44.155019902899838,
        47.078796749510389,
        42.817443241122547,
        42.204186034137471,
        36.430106722536351,
        47.36415041750729,
        43.298091791677791,
        59.222322364530172,
        59.098550805359395,
        38.903726274957968,
        43.6227457737454,
        40.264152115314161,
        41.913909493193366,
        41.674324831097671,
        40.928186372043456,
        40.940620732986751,
        40.749647954642882,
        40.676115106361109,
        40.714757023044804,
        40.75330825511476,
        40.230243399866083,
        42.507743585964704,
        40.439661449127755,
        40.628830658362695,
        41.34190151710331,
        43.27918339823546,
        43.504603390800483,
        43.604403632622009,
        43.937011511273816,
        40.429968911267373,
        42.511187840777751,
        42.9051326307493,
        42.350363014536228,
        42.241363654115929,
        41.835714583727508,
        40.845687571416271,
        38.421798503648432,
        60.411191563388286,
        60.21304566228094,
        59.837291755441058,
        59.817072442739587,
        59.582701699204684,
        59.764608083549128,
        60.068873262861608,
        60.032202889038828,
        60.306252764544297,
        60.241598427854754,
        60.370796989746886,
        60.363329666231486,
        60.501410524960711,
        60.359589902997001,
        60.339686646336418,
        60.280046007317175,
        60.162253553607457,
        60.035165670078847,
        59.91141517410513,
        59.956885305275208,
        59.792799699539039,
        60.002304935418898,
        60.098319233787478,
        60.117791698639806,
        60.175252409920873,
        60.039598756929543,
        59.929851965109542,
        59.978096629343767,
        59.918033017094992,
        59.765621335337016,
        60.001228754345206,
        59.905864883603293,
        59.892645853373153,
        59.879416655257245,
        60.038440247309197,
        60.119418213204909,
        60.200019235213318,
        60.106254958119465,
        59.964386285331521,
        59.821345502246487,
        59.677112944200374,
        59.785753535602218,
        59.936201285694096,
        60.064306781679832,
        60.027925144449014,
        60.011398822484637,
        60.157147317356355,
        59.968570507169048,
        60.038180303203056,
        60.012470404092198,
        59.962490090801452,
        59.912365067665931,
        59.86209456098571,
        60.035735964240608,
        59.946796523820332,
        59.948198259174085,
        59.974086618195273,
        60.149268940976597,
        59.721619687708738,
        59.854689586870926,
        59.895979983157531,
        59.937172135010968,
        59.804271493808123,
        58.983742852600209,
        57.77986340809484,
        59.871345776820689,
        59.859315756941967,
        60.038379767901134,
        60.215612664420377,
        60.041291123086125,
        59.918909549578601,
        60.447629606008618,
        60.64792328628323,
        61.001232321203105,
        39.87476976400891,
        39.557382129774098,
        44.624957407079165,
        42.231540345912961,
        42.857229071318969,
        47.388535320861585,
        44.873399254868069,
        42.736344452806406,
        37.400616417901489,
        46.196574805637866,
        44.61229694110186,
        36.817247901523309,
        52.878484832527747,
        36.333663937907787,
        42.515977072867045,
        52.97107930448729,
        60.160260831358073,
        45.51439378852416,
        48.014472077080612,
        51.192470997678797,
        52.081286510359782,
        52.655268786919066,
        53.210833003213523,
        55.276715060155638,
        55.564194814004878,
        55.140251721326791,
        54.781955935378164,
        54.377171616276939,
        52.567311864666337,
        51.686638375719966,
        49.459639991258918,
        44.683047743275175,
        35.248661330694915,
        44.44688356682402,
        43.136043948088584,
        41.159336801379638,
        40.114943371872641,
        37.565809477827926,
        34.61206890223314,
        55.514991819326106,
        55.215652928598153,
        37.668216272903628,
        50.593990187467924,
        50.428583396234579,
        50.087586281776595,
        50.171550605114341,
        50.903024370400701,
        50.769460040467884,
        50.458842918818746,
        50.43103331580177,
        50.795906997173702,
        50.929010769386721,
        50.466007335496229,
        50.877311946940786,
        50.942843880236431,
        49.938662695071017,
        37.95808957515446,
        39.260429819050785,
        35.215032619343447,
        37.308788258086068,
        37.653353596558645,
        37.582697725245396,
        37.352686629520456,
        55.979003954399637,
        55.734878473228477,
        56.16626653930583,
        56.660589781730842,
        56.809101723262216,
        56.415061327367795,
        56.607734635920679,
        56.560966551234912,
        57.043137275747945,
        57.112166692585092,
        57.413680368204993,
        57.596019084402471,
        57.776453967877863,
        57.60527318806885,
        57.654037781360344,
        57.780585414865946,
        57.86758422566902,
        57.994972674035566,
        57.751423635196026,
        57.785957544631678,
        57.910273225339921,
        57.989154733309633,
        57.91587284654603,
        57.93621493776778,
        57.956535463312264,
        57.802835280363787,
        57.759895192399483,
        57.660733406318172,
        57.761507420083227,
        57.73085157834042,
        57.519258301204424,
        57.476810269443661,
        57.520183541921583,
        57.563449563765261,
        57.778873928569638,
        57.818712825301972,
        57.770957184765024,
        57.990135685990808,
        58.073970044364515,
        58.157399289567635,
        57.927914569395661,
        57.69534585671024,
        57.109853300436242,
        55.448092521760081,
        54.883684023286982,
        54.359941613695923,
        54.13192591789047,
        54.422436548358121,
        54.659807396257165,
        54.81357867847985,
        54.873522100170881,
        54.933260015708647,
        55.335624783005386,
        55.388135004993572,
        55.405621572208354,
        55.25447911803073,
        55.054941350877968,
        55.049165930298649,
        55.457320381867873,
        55.434694987538613,
        55.5357681492289,
        55.654230875561218,
        55.588966800847565,
        55.592643932766492,
        55.436046111972225,
        55.70132932841198,
        55.589485274659694,
        55.749581783042231,
        55.605473416822839,
        55.644054280461575,
        55.564398381444974,
        55.426655744797628,
        55.489187357056686,
        55.493074438277802,
        55.526188473175011,
        55.887485672858787,
        55.953601878311517,
        55.813659275417145,
        55.672573601503714,
        55.530335217082495,
        55.729742844819661,
        55.805485299260987,
        55.941438892756942,
        55.872331312967503,
        55.52333149894033,
        55.482692602885535,
        55.796270050242583,
        55.793188154092952,
        55.701553258503637,
        55.82626182026231,
        55.95007713346105,
        55.899022455470529,
        55.892578502025792,
        55.689761011820408,
        55.751813199407849,
        55.738856703960785,
        55.900296904578738,
        55.979751605259125,
        55.924955762868066,
        55.962471177889668,
        55.959921129437895,
        56.009976741188886,
        56.059885467419818,
        56.164978736003803,
        56.067965563925867,
        55.92071336585893,
        55.772200478578725,
        56.631172512711267,
        55.637397811250672,
        55.45409227873597,
        55.513114258827926,
        55.571933223809161,
        56.309559294887784,
        56.344693757755365,
        56.890775636918903,
        56.467502957259384,
        56.031776743805153,
        56.264744169716714,
        55.729184687177273,
        55.454761849242018,
        55.377931321298917,
        55.025603444425293,
        54.979234937761731,
        55.793331082514598,
        56.167812437369534,
        56.026111191907731,
        55.999407984564712,
        55.972664945110061,
        55.771884704311752,
        55.482994025346699,
        43.936955448502559,
        50.224985333019433,
        35.934656634436976,
        43.988797149287734,
        43.599251331708913,
        0.0,
        0.0,
        0.0,
        0.0,
        0.0,
        0.0,
        0.0,
        0.0,
        0.0,
        0.0,
        0.0,
        0.0,
        0.0,
        0.0,
        0.0,
        0.0,
        0.0,
        0.0,
        0.0,
        0.0,
        0.0,
        0.0,
        0.0,
        0.0,
        0.0,
        0.0,
        0.0,
        0.0,
        0.0,
        0.0,
        0.0,
        0.0,
        0.0,
        0.0,
        0.0,
        0.0,
        0.0,
        0.0,
        0.0,
        0.0,
        0.0,
        0.0,
        0.0,
        0.0,
        0.0,
        0.0,
        0.0,
        0.0,
        0.0,
        0.0,
        0.0,
        0.0,
        0.0,
        0.0,
        0.0,
        0.0,
        0.0,
        0.0,
        0.0,
        0.0,
        0.0,
        0.0,
        0.0,
        0.0,
        0.0,
        0.0,
        0.0,
        0.0,
        0.0,
        0.0,
        0.0,
        0.0,
        0.0,
        0.0,
        0.0,
        0.0,
        0.0,
        0.0,
        0.0,
        0.0,
        0.0,
        0.0,
        0.0,
        0.0,
        0.0,
        0.0,
        0.0,
        0.0,
        0.0,
        0.0,
        0.0,
        0.0,
        0.0,
        0.0,
        0.0,
        0.0,
        0.0,
        0.0,
        0.0,
        0.0,
        0.0,
        0.0,
        0.0,
        0.0,
        0.0,
        0.0,
        0.0,
        0.0,
        0.0,
        0.0,
        0.0,
        0.0,
        0.0,
        0.0,
        0.0,
        0.0,
        0.0,
        0.0,
        0.0,
        0.0,
        0.0,
        0.0,
        0.0,
        0.0,
        0.0,
        0.0,
        0.0,
        0.0,
        0.0,
        0.0,
        0.0,
        0.0,
        0.0,
        0.0,
        0.0,
        0.0,
        0.0,
        0.0,
        0.0,
        0.0,
        0.0,
        0.0,
        0.0,
        0.0,
        0.0,
        0.0,
        0.0,
        0.0,
        0.0,
        0.0,
        0.0,
        0.0,
        0.0,
        0.0,
        0.0,
        0.0,
        0.0,
        0.0,
        0.0,
        0.0,
        0.0,
        0.0,
        0.0,
        0.0,
        0.0,
        0.0,
        0.0,
        0.0,
        0.0,
        0.0,
        0.0,
        0.0,
        0.0,
        0.0,
        0.0,
        0.0,
        0.0,
        0.0,
        0.0
    ],
    "time": [
        0.02,
        0.040000000000000001,
        0.059999999999999998,
        0.080000000000000002,
        0.10000000000000001,
        0.12,
        0.14000000000000001,
        0.16,
        0.17999999999999999,
        0.20000000000000001,
        0.22,
        0.23999999999999999,
        0.26000000000000001,
        0.28000000000000003,
        0.29999999999999999,
        0.32000000000000001,
        0.34000000000000002,
        0.35999999999999999,
        0.38,
        0.40000000000000002,
        0.41999999999999998,
        0.44,
        0.46000000000000002,
        0.47999999999999998,
        0.5,
        0.52000000000000002,
        0.54000000000000004,
        0.56000000000000005,
        0.57999999999999996,
        0.59999999999999998,
        0.62,
        0.64000000000000001,
        0.66000000000000003,
        0.68000000000000005,
        0.69999999999999996,
        0.71999999999999997,
        0.73999999999999999,
        0.76000000000000001,
        0.78000000000000003,
        0.80000000000000004,
        0.81999999999999995,
        0.83999999999999997,
        0.85999999999999999,
        0.88,
        0.90000000000000002,
        0.92000000000000004,
        0.93999999999999995,
        0.95999999999999996,
        0.97999999999999998,
        1.0,
        1.02,
        1.04,
        1.0600000000000001,
        1.0800000000000001,
        1.1000000000000001,
        1.1200000000000001,
        1.1399999999999999,
        1.1599999999999999,
        1.1799999999999999,
        1.2,
        1.22,
        1.24,
        1.26,
        1.28,
        1.3,
        1.3200000000000001,
        1.3400000000000001,
        1.3600000000000001,
        1.3799999999999999,
        1.3999999999999999,
        1.4199999999999999,
        1.4399999999999999,
        1.46,
        1.48,
        1.5,
        1.52,
        1.54,
        1.5600000000000001,
        1.5800000000000001,
        1.6000000000000001,
        1.6200000000000001,
        1.6399999999999999,
        1.6599999999999999,
        1.6799999999999999,
        1.7,
        1.72,
        1.74,
        1.76,
        1.78,
        1.8,
        1.8200000000000001,
        1.8400000000000001,
        1.8600000000000001,
        1.8799999999999999,
        1.8999999999999999,
        1.9199999999999999,
        1.9399999999999999,
        1.96,
        1.98,
        2.0,
        2.02,
        2.04,
        2.0600000000000001,
        2.0800000000000001,
        2.1000000000000001,
        2.1200000000000001,
        2.1400000000000001,
        2.1600000000000001,
        2.1800000000000002,
        2.2000000000000002,
        2.2200000000000002,
        2.2400000000000002,
        2.2599999999999998,
        2.2799999999999998,
        2.2999999999999998,
        2.3199999999999998,
        2.3399999999999999,
        2.3599999999999999,
        2.3799999999999999,
        2.3999999999999999,
        2.4199999999999999,
        2.4399999999999999,
        2.46,
        2.48,
        2.5,
        2.52,
        2.54,
        2.5600000000000001,
        2.5800000000000001,
        2.6000000000000001,
        2.6200000000000001,
        2.6400000000000001,
        2.6600000000000001,
        2.6800000000000002,
        2.7000000000000002,
        2.7200000000000002,
        2.7400000000000002,
        2.7599999999999998,
        2.7799999999999998,
        2.7999999999999998,
        2.8199999999999998,
        2.8399999999999999,
        2.8599999999999999,
        2.8799999999999999,
        2.8999999999999999,
        2.9199999999999999,
        2.9399999999999999,
        2.96,
        2.98,
        3.0,
        3.02,
        3.04,
        3.0600000000000001,
        3.0800000000000001,
        3.1000000000000001,
        3.1200000000000001,
        3.1400000000000001,
        3.1600000000000001,
        3.1800000000000002,
        3.2000000000000002,
        3.2200000000000002,
        3.2400000000000002,
        3.2599999999999998,
        3.2799999999999998,
        3.2999999999999998,
        3.3199999999999998,
        3.3399999999999999,
        3.3599999999999999,
        3.3799999999999999,
        3.3999999999999999,
        3.4199999999999999,
        3.4399999999999999,
        3.46,
        3.48,
        3.5,
        3.52,
        3.54,
        3.5600000000000001,
        3.5800000000000001,
        3.6000000000000001,
        3.6200000000000001,
        3.6400000000000001,
        3.6600000000000001,
        3.6800000000000002,
        3.7000000000000002,
        3.7200000000000002,
        3.7400000000000002,
        3.7599999999999998,
        3.7799999999999998,
        3.7999999999999998,
        3.8199999999999998,
        3.8399999999999999,
        3.8599999999999999,
        3.8799999999999999,
        3.8999999999999999,
        3.9199999999999999,
        3.9399999999999999,
        3.96,
        3.98,
        4.0,
        4.0199999999999996,
        4.04,
        4.0599999999999996,
        4.0800000000000001,
        4.0999999999999996,
        4.1200000000000001,
        4.1399999999999997,
        4.1600000000000001,
        4.1799999999999997,
        4.2000000000000002,
        4.2199999999999998,
        4.2400000000000002,
        4.2599999999999998,
        4.2800000000000002,
        4.2999999999999998,
        4.3200000000000003,
        4.3399999999999999,
        4.3600000000000003,
        4.3799999999999999,
        4.4000000000000004,
        4.4199999999999999,
        4.4400000000000004,
        4.46,
        4.4800000000000004,
        4.5,
        4.5199999999999996,
        4.54,
        4.5599999999999996,
        4.5800000000000001,
        4.5999999999999996,
        4.6200000000000001,
        4.6399999999999997,
        4.6600000000000001,
        4.6799999999999997,
        4.7000000000000002,
        4.7199999999999998,
        4.7400000000000002,
        4.7599999999999998,
        4.7800000000000002,
        4.7999999999999998,
        4.8200000000000003,
        4.8399999999999999,
        4.8600000000000003,
        4.8799999999999999,
        4.9000000000000004,
        4.9199999999999999,
        4.9400000000000004,
        4.96,
        4.9800000000000004,
        5.0,
        5.0199999999999996,
        5.04,
        5.0599999999999996,
        5.0800000000000001,
        5.0999999999999996,
        5.1200000000000001,
        5.1399999999999997,
        5.1600000000000001,
        5.1799999999999997,
        5.2000000000000002,
        5.2199999999999998,
        5.2400000000000002,
        5.2599999999999998,
        5.2800000000000002,
        5.2999999999999998,
        5.3200000000000003,
        5.3399999999999999,
        5.3600000000000003,
        5.3799999999999999,
        5.4000000000000004,
        5.4199999999999999,
        5.4400000000000004,
        5.46,
        5.4800000000000004,
        5.5,
        5.5199999999999996,
        5.54,
        5.5599999999999996,
        5.5800000000000001,
        5.5999999999999996,
        5.6200000000000001,
        5.6399999999999997,
        5.6600000000000001,
        5.6799999999999997,
        5.7000000000000002,
        5.7199999999999998,
        5.7400000000000002,
        5.7599999999999998,
        5.7800000000000002,
        5.7999999999999998,
        5.8200000000000003,
        5.8399999999999999,
        5.8600000000000003,
        5.8799999999999999,
        5.9000000000000004,
        5.9199999999999999,
        5.9400000000000004,
        5.96,
        5.9800000000000004,
        6.0,
        6.0199999999999996,
        6.04,
        6.0599999999999996,
        6.0800000000000001,
        6.0999999999999996,
        6.1200000000000001,
        6.1399999999999997,
        6.1600000000000001,
        6.1799999999999997,
        6.2000000000000002,
        6.2199999999999998,
        6.2400000000000002,
        6.2599999999999998,
        6.2800000000000002,
        6.2999999999999998,
        6.3200000000000003,
        6.3399999999999999,
        6.3600000000000003,
        6.3799999999999999,
        6.4000000000000004,
        6.4199999999999999,
        6.4400000000000004,
        6.46,
        6.4800000000000004,
        6.5,
        6.5199999999999996,
        6.54,
        6.5599999999999996,
        6.5800000000000001,
        6.5999999999999996,
        6.6200000000000001,
        6.6399999999999997,
        6.6600000000000001,
        6.6799999999999997,
        6.7000000000000002,
        6.7199999999999998,
        6.7400000000000002,
        6.7599999999999998,
        6.7800000000000002,
        6.7999999999999998,
        6.8200000000000003,
        6.8399999999999999,
        6.8600000000000003,
        6.8799999999999999,
        6.9000000000000004,
        6.9199999999999999,
        6.9400000000000004,
        6.96,
        6.9800000000000004,
        7.0,
        7.0199999999999996,
        7.04,
        7.0599999999999996,
        7.0800000000000001,
        7.0999999999999996,
        7.1200000000000001,
        7.1399999999999997,
        7.1600000000000001,
        7.1799999999999997,
        7.2000000000000002,
        7.2199999999999998,
        7.2400000000000002,
        7.2599999999999998,
        7.2800000000000002,
        7.2999999999999998,
        7.3200000000000003,
        7.3399999999999999,
        7.3600000000000003,
        7.3799999999999999,
        7.4000000000000004,
        7.4199999999999999,
        7.4400000000000004,
        7.46,
        7.4800000000000004,
        7.5,
        7.5199999999999996,
        7.54,
        7.5599999999999996,
        7.5800000000000001,
        7.5999999999999996,
        7.6200000000000001,
        7.6399999999999997,
        7.6600000000000001,
        7.6799999999999997,
        7.7000000000000002,
        7.7199999999999998,
        7.7400000000000002,
        7.7599999999999998,
        7.7800000000000002,
        7.7999999999999998,
        7.8200000000000003,
        7.8399999999999999,
        7.8600000000000003,
        7.8799999999999999,
        7.9000000000000004,
        7.9199999999999999,
        7.9400000000000004,
        7.96,
        7.9800000000000004,
        8.0,
        8.0199999999999996,
        8.0399999999999991,
        8.0600000000000005,
        8.0800000000000001,
        8.0999999999999996,
        8.1199999999999992,
        8.1400000000000006,
        8.1600000000000001,
        8.1799999999999997,
        8.1999999999999993,
        8.2200000000000006,
        8.2400000000000002,
        8.2599999999999998,
        8.2799999999999994,
        8.3000000000000007,
        8.3200000000000003,
        8.3399999999999999,
        8.3599999999999994,
        8.3800000000000008,
        8.4000000000000004,
        8.4199999999999999,
        8.4399999999999995,
        8.4600000000000009,
        8.4800000000000004,
        8.5,
        8.5199999999999996,
        8.5399999999999991,
        8.5600000000000005,
        8.5800000000000001,
        8.5999999999999996,
        8.6199999999999992,
        8.6400000000000006,
        8.6600000000000001,
        8.6799999999999997,
        8.6999999999999993,
        8.7200000000000006,
        8.7400000000000002,
        8.7599999999999998,
        8.7799999999999994,
        8.8000000000000007,
        8.8200000000000003,
        8.8399999999999999,
        8.8599999999999994,
        8.8800000000000008,
        8.9000000000000004,
        8.9199999999999999,
        8.9399999999999995,
        8.9600000000000009,
        8.9800000000000004,
        9.0,
        9.0199999999999996,
        9.0399999999999991,
        9.0600000000000005,
        9.0800000000000001,
        9.0999999999999996,
        9.1199999999999992,
        9.1400000000000006,
        9.1600000000000001,
        9.1799999999999997,
        9.1999999999999993,
        9.2200000000000006,
        9.2400000000000002,
        9.2599999999999998,
        9.2799999999999994,
        9.3000000000000007,
        9.3200000000000003,
        9.3399999999999999,
        9.3599999999999994,
        9.3800000000000008,
        9.4000000000000004,
        9.4199999999999999,
        9.4399999999999995,
        9.4600000000000009,
        9.4800000000000004,
        9.5,
        9.5199999999999996,
        9.5399999999999991,
        9.5600000000000005,
        9.5800000000000001,
        9.5999999999999996,
        9.6199999999999992,
        9.6400000000000006,
        9.6600000000000001,
        9.6799999999999997,
        9.6999999999999993,
        9.7200000000000006,
        9.7400000000000002,
        9.7599999999999998,
        9.7799999999999994,
        9.8000000000000007,
        9.8200000000000003,
        9.8399999999999999,
        9.8599999999999994,
        9.8800000000000008,
        9.9000000000000004,
        9.9199999999999999,
        9.9399999999999995,
        9.9600000000000009,
        9.9800000000000004,
        10.0,
        10.02,
        10.039999999999999,
        10.06,
        10.08,
        10.1,
        10.119999999999999,
        10.140000000000001,
        10.16,
        10.18,
        10.199999999999999,
        10.220000000000001,
        10.24,
        10.26,
        10.279999999999999,
        10.300000000000001,
        10.32,
        10.34,
        10.359999999999999,
        10.380000000000001,
        10.4,
        10.42,
        10.44,
        10.460000000000001,
        10.48,
        10.5,
        10.52,
        10.539999999999999,
        10.56,
        10.58
    ]
}