{
    "DU": 136,
    "DV": 209,
    "F-measure": 0.5590682196339434,
    "F-measure Chroma": 0.778702163061564,
    "FN": 76,
    "FNC": 24,
    "FNCch": 60,
    "FNI": 52,
    "FNIch": 16,
    "FP": 13,
    "GU": 73,
    "GV": 272,
    "Overall Accuracy": 0.48695652173913045,
    "Overall Chroma Accuracy": 0.6782608695652174,
    "Precision": 0.6245353159851301,
    "Precision Chroma": 0.8698884758364313,
    "Raw Chroma Accuracy": 0.8602941176470589,
    "Raw Pitch Accuracy": 0.4852941176470588,
    "Recall": 0.5060240963855421,
    "Recall Chroma": 0.7048192771084337,
    "TN": 60,
    "TO": 345,
    "TP": 196,
    "TPC": 108,
    "TPCch": 174,
    "TPI": 88,
    "TPIch": 22,
    "Voiced Chroma Accuracy": 0.6397058823529411,
    "Voiced Pitch Accuracy": 0.39705882352941174,
    "Voicing Accuracy": 0.7420289855072464,
    "Voicing Detection": 0.7205882352941176,
    "Voicing False Alarm": 0.1780821917808219
}