{
    "f0": [
        45.351899764547831,
        47.429491389662672,
        48.471947181616656,
        37.388122340756411,
        37.616132186185553,
        38.694774610102023,
        39.710137567153581,
        41.012886627037297,
        41.290551813849319,
        41.206384597652502,
        41.864834144441318,
        43.776082561470346,
        45.273584274684389,
        45.211720572719742,
        44.984693218228735,
        51.753415109643015,
        51.575483148050026,
        51.307107242206698,
        51.251829687699583,
        52.247943959394775,
        53.030049859250397,
        52.18027071399726,
        52.109880980896847,
        51.803043112774077,
        51.954128076105221,
        54.146878411361385,
        54.859874774663339,
        54.916374424261022,
        54.581941914099886,
        54.238996356521923,
        53.540345380160247,
        53.464292785766446,
        53.025492876881316,
        52.934473040795496,
        53.006179406976862,
        52.990500199746293,
        52.628668484487577,
        53.115778351383419,
        53.423516972426697,
        53.457905475646072,
        53.452469356992694,
        53.271429075861739,
        53.177430732367313,
        53.210517613632533,
        53.243540012081397,
        53.379374259878105,
        53.635448566315901,
        52.940118217227656,
        48.924187006503409,
        46.32298329674407,
        44.084713136492411,
        0.0,
        0.0,
        47.454462908361776,
        42.499199596065822,
        44.785062305246164,
        45.127890378745533,
        39.247621600156002,
        44.646772845614954,
        49.773293174515061,
        41.28110848648506,
        45.204125192684785,
        44.806522830258686,
        44.461155743086799,
        43.727602931057802,
        42.817864212796849,
        44.296254640313677,
        43.343378814481866,
        55.535789044795123,
        38.387338558701082,
        45.101911041252663,
        53.279481481167821,
        53.967087204560208,
        43.226443517002544,
        36.542664236833375,
        42.352126079352942,
        57.196513329978004,
        57.154937599835286,
        57.28552466969883,
        57.045740969902482,
        57.150720796660146,
        54.621364071694906,
        54.734295661953666,
        56.307606006953151,
        57.265150380110981,
        57.396031431070803,
        57.208889042360312,
        57.279787060320544,
        57.290055999859931,
        57.156503673037804,
        56.883910835374635,
        56.149887661383119,
        56.135473913881398,
        56.091589717925203,
        56.057927984123488,
        56.217423399050176,
        56.131967060426774,
        55.685886774200654,
        55.413870670427066,
        55.137512171313212,
        55.199501619946233,
        55.245586352468727,
        54.411364322892112,
        52.857346904749662,
        51.699383475347815,
        53.220240038814843,
        53.736363399308793,
        53.228223719292373,
        52.852547441917949,
        52.405911832941712,
        52.491361452505288,
        53.086816852190225,
        53.417479380519353,
        52.800595707806124,
        53.245677529019261,
        53.809549358496213,
        52.071702497852826,
        53.473008228359582,
        54.941595249544307,
        55.04537821554554,
        54.719060115699577,
        54.710288104538598,
        54.883108759521235,
        55.054222588507329,
        55.049665858363795,
        55.045103964065248,
        55.552274635944038,
        55.59394241610638,
        56.034232358364406,
        55.836159786614076,
        55.649764558749226,
        55.533277371210325,
        55.614228883761548,
        55.888192477492538,
        56.235224468657037,
        55.830842129512391,
        54.933817477962513,
        55.253259900017234,
        55.334314663208445,
        53.310388916446655,
        53.289742478951794,
        53.859558861671758,
        37.355316016410171,
        60.667912596333444,
        60.883718275497202,
        60.88070144738564,
        60.290728891238984,
        60.329271763140021,
        60.135352915723487,
        59.961615828422339,
        59.947082136854185,
        59.852178489985,
        59.969460659242316,
        60.439368436184836,
        60.018936773093174,
        59.957427868777863,
        60.183904274404746,
        60.32044847198501,
        60.149383026153608,
        60.454484293900364,
        60.149208847504582,
        59.891654192218866,
        59.775488886567715,
        59.585558329962055,
        59.430457701568336,
        60.606925618870079,
        0.0,
        51.864098111016247,
        38.678192025529519,
        38.491826927344754,
        37.323463335475068,
        41.370405703465643,
        39.722425730390945,
        39.568382429191075,
        37.703762998890667,
        38.324892706488868,
        40.047554451846679,
        39.425491744804724,
        47.868735347841252,
        0.0,
        52.097536581593772,
        50.79916623177121,
        40.669752593881114,
        39.445419287916266,
        44.149112110450773,
        42.08486099310413,
        42.117164805199238,
        43.475228897993127,
        42.222032792901643,
        42.9853102614682,
        43.797254656522988,
        44.006864070389327,
        43.058941854466596,
        43.042596647769223,
        38.931494910719778,
        36.848789526223854,
        56.343242122092903,
        58.717668456852905,
        59.064446655406783,
        59.404419009932163,
        59.563845741454266,
        56.796537674433473,
        59.467487647110872,
        59.747586571530121,
        60.526354024569272,
        60.144445251440722,
        59.435864154981459,
        59.375463716637611,
        58.08976782196774,
        53.771806482882411,
        44.188118655708593,
        44.686651232042692,
        60.174590723955575,
        60.630249537389567,
        60.404256551231242,
        60.333283566595902,
        60.525703697175118,
        60.603998644411774,
        60.605410531910103,
        60.645121878063108,
        60.575541718250349,
        60.255642232908173,
        60.351646804216017,
        60.39048681277265,
        60.464747486011206,
        60.476153958583069,
        60.492038587679737,
        60.538242730431932,
        60.63901956792683,
        60.712045759172035,
        60.798298250693541,
        60.884123149734585,
        60.795528845709455,
        60.795960877531428,
        60.843312416499515,
        60.890534858793799,
        60.923497815112931,
        60.963457366087894,
        60.851940618548454,
        60.822482875370937,
        60.866191584446057,
        60.848814413639239,
        60.846145396814279,
        61.008372378045934,
        60.959359725423454,
        61.07884516861504,
        61.164183164317279,
        61.204226508980163,
        61.11887792081491,
        61.061623301202232,
        61.162140138780956,
        61.132973340480085,
        61.120367651258697,
        61.099436904943552,
        61.082647153273214,
        61.063752274776519,
        61.044836689371451,
        60.95104490716291,
        61.066680383720936,
        61.21877588782219,
        61.33674265377266,
        61.327243730345515,
        61.399029638615701,
        61.392747680302442,
        61.471409449419738,
        61.549719171882252,
        61.627681748081287,
        61.705293010237007,
        61.797070026512749,
        61.881149391915962,
        61.794421281557021,
        61.389432502757927,
        61.310493817939147,
        60.889364721439172,
        59.927084016420437,
        58.664265324774043,
        55.82830478267789,
        53.857995418812251,
        53.364854665196958,
        51.460526111721535,
        51.133346181972421,
        50.578549608851972,
        43.344402678793557,
        45.10537005216618,
        59.244333294241841,
        35.60479240427216,
        59.927130665307885,
        60.110770216162564,
        60.340647004639735,
        60.858281573890409,
        61.220272155958703,
        61.816138116884694,
        62.275895520719658,
        75.072028516656587,
        75.377900094251544,
        76.021293404710264,
        76.282445587206922,
        76.367836811092587,
        76.452808944099246,
        46.063273954745156,
        44.458198580592367,
        41.329226664947491,
        41.176825717415007,
        41.023071256869542,
        65.091903946402269,
        64.512309584718864,
        64.27763070454418,
        64.198500935605011,
        63.86544371491938,
        62.599131653413544,
        63.11901529929375,
        62.844275301038458,
        62.926103361817425,
        63.132045219976021,
        61.913564568283135,
        60.687197678642164,
        49.226521078589613,
        0.0,
        0.0,
        0.0,
        0.0,
        0.0,
        41.600151581654053,
        37.219775284949733,
        61.406869593968928,
        61.579131087386187,
        61.749695475179138,
        61.391275588037416,
        61.863115690829297,
        61.931240536540919,
        62.054674184152546,
        62.247859399417109,
        62.404024337717608,
        62.402092680589426,
        62.281468613019101,
        62.22443663611152,
        62.477754663523214,
        62.686068557890209,
        62.912349141752124,
        63.050921249917948,
        63.188396353115152,
        63.15079320107322,
        62.958209851612885,
        63.014227783650512,
        63.096908247462146,
        63.185061769489351,
        63.272768746322825,
        63.401604407395311,
        63.490843659102687,
        63.249103136512844,
        63.017924561939751,
        63.071039228838572,
        62.934791836584488,
        62.760085556348834,
        62.686571767465431,
        62.620022456758335,
        62.65682227168638,
        62.69447212686535,
        62.903845792860295,
        63.026048218263639,
        62.839730636149142,
        63.087297217977273,
        63.330920300048895,
        63.39738961159501,
        63.252129223466241,
        63.319452944689282,
        63.32273012268957,
        63.357922869540914,
        63.261901764453555,
        63.170136377264683,
        63.144691550170137,
        63.119209215204535,
        63.101644191004965,
        63.184341009426056,
        63.219078192744249,
        63.103497750350392,
        63.066550274588842,
        63.252676457870599,
        63.324550114703314,
        63.194920925308118,
        63.251217109403527,
        63.428662766099393,
        63.37036873003354,
        63.353772278456731,
        63.488464954198356,
        63.252075645222881,
        63.250099057000597,
        63.241348047153366,
        63.232594368469037,
        63.049842674561056,
        63.125549162902864,
        63.003918799273762,
        63.076664823098781,
        63.149106393403898,
        62.951547730454266,
        62.82312341575502,
        62.749431169229091,
        62.819741729985225,
        62.889767893287861,
        62.758694284945008,
        62.816419444919383,
        62.821181290073369,
        62.502586868950559,
        61.991689566167572,
        61.904386013750241,
        61.242294182991685,
        45.281100935723984,
        0.0,
        0.0,
        0.0,
        0.0,
        0.0,
        0.0,
        0.0,
        0.0,
        0.0,
        0.0,
        0.0,
        0.0,
        0.0,
        0.0,
        0.0,
        0.0,
        0.0,
        0.0,
        0.0,
        0.0,
        0.0,
        0.0,
        0.0,
        0.0,
        0.0,
        0.0,
        0.0,
        0.0,
        0.0,
        0.0,
        0.0,
        0.0,
        0.0,
        0.0,
        0.0,
        0.0,
        0.0,
        0.0,
        0.0,
        0.0,
        0.0,
        0.0,
        0.0,
        0.0,
        0.0,
        0.0,
        0.0,
        0.0,
        0.0,
        0.0,
        0.0,
        0.0,
        0.0,
        0.0,
        0.0,
        0.0,
        0.0,
        0.0,
        0.0,
        0.0,
        0.0,
        0.0,
        0.0,
        0.0,
        0.0,
        0.0,
        0.0,
        0.0,
        0.0,
        0.0,
        0.0,
        0.0,
        0.0,
        0.0,
        0.0,
        0.0,
        0.0,
        0.0,
        0.0,
        0.0,
        0.0,
        0.0,
        0.0,
        0.0,
        0.0,
        0.0,
        0.0,
        0.0,
        0.0,
        0.0,
        0.0,
        0.0,
        0.0,
        0.0,
        0.0,
        0.0,
        0.0,
        0.0,
        0.0,
        0.0,
        0.0,
        0.0,
        0.0,
        0.0,
        0.0,
        0.0,
        0.0,
        0.0,
        0.0,
        0.0,
        0.0,
        0.0,
        0.0,
        0.0,
        0.0,
        0.0,
        0.0,
        0.0,
        0.0,
        0.0,
        0.0,
        0.0,
        0.0,
        0.0,
        0.0,
        0.0,
        0.0,
        0.0,
        0.0,
        0.0,
        0.0,
        0.0,
        0.0,
        0.0,
        0.0,
        0.0,
        0.0,
        0.0,
        0.0,
        0.0,
        0.0,
        0.0,
        0.0,
        0.0,
        0.0
    ],
    "time": [
        0.02,
        0.040000000000000001,
        0.059999999999999998,
        0.080000000000000002,
        0.10000000000000001,
        0.12,
        0.14000000000000001,
        0.16,
        0.17999999999999999,
        0.20000000000000001,
        0.22,
        0.23999999999999999,
        0.26000000000000001,
        0.28000000000000003,
        0.29999999999999999,
        0.32000000000000001,
        0.34000000000000002,
        0.35999999999999999,
        0.38,
        0.40000000000000002,
        0.41999999999999998,
        0.44,
        0.46000000000000002,
        0.47999999999999998,
        0.5,
        0.52000000000000002,
        0.54000000000000004,
        0.56000000000000005,
        0.57999999999999996,
        0.59999999999999998,
        0.62,
        0.64000000000000001,
        0.66000000000000003,
        0.68000000000000005,
        0.69999999999999996,
        0.71999999999999997,
        0.73999999999999999,
        0.76000000000000001,
        0.78000000000000003,
        0.80000000000000004,
        0.81999999999999995,
        0.83999999999999997,
        0.85999999999999999,
        0.88,
        0.90000000000000002,
        0.92000000000000004,
        0.93999999999999995,
        0.95999999999999996,
        0.97999999999999998,
        1.0,
        1.02,
        1.04,
        1.0600000000000001,
        1.0800000000000001,
        1.1000000000000001,
        1.1200000000000001,
        1.1399999999999999,
        1.1599999999999999,
        1.1799999999999999,
        1.2,
        1.22,
        1.24,
        1.26,
        1.28,
        1.3,
        1.3200000000000001,
        1.3400000000000001,
        1.3600000000000001,
        1.3799999999999999,
        1.3999999999999999,
        1.4199999999999999,
        1.4399999999999999,
        1.46,
        1.48,
        1.5,
        1.52,
        1.54,
        1.5600000000000001,
        1.5800000000000001,
        1.6000000000000001,
        1.6200000000000001,
        1.6399999999999999,
        1.6599999999999999,
        1.6799999999999999,
        1.7,
        1.72,
        1.74,
        1.76,
        1.78,
        1.8,
        1.8200000000000001,
        1.8400000000000001,
        1.8600000000000001,
        1.8799999999999999,
        1.8999999999999999,
        1.9199999999999999,
        1.9399999999999999,
        1.96,
        1.98,
        2.0,
        2.02,
        2.04,
        2.0600000000000001,
        2.0800000000000001,
        2.1000000000000001,
        2.1200000000000001,
        2.1400000000000001,
        2.1600000000000001,
        2.1800000000000002,
        2.2000000000000002,
        2.2200000000000002,
        2.2400000000000002,
        2.2599999999999998,
        2.2799999999999998,
        2.2999999999999998,
        2.3199999999999998,
        2.3399999999999999,
        2.3599999999999999,
        2.3799999999999999,
        2.3999999999999999,
        2.4199999999999999,
        2.4399999999999999,
        2.46,
        2.48,
        2.5,
        2.52,
        2.54,
        2.5600000000000001,
        2.5800000000000001,
        2.6000000000000001,
        2.6200000000000001,
        2.6400000000000001,
        2.6600000000000001,
        2.6800000000000002,
        2.7000000000000002,
        2.7200000000000002,
        2.7400000000000002,
        2.7599999999999998,
        2.7799999999999998,
        2.7999999999999998,
        2.8199999999999998,
        2.8399999999999999,
        2.8599999999999999,
        2.8799999999999999,
        2.8999999999999999,
        2.9199999999999999,
        2.9399999999999999,
        2.96,
        2.98,
        3.0,
        3.02,
        3.04,
        3.0600000000000001,
        3.0800000000000001,
        3.1000000000000001,
        3.1200000000000001,
        3.1400000000000001,
        3.1600000000000001,
        3.1800000000000002,
        3.2000000000000002,
        3.2200000000000002,
        3.2400000000000002,
        3.2599999999999998,
        3.2799999999999998,
        3.2999999999999998,
        3.3199999999999998,
        3.3399999999999999,
        3.3599999999999999,
        3.3799999999999999,
        3.3999999999999999,
        3.4199999999999999,
        3.4399999999999999,
        3.46,
        3.48,
        3.5,
        3.52,
        3.54,
        3.5600000000000001,
        3.5800000000000001,
        3.6000000000000001,
        3.6200000000000001,
        3.6400000000000001,
        3.6600000000000001,
        3.6800000000000002,
        3.7000000000000002,
        3.7200000000000002,
        3.7400000000000002,
        3.7599999999999998,
        3.7799999999999998,
        3.7999999999999998,
        3.8199999999999998,
        3.8399999999999999,
        3.8599999999999999,
        3.8799999999999999,
        3.8999999999999999,
        3.9199999999999999,
        3.9399999999999999,
        3.96,
        3.98,
        4.0,
        4.0199999999999996,
        4.04,
        4.0599999999999996,
        4.0800000000000001,
        4.0999999999999996,
        4.1200000000000001,
        4.1399999999999997,
        4.1600000000000001,
        4.1799999999999997,
        4.2000000000000002,
        4.2199999999999998,
        4.2400000000000002,
        4.2599999999999998,
        4.2800000000000002,
        4.2999999999999998,
        4.3200000000000003,
        4.3399999999999999,
        4.3600000000000003,
        4.3799999999999999,
        4.4000000000000004,
        4.4199999999999999,
        4.4400000000000004,
        4.46,
        4.4800000000000004,
        4.5,
        4.5199999999999996,
        4.54,
        4.5599999999999996,
        4.5800000000000001,
        4.5999999999999996,
        4.6200000000000001,
        4.6399999999999997,
        4.6600000000000001,
        4.6799999999999997,
        4.7000000000000002,
        4.7199999999999998,
        4.7400000000000002,
        4.7599999999999998,
        4.7800000000000002,
        4.7999999999999998,
        4.8200000000000003,
        4.8399999999999999,
        4.8600000000000003,
        4.8799999999999999,
        4.9000000000000004,
        4.9199999999999999,
        4.9400000000000004,
        4.96,
        4.9800000000000004,
        5.0,
        5.0199999999999996,
        5.04,
        5.0599999999999996,
        5.0800000000000001,
        5.0999999999999996,
        5.1200000000000001,
        5.1399999999999997,
        5.1600000000000001,
        5.1799999999999997,
        5.2000000000000002,
        5.2199999999999998,
        5.2400000000000002,
        5.2599999999999998,
        5.2800000000000002,
        5.2999999999999998,
        5.3200000000000003,
        5.3399999999999999,
        5.3600000000000003,
        5.3799999999999999,
        5.4000000000000004,
        5.4199999999999999,
        5.4400000000000004,
        5.46,
        5.4800000000000004,
        5.5,
        5.5199999999999996,
        5.54,
        5.5599999999999996,
        5.5800000000000001,
        5.5999999999999996,
        5.6200000000000001,
        5.6399999999999997,
        5.6600000000000001,
        5.6799999999999997,
        5.7000000000000002,
        5.7199999999999998,
        5.7400000000000002,
        5.7599999999999998,
        5.7800000000000002,
        5.7999999999999998,
        5.8200000000000003,
        5.8399999999999999,
        5.8600000000000003,
        5.8799999999999999,
        5.9000000000000004,
        5.9199999999999999,
        5.9400000000000004,
        5.96,
        5.9800000000000004,
        6.0,
        6.0199999999999996,
        6.04,
        6.0599999999999996,
        6.0800000000000001,
        6.0999999999999996,
        6.1200000000000001,
        6.1399999999999997,
        6.1600000000000001,
        6.1799999999999997,
        6.2000000000000002,
        6.2199999999999998,
        6.2400000000000002,
        6.2599999999999998,
        6.2800000000000002,
        6.2999999999999998,
        6.3200000000000003,
        6.3399999999999999,
        6.3600000000000003,
        6.3799999999999999,
        6.4000000000000004,
        6.4199999999999999,
        6.4400000000000004,
        6.46,
        6.4800000000000004,
        6.5,
        6.5199999999999996,
        6.54,
        6.5599999999999996,
        6.5800000000000001,
        6.5999999999999996,
        6.6200000000000001,
        6.6399999999999997,
        6.6600000000000001,
        6.6799999999999997,
        6.7000000000000002,
        6.7199999999999998,
        6.7400000000000002,
        6.7599999999999998,
        6.7800000000000002,
        6.7999999999999998,
        6.8200000000000003,
        6.8399999999999999,
        6.8600000000000003,
        6.8799999999999999,
        6.9000000000000004,
        6.9199999999999999,
        6.9400000000000004,
        6.96,
        6.9800000000000004,
        7.0,
        7.0199999999999996,
        7.04,
        7.0599999999999996,
        7.0800000000000001,
        7.0999999999999996,
        7.1200000000000001,
        7.1399999999999997,
        7.1600000000000001,
        7.1799999999999997,
        7.2000000000000002,
        7.2199999999999998,
        7.2400000000000002,
        7.2599999999999998,
        7.2800000000000002,
        7.2999999999999998,
        7.3200000000000003,
        7.3399999999999999,
        7.3600000000000003,
        7.3799999999999999,
        7.4000000000000004,
        7.4199999999999999,
        7.4400000000000004,
        7.46,
        7.4800000000000004,
        7.5,
        7.5199999999999996,
        7.54,
        7.5599999999999996,
        7.5800000000000001,
        7.5999999999999996,
        7.6200000000000001,
        7.6399999999999997,
        7.6600000000000001,
        7.6799999999999997,
        7.7000000000000002,
        7.7199999999999998,
        7.7400000000000002,
        7.7599999999999998,
        7.7800000000000002,
        7.7999999999999998,
        7.8200000000000003,
        7.8399999999999999,
        7.8600000000000003,
        7.8799999999999999,
        7.9000000000000004,
        7.9199999999999999,
        7.9400000000000004,
        7.96,
        7.9800000000000004,
        8.0,
        8.0199999999999996,
        8.0399999999999991,
        8.0600000000000005,
        8.0800000000000001,
        8.0999999999999996,
        8.1199999999999992,
        8.1400000000000006,
        8.1600000000000001,
        8.1799999999999997,
        8.1999999999999993,
        8.2200000000000006,
        8.2400000000000002,
        8.2599999999999998,
        8.2799999999999994,
        8.3000000000000007,
        8.3200000000000003,
        8.3399999999999999,
        8.3599999999999994,
        8.3800000000000008,
        8.4000000000000004,
        8.4199999999999999,
        8.4399999999999995,
        8.4600000000000009,
        8.4800000000000004,
        8.5,
        8.5199999999999996,
        8.5399999999999991,
        8.5600000000000005,
        8.5800000000000001,
        8.5999999999999996,
        8.6199999999999992,
        8.6400000000000006,
        8.6600000000000001,
        8.6799999999999997,
        8.6999999999999993,
        8.7200000000000006,
        8.7400000000000002,
        8.7599999999999998,
        8.7799999999999994,
        8.8000000000000007,
        8.8200000000000003,
        8.8399999999999999,
        8.8599999999999994,
        8.8800000000000008,
        8.9000000000000004,
        8.9199999999999999,
        8.9399999999999995,
        8.9600000000000009,
        8.9800000000000004,
        9.0,
        9.0199999999999996,
        9.0399999999999991,
        9.0600000000000005,
        9.0800000000000001,
        9.0999999999999996,
        9.1199999999999992,
        9.1400000000000006,
        9.1600000000000001,
        9.1799999999999997,
        9.1999999999999993,
        9.2200000000000006,
        9.2400000000000002,
        9.2599999999999998,
        9.2799999999999994,
        9.3000000000000007,
        9.3200000000000003,
        9.3399999999999999,
        9.3599999999999994,
        9.3800000000000008,
        9.4000000000000004,
        9.4199999999999999,
        9.4399999999999995,
        9.4600000000000009,
        9.4800000000000004,
        9.5,
        9.5199999999999996,
        9.5399999999999991,
        9.5600000000000005,
        9.5800000000000001,
        9.5999999999999996,
        9.6199999999999992,
        9.6400000000000006,
        9.6600000000000001,
        9.6799999999999997,
        9.6999999999999993,
        9.7200000000000006,
        9.7400000000000002,
        9.7599999999999998,
        9.7799999999999994,
        9.8000000000000007,
        9.8200000000000003,
        9.8399999999999999,
        9.8599999999999994,
        9.8800000000000008,
        9.9000000000000004,
        9.9199999999999999,
        9.9399999999999995,
        9.9600000000000009,
        9.9800000000000004,
        10.0,
        10.02,
        10.039999999999999,
        10.06,
        10.08,
        10.1,
        10.119999999999999,
        10.140000000000001,
        10.16,
        10.18,
        10.199999999999999,
        10.220000000000001,
        10.24,
        10.26,
        10.279999999999999,
        10.300000000000001,
        10.32,
        10.34,
        10.359999999999999,
        10.380000000000001,
        10.4,
        10.42,
        10.44,
        10.460000000000001,
        10.48,
        10.5,
        10.52,
        10.539999999999999,
        10.56,
        10.58,
        10.6,
        10.619999999999999,
        10.640000000000001,
        10.66,
        10.68,
        10.699999999999999,
        10.720000000000001,
        10.74,
        10.76,
        10.779999999999999,
        10.800000000000001,
        10.82,
        10.84,
        10.859999999999999,
        10.880000000000001,
        10.9,
        10.92,
        10.94,
        10.960000000000001,
        10.98,
        11.0,
        11.02,
        11.039999999999999
    ]
}