{
    "DU": 98,
    "DV": 400,
    "F-measure": 0.5821389195148842,
    "F-measure Chroma": 0.7805953693495038,
    "FN": 7,
    "FNC": 0,
    "FNCch": 3,
    "FNI": 7,
    "FNIch": 4,
    "FP": 82,
    "GU": 173,
    "GV": 325,
    "Overall Accuracy": 0.5301204819277109,
    "Overall Chroma Accuracy": 0.7108433734939759,
    "Precision": 0.5376782077393075,
    "Precision Chroma": 0.7209775967413442,
    "Raw Chroma Accuracy": 0.8184615384615385,
    "Raw Pitch Accuracy": 0.5323076923076923,
    "Recall": 0.6346153846153846,
    "Recall Chroma": 0.8509615384615384,
    "TN": 91,
    "TO": 498,
    "TP": 318,
    "TPC": 173,
    "TPCch": 263,
    "TPI": 145,
    "TPIch": 55,
    "Voiced Chroma Accuracy": 0.8092307692307692,
    "Voiced Pitch Accuracy": 0.5323076923076923,
    "Voicing Accuracy": 0.821285140562249,
    "Voicing Detection": 0.9784615384615385,
    "Voicing False Alarm": 0.47398843930635837
}