{
    "f0": [
        0.0,
        0.0,
        0.0,
        0.0,
        0.0,
        0.0,
        0.0,
        37.34526114305325,
        38.995944430530841,
        60.946229225923943,
        60.239509288137143,
        60.065513926395312,
        59.88975001425613,
        59.231184966180393,
        60.444014237002889,
        60.432887893134556,
        60.421754393957286,
        60.30173657752227,
        60.235786414470311,
        60.347160216180264,
        60.719364143854889,
        61.077786367715916,
        61.428938339743453,
        61.672072639854143,
        62.134003521088346,
        62.126298591040687,
        61.993615425869493,
        62.019354447293544,
        62.216070011289339,
        62.152242475665687,
        61.906187771223799,
        61.575145268980251,
        61.622048623693011,
        61.668825188945291,
        61.887743734006087,
        61.845081327247115,
        61.855036987508441,
        61.861869831512436,
        61.754066469382877,
        61.816774561854771,
        61.879258056604094,
        61.941524123139516,
        61.869501228630753,
        61.894064084554827,
        61.849983667769742,
        61.805792516068131,
        61.887627849952558,
        62.024081886869737,
        61.604884084729818,
        61.638911380174839,
        61.672870184119219,
        61.000041098920519,
        57.990589243547142,
        56.485880119582575,
        54.702428968307572,
        47.45176180486753,
        45.580964729250688,
        46.263758564711168,
        46.629737744257412,
        47.975900700711897,
        49.781167832734866,
        50.120373404511994,
        50.212574678003847,
        49.717587918321968,
        61.776799974055052,
        61.672747325645261,
        61.982858560548642,
        62.000784176355779,
        62.05274258643157,
        61.913582638853342,
        62.50314783666817,
        62.762979683608194,
        62.784925619276102,
        62.635665408966389,
        62.232477911402214,
        62.013430239822092,
        61.930758271371495,
        61.950159786370115,
        61.904838308306473,
        61.926222084058111,
        61.399674096420881,
        61.448588791724319,
        61.347192928098458,
        61.175670229099872,
        61.380415521298474,
        61.652077752856322,
        61.711457141055348,
        62.04689975927618,
        62.02548678114313,
        62.40735294265685,
        62.528441034465708,
        62.424784938701968,
        61.624966534424196,
        61.66665010712272,
        61.708229900500164,
        61.92197381757893,
        61.874248026236081,
        61.856065652740064,
        62.062733767633603,
        62.11277673349997,
        62.162679024731126,
        61.751889333238495,
        61.331114967569349,
        61.072117519901028,
        61.064783435296555,
        61.774736843343398,
        61.69726485100454,
        61.705734046251415,
        61.723928693647935,
        62.080080891151027,
        62.090265738734821,
        45.763128684124943,
        37.043138896593092,
        48.572429665243767,
        37.432331490411684,
        50.834696150133254,
        38.034696625701052,
        49.926512953324504,
        40.848412082215454,
        42.223514281081556,
        44.107821488588556,
        43.65070172589968,
        43.888248698395884,
        44.395493577209301,
        0.0,
        0.0,
        0.0,
        0.0,
        39.703536828751126,
        59.409856604638144,
        58.882536629105488,
        61.077473297438438,
        60.370281089061393,
        59.632965976189823,
        57.609310075848747,
        58.998063632311165,
        59.302210072253231,
        59.202365357306384,
        60.180215394729245,
        59.972318939131625,
        59.761895501904419,
        59.721147689696224,
        59.937014071860396,
        59.992254776424694,
        60.096164495794703,
        60.347455125201137,
        60.522365209242402,
        60.381838824292331,
        60.240158512709037,
        60.231130292464151,
        60.155284121071269,
        60.11269034322428,
        60.069993555894705,
        59.956986535554996,
        59.797687674779056,
        59.832176416538275,
        59.93269447091388,
        59.999805101868503,
        60.066656585261327,
        59.95925576936127,
        59.900048790066435,
        59.988405639802352,
        59.853394376707435,
        60.006887797997997,
        60.001069223747528,
        59.958648524744511,
        59.992555793463538,
        60.157211383295085,
        60.081654981760643,
        59.903714536783248,
        60.620226264171642,
        60.589399323970248,
        60.568154393363976,
        60.192302160722704,
        60.333111228378513,
        60.188015817640569,
        59.883198628409382,
        58.76577382683444,
        61.604295051413928,
        61.907325480092197,
        62.580607905726232,
        62.776421328330478,
        63.021145660203956,
        63.237278305068273,
        63.113433801166337,
        63.046679409211414,
        64.13810244740371,
        64.355763003857447,
        62.955426450519653,
        62.866544548801926,
        61.182959414186193,
        59.514696903097651,
        59.183961454337606,
        59.982530242914798,
        60.172029621371507,
        60.359477129861439,
        60.370923485082187,
        60.295521887431583,
        60.219792476513135,
        60.143726277553355,
        60.115346545941804,
        60.235146948403191,
        60.171861632610558,
        60.274843229554349,
        60.277258015602925,
        60.329715588420278,
        60.298469738481984,
        60.277776695757204,
        60.240714197757114,
        60.179232145768033,
        60.117528934081008,
        60.155506309167848,
        60.129962107203141,
        60.099931525676709,
        60.072077155579997,
        60.068346242665946,
        60.101128163024313,
        60.182819287392576,
        60.16203145208928,
        59.976034090400304,
        59.697714122444253,
        58.754076559047029,
        57.756024269053029,
        57.208625705624357,
        39.595058455218165,
        48.273628773381844,
        60.3013059509057,
        60.213973136698897,
        59.598875414456529,
        59.408937208429819,
        58.642174471015096,
        55.432806113521274,
        55.581378129454322,
        56.752146150669191,
        0.0,
        0.0,
        37.467498939208646,
        45.828693442012053,
        61.569939470032296,
        62.248939427873822,
        39.512832941523939,
        46.95011220854591,
        0.0,
        0.0,
        43.000202980338813,
        61.672343959224428,
        50.019834250801722,
        62.656603979081439,
        36.149240927997582,
        41.11084865016575,
        38.767152073220004,
        40.17873847233956,
        42.198777442242928,
        61.164468253011904,
        61.3853971451463,
        61.434244326220231,
        61.739836069709696,
        62.040125217144727,
        62.50755809555092,
        62.705022276345197,
        62.854138653102176,
        62.850869210339859,
        63.070758488554596,
        63.11239792282565,
        63.920691402695518,
        64.265919955392903,
        64.398889995457438,
        64.393078045946424,
        64.522142763799167,
        64.446562102702032,
        64.674801814710733,
        64.550090285070667,
        64.424473858431924,
        64.297934609178654,
        64.373316894090635,
        64.538383753727089,
        64.483376631188904,
        64.292991655526592,
        64.100489701322502,
        63.491893484927282,
        63.249267189257999,
        64.182258143032541,
        64.379080602947852,
        65.926259534168608,
        64.495235703905024,
        65.075472293552892,
        65.337922893668519,
        65.037643138152177,
        64.965577635395732,
        64.893210843698384,
        64.992806859201849,
        64.95481319071348,
        64.420455534751113,
        62.889260307289113,
        62.943567898170926,
        61.728850844883766,
        61.744406752903465,
        61.220383159075837,
        61.357978591871941,
        61.776765337752394,
        62.048387105650242,
        62.033779015397364,
        62.473209000153162,
        62.38749858990905,
        62.480321890444941,
        62.276393098984869,
        61.664390362372743,
        61.584361780022761,
        60.526377582511088,
        0.0,
        0.0,
        0.0,
        40.814906380663196,
        37.229941003053199,
        63.912364812848864,
        64.084629950873051,
        63.943449073716856,
        63.802636247828538,
        63.660670305457806,
        63.689794490786213,
        64.394014958164846,
        64.399597952860248,
        64.405179147696089,
        64.061003109783712,
        63.739321828550644,
        63.739364109454165,
        64.00873664953528,
        63.614567348121419,
        63.771038025028233,
        64.64076976503992,
        64.782167806417419,
        64.559690957136453,
        64.334316356278137,
        64.448804971470281,
        63.559937194138882,
        51.772449365490026,
        55.176572559591733,
        39.612803909648321,
        41.80694038774935,
        38.0793557002768,
        39.563856123149748,
        43.033141033425302,
        44.717156014701622,
        45.925481114365411,
        46.320551375904124,
        65.429004938493051,
        65.329560716590223,
        65.315306819445553,
        65.430436426102716,
        65.365716750732517,
        66.446654360784237,
        66.66985512655512,
        67.112848540491456,
        67.086814060799611,
        67.2819934348435,
        66.823176761415141,
        66.351868591017222,
        66.712035461973983,
        67.150127457588852,
        66.829143797988749,
        66.975483105606187,
        66.810429870234856,
        67.045191358519688,
        67.465858432868131,
        67.077771638421282,
        66.297408242120255,
        66.193953219950856,
        65.906791547719749,
        64.098355829061632,
        63.458789775093301,
        61.567670813177983,
        60.827564110100511,
        60.521853741373164,
        60.485990032961574,
        60.655474936611228,
        60.823316747859117,
        60.989546894995442,
        61.154196096488711,
        60.967536891444396,
        61.030324885796176,
        60.969436891396967,
        60.987160759509365,
        60.916336028645347,
        60.900542851217509,
        60.928337007253319,
        60.956086612581139,
        61.156053067485445,
        61.194426496644112,
        61.325262887995144,
        61.514618536976201,
        61.672518127677606,
        61.544370871712331,
        61.746274530577864,
        61.836040759118319,
        61.92534394063901,
        61.307466210901865,
        61.479711772794928,
        61.563512589938057,
        61.69012863031336,
        61.620391742913291,
        61.796578521463935,
        61.711947412203187,
        61.882274264748943,
        61.977880196818631,
        61.88237570211831,
        62.755725399021316,
        62.265144314896482,
        61.773497389500719,
        61.772390932358746,
        61.8634837981799,
        61.809214476862678,
        61.986742591607076,
        61.89667046738947,
        61.897591696795928,
        61.898512817884935,
        61.766529305021471,
        61.671564715678244,
        61.899795830073231,
        61.441858426456626,
        61.475207812250872,
        61.766015061844655,
        61.751852852947444,
        62.185327495836738,
        61.930754660842759,
        62.466007335496229,
        62.565494995444681,
        62.517936372908551,
        62.63387553766055,
        62.578652292896258,
        62.22730981337331,
        61.670631439758864,
        61.709854596636148,
        61.855071467568877,
        61.59680179517845,
        61.534537995651398,
        61.472051218535988,
        61.613895255150837,
        61.719897469353548,
        61.668511569511885,
        61.616970945744626,
        61.410062248217059,
        61.279378115141519,
        61.403333666219986,
        61.54052856950949,
        61.495646801383934,
        61.481502629425918,
        61.504768743164718,
        61.470943864738111,
        61.437051003679912,
        61.515517762396414,
        61.471845361482167,
        61.364394513483575,
        61.357931911457349,
        61.300701372263632,
        61.235375913338991,
        61.169801169433185,
        61.276238104469961,
        61.574933263151394,
        61.424240748815102,
        61.768268810848525,
        61.43366620938535,
        61.182159682340348,
        60.881496045912371,
        61.443341078558028,
        51.808510399006401,
        52.86571768493846,
        48.980664564735036,
        49.86387911120768,
        49.776464655902799,
        49.394180512978394,
        49.154462469143901,
        48.307556139486174,
        45.782307111746974,
        0.0,
        0.0,
        0.0,
        0.0,
        0.0,
        0.0,
        0.0,
        0.0,
        0.0,
        0.0,
        0.0,
        0.0,
        0.0,
        0.0,
        0.0,
        0.0,
        0.0,
        0.0,
        0.0,
        0.0,
        0.0,
        0.0,
        0.0,
        0.0,
        0.0,
        0.0,
        0.0,
        0.0,
        0.0,
        0.0,
        0.0,
        0.0,
        0.0,
        0.0,
        0.0,
        0.0,
        0.0,
        0.0
    ],
    "time": [
        0.02,
        0.040000000000000001,
        0.059999999999999998,
        0.080000000000000002,
        0.10000000000000001,
        0.12,
        0.14000000000000001,
        0.16,
        0.17999999999999999,
        0.20000000000000001,
        0.22,
        0.23999999999999999,
        0.26000000000000001,
        0.28000000000000003,
        0.29999999999999999,
        0.32000000000000001,
        0.34000000000000002,
        0.35999999999999999,
        0.38,
        0.40000000000000002,
        0.41999999999999998,
        0.44,
        0.46000000000000002,
        0.47999999999999998,
        0.5,
        0.52000000000000002,
        0.54000000000000004,
        0.56000000000000005,
        0.57999999999999996,
        0.59999999999999998,
        0.62,
        0.64000000000000001,
        0.66000000000000003,
        0.68000000000000005,
        0.69999999999999996,
        0.71999999999999997,
        0.73999999999999999,
        0.76000000000000001,
        0.78000000000000003,
        0.80000000000000004,
        0.81999999999999995,
        0.83999999999999997,
        0.85999999999999999,
        0.88,
        0.90000000000000002,
        0.92000000000000004,
        0.93999999999999995,
        0.95999999999999996,
        0.97999999999999998,
        1.0,
        1.02,
        1.04,
        1.0600000000000001,
        1.0800000000000001,
        1.1000000000000001,
        1.1200000000000001,
        1.1399999999999999,
        1.1599999999999999,
        1.1799999999999999,
        1.2,
        1.22,
        1.24,
        1.26,
        1.28,
        1.3,
        1.3200000000000001,
        1.3400000000000001,
        1.3600000000000001,
        1.3799999999999999,
        1.3999999999999999,
        1.4199999999999999,
        1.4399999999999999,
        1.46,
        1.48,
        1.5,
        1.52,
        1.54,
        1.5600000000000001,
        1.5800000000000001,
        1.6000000000000001,
        1.6200000000000001,
        1.6399999999999999,
        1.6599999999999999,
        1.6799999999999999,
        1.7,
        1.72,
        1.74,
        1.76,
        1.78,
        1.8,
        1.8200000000000001,
        1.8400000000000001,
        1.8600000000000001,
        1.8799999999999999,
        1.8999999999999999,
        1.9199999999999999,
        1.9399999999999999,
        1.96,
        1.98,
        2.0,
        2.02,
        2.04,
        2.0600000000000001,
        2.0800000000000001,
        2.1000000000000001,
        2.1200000000000001,
        2.1400000000000001,
        2.1600000000000001,
        2.1800000000000002,
        2.2000000000000002,
        2.2200000000000002,
        2.2400000000000002,
        2.2599999999999998,
        2.2799999999999998,
        2.2999999999999998,
        2.3199999999999998,
        2.3399999999999999,
        2.3599999999999999,
        2.3799999999999999,
        2.3999999999999999,
        2.4199999999999999,
        2.4399999999999999,
        2.46,
        2.48,
        2.5,
        2.52,
        2.54,
        2.5600000000000001,
        2.5800000000000001,
        2.6000000000000001,
        2.6200000000000001,
        2.6400000000000001,
        2.6600000000000001,
        2.6800000000000002,
        2.7000000000000002,
        2.7200000000000002,
        2.7400000000000002,
        2.7599999999999998,
        2.7799999999999998,
        2.7999999999999998,
        2.8199999999999998,
        2.8399999999999999,
        2.8599999999999999,
        2.8799999999999999,
        2.8999999999999999,
        2.9199999999999999,
        2.9399999999999999,
        2.96,
        2.98,
        3.0,
        3.02,
        3.04,
        3.0600000000000001,
        3.0800000000000001,
        3.1000000000000001,
        3.1200000000000001,
        3.1400000000000001,
        3.1600000000000001,
        3.1800000000000002,
        3.2000000000000002,
        3.2200000000000002,
        3.2400000000000002,
        3.2599999999999998,
        3.2799999999999998,
        3.2999999999999998,
        3.3199999999999998,
        3.3399999999999999,
        3.3599999999999999,
        3.3799999999999999,
        3.3999999999999999,
        3.4199999999999999,
        3.4399999999999999,
        3.46,
        3.48,
        3.5,
        3.52,
        3.54,
        3.5600000000000001,
        3.5800000000000001,
        3.6000000000000001,
        3.6200000000000001,
        3.6400000000000001,
        3.6600000000000001,
        3.6800000000000002,
        3.7000000000000002,
        3.7200000000000002,
        3.7400000000000002,
        3.7599999999999998,
        3.7799999999999998,
        3.7999999999999998,
        3.8199999999999998,
        3.8399999999999999,
        3.8599999999999999,
        3.8799999999999999,
        3.8999999999999999,
        3.9199999999999999,
        3.9399999999999999,
        3.96,
        3.98,
        4.0,
        4.0199999999999996,
        4.04,
        4.0599999999999996,
        4.0800000000000001,
        4.0999999999999996,
        4.1200000000000001,
        4.1399999999999997,
        4.1600000000000001,
        4.1799999999999997,
        4.2000000000000002,
        4.2199999999999998,
        4.2400000000000002,
        4.2599999999999998,
        4.2800000000000002,
        4.2999999999999998,
        4.3200000000000003,
        4.3399999999999999,
        4.3600000000000003,
        4.3799999999999999,
        4.4000000000000004,
        4.4199999999999999,
        4.4400000000000004,
        4.46,
        4.4800000000000004,
        4.5,
        4.5199999999999996,
        4.54,
        4.5599999999999996,
        4.5800000000000001,
        4.5999999999999996,
        4.6200000000000001,
        4.6399999999999997,
        4.6600000000000001,
        4.6799999999999997,
        4.7000000000000002,
        4.7199999999999998,
        4.7400000000000002,
        4.7599999999999998,
        4.7800000000000002,
        4.7999999999999998,
        4.8200000000000003,
        4.8399999999999999,
        4.8600000000000003,
        4.8799999999999999,
        4.9000000000000004,
        4.9199999999999999,
        4.9400000000000004,
        4.96,
        4.9800000000000004,
        5.0,
        5.0199999999999996,
        5.04,
        5.0599999999999996,
        5.0800000000000001,
        5.0999999999999996,
        5.1200000000000001,
        5.1399999999999997,
        5.1600000000000001,
        5.1799999999999997,
        5.2000000000000002,
        5.2199999999999998,
        5.2400000000000002,
        5.2599999999999998,
        5.2800000000000002,
        5.2999999999999998,
        5.3200000000000003,
        5.3399999999999999,
        5.3600000000000003,
        5.3799999999999999,
        5.4000000000000004,
        5.4199999999999999,
        5.4400000000000004,
        5.46,
        5.4800000000000004,
        5.5,
        5.5199999999999996,
        5.54,
        5.5599999999999996,
        5.5800000000000001,
        5.5999999999999996,
        5.6200000000000001,
        5.6399999999999997,
        5.6600000000000001,
        5.6799999999999997,
        5.7000000000000002,
        5.7199999999999998,
        5.7400000000000002,
        5.7599999999999998,
        5.7800000000000002,
        5.7999999999999998,
        5.8200000000000003,
        5.8399999999999999,
        5.8600000000000003,
        5.8799999999999999,
        5.9000000000000004,
        5.9199999999999999,
        5.9400000000000004,
        5.96,
        5.9800000000000004,
        6.0,
        6.0199999999999996,
        6.04,
        6.0599999999999996,
        6.0800000000000001,
        6.0999999999999996,
        6.1200000000000001,
        6.1399999999999997,
        6.1600000000000001,
        6.1799999999999997,
        6.2000000000000002,
        6.2199999999999998,
        6.2400000000000002,
        6.2599999999999998,
        6.2800000000000002,
        6.2999999999999998,
        6.3200000000000003,
        6.3399999999999999,
        6.3600000000000003,
        6.3799999999999999,
        6.4000000000000004,
        6.4199999999999999,
        6.4400000000000004,
        6.46,
        6.4800000000000004,
        6.5,
        6.5199999999999996,
        6.54,
        6.5599999999999996,
        6.5800000000000001,
        6.5999999999999996,
        6.6200000000000001,
        6.6399999999999997,
        6.6600000000000001,
        6.6799999999999997,
        6.7000000000000002,
        6.7199999999999998,
        6.7400000000000002,
        6.7599999999999998,
        6.7800000000000002,
        6.7999999999999998,
        6.8200000000000003,
        6.8399999999999999,
        6.8600000000000003,
        6.8799999999999999,
        6.9000000000000004,
        6.9199999999999999,
        6.9400000000000004,
        6.96,
        6.9800000000000004,
        7.0,
        7.0199999999999996,
        7.04,
        7.0599999999999996,
        7.0800000000000001,
        7.0999999999999996,
        7.1200000000000001,
        7.1399999999999997,
        7.1600000000000001,
        7.1799999999999997,
        7.2000000000000002,
        7.2199999999999998,
        7.2400000000000002,
        7.2599999999999998,
        7.2800000000000002,
        7.2999999999999998,
        7.3200000000000003,
        7.3399999999999999,
        7.3600000000000003,
        7.3799999999999999,
        7.4000000000000004,
        7.4199999999999999,
        7.4400000000000004,
        7.46,
        7.4800000000000004,
        7.5,
        7.5199999999999996,
        7.54,
        7.5599999999999996,
        7.5800000000000001,
        7.5999999999999996,
        7.6200000000000001,
        7.6399999999999997,
        7.6600000000000001,
        7.6799999999999997,
        7.7000000000000002,
        7.7199999999999998,
        7.7400000000000002,
        7.7599999999999998,
        7.7800000000000002,
        7.7999999999999998,
        7.8200000000000003,
        7.8399999999999999,
        7.8600000000000003,
        7.8799999999999999,
        7.9000000000000004,
        7.9199999999999999,
        7.9400000000000004,
        7.96,
        7.9800000000000004,
        8.0,
        8.0199999999999996,
        8.0399999999999991,
        8.0600000000000005,
        8.0800000000000001,
        8.0999999999999996,
        8.1199999999999992,
        8.1400000000000006,
        8.1600000000000001,
        8.1799999999999997,
        8.1999999999999993,
        8.2200000000000006,
        8.2400000000000002,
        8.2599999999999998,
        8.2799999999999994,
        8.3000000000000007,
        8.3200000000000003,
        8.3399999999999999,
        8.3599999999999994,
        8.3800000000000008,
        8.4000000000000004,
        8.4199999999999999,
        8.4399999999999995,
        8.4600000000000009,
        8.4800000000000004,
        8.5,
        8.5199999999999996,
        8.5399999999999991,
        8.5600000000000005,
        8.5800000000000001,
        8.5999999999999996,
        8.6199999999999992,
        8.6400000000000006,
        8.6600000000000001,
        8.6799999999999997,
        8.6999999999999993,
        8.7200000000000006,
        8.7400000000000002,
        8.7599999999999998,
        8.7799999999999994,
        8.8000000000000007,
        8.8200000000000003,
        8.8399999999999999,
        8.8599999999999994,
        8.8800000000000008,
        8.9000000000000004,
        8.9199999999999999,
        8.9399999999999995,
        8.9600000000000009,
        8.9800000000000004,
        9.0,
        9.0199999999999996,
        9.0399999999999991,
        9.0600000000000005,
        9.0800000000000001,
        9.0999999999999996,
        9.1199999999999992,
        9.1400000000000006,
        9.1600000000000001,
        9.1799999999999997,
        9.1999999999999993,
        9.2200000000000006,
        9.2400000000000002,
        9.2599999999999998,
        9.2799999999999994,
        9.3000000000000007,
        9.3200000000000003,
        9.3399999999999999,
        9.3599999999999994,
        9.3800000000000008,
        9.4000000000000004,
        9.4199999999999999,
        9.4399999999999995,
        9.4600000000000009,
        9.4800000000000004,
        9.5,
        9.5199999999999996,
        9.5399999999999991,
        9.5600000000000005,
        9.5800000000000001,
        9.5999999999999996,
        9.6199999999999992,
        9.6400000000000006,
        9.6600000000000001,
        9.6799999999999997,
        9.6999999999999993,
        9.7200000000000006,
        9.7400000000000002,
        9.7599999999999998,
        9.7799999999999994,
        9.8000000000000007,
        9.8200000000000003,
        9.8399999999999999,
        9.8599999999999994,
        9.8800000000000008,
        9.9000000000000004,
        9.9199999999999999,
        9.9399999999999995,
        9.9600000000000009,
        9.9800000000000004,
        10.0,
        10.02,
        10.039999999999999,
        10.06,
        10.08,
        10.1,
        10.119999999999999,
        10.140000000000001,
        10.16,
        10.18,
        10.199999999999999,
        10.220000000000001
    ]
}