{
    "DU": 108,
    "DV": 230,
    "F-measure": 0.5993265993265994,
    "F-measure Chroma": 0.7575757575757576,
    "FN": 61,
    "FNC": 9,
    "FNCch": 32,
    "FNI": 52,
    "FNIch": 29,
    "FP": 21,
    "GU": 68,
    "GV": 270,
    "Overall Accuracy": 0.5266272189349113,
    "Overall Chroma Accuracy": 0.665680473372781,
    "Precision": 0.6425992779783394,
    "Precision Chroma": 0.8122743682310469,
    "Raw Chroma Accuracy": 0.7777777777777778,
    "Raw Pitch Accuracy": 0.5185185185185185,
    "Recall": 0.5615141955835962,
    "Recall Chroma": 0.7097791798107256,
    "TN": 47,
    "TO": 338,
    "TP": 209,
    "TPC": 131,
    "TPCch": 178,
    "TPI": 78,
    "TPIch": 31,
    "Voiced Chroma Accuracy": 0.6592592592592592,
    "Voiced Pitch Accuracy": 0.48518518518518516,
    "Voicing Accuracy": 0.757396449704142,
    "Voicing Detection": 0.774074074074074,
    "Voicing False Alarm": 0.3088235294117647
}