{
    "DU": 8,
    "DV": 367,
    "F-measure": 0.4802527646129542,
    "F-measure Chroma": 0.679304897314376,
    "FN": 0,
    "FNC": 0,
    "FNCch": 0,
    "FNI": 0,
    "FNIch": 0,
    "FP": 117,
    "GU": 125,
    "GV": 250,
    "Overall Accuracy": 0.4053333333333333,
    "Overall Chroma Accuracy": 0.5733333333333334,
    "Precision": 0.4053333333333333,
    "Precision Chroma": 0.5733333333333334,
    "Raw Chroma Accuracy": 0.828,
    "Raw Pitch Accuracy": 0.576,
    "Recall": 0.5891472868217055,
    "Recall Chroma": 0.8333333333333334,
    "TN": 8,
    "TO": 375,
    "TP": 250,
    "TPC": 144,
    "TPCch": 207,
    "TPI": 106,
    "TPIch": 43,
    "Voiced Chroma Accuracy": 0.828,
    "Voiced Pitch Accuracy": 0.576,
    "Voicing Accuracy": 0.688,
    "Voicing Detection": 1.0,
    "Voicing False Alarm": 0.936
}